!Agilent N9923A: A.05.34
!Date: Sunday, 13 March 2016 22:19:15
!Model: N9923A
!Serial: MY51491690
!GPS Latitude: 
!GPS Longitude: 
!GPS TimeStamp: 0001-01-01 00:00:00Z
!GPS Seconds Since Last Read: 0
!CHECKSUM:0466397687
!Correction: S11(ON U)S21(ON U)S12(ON U)S22(ON U)
!S2P File: Measurements:S11,S21,S12,S22:
# Hz S DB R 50
2400000000	-16.6700519008844	-176.798630694945	-67.3724124934809	-151.609891652598	-82.8505126870295	-156.718263146659	-19.747019000353	3.60759596720275	
2400333333.33333	-16.7183689961758	-177.718315826575	-65.5433719281189	-158.777583259448	-78.4963183673159	-129.077163505576	-20.0152713209405	2.61388948128241	
2400666666.66667	-16.7674090086882	-178.7357016301	-65.6650575249697	-151.028363428079	-83.2832047243832	-88.5859120596327	-20.2892573269729	1.95979254219005	
2401000000	-16.8246846945844	-179.607630196893	-64.5491956916065	-163.620686543169	-75.9461687708696	171.296383991415	-20.6176388023732	1.02390743259509	
2401333333.33333	-16.9003651364421	179.208470278239	-65.6645341740404	-162.811028514836	-77.6375895320197	-156.664764519163	-20.9332716629126	0.397393799068332	
2401666666.66667	-16.9672524306673	178.145244805437	-64.1121952257193	-177.880642659733	-83.9601069376686	-147.793577284943	-21.3016509311891	-0.39373744697182	
2402000000	-17.0139749189327	177.155749391097	-62.7304466581833	-175.82335961308	-78.0059910347584	-80.9027080937429	-21.6733371306798	-1.04905803615261	
2402333333.33333	-17.092445629774	176.065426589189	-64.875872155031	173.204778309459	-78.27814351231	-7.21137997181017	-22.0748708792042	-1.80310404574912	
2402666666.66667	-17.1475199745977	174.899355631601	-62.9688501744985	152.94120140615	-79.9530070243497	151.826822672694	-22.5030006007508	-2.17844677393493	
2403000000	-17.2151999213546	173.810398365196	-61.4543230320031	163.15025499665	-78.3047904517733	175.208991453244	-22.962211142985	-2.75573507027825	
2403333333.33333	-17.2580121799134	172.648310549755	-61.2950178415832	152.813119877517	-76.9173885385324	-141.399848624156	-23.4446198535287	-2.94019635770828	
2403666666.66667	-17.3272795170186	171.444122758849	-60.1318741033263	140.771408784762	-81.1318476958858	-25.4455716000745	-23.9675663552383	-3.25774930757083	
2404000000	-17.376637292672	170.318236019386	-60.6743940630692	125.510800338245	-78.6821483752785	133.998674668787	-24.5094082663755	-3.24173726336675	
2404333333.33334	-17.4626991840276	169.050757557968	-59.5168589009794	119.348035133077	-80.7480156286009	-142.934104019914	-25.1012856255426	-3.14464919912095	
2404666666.66667	-17.5161581935952	167.871126438038	-60.2179830896714	116.957636355993	-81.2849392235041	-81.9980996790166	-25.6945967871506	-2.87722557017393	
2405000000	-17.5804156564131	166.432502262466	-59.1513575837269	109.354240813904	-78.958359622788	73.533744247987	-26.3424323096734	-2.05788860154443	
2405333333.33334	-17.6289129409125	165.248094907844	-58.6961591803488	101.263275758281	-95.3203654543807	-28.1584260412111	-27.0506593996592	-1.28045987058619	
2405666666.66667	-17.6760780110163	164.067651724372	-58.8603304827548	80.1622455180891	-87.195164813181	-78.9931098071262	-27.7649244479693	-0.0397012489598932	
2406000000	-17.7402774695968	162.687591837668	-59.453448517528	83.2377535522939	-83.962466844139	-79.3988170281443	-28.4839738884936	2.31759712888179	
2406333333.33334	-17.780409439927	161.271057710006	-58.5671478614161	70.9264383872006	-84.9924350622668	165.91468593981	-29.176518906758	4.59687582007447	
2406666666.66667	-17.8328376977893	159.951031251203	-58.665900647849	61.3636875327765	-81.8370220684172	76.0706520250205	-29.9283083587804	8.25913859526278	
2407000000	-17.8593669832093	158.545450031815	-57.8589213467603	54.4945570729822	-80.8245578842707	-71.7903862728711	-30.6245905593983	12.0780787435096	
2407333333.33334	-17.9204703800972	157.113801434245	-57.4453612942311	52.6938356186372	-80.9545245446014	96.6784871488152	-31.2948242871005	16.6384730944898	
2407666666.66667	-17.9238486412781	155.676943241284	-57.6630103894367	36.3590534300055	-88.1437574148719	0.267208411095438	-31.9907355251555	22.2419993303091	
2408000000	-17.9700808451398	154.181230139148	-56.8883444456722	29.0840198300245	-84.8112215303946	-140.862894393629	-32.3062551854967	28.3605104463988	
2408333333.33334	-17.9905808957344	152.763846724366	-56.3609171861523	22.9163146707412	-84.2434558748945	-6.46808152459951	-32.6152181078664	34.533219824019	
2408666666.66667	-18.0050813167992	151.367440803058	-55.9930851635974	10.7253674155507	-95.3312812861884	-158.246710421431	-32.8251095082196	41.2153426655533	
2409000000	-18.0103388110565	149.848177425678	-56.1667020415533	-0.0977529693838629	-87.1183916421508	141.5564751615	-32.623246588248	47.5668511787391	
2409333333.33334	-18.0213635414966	148.301821448451	-55.7427815485326	-6.00285209559585	-98.6114139668084	-52.35113753275	-32.3754437705196	53.2727613054233	
2409666666.66667	-18.0126123219293	146.811091144128	-55.1748735157837	-16.519545553198	-78.3411414039786	-103.231022190757	-32.1564049233796	58.0536081401631	
2410000000	-18.0037432904123	145.362627980893	-54.1270867681874	-22.4121248755523	-77.264079579906	-72.4657154853907	-31.7089617115568	62.205706050051	
2410333333.33334	-17.9998414859635	143.895715890481	-54.550773536431	-33.0068302703487	-95.5086029924369	-67.6998762469967	-31.3030685706448	65.8641826867415	
2410666666.66667	-17.9693888530807	142.384829194461	-54.5786095336571	-41.1882203122802	-77.8455110689516	-28.7259545665363	-30.9068722815506	68.4963510141071	
2411000000.00001	-17.9442959120963	140.862632710882	-53.9416852307239	-55.9120831008705	-87.7603204997291	-17.3706157326331	-30.3992840003664	71.0847433869262	
2411333333.33334	-17.922831954942	139.464914709273	-54.183535937376	-62.1407492999598	-74.9695218199681	-107.577029627934	-30.0276825348454	72.4255799537777	
2411666666.66667	-17.8639814139999	137.956856813126	-54.1800341062751	-71.9514375117067	-88.6679335655749	114.276162169423	-29.5570319564943	73.6596767838707	
2412000000.00001	-17.8373822718683	136.582229524762	-53.7415757007306	-84.745783092429	-77.9098610161506	-115.727588125387	-29.1574867496772	74.3055711719629	
2412333333.33334	-17.7843516681466	135.035559017903	-53.7599663746424	-92.6416348339416	-100.159611354671	-125.361211956	-28.7189605430635	74.6739157074305	
2412666666.66667	-17.7246031878427	133.650603119029	-53.8020909101872	-102.14598787541	-83.6627317459943	-175.090150377196	-28.3935550038378	74.754329672729	
2413000000.00001	-17.6684102942081	132.218765232695	-53.5061117215722	-113.574267635139	-76.2603449520188	-170.333497006732	-28.0685418745568	74.7517244722027	
2413333333.33334	-17.5960242045703	130.751584436493	-53.7328176839765	-121.212153007354	-84.2390367107818	-157.564710229437	-27.7428124246195	74.4335483531383	
2413666666.66667	-17.5208244587573	129.480278365399	-53.6459300415851	-129.894657687588	-77.5061842651362	-25.7654577480625	-27.4561524767709	73.4348223948281	
2414000000.00001	-17.4598947812278	128.121316318722	-53.6423650033287	-138.558403288461	-82.0217520253523	30.3226085463927	-27.2216861114764	72.7135846949102	
2414333333.33334	-17.3709846997947	126.764352459014	-53.8978983311452	-149.306722432929	-79.8757235752561	-106.431511876637	-26.9117806759638	71.7018442281598	
2414666666.66667	-17.2741823916887	125.496126455049	-53.8237721287755	-154.442503666311	-81.6489947108767	-101.438589012122	-26.6770900501118	70.4590429197808	
2415000000.00001	-17.1903399437429	124.224816272052	-53.925293446827	-163.650452090666	-82.7551516427711	-17.8404033788076	-26.4313299066683	68.893531861893	
2415333333.33334	-17.1010258594212	122.981522559852	-53.8520244919259	-171.307777076701	-78.1265463607235	114.548518504612	-26.2587617045341	67.1299765300041	
2415666666.66667	-17.0174131703372	121.781075856416	-53.5551105417271	176.807467778748	-80.0408704102746	-141.935175281337	-26.0394865229321	65.7083444844061	
2416000000.00001	-16.8953777689866	120.586061248059	-53.6315637036742	164.865562372412	-76.3744002974684	161.304823619536	-25.8740210096978	63.79337079709	
2416333333.33334	-16.7907370700279	119.417030484744	-54.2045475164665	157.583993154631	-75.3025388016783	126.018734947313	-25.7309850030595	62.0020487609753	
2416666666.66667	-16.7142813905692	118.374750214054	-53.7365410518428	146.120230328921	-81.1217975280454	58.0767003299453	-25.572467757354	59.9049132394006	
2417000000.00001	-16.6048090781039	117.323935716859	-53.7012672058732	141.057786862215	-82.0919379991192	56.7784684316171	-25.4555630288748	57.8057007301523	
2417333333.33334	-16.5068130279681	116.204300744511	-53.4068429277845	128.457130132322	-79.4749965998099	1.74142543691059	-25.3063071927634	55.4853938386851	
2417666666.66668	-16.3891325464556	115.153381942034	-53.9344722730847	120.748399306984	-78.1881109630415	-3.65241974931203	-25.1883077196432	53.4303463381478	
2418000000.00001	-16.2904863741951	114.175076055377	-53.9007539350182	104.779946747624	-80.1140308715592	16.6084210876561	-25.098725205266	51.1706827437503	
2418333333.33334	-16.17471008312	113.102273760146	-53.7925212240409	95.939435268596	-84.5435694211731	-6.40631126415367	-25.0158813233003	48.8466655869079	
2418666666.66668	-16.0762796182384	112.118008053083	-53.6129391717384	89.1245725596368	-77.2210801441666	-78.9756139311562	-24.8880861621328	46.5670927311477	
2419000000.00001	-15.9702103541657	111.222395529695	-54.0428799448883	75.9276591829504	-80.3764261795744	18.6713444744652	-24.8312890757878	44.1033099389887	
2419333333.33334	-15.8679954044919	110.351819481978	-54.4907371858276	68.8619683617001	-77.7519362172741	-23.1122174349425	-24.714959192116	41.6774021041793	
2419666666.66668	-15.7639699389449	109.418854178689	-53.8110584750667	55.3324065375971	-72.2452748813069	-106.051096352885	-24.6793349546154	39.394118959945	
2420000000.00001	-15.6654964635419	108.61881477241	-53.4242435727969	49.9827585469198	-88.0757811927963	152.141772841387	-24.6125696281205	36.960283875974	
2420333333.33334	-15.5560338731944	107.789004258336	-54.5493505548967	37.9147064859041	-75.3058705903847	13.4249715814039	-24.5363356541069	34.660015596314	
2420666666.66668	-15.4664490854532	107.02602099683	-54.4686613350361	26.908136131107	-84.3211106871788	-141.028174729077	-24.4316524231329	32.16206942632	
2421000000.00001	-15.3614414696507	106.136043440467	-54.8237698855918	20.1477569610641	-78.1744797381666	-177.487602850249	-24.3985699284202	29.9515245168575	
2421333333.33334	-15.2604969447851	105.400253203765	-55.1023109899611	14.3757543133538	-87.0597188359653	-114.001031911284	-24.2961031394508	27.8682080253145	
2421666666.66668	-15.1684094050169	104.656694076684	-54.8641024684998	-1.67700113094828	-82.10845961696	-72.7587091559877	-24.2511586067758	25.6673514058736	
2422000000.00001	-15.0840193500429	103.908835148568	-56.4281886812894	-8.43301073504553	-83.4241763314516	-48.9409226887103	-24.1808448870291	23.6159937265263	
2422333333.33334	-14.9980872420172	103.210710631033	-56.0257480856296	-18.3152025671971	-85.0487002348459	120.019590517322	-24.0823966733099	21.4120199178989	
2422666666.66668	-14.8851239931147	102.548552530552	-56.5446964023819	-29.9983142252137	-76.0786875284911	164.526757723994	-23.9998145201585	19.5131946103478	
2423000000.00001	-14.8075639575569	101.893704321132	-57.0525997596072	-39.8895696879993	-85.2103792631107	61.4534808083674	-23.9382911280818	17.5933583324796	
2423333333.33334	-14.7316593576272	101.226108986117	-57.0504203140837	-46.3434673174315	-76.8939041356541	-108.567846050195	-23.8464271281349	15.5945641987512	
2423666666.66668	-14.6520183896	100.662443735154	-58.4316918591745	-61.6723465201196	-78.8226298176095	-43.1487509611259	-23.7332994515181	13.7302777542604	
2424000000.00001	-14.5633224842245	100.019297426938	-58.3181259118174	-62.9735877568882	-86.570055472358	-20.8314549741666	-23.6460970614898	11.9591886832768	
2424333333.33334	-14.4886117456204	99.3962405436169	-59.4740862007049	-65.1406032449952	-86.2211944240409	-154.379826097954	-23.5876883892488	10.478138712202	
2424666666.66668	-14.4224562804491	98.798853646961	-59.7693300475898	-78.3949224423194	-77.1836319474783	51.7424282556657	-23.4926197028895	8.72423938484847	
2425000000.00001	-14.3461159249284	98.2925989910548	-59.9752015581322	-83.8092257505832	-83.9430703491158	-154.187180509179	-23.4018217864252	7.15635931780136	
2425333333.33335	-14.2732565706299	97.7483687520036	-61.4932036885685	-94.6234779355894	-83.2961074687658	-111.143322035102	-23.3115889022513	5.73049470018726	
2425666666.66668	-14.2155402136053	97.2554192846583	-60.2947490882423	-103.342803124609	-83.8837607700895	52.6407230022621	-23.2258222938188	4.40022026306698	
2426000000.00001	-14.1548609051962	96.7500393765572	-63.5429274573061	-100.692208053733	-89.6350210575522	153.95436520801	-23.130681592549	3.05545626598991	
2426333333.33335	-14.0987912076201	96.2134441441436	-64.190936797888	-122.946692230182	-87.0467280544611	-66.3101145373701	-23.0477594690192	1.93261250435621	
2426666666.66668	-14.0352121217179	95.7856360974122	-64.0252619291489	-113.268945490086	-87.8466060744646	-179.021188514728	-22.9571747976203	0.834473412177535	
2427000000.00001	-13.9787526858427	95.3433466273182	-67.2028799820002	-116.286481732858	-81.3475260471104	134.725448771992	-22.8751296486886	-0.190733311773334	
2427333333.33335	-13.928107657543	94.9214532572224	-63.8771851803989	-126.246985667985	-79.4841754718686	-3.0766106406663	-22.7579831897063	-0.898786634394288	
2427666666.66668	-13.8713356116086	94.5105992921608	-64.5454756788339	-118.140443287435	-87.5241575647246	26.2370888371894	-22.6851854978189	-1.81010792566243	
2428000000.00001	-13.8219517746864	94.0676851740863	-66.1092950358947	-133.2156184179	-79.792691229749	-52.039713284581	-22.5595558973817	-2.81479413415341	
2428333333.33335	-13.7694681252413	93.6776946887604	-63.9144193343562	-127.590725097974	-80.0351416577772	-172.541041560272	-22.4894666843416	-3.35020944204545	
2428666666.66668	-13.7366186449651	93.3241518109197	-65.3398345358972	-140.553802691557	-82.8500172481193	115.583169412296	-22.3859159489669	-3.90559274148018	
2429000000.00001	-13.7026148217787	92.9338504920307	-65.5483245205981	-147.95980304943	-84.5968041591814	59.3342169003293	-22.3035467849096	-4.55929325046869	
2429333333.33335	-13.6563229893364	92.6422854206125	-65.4958122071759	-148.60150001052	-83.6348515236552	114.240697469266	-22.1782558439954	-5.09826126017795	
2429666666.66668	-13.6144208484098	92.251016491546	-65.4956635952201	-155.101625714036	-73.7751728454127	-13.161965120704	-22.0664850446408	-5.47326194440303	
2430000000.00001	-13.5750093527972	91.925665933748	-65.2657583521992	-165.308167740283	-78.706694448935	121.090901255143	-21.9878247090771	-5.87070746594183	
2430333333.33335	-13.5522485978499	91.6328547697352	-63.7737221577518	-164.959683692239	-80.7079143021046	71.2588714316469	-21.8624820269913	-6.27579015267997	
2430666666.66668	-13.5175870007615	91.3063454930264	-63.8914072633931	-176.985564633663	-76.9943986734183	-129.012647990136	-21.7590332429967	-6.50800102496627	
2431000000.00001	-13.4853976698346	90.9811693768671	-64.4874178118191	169.818424272376	-85.0449286095045	152.721615381219	-21.6610735134316	-6.64754845462571	
2431333333.33335	-13.4534087149972	90.6679912153421	-63.7032350459729	175.886074286661	-76.055627043879	97.6648562271805	-21.5404821145667	-6.60348345036649	
2431666666.66668	-13.4199697510015	90.4008968020696	-63.5323828061437	158.45569484247	-81.0024595019225	78.8862195396417	-21.4236296763012	-7.01642936109679	
2432000000.00002	-13.3989340338694	90.1460195382458	-63.349458863612	156.194560572486	-95.1142887170034	-99.844289431345	-21.3212376460547	-6.85602489934096	
2432333333.33335	-13.3812963001096	89.8002081046948	-63.0269983449012	161.778261821739	-82.7233130519257	81.9356758898676	-21.1875243821232	-7.08014719725532	
2432666666.66668	-13.3547728589718	89.6608979166608	-61.6929432984033	149.651839328423	-77.0266379801607	-102.536275501267	-21.0786024857586	-7.10193832531787	
2433000000.00002	-13.3344448984168	89.3215792217984	-62.9045504886183	127.248054017117	-78.4557471215596	-110.746424583036	-20.924815507744	-7.14480433229596	
2433333333.33335	-13.3330788530622	89.0727143768974	-61.3461298595818	131.966709441488	-86.9721564622962	-87.359329063974	-20.8016104473982	-7.10284703556442	
2433666666.66668	-13.2999464592271	88.7787204325551	-62.6496508978647	112.777748383707	-79.2775600792588	-143.541910085738	-20.6806031495837	-7.20029120067968	
2434000000.00002	-13.2833307272377	88.6041573537245	-62.6044247871361	117.700399789887	-76.1188906865227	56.399394535286	-20.5628000101492	-7.06866383308378	
2434333333.33335	-13.260905668096	88.3528339336208	-62.3450674852085	98.0871706563712	-82.0044854123069	81.7037908735298	-20.4377478559809	-7.13148234299947	
2434666666.66668	-13.2618755842404	88.0895764438107	-62.0342371566721	103.140694092825	-85.2794976144523	177.511435523173	-20.3046000358164	-7.14711119135595	
2435000000.00002	-13.2428481326084	87.8466393820801	-62.5740815124101	80.0828273456202	-84.1260964255902	112.769787364214	-20.1683752921983	-7.10619242657077	
2435333333.33335	-13.2395963163539	87.5253066639462	-60.9057304725697	75.6002143917308	-80.0556424586344	46.4063553235704	-20.0648500784248	-7.17534271606793	
2435666666.66668	-13.2186227967724	87.3055334523862	-62.2145108333638	68.4458141546087	-83.8130511394008	106.841286625418	-19.8930825463611	-7.20397994582228	
2436000000.00002	-13.2161826655071	87.0760071920238	-62.1718785526913	77.0643580425975	-75.708438283642	-7.59929459872955	-19.7984974911374	-7.21277010751973	
2436333333.33335	-13.2077770079426	86.7546664864255	-62.3331122964141	60.1288963666072	-94.5701568123061	-163.756682033065	-19.668446395292	-7.23581726076815	
2436666666.66668	-13.2044088319613	86.4379016212785	-62.6366665448035	49.5787078514575	-82.8527195068278	-163.948973175506	-19.5623797634452	-7.56302994635863	
2437000000.00002	-13.1990536054614	86.202675542257	-63.3783013636248	32.6610794779135	-83.3834588451724	27.3021037036873	-19.4563050999588	-7.57999054914793	
2437333333.33335	-13.1814450457963	85.9626219546282	-61.4421804271216	28.5263517228447	-82.2716339543838	39.6519602394022	-19.3315275278419	-7.71973685817677	
2437666666.66668	-13.199779219373	85.6513868817907	-62.0656853769044	30.0823654901387	-80.2532043162147	143.227482211295	-19.2401675139976	-7.77571077953974	
2438000000.00002	-13.2001042488757	85.3775646190464	-61.7098301019343	32.2817277233402	-74.7359429836531	61.5512720216327	-19.1436053022977	-7.97134362101465	
2438333333.33335	-13.2000190254287	85.0985244094339	-64.5016500748194	28.5641383078154	-77.8410136872354	146.570645415935	-19.0558818092555	-7.92008090917671	
2438666666.66669	-13.1857573421494	84.7843559110136	-62.9856058061303	20.3887551341959	-76.3521602183414	51.3285915691994	-18.9469515093367	-8.09722856865199	
2439000000.00002	-13.1999434049515	84.5604916360582	-62.4644012468314	-4.08322263642734	-81.0322329365357	136.040412046494	-18.9041059002616	-8.29202685148379	
2439333333.33335	-13.2182270815674	84.258012588293	-63.9738444496109	-1.39566789802983	-78.3235063569359	-135.000833259322	-18.8211518565512	-8.59112121864584	
2439666666.66669	-13.2199860435806	84.0166588258793	-62.8519864416957	-4.04575259256522	-84.5723044937072	30.1110015530572	-18.7467196195516	-8.6107111855741	
2440000000.00002	-13.224536179378	83.5277034079804	-61.8335821312962	-7.96989974259378	-77.7917989258089	8.88375461695326	-18.7227138149634	-8.81778339239182	
2440333333.33335	-13.2265796330937	83.302369218389	-62.5423434318366	-9.97134071374344	-79.505169539179	-38.2326239158471	-18.6598594354914	-8.95812641731663	
2440666666.66669	-13.2458608117848	83.0350256860153	-60.6513161370238	-20.7822819419648	-77.7808783200481	127.88406881896	-18.6052393165925	-9.1105025708794	
2441000000.00002	-13.268354387793	82.6865090619462	-61.1323166094559	-43.8483700496564	-87.5711726675425	-78.3731714729203	-18.582054462338	-9.100096390103	
2441333333.33335	-13.262643763337	82.3017980676569	-59.9612867234679	-39.0919362214214	-87.5370079885716	38.3332731346413	-18.5601316598616	-9.21158306757372	
2441666666.66669	-13.2943180056046	81.852706506946	-60.3190798472406	-43.2177633907162	-80.5053210362427	-0.807372910526588	-18.5280650562991	-9.42103002053244	
2442000000.00002	-13.3056394642611	81.6750799441664	-60.2927699319974	-53.1558160572025	-85.0061014019292	-4.53058579318467	-18.5179783139114	-9.54814015364933	
2442333333.33335	-13.3308561427813	81.2062845485616	-59.8855930859632	-61.4525233958334	-82.5772493246384	173.819889642645	-18.4993462064088	-9.61560824515551	
2442666666.66669	-13.3394562778634	80.9345220074895	-59.6168323890431	-81.5097604039422	-85.4170056319512	-137.005130300031	-18.5170291312724	-9.70873343332306	
2443000000.00002	-13.3715477974864	80.581269942377	-59.5351586502531	-77.964415766932	-81.0808597506215	143.866731574101	-18.5098012583085	-9.66754115287398	
2443333333.33335	-13.3927411074801	80.2632223933058	-57.9480683248635	-91.8913186035658	-82.5836882000974	176.807520894415	-18.5376965525949	-9.81889050026922	
2443666666.66669	-13.425932519993	79.9201403901298	-58.8185251008596	-103.223105907604	-74.308901946382	-68.0997555062201	-18.5417215285676	-9.82401576809873	
2444000000.00002	-13.446488407925	79.4662873217747	-57.325569655713	-114.866592517844	-76.7055059568279	-166.17167264683	-18.5864119632676	-9.96945523363423	
2444333333.33335	-13.474321670002	78.9534939682864	-57.3429781909539	-125.624066484725	-89.1169687870618	33.7496960301918	-18.619004026468	-9.8045000964553	
2444666666.66669	-13.5116411396033	78.6235877731897	-58.9999035938891	-135.897671439646	-79.8615635083472	131.89538459473	-18.6767948638346	-9.88163035528027	
2445000000.00002	-13.5257986813027	78.3616230888152	-58.265582804051	-141.101278341186	-75.9412418079673	102.004357022168	-18.7353314612516	-9.72236590361581	
2445333333.33335	-13.5696767996465	77.7927304705867	-57.8893134602686	-146.477148191893	-76.8353663328237	94.9281737554267	-18.8078566818658	-9.62720431449274	
2445666666.66669	-13.6068480046346	77.4877322329313	-58.4644035283653	-166.331000325946	-75.2301679805851	70.2748614582439	-18.8737944163726	-9.50399686106113	
2446000000.00002	-13.6338624881244	77.0017574948984	-57.6258980877359	-171.676537625758	-77.7537665178416	137.687162784494	-18.9459880051679	-9.37280652885325	
2446333333.33336	-13.6716516206469	76.6555261182517	-57.9214423789962	-177.318068435806	-77.4731912163098	119.712874534063	-19.0254794463311	-9.27713712342943	
2446666666.66669	-13.7021005971759	76.044860095483	-58.5010925435443	172.549426934594	-92.4312452438736	145.781811091354	-19.1518316113382	-8.81524058976914	
2447000000.00002	-13.7350397689324	75.605686376389	-58.5987054475979	162.891508752807	-79.764118783666	112.422143088613	-19.2450745454934	-8.46765769903085	
2447333333.33336	-13.7824505852777	75.2199976728387	-58.7161904301751	154.731048758021	-85.2387162631585	-143.537213574852	-19.3421144680726	-8.13178531458108	
2447666666.66669	-13.792771718067	74.7686418924769	-58.9899020341401	142.982558569672	-77.6227198032402	177.075902583857	-19.4837754631463	-7.57522050246842	
2448000000.00002	-13.8411149895476	74.2114191392586	-59.6614297250479	146.926054650443	-78.2715273930914	66.6233002046974	-19.6016673761645	-7.16426185276149	
2448333333.33336	-13.8727559085358	73.9016472184998	-58.776647038134	129.737647257326	-77.4275694770848	-175.767246214104	-19.7135851477124	-6.60248772602065	
2448666666.66669	-13.897338850869	73.4015583124117	-59.5150227545741	120.837113086415	-79.1238139876219	57.5146054946487	-19.8585068817848	-5.88823139168205	
2449000000.00002	-13.9303442410152	72.8839388160759	-60.110194446961	110.337902429284	-81.2965812060276	1.53362071393903	-19.9696697870214	-4.87821941339264	
2449333333.33336	-13.9646915229284	72.3499122665788	-60.4659812377621	108.941716916574	-91.038003143939	119.389523844689	-20.1254479850858	-3.97830608884358	
2449666666.66669	-14.0066523804391	71.8220754680268	-59.6804220893381	107.63576195945	-96.5953968587653	9.32586395504146	-20.2455018661214	-3.09369772833824	
2450000000.00002	-14.032488066246	71.3486292784058	-60.5069914640388	101.972992182061	-82.250712143359	109.348033224376	-20.3624631562252	-1.96352348742446	
2450333333.33336	-14.089080794495	70.7613469762989	-62.3205044938517	96.2262701765846	-81.3107534010179	-1.9955176578315	-20.4728422327351	-0.854671191449579	
2450666666.66669	-14.1132660916401	70.1206956141006	-64.2733892713872	78.8685393170349	-77.2677715995257	150.802426948372	-20.5724348598445	0.51577246761531	
2451000000.00002	-14.1435868523546	69.7152431157063	-63.9340681236315	78.7955896246225	-84.2034743600328	53.2602517606094	-20.7075771344882	1.78211905463466	
2451333333.33336	-14.1597545942482	69.1217370725798	-60.8938678745809	69.2894114322249	-81.2386051040037	55.9757733544368	-20.7806389691259	3.03585967848387	
2451666666.66669	-14.1751672491836	68.6173430298258	-60.5002132273507	64.4277409382744	-78.8392464141148	164.249435375749	-20.8834523038753	4.37687832293458	
2452000000.00002	-14.2181111424049	67.9783384007536	-60.4775148589924	58.7272424910679	-81.3908192741832	-171.218647686909	-20.9373187590415	5.95865505012288	
2452333333.33336	-14.2318753417126	67.3630008311817	-61.5200062696582	61.7952931058304	-77.3106908811084	167.397473448563	-20.9859947864353	7.37934544859644	
2452666666.66669	-14.2641000303149	66.8111068600534	-59.3093856686093	55.6173939702369	-75.4333242982194	-49.6608764587073	-21.0506698039271	9.01633491404569	
2453000000.00003	-14.2887571159656	66.2856739027878	-58.6787459311696	45.0219531942874	-76.1415773847257	71.3695822480625	-21.0897130834308	10.499741371335	
2453333333.33336	-14.2932088460763	65.7131554564952	-59.9421324893153	34.1873349962559	-85.2860931532687	-75.8371160846414	-21.0974997576059	12.087751621303	
2453666666.66669	-14.3268964815724	65.0980893613817	-59.1970804867547	18.0070909182343	-88.1231730242775	110.878570252887	-21.1338793999777	13.6094296551735	
2454000000.00003	-14.3298642975093	64.428388778242	-59.2001885800832	13.8703418054343	-78.6884766557226	20.133837962038	-21.0937694000416	15.1928471509345	
2454333333.33336	-14.3429986088226	63.6900429789135	-57.9969913588777	3.66268443829253	-86.8758074570852	-68.0721329015119	-21.0934510493935	16.7585144998539	
2454666666.66669	-14.3491865521231	63.2869538457764	-58.0913590180031	-3.90025274237837	-82.2447593039217	-86.0553154515984	-21.0592471857396	18.1934869661583	
2455000000.00003	-14.3532352574139	62.6149524238111	-58.7316990086045	-19.9919336216258	-83.3917492810811	48.110716915579	-21.0182454555329	19.5940207341721	
2455333333.33336	-14.3532053696155	61.9965701837073	-58.7550101304662	-28.5302155298779	-85.2832764721291	146.089218984023	-20.9458659715773	20.8808710149265	
2455666666.66669	-14.349864756716	61.2807272660807	-58.9601211532249	-31.1488277252538	-79.6881644813724	40.0113045450073	-20.9065858725098	22.1886295798009	
2456000000.00003	-14.3515309395402	60.7130506650711	-57.801711021752	-41.1265263377993	-83.7450028313784	109.568062913223	-20.8584158736267	23.2398772361	
2456333333.33336	-14.3522730044675	60.0916846619911	-59.2699549281116	-49.8071772285853	-74.7081691138422	-56.9801921036778	-20.7638395104548	24.4431899233289	
2456666666.66669	-14.3418172067221	59.3697920068373	-59.1979400357728	-54.3648421984809	-76.7581479460784	-62.4620543543376	-20.6876538231617	25.4992043841805	
2457000000.00003	-14.3282164642463	58.7591899180245	-58.2639673686648	-61.7682581961606	-80.2000247891038	-67.3013511602405	-20.5965414595612	26.3675209757321	
2457333333.33336	-14.3071835521839	58.2195752508939	-57.9706407378863	-73.1356075255942	-89.097614316876	165.452407703854	-20.5435685295587	27.4864494741148	
2457666666.66669	-14.2918365216124	57.470347477389	-57.2643182548961	-74.3375267402165	-77.7404085155188	-140.843641226045	-20.4604443016346	28.1487455507893	
2458000000.00003	-14.2678024350733	56.807117861451	-56.9398138771453	-86.1104873861849	-91.6629473607677	48.9608058713806	-20.3733407193663	28.7548282201186	
2458333333.33336	-14.2531062905619	56.1698503027189	-57.0699658489156	-101.475135819213	-87.5989321818655	-137.862928181428	-20.2914772838269	29.5211874552286	
2458666666.66669	-14.2202196216242	55.5292126061652	-57.1071367854131	-106.810519852887	-72.5622935329877	176.194562226244	-20.2201209474616	30.1668424279701	
2459000000.00003	-14.2032891924068	54.9777473780761	-56.4196019094058	-114.448336335517	-74.6823938831968	-60.7340423679223	-20.1761007707159	30.6205371364441	
2459333333.33336	-14.1629856502206	54.234448328947	-57.1097052958895	-129.731289506268	-77.1101905285228	142.389291025246	-20.1007697105903	31.0141132721992	
2459666666.6667	-14.1340029446061	53.5980623456039	-56.9408717161669	-129.975567511398	-74.6393885818568	113.56660480732	-20.0608529812383	31.7577448771882	
2460000000.00003	-14.1024322688264	53.0359223858851	-56.4232140723304	-146.803671772057	-88.8938239040657	173.020856438094	-19.9904268432961	32.2130521358072	
2460333333.33336	-14.0597647262634	52.3491559998843	-55.7864136618321	-152.913176955402	-90.8977688919828	-94.3096370045004	-19.9333156884019	32.4582706530317	
2460666666.6667	-14.0292479184554	51.6501284397285	-56.0651401314909	-159.983559822375	-79.3576210948642	82.8721826609676	-19.8934019046256	32.6430193353621	
2461000000.00003	-13.9807882082059	51.0512277901247	-55.1352384355734	-171.03425338501	-83.9523046468797	154.651915345767	-19.8361347967636	32.8977905580529	
2461333333.33336	-13.9364120918013	50.4984715029741	-56.3876353036894	-177.910280005153	-82.0967752729139	-159.788951913623	-19.7940313076789	33.1704005350125	
2461666666.6667	-13.905193445405	49.7181026641691	-56.3113960500812	168.183401033396	-84.6038167521482	105.772811199721	-19.7530271851989	33.394117966561	
2462000000.00003	-13.851701424054	49.1863164780245	-56.3327129018075	160.139912043021	-78.8096548820019	154.202935237296	-19.7421689255348	33.5808750568319	
2462333333.33336	-13.8127193223411	48.6551425627729	-56.0700225841045	145.347473227393	-84.8320698314443	71.9953103260016	-19.7138328809141	33.7777663118012	
2462666666.6667	-13.7593386705108	47.9544424086774	-55.6803872481291	144.466931086016	-81.7226028487111	-148.961946919592	-19.6769076596807	33.789914303674	
2463000000.00003	-13.7050405611293	47.3893923349254	-55.6537671416642	128.508714903669	-93.5819609609079	54.5798704751753	-19.6297739703581	33.8640284874698	
2463333333.33336	-13.6535039235783	46.8418095560332	-56.0736195774005	123.127254932867	-92.9693092142517	-88.2874061503997	-19.6259290051399	33.8113989142763	
2463666666.6667	-13.5960646186929	46.2265622325716	-56.181054819747	115.961146964066	-77.1817949844182	-51.8480949217056	-19.6221495208848	33.9047062523824	
2464000000.00003	-13.5459880552665	45.6618605423553	-56.5422116707039	103.098424035619	-92.6013160368085	-15.4624058344783	-19.5804061723872	33.6394840838251	
2464333333.33336	-13.5024823233546	45.175434849392	-56.9281841139666	94.8732357478184	-78.9300925203842	170.84510668501	-19.6050924064083	33.6077951021969	
2464666666.6667	-13.4308447574688	44.5545752033255	-56.1573106520416	85.4710551633128	-79.5411621846387	-122.511567496263	-19.5832996085617	33.5097412568971	
2465000000.00003	-13.3722602763593	43.9546067201128	-56.0512969265706	68.4577409153511	-75.8681609489253	-154.854994391013	-19.5726626493847	33.25674387658	
2465333333.33336	-13.3126943472197	43.4832690723617	-56.4382522725841	66.0521928994572	-75.2144910506852	111.703382798802	-19.5758353455036	33.0279767915837	
2465666666.6667	-13.2547283117094	42.9589656105683	-56.2250136398842	57.5088788338272	-78.7447514640742	-151.74925094427	-19.5800676154098	32.8055671538906	
2466000000.00003	-13.2038972361522	42.4585548173984	-56.1711847565119	43.8770685215756	-87.4348939962517	-125.029703034858	-19.593143784053	32.3729181373277	
2466333333.33336	-13.1373074940337	41.9071060083663	-56.1377721692458	29.1571959055986	-79.8968184157411	110.018232776094	-19.588793222922	32.1760666746399	
2466666666.6667	-13.078656654293	41.4155496248448	-57.237131089181	18.790459789902	-77.0840719586277	-137.463972951585	-19.6548109129794	31.7133040932822	
2467000000.00003	-13.0257958392821	40.9196456673675	-57.1566350894156	14.2407817078732	-74.882502339985	-90.4851038393806	-19.6513054539056	31.2011810211207	
2467333333.33337	-12.9613959925092	40.4950703215809	-56.1819949827011	5.65674105692136	-82.4137337878212	44.7756553084862	-19.6913747880136	30.7630324707865	
2467666666.6667	-12.8976458604286	40.0930818968701	-56.7076892633295	-10.8469171915769	-77.6330518576671	98.8101888759776	-19.7247153322318	30.2459100609049	
2468000000.00003	-12.8437531331734	39.6520582464087	-57.0713215308905	-15.7820436341217	-77.4800464425747	-56.984596441002	-19.7923442885157	29.7976812998545	
2468333333.33337	-12.7770281250587	39.1993653726092	-57.3105336134553	-29.320309069836	-72.9264146165485	-75.1354022954112	-19.819852079091	29.185753372576	
2468666666.6667	-12.7228879523236	38.7881356039318	-57.0286716870277	-41.3207231694031	-79.180945092908	-53.4382733634459	-19.9124543496784	28.4738739977611	
2469000000.00003	-12.6530704136524	38.377730040727	-57.1996965879727	-51.2762260519158	-78.705667249032	-144.112048462896	-19.9408201525166	27.9560993964448	
2469333333.33337	-12.5905642255603	37.9741480249964	-57.1523692388389	-64.422950826095	-79.5144000773272	-34.5172428262617	-20.0067726864611	27.3597208611087	
2469666666.6667	-12.5289956232202	37.5649748354132	-57.5986339406915	-69.4748544730378	-79.1311597518626	-48.973756233677	-20.1105560260987	26.7560907394631	
2470000000.00003	-12.4644773190339	37.2652290265777	-58.6218717098503	-82.4212492098837	-82.6100573604903	-70.4753002226466	-20.1520026359334	25.9077599772297	
2470333333.33337	-12.411677590772	36.8293383335604	-57.8580451871127	-92.0034842440824	-75.3586548158653	119.410727450137	-20.2523064566199	25.3096204431469	
2470666666.6667	-12.3460552049602	36.4490090101556	-58.4803289427617	-102.213436830405	-82.5083292490619	52.0829597684986	-20.3098795294656	24.5444747986141	
2471000000.00003	-12.2810135854981	36.1523780589032	-59.1223824800432	-111.757401920103	-101.888877355919	-162.408765915993	-20.390571074413	23.9039367097697	
2471333333.33337	-12.2203428513918	35.7942631254651	-58.7017794408457	-117.951891644279	-76.1119669199833	-87.4175734337872	-20.4851052875739	23.109891819018	
2471666666.6667	-12.1719466564178	35.4777852636727	-59.1405733519764	-133.621646599963	-89.9576326433572	-177.662536883392	-20.5922728320826	22.4396367618264	
2472000000.00003	-12.0997453787191	35.1591715846584	-59.7152420956959	-139.010438956328	-84.5566291894056	-92.6394743592746	-20.6695858560844	21.6569426189181	
2472333333.33337	-12.0396203428614	34.8385333376096	-61.0409085889175	-156.047570880341	-85.1242562943478	-29.3525123256753	-20.7390179630994	20.8756877777149	
2472666666.6667	-11.9892421605402	34.52676889475	-59.7641583963071	-161.891066478719	-87.1138758724415	2.35669864997635	-20.8452128288659	20.0842377978169	
2473000000.00003	-11.9321019402487	34.2293874164922	-61.822845280694	-175.692254771839	-75.7813515945134	82.4560051379385	-20.9198282811703	19.4227269681506	
2473333333.33337	-11.8640366662899	33.9187179254956	-63.6089424852519	169.959236800297	-83.5854346723502	-103.092841738246	-21.0161475124201	18.6542034332361	
2473666666.6667	-11.809358133113	33.6388272889736	-61.8198865517438	161.203726086827	-80.6888748442421	44.374786805862	-21.0876449538163	17.8416120201282	
2474000000.00004	-11.7550582331012	33.3520113249024	-63.7020896424894	148.166130695385	-79.3506440268773	24.2999057601188	-21.172686141237	16.9593954539268	
2474333333.33337	-11.7056866913928	33.0909917868468	-62.0122731313805	134.299831664567	-83.3012930137365	135.221846774843	-21.2111151930904	16.2294873339491	
2474666666.6667	-11.6449290220221	32.8306944875797	-66.2640834007333	128.383964428574	-95.1023425629153	161.441367713345	-21.2807104436562	15.4887627284484	
2475000000.00004	-11.5875155242135	32.5429422988993	-64.4393663181258	102.988439403258	-76.0960170891367	165.486753800924	-21.3601792938181	14.5913802521462	
2475333333.33337	-11.5389863783624	32.1920451345918	-64.613395441121	104.857792351456	-81.8052596068698	22.3148339958552	-21.3938815309391	13.7746068331611	
2475666666.6667	-11.481336155574	32.02247234188	-68.3822383912766	75.3593785291685	-90.2059889545274	-173.922386230473	-21.4431197600726	12.8623522093857	
2476000000.00004	-11.4338100488356	31.7033372010221	-64.7296672765478	89.158143459862	-74.7444150277362	167.962393024604	-21.4568570596226	11.8609585339564	
2476333333.33337	-11.3837649626418	31.4518753466232	-68.0577065815935	89.4992300563682	-83.9290996494737	90.3253700519558	-21.5082098666397	10.9614999354845	
2476666666.6667	-11.3337790648959	31.1219590050735	-66.2075298561175	66.9909357361023	-88.8772709218195	118.57568313657	-21.5106397660595	9.93182949351977	
2477000000.00004	-11.2833461512027	30.8972917103235	-66.5645288326586	47.9661710990282	-77.9652521547774	58.6362235254259	-21.5247694198462	8.97373293652213	
2477333333.33337	-11.2438349160924	30.6233918924489	-67.141838345768	43.1782104077041	-79.9235369345083	109.181057787472	-21.5156346590187	7.9509996820732	
2477666666.6667	-11.1922557683879	30.3765042524248	-67.813166708186	30.2521999500432	-80.4902526024651	170.517837767549	-21.5150516736637	6.70531804047478	
2478000000.00004	-11.1525433572869	30.0835386959357	-69.6556400922155	7.19085550046844	-83.6561159581004	-171.644338620485	-21.5171292660179	5.83326768289785	
2478333333.33337	-11.1051822839862	29.8410504885443	-67.7804175725489	6.08513279721178	-83.1149426416807	-109.580563424842	-21.4885212885313	4.59984568476713	
2478666666.6667	-11.0675696009905	29.523237092806	-66.7671834928521	0.614504303252175	-85.7430148931051	132.694007322366	-21.4852533743159	3.46072023986374	
2479000000.00004	-11.0265290048048	29.3431337094391	-70.5563660661862	-5.74754891253993	-81.1282786548937	-17.7271160544516	-21.4582678211939	2.18443896891282	
2479333333.33337	-10.9921989728893	29.025068362519	-68.8936789233897	-9.58060103438136	-81.2369636107611	-11.9206656728968	-21.4151493832994	1.12060743925248	
2479666666.6667	-10.9527860974251	28.7092119510812	-71.5079655870348	-43.7054659871218	-79.5776517312835	-122.813994499786	-21.3949464447941	-0.123949340691562	
2480000000.00004	-10.9161421152073	28.4907009439417	-70.3214761688161	-52.8873909504011	-77.7033255291878	-71.5870437869282	-21.3258062763744	-1.57440003938468	
2480333333.33337	-10.8809016991425	28.1994875572083	-71.5307401805193	-58.3352908882528	-83.0424556072454	-44.78985879709	-21.2982485923508	-2.60849615352171	
2480666666.66671	-10.8537932831722	27.9041280693753	-69.2767994355753	-64.029302083594	-80.5388681215948	-83.9721225040244	-21.2500379771827	-3.91964894978059	
2481000000.00004	-10.8119249540971	27.6108308278866	-72.9637251752393	-92.7595094527996	-84.0401193149092	117.913341977086	-21.1871582218406	-5.25300502652603	
2481333333.33337	-10.7825445046419	27.2979209951901	-70.1200113496341	-94.9381299989409	-79.358751892809	97.0730235241	-21.1343050165741	-6.44178377512662	
2481666666.66671	-10.7521968769067	26.961676156477	-75.6142274240706	-83.7889097863376	-83.0858847085087	37.254727863248	-21.0658141265741	-7.80321218292023	
2482000000.00004	-10.7265282788924	26.7002469465935	-72.9730658998002	-75.1268310865937	-80.5757096164182	8.60825010646817	-21.0179901358081	-8.98361972178455	
2482333333.33337	-10.708064073103	26.3525836252251	-69.8121819487114	-105.156809803626	-78.3015645379982	37.226277515416	-20.9458521573176	-10.1970856606564	
2482666666.66671	-10.6819799844331	26.0824274942267	-71.9556517282481	-128.895898353501	-83.3276121145212	-64.0884149914987	-20.8813515568763	-11.5675377877077	
2483000000.00004	-10.6568995780848	25.7049890388789	-73.1620396208361	-132.727694698514	-90.2613269511948	35.6859945912891	-20.7998652030888	-12.6608466499656	
2483333333.33337	-10.6332221286168	25.4803759312111	-77.2520244708148	-166.303551133286	-96.5425562051469	118.770927292553	-20.7446304724418	-13.8762666529373	
2483666666.66671	-10.6213675845691	25.1583326248736	-79.8261832015801	178.68057298742	-83.7090365022531	-48.8779986738125	-20.6644273094202	-15.1059656967836	
2484000000.00004	-10.6054696794164	24.7359921548176	-77.2260588884441	-159.517820316157	-74.6330041784193	-82.99207181256	-20.5994693350323	-16.1344915728746	
2484333333.33337	-10.5876138742892	24.3628177427977	-73.2529963382717	-165.996051654597	-81.2755392272764	-113.211000501815	-20.5184105781182	-17.3223642893721	
2484666666.66671	-10.5729927976758	24.0122282911611	-74.1247106894357	-155.955845973353	-85.5282900016346	-164.742446076695	-20.4516234659241	-18.4091870475926	
2485000000.00004	-10.5606192558749	23.6425598159264	-78.5456521673122	-126.975412439966	-97.7915664020744	106.067581933303	-20.3711863460211	-19.5390075081243	
2485333333.33337	-10.5487011759762	23.31344730756	-70.4095776633096	-161.481936391516	-84.3576564059962	-158.827343078719	-20.3023493406901	-20.5704179609855	
2485666666.66671	-10.5428416915405	22.9990642002842	-69.271339222678	-177.861193698745	-76.7439944314197	-19.4499722778114	-20.2244069041903	-21.5722518596929	
2486000000.00004	-10.5356899385716	22.5383642683457	-70.6431229519427	153.288254674065	-87.9742534639897	120.793271618052	-20.16570178242	-22.6037943478328	
2486333333.33337	-10.5331633260455	22.2436791726635	-68.4772225860582	139.501914539391	-101.810382218671	-125.913888882146	-20.0878910791496	-23.4705862611703	
2486666666.66671	-10.5322554190703	21.8631011788388	-67.4130900410918	140.013404518783	-79.9500678870072	47.4615532626907	-20.0516237838584	-24.4507975973053	
2487000000.00004	-10.5353334181138	21.4137364089389	-65.6187059033721	133.533061112901	-75.445116344467	150.354435648906	-19.9704679443125	-25.3069667426323	
2487333333.33337	-10.5439487484871	20.9933730273467	-65.6915307576668	109.206163726674	-74.784365672832	-110.154020949201	-19.9179287917533	-26.2875264235028	
2487666666.66671	-10.5384756692126	20.6720591313012	-65.4166248432175	107.904393468889	-72.6922629841615	19.4933915188698	-19.8776662910084	-26.9786020724659	
2488000000.00004	-10.5433286596395	20.2322432266506	-63.5902358064014	94.0877513366241	-77.4153257237137	25.4344656518367	-19.8245745806726	-27.6342105175077	
2488333333.33338	-10.5531245962918	19.8134634028722	-63.909516841256	89.8991998175091	-75.6050462866572	176.226003922434	-19.7771020619855	-28.438320697656	
2488666666.66671	-10.5740939930783	19.3985660540131	-62.9493597062678	77.0329003347533	-75.1865426765543	-104.33359985774	-19.723485939462	-29.2086026423271	
2489000000.00004	-10.5736978268644	18.9494051717236	-62.5013344225387	78.3890996878185	-79.9959365874059	150.863669888876	-19.6774479589472	-29.6742917793236	
2489333333.33338	-10.5924794835165	18.4895331868034	-63.3946233910653	46.1143706445285	-81.6227176523413	-0.0371693585818496	-19.6323620727337	-30.3365899091447	
2489666666.66671	-10.6039177156349	18.0617334052591	-61.8166948283918	43.500125708481	-83.0260236307793	-56.6423154349832	-19.604622099959	-30.8012465518555	
2490000000.00004	-10.6074444027326	17.6022521056606	-62.101298268747	23.5281473188735	-81.3150419123384	107.339682998289	-19.5494569766143	-31.247938578603	
2490333333.33338	-10.6502139153284	17.0802264164347	-61.7508366159162	23.487326860629	-79.1985219343138	-38.46200750918	-19.5017986329005	-31.622125294547	
2490666666.66671	-10.6670738182516	16.6390381058083	-61.4859196951464	7.38614786616038	-84.3780954293424	107.874108758696	-19.4855157153698	-32.043745385333	
2491000000.00004	-10.6897078406652	16.2015903614002	-61.5463222127278	-5.00619958455765	-87.6603028504351	-172.14240244995	-19.4477367754206	-32.452005587161	
2491333333.33338	-10.7112788011681	15.7214634165544	-62.1340753955786	-14.1294886058178	-82.0892066299525	-47.3711095064983	-19.4236411288561	-32.7968988026	
2491666666.66671	-10.733283815198	15.2814292201182	-61.0774235014504	-26.4291370152926	-72.0990372274966	29.6852699437312	-19.3715135473261	-33.1946311880833	
2492000000.00004	-10.7748168051436	14.7730150831997	-61.5774768777491	-36.3630870998265	-84.6886857851984	136.481436653602	-19.3320540880015	-33.2391997577437	
2492333333.33338	-10.785957835186	14.1681602303619	-61.5608409710012	-50.9821474747861	-90.3037139678686	20.2335097230216	-19.293423319068	-33.4608602957177	
2492666666.66671	-10.8226177797387	13.7750000344208	-60.2194860354653	-55.1189285724904	-82.4673393389258	-88.5376304444808	-19.2648985899414	-33.6878834344417	
2493000000.00004	-10.8671931747408	13.243097461713	-59.8729118068278	-62.6767121379271	-78.3743773265015	-15.3126962386665	-19.2420337857668	-33.8817041805239	
2493333333.33338	-10.8988535742477	12.7573661597668	-60.4626703480401	-73.0943016694278	-82.0377927928098	34.756309947485	-19.188771163115	-34.0888647788937	
2493666666.66671	-10.9307612179629	12.1529410257867	-59.9965461444412	-91.3275208045208	-74.3290058373848	3.72138551383488	-19.1608511814254	-34.12817693618	
2494000000.00004	-10.9576635860937	11.6834848145774	-60.0003426620912	-96.2752823688356	-83.5009662278932	85.9508344050315	-19.1502596323502	-34.4095470226993	
2494333333.33338	-11.0116298828872	11.2021568280867	-60.1932321573866	-106.020243028684	-76.728842769658	156.312625156769	-19.140223881333	-34.5799127034083	
2494666666.66671	-11.0415084298327	10.6081433605111	-60.6920186351647	-118.815827774542	-84.7804548197901	-150.747556143221	-19.1028449110593	-34.6061392608802	
2495000000.00005	-11.0914864836294	10.1199808312074	-59.881878166676	-131.437324446207	-78.0175893727156	14.6653275811017	-19.0968637840732	-34.6898400774218	
2495333333.33338	-11.1295280265895	9.60773940509647	-59.2980174069107	-135.046181175356	-80.1335822651615	109.941847332938	-19.0835811929846	-34.8984831533527	
2495666666.66671	-11.1663012670113	8.98875483804126	-59.8028381461864	-151.953907647076	-74.6835433280441	37.2569880986093	-19.0726986408741	-34.8526361323342	
2496000000.00005	-11.2174876923935	8.47453325200492	-59.3635989099181	-157.322246961627	-86.2417838072825	-145.227659712001	-19.0812259988826	-35.0145219920311	
2496333333.33338	-11.2578726588633	7.90473903139935	-59.5862231194383	-166.971084525206	-81.4208671116427	115.974907115647	-19.0888296059473	-34.9076075850913	
2496666666.66671	-11.3041030421699	7.29886305752923	-58.7540625841072	178.540774226127	-87.7081148615217	167.761980030233	-19.1072755775461	-35.0297306467003	
2497000000.00005	-11.3496612734272	6.77772151916045	-58.3102601854756	165.679856668017	-76.3305768545275	15.5205069182106	-19.1200341507995	-34.9745924634518	
2497333333.33338	-11.3991669881199	6.18643788650873	-59.0036893760165	160.349335186874	-79.466915499578	125.64872033935	-19.1495408602402	-34.9566765372313	
2497666666.66671	-11.4275832649052	5.52939477611404	-58.6970054832419	147.2189384225	-75.5531758249949	126.483753943841	-19.1505456080549	-34.986471008193	
2498000000.00005	-11.4817618848801	4.98606363822216	-59.3025403100005	140.473659368816	-88.0618125993278	160.5985188168	-19.1748814900497	-34.728631160138	
2498333333.33338	-11.5211605755503	4.36021371397619	-59.0987263960801	134.473008974386	-80.5845764073902	-55.0780664330288	-19.1904050882814	-34.6266799377966	
2498666666.66671	-11.5681632644156	3.74286968265173	-60.2671344712056	130.582696841299	-91.7328727754963	110.823717420616	-19.2372746748259	-34.4750593613551	
2499000000.00005	-11.6216284226605	3.21687693129775	-60.0501976397412	114.094476828714	-83.4011935214848	147.610473749608	-19.2940337389474	-34.2790653591379	
2499333333.33338	-11.6550526962058	2.57448491511134	-60.3656691550022	97.4301304080132	-79.270405592148	-155.994742887462	-19.3484199085381	-34.0772513942406	
2499666666.66671	-11.7114396923984	1.97366086532508	-59.4550557918545	90.5286219941681	-85.0658141883509	21.5369060400615	-19.3840205714976	-33.9211657182097	
2500000000.00005	-11.7537823700987	1.30332001492211	-59.6352790468558	79.397431304878	-74.4440053517511	-178.224810811129	-19.4286005327391	-33.7657274124844	
2500333333.33338	-11.784425488386	0.674198394848656	-60.2236156712386	78.4812125981837	-87.459328543947	25.5248933486515	-19.516770965496	-33.2804828832318	
2500666666.66671	-11.8336601984303	0.0520356725806837	-60.4852176882147	67.8309651272124	-84.9350799551117	166.034452953585	-19.5825475818117	-33.0131439062068	
2501000000.00005	-11.8798780957082	-0.626135554562974	-60.8841410945934	57.1355662131098	-87.990669158004	-59.8694442285787	-19.6518217668906	-32.6369410836575	
2501333333.33338	-11.9149379054515	-1.34474675048459	-60.3813520413835	43.360677111559	-76.0673591020322	-135.556111284931	-19.7243663551713	-32.0926112165447	
2501666666.66672	-11.9580887538645	-2.02489010934707	-61.6791489266612	37.2716235078439	-91.4073538469693	-27.2269683669438	-19.8094795168486	-31.716688483247	
2502000000.00005	-11.9995491724459	-2.69672437617771	-61.4922422643466	20.5175192001051	-76.3369846160165	31.4604550886944	-19.8966263787781	-31.3537707389641	
2502333333.33338	-12.0309498762059	-3.4538537772048	-62.3789144110576	26.7217332935976	-81.1568848640513	21.5078873939137	-20.0057810366459	-30.806976383806	
2502666666.66672	-12.0716130788389	-4.09126418117472	-63.1262914410438	10.6075120947326	-75.4781562208221	49.3175364798484	-20.0843095727199	-30.0521322517787	
2503000000.00005	-12.1018899343596	-4.84229839045699	-62.8537952876344	10.795678929081	-87.2765044433002	-97.5623862677569	-20.1606245912312	-29.5401433410117	
2503333333.33338	-12.1338223444002	-5.54634907549659	-64.327667235027	5.15378817252077	-87.8728832912011	52.5522963205032	-20.2768435724489	-28.6672834937437	
2503666666.66672	-12.1705729193885	-6.28288776465495	-63.0800053429753	-8.0231241877556	-84.2628411338865	130.527878997824	-20.3865738195327	-27.9167808632954	
2504000000.00005	-12.1986652767647	-7.04743313722993	-63.6688808024461	-19.2600755982542	-75.7045682437744	-77.1464055870763	-20.4878825224929	-27.2467429970654	
2504333333.33338	-12.2218731526428	-7.80416956238401	-63.6755165928152	-10.8438407836104	-77.2641004884346	-10.9211044537613	-20.5891366068042	-26.6184885011379	
2504666666.66672	-12.2530532207848	-8.55584228194139	-66.2571325933669	-17.078838307183	-74.0696367889954	119.460982781138	-20.7176430051785	-25.507283249516	
2505000000.00005	-12.2758483297611	-9.28451828384655	-67.4868537635246	-20.5467759703537	-76.7028755185308	-61.9691783152529	-20.8274494339996	-24.463355341571	
2505333333.33338	-12.2953464782429	-10.116508455602	-66.1001569491406	-48.4850107857577	-101.51547242337	-98.0986280564149	-20.9307257698381	-23.3227357354271	
2505666666.66672	-12.3240981612593	-10.8600133781199	-65.463418401185	-31.0309739240421	-89.5011740775465	103.902769514031	-21.0576796241985	-22.1485351296989	
2506000000.00005	-12.3497117179076	-11.6869356983205	-64.6399940653525	-40.7804659189314	-87.444524098212	-108.053459477452	-21.1410965416239	-20.9318673854536	
2506333333.33338	-12.3653531043129	-12.3832933697189	-65.6008788005677	-58.6640271531917	-94.3152209391425	169.698627275617	-21.274466586565	-19.6504054657218	
2506666666.66672	-12.3753151799498	-13.2123118392319	-63.4191135139653	-58.7720893205582	-77.1144284938258	156.694540260468	-21.3862763327007	-18.1258804901566	
2507000000.00005	-12.3992080691216	-14.0297217876466	-65.6933958049769	-55.8720627031701	-75.3138222640498	-168.813495085266	-21.4961249378193	-16.5512050138834	
2507333333.33338	-12.4079961824451	-14.840436668577	-63.530418933047	-54.6421136853445	-78.6369057447799	-52.053829741893	-21.5727426993899	-15.1297676844448	
2507666666.66672	-12.4254787054938	-15.6605172717562	-63.5831729361256	-77.601129812912	-78.33211650156	53.698736079357	-21.6579219242134	-13.5758785494052	
2508000000.00005	-12.4352450618619	-16.4711504718883	-63.9047827123474	-78.5547132669019	-86.7226363326506	91.6164692951816	-21.7271888069903	-11.9355949477139	
2508333333.33338	-12.446036488627	-17.2621599696797	-62.9931177387343	-94.0693613586035	-80.6935807337197	-168.363934372455	-21.8045416473355	-10.0210372357801	
2508666666.66672	-12.4588862274472	-18.085866837988	-62.131891700998	-98.8308029363265	-80.7108714436608	68.7222322699514	-21.8552031137057	-8.39590005941946	
2509000000.00005	-12.4588921208084	-18.9114444369678	-62.9871929764434	-101.374762494634	-81.1044364757257	-27.4408626413164	-21.8511625442556	-6.26986427961113	
2509333333.33339	-12.4701873634354	-19.7212611966403	-61.2733101481273	-113.724264908931	-79.8136612825663	-60.7785185072263	-21.874645491124	-4.58227376121686	
2509666666.66672	-12.4751492805859	-20.4885029790417	-60.9418242172922	-124.310411489206	-87.2325880386023	-91.5488516483908	-21.8698310393824	-2.8602351455691	
2510000000.00005	-12.4709568343732	-21.353012058259	-61.6195455502755	-125.227761419217	-77.0951511193144	-101.528038532998	-21.8738301836575	-0.789391240848579	
2510333333.33339	-12.4709113370286	-22.120944742431	-59.2384017323045	-137.44454389699	-81.9016105646057	-143.063347320953	-21.8542806902	1.02009052393131	
2510666666.66672	-12.4765249066646	-22.9288197316761	-59.184633180436	-151.278465761158	-78.7146097358923	-34.2089972063716	-21.8237404178664	2.9113770153859	
2511000000.00005	-12.4743234151239	-23.7409986329434	-58.9914276740726	-160.315748105265	-77.8825618419992	-123.590902330783	-21.7510581226566	4.66611784527911	
2511333333.33339	-12.4732403620424	-24.5425692983828	-58.9487391094923	-168.686644179067	-82.0606018723387	34.7937833035257	-21.7084077476877	6.53045343256321	
2511666666.66672	-12.4687113357054	-25.2902674042146	-59.5078666440254	-171.512359928856	-78.760357832896	172.889820270462	-21.6045631950866	8.19297829720384	
2512000000.00005	-12.4696611337118	-26.0937270523473	-60.9394902201386	175.846837596494	-88.2162146818858	-154.332642936533	-21.5126049894003	9.71314026214425	
2512333333.33339	-12.4534617347032	-26.8884482642112	-59.5648187271408	173.01204137149	-79.3993148331106	102.995801878126	-21.4335417353674	11.3188592724077	
2512666666.66672	-12.4517164828127	-27.6804947850308	-60.109656064639	156.539617258218	-79.5808103004521	33.7409615471279	-21.3182215302864	12.827662565864	
2513000000.00005	-12.4490009392557	-28.3635377385993	-57.5052246218697	158.696589975114	-79.1274646846584	149.635697910247	-21.2031146126657	14.3001718184081	
2513333333.33339	-12.4372488460529	-29.1190250075433	-59.1665751549768	140.411407890239	-81.3855384743571	-11.9114388949643	-21.0744066514376	15.6514721390785	
2513666666.66672	-12.4315644681294	-29.8068625684897	-58.3037038597546	140.61187639997	-81.7017055515861	137.604529360539	-20.9720075396383	16.987070892532	
2514000000.00005	-12.4288833709307	-30.5919720191826	-57.8774935398788	129.647256707377	-78.8701999536966	147.964291979159	-20.80200078086	18.1427379750452	
2514333333.33339	-12.419082182212	-31.2451210640706	-57.5668018849827	120.581491979332	-79.4064299748278	147.084412475486	-20.6709255243392	19.5396471463673	
2514666666.66672	-12.403141512043	-32.0468808115636	-57.2566915552643	111.861000033017	-80.9732588595227	-175.442255446076	-20.5334246816375	20.4652721895467	
2515000000.00005	-12.3972930088506	-32.7757267327813	-57.569555187864	109.19871682937	-74.6162163197073	81.7057181903052	-20.3740811966214	21.2031016231673	
2515333333.33339	-12.3859175420829	-33.4111167240235	-57.1313094748577	95.0366873913889	-88.8555337576822	-142.589632603048	-20.2194728957948	22.1962643543603	
2515666666.66672	-12.3804685794063	-34.0541832892255	-56.3367418437924	89.1426474444928	-86.6977178985299	66.0836738765171	-20.0945766846151	23.0191339284749	
2516000000.00006	-12.3700184777644	-34.7341651242674	-57.1072470080892	77.9401345867666	-76.4561903259447	9.80631838993365	-19.9355757668095	23.6134113769565	
2516333333.33339	-12.3689374711214	-35.4384883607783	-57.4986574044923	66.1578511840957	-84.3834192429154	92.2651049899272	-19.7727909017231	24.0880659470029	
2516666666.66672	-12.3561270552651	-35.9905781157389	-56.7028547807265	52.762866972146	-92.9890096477193	-150.35864712706	-19.6701044517169	24.5580270818128	
2517000000.00006	-12.3519198942121	-36.6707902049411	-56.4537230278447	47.009122669123	-78.8355592663697	105.381112360593	-19.5291059057766	24.9493454116875	
2517333333.33339	-12.3370409316656	-37.2212365843296	-56.9755028814663	40.5688383347082	-80.7867929024174	-104.324045009499	-19.3903799598535	25.2882927181467	
2517666666.66672	-12.329584795992	-37.894635772738	-56.4557192266719	26.1469695094485	-79.8162116937323	86.8461936467952	-19.2727480559017	25.4192649563359	
2518000000.00006	-12.3303685514316	-38.4508971258011	-55.9010627775894	17.7699665515643	-78.3120196627631	-100.543652723721	-19.1545026545704	25.6737495520571	
2518333333.33339	-12.3185221446435	-39.0255132050914	-56.7432496353959	9.35206123119789	-82.0217710299884	176.302898946945	-19.042003298883	25.644474149268	
2518666666.66672	-12.3141235087313	-39.5667990360177	-56.2354750637988	-3.76426701001014	-75.3104932110285	-129.980383129237	-18.9664656283359	25.5953361097327	
2519000000.00006	-12.3197998451467	-40.1103093895505	-56.1484890273327	-4.84020676783421	-84.92424493336	-106.474909708487	-18.8785929463256	25.6911359953035	
2519333333.33339	-12.3046443475075	-40.6186348050926	-55.7694007406691	-27.9687380586982	-85.3870661469734	-73.8480872458905	-18.813031344708	25.5316890149229	
2519666666.66672	-12.3092460219819	-41.1695417470904	-57.0561681776074	-29.2440035785778	-76.6883027123933	116.726651664912	-18.7285690350006	25.4237868587264	
2520000000.00006	-12.3088288696358	-41.5862871736047	-56.4961170629446	-46.5771149522348	-85.3489932935816	-5.17521409267281	-18.6428220399827	25.2082647824582	
2520333333.33339	-12.3061374676595	-42.0506154180637	-55.5350150537531	-56.2150689719731	-79.3706665637503	-50.8152844093982	-18.6253287056841	24.957743647001	
2520666666.66672	-12.3108987193806	-42.5285046214253	-55.3996183100816	-60.2241785282785	-83.7031176734248	33.6980303076508	-18.5734226537968	24.7059619435239	
2521000000.00006	-12.3048278650442	-42.9638496854434	-55.2465050417622	-72.0924579151527	-79.991354161809	164.342951367083	-18.5442199522971	24.3577497909674	
2521333333.33339	-12.3071679411756	-43.3859572515361	-55.7338372886436	-79.5942385336496	-81.3938831624325	140.016402570799	-18.5072355882008	23.9583478963947	
2521666666.66672	-12.3029225606404	-43.72474606108	-55.9896441624407	-86.0035755586645	-72.9568725203141	-162.654361307875	-18.5065230247705	23.634464722577	
2522000000.00006	-12.3164928965113	-44.1786497676956	-56.1381575987869	-99.1382502107757	-90.8252616532568	142.474171920981	-18.5128797933668	23.3432750383374	
2522333333.33339	-12.3206950455707	-44.5530398198027	-55.5174445618799	-115.59509558073	-83.8928236758843	113.78876087554	-18.5267208451099	22.9523791784302	
2522666666.66673	-12.315551758701	-44.8794843926249	-56.1920192718756	-123.677559146242	-79.9352078382631	-167.951475155992	-18.5451565980506	22.4545518887302	
2523000000.00006	-12.3259321829928	-45.2706983737604	-57.965234215367	-130.87509543417	-99.403447755866	-73.1438153983398	-18.5670953206051	22.0351933101198	
2523333333.33339	-12.3241214409219	-45.5181810340395	-56.9223834749034	-138.063490589578	-81.1982899009747	-88.955991252275	-18.5825919770044	21.5239560664163	
2523666666.66673	-12.3298948590659	-45.8584947231429	-56.919732682418	-148.859461915071	-76.8015244517321	147.411896239094	-18.6175334174989	21.2367649452794	
2524000000.00006	-12.3422776905042	-46.0684785548573	-57.4406194144444	-159.197598650198	-75.2479375805544	-127.918836421619	-18.6742410956054	20.7852394134642	
2524333333.33339	-12.3402798878278	-46.3831319095421	-59.1930952514159	-165.543584254237	-83.8307463019244	168.410010152535	-18.7204036661765	20.2046408828549	
2524666666.66673	-12.3501419029254	-46.6436121452776	-58.6368250968043	-176.120033248596	-80.0429326085128	-147.212540814816	-18.7659846024717	19.767365368359	
2525000000.00006	-12.3662099069089	-46.8521263295044	-58.6221521281708	170.222804847435	-80.639511124136	-119.878802287441	-18.826655295982	19.2247384335448	
2525333333.33339	-12.3793034363023	-47.0867048844482	-59.517946979876	161.933893302628	-81.3881979149734	-58.7258526522571	-18.8811203730194	18.863137740788	
2525666666.66673	-12.3953422974234	-47.3681058136843	-59.6540357097545	153.460888760783	-76.6341838979202	-155.278018388017	-18.9672737933309	18.2478524171449	
2526000000.00006	-12.3974055238669	-47.5825343287588	-60.3048980113977	156.543233640351	-75.8714800529584	170.160440095659	-19.0507431643862	17.7861048828282	
2526333333.33339	-12.4104919654594	-47.8267557862028	-60.4614575464564	140.824565127443	-78.1823644004356	113.866410695243	-19.1241640771884	17.1902341330307	
2526666666.66673	-12.424566019442	-48.0227238860981	-61.1403837562512	129.323298996659	-80.6178359854355	126.428655948578	-19.2371054812766	16.64576783425	
2527000000.00006	-12.4321594270346	-48.1588476406906	-59.9715748734345	125.322501561454	-76.7740570682959	154.877178264986	-19.3342169940123	16.085353430532	
2527333333.33339	-12.4525401390891	-48.3713018080946	-60.7265399847429	112.016839198279	-79.3111537752211	121.77723460524	-19.4485531621578	15.5200857588747	
2527666666.66673	-12.457927285889	-48.4720883319264	-60.9131494211952	108.720797853327	-77.1475154373895	157.500671968483	-19.5487380806069	14.9045992335495	
2528000000.00006	-12.4798431389562	-48.7300008177845	-60.907506196448	121.688879845163	-80.2398017390624	-161.499927359505	-19.6397301658583	14.3858682911261	
2528333333.33339	-12.5039759641246	-48.8596252599467	-61.6566382425175	92.2808348290668	-85.1497656472653	134.147134563265	-19.7623751363625	13.7635629289522	
2528666666.66673	-12.5282353392861	-49.0175903296646	-61.8790856609237	76.9460080583835	-80.6122248386444	43.5815309455502	-19.8657834465689	13.0901636013989	
2529000000.00006	-12.5432600335319	-49.1648606296839	-64.8494087233339	67.3307785830765	-81.4795567673706	118.181690053054	-19.979212530706	12.4335013405969	
2529333333.3334	-12.5667082012908	-49.3681431112165	-62.5773879352266	67.3531708753484	-72.8917942870515	-52.6998992853454	-20.0980067908739	11.8944388131955	
2529666666.66673	-12.5973238158936	-49.4979502106114	-63.0584139274296	63.5485293090544	-80.6768117255363	144.552935659938	-20.2285204926478	11.2549147559849	
2530000000.00006	-12.6109498162	-49.6750057317458	-63.9374290100464	53.8797335342634	-78.3575990098074	-160.055668356588	-20.3468622179853	10.5620971298861	
2530333333.3334	-12.6422774119029	-49.9631425929279	-65.642364858996	45.9366161305794	-75.9556847834073	56.218824754185	-20.4795875205658	9.93202867203672	
2530666666.66673	-12.6612043193735	-50.0996735153591	-64.0431382231894	30.1916716311013	-81.4658389523693	-105.591002476745	-20.6143894416238	9.33444027746538	
2531000000.00006	-12.7001131405584	-50.3146060505948	-62.1866327116772	33.3052041275634	-86.9370301892051	-178.421573785665	-20.7220109969357	8.53098326004381	
2531333333.3334	-12.7247431034282	-50.4893436500819	-63.4833213010036	9.8328905753283	-82.9403876601529	-155.421613584133	-20.8754443138507	7.85929223834772	
2531666666.66673	-12.7739247496766	-50.600638419684	-61.8715961411529	15.3114542376101	-72.8163506800139	-70.5011601874565	-20.9925202769889	7.05503487635756	
2532000000.00006	-12.7935074352449	-50.8320414038454	-65.387811948368	-1.99154168002712	-81.6508628215583	143.513168054768	-21.132576806463	6.30633096979651	
2532333333.3334	-12.8133116944325	-51.0452991835114	-64.3532785548659	7.67862272026367	-74.8419676628609	163.938929293777	-21.2482651532622	5.59377801746182	
2532666666.66673	-12.8728373642764	-51.1454662849076	-62.5492760923761	-0.319710454426346	-78.9639079796429	7.09872171550655	-21.3706680672551	4.70851902532334	
2533000000.00006	-12.9161871815497	-51.4369499969332	-63.3003369362906	-10.6268266358019	-78.6597340834321	-114.876863906471	-21.4849627778454	3.97669343601141	
2533333333.3334	-12.9535769988872	-51.5476662450722	-65.0250239326746	-29.2597161140036	-80.3274149139089	167.789707593257	-21.6249359669111	3.2094922141233	
2533666666.66673	-13.0062160870861	-51.730747054647	-63.6210220999255	-37.2483814022194	-99.8961350734852	141.847460738506	-21.7546182403312	2.42823127587276	
2534000000.00006	-13.0499910248897	-51.9253015482235	-65.9309156627904	-25.9645991028362	-82.3100082498449	-108.299540649571	-21.8778599449845	1.49542351662404	
2534333333.3334	-13.0929177742525	-52.1357029611626	-64.1394974532721	-64.9877287346161	-79.3284511354812	-146.94239012361	-21.97687139862	0.717910859077172	
2534666666.66673	-13.1533806802206	-52.1956898028457	-68.6524869721939	-65.1135123171302	-80.864487877003	-146.887034099648	-22.0624799393468	-0.050068777259785	
2535000000.00006	-13.2058548019118	-52.4490897842887	-67.996188327992	-83.2138392898042	-80.591106763733	-87.6694747527997	-22.1595729780983	-1.06849873187567	
2535333333.3334	-13.2640177359446	-52.6539945205555	-65.5188793887255	-59.6966254849743	-96.2599362447485	-39.3870179384091	-22.244126067242	-1.7983778856773	
2535666666.66673	-13.3068284545635	-52.8154923876542	-66.6646099369919	-88.7647752833302	-77.6753702614236	-58.2019770813421	-22.3393048219841	-2.9100527757382	
2536000000.00006	-13.3807904160223	-52.9804028382721	-74.6488212221275	-130.436529472748	-79.1650862625081	58.798574466355	-22.4110072628587	-3.75958412664381	
2536333333.3334	-13.4464755222245	-53.2511205090427	-69.5371883538983	-105.232427231364	-79.7817299875708	-58.6286990846123	-22.4727706088395	-4.63562884914514	
2536666666.66673	-13.4988737739122	-53.4551996326328	-74.0234997523966	-42.3049470067642	-76.1912120382613	-55.8128619878635	-22.5222227076493	-5.82813680948955	
2537000000.00007	-13.5549092612718	-53.5181285570718	-76.3191469298382	-77.4876738399725	-77.537381099693	138.063773724875	-22.5650427123885	-6.74538518128157	
2537333333.3334	-13.6333725137456	-53.7763784312711	-78.2509256507757	-145.45129716411	-75.58226941965	178.606711183369	-22.6024784261873	-7.82536083689105	
2537666666.66673	-13.677634260077	-53.9054721226379	-75.1720024158372	-147.96981896625	-80.6151911171103	-58.8004485801539	-22.6358402403401	-8.94525765062459	
2538000000.00007	-13.7623091101849	-54.1819338252082	-80.0066551193016	6.05054287755286	-84.2680938792048	-118.061285262364	-22.6437419561335	-10.1185410100089	
2538333333.3334	-13.8285443172198	-54.2772219847224	-78.0318871905969	-113.722459680019	-75.7933596870219	-119.708460020121	-22.6717258134024	-11.3569495761732	
2538666666.66673	-13.8983987475989	-54.4979196520212	-75.0231843941461	-43.0131347089639	-81.1156345936276	10.7684092017741	-22.6695970369303	-12.3632667426941	
2539000000.00007	-13.978979155386	-54.624683311083	-70.4802518059392	-48.0785988412146	-79.2031885106786	-108.076257673008	-22.6724779709988	-13.673834189635	
2539333333.3334	-14.0509143364828	-54.6928337209415	-73.6851091047445	-67.5381084029992	-88.7902578813259	133.439832821852	-22.6671719703967	-14.8132184846349	
2539666666.66673	-14.1368175008471	-55.0318032715084	-68.0982361660162	-85.1502207223203	-75.8851130471244	145.572852589891	-22.6470124601232	-16.0159312007946	
2540000000.00007	-14.207437226403	-55.0931494045991	-67.0709391150606	-83.412058729852	-94.9533980517596	-43.5834126429692	-22.631878259072	-17.2631487707133	
2540333333.3334	-14.2974667753922	-55.3468339109681	-66.1359057539973	-82.6090187309648	-76.6159925317104	148.544708535865	-22.5982366270475	-18.555337001607	
2540666666.66673	-14.3858776351518	-55.5041637074085	-65.473700861735	-96.1072088535569	-79.2985181501436	-60.7214284413732	-22.5615832974059	-19.7452029298693	
2541000000.00007	-14.4677557148982	-55.6860547117916	-64.0464015577618	-101.319408094791	-84.5722871962772	68.7733267388535	-22.529465420094	-20.8993213239667	
2541333333.3334	-14.5331157027209	-55.9399555749829	-65.0818714966473	-112.221619914367	-82.5221598355113	-19.9029976586854	-22.4705433106311	-22.0612006209041	
2541666666.66673	-14.6056831922975	-56.1478766517023	-63.485717689646	-126.295602621266	-78.7790157499564	-114.039735899195	-22.3904346788693	-23.4920869404015	
2542000000.00007	-14.7074647921577	-56.3993304177883	-62.4248022094073	-142.819855745728	-89.9631919357727	-60.0370423983359	-22.3427047876938	-24.6990027444123	
2542333333.3334	-14.8106606496488	-56.5176641163674	-62.0833637091874	-146.41904470258	-76.4721101426844	-72.4754922297054	-22.2847285841402	-25.9123954856535	
2542666666.66673	-14.8963204271464	-56.7416321031469	-62.3522228295437	-159.655362973978	-78.4299043241715	-121.580836620284	-22.2187162388017	-27.1773954934034	
2543000000.00007	-14.9858575752436	-56.8829773219409	-63.2210169364633	-170.751702009403	-77.1594357963669	-156.174889043726	-22.1479742186107	-28.4728646495752	
2543333333.3334	-15.0849934694017	-57.2064483131207	-62.1994561360722	176.268306318379	-76.4737219794395	-111.937403272489	-22.0827663309145	-29.536385466169	
2543666666.66674	-15.1784531917444	-57.3919889030231	-63.9786823269959	171.283184876458	-83.474803641839	-60.8414612135095	-22.0154303450535	-30.7959492762331	
2544000000.00007	-15.2569931726503	-57.699624681114	-62.8079883632525	169.795616000538	-78.1433060227515	80.1923083748313	-21.9464156927498	-32.0290763027515	
2544333333.3334	-15.3554278549494	-57.9924387926202	-63.6381189006491	160.493464710435	-78.1994383634987	12.5299969291968	-21.8777155064655	-33.1893871946328	
2544666666.66674	-15.4512710969557	-58.2576230439083	-61.2585161366871	144.675790966559	-78.9778864694539	-88.9246049694287	-21.7959001617529	-34.2970239402581	
2545000000.00007	-15.5582984509988	-58.6065445587003	-62.1034414365616	129.982070400468	-86.8432104871734	22.85846583699	-21.7274070031212	-35.4880902193738	
2545333333.3334	-15.6335206023907	-58.8363765819639	-62.3805364835658	131.513862632963	-79.3115217008286	-111.586167862184	-21.6726235751623	-36.6727277500793	
2545666666.66674	-15.7455456633064	-59.0966121361794	-61.5929061830289	112.06196761652	-77.4420462080576	164.591766907443	-21.6128367403736	-37.6762790604432	
2546000000.00007	-15.8492985466063	-59.3799658740268	-61.6550452811947	106.578230710426	-87.5089336802494	-91.5558868039138	-21.5506159727081	-38.7053426119221	
2546333333.3334	-15.9479022281683	-59.7571404103611	-61.9399204841807	93.3681943138138	-90.5641135727427	-39.0489767864397	-21.4977494783304	-39.756977297964	
2546666666.66674	-16.0316625835542	-60.1855923245724	-60.5332505670951	81.4394826438826	-80.2340575321076	-4.49348069638101	-21.4610835987768	-40.8069390825672	
2547000000.00007	-16.1459001373311	-60.5638780527909	-62.3423584769059	84.0673694029985	-81.2264977579866	-104.156291195481	-21.395986704642	-41.6586399793118	
2547333333.3334	-16.2609551317254	-60.9306436836921	-61.022547764978	65.2103772325974	-79.1317006029469	-81.1977628860589	-21.3722906517715	-42.6036523863952	
2547666666.66674	-16.3430065663696	-61.2436795625753	-60.2993566436796	57.779349591431	-77.8075544745212	-49.2599260968874	-21.3260734566783	-43.5400359606791	
2548000000.00007	-16.4497014616276	-61.6923067517734	-61.7018793149021	47.9646953388778	-72.7081411357227	-53.1836431921443	-21.2919782319276	-44.4133174044441	
2548333333.3334	-16.5353428839739	-62.1265274954751	-62.6515653414113	29.3884516454893	-81.6118884506163	-119.620779496971	-21.2816265036316	-45.2178711606136	
2548666666.66674	-16.6550932198253	-62.5743456643756	-61.7756031807336	29.8584420890469	-82.471318179133	62.2546913558448	-21.283402978366	-46.0946867530047	
2549000000.00007	-16.7530647974619	-63.0232276002683	-60.8233640378341	18.342850889936	-77.7034113034418	-60.0007827264343	-21.2407519883921	-46.7314964330636	
2549333333.3334	-16.8420970141229	-63.6652399116259	-61.1215519919125	15.3585370237127	-80.2460890859663	-84.7115109169961	-21.2537803719755	-47.3313012821064	
2549666666.66674	-16.948926636907	-64.1658125861018	-61.875223859627	8.41542802351664	-82.757475835073	-138.231896911599	-21.2771120511511	-48.0692626547179	
2550000000.00007	-17.0456302568167	-64.6327171426594	-63.7844813931606	-2.02066369955486	-80.8048996032443	114.412949853239	-21.2873125056086	-48.7013304005912	
2550333333.33341	-17.1353655379517	-65.4275941688794	-62.7364143595111	-9.78409400070509	-77.4995099911518	-92.6237198750261	-21.321069239462	-49.1474512318225	
2550666666.66674	-17.2273596174794	-65.9651497141977	-62.4529367164505	-8.91543590914666	-83.5688244505786	49.727004590398	-21.3419586069632	-49.6661341456342	
2551000000.00007	-17.3291172846841	-66.5807531815965	-62.3401831118733	-18.6896721784568	-82.6175871734853	130.140710343576	-21.4092916053295	-50.0026196583196	
2551333333.33341	-17.4320666325547	-67.2474531115628	-62.9134337321639	-37.3893152174623	-89.0434779480076	-123.567984655561	-21.4434515559477	-50.3179273895406	
2551666666.66674	-17.5312042787321	-67.8738715058161	-62.1272076061829	-43.5739012023153	-81.3187611517223	36.7858026028758	-21.5236526612383	-50.6523043186518	
2552000000.00007	-17.6272848837723	-68.6351426628508	-62.7106542235119	-52.3073024771302	-82.3350281825182	24.7492885746931	-21.5965508576557	-50.795292552604	
2552333333.33341	-17.7102096569445	-69.3841903359813	-63.8871546976236	-61.0669319004111	-77.3166688340293	-78.3124405996715	-21.6579314816178	-50.8409225860745	
2552666666.66674	-17.7963470111276	-70.1137811039693	-64.8941804567544	-72.7123751384113	-100.90318608521	37.6314536007606	-21.7663321244354	-50.9089841118406	
2553000000.00007	-17.8830995787445	-70.9479702660799	-64.0407472279236	-69.7630225675873	-84.8619829919502	120.641220508661	-21.889851395353	-50.7048396751866	
2553333333.33341	-17.9645613141048	-71.7241664736651	-62.7921147914418	-82.1164689015486	-81.5086382754894	23.1960499297198	-22.0053258234045	-50.5865604252195	
2553666666.66674	-18.0694035346958	-72.5190686991023	-65.3051714068565	-87.858954874387	-81.7236099296459	28.9901772773802	-22.1179651327175	-50.2533181729526	
2554000000.00007	-18.1514379078127	-73.4261864039302	-65.892167555848	-104.512197137695	-85.9142175201147	-17.8370948589071	-22.234940613026	-49.5448139088693	
2554333333.33341	-18.2102768202918	-74.2264663565471	-66.0658004308594	-106.651674468478	-76.7151939293811	-150.880061868141	-22.3858508138615	-48.7791773850938	
2554666666.66674	-18.2961173840662	-75.1459561315195	-64.0611903046421	-110.649605260946	-76.6031827830185	38.8424456882832	-22.4613690221257	-47.9296466269301	
2555000000.00007	-18.3638327543461	-75.9186340680454	-65.2846756451	-121.331964130829	-83.7238054936046	16.4376154367124	-22.5960814766572	-47.1821875235681	
2555333333.33341	-18.4268781739393	-76.9008933368602	-65.0255966610547	-138.879386872845	-86.9960255190427	106.452176054528	-22.7116966906577	-45.8615079053979	
2555666666.66674	-18.5035518423199	-77.7379873109639	-67.2605148739887	-127.313858473541	-78.766228928803	92.3565410729777	-22.8222677969836	-44.6590635622891	
2556000000.00007	-18.5586834660501	-78.7527798878445	-66.412719536585	-135.092391117346	-78.0196237416897	-53.886978762709	-22.8990952515194	-43.1500567492926	
2556333333.33341	-18.6116608877299	-79.588497398019	-64.5894516519909	-145.600384604025	-80.9630715059517	-131.162145805088	-23.0001709284249	-41.5843926042928	
2556666666.66674	-18.6575784498668	-80.6721756244231	-65.566653658302	-164.05016978588	-93.5800556440566	-109.24699220316	-23.0723687507675	-40.0833179557699	
2557000000.00007	-18.6938856996131	-81.5204687784164	-67.1799349942104	-159.194727701158	-102.017090989821	-159.966246826353	-23.1143151639685	-38.2056914579324	
2557333333.33341	-18.759306628466	-82.468419076477	-66.2457005269274	-161.43033907617	-80.6955237886636	164.37603766378	-23.1464070781118	-36.2996442705439	
2557666666.66674	-18.7972059160543	-83.7049299481264	-65.8183300284221	-177.981610605534	-77.8434686585158	-94.6238881702514	-23.1557512217414	-34.27248860403	
2558000000.00008	-18.8276720462093	-84.6125867768657	-64.5468255871441	168.224355068168	-96.8789983491146	59.0648615263439	-23.1233508275222	-32.3366211842364	
2558333333.33341	-18.8448614268759	-85.600176030207	-63.5131274481956	172.136720657969	-78.6094670867298	-158.982425996346	-23.0811549143696	-30.3336766862469	
2558666666.66674	-18.8666565318405	-86.5600115201473	-63.0977746286648	177.291422343141	-82.6099755567258	-120.112956104306	-23.0015891654156	-28.2307960632015	
2559000000.00008	-18.9026714720111	-87.4547970897216	-65.6971642426823	154.167408894836	-89.9840432467682	156.455571172955	-22.9131816826871	-26.1152313878482	
2559333333.33341	-18.9056091162568	-88.6177339245419	-65.563391726561	145.64854747147	-82.4684131852655	-72.4643019982766	-22.8119988188381	-24.2806981321887	
2559666666.66674	-18.9094241949868	-89.5709318929209	-63.5045679500985	150.072219594151	-78.0982233823089	87.629501388426	-22.6582366477136	-22.4118226998382	
2560000000.00008	-18.9037253385406	-90.4659540651858	-64.3948035459826	130.773464288224	-80.4899138975867	61.408582714547	-22.4970440200286	-20.4853517720171	
2560333333.33341	-18.9106116893309	-91.5459263778311	-65.1624091494041	128.623023421301	-82.2596128487967	57.7168189263943	-22.3375850576462	-18.9025874364467	
2560666666.66674	-18.9090185589493	-92.5351580630824	-63.1611451086864	120.060589055469	-81.8729495793365	-98.3573191730449	-22.1532679940664	-17.3770646408472	
2561000000.00008	-18.8834118056656	-93.4507945096865	-63.469720258422	116.799726982623	-84.7391888768441	-145.984797133448	-21.9707931547926	-15.8465622728449	
2561333333.33341	-18.8623228754993	-94.3983363687708	-64.5485968642713	108.955958816182	-83.0867125315115	2.9590442728745	-21.7640396996501	-14.4180559411866	
2561666666.66674	-18.8431753636275	-95.3941815994356	-62.7758061680057	94.1022248990644	-85.4442957426587	-3.4692443977094	-21.5546243124336	-13.4276466730999	
2562000000.00008	-18.8171803660195	-96.2283914775526	-64.3888037003877	89.9961307010884	-90.1250711234947	-14.4299257195278	-21.3211671811685	-12.3397508219016	
2562333333.33341	-18.787107661001	-97.2955400894709	-61.9878542979855	91.3777197599152	-77.4576398481563	132.115219315033	-21.1585845243451	-11.4149210602082	
2562666666.66674	-18.7513370968735	-98.1278054258913	-62.8660874768634	77.9504864443039	-82.6884433485146	167.769019734423	-20.9298522647855	-10.4513194739292	
2563000000.00008	-18.7357827454643	-99.0746068896951	-62.6485844916612	75.365413946129	-78.4805180239317	166.411293249295	-20.7046922299071	-9.60285668574763	
2563333333.33341	-18.6813773711078	-99.880350816801	-63.7875740757917	68.447596879173	-77.2899050365643	88.2642057644364	-20.5328367390583	-8.70929838881981	
2563666666.66674	-18.6397927284832	-100.674780627763	-61.6545727001835	59.6364813030943	-78.8705115703707	134.03631846603	-20.3323665726584	-8.07668512169557	
2564000000.00008	-18.5798859818039	-101.621752851687	-62.5681256833254	60.613646552615	-77.7518708500597	41.666627457639	-20.1557724763056	-7.62822692286156	
2564333333.33341	-18.544693868091	-102.440302562178	-61.5194619911953	43.2051212670628	-81.1973127896324	167.274942375953	-19.9670401343626	-7.20633627586221	
2564666666.66675	-18.4817412342505	-103.29193141823	-62.4536058403775	36.0098069439483	-73.2016813797023	4.89733551728792	-19.7805201346298	-6.88506190386622	
2565000000.00008	-18.4373697441553	-104.026434391714	-61.8970828314107	14.9429575851689	-76.0881389356417	112.901812841265	-19.6142171070618	-6.49963662861431	
2565333333.33341	-18.3781682124848	-104.837437316515	-62.3905100548198	16.1514126399996	-81.6007331047488	132.761003868225	-19.4533820842545	-6.34631632612351	
2565666666.66675	-18.3227672030572	-105.549947314307	-61.7519806196587	-1.83743733457999	-94.7532734972904	-65.8758842507942	-19.3274225400301	-6.10260854692551	
2566000000.00008	-18.2764397608884	-106.341970750063	-61.6426787740845	-5.91931679023201	-77.206225545311	56.3781573483474	-19.1831907584964	-6.01662328284213	
2566333333.33341	-18.2032331390011	-107.084688806834	-62.8436818943087	-11.1058204026755	-86.0823862595971	-146.790875793007	-19.0483694523092	-5.97281733595393	
2566666666.66675	-18.1678301866387	-107.821108645838	-65.1581109284934	-23.1438516164944	-84.5970234766995	-84.4983357964372	-18.9412350146813	-6.06410187013644	
2567000000.00008	-18.1050849948831	-108.482646781944	-62.8471477844431	-30.1197381082866	-79.627518527251	45.7952743493147	-18.8353402704971	-5.95205258204851	
2567333333.33341	-18.0381842165605	-109.258291143695	-64.929588028652	-53.4658258979213	-87.9841742943402	-122.239895307582	-18.7604275859231	-6.1103563876846	
2567666666.66675	-17.9926636551851	-109.956264098844	-62.9061211186953	-55.2815741816602	-78.0149583330178	57.8541372111612	-18.6699936247958	-6.0517992662332	
2568000000.00008	-17.9385482100719	-110.597054234302	-61.5743871514072	-64.1555555331147	-77.2728350404195	-80.9227258804699	-18.6030244440201	-6.15466731369656	
2568333333.33341	-17.8920701483116	-111.329219979765	-62.9515935941533	-66.7834041696111	-80.2172389912385	132.616970044958	-18.5490824845838	-6.37300191680413	
2568666666.66675	-17.8265166219103	-111.909952564872	-63.069050782802	-81.4903213441448	-81.9526321959414	93.5119487477617	-18.5014270504462	-6.53772633640847	
2569000000.00008	-17.7756806198376	-112.516961896078	-63.3412683354625	-88.9912412676339	-91.3462906161016	145.013689505407	-18.4579839694714	-6.68191357962794	
2569333333.33341	-17.7009246705922	-113.150722114075	-64.7697974728746	-88.840391684635	-75.3914622486686	-158.466657480142	-18.4230872954638	-6.86216349285555	
2569666666.66675	-17.6529170306428	-113.743818049877	-62.4338472063532	-96.3703405565384	-76.0740526661077	0.927336034093709	-18.4315482919884	-7.18459741383174	
2570000000.00008	-17.6000687656253	-114.336119264972	-63.2645003505432	-102.730643649967	-82.9458780904249	-166.431846023838	-18.4382655589419	-7.35652100136015	
2570333333.33341	-17.5537644867409	-114.956421192692	-63.3875915554857	-98.7853088415175	-84.785817839949	46.3005440157565	-18.478163462418	-7.56831930319535	
2570666666.66675	-17.4993557843457	-115.463972548099	-64.474471652329	-127.670795406241	-79.3710454288356	97.5925101632578	-18.4954924723109	-7.6805926610832	
2571000000.00008	-17.4758310089172	-116.184744862235	-65.2074164760156	-112.43350337211	-81.5294430827855	110.411167018173	-18.5598110368647	-7.7878364674301	
2571333333.33342	-17.416217016922	-116.719363769108	-64.3003238204618	-117.080109738737	-84.4035333801883	37.0380952348691	-18.6221215600618	-7.84321981162039	
2571666666.66675	-17.3892616583668	-117.328379376046	-63.2840413760566	-133.885413178586	-75.2186274930428	-79.701590224314	-18.7171097187898	-7.90338914242437	
2572000000.00008	-17.3475779245816	-117.801097068123	-64.1053177289702	-136.882003660014	-85.2811110695517	-150.26864137884	-18.7712084670942	-8.00525413924974	
2572333333.33342	-17.3118162356125	-118.415003387443	-62.3497740742967	-137.153445733418	-77.1944926216049	105.691073161978	-18.8682057584059	-8.00324788259677	
2572666666.66675	-17.2671293886094	-118.853207635247	-61.5742002849928	-151.826231341671	-88.7885495531852	43.7807687560996	-19.004370911631	-7.96007322582677	
2573000000.00008	-17.2482530484425	-119.462876803421	-63.1245214908645	-149.577623001115	-89.0077828790169	164.625610037872	-19.116848498667	-7.66263497600266	
2573333333.33342	-17.2078307474258	-119.990294279321	-61.0132433642093	-154.295823669944	-83.0839875927864	-116.168839990666	-19.2490147668725	-7.66222238525473	
2573666666.66675	-17.1891171008842	-120.567308050616	-61.4398080780542	-166.912855331074	-85.0530625580098	-122.187386257908	-19.3931199962275	-7.21300974028441	
2574000000.00008	-17.1418525073688	-121.25172795231	-62.6146345338581	-176.419112770292	-72.6067457615348	122.720273010478	-19.5516204433567	-6.87157444279425	
2574333333.33342	-17.1467218684694	-121.570669341168	-61.3619062341635	-169.573463822041	-78.8803389786449	4.6475550072412	-19.7015519088679	-6.33032752457384	
2574666666.66675	-17.1314264920342	-122.25763741569	-60.548408197951	167.172937364723	-77.6496462669197	48.0199860785226	-19.8721604524593	-5.81221727174952	
2575000000.00008	-17.1165205504751	-122.755079127913	-59.7176849432257	158.434595434606	-79.9759191888969	-82.4021260768836	-20.0245086323287	-5.02812890411973	
2575333333.33342	-17.1095675418252	-123.299544352421	-60.1918442787393	155.479376278431	-84.429190416507	132.806228568236	-20.1876810425663	-4.43713373705943	
2575666666.66675	-17.0976819818182	-123.861739241396	-59.64964485247	139.861432014222	-79.4924356135244	36.2617518151206	-20.3559917309559	-3.53638055637967	
2576000000.00008	-17.100854491814	-124.415563042772	-60.3190185108681	129.476208752988	-75.8053831067638	98.613491232396	-20.5306577662866	-2.61939811736493	
2576333333.33342	-17.1084163678084	-124.965852456627	-59.9619018712901	121.581532528022	-91.7984783814423	-141.057382573118	-20.697258765299	-1.42826668732005	
2576666666.66675	-17.1069152553122	-125.576077896945	-60.5006211500459	114.184383939686	-76.465758479193	143.553113105929	-20.8738777480687	-0.312051578530963	
2577000000.00008	-17.1446030479883	-126.202428182912	-60.1297135281664	99.4806388007867	-76.0691667958793	-104.158047707337	-21.0294520396869	1.1092590550315	
2577333333.33342	-17.1578962661908	-126.688769590582	-60.1984882492336	100.710844029885	-90.6278580243673	131.019496493348	-21.2058298771881	2.66222084839124	
2577666666.66675	-17.1708379056108	-127.377715568706	-59.2698445108269	88.4177638900332	-97.4621434715603	-0.633752927580032	-21.2791066715753	4.07098512854556	
2578000000.00008	-17.20255965074	-128.038968479443	-60.643042789778	88.3816069165941	-78.5203693551383	85.6521612063151	-21.4053994414226	5.66083971011924	
2578333333.33342	-17.2151616720177	-128.563608333035	-59.0757759184638	71.2848458616268	-83.6317258520974	-176.888474334718	-21.4997389581608	7.44731511608387	
2578666666.66675	-17.2592329934497	-129.017623806148	-59.4707642666402	60.6822222477842	-90.7110111025284	20.2658125318569	-21.5854062723441	9.26973573164819	
2579000000.00009	-17.310660404836	-129.699890609166	-59.1183851683893	56.2956894537907	-77.7820656865245	-20.2191656029717	-21.6419802018751	11.1061955186231	
2579333333.33342	-17.3503600734851	-130.4056143735	-60.0838807896358	40.4165816139155	-81.7998517155667	-153.360547152579	-21.6966509873967	12.7931696643131	
2579666666.66675	-17.4019379109115	-131.025741771159	-59.5059215380721	39.6350220489918	-86.1979857275755	-99.6329366109472	-21.6974459243868	14.7756809237724	
2580000000.00009	-17.4682583288942	-131.560826972255	-58.9244067549253	28.6023542721828	-91.3572250957598	-6.10164989960928	-21.6853626692047	16.3238923625643	
2580333333.33342	-17.5073900043087	-132.206893345605	-59.832562255185	27.5158125211723	-88.6985768036171	157.795760432118	-21.6491741265119	18.129832633993	
2580666666.66675	-17.5964315724461	-132.959218203351	-59.5782313678225	15.75730505172	-87.3012407570327	45.0384174718449	-21.6147337975101	19.7040300469361	
2581000000.00009	-17.6587580740945	-133.533099410013	-58.8584453858377	7.00316019654654	-87.2306966104712	-84.3092724781929	-21.508114412689	20.9889018574592	
2581333333.33342	-17.7212326290851	-134.077420482596	-59.9243570814805	3.29190831387799	-75.3908985545795	171.869835887669	-21.4451033793406	22.4904427620043	
2581666666.66675	-17.7879137186041	-134.766459029858	-59.75336717113	-18.4434043549336	-81.0361024618658	-178.180141730876	-21.3530693163607	23.7364181692078	
2582000000.00009	-17.8888880986429	-135.507960336504	-59.3163014006199	-25.1096337086975	-88.9817576200505	171.501396355594	-21.2379928454565	25.0379157001559	
2582333333.33342	-18.0037103035537	-136.082577783871	-60.2974265398737	-22.2539128353722	-76.0710821438736	49.9107537761162	-21.1501417909062	25.8026417030975	
2582666666.66675	-18.0890722499236	-136.797577811816	-58.747540066314	-31.2253324404247	-76.1668207676625	-123.273702832461	-21.0440955175154	26.7598364331248	
2583000000.00009	-18.1837275770844	-137.460881018578	-59.5956381547537	-36.0955593535376	-77.4034455026534	-32.560967732989	-20.9081869916979	27.7166345974141	
2583333333.33342	-18.2888165546704	-137.981620092049	-58.3182469712241	-49.1613023774227	-79.0588584857056	103.329672423858	-20.7800177083963	28.3063608101677	
2583666666.66675	-18.380347154226	-138.642172783127	-60.0211180673964	-63.6791642923807	-80.764458172625	89.7252139412647	-20.6649081200037	28.6552466510456	
2584000000.00009	-18.5065980945837	-139.642693185805	-57.7036016710962	-65.5098885290529	-94.8280425533334	-157.10362668891	-20.5585451168873	29.0402742000769	
2584333333.33342	-18.6132941672071	-140.19317329413	-59.0081790561822	-80.9094560249961	-91.4016008797241	-153.716898538936	-20.4377924813534	29.212826759825	
2584666666.66675	-18.7437361318551	-140.84423565731	-57.6384326755001	-83.913022671661	-76.9070389747478	160.852790713681	-20.3574337085395	29.3565529581213	
2585000000.00009	-18.8824332152945	-141.559063741984	-56.997633476577	-87.8494047819659	-82.5577820697538	-100.326636761937	-20.2659557774316	29.1786607892259	
2585333333.33342	-18.9986430135748	-142.364588860378	-58.5616238382119	-108.748330813728	-79.9524541985626	-165.61717829944	-20.1714484533443	29.1332840373522	
2585666666.66676	-19.1417206142371	-143.205186871969	-57.3005335168049	-111.545833233156	-76.9110624940508	-149.069307545725	-20.1049440168656	28.9617109910849	
2586000000.00009	-19.2702662117319	-143.870686690053	-56.9742965337108	-122.701039534456	-91.5511852708999	121.807889601077	-20.0397250372298	28.7873601609413	
2586333333.33342	-19.4105080236825	-144.709144739677	-57.1447471431455	-130.986171139325	-76.2961014450925	-40.8749801561351	-19.9844985609628	28.2720978976194	
2586666666.66676	-19.5792003104575	-145.45629913827	-57.6709014829628	-135.18328880936	-74.05488296	163.03121852659	-19.9356105521318	27.7310148467561	
2587000000.00009	-19.7185029141608	-146.239143999051	-57.896490829996	-147.212386082378	-76.3379832759839	137.795565767783	-19.9247058313634	27.3862829080522	
2587333333.33342	-19.8711198938624	-147.087249486324	-58.7644488982869	-155.206962528085	-73.6717252679968	149.238498790791	-19.8978634778428	26.6569092907562	
2587666666.66676	-20.0382296238052	-147.720230742163	-57.9952998664043	-166.114101138311	-77.6496598155961	166.096688376997	-19.8598559924888	26.1115346885962	
2588000000.00009	-20.193497324432	-148.608042410749	-57.6066633520145	-178.76306190653	-73.4574049736584	-118.083341197815	-19.8803739894107	25.4648040687028	
2588333333.33342	-20.3652362898873	-149.516355373839	-58.0104560739522	173.517159806811	-78.3964921826555	87.6681554908453	-19.8931599133277	24.5230229116943	
2588666666.66676	-20.5376824178169	-150.506893978502	-57.8099873609512	156.915032847222	-83.4606731629131	11.9794358633449	-19.9237775469917	23.7821910376719	
2589000000.00009	-20.6894117748732	-151.412956877385	-57.1312936923318	154.110490202166	-75.9375213904292	-124.48595536278	-19.9274984186925	22.7639965702363	
2589333333.33342	-20.87748107282	-152.311405430973	-57.446309436901	144.191697564129	-76.1869169662269	-47.4312367528639	-20.0094902848066	21.7720203235167	
2589666666.66676	-21.0639420222021	-153.465260545116	-56.532337731632	131.143840175237	-79.8649158058894	-168.838850105323	-20.0693806515849	20.841990003598	
2590000000.00009	-21.2167447023314	-154.321773983164	-57.275052678265	118.15802487156	-76.1044713087461	-128.962276566976	-20.1382985244615	19.6723607794484	
2590333333.33342	-21.3879577926166	-155.495662412194	-57.5518531767215	111.513060688438	-94.8359581609651	-64.8882615393361	-20.2117290204042	18.6814148616759	
2590666666.66676	-21.5999378715863	-156.565675072373	-56.4482888777081	107.64542294511	-71.8347452131535	-93.0719066548389	-20.3053788529352	17.4509151508907	
2591000000.00009	-21.7747531673865	-157.789781854643	-57.9875728073786	90.5135476178367	-83.7905492865671	-75.0616758848617	-20.4356481623948	16.3134561109749	
2591333333.33342	-21.9410899210739	-158.838160038778	-57.2916761520942	82.4840380758082	-71.1458999844275	-115.137344919181	-20.5329111554337	15.235845068006	
2591666666.66676	-22.1538518893077	-160.137092171155	-58.030811545337	66.7688006620786	-84.6408339384602	-144.731972200845	-20.6676318470571	13.7321372744716	
2592000000.00009	-22.3138503465913	-161.507607091864	-58.3619375806433	50.4402676250085	-78.1785270750349	-97.7774210072555	-20.8395036663416	12.3485190650305	
2592333333.33343	-22.4711354183579	-162.87319100986	-57.194034695778	51.2144766711582	-84.1802667368479	126.334858805076	-21.0158322996648	11.0952171393255	
2592666666.66676	-22.6961309342023	-164.474471487822	-59.0336038799703	34.6192809716764	-78.2969028415312	-71.7710163567947	-21.1911184607247	9.6732150197822	
2593000000.00009	-22.8635656899127	-165.988936275411	-58.4711706362944	26.8794082098947	-81.7387301508615	111.440813494147	-21.3807122357071	8.401959425672	
2593333333.33343	-23.0470130608464	-167.488632642108	-58.4147557482941	9.41493177406519	-79.0701093698806	-59.855654776108	-21.5997269511375	6.92621569372422	
2593666666.66676	-23.2228109164544	-169.15403459447	-58.2061516186819	1.03939551328607	-87.1046637798278	-63.5016433888799	-21.8631490680227	5.55997671569484	
2594000000.00009	-23.352469818688	-170.990200474547	-59.7465277523868	-2.4511759404348	-86.3962406115866	40.7567002608921	-22.0631466556226	4.28514097057248	
2594333333.33343	-23.5441255966759	-172.860985602131	-59.1314058592512	-18.1131144668574	-83.2715542138579	29.6866593944996	-22.3338937410854	2.99528440530031	
2594666666.66676	-23.6690778404144	-174.896210740061	-59.5975401887688	-30.8775071971887	-87.2921602025703	-29.3671648073705	-22.5971587462133	1.59168198893856	
2595000000.00009	-23.809445889082	-176.830415999795	-60.0223216188686	-42.467542633795	-80.0147286100786	-61.0187370388791	-22.8703232809015	0.356087028218084	
2595333333.33343	-23.9188697433249	-178.933272715098	-60.7604960129633	-50.6987265647868	-93.6200799187893	21.5644723513559	-23.2077930269076	-0.838035962090359	
2595666666.66676	-24.0339168385046	178.844864360867	-60.4698744352669	-56.1166230907011	-81.2133250525958	-97.9909777942632	-23.5043029619075	-1.87228177556761	
2596000000.00009	-24.1349694489211	176.514126823139	-61.8203380406267	-66.7676619370596	-78.6017362230365	-142.425856750259	-23.7794491788728	-3.05483122985786	
2596333333.33343	-24.2070523043593	174.255811422136	-61.9980196970156	-82.5999708142885	-89.3121555414847	166.112668735073	-24.1099960313989	-4.32012558841251	
2596666666.66676	-24.2418300381241	171.744929566	-63.8687736669997	-76.3788506267103	-83.7100078376805	64.4356722237163	-24.4263504698762	-5.20578699381302	
2597000000.00009	-24.3324843278319	169.282642623988	-65.5481038030916	-103.132831241732	-84.429101485983	50.3161226848425	-24.7718201853884	-6.12331512369434	
2597333333.33343	-24.2905906960823	166.426170213957	-65.1851311962936	-105.757452295938	-75.8503361125503	-13.0606699026049	-25.1018772779592	-6.67101226243384	
2597666666.66676	-24.3196968685241	164.275273257769	-65.9262733249431	-121.856660499188	-77.5430073971521	148.605953317371	-25.4470358238551	-7.52289563266409	
2598000000.00009	-24.3069723658783	161.720127993665	-64.5140945010779	-131.337191945959	-72.9539002398036	-117.931439647476	-25.8013912413687	-8.01667738961167	
2598333333.33343	-24.2702593180371	159.231605362184	-65.0901767618538	-151.98149545493	-79.2823329487026	-114.397642580158	-26.1662079124345	-8.59929311859614	
2598666666.66676	-24.1975366686815	156.545821359607	-67.0474638013443	-146.769423525935	-74.5956902751537	114.237173942473	-26.5217226648314	-8.87328477550735	
2599000000.00009	-24.1407427268334	154.051260529282	-69.8378141347474	-163.241753193135	-81.798864281592	-160.509859817705	-26.8607429457718	-8.75593339575811	
2599333333.33343	-24.0332541036449	151.538554719835	-72.997787839674	-150.981352437752	-86.7808391557841	160.974159820304	-27.1729915172461	-8.99721129293355	
2599666666.66676	-23.9219827347704	149.229541958946	-74.1456861486318	-141.706157487702	-83.596367218463	-139.005902716611	-27.4942477133744	-8.4246053896948	
2600000000.0001	-23.7724750683833	146.774047056367	-72.9287718117372	-174.58515538373	-78.9305460279657	-80.4425966808483	-27.8056222657663	-7.78082844653915	
