!Agilent N9923A: A.05.34
!Date: Sunday, 13 March 2016 22:27:36
!Model: N9923A
!Serial: MY51491690
!GPS Latitude: 
!GPS Longitude: 
!GPS TimeStamp: 0001-01-01 00:00:00Z
!GPS Seconds Since Last Read: 0
!CHECKSUM:1870186953
!Correction: S11(ON U)S21(ON U)S12(ON U)S22(ON U)
!S2P File: Measurements:S11,S21,S12,S22:
# Hz S DB R 50
2400000000	-16.5640691236666	-178.297404159382	-64.7491843929825	-71.1481977616316	-82.0488423388486	-53.4839215554162	-19.7127927546435	3.77966007931811	
2400333333.33333	-16.6233217446313	-179.485294692557	-64.7510455186296	-84.5750840600145	-91.4867130875693	-22.6886502833663	-19.9976007844477	2.73298269981112	
2400666666.66667	-16.6798746816155	179.62618360738	-63.0210094391633	-90.9780191640243	-78.9562617100197	-49.6750288020269	-20.2747241050286	1.91449521012575	
2401000000	-16.7447967872587	178.503339690002	-62.2649330971968	-101.88495564209	-76.093175156123	-176.811543359005	-20.5839169678388	1.01981718657253	
2401333333.33333	-16.839496334493	177.394584111383	-61.8428503475989	-111.747773745062	-78.060117906292	-53.6187241876781	-20.9299815755782	0.341908827694583	
2401666666.66667	-16.8992308887486	176.408657931237	-62.3293786841097	-119.718958550972	-78.8398403053005	-19.8761629113522	-21.2795799901321	-0.421060057975928	
2402000000	-16.9717060626967	175.280714357654	-64.113611922775	-123.724017837275	-74.1347728636775	-124.198725536899	-21.6466536030068	-1.2409693270461	
2402333333.33333	-17.0412420815241	174.076695532519	-62.138670513159	-145.212643719685	-79.7780686073956	157.128258849389	-22.0289062504447	-1.70690986049582	
2402666666.66667	-17.1092131238712	172.929431765918	-63.178914099771	-157.345579706311	-81.4174559433437	27.705479415616	-22.4545801638725	-2.3306214144742	
2403000000	-17.1866544499819	171.814775966383	-62.9040772093703	-162.701273937668	-82.9809195584401	-34.6273369760581	-22.9169201259997	-2.85532436424536	
2403333333.33333	-17.2796657153011	170.630780930845	-63.6722220908709	-160.902800794992	-75.5073466582351	-166.542288978738	-23.3713695581699	-3.20264177456113	
2403666666.66667	-17.3562624871798	169.545808624158	-63.0799527766092	172.07201659884	-85.4081045270674	-46.5102393252041	-23.89443178474	-3.43378085276187	
2404000000	-17.4113349959139	168.29110985269	-63.1114036443198	175.036215509402	-95.7128058571087	20.6009279175885	-24.4531934402812	-3.66787725598485	
2404333333.33334	-17.4806007516063	167.138093151636	-63.7397225785365	158.775291512948	-84.6449640714619	134.44092015164	-25.0015062623864	-3.55169763998883	
2404666666.66667	-17.5451403598454	165.806722386461	-63.9580073750512	158.659590008683	-94.2760842550225	5.16244304179535	-25.6002062466726	-3.1310375098428	
2405000000	-17.6461199675649	164.628591976553	-62.1503692551191	150.374953375553	-77.1288167618693	-60.1085213472358	-26.2361240895315	-2.5299561956544	
2405333333.33334	-17.691929838892	163.472642614912	-62.4214898342335	150.18105446485	-81.8925770281562	-13.522566653506	-26.8957883420758	-1.68122359981157	
2405666666.66667	-17.7515305588885	162.167771541776	-63.273202241801	128.51271211658	-81.5662996125827	109.416984510286	-27.6349302640136	-0.446655185175699	
2406000000	-17.8092300597863	160.95486953439	-63.690820335992	136.121887520232	-75.7556257590205	145.775319594713	-28.3397932765076	1.38381162470887	
2406333333.33334	-17.8736898355267	159.560331140366	-64.2707380375315	132.225137113905	-79.8653357957247	-94.9673024374364	-29.061857940383	3.85855518782172	
2406666666.66667	-17.9346767437443	158.265082162701	-65.8629265627228	104.562556012928	-87.8741396642202	-166.063521537892	-29.8835937282957	6.59373845444517	
2407000000	-17.983221278938	156.940228382005	-63.420621474843	96.7988359049425	-91.6570807889012	9.70424400829058	-30.5515826556629	10.5671415840329	
2407333333.33334	-18.0261994942171	155.70818198213	-64.0065202433927	86.806577961256	-87.6581907612668	-84.2913562164019	-31.2336125566694	15.1818020028861	
2407666666.66667	-18.0606738199655	154.262159946189	-65.6840624049041	72.0050528176231	-82.5379850443203	-155.963833338041	-31.9014726600478	20.087455194856	
2408000000	-18.1152936126324	152.884742796628	-64.3718304928237	65.2524587988356	-84.7597753027895	80.9565396933702	-32.3341632850027	26.2987158989674	
2408333333.33334	-18.1296469303549	151.63549573998	-64.4125922524796	62.6411630289746	-89.5286934441913	-15.347028190038	-32.7116648630142	32.8231991762401	
2408666666.66667	-18.1475570598276	150.330150232454	-63.8569243833815	50.9863815705095	-72.9887818576272	-131.380531669825	-32.8362961466534	38.8880522438091	
2409000000	-18.1742101948675	148.966911740985	-63.8597365334416	27.0049726375588	-83.3069161986707	39.4299949884044	-32.7319411239456	45.4098118338255	
2409333333.33334	-18.1934604438045	147.590677384094	-63.4975919435778	32.820764942404	-75.7119283618613	107.18818223502	-32.5321234726369	51.8732923315837	
2409666666.66667	-18.1870760133862	146.256012591113	-63.1119771533541	34.1657015292085	-77.1460847699688	136.767193086317	-32.3287830051084	56.7779598261127	
2410000000	-18.1946652632592	144.757455872497	-62.303409087328	18.5067992209134	-82.1266230199321	-48.7090665638438	-31.9376302059122	61.4849358300281	
2410333333.33334	-18.1889548785864	143.600371009882	-63.0201131685449	0.413010578465782	-78.9551950646095	-21.4773189765758	-31.4398470775022	64.9114209335887	
2410666666.66667	-18.1787228746416	142.115568825007	-62.0650224662285	-8.04567529153618	-87.8596462691272	10.4553709978717	-30.9802057628136	67.7541463862725	
2411000000.00001	-18.1525221937012	140.781268530909	-62.8777713286428	-5.77999750354487	-75.7429914092224	-71.7973965076485	-30.5888677105491	69.9740150170515	
2411333333.33334	-18.1333800861974	139.421379703747	-62.1079826222283	-28.9302265376291	-82.8409523574389	47.1945652694154	-30.1129884732846	71.7180358860271	
2411666666.66667	-18.063511945071	138.101622177652	-61.0712159851457	-27.776482406896	-86.0836949865995	125.960952669226	-29.7247171088916	72.845577938612	
2412000000.00001	-18.0580392962363	136.7996358927	-62.2280072177162	-37.4828698427907	-79.7921335802148	-24.1792180689295	-29.3033219361958	73.9195413558827	
2412333333.33334	-17.99851068154	135.419184009461	-61.8170064013049	-50.8870451109729	-80.8830158867889	7.17064915076699	-28.8621623690893	74.1579293817462	
2412666666.66667	-17.937756048495	134.073826538548	-61.940991445695	-65.4901939071012	-89.6376041005194	112.749185842054	-28.54156131123	74.3296231738097	
2413000000.00001	-17.8850097307551	132.848721748715	-62.100745641387	-73.6937590955493	-83.7542367360678	-102.990543221044	-28.1920761515513	74.4372681146396	
2413333333.33334	-17.8202681693417	131.497382835498	-62.5267691390208	-82.2798456337633	-97.2617487494781	95.7008990793384	-27.8856311321509	73.9859071222885	
2413666666.66667	-17.7380924913482	130.255054483088	-61.8830440393677	-92.4611316340356	-74.5633530357223	150.312411590281	-27.5618492419453	73.3473004459269	
2414000000.00001	-17.6680974608839	129.014888331614	-62.897630402932	-97.251517357296	-75.1817294856152	-106.376561194555	-27.2751823370313	72.5142108418493	
2414333333.33334	-17.573471352965	127.750326667058	-62.2914351958608	-104.484447125594	-89.9758324241168	-155.360496026254	-26.9743049449762	71.202863696078	
2414666666.66667	-17.4748804540109	126.561356040465	-63.4732053841925	-116.74791407402	-82.5150762761099	-101.106922980603	-26.7618035549964	70.0717860572344	
2415000000.00001	-17.3855641121607	125.436725379921	-62.7627178362855	-123.510553235352	-80.2713173207697	40.0945490160447	-26.4714872047309	68.8699602602894	
2415333333.33334	-17.294097610372	124.209154712289	-61.9510614519286	-130.848967211565	-80.4481525022402	-87.5638124304076	-26.2750657553201	67.205599983064	
2415666666.66667	-17.1962879931768	122.988989967324	-63.8664529738676	-142.251232707824	-83.656457414702	-54.8986206585415	-26.1009892901135	65.6164144211103	
2416000000.00001	-17.0828893992935	121.953248914854	-63.0582236036619	-160.53575713094	-83.0734504959478	-22.9883669333178	-25.9429786506125	63.6815350972462	
2416333333.33334	-16.9733390838237	120.847400625855	-62.115372562511	-163.444535221612	-82.3551866676176	-91.2494860125499	-25.7532429427882	61.7119847158419	
2416666666.66667	-16.8728416653896	119.759837368814	-62.6731809170691	-170.540936294108	-82.9739024830722	-76.6778752713138	-25.6152045318484	59.7930391831257	
2417000000.00001	-16.7571426064532	118.671517992262	-64.7839105200832	168.356850853255	-83.2586378630202	-138.852832463319	-25.4685296187739	57.6137542676814	
2417333333.33334	-16.6568621797248	117.657546495384	-65.2904899980691	157.88581283153	-78.8700540829916	39.4477107147598	-25.3371717077421	55.5484778486112	
2417666666.66668	-16.5334696164568	116.668674441913	-66.9877617854702	162.91891535459	-86.9564980501177	120.688967332445	-25.2133809364047	53.4643893514384	
2418000000.00001	-16.4210798482072	115.698506665569	-66.2182363722622	153.741770739158	-74.2598755986658	-121.968958632584	-25.1037414579449	51.112975439238	
2418333333.33334	-16.3047413185767	114.622883118193	-65.8321136192211	131.346719396402	-77.3759998534408	-20.5406662000077	-24.9968415217802	48.7853625570592	
2418666666.66668	-16.1827638975247	113.738702667555	-64.0214036089591	136.705141633498	-83.1058888682382	2.75687143990455	-24.8836486389962	46.6187013802317	
2419000000.00001	-16.0639299759938	112.77953322427	-65.3291245225159	129.506025716387	-80.6230859465129	179.289495718431	-24.8237680412601	44.0326284558675	
2419333333.33334	-15.9536791442719	111.843542808607	-64.906170031631	116.222255387981	-84.8527855437941	-44.7085704792034	-24.7554625343567	41.6969895151877	
2419666666.66668	-15.8383178915819	111.024606469132	-66.1625221724438	85.1758818815771	-78.8434146691676	-175.508067129445	-24.685287546962	39.6413387540097	
2420000000.00001	-15.7296957848628	110.128049770447	-63.6537227813381	85.1434231498918	-79.3175837724307	-120.065043564658	-24.5960704744621	37.1015140747548	
2420333333.33334	-15.6070619204579	109.283313112047	-64.6015216524024	66.2185530171099	-83.5158449230934	-70.290206738335	-24.5190428192016	34.8078991706412	
2420666666.66668	-15.5043803320823	108.450415695165	-64.8290813972451	79.5079315478673	-78.5955863000286	17.0669149641077	-24.4562987043529	32.4682906689316	
2421000000.00001	-15.3988886170303	107.670869428876	-66.9146687903896	41.4369212741343	-79.9012596407143	155.158902037643	-24.3630274488131	30.2158378995192	
2421333333.33334	-15.2849542633741	106.885746868594	-67.8301011652823	44.7324674449647	-79.7434283843802	-93.9639456550963	-24.3050578220747	27.9262634861127	
2421666666.66668	-15.1878306823891	106.067310936999	-65.3325020320892	41.1273812429183	-76.1338084767399	-14.5422155815423	-24.2067671733752	25.6708341306587	
2422000000.00001	-15.0849800768308	105.280520618369	-66.1894050134323	30.2744634593229	-84.4888159405845	-123.074228466591	-24.1465098265639	23.6819348548646	
2422333333.33334	-14.9709683231438	104.544330404154	-69.64343052318	18.399730878255	-74.5748861609238	-48.7872169150992	-24.0572122576617	21.6942961968442	
2422666666.66668	-14.872615601307	103.87161995667	-71.3845152469092	-11.2714013696433	-80.8199695238818	-7.5166331611236	-23.9960203104008	19.5340834089034	
2423000000.00001	-14.771443912153	103.175536452098	-69.3914440282191	-13.2164817876213	-81.6273232958848	-1.4688907682176	-23.9160049102924	17.6527265508925	
2423333333.33334	-14.6934079050491	102.437569283782	-68.1890572312128	-2.73426805589358	-77.8531330637971	-50.3280759775942	-23.8397604815899	15.8086756877561	
2423666666.66668	-14.5995121577876	101.69540828302	-72.9185751903106	-30.9949575701229	-73.8385162284761	12.5368523445861	-23.7350448892762	14.1314326429053	
2424000000.00001	-14.5073033834115	101.071115953066	-70.2382992351114	-12.6402506557736	-80.6187341020804	-89.4685532093601	-23.6392265910476	12.1386510240198	
2424333333.33334	-14.4219717426534	100.438084449643	-74.0212784957734	-8.70996102673169	-84.1737421505343	153.557199976395	-23.5656002623013	10.5337302614413	
2424666666.66668	-14.3483040302795	99.7707423692659	-72.1060371809833	-30.3829810596855	-89.2794617272939	172.130026655787	-23.4714062788636	8.94957016493595	
2425000000.00001	-14.2741548376749	99.156021964144	-70.5236665526082	-47.6348881639009	-85.3790671664697	-89.4831253028931	-23.4063459686957	7.51870657062273	
2425333333.33335	-14.1845026821436	98.5703260706571	-72.4966254016069	-27.9326909560134	-94.8934421615083	106.114238453633	-23.3245217279355	6.08319189505575	
2425666666.66668	-14.1194596540746	97.9653893782346	-72.8207265995416	-38.9983566727545	-80.239284915275	18.4555673233016	-23.1996698535654	4.67243415748109	
2426000000.00001	-14.0470572800486	97.3869320600421	-72.9200977363503	-83.4458960644695	-85.2949696452128	-179.58811971807	-23.1116641049367	3.42032701571973	
2426333333.33335	-13.9918918005528	96.7714465772791	-76.7680095504603	-28.8621232126174	-72.7263509242263	-130.335245780445	-23.0361064916715	2.31197136749616	
2426666666.66668	-13.9224356976668	96.2990137086461	-75.3271366352769	-83.9175734793573	-82.1034460945934	-51.9986631810589	-22.9493836686749	1.09174896140185	
2427000000.00001	-13.8643997955694	95.7752903246152	-71.2262436906021	-72.2978758456932	-77.655374986083	30.6147262317739	-22.8461838298246	0.134332917254931	
2427333333.33335	-13.803059652398	95.2686770839984	-78.4288795353661	-28.3869942656259	-89.5272693156153	97.7676674600877	-22.746380150304	-0.836947495776407	
2427666666.66668	-13.7516191550266	94.764312624486	-69.0889945157693	-83.8793008747612	-77.1609777009842	-5.84103964573993	-22.6746534593377	-1.5955749586576	
2428000000.00001	-13.7038746151832	94.2495277683295	-77.657264462001	-101.016583677936	-82.9502926541026	-106.602601670792	-22.5692517334809	-2.40032106693686	
2428333333.33335	-13.6438740659651	93.7675988551494	-71.4407195923792	-87.7859293268731	-79.1739749065105	-73.3279658812451	-22.4845613554688	-3.10422899285224	
2428666666.66668	-13.6149699791684	93.3921818979136	-70.8048066087503	-121.139088006393	-83.4422274855203	-164.442816057621	-22.3844634234314	-3.70844015332695	
2429000000.00001	-13.5734121868073	92.8379422334549	-72.2988296817252	-108.130465944329	-86.0321575681716	14.8781671872821	-22.277099121944	-4.32063685345835	
2429333333.33335	-13.5354178044812	92.4775903069147	-76.9230175772141	-129.176589666697	-89.8374267709291	-146.652094984671	-22.1635415905779	-4.89899658267088	
2429666666.66668	-13.5006266614134	92.1159656395396	-71.293206485749	143.175141894867	-84.0780059990707	112.105422776889	-22.0737574725955	-5.35633017807998	
2430000000.00001	-13.4645609500621	91.6887782066469	-78.5395543801537	-124.56913932869	-88.4938686922966	-25.0264395775566	-21.9992315491586	-5.67930655044597	
2430333333.33335	-13.4352120706923	91.3032282995826	-74.7555013978723	-178.906275348579	-89.5464913854294	-132.769933936634	-21.8794865177865	-6.04712490151168	
2430666666.66668	-13.4019911558806	90.9346608999082	-73.0771808358695	-154.031420344879	-73.4016701061178	170.376060236882	-21.7737706924825	-6.24477158550319	
2431000000.00001	-13.3818186117421	90.6005677839751	-71.2600725985663	170.894109212109	-91.2086998714302	104.939885623425	-21.6539172859391	-6.35228369703055	
2431333333.33335	-13.3515562036696	90.2017387477713	-72.3753098366451	146.92747201054	-79.42675938693	24.5306299809992	-21.5514984783015	-6.59631148040444	
2431666666.66668	-13.3299107979685	89.9112133226193	-80.0888507820539	110.018791363246	-77.5055344853901	46.0989719048997	-21.4346904586397	-6.79623976693287	
2432000000.00002	-13.3049948108021	89.5711149273835	-80.1297904017513	119.509433692112	-84.3017444588727	165.881733946132	-21.3312385140839	-6.63396722966054	
2432333333.33335	-13.2945114552953	89.1512503293588	-74.0690845130005	142.714625652889	-77.8543002520288	-7.83514026821083	-21.2225196475947	-6.83523581319417	
2432666666.66668	-13.2653329243963	88.9368505313336	-85.3361307736674	128.746058133116	-79.7845308406989	-144.422388662418	-21.0997794607378	-6.9328446035537	
2433000000.00002	-13.2589874377407	88.5922158620089	-81.1141950763523	93.531910329468	-84.1148152040083	70.6953651538921	-20.9673022819749	-7.00100267865867	
2433333333.33335	-13.2455817575479	88.3908992192777	-80.28908660154	110.761424891292	-79.4821187615404	101.474480375452	-20.8395965561872	-6.92258484218284	
2433666666.66668	-13.2349356422869	88.1272740060778	-81.0802147724736	-11.5151246781639	-87.0374621392781	20.8580869832732	-20.7068463141928	-6.89227070064622	
2434000000.00002	-13.2317907121003	87.8205560567156	-95.0896408662588	168.846012889311	-82.45018100178	11.8088202304608	-20.5840332037235	-6.86440522190629	
2434333333.33335	-13.2206704026714	87.5883024023963	-81.6800211454736	-58.656215123521	-81.4669992830031	1.90673509594479	-20.4701632548746	-6.92177769438446	
2434666666.66668	-13.2150391759684	87.2724553731925	-78.324322947476	-121.007727495318	-78.015127701401	162.807124712625	-20.3412851080561	-6.84745639262608	
2435000000.00002	-13.1965154290682	87.0115470517338	-75.2010085073693	-172.179406580863	-93.0129071706022	-91.4697937585573	-20.20821540541	-6.82225155801302	
2435333333.33335	-13.2093215231381	86.7566586875157	-74.2874001025135	165.869768147318	-76.0575747919183	34.6748056964968	-20.0795579992606	-7.01371722485112	
2435666666.66668	-13.1973080910655	86.5221886729171	-77.5293147552057	151.037271078367	-87.0674947144631	16.5770318699289	-19.9435910589507	-6.93596651251773	
2436000000.00002	-13.1952865799911	86.2287938918214	-73.507253673683	-165.987441655182	-88.6561879085846	-111.884254889089	-19.8158878251962	-7.03988886413663	
2436333333.33335	-13.1894178017154	86.0152142108328	-72.7941715191684	129.654144157517	-94.1425297979839	119.065957337221	-19.7062140997961	-7.13038811198423	
2436666666.66668	-13.2111862755392	85.7045806599292	-79.4355139064733	162.716657437945	-84.7302076200839	47.8132351487048	-19.5958750341917	-7.29067429699816	
2437000000.00002	-13.2030387227274	85.495251418646	-73.8982768747504	-178.755586822625	-81.6259741548351	6.10664000678179	-19.4863650327005	-7.34571464679787	
2437333333.33335	-13.2086800876117	85.3121754710257	-70.229102706666	124.334537940213	-82.3415686743548	178.139007307016	-19.3819565087951	-7.4416714891884	
2437666666.66668	-13.2249823179326	85.0195798520659	-72.9405263986556	160.599654498405	-79.6138813718879	114.233686139255	-19.2697605427291	-7.50015304111406	
2438000000.00002	-13.2225968145198	84.7282348585644	-70.985067019538	124.320548074032	-86.8456176520575	171.962149179469	-19.1622622890296	-7.7954670766069	
2438333333.33335	-13.2308508807834	84.4311926460027	-76.0059572434301	117.25303830863	-81.364680938221	17.7824258080412	-19.0928187782452	-7.80135029775651	
2438666666.66669	-13.2442894624806	84.1888688165097	-75.48533456524	68.1204056153765	-78.5367765727702	48.2853493367735	-18.9895871649048	-7.89489919335763	
2439000000.00002	-13.2517441108713	83.896121800701	-71.0837095498906	82.8051306096348	-87.8036318892456	72.3820762197228	-18.9276880189329	-8.12958898319015	
2439333333.33335	-13.2552470545124	83.6706783472535	-69.4940693210369	77.1756804652592	-94.9272824338934	-130.069690635554	-18.8499213390881	-8.27419694667353	
2439666666.66669	-13.2722142590756	83.3964661379417	-74.5855087311782	75.2394877652933	-91.5915443319892	138.061897921418	-18.8011840326142	-8.2792050212631	
2440000000.00002	-13.2758234553737	83.0871524623266	-70.5827316119488	58.7391818158971	-78.0030298819674	-154.792705606466	-18.7391292901184	-8.68015709809683	
2440333333.33335	-13.2979177425517	82.8772913717069	-72.3593886630294	58.0372164397333	-79.0712935989844	-4.79603097207563	-18.6779734388426	-8.76961876885712	
2440666666.66669	-13.3117583370326	82.6235039188471	-69.1424971341578	48.9904469050205	-74.7654072541488	21.398220667669	-18.630475348549	-8.91906459823705	
2441000000.00002	-13.3449224307597	82.3840789556061	-70.302195896386	56.768979087224	-83.8524110355473	-44.2695697476305	-18.6134234078433	-8.90081144740426	
2441333333.33335	-13.3437688617736	82.0823731336249	-72.5860041959026	53.9874665742182	-82.2621452383478	80.1724356179512	-18.5820905924589	-8.9894305860816	
2441666666.66669	-13.3988905378561	81.7588870819252	-71.483867260781	-15.5779479287797	-81.7130401948207	78.9931371122294	-18.5346667717426	-9.20682018405529	
2442000000.00002	-13.413659488756	81.4964077376399	-69.3469592096825	18.5937234201088	-78.7676524104901	112.804119086632	-18.5400084127681	-9.39668912323083	
2442333333.33335	-13.4161146934	81.3028086874439	-74.6479661892629	45.6860750315595	-78.8575951455609	-149.237913391554	-18.5348179072935	-9.53936364333835	
2442666666.66669	-13.4523402999219	80.9049479850792	-70.4884761302831	-11.31491372645	-81.690565620322	69.6223663775724	-18.5450342264499	-9.42520584208965	
2443000000.00002	-13.4690284843836	80.644003536353	-67.017938638255	-19.7678449879963	-77.4278976549027	73.7722285811958	-18.5338144514638	-9.55592055598715	
2443333333.33335	-13.4880507162884	80.2747699748534	-68.0761390970998	-39.2021051968441	-80.1693122123013	-99.88731892121	-18.566518175397	-9.66504655433622	
2443666666.66669	-13.5311473672209	79.9026328079891	-70.8408968081373	-14.5252824648665	-78.5525824698523	73.7908446550577	-18.5812054862562	-9.67321496010651	
2444000000.00002	-13.5539818751878	79.6566284071595	-73.8998816155869	-30.2100147813453	-79.8704913960437	121.491385809028	-18.6146410733305	-9.7529943307577	
2444333333.33335	-13.5672695845516	79.4240286480594	-71.4570801382273	-40.4326232841223	-76.3927638954108	45.3386904736311	-18.6303373726684	-9.69459567056975	
2444666666.66669	-13.6027490050137	78.9981155587764	-68.7300810220882	-47.1528547666732	-88.9926384797061	-89.7118029563014	-18.685607014068	-9.79869131119076	
2445000000.00002	-13.6406887337928	78.614744556324	-72.4017800928817	-66.3662686173695	-80.2499050232812	89.5622271772874	-18.7594239274122	-9.71779926988421	
2445333333.33335	-13.6506259238449	78.2553886827318	-71.5645224658468	-94.786765291844	-86.0123108914019	-100.608668800271	-18.8361236270765	-9.45672011420256	
2445666666.66669	-13.6913394197477	77.8381391026439	-70.1033143353018	-63.4933750612681	-76.1864855472924	130.331895063342	-18.8886075544653	-9.35502119022775	
2446000000.00002	-13.7151546854263	77.4504247700173	-67.4873288344116	-89.0579818579514	-79.3099884887661	62.1565644864906	-18.9636523570266	-9.10011910573981	
2446333333.33336	-13.7451643166327	77.1463047892939	-66.6164610735393	-103.365656402073	-77.888961621742	103.36015265426	-19.0529426953641	-8.8827198640158	
2446666666.66669	-13.7803582718866	76.6987434257742	-71.0436442241624	-103.316967560668	-84.4582904967817	-128.525023102	-19.1595794182044	-8.75361351561271	
2447000000.00002	-13.809377322958	76.2921241317083	-67.6124694108069	-114.423395947414	-78.9371063998569	-30.806920510342	-19.2508238790701	-8.34856013702562	
2447333333.33336	-13.8463648774597	75.8754338501573	-67.2247458098865	-122.639546355207	-90.1662117180294	46.1525684374223	-19.3533310964431	-8.03228946398396	
2447666666.66669	-13.8725025613568	75.4330725358377	-69.3768215320421	-121.617725945551	-80.5592769370709	-118.515789143785	-19.4823971857258	-7.51672082664906	
2448000000.00002	-13.8945126712138	75.0659474896014	-66.4982646317476	-138.761448357811	-86.6050157561472	90.7401033189951	-19.6044484641417	-6.97504469895842	
2448333333.33336	-13.9318022733951	74.5712663838092	-69.7399976546224	-154.793979231186	-77.495703523031	97.2605309293956	-19.7230076787866	-6.43787563966055	
2448666666.66669	-13.9431697856089	74.1315100881573	-66.983571307554	-148.07031612421	-77.9498278043187	88.1176768121806	-19.8570493300632	-5.78375496485811	
2449000000.00002	-13.9734465863648	73.6517171016118	-65.7777983966233	-167.011387702007	-81.6066067468347	-65.6929747501092	-19.9987581584669	-4.86407440725219	
2449333333.33336	-14.0005416442451	73.1575899340639	-68.7796879174202	-155.461556571402	-86.4069461976991	-165.779953536791	-20.1249635365257	-4.07019515709323	
2449666666.66669	-14.0254140918019	72.6857659669235	-67.7198214481641	163.831744867941	-77.4267421006581	117.164723730886	-20.2602267337145	-3.222346601817	
2450000000.00002	-14.0494833212451	72.1621803672323	-68.5324950637458	167.123493537377	-80.3106088206725	162.255284699768	-20.3563423697613	-1.96806119386512	
2450333333.33336	-14.0921754513407	71.6437603924894	-64.946229921894	156.890711488311	-74.824884321725	149.799039866471	-20.4605761159081	-0.977795919422377	
2450666666.66669	-14.1082512433093	71.0315898092644	-68.8733437051936	152.312117175489	-82.3691232155826	-160.721488040098	-20.6190331949759	0.413228879821935	
2451000000.00002	-14.1349317539518	70.5192574763844	-65.3187304934304	153.936785401245	-75.6773597802112	-165.803778517423	-20.7247128291701	1.67602823798793	
2451333333.33336	-14.1557181943521	69.9287557772564	-64.470751172442	129.279918730106	-95.2730198836359	-56.0422124496264	-20.8268457003501	2.87458026860074	
2451666666.66669	-14.1763891311722	69.5020086676552	-65.359395699902	110.215172002465	-79.5151068965408	28.3111943894806	-20.9074622878189	4.11627537883739	
2452000000.00002	-14.1869375590839	68.9059127800065	-64.9754168264801	104.603292640418	-77.0622699735925	120.015214945087	-20.9733076322795	5.73650484617673	
2452333333.33336	-14.2022841928373	68.2833203957687	-66.4200359538358	104.426851216435	-77.1584181081711	-123.791206346859	-21.0315086103658	7.35477938627083	
2452666666.66669	-14.2203773265553	67.7298300289296	-65.9420177615617	98.6464986077619	-87.867065860579	-7.99780722463627	-21.0854543286547	8.87574336135656	
2453000000.00003	-14.2342481841263	67.0886613344318	-69.2159831852146	84.275258969537	-86.9436149694845	-125.186930494666	-21.1240580542205	10.1817780177775	
2453333333.33336	-14.2399941189973	66.5317224159998	-64.8624232839602	75.9259888816468	-79.6292503133578	126.732647815475	-21.1393093940897	11.8495260208907	
2453666666.66669	-14.2634179429327	65.8369696435524	-66.2511218285483	75.9590921940884	-81.7155996214183	-60.3711569260524	-21.1733851830656	13.4368760304391	
2454000000.00003	-14.248939431806	65.2060492438968	-64.3449286486217	69.9010727558585	-92.2829128324221	53.6642936502622	-21.1500372584005	14.9968779187375	
2454333333.33336	-14.2583668527438	64.4673463119244	-64.2182621232783	34.5324199790128	-88.8268446274282	61.6848820338316	-21.121082612203	16.4185817160543	
2454666666.66669	-14.2696750922034	63.9404209279396	-63.1015338995295	33.4218520484898	-73.9759441093328	-148.439629814464	-21.1052947436898	17.9664348116204	
2455000000.00003	-14.2632107432317	63.303072136282	-70.1997913145903	43.5563611565711	-81.6156264010562	-101.600739679243	-21.0652446377013	19.3770090044412	
2455333333.33336	-14.2617078347514	62.6470141208042	-64.0398053840311	23.3960075044275	-91.0484611065288	29.2496192028063	-21.0090141653408	20.7789565287197	
2455666666.66669	-14.2557786806926	61.8360683794521	-65.4830633332828	7.98878668709744	-91.7458149497672	-55.5767250456803	-20.9727598244632	21.8696338289974	
2456000000.00003	-14.2407065580801	61.2054657151271	-64.803553855233	4.05451697483186	-82.619565461126	-45.7439413461135	-20.8908098414874	23.1959305648374	
2456333333.33336	-14.2417751217744	60.498409983589	-65.7088901840023	-19.1161401368429	-79.4534784164597	35.9056075504624	-20.8221115249236	24.4242440433511	
2456666666.66669	-14.2234455691071	59.7505604574582	-65.9209969309862	-4.50285949243602	-92.6107940385203	130.136998524514	-20.7465849551617	25.2673893851043	
2457000000.00003	-14.2174790484254	59.1137275397511	-64.8292276168777	-21.4112324400156	-76.7811588182529	-81.4124697042445	-20.6560788648806	26.3371734697411	
2457333333.33336	-14.1962182529015	58.5008817700633	-66.790385734526	-24.8029557491099	-96.3730937579746	-109.23658828821	-20.5917268416144	27.240326232459	
2457666666.66669	-14.1734311476649	57.7618449998701	-66.2284335950198	-38.0034985353186	-81.9111154803963	-149.672216644957	-20.4999614110045	27.8606530174362	
2458000000.00003	-14.1561938800745	56.9314610318742	-65.4042930369741	-48.4734376838137	-82.471213593324	-93.6608165129274	-20.4157169178004	28.7340775019006	
2458333333.33336	-14.137399907466	56.3081430071548	-66.3003514508236	-64.1753949996229	-88.9521234689174	22.3034385731758	-20.3471450253734	29.4071535574265	
2458666666.66669	-14.0936722530976	55.6628990602201	-63.8696032831989	-71.5848263209901	-73.8868812179154	-136.248315874709	-20.2555793812541	29.9747640423593	
2459000000.00003	-14.0883649257417	54.9567443783103	-65.7628739156885	-74.4083760759783	-86.8082809637157	72.2478931857209	-20.2081205091127	30.533684083622	
2459333333.33336	-14.0532362041708	54.2281149653622	-65.5265430140324	-79.754571808426	-74.6682291933259	113.679846955474	-20.1554310930631	31.1720910017997	
2459666666.6667	-14.029741316724	53.5007140744638	-68.4978553429737	-107.17020173953	-84.7376205348512	-87.0929477714409	-20.0978479474916	31.5827753638931	
2460000000.00003	-13.9978354422473	52.9004108280975	-64.7406038351623	-98.3141682076567	-84.0005188434336	82.1135953901937	-20.0443464993647	31.7991557921252	
2460333333.33336	-13.948621879334	52.1971561077982	-65.0475241215725	-112.277361794958	-84.7697406586961	30.8551733058248	-19.9713898846886	32.3660717728699	
2460666666.6667	-13.9258535617818	51.5114871343429	-65.395527034813	-108.501986545802	-83.7564277420606	-156.889276198483	-19.9387042307719	32.5249617379963	
2461000000.00003	-13.8843815013231	50.8131580396272	-65.5204689033755	-133.38672941465	-79.3506264917806	28.5520549261981	-19.907206320631	32.7829137293949	
2461333333.33336	-13.8431541487458	50.1916537219953	-68.6151386023493	-139.671400759851	-83.1984744047394	137.873165194419	-19.8557117748628	33.0683559378885	
2461666666.6667	-13.8050555214193	49.4110754713208	-65.4336638316618	-141.149862850272	-76.7894142925035	141.178198787976	-19.7826839819389	33.3542563373137	
2462000000.00003	-13.7673053780681	48.8325130215362	-66.8555033662834	-141.424716430113	-79.9943494901085	53.0478010980721	-19.7794800140806	33.5868534674595	
2462333333.33336	-13.7261865990887	48.2250311345556	-64.258620420256	-168.157717336584	-79.3450501263974	-44.6854351492193	-19.7561752048181	33.6335937909524	
2462666666.6667	-13.6724178092183	47.5564126640472	-65.959592290664	-173.004436542972	-87.9787136018757	-89.0954911990388	-19.7044189843778	33.7492392437891	
2463000000.00003	-13.6343154350789	46.9368637351643	-69.1158040006529	-171.75700116833	-83.2461224106332	176.036697405415	-19.685387340127	33.7113998772228	
2463333333.33336	-13.580673525299	46.3317252952453	-67.3320730681385	177.294615809967	-84.6615938928739	133.67145442869	-19.6636894935347	33.6935661654777	
2463666666.6667	-13.5330954820122	45.7044410408911	-68.9452748418355	151.379235300842	-83.1678698156041	179.524977290121	-19.6466238712877	33.7178165406145	
2464000000.00003	-13.475079827453	45.1282267401481	-71.2066893901826	153.683947603673	-79.5248462251718	-102.35534322893	-19.6141069378038	33.6425620124832	
2464333333.33336	-13.4459339859321	44.6298390162247	-68.8731350597348	131.269314726979	-79.4677848009946	8.33521267182153	-19.6364674862607	33.5695011428463	
2464666666.6667	-13.3852658154911	43.9945099002634	-69.7777029660624	136.642018059071	-86.2939877349879	4.91525356206201	-19.6082478018349	33.3859429595166	
2465000000.00003	-13.3294494729978	43.4324430991112	-70.9118521000612	121.524777135792	-81.0752366863632	107.807050847699	-19.6015674297427	33.1617301854287	
2465333333.33336	-13.2751000680558	42.9493075609306	-73.3332423504486	139.76604454756	-89.7239404818903	175.666393155708	-19.5920109207528	33.004091207128	
2465666666.6667	-13.2239191917765	42.3893045447064	-68.1639286716501	123.986840442171	-76.1389719102005	-119.315377392351	-19.6090575602941	32.7071575769926	
2466000000.00003	-13.1797685682528	41.9465058417731	-70.6071651696034	139.871792514169	-79.8694486254006	-176.889044338385	-19.6019908064048	32.342442185812	
2466333333.33336	-13.1239710065789	41.4299813266443	-73.3573122589464	96.7892169257309	-83.8154613233413	-64.81134517831	-19.6184523178568	31.9894329255896	
2466666666.6667	-13.0686737900432	40.9420524698186	-72.5333196181693	124.433853478562	-83.8765184854849	159.516373806965	-19.6788249380611	31.6449458254208	
2467000000.00003	-13.0132504937174	40.4692569520794	-73.4933842962508	125.672169378944	-79.5637700496984	-133.425348156433	-19.6896874855229	31.1429408607739	
2467333333.33337	-12.9542974443208	39.9929869562987	-73.2388339996383	71.7285134259503	-89.4563482206656	86.3333056966461	-19.7070697922607	30.6205397150537	
2467666666.6667	-12.9093714219523	39.6151364497996	-70.2440184649218	76.7153516448564	-78.8577703048608	-12.0978343861008	-19.7574491777105	30.19623194556	
2468000000.00003	-12.8511226051392	39.1749999447362	-72.1488788813225	75.0937316815555	-95.6336834376718	-177.833564407859	-19.8000100963047	29.571733575962	
2468333333.33337	-12.7936582706182	38.8243471760635	-65.5748390800167	74.6287043620121	-80.1893243776892	138.964832356824	-19.8485234997759	29.0943752671959	
2468666666.6667	-12.7433882074649	38.3779036723017	-68.6487258747449	55.0998172953133	-89.2796554406633	-71.2365983296504	-19.9184492276956	28.450742943517	
2469000000.00003	-12.6792306888281	37.9959504041316	-68.1310060180781	46.1588892303151	-75.6894288856002	-152.908133506807	-19.9657289882447	27.9337052503907	
2469333333.33337	-12.6262133600071	37.6520063275582	-66.3221864971225	47.2990167790979	-80.3204621342709	-124.812796336155	-20.0131240182545	27.2053999225762	
2469666666.6667	-12.5728591608394	37.2362288194032	-68.7584415571402	52.3005534981299	-79.309089891647	-123.876051891676	-20.0919010397609	26.4906443688457	
2470000000.00003	-12.5047824401968	36.9738932280488	-70.796066644743	25.7724586482182	-73.5078353443137	-146.404244661412	-20.1558615142696	25.8880175282341	
2470333333.33337	-12.4482536443244	36.6150802448995	-68.1730403172924	23.9469192703201	-79.7865267126492	-131.371402352294	-20.2590335571359	25.1544162792715	
2470666666.6667	-12.3933481299045	36.271733118989	-70.3093435323654	9.17279812590247	-82.8269251396591	-105.598233428656	-20.3347393499766	24.5171274198007	
2471000000.00003	-12.3404329845378	35.957980403018	-67.0104799358165	-4.4390534256155	-78.0559184805377	34.0320219894848	-20.4168869058156	23.792992949527	
2471333333.33337	-12.2747017092397	35.6899531972539	-69.5415669107417	-9.89360215323399	-80.3072508005151	-85.0216486376866	-20.5078124160774	23.0657205750614	
2471666666.6667	-12.2235781110166	35.4076593093632	-67.6562475797628	-22.0216904104519	-80.5468846998174	-83.8470039471702	-20.5664291569681	22.3283785405821	
2472000000.00003	-12.1629669208558	35.1074513601554	-67.4255361845609	-39.8996435947773	-77.7050204238991	-13.6244322109527	-20.6709784362434	21.5294015610252	
2472333333.33337	-12.1005020313686	34.7732322917694	-66.6479711192382	-53.8326612770412	-85.6730171702412	3.63875119724163	-20.7794815063291	20.8314292773454	
2472666666.6667	-12.0493539976855	34.6009836042576	-68.0865934861228	-47.0398534419693	-76.8930121514394	-171.237211991516	-20.8256335683856	20.0893690322597	
2473000000.00003	-11.9961457317016	34.2829633662074	-66.927791134861	-64.3026912431471	-89.0971069857503	-135.438942213805	-20.9307839361373	19.3455448852015	
2473333333.33337	-11.9411157034219	34.0049123544191	-70.3418813594436	-51.0082221666753	-81.1474789937206	-139.671658415396	-21.01434141194	18.677858053184	
2473666666.6667	-11.8822693619095	33.7052041131576	-66.6992658481131	-71.7003425680584	-73.7204093031319	-97.8751227615957	-21.0635780360684	17.7501338564961	
2474000000.00004	-11.8243575651986	33.5040628242686	-65.5763669285527	-72.0776754253711	-76.9877615183849	-29.8126893385364	-21.1677478200714	16.9842886813091	
2474333333.33337	-11.7689314885975	33.2765847662545	-68.6755093026966	-86.8198022228406	-86.4570200518514	-75.7868792562975	-21.2391046450743	16.2672694641804	
2474666666.6667	-11.7104007366886	33.0149806861889	-67.5480068503505	-107.350353913796	-76.370176097059	152.806501235431	-21.2821098081079	15.3569165214896	
2475000000.00004	-11.6554646420542	32.7864146366219	-68.6713602561127	-104.842027551754	-82.8638909008874	6.26561371438655	-21.3221359391664	14.5616926337813	
2475333333.33337	-11.6077696001717	32.5287634400152	-68.6347699762444	-98.8682841555436	-80.1457933624041	-60.9720998590294	-21.3724075304536	13.697657042696	
2475666666.6667	-11.5457386153266	32.3091644667827	-68.3868054946553	-93.588606594654	-87.783395536904	63.5216647626886	-21.4005611386279	12.7976392914373	
2476000000.00004	-11.495455831109	32.0631119852673	-68.6276226942806	-124.765997272426	-89.1584973992341	-78.44791335772	-21.4551348465004	11.8908874044574	
2476333333.33337	-11.4457029568473	31.8756349101592	-68.4240996780864	-110.266408347164	-81.1235838422998	134.277196911105	-21.475368469375	10.9881632708165	
2476666666.6667	-11.3935240343449	31.5731576425308	-68.2238296405817	-147.493073707654	-72.4696514108685	-143.520422685146	-21.5033271603504	9.89444544024186	
2477000000.00004	-11.3391867121943	31.3584987822575	-68.252929468185	-164.436438943854	-79.7531776034941	-130.869759157722	-21.4991601864328	8.95818622050962	
2477333333.33337	-11.2934934440209	31.0503260001873	-72.1301608158992	-148.526756560591	-86.9331489354689	41.2448890911108	-21.4996938876118	7.91954217547906	
2477666666.6667	-11.2334147146805	30.8750590908005	-75.1254339400051	-134.209492654844	-73.8878131022381	159.966029125708	-21.5035422178563	6.88592961321964	
2478000000.00004	-11.1918089587798	30.6520007558239	-69.3320747299804	-169.106515677269	-78.8150036089686	126.12290095572	-21.5033424062216	5.78248882275713	
2478333333.33337	-11.1421734085411	30.3634240587612	-67.3551945510274	-170.706189674366	-79.8082847289038	-131.875398742905	-21.4802079832368	4.65515392755353	
2478666666.6667	-11.0996113213313	30.0707325619239	-69.3625731473914	-158.941915389901	-88.137931987259	-126.719569279233	-21.4738209792592	3.47884597065301	
2479000000.00004	-11.0587412761701	29.863267974337	-68.5607691468321	173.306424109626	-81.2897002458841	-156.663343412252	-21.452867938707	2.25574998079258	
2479333333.33337	-11.0093230898774	29.6088868425545	-68.6918676383311	148.760080069532	-79.0234627726624	-40.5675122209999	-21.4136727965071	1.11148591225309	
2479666666.6667	-10.9675179102692	29.3071800393355	-68.5968423589399	137.138884701818	-85.3935454924122	130.741606839071	-21.3793837173691	-0.101796270398727	
2480000000.00004	-10.9302992274584	29.0195763779632	-64.2176752556352	123.048050345367	-87.5261083783708	97.7727676686816	-21.3295204261778	-1.28951001171419	
2480333333.33337	-10.889547053525	28.8109300766221	-66.0134438035734	123.281105151417	-80.6544720489709	-31.6916280738164	-21.2997713810419	-2.53009060805923	
2480666666.66671	-10.8578711251572	28.4422160735878	-69.9198983812258	115.649818273528	-83.9313863541208	112.923591235814	-21.2370577873368	-3.65225941870737	
2481000000.00004	-10.8183176706124	28.1533480525353	-66.1636337427342	108.159382497702	-79.4785161227321	-64.9250920340959	-21.1970950265285	-4.96499626747532	
2481333333.33337	-10.7724246325008	27.8191797422632	-69.267780263367	87.8877904853585	-79.6462290977025	168.957683696611	-21.1227397334073	-6.16590569545375	
2481666666.66671	-10.7465791713749	27.5585336978915	-73.0014973776224	51.6699842745732	-82.1591334902538	-71.9622653062618	-21.0641682987089	-7.49224337770887	
2482000000.00004	-10.7117829473194	27.2539123684886	-69.5152859856014	57.2681449192373	-83.7915911788076	36.4476003270636	-21.0216168331061	-8.75078756874131	
2482333333.33337	-10.6887043583356	26.9429320400004	-67.9369460865022	52.8080883989002	-81.8421406807979	-68.8933228785283	-20.9460608748117	-10.0399199469338	
2482666666.66671	-10.653467314322	26.6242750901541	-68.0306299734975	29.7050342159795	-82.5516533745285	1.2197616046113	-20.889638992842	-11.2323832028402	
2483000000.00004	-10.632966818191	26.2540626752507	-67.5426837626564	46.9509257978109	-78.4474353425306	-35.9433295166376	-20.8082124271207	-12.4779539040129	
2483333333.33337	-10.6070263068569	25.9230390852848	-72.1106529249858	22.9614478638336	-75.5976244290911	-1.22214251314565	-20.7409412888251	-13.4713251731396	
2483666666.66671	-10.5812843137432	25.5888631355485	-69.1444973164661	21.670087445935	-76.7397690945804	-0.624662272733683	-20.6517823796111	-14.8684327925594	
2484000000.00004	-10.5653132911759	25.2248099045148	-73.1184778453213	16.3489560261184	-79.9221611472005	-24.5924691974391	-20.5763506563475	-15.9876829601402	
2484333333.33337	-10.5400525901015	24.7907204886364	-69.1084400469429	7.84973885139912	-77.3571638454491	-83.4421144747187	-20.512383151049	-17.1096379288049	
2484666666.66671	-10.5199398136408	24.4673230441133	-68.8622937834828	0.553437139698995	-86.5634557002982	23.5729782805883	-20.4497742941237	-18.1587544604317	
2485000000.00004	-10.5141996279916	24.120516452259	-71.7738446058845	5.31023909391037	-79.9050252114148	10.9556217715854	-20.3765181712695	-19.29933192537	
2485333333.33337	-10.4971873266732	23.6453471486475	-71.6332828291292	-19.7036238384969	-76.3300539147777	68.6016689089357	-20.2934049545466	-20.3507634919341	
2485666666.66671	-10.4900326158403	23.2400272248443	-73.8406474336766	-15.0535877810782	-83.0427868670502	-95.7957599028946	-20.2404522211839	-21.223299295363	
2486000000.00004	-10.4770080759639	22.8043612973524	-70.7897302648546	-34.3051821003126	-80.2197331654092	137.808680447341	-20.1676417061941	-22.3490632193527	
2486333333.33337	-10.4807899304826	22.4671085077714	-82.9128994074189	3.62076552524878	-84.1753758308018	-102.286284712535	-20.0976194408818	-23.1022314517732	
2486666666.66671	-10.4701203071531	21.9868245955334	-72.7695793345659	-64.7919931062166	-82.6252511537503	-114.31434400619	-20.0460461566036	-24.1390341050029	
2487000000.00004	-10.4728684972522	21.6046830748173	-86.5628295659634	-50.3033047299294	-83.7507861874235	130.853414533856	-19.9874573625657	-24.9208417259657	
2487333333.33337	-10.4677652632399	21.0577310477742	-76.4758730772332	-113.444201995025	-84.5768624198285	55.1806148541703	-19.9306995857034	-25.9695376037834	
2487666666.66671	-10.4725777236856	20.7186533780126	-83.3736245596798	-100.583822711388	-76.8743900094634	22.205654527473	-19.8847425725334	-26.6444238252614	
2488000000.00004	-10.484872283639	20.2159207017894	-82.5764243085811	154.705995130514	-90.907353420496	-5.54767920938273	-19.8312759099179	-27.3900655826986	
2488333333.33338	-10.4998867669074	19.7817792288552	-79.8692752189988	52.3574959264274	-75.9415858327195	-18.5001994018169	-19.7777930771522	-28.0741202887571	
2488666666.66671	-10.5085268201744	19.3907600294965	-74.8002822558991	-3.36770888720988	-85.2474716005565	-179.06854994167	-19.7377682109426	-28.8250038570815	
2489000000.00004	-10.5132552186484	18.8903092544967	-77.5025931003149	-6.51571860989741	-83.6543887206582	-121.481234363238	-19.6971980958748	-29.4923076170774	
2489333333.33338	-10.5396165994798	18.3896288058397	-82.430546556084	-23.8743817035909	-74.6137224018473	-70.1135832103891	-19.6478252410326	-30.1124566786935	
2489666666.66671	-10.5552157607792	17.9899900458859	-77.1960132417283	1.75262986386381	-79.5132404550496	-61.1892834199407	-19.6078119999104	-30.5445310259788	
2490000000.00004	-10.5620471150315	17.4108414189558	-70.4363216611011	-27.1087765614972	-83.779936892308	66.0946145948344	-19.5616323898706	-30.9670783963381	
2490333333.33338	-10.5908468138493	16.9365886334307	-73.8057670752656	-35.3463704742647	-79.9468975195294	-24.0905838868658	-19.5151691319745	-31.5211136241656	
2490666666.66671	-10.6149044993601	16.4230824786605	-72.4598928846362	-27.4316694013875	-87.665261080256	-166.999140402344	-19.5025931755451	-31.7699541078924	
2491000000.00004	-10.6491846377269	15.932094708395	-71.1754150154267	-80.7674027880855	-94.1651055063076	119.328174320485	-19.4662999568498	-32.2412268051177	
2491333333.33338	-10.674300565552	15.4005067786577	-75.3333848589415	-69.9736495196002	-78.8558703479533	-65.7387485470076	-19.4456190953308	-32.4726341242824	
2491666666.66671	-10.6955314247892	14.9255531605558	-71.3907637941213	-84.5490600300084	-80.4690382019412	103.356281846232	-19.387252901673	-32.7720018950659	
2492000000.00004	-10.7307485975942	14.403575854984	-71.8113695337134	-109.611201135985	-88.464689989735	71.3570530578893	-19.3537882689238	-33.0359664063628	
2492333333.33338	-10.7686955195891	13.8896380952554	-70.2633662726158	-98.5429584346558	-80.2880879012304	-41.051792790109	-19.3167231398214	-33.1832966410495	
2492666666.66671	-10.8058917709042	13.3653734072512	-71.4340111460103	-144.570906642954	-76.343126652806	28.4720651404244	-19.3077437427479	-33.4056288487909	
2493000000.00004	-10.8339995744919	12.8571541503767	-70.2433345143419	-116.260445525506	-77.654081633208	120.992708901375	-19.2638984475029	-33.7061961736584	
2493333333.33338	-10.8706275992806	12.3160898418317	-66.8689830243582	-138.899782100349	-81.1462317702565	-81.4476681443406	-19.2129196463636	-33.8732178403131	
2493666666.66671	-10.9161327062328	11.785374228667	-76.2713132038935	-119.92515645361	-85.3701836402163	-49.1680320819634	-19.1896653068965	-33.9223844910832	
2494000000.00004	-10.9566220512273	11.2274915804647	-71.6043150213907	-135.299004722645	-77.495195359006	27.5323555300495	-19.1779533381204	-34.2091427851688	
2494333333.33338	-10.9964012508547	10.7092122355147	-68.8915190265423	-167.950227747554	-74.5324332468248	-85.8808614240286	-19.1354968924122	-34.3132783338461	
2494666666.66671	-11.0344708024956	10.128450645625	-67.426794877465	179.631913337058	-84.6435424772369	98.7003986199746	-19.1134771982247	-34.474737985023	
2495000000.00005	-11.0813585392072	9.58672381449614	-69.6509448084874	179.381499016969	-77.9372083270605	-54.7654837416327	-19.1016387353374	-34.5559703608712	
2495333333.33338	-11.1316168282401	9.11848233006877	-69.0479267500342	170.273185137528	-87.5878322963343	-83.4033214185973	-19.1028357449341	-34.5840718788862	
2495666666.66671	-11.1653155841205	8.49817652443187	-67.5070804634867	152.549262041873	-82.606866144872	136.203694303792	-19.0948373585845	-34.636728741947	
2496000000.00005	-11.2148415987498	7.9981484264869	-69.9123693501986	147.955319262915	-77.2668915339127	132.641892920054	-19.0939098868407	-34.8110843186164	
2496333333.33338	-11.266089373986	7.45607629279983	-69.0819443433292	175.331074744118	-82.7641607216636	-55.216239472375	-19.1132789287289	-34.6922011201529	
2496666666.66671	-11.3205566580314	6.82969344815396	-68.5690824891187	135.720557094485	-75.6958578365487	62.913461084359	-19.1083747265369	-34.8481699182436	
2497000000.00005	-11.3654646172815	6.35624852571999	-69.4860065939872	121.705597027251	-77.4111413921384	148.821682637251	-19.1418008618305	-34.790076436001	
2497333333.33338	-11.4143464329771	5.75614903584904	-70.3194139961627	118.657263280497	-78.9332814565115	-10.5689553351852	-19.1664937134688	-34.7488809274315	
2497666666.66671	-11.4488935284032	5.11534755746461	-69.4874797247305	123.565515852323	-75.9523716558596	109.378891465833	-19.1763275792068	-34.8027347577109	
2498000000.00005	-11.5062362339619	4.57774584206443	-67.687813252676	80.6073879636222	-90.3067071159767	73.3102655631083	-19.1941623808233	-34.5746151303808	
2498333333.33338	-11.5492944227772	3.97923123854634	-68.3723883265425	77.6442639813774	-83.3503187794408	38.8383099380452	-19.2088532537102	-34.4323480659385	
2498666666.66671	-11.594671878683	3.42570701298155	-71.3469507043221	77.1650235708311	-83.6703459075263	20.3602759208504	-19.2438175931819	-34.2030019237346	
2499000000.00005	-11.6545286446521	2.81076857569762	-67.3808644384234	66.7954588574371	-77.3574186420992	-13.3077573051961	-19.3097571372188	-34.1710831395503	
2499333333.33338	-11.6896925183482	2.24750398717107	-66.5470390569112	59.4338029224046	-79.9800962515325	-109.820577800517	-19.3556736743779	-34.1065098968299	
2499666666.66671	-11.7467617836822	1.67050492754018	-72.0349954875695	33.9124575981248	-85.9738010163091	157.109031129259	-19.4096296337941	-33.7510989890941	
2500000000.00005	-11.7884153210305	1.05338741160348	-66.0947097962714	52.2998944723637	-83.5660060758237	-86.7205428181431	-19.4610775275579	-33.5176468161404	
2500333333.33338	-11.8293259027884	0.424909225089336	-67.6771905739573	45.6134968479341	-89.1919018489231	-28.3707300981066	-19.5454088791308	-33.0484130602036	
2500666666.66671	-11.8778086522811	-0.215601621286261	-65.4189532257252	35.7115693302849	-79.1372083689705	81.5665507145634	-19.6025539258048	-33.0571382765244	
2501000000.00005	-11.9181319160806	-0.868794678971545	-67.3379193327631	31.2793630601683	-72.4509763535269	120.050741918739	-19.6734201627368	-32.4299210403153	
2501333333.33338	-11.9578495974862	-1.48030760327184	-69.9671073621839	17.8523873539276	-83.711931000635	158.440873775574	-19.7665879411238	-31.9674691494372	
2501666666.66672	-12.0066581524852	-2.16263075542869	-68.867933984919	-20.092146999203	-81.6619499831384	-16.8503452299142	-19.8241714398987	-31.6004930616975	
2502000000.00005	-12.0443683249469	-2.80507370333654	-70.7678572951426	17.9501127548894	-78.8346811406032	111.005872828621	-19.9267330934198	-31.120110398233	
2502333333.33338	-12.0739321632222	-3.44431999275223	-67.0385800002871	-1.93799110828606	-78.8423152010138	84.9475122136262	-20.0054388603421	-30.7006165044167	
2502666666.66672	-12.1112049565623	-4.14672824309809	-68.129127370488	-23.7287706838219	-74.3401270199421	-27.5043126375755	-20.1048282390383	-29.9946528850536	
2503000000.00005	-12.1524027808472	-4.82008495760173	-68.1130516430624	-68.5516680940479	-82.7130492098802	-50.2889402997754	-20.1795273084957	-29.4031895796755	
2503333333.33338	-12.1808690936494	-5.55746654627261	-71.8223929042939	-44.4288979551138	-78.3661182356837	161.131776577389	-20.2933241504642	-28.6293772875872	
2503666666.66672	-12.2118355904664	-6.24323160308804	-72.6282781961413	-44.0966258412979	-80.5339281741044	-38.0051125858968	-20.4024229765683	-28.0435320851525	
2504000000.00005	-12.2417244556002	-6.84596064065381	-68.4253154365436	-78.6526297789685	-84.6951664269559	-84.8199239784214	-20.5101867807786	-27.109510902447	
2504333333.33338	-12.2691057855654	-7.63188525069535	-69.4103339315959	-97.3315735217532	-84.5144585309365	36.0094618240405	-20.6190417626346	-26.3337142693985	
2504666666.66672	-12.2944735031256	-8.32946664954233	-70.3750826258557	-84.1152844378355	-82.4787239330357	153.295430121855	-20.7301661587298	-25.4555488615703	
2505000000.00005	-12.3214413026025	-9.02691774011757	-70.533486330685	-73.6969013867743	-87.6016225682689	134.224244652036	-20.8367688330863	-24.4290005815124	
2505333333.33338	-12.3331784118221	-9.80821473718114	-70.6031163870791	-99.4133162623805	-80.0603286525615	56.4656079531984	-20.9672533082224	-23.3620122134925	
2505666666.66672	-12.3619455638799	-10.5228829334233	-68.3291751303382	-144.033622692141	-82.9800492392002	14.615953293744	-21.0734625362333	-22.2149816734689	
2506000000.00005	-12.3800759746561	-11.3763712436324	-68.5598922349858	-107.063017197096	-89.0118369377693	84.9988008362311	-21.1903014148138	-21.0694370787175	
2506333333.33338	-12.39814061146	-12.0508034053159	-71.0677325178834	-130.364849858067	-86.2143206852655	174.910348134316	-21.3216687772934	-19.8092710968915	
2506666666.66672	-12.4098691502128	-12.8019474685802	-74.3647209964847	-141.399219814471	-82.003232486416	-124.361127849908	-21.4318323148412	-18.1986323853339	
2507000000.00005	-12.4286131585441	-13.6040948433298	-69.36574693058	-156.808796686954	-75.5057816422272	77.9749942453196	-21.5291471746307	-16.8210555504169	
2507333333.33338	-12.4376488597929	-14.3555817698571	-74.4463990447746	-147.786100486095	-90.5637811684316	-83.6314143623329	-21.6201840309807	-15.2963765163882	
2507666666.66672	-12.4434636550082	-15.1936872396844	-70.0344401136379	-149.827899304409	-73.2065782107933	31.6352795591457	-21.6774682697808	-13.7090291909552	
2508000000.00005	-12.4594601518683	-15.976659618184	-68.5258730528313	177.5447473714	-88.6422069327368	66.2091399495397	-21.7660739582187	-11.931355498651	
2508333333.33338	-12.4610915972895	-16.7431890328447	-74.7844861185619	-156.058548636839	-84.5261291623366	-159.630824260829	-21.8305899086729	-10.3244122234027	
2508666666.66672	-12.4605248784231	-17.5344120205237	-66.9049441034849	140.847016278929	-82.1950347131751	-40.0567116857931	-21.8887740173868	-8.67332281619202	
2509000000.00005	-12.471713883119	-18.3426618181024	-70.5364470662171	141.592337695102	-77.2505079041073	-2.20094673417231	-21.9079530314883	-6.44026904562597	
2509333333.33339	-12.4724248388234	-19.1141086418283	-70.4728596772181	120.849309768477	-80.925047394049	143.894754650404	-21.9236139570828	-4.62624188978827	
2509666666.66672	-12.4700795713345	-19.8926651333493	-72.7544183392539	105.605481154305	-90.0365012158186	150.391726387559	-21.9291145647047	-2.6871564441501	
2510000000.00005	-12.4711726981606	-20.7224998974648	-71.3130298930246	121.223599869339	-78.602822634149	-118.278317220106	-21.9067138002944	-0.883997163965774	
2510333333.33339	-12.4685287381334	-21.5570118291742	-75.0070795024695	108.709484710609	-79.0338481842338	85.5682820018933	-21.8941810313717	1.0395738388992	
2510666666.66672	-12.469888325041	-22.3095998598663	-87.2577231168346	141.884873434632	-86.353729477201	149.384286372545	-21.8400118263119	2.82976020004677	
2511000000.00005	-12.4635184362001	-23.1546681804518	-75.8637364991516	120.12058664339	-84.3290028958488	140.144548557852	-21.7946743054136	4.4794694236235	
2511333333.33339	-12.457491808172	-23.877487387959	-73.8894533052806	54.9301429312855	-82.4236215712824	-28.0719515381339	-21.7526872516981	6.2446111914498	
2511666666.66672	-12.4504452637478	-24.6866448030579	-78.8124978987772	95.6185395037485	-74.0281699425522	-167.008581901206	-21.6777822554234	7.92745103431312	
2512000000.00005	-12.4430290236393	-25.4494373453362	-70.92531532938	71.6338012962688	-77.5632790322954	-104.627378111154	-21.5708715953723	9.51098635132128	
2512333333.33339	-12.4362049641459	-26.2673780000521	-73.1026708920206	90.6428320585472	-73.8108266877785	18.4811005209667	-21.4953635703303	11.278576287852	
2512666666.66672	-12.4278948499306	-27.0207985284949	-81.3402208829227	142.641323084889	-80.2907182076362	-156.136224672609	-21.3848136208885	12.7124469273569	
2513000000.00005	-12.4198799829635	-27.7784272633368	-77.6375011147421	76.5612922445102	-85.8413828523459	-17.5897077995692	-21.2527082401555	14.1460421665573	
2513333333.33339	-12.4030605502374	-28.5664118248016	-78.014010136834	-157.490190390046	-84.7810919575889	40.482039208498	-21.1572830640814	15.6844833601775	
2513666666.66672	-12.3935314353901	-29.2833577881583	-86.855693000898	151.30486348829	-76.2836637633051	164.707576432669	-21.0171648725931	16.8104120880353	
2514000000.00005	-12.3833532097902	-30.0126731001129	-87.2097564388771	90.7557954054411	-86.7228970958461	-155.124322956857	-20.8714284527306	18.0683927207407	
2514333333.33339	-12.374850181139	-30.7328003865313	-82.8652514533358	-168.752559779883	-76.4053360869511	-155.818056699138	-20.7202336285507	19.2276843914229	
2514666666.66672	-12.3609069407532	-31.5343752884176	-73.1673185885417	135.401278721764	-81.8523832024941	157.400568765465	-20.5882157912767	20.4591810885981	
2515000000.00005	-12.3533177180946	-32.2039488083363	-78.1681249154271	113.793162903098	-89.3949621944624	-169.086218316064	-20.4409869283075	21.4032461206502	
2515333333.33339	-12.3382978832346	-32.9104669738253	-74.4106452436953	123.670789447604	-84.3924010710933	64.3488137009271	-20.2830263312061	22.218725176982	
2515666666.66672	-12.3303004317027	-33.5757884866322	-73.6562503246591	116.526323569359	-82.8681699832731	155.801466603848	-20.129629976045	23.0856222304051	
2516000000.00006	-12.3204699732516	-34.3020937508786	-74.098009726658	53.6929945720054	-85.1478751528315	-53.1054453335775	-20.0221845551533	23.5823889428401	
2516333333.33339	-12.3119108512646	-34.993686943662	-81.0659677115243	14.3710494421163	-81.2667234824086	144.293860303945	-19.8399146526463	24.1556512827139	
2516666666.66672	-12.297620929099	-35.6159975644397	-69.2295259892785	93.324110668198	-82.3547519634047	95.9577673922771	-19.7221101247933	24.568507833469	
2517000000.00006	-12.2890695047951	-36.2807231944639	-78.78739006899	61.4081367137475	-80.3326927460189	102.113538430565	-19.5860945217989	24.9209807794979	
2517333333.33339	-12.2816183754552	-36.9037708048887	-73.6371734093924	61.7327662467847	-104.093069033226	-86.9982856909792	-19.4496985401756	25.4375066767329	
2517666666.66672	-12.276298436415	-37.6016904605881	-70.3307572683115	49.6438515923204	-71.7193169054005	49.8168499117473	-19.301353134179	25.5462136778058	
2518000000.00006	-12.2695967826144	-38.2239785223756	-69.1587407956043	1.16987200180383	-85.2696574596354	-150.08607369795	-19.2077488093195	25.6101910533278	
2518333333.33339	-12.2512469577181	-38.7981830601847	-73.5909818976744	19.4392284555096	-84.8056204200269	117.781720879671	-19.0938111803582	25.7633313417162	
2518666666.66672	-12.2516939613518	-39.3713693246818	-76.6923521158289	11.838078428254	-79.6615271810324	175.193716674294	-18.9951636472184	25.654791062986	
2519000000.00006	-12.2597529716083	-39.9389972259608	-70.6027559133825	-35.0046611142529	-84.5170153802922	10.6131602864769	-18.9362807892538	25.7660147922658	
2519333333.33339	-12.2486805937013	-40.5026391818664	-70.5758348874406	17.0256555408759	-78.8172161395743	-38.5893763587393	-18.8609345326503	25.5258075133788	
2519666666.66672	-12.2462556859008	-41.0704860796996	-70.5861194720779	0.170761277439864	-80.6452401496017	-145.278847173956	-18.7660444869382	25.5085181210768	
2520000000.00006	-12.2507506492533	-41.4835887394723	-72.5716532620104	-2.66244594368197	-75.2345001216765	-119.067362973044	-18.6872405892953	25.3190488445808	
2520333333.33339	-12.242467724789	-42.0356080228657	-73.5213932519365	-15.3177565210116	-83.1124539874824	-92.2842919692324	-18.6634521271057	25.0558603894755	
2520666666.66672	-12.2535138323205	-42.5082662009307	-70.1242462999573	-40.4176126385403	-83.9371458617938	-57.9693825335648	-18.6069151945152	24.6568832955543	
2521000000.00006	-12.250865810581	-42.981354859395	-73.672118499106	-64.6404748140012	-77.5595280886844	157.968137813683	-18.5862208850353	24.3990719918046	
2521333333.33339	-12.2563146719454	-43.526629608914	-70.1411167845282	-16.8067821778981	-82.3245121737309	-117.256286837081	-18.5602774286077	24.065879670129	
2521666666.66672	-12.2452737375266	-43.8632528097155	-76.1119269795177	-55.5060336613462	-77.392780524156	-53.0712336373644	-18.538296514547	23.5946930584548	
2522000000.00006	-12.2607489042294	-44.3351314396349	-73.8837681134349	-78.4713606125378	-81.2367691552784	-50.5597942773989	-18.5462500112372	23.4141920957262	
2522333333.33339	-12.2749700679779	-44.7207901328383	-78.9968094437444	-90.5333460712389	-78.2857138588736	102.644252305453	-18.5698283150725	22.9663639835191	
2522666666.66673	-12.2757136943647	-45.0667972176815	-76.6735142602408	-71.6024765458234	-80.3962882190571	154.079809232222	-18.5624563111609	22.5151915629536	
2523000000.00006	-12.282668771129	-45.428370253895	-68.5677921236494	-80.2940326604433	-76.9659768114255	22.3771694821383	-18.5840661387617	22.0556325662734	
2523333333.33339	-12.2945542697864	-45.808509687797	-77.7618105843889	-92.0234328206166	-86.3213768727346	123.383797686996	-18.5915628998831	21.5453707209496	
2523666666.66673	-12.3097757615046	-46.1149408972753	-72.7602899171391	-66.0864083721574	-79.8292691373494	-13.736299906724	-18.6389704131775	21.3137445470644	
2524000000.00006	-12.3076749928494	-46.4099861437386	-80.1395097975883	-117.598181087173	-79.5241594486613	120.525436263785	-18.683099120699	20.8415171006048	
2524333333.33339	-12.3196553259609	-46.7094800864237	-72.2587826430709	-86.9087846042043	-80.8891312660679	112.959426085605	-18.7444740040144	20.3704826194135	
2524666666.66673	-12.3347389541371	-47.0117374142062	-77.4735378441073	-98.8524313910407	-80.4680549091894	-139.83880908886	-18.7890663669484	19.7836744370949	
2525000000.00006	-12.3426848121776	-47.2760158939937	-81.1522277512826	-139.444002788657	-76.2522668720111	128.33053140875	-18.854754466011	19.2491911159115	
2525333333.33339	-12.3616948080634	-47.4342470341576	-77.5376728290581	-106.754807398019	-85.4596956382894	178.698855431118	-18.9091018341843	18.7984803520696	
2525666666.66673	-12.373990539802	-47.719454764472	-73.7246623749014	-99.0305593209064	-77.3718007468616	121.358771177582	-18.9707447492119	18.252734685393	
2526000000.00006	-12.3949211881393	-48.0063988824193	-76.6976411591529	-95.1782973994097	-78.6041537812319	70.3793576055978	-19.0704823673189	17.7639837918875	
2526333333.33339	-12.4179846810252	-48.1941206976572	-67.6589879639614	-142.881821749654	-83.5075209509217	-74.213219350689	-19.1491834111011	17.286279208695	
2526666666.66673	-12.4282931121715	-48.3524577039813	-69.7274058363774	-157.93215208397	-77.4163970357227	16.3982228893793	-19.2515031167792	16.6347669895504	
2527000000.00006	-12.4444338037954	-48.5218264901421	-67.9536437617579	-141.56375269559	-78.7521277674577	-158.001772209211	-19.3362205456907	16.0437370953868	
2527333333.33339	-12.4534157965236	-48.7697088788574	-68.7686653790665	-150.367950471445	-94.1834133407759	36.7484166440875	-19.4512622590125	15.5935317988979	
2527666666.66673	-12.4754218722787	-48.8307953711514	-74.240295349984	-172.053503102221	-81.7110493133582	42.0572300754606	-19.5344693493541	14.9714090976629	
2528000000.00006	-12.5059369729235	-49.0658318833347	-66.8064165183807	166.621435385855	-83.0481887871466	100.532461769232	-19.6388486883577	14.3844240742905	
2528333333.33339	-12.524457444536	-49.2214682078606	-71.0841562581457	172.226547723737	-84.1173067030473	5.00792733202203	-19.7499500280095	13.8021535754086	
2528666666.66673	-12.5436391374121	-49.3667320241715	-69.9096109644021	105.743621276809	-81.5698691804283	74.4841523642873	-19.8590222195972	13.0851490906229	
2529000000.00006	-12.5699546988087	-49.4897068737443	-68.0297461347405	119.22063652941	-74.7349865690804	9.45060749180247	-19.9796404308029	12.457644043623	
2529333333.3334	-12.5928840244012	-49.652908493135	-69.8760747446146	133.888641961281	-84.0823511695493	48.0155913974466	-20.0977619741013	11.9870154413194	
2529666666.66673	-12.6327636311267	-49.7781997866505	-68.5901771064676	102.582742615603	-83.2498938981934	88.626152583855	-20.2141361500853	11.2150502574488	
2530000000.00006	-12.6486746762354	-49.9324795771634	-67.7672654372312	136.652688774358	-79.7582603198934	138.873765855076	-20.3487979151801	10.4748027524981	
2530333333.3334	-12.6742667344774	-50.1146875228686	-66.1804435016494	90.1279058926336	-78.900468210399	-159.736250270338	-20.4706958949563	9.91276143887808	
2530666666.66673	-12.7025835481772	-50.3126615576947	-67.7522306838412	88.5187073608294	-78.7441267315848	-11.6696570218751	-20.579443626588	9.26373357242749	
2531000000.00006	-12.7449682490501	-50.4367802241486	-67.3600621719343	80.2682402382207	-88.0493727387876	-56.8937691426274	-20.7210347670298	8.49007516248361	
2531333333.3334	-12.7739569148566	-50.6276859646681	-65.7773967874526	71.0197518040994	-84.4639029592018	-17.3546987444501	-20.8404946992191	7.76057200364971	
2531666666.66673	-12.8212089767189	-50.7425513542169	-65.3732154702103	58.9493022317875	-79.9346466719991	-33.4497852041039	-20.9845151084459	6.98443251737647	
2532000000.00006	-12.8484995897921	-50.8897874739157	-63.5369599173861	40.3649882946562	-76.6222165097016	-144.129327210046	-21.0971516700184	6.36477773430712	
2532333333.3334	-12.8844616111198	-51.1157161883983	-69.4347967446676	49.9518912573588	-74.7083565155036	-37.0041444807759	-21.229067322724	5.56971767624895	
2532666666.66673	-12.9394339734984	-51.2136783524303	-65.6585449508232	34.1348473758298	-76.0223296194387	-18.7199347599376	-21.3704179246603	4.72088584683696	
2533000000.00006	-12.97006496385	-51.339155166436	-64.6486057057539	13.0739967982535	-80.0019214320568	-112.310526420589	-21.4879384430988	3.86660418718585	
2533333333.3334	-13.0109237572526	-51.6165527423534	-66.6213988658996	-4.04952475952949	-82.4476821451051	-43.5548042488391	-21.6229386129578	3.06180321876778	
2533666666.66673	-13.0567056490493	-51.6328568846837	-66.8123691080165	-11.5044933715746	-79.5269485133801	-105.912084733499	-21.7371883020291	2.33271513648356	
2534000000.00006	-13.1020476530249	-51.8425331771004	-65.0232802010276	-6.00921928930054	-77.5002991367465	-168.225647093517	-21.8324528782608	1.69435577073667	
2534333333.3334	-13.1588462191728	-51.9226472862648	-66.5809419470321	-26.9215001870203	-77.1027902977362	-113.22067927885	-21.9607856422862	0.755130639180404	
2534666666.66673	-13.1995876820908	-52.0971555269316	-67.4205625689983	-17.402822707568	-75.8145936172683	-83.8599138008133	-22.0469863143722	-0.101475403275182	
2535000000.00006	-13.246749343228	-52.1918160831724	-65.5422645420103	-33.5787859602278	-85.5698146293778	-118.818821303166	-22.1423845604687	-0.970278074613804	
2535333333.3334	-13.3044356310834	-52.4439575006273	-66.0422942228402	-72.1271921379502	-84.6234169405381	51.6658237371343	-22.233234688478	-1.70696955677982	
2535666666.66673	-13.3632543108183	-52.5521707906701	-67.9381796343363	-55.7063697542235	-75.7000532330747	-5.39870595393625	-22.3099906577701	-2.69821037293808	
2536000000.00006	-13.4181162070871	-52.6725709241326	-66.8300736039537	-62.4458091860877	-79.6336629416315	12.5744061514498	-22.3991838825708	-3.73201825898183	
2536333333.3334	-13.4721899609384	-52.8246505159385	-68.7543825724116	-77.5429260100064	-82.2407980259334	-124.522658146235	-22.4354753212678	-4.53705286429217	
2536666666.66673	-13.5284089282191	-53.0294749692947	-69.8516201828938	-75.6833818769125	-99.5395105479505	162.765683143516	-22.5000021215458	-5.52211571058404	
2537000000.00007	-13.59535909561	-53.1473388325672	-70.2467150231693	-80.9476422138309	-81.7496803824069	175.740943652839	-22.5368238440621	-6.60604450525948	
2537333333.3334	-13.6572944756416	-53.3410386865027	-71.5027293357697	-112.401580245672	-86.2521361126983	119.15560761751	-22.5692895956641	-7.5504660442303	
2537666666.66673	-13.7176770902845	-53.5003909228151	-68.5596447660909	-99.4025715326242	-84.7676395097958	37.1028943834767	-22.5946233227745	-8.64109453217065	
2538000000.00007	-13.7888198549546	-53.6237559533824	-68.4450414710662	-114.572653104828	-78.4873434162779	-98.5554635029871	-22.6073545725637	-9.87980434830896	
2538333333.3334	-13.846325806852	-53.7715996272701	-71.8202153211127	-127.850870978155	-82.7565899105138	-0.594716886705662	-22.6444246640955	-10.9967608539161	
2538666666.66673	-13.9179436225902	-54.0392505883165	-71.1445753127628	-144.695706214941	-81.1910530254781	-8.59660550255764	-22.6396792804776	-12.1774466043925	
2539000000.00007	-13.9720448343657	-54.1189491617468	-74.992948403559	-127.372180121898	-87.8750807700882	116.455775723381	-22.6221106032374	-13.2315757019056	
2539333333.3334	-14.0599164606061	-54.2581727144617	-76.2546014580851	-140.214459052285	-80.0917666650904	-62.1773104988061	-22.6281126135065	-14.6187001496032	
2539666666.66673	-14.1291985772502	-54.513783984928	-80.7840440507744	-117.803503516156	-85.1284469821989	-72.1195308365697	-22.6107607256579	-15.7654259029158	
2540000000.00007	-14.1995012597113	-54.7137704858595	-73.4428487219706	-138.110507820826	-81.3734301429778	-162.678669472987	-22.594450811636	-17.0687840802277	
2540333333.3334	-14.2838029737764	-54.828466257368	-69.1076702087981	-169.742542843629	-81.7893464590792	158.47507825317	-22.5709164496135	-18.2097115295574	
2540666666.66673	-14.3658728235182	-55.1336636758837	-81.7618054928261	-142.905332760583	-77.4397281086194	0.0388733077047863	-22.5341273750465	-19.3741811814568	
2541000000.00007	-14.4555172465263	-55.2980183284383	-75.6240809133386	-103.890382075889	-78.9651580692917	31.9796148831557	-22.5084954979422	-20.5825618397204	
2541333333.3334	-14.4955393453471	-55.52049207308	-75.460941108519	-179.486893285078	-76.4253465267769	-155.845476113063	-22.4488573857	-21.7879672286429	
2541666666.66673	-14.5914817869111	-55.6913115137766	-70.2637009532467	-146.316670125988	-83.0424495319006	-119.901187288869	-22.3625713083079	-23.0136282739261	
2542000000.00007	-14.6831231577953	-55.8475891653895	-76.6269319509577	-176.823131556515	-75.5560298290033	-104.707087930958	-22.3291494265417	-24.2405540347245	
2542333333.3334	-14.7520679513081	-56.1306677870468	-72.7511105083238	161.485242934235	-75.7046231866817	-124.583971033997	-22.2764904231527	-25.6038655576101	
2542666666.66673	-14.8344986671463	-56.3419763408704	-71.9614368986067	-173.206838544374	-74.1519087306312	33.8469678141069	-22.2150515314192	-26.6783475363854	
2543000000.00007	-14.9236290880749	-56.5790343001829	-78.4754129672788	173.462717515875	-75.5350460028502	-11.0814698298679	-22.1475960311976	-27.9957418570139	
2543333333.3334	-15.0231003945939	-56.8548065413233	-73.6573026487901	169.589515989004	-84.5875658058711	-132.551072593557	-22.0819240026636	-29.1599159637106	
2543666666.66674	-15.0924143020608	-57.0830960496732	-81.0942630879531	163.793234017677	-73.7965660719228	18.4373547605659	-21.989480746211	-30.3184925282848	
2544000000.00007	-15.2137909520419	-57.309003936377	-78.5446566667276	-166.163643110545	-82.3199307688842	173.558616911721	-21.9347610840177	-31.5505693366748	
2544333333.3334	-15.2958976145752	-57.5913307904394	-76.6902844095305	162.66563038317	-85.2749879376073	-132.621433090501	-21.8671289672021	-32.7463250377001	
2544666666.66674	-15.3692803609402	-57.8845292954889	-75.3116714859514	149.244028609247	-81.4325160722329	-127.636283062886	-21.7883278697474	-33.9791041362361	
2545000000.00007	-15.4863729908918	-58.1658909710658	-69.494021141421	113.146658868357	-85.9178445390833	-14.1128441756544	-21.7368108031705	-35.1015836364115	
2545333333.3334	-15.5627390487195	-58.5911701683187	-72.5379005922765	132.920476806633	-76.4937573826908	81.3678165392757	-21.6730026937547	-36.2002949382431	
2545666666.66674	-15.6581679321111	-58.8438411835469	-72.9972565291027	107.60454590157	-87.5720106244015	-79.648522322273	-21.621632213893	-37.1198425697406	
2546000000.00007	-15.7510901454167	-59.180454832711	-68.9215364204991	114.104214667124	-81.6323279297361	0.10595235411887	-21.5577491419927	-38.2718410123815	
2546333333.3334	-15.8683571516465	-59.6105854527799	-67.759106829539	97.6130168919346	-80.9726849993348	-139.766984569857	-21.5255709726644	-39.356204029114	
2546666666.66674	-15.9448148236462	-59.9756111574539	-67.7036272747875	83.1830930927829	-78.8087859501909	-82.7453310922136	-21.4566140162101	-40.2642473582184	
2547000000.00007	-16.0443576805581	-60.3371803955335	-68.4340415650264	91.8051331030991	-78.4207845828417	96.651751230228	-21.4102074685385	-41.2810457514284	
2547333333.3334	-16.1530297063885	-60.8060714515976	-71.5330440516523	76.3067997561378	-88.2328156345691	-58.4763156825199	-21.345914458695	-42.1595994235455	
2547666666.66674	-16.2392134327442	-61.2573915999141	-69.3687036031326	92.355391114481	-80.8660555638952	115.725903759079	-21.3180624475913	-42.872816112991	
2548000000.00007	-16.3519636726147	-61.6819306849408	-64.8811363623452	63.9503055167967	-81.2601639431722	-17.9745342192548	-21.2932130745929	-43.9656638626763	
2548333333.3334	-16.4454296733486	-62.1414004351549	-66.847992554665	64.8160097385662	-78.8252702792749	-53.0403644906885	-21.2836873985543	-44.8130658329438	
2548666666.66674	-16.5525005196844	-62.6428287054239	-69.8748501097214	38.0373167871369	-78.6324260406972	-108.689254371033	-21.2917214702096	-45.5571609002772	
2549000000.00007	-16.6450288689773	-63.1868676075245	-64.5426243223494	22.1249997323245	-87.1051591738209	142.785071022545	-21.2639574836582	-46.2498371126868	
2549333333.3334	-16.7421157846795	-63.7610451737508	-65.528473199265	25.4674151876843	-76.8962884594899	150.618716524461	-21.2601478262404	-47.0080692152653	
2549666666.66674	-16.847667532436	-64.3581481148346	-66.5853779136236	26.8280523975474	-82.3714200345048	-174.958123008591	-21.278626532873	-47.5504271182944	
2550000000.00007	-16.9423779270124	-64.8690707564464	-65.3772337424888	0.481065096425997	-83.3115338038212	29.2191179048514	-21.287443621717	-48.3017217871258	
2550333333.33341	-17.042923021615	-65.6707185993693	-67.8951972741465	23.1319473287695	-81.8906996162454	75.3067277069798	-21.3013746761174	-48.7446971420284	
2550666666.66674	-17.1434446328523	-66.2760962844877	-69.7166986605747	6.42824003350485	-88.2184282719713	140.416178597643	-21.3483063322658	-49.2162066064674	
2551000000.00007	-17.2395297167926	-66.8501676464093	-66.7258854716974	-10.4792110583985	-82.137091741618	-138.898092712079	-21.4143708197632	-49.5981405374047	
2551333333.33341	-17.3438179482835	-67.6176738242129	-65.0840461423812	-27.8729198582594	-95.4182740963999	-125.871491716127	-21.4508480297222	-49.9775716799145	
2551666666.66674	-17.4362755347942	-68.1816148533202	-64.8542677163989	-27.6933527749405	-87.3186362636221	-29.0275866358918	-21.5255066811398	-50.1751672226591	
2552000000.00007	-17.5514619553838	-69.143244517702	-64.3968803505422	-46.2550885996737	-80.8612736613198	-165.751929649589	-21.587404999699	-50.4234653436752	
2552333333.33341	-17.633358189031	-69.8878334908476	-65.8352534135356	-41.3762417146305	-76.2746340873989	-42.3046242007301	-21.6615585483088	-50.5091962261845	
2552666666.66674	-17.7430370970143	-70.5958994454048	-64.9103212301067	-53.0666064310857	-78.1186191668456	-90.3612207983532	-21.7730992914646	-50.4488581883426	
2553000000.00007	-17.8195336081703	-71.4136285930654	-64.9962984902542	-67.1649387769908	-77.7270730073721	-72.0995114486397	-21.8787256341525	-50.3901549659238	
2553333333.33341	-17.9082744340711	-72.3157119190719	-64.0867868120463	-76.4346460621523	-83.1013399707791	-129.233215245821	-22.0102196309785	-50.1256866925204	
2553666666.66674	-17.9816760831078	-73.0293122367073	-63.454069399767	-83.548671647088	-73.0397300873763	151.273302481611	-22.1168777188483	-49.7705350133686	
2554000000.00007	-18.0771788843621	-74.0221133786857	-65.191618772219	-90.3504104560139	-84.6974385357041	16.4674255147279	-22.2454810732384	-49.3348202448259	
2554333333.33341	-18.1535497427846	-74.8901173258167	-63.5937461378887	-117.766313123924	-86.3439586686844	-161.484849100557	-22.326774359611	-48.7198336894752	
2554666666.66674	-18.2409671318951	-75.7242977074098	-64.9053264620646	-115.478864891729	-76.4004889532014	130.464522601352	-22.4698311990969	-47.9258153298805	
2555000000.00007	-18.3104822680424	-76.5308087567523	-65.3498449778216	-123.579005284914	-90.4278503989532	129.249084427981	-22.5998974876157	-46.9315259440311	
2555333333.33341	-18.391978425115	-77.4829606443922	-64.5309343412366	-133.691720674373	-83.1241082964618	167.956804355605	-22.7077543495484	-45.9210277748836	
2555666666.66674	-18.451774579356	-78.3690054179056	-64.6567082108127	-142.334350568161	-73.3636749840538	-19.6855024144465	-22.8340738865993	-44.5283110313184	
2556000000.00007	-18.5355128084199	-79.3328498310571	-63.9169895761332	-168.570362316215	-77.4062882975717	123.590835257625	-22.9354097623628	-43.1133954976327	
2556333333.33341	-18.5734111469149	-80.292569552149	-63.8927647133823	-167.075699425657	-87.8175298463892	-156.271609666238	-23.0041973925689	-41.5731291737087	
2556666666.66674	-18.6361949938843	-81.3232961374275	-63.8321721361214	-178.620165776893	-87.4318622659459	62.8219714325084	-23.082817693628	-39.9809141422714	
2557000000.00007	-18.6932704251201	-82.1188265564651	-64.878001079998	173.088725955478	-77.872171340171	-100.98617453123	-23.1175226399513	-38.0846912777897	
2557333333.33341	-18.7366426858991	-83.1778613916815	-66.6540138709896	171.971434829279	-80.8216821005192	-25.5188072814279	-23.1658445197868	-36.3127813013268	
2557666666.66674	-18.7677529892775	-84.1850596906919	-65.8511187715511	156.515828582334	-78.2661970000976	64.6429679489711	-23.1794209209064	-34.4295896860996	
2558000000.00008	-18.8132506508629	-85.1226478823641	-64.7511971026648	145.638849076919	-80.9521289997586	-117.315386432017	-23.1430091428458	-32.3921423650126	
2558333333.33341	-18.8315454401658	-86.0950799528817	-63.9862217422322	129.955466820825	-76.3715317278366	143.630766668391	-23.1144568330997	-30.2671664757857	
2558666666.66674	-18.8601433976208	-87.061459914152	-63.6788170586056	149.655170469992	-89.9726416003235	83.1470875712985	-23.0355780135831	-28.3013080733184	
2559000000.00008	-18.9050677710762	-87.9524027243342	-62.9663236397944	116.164154842027	-85.9872781532573	-172.722302245644	-22.9404495016815	-26.2111083519926	
2559333333.33341	-18.9058385125277	-88.9996752496534	-66.2154429838685	114.658913711947	-85.8721555800531	69.5596786747831	-22.8356552803553	-24.2999235489112	
2559666666.66674	-18.9300132609718	-89.906757477041	-64.2632183844847	100.27091459131	-81.4411225680853	-13.5722340121548	-22.6929129455668	-22.3852743321107	
2560000000.00008	-18.9127133876899	-90.9597160102652	-64.1033372577127	110.273276622263	-75.2255877831205	-39.882359450029	-22.562802270138	-20.5868348846808	
2560333333.33341	-18.9362747522459	-91.8112981159586	-65.3040029113934	88.1697726531265	-81.6893051688619	-25.0728635810493	-22.3948299886306	-18.8287800853097	
2560666666.66674	-18.9371931925371	-92.8106804267727	-65.57548540562	77.7783569853287	-85.182354171716	75.4629605365839	-22.2178861556299	-17.3597258848867	
2561000000.00008	-18.9201075105181	-93.7560485294624	-63.8830873580851	61.3428526115934	-77.7084628760466	124.480716285396	-22.0248976591583	-15.8204174764245	
2561333333.33341	-18.9015422714312	-94.6195271167265	-64.2864376202753	57.7387477647472	-80.5734380809534	147.527292866815	-21.8219705691905	-14.3517360841306	
2561666666.66674	-18.8815779948023	-95.5103386348431	-68.728417440825	67.0000109303964	-82.0681342297054	-152.434568074968	-21.5975588283801	-13.2107788477052	
2562000000.00008	-18.8703805288667	-96.3928697694356	-63.6256821223545	41.4289695266119	-78.1762775804575	4.20953229372076	-21.4174789748253	-12.1592574062277	
2562333333.33341	-18.8464330463874	-97.3694936360358	-65.363854343596	46.2010291782771	-81.4659017114874	142.434512983025	-21.1950639574691	-11.1428242400282	
2562666666.66674	-18.7977496798308	-98.1949388386184	-66.8506982068009	33.5201960859838	-82.9533746141761	62.1942226971332	-20.9852173497176	-10.0140478323309	
2563000000.00008	-18.7766884073983	-99.0269360824622	-68.2263726633763	27.7286796713495	-80.5341135365461	-141.620674901856	-20.7675742967269	-9.27471988469521	
2563333333.33341	-18.7272471926524	-99.8919279990478	-67.2572446758878	2.79911308610024	-73.684990781223	24.8064267639295	-20.5846503100674	-8.56320409290065	
2563666666.66674	-18.6763521696768	-100.683991140752	-65.3172605765206	8.80632777038022	-88.9922140133028	-82.1017028476211	-20.4001567817794	-7.86492912868088	
2564000000.00008	-18.6446576384423	-101.420548409894	-64.9557999798878	9.77845202828969	-77.3322621672403	176.520411023837	-20.2019265488902	-7.34269969890994	
2564333333.33341	-18.6138546864215	-102.280193907246	-64.7430375787882	-3.82237541870568	-78.0867327609283	-0.191650622363989	-19.9994376028537	-6.86019460402026	
2564666666.66675	-18.5599119828391	-103.085512449135	-64.5621603684524	-27.6078725812983	-75.1606189903602	-172.52330586204	-19.8308650194495	-6.5823194001428	
2565000000.00008	-18.4942165471619	-103.857408734881	-65.0753752515087	-37.0186495910652	-84.1232503842218	72.0212877118727	-19.6454202295593	-6.38824988036067	
2565333333.33341	-18.4500135817463	-104.494088042789	-66.6307679809746	-25.2102081746179	-79.6883166829218	74.575228690191	-19.4937316947674	-6.1045831560371	
2565666666.66675	-18.3866726924011	-105.240419010405	-70.0808316114627	-61.639543477034	-79.8908594962334	0.539707904126915	-19.3567080901948	-5.91998533615307	
2566000000.00008	-18.3368004518536	-105.971693097545	-66.2920865412725	-61.9129406348092	-75.8828948629431	78.6637684639273	-19.2060546385169	-5.76252749411474	
2566333333.33341	-18.2718515157353	-106.674312051992	-65.2148566777921	-66.077422387051	-78.1172232963521	58.1587539782255	-19.0875282826157	-5.68898736540238	
2566666666.66675	-18.230810859922	-107.413681286621	-69.2152816415995	-70.9032381862615	-81.0719689436242	43.9840765401909	-18.9795531969565	-5.83684965837313	
2567000000.00008	-18.1526407351545	-108.10929058983	-68.1195511476351	-98.0397501104636	-82.639339446239	-135.783343916726	-18.8646279395469	-5.96053358617222	
2567333333.33341	-18.1044617425807	-108.752791248576	-68.6331749838662	-85.9941169119159	-75.8960868621925	39.3632969489542	-18.7719266391698	-5.88921714624888	
2567666666.66675	-18.04235622825	-109.365257637969	-67.3176774812365	-112.933320827928	-77.0842032175698	107.150114917447	-18.6993646551873	-5.86594806592052	
2568000000.00008	-17.9715995903183	-110.041078698399	-70.6495878033962	-126.12863290547	-76.0076580919101	-177.010685717984	-18.6234424823235	-6.00787792447819	
2568333333.33341	-17.9312950979475	-110.720473828625	-64.6846264592296	-116.143682436223	-85.972358504913	-138.774869716965	-18.5802916670781	-6.17787093455568	
2568666666.66675	-17.855655979037	-111.263762372022	-67.4866857987598	-159.274021062038	-86.393657904454	65.8681110230177	-18.5388092894087	-6.3728775054911	
2569000000.00008	-17.808156126299	-111.807944408246	-68.6806507465554	-151.923631086045	-77.3884221081352	63.1413889951414	-18.4848927541401	-6.6825089455491	
2569333333.33341	-17.7483131015774	-112.517225538679	-68.2267512683645	-147.667375486813	-77.833590586896	84.8163309439574	-18.4639413265502	-6.80711787566832	
2569666666.66675	-17.703712889264	-113.056673034156	-70.3628958187397	-166.74457325397	-86.235388557855	32.3694715641553	-18.4613117107289	-7.04357208959171	
2570000000.00008	-17.6414430474163	-113.628187970644	-68.2359327063022	-155.856589227271	-80.5288478378096	-38.839948507253	-18.4858626002417	-7.03211185870311	
2570333333.33341	-17.5733949034701	-114.318966417665	-69.335075650123	174.327478924234	-79.9440946763654	40.7560922103206	-18.5123276997311	-7.45005233066067	
2570666666.66675	-17.5202082912163	-114.768293169018	-69.694607208925	171.941437804459	-87.0570142417544	125.434010550887	-18.5399020884479	-7.55498840832181	
2571000000.00008	-17.47135654355	-115.378016338048	-71.5322353224614	171.732542122322	-75.5795347220579	-105.441671007936	-18.5732617729463	-7.68647941580484	
2571333333.33342	-17.4190480013276	-116.00847321978	-67.3884179362537	-176.833090385053	-89.147355252472	-145.38239181685	-18.6420588051946	-7.70056729962403	
2571666666.66675	-17.3912488430879	-116.611219797208	-69.8362997407295	140.185969092839	-73.9972581824193	163.245861393199	-18.7207302727593	-7.91591847653164	
2572000000.00008	-17.3279855576681	-117.157617620156	-67.528047544796	147.286971347535	-78.8850793275606	154.99392118159	-18.8004457005967	-7.91114523821259	
2572333333.33342	-17.280282410667	-117.602067995876	-68.9227908472261	138.71357195131	-84.8025881519977	-129.193315374192	-18.887368979248	-7.86818090481945	
2572666666.66675	-17.2668990237929	-118.152232983862	-71.1870270110116	141.992894954407	-81.8571768262977	116.270450467526	-19.0041187457644	-7.95642500041301	
2573000000.00008	-17.2258849012466	-118.76828478278	-69.0145850039295	147.900845294523	-80.2206138354862	-6.26249761894143	-19.1247187878759	-7.60817884160326	
2573333333.33342	-17.1840846996946	-119.335510738035	-74.8354706651002	127.324829874233	-87.6346877999411	141.095573434791	-19.240521218252	-7.49060971667285	
2573666666.66675	-17.1608135862318	-119.952560799013	-73.5964621563946	80.8177201159814	-80.7998346844788	111.197759991701	-19.3947607043264	-7.19939754301031	
2574000000.00008	-17.1359221384688	-120.430183620873	-78.5580517317303	136.982789991747	-85.8368023812259	-107.811578400268	-19.557839732767	-6.83420669725383	
2574333333.33342	-17.1192624285259	-120.982063300769	-72.7077653284434	88.3381386846735	-92.7072834508791	103.652438339894	-19.7229738008891	-6.4754531988478	
2574666666.66675	-17.0865616673174	-121.572868554163	-71.3441036233459	44.3132001752866	-74.8129722881838	-163.336127304909	-19.8635365209875	-5.78883814562716	
2575000000.00008	-17.0782570448791	-122.063821112347	-78.6060605525071	54.6308397708398	-82.5804048647419	162.817300501684	-20.0550296409854	-5.15998903762455	
2575333333.33342	-17.0645925678804	-122.644259597677	-69.9450950585181	73.1401223636879	-76.5158083157013	-66.382659468843	-20.1903268446694	-4.57170784271865	
2575666666.66675	-17.0574724549653	-123.422898554563	-71.4329897757828	23.877927728754	-75.5081171328295	140.220422322536	-20.3704732129289	-3.64201881997689	
2576000000.00008	-17.0628429821548	-123.841988561072	-72.4977596145808	31.9920446242539	-79.2246125258093	136.591411274492	-20.5550582681119	-2.68561815722602	
2576333333.33342	-17.0478864655144	-124.455651063571	-75.2912590537492	126.852259246638	-76.8636096662075	-79.6382870681612	-20.7098640564148	-1.64477258992281	
2576666666.66675	-17.068144231903	-125.079652943388	-77.2780466200918	105.964511953119	-93.5567222168167	173.669573627051	-20.8944754628057	-0.381813347369265	
2577000000.00008	-17.0894236836715	-125.738548616518	-82.0125793112894	-115.742279583637	-75.3396303058318	-168.06118983816	-21.0356953344305	1.04163276842648	
2577333333.33342	-17.1227519237282	-126.329859012842	-74.2416604266427	51.7949930108766	-79.1461479795906	-153.133055360639	-21.2128204674328	2.67511255684495	
2577666666.66675	-17.1204149924843	-126.961722721158	-94.7979846039932	90.9135963036738	-76.3417947055988	-80.5962904205994	-21.3223251141028	3.74728032278271	
2578000000.00008	-17.1531816201201	-127.598050051191	-78.3307448799978	83.6303688371158	-78.1105999931642	105.672003360201	-21.4455006687509	5.36194234880893	
2578333333.33342	-17.1566462854651	-128.174860312559	-77.543471327176	42.5577237490725	-79.4441302361434	103.102956436158	-21.5211889902698	6.99338022594361	
2578666666.66675	-17.1987882281795	-128.895772567178	-73.7134217320909	24.3922971747795	-88.8835532442372	140.949926346564	-21.6225909401026	8.91809674807941	
2579000000.00009	-17.2423558922457	-129.363322518807	-74.5809740587338	44.1649475154387	-76.7650762858168	-138.506048466803	-21.68464749436	10.6779214612526	
2579333333.33342	-17.2807124836695	-130.124490780068	-84.9380923075571	135.148506198943	-81.2347081265722	-19.6642658675349	-21.7124641835058	12.5880037337192	
2579666666.66675	-17.3419913986617	-130.757589688609	-73.8353973889248	1.25066239135805	-74.0289501097291	157.048722427862	-21.7067999430482	14.604937692946	
2580000000.00009	-17.3961316776131	-131.39170711894	-78.7440884686363	49.4640896577292	-77.4680565483139	-85.5048900288848	-21.7331488101822	16.1551071532992	
2580333333.33342	-17.4527790590667	-132.072413049653	-75.3414967340459	2.04631389821282	-79.0188563538158	148.465932443098	-21.7085353897392	17.886279437151	
2580666666.66675	-17.53179002311	-132.777782853965	-73.5824922877894	20.9905311656276	-90.8439820238734	-121.370979766568	-21.6711338779551	19.6074860145107	
2581000000.00009	-17.5967163262473	-133.54974733244	-72.7760372574745	-2.99938042293805	-74.068186398731	9.05094312137168	-21.6079744831886	21.0443612636945	
2581333333.33342	-17.6872662173834	-134.009850572039	-77.0502334583839	-13.6355348221427	-83.4153237896697	-20.589262492388	-21.5148067799846	22.2170545385641	
2581666666.66675	-17.7376635721971	-134.752199345751	-75.1683266235443	8.09434062337915	-75.1010318293682	106.771704608635	-21.4313598819723	23.5662997778802	
2582000000.00009	-17.8220841766232	-135.499370699721	-74.8229987154457	-93.5236446950096	-87.9091326031863	44.1753346016167	-21.326129841264	24.9225384835737	
2582333333.33342	-17.9190650914484	-136.269849666966	-70.9046744608743	-47.4469733367872	-83.4890052555865	-67.2776891928649	-21.1905155979015	25.9299940727471	
2582666666.66675	-18.0229089147514	-136.971244484979	-70.4399635524568	-42.0511202469244	-80.5788082626538	75.3683798630472	-21.0731335111602	26.7729153985016	
2583000000.00009	-18.1070071928759	-137.632937473078	-71.5337469013253	-39.4922011480826	-79.6289237186457	-166.701176354396	-20.9894068899832	27.4949063693094	
2583333333.33342	-18.2279490178714	-138.390646969221	-74.2173216694819	-80.9092250696441	-79.1111514400412	-72.2939559312155	-20.8349627567521	28.1573313228476	
2583666666.66675	-18.3453380166589	-139.014059562693	-71.1763562681078	-74.0688770507118	-79.8503446746104	-48.1462363708228	-20.6965487636619	28.5861507025948	
2584000000.00009	-18.452536229744	-139.888475300767	-66.7670817091992	-90.4581535012977	-84.9439970868533	-77.8214498348182	-20.6219706217945	28.9045016984262	
2584333333.33342	-18.5632383399163	-140.579090045427	-67.4795265351576	-94.4648810295011	-85.7516042758766	-40.5966870586591	-20.5147121969357	29.1028329839283	
2584666666.66675	-18.6882053038554	-141.246874690899	-71.3804287130321	-121.152795742627	-82.582552454373	34.6778259399918	-20.3980251145661	29.4138498865353	
2585000000.00009	-18.808671682544	-142.105793762646	-72.0017626580864	-129.794638149053	-77.9046941198712	-128.554637996706	-20.3007483570455	29.4364010612121	
2585333333.33342	-18.9771074112247	-142.833184036334	-73.3143427697333	-107.312494638554	-75.9960153064262	148.965546864277	-20.2134120188083	29.1705072483993	
2585666666.66676	-19.0980324164376	-143.674689453627	-71.7010518781406	-110.071849122453	-87.6824630652691	113.442434114923	-20.1419643228299	29.053007185263	
2586000000.00009	-19.2257082835604	-144.438345357701	-67.1126714136359	-155.783474135606	-95.4235449966105	-52.999911483338	-20.0691288974209	28.8413344627173	
2586333333.33342	-19.3761342283989	-145.199576446944	-69.2182734433271	-133.742033932193	-78.5902748765746	-163.270766261633	-20.0197482715559	28.3658996032578	
2586666666.66676	-19.5494748906593	-146.068014805673	-69.3474884925114	-132.148022577472	-75.4361295871727	-104.026897085857	-19.9713182482181	27.8442712949459	
2587000000.00009	-19.6854358336698	-146.992977362448	-72.0607194213747	-126.679441909809	-85.0885919190878	99.6261152636872	-19.9431691802218	27.3611447026004	
2587333333.33342	-19.8488126286295	-147.816216761618	-69.340244822541	-161.21997357356	-78.3327118308878	-17.8228124373535	-19.9088478515543	26.7431925731186	
2587666666.66676	-20.035869433499	-148.681229666357	-68.9794098675745	-172.334711176268	-73.3454074766203	-174.94618749934	-19.9012471831082	26.061331917067	
2588000000.00009	-20.1919110204843	-149.475814287078	-73.7498651428173	-166.143913934061	-80.4651265261377	-175.257372891156	-19.8836477897753	25.3526314685781	
2588333333.33342	-20.3635659002359	-150.208799759803	-69.0950376037198	167.959035013408	-80.4825450832388	114.275440442054	-19.9018083259876	24.673058353052	
2588666666.66676	-20.5275645913445	-151.320745910529	-74.9933183615437	139.28126070894	-76.7947761905292	69.8277841915211	-19.92334269688	23.8289674563807	
2589000000.00009	-20.7039430493671	-152.158407959696	-70.8226777407865	159.365766144635	-69.8523360854455	39.0584997945414	-19.9638413439113	22.9285184977487	
2589333333.33342	-20.8668784963774	-153.18368733378	-70.1535416037326	129.721504647487	-79.3013480199815	-35.347769780503	-19.9893376376039	21.9352317104795	
2589666666.66676	-21.0475470705221	-154.187569695013	-72.6324068358404	108.261367332191	-78.2358197868786	-2.252355882888	-20.0373824067432	20.9489425777352	
2590000000.00009	-21.2402174056852	-155.106716814999	-76.7284920850888	145.167905682166	-86.8620383199774	176.360853186218	-20.1296892994219	19.8405835648873	
2590333333.33342	-21.4020892082462	-156.3341826934	-69.1802925462594	110.852744389663	-75.7660798945288	158.297225070169	-20.2101749141952	18.7839647465847	
2590666666.66676	-21.6121866672718	-157.431883593553	-72.4544156850337	88.5792592683775	-71.434959792496	-63.6233301686088	-20.2907687201289	17.4426677986674	
2591000000.00009	-21.7894348198263	-158.517803423064	-69.7015267349814	72.4248396096996	-83.0048493632176	-49.0075788578991	-20.3977901477635	16.2786556665659	
2591333333.33342	-21.983067515123	-159.703507321881	-76.0763534060621	41.5668624864409	-84.4999230432848	165.288878401863	-20.5363641576317	15.0457122209262	
2591666666.66676	-22.1835840551404	-161.048986966502	-70.9196088004881	43.1640761756265	-78.3485597266083	-163.521931734234	-20.6446900595493	13.7718231742531	
2592000000.00009	-22.3753569408936	-162.40895446851	-73.5439229390986	23.6302496428087	-72.2749079842938	87.8850658083506	-20.8369600158509	12.4011284849427	
2592333333.33343	-22.5270492536061	-163.596951085805	-81.6962160856986	47.8111117077462	-80.9534484321589	33.63003107382	-20.9912989201342	11.0138816790151	
2592666666.66676	-22.7393210567291	-165.028455541839	-83.0566373392246	25.8078398265071	-79.5285299084518	-3.48169479650445	-21.1768616560942	9.80313152084293	
2593000000.00009	-22.8961249948499	-166.841299232689	-73.5058100938041	-61.6509564440359	-80.0157424988615	-118.156756533851	-21.3550800061552	8.55117835082812	
2593333333.33343	-23.0630761614435	-168.255138711804	-81.1185412378231	-122.630291900893	-80.9204154974944	-32.0182523212192	-21.5638359992602	6.98763344899895	
2593666666.66676	-23.2856353190722	-169.839348006704	-76.7604156606578	-27.2292417743116	-74.0247882872074	-141.500905102237	-21.7969653948352	5.59822702623041	
2594000000.00009	-23.3924002477316	-171.731541015133	-76.0334876051332	-24.5381256286393	-73.1559459979085	169.217544168914	-22.0275062680706	4.40833612490048	
2594333333.33343	-23.592560957322	-173.628178739013	-70.2256824102693	-98.6035584525817	-82.2293895905271	155.719288007242	-22.278029109691	2.89979887086096	
2594666666.66676	-23.7353413797032	-175.47936147055	-82.1060864466115	169.414320533528	-79.2246358233609	94.8363908651728	-22.5517316648605	1.69854149776946	
2595000000.00009	-23.8670909066908	-177.486814315575	-73.7785524564854	-102.845123093387	-73.2051096266767	-6.3257440780989	-22.8112410911699	0.376385480490955	
2595333333.33343	-23.9701340179464	-179.612315770827	-72.9908685872295	-123.599003731038	-75.2773006813212	170.261860431235	-23.1118921777181	-0.657710857129366	
2595666666.66676	-24.0924312217528	178.288294157622	-78.3766597556381	-160.827281298821	-76.3330635408886	-102.363431450832	-23.395400164242	-1.8869344145714	
2596000000.00009	-24.1717268210899	176.173087340383	-73.0742635637929	175.156920394969	-84.0297545324989	93.4961021511937	-23.7106834115839	-3.06872285545845	
2596333333.33343	-24.2821154672616	173.795006766418	-68.8936444036756	144.474557500325	-79.0147756882348	-105.757276632401	-24.0173706682157	-4.1445940700829	
2596666666.66676	-24.3025749556795	171.443116059411	-71.3619348506346	145.797894897415	-80.9183243703484	-85.7171234528905	-24.3152965704941	-5.15878371984663	
2597000000.00009	-24.3566060921471	169.140360654083	-76.8869606375679	98.5627159944512	-79.0131111062003	-172.005884084773	-24.6911625994072	-6.0622102694728	
2597333333.33343	-24.3862711802765	166.58109333463	-74.5274730887024	89.7313434459271	-78.7266598621483	-112.013033772582	-25.0161312899716	-6.69042150875929	
2597666666.66676	-24.3737013010853	164.011715278364	-69.2640844349048	110.926005149181	-82.1392077448318	28.4005906024618	-25.3526169436387	-7.50798755034833	
2598000000.00009	-24.3594903174098	161.645751827687	-69.6524741787936	53.770985431498	-79.4297121150771	136.810839228286	-25.6722004440859	-8.11428148082363	
2598333333.33343	-24.3289411153963	159.227355181073	-67.883230843443	77.8008704578479	-82.6574796540908	95.8988482201347	-26.0264820669258	-8.42464864150893	
2598666666.66676	-24.2831279255388	156.843505405916	-67.7387119853381	44.148261380537	-90.3134331351136	-174.421550932684	-26.3820135363645	-8.75448033255605	
2599000000.00009	-24.2090127279244	154.096693561335	-67.8938714849688	53.7041525918277	-77.1824627250142	-59.3310014639462	-26.7204968230527	-9.05331722917052	
2599333333.33343	-24.1199325381006	151.787129707388	-66.4431367095267	21.4233759871133	-73.2614653513689	23.2777765542112	-27.0386226753485	-8.73937584970553	
2599666666.66676	-24.0428367011951	149.546399833913	-67.7507408518016	5.30745096229395	-79.3104983770337	50.9035744447178	-27.3697152894906	-8.42867713949835	
2600000000.0001	-23.8977250017565	147.090608808904	-65.9437284006	-17.8944920976322	-77.9282637518587	-34.355981301934	-27.6731749753993	-8.10247169032342	
