!Agilent N9923A: A.05.34
!Date: Sunday, 13 March 2016 22:17:18
!Model: N9923A
!Serial: MY51491690
!GPS Latitude: 
!GPS Longitude: 
!GPS TimeStamp: 0001-01-01 00:00:00Z
!GPS Seconds Since Last Read: 0
!CHECKSUM:1167950467
!Correction: S11(ON U)S21(ON U)S12(ON U)S22(ON U)
!S2P File: Measurements:S11,S21,S12,S22:
# Hz S DB R 50
2400000000	-16.706639281501	-176.402868498104	-58.2005891505818	177.25514660113	-83.1418408209825	-34.8976940512264	-19.7473286012437	3.75190868075956	
2400333333.33333	-16.745060254051	-177.365669885355	-58.5226767543508	171.532363752931	-79.4656374946592	142.870160758474	-20.0193823713239	2.86542711521173	
2400666666.66667	-16.7972750547735	-178.232005024305	-57.3750110605938	162.356465125514	-78.0612446442852	102.725652128467	-20.3095838963902	2.02940062209074	
2401000000	-16.8508852349356	-179.17646551621	-57.7480230088447	159.284098969285	-82.0802059967219	76.3644528258732	-20.6188460566718	1.1951105995654	
2401333333.33333	-16.9031693442493	179.631937017634	-58.4495530584922	150.989927056834	-87.417132127909	-50.6394363731685	-20.9758534558868	0.544961989200753	
2401666666.66667	-16.9703924485805	178.668477519156	-57.9205765236518	148.44175792092	-77.2088736632573	-146.672488266501	-21.3262510459381	-0.211023847542884	
2402000000	-17.0399923865721	177.627859857408	-58.0038723355638	137.548073588532	-76.3535118227398	154.168515087108	-21.7015397204894	-0.897332366385727	
2402333333.33333	-17.0994563576938	176.501128115511	-57.6835948654092	129.618712675111	-81.0651948973646	-44.4198029356498	-22.1192979114246	-1.54683281762771	
2402666666.66667	-17.1648930385053	175.352758820781	-57.371040326309	120.240703152379	-87.2951916322557	-41.1131514033973	-22.5089839861877	-1.98394834649843	
2403000000	-17.2056352009074	174.308422452838	-57.1318543359881	121.81717301695	-83.528487536552	63.0603352228864	-22.9925668125752	-2.51330346290278	
2403333333.33333	-17.291702662808	173.063128842058	-56.2982274694094	102.980158421097	-75.2409473898486	50.7529992173504	-23.4590079034168	-2.62013074002354	
2403666666.66667	-17.3525304636792	171.910931199698	-55.9712580625457	98.2042717513522	-78.0831843427292	-143.821857539943	-23.9730371957748	-3.01285789210352	
2404000000	-17.3815507181105	170.748548093875	-56.8770686089463	87.3600560273645	-77.2847110636451	-114.99743066603	-24.5251045205498	-3.00340634927777	
2404333333.33334	-17.4581887394714	169.448317407244	-56.2514790912341	78.3267789792338	-86.7157634809727	-49.1419720318459	-25.1169913991997	-2.79095413677196	
2404666666.66667	-17.5183082189777	168.228281215444	-55.8551530971008	69.8872646125919	-80.6458053900629	22.1834102977682	-25.7051831122698	-2.31022959002043	
2405000000	-17.5693863883797	166.950581501772	-56.102175776138	64.1904777097658	-87.9272024349796	154.659849792926	-26.4015896852106	-1.74871766134753	
2405333333.33334	-17.6140288171525	165.65529837331	-56.7368589499867	56.3644561870011	-76.2761779057412	-78.1938951235871	-27.0840829273648	-0.869949723064111	
2405666666.66667	-17.6696973873499	164.468311372701	-56.1192398704	52.7909284292067	-81.1673034818524	-106.654127287972	-27.7539259454962	0.811449550573352	
2406000000	-17.7294464875793	163.048414230909	-56.0384045613754	40.2277038704239	-90.5854708500446	0.796662000395685	-28.4848025882277	2.73746359334481	
2406333333.33334	-17.767299230521	161.709363098882	-56.1830576802785	34.5095475919475	-81.1028597361527	0.542188593747124	-29.2189692986181	5.61129140558819	
2406666666.66667	-17.8080343196977	160.202913643617	-56.7552400308803	29.9136579202095	-81.3072485273905	-8.76683964058407	-30.0070538533252	8.85347355947895	
2407000000	-17.8421079749353	158.840129231657	-55.4057740409796	21.8581942173126	-79.4094159340472	-148.315206630522	-30.7128944608047	12.5784702821099	
2407333333.33334	-17.8791732397949	157.45556291347	-55.0586021407111	9.35214394754801	-76.1886114463687	-165.073000067929	-31.3290805068636	17.1475064599581	
2407666666.66667	-17.9037126397612	155.878722928317	-55.7182808700877	4.01841241079674	-86.7417411155485	-142.879772420304	-31.9701385985654	22.6101076262775	
2408000000	-17.9312731326066	154.445559651996	-56.4111918246317	-5.74893254030931	-85.4624995620213	-143.128735724931	-32.3227000061733	28.9044088245411	
2408333333.33334	-17.9439446285742	153.047147660103	-54.8340293564028	-4.83928753383557	-79.4553810467134	88.0465951596596	-32.6198434387809	35.5276932488899	
2408666666.66667	-17.9679780524794	151.555688142107	-54.4219360129995	-14.7626696152557	-78.3724426122242	-154.738944262882	-32.6439554084196	42.4976107253418	
2409000000	-17.9819066495448	150.052672493886	-54.7137987836486	-20.2668535360818	-82.9018007049067	-15.6318730250907	-32.5218922455022	48.3891605197995	
2409333333.33334	-17.9778627643236	148.499978948119	-53.5980758049456	-30.1155042700597	-78.7923413783636	-103.82188322737	-32.2490673943744	54.3371541029467	
2409666666.66667	-17.9720676346873	146.967505912033	-53.3711513692646	-42.9765408307197	-86.8430330000798	-127.158475814994	-31.9772518025107	58.3175918404165	
2410000000	-17.9647482590125	145.392230590241	-52.9652136126383	-48.876065565606	-76.7782090571808	37.4628103676693	-31.6000699048064	63.1908160032809	
2410333333.33334	-17.9578036805844	144.02698159834	-53.0707004818904	-58.0085419110985	-78.9309983230819	-95.4535482158721	-31.1700274827689	66.3431272822657	
2410666666.66667	-17.9459673696632	142.429841511538	-52.5777669509706	-64.7054797159451	-72.7498059473927	-137.785190457259	-30.7540929096633	68.9773040060705	
2411000000.00001	-17.9097171922224	140.951280024002	-52.2401578155098	-73.5243697581659	-87.1353020517981	-79.0176550757749	-30.3587381926805	71.0864785189308	
2411333333.33334	-17.8646158790434	139.451209411092	-52.2455490419823	-87.3166540946371	-85.390669118784	11.0199628185176	-29.8675550905605	72.8626075508796	
2411666666.66667	-17.8143888034852	137.852782357649	-51.9348043186529	-89.7479651151308	-75.6544034906091	-70.0559304195116	-29.5032988329637	73.995743519135	
2412000000.00001	-17.7953459983557	136.379755284642	-51.9430678479822	-104.008979703423	-77.8977687161478	-111.337997874611	-29.0469337694021	74.7705648932573	
2412333333.33334	-17.7430149422086	134.895267869028	-51.9138659050814	-112.473849935011	-89.8888764269094	-116.960951212793	-28.65554776122	74.9277363104784	
2412666666.66667	-17.6829875765011	133.406471678271	-51.6085393076716	-122.062018881019	-81.422377059652	39.6580070238896	-28.2923755545862	75.1495478780629	
2413000000.00001	-17.6129077233041	132.117613961091	-52.2433735423007	-127.302243813692	-93.5899037024132	83.9891956144659	-27.9897664533878	75.0056981081656	
2413333333.33334	-17.5489589858283	130.53831735393	-51.8153025376673	-138.057952334829	-75.6502865454568	-146.41174902938	-27.6816982068072	74.2753212313785	
2413666666.66667	-17.4872096817521	129.269836108832	-51.9484663395914	-149.401471156868	-79.0103516197433	99.5762001734678	-27.3657796184606	73.6636838555788	
2414000000.00001	-17.4071666931526	127.89948536127	-51.6344605657103	-157.433812203758	-76.0172697396718	58.8183789556762	-27.1266136312928	72.8809053083095	
2414333333.33334	-17.3451902944307	126.498566006663	-52.069122681469	-165.749878215555	-87.4049613961263	129.037129801699	-26.8178231015104	71.6476390093984	
2414666666.66667	-17.2440850152256	125.23087685119	-51.432974487377	-175.079453776627	-93.6594875504662	133.925103245323	-26.6424068338959	70.3892557517271	
2415000000.00001	-17.1529258616056	123.952688559501	-51.6019688632271	175.171165028587	-81.4124558863854	-178.420733230317	-26.3775346030536	69.0184916505498	
2415333333.33334	-17.0596998972354	122.796107591352	-51.2869002101347	162.379138190371	-75.6155853129425	104.778191580733	-26.1459706839185	67.4936974314659	
2415666666.66667	-16.9774133057371	121.476849546644	-51.8229109855932	157.115414006909	-82.3240778686328	149.820170302874	-26.0063020116963	65.4803753929597	
2416000000.00001	-16.8760902664074	120.319002217779	-51.864184062092	149.345660149826	-76.2608903274784	-132.532359639329	-25.8274705823795	63.60876442294	
2416333333.33334	-16.771787345385	119.138029230872	-51.0319572383695	139.201479584078	-78.615228592937	-13.5670493319153	-25.6633202781944	62.0597050660715	
2416666666.66667	-16.6783802543738	117.99469719987	-51.8568938540166	125.775330217399	-79.2331303551907	68.1780322897463	-25.5310452383385	59.7915078048199	
2417000000.00001	-16.5715530638493	116.885971138032	-51.3446130408381	117.746927571478	-76.7541433391114	-4.50526266658365	-25.4010708997625	57.8355458465255	
2417333333.33334	-16.4710854466567	115.922864217089	-51.1670847376589	111.940259149485	-91.2903571703521	22.5658255485275	-25.3038028070669	55.7189912215752	
2417666666.66668	-16.3723763498394	114.849100690638	-51.7131002807419	97.5881998902113	-78.5648140606923	79.5187710070391	-25.177380898905	53.4494820705627	
2418000000.00001	-16.2663204986357	113.819615188853	-51.3924385575898	88.5314344041392	-82.1168354645077	-56.1093425406017	-25.0859183872151	51.1364848936011	
2418333333.33334	-16.155106750657	112.838403697244	-52.0635398480976	80.202603355571	-77.9777265366595	-28.1670382929971	-24.9730109559354	48.7778896207878	
2418666666.66668	-16.0657745829264	111.827273620816	-51.3352671526226	69.7055301070887	-79.8057975926778	6.65083498135173	-24.8687355844506	46.6033325467236	
2419000000.00001	-15.9533858015884	110.991745117159	-52.5106404010221	59.1831993373818	-80.9783384795729	-121.326038339176	-24.7967794254654	44.0463198099127	
2419333333.33334	-15.8505175632719	110.085722322879	-52.0625712565806	52.690491570858	-81.5702147672864	-119.692518661156	-24.7066479019173	41.8061457830899	
2419666666.66668	-15.7522458621289	109.224497030093	-51.9762421579605	42.281767708672	-86.0552203551003	142.40848694026	-24.6697325471375	39.3842283738702	
2420000000.00001	-15.6655383382695	108.365302035304	-52.3426523221159	35.3184174700373	-74.1991602396937	61.1820296770801	-24.5828752181175	37.0985067245641	
2420333333.33334	-15.5500933166041	107.494678320829	-53.0773141733461	24.3235172085417	-85.074658977046	114.09762603299	-24.5073333270278	34.9290000388775	
2420666666.66668	-15.4586046653468	106.700436518349	-52.9487435465384	10.6304918686967	-76.3941946136399	-73.9420427523249	-24.4581776982282	32.4517557792752	
2421000000.00001	-15.3668566999275	105.937911206729	-52.8992264960994	3.94187918565991	-73.344521581143	95.2418335211658	-24.3850192922638	30.1537113654325	
2421333333.33334	-15.2597172919739	105.190658293768	-53.01189443678	-3.39524837329058	-80.9094020679599	35.5799151626842	-24.2945014799389	27.9036753909972	
2421666666.66668	-15.1819808529784	104.438159507049	-52.4610709808611	-11.1546362925265	-82.8562462811693	-126.360666062841	-24.2409391541697	25.6168387358123	
2422000000.00001	-15.0843472907979	103.727245765818	-52.9828797139121	-25.7875371600762	-79.1795711100179	-49.160924779342	-24.1792173159327	23.6006766327754	
2422333333.33334	-14.9927713819345	103.027354686316	-53.9360472608723	-30.202733985237	-87.0374436831324	-26.9823541791242	-24.0841386678681	21.6021453246626	
2422666666.66668	-14.9004690873901	102.352196974665	-54.282392575599	-38.587529652403	-71.0035886007849	-33.9547236206714	-24.0284374396839	19.5504328880634	
2423000000.00001	-14.8214991574426	101.673272159108	-54.5222613701484	-47.8749033911143	-81.1963545142244	-10.7258012297719	-23.9216376734542	17.5608566668409	
2423333333.33334	-14.7439871103822	101.102294537276	-54.8334565082623	-56.0506093887145	-80.6599735906178	-72.0932833749118	-23.8404675897997	15.622937720514	
2423666666.66668	-14.6584007171571	100.44210125349	-55.7358008777167	-63.8809894343211	-85.0439978347843	-10.6473062480657	-23.7547741491623	13.9728811167195	
2424000000.00001	-14.5782773439874	99.9384826071822	-55.6696821088878	-68.3311491893604	-81.1142335068291	-46.8650179583302	-23.6709319897258	12.123818467283	
2424333333.33334	-14.5013906621428	99.2947237543079	-56.6121608557803	-75.8206641297277	-76.6075262614247	-85.22310513874	-23.5942065121653	10.4152696618482	
2424666666.66668	-14.4328875104493	98.6859675080952	-56.3755265417504	-81.9165005742793	-79.392112159354	-122.470540271745	-23.4830633536101	8.92746450422513	
2425000000.00001	-14.3620856105941	98.2194585313623	-55.8747247868554	-91.6564366966034	-80.9471996832677	-64.7538479176934	-23.4126014143191	7.24947671173192	
2425333333.33335	-14.2887813556863	97.6934155555334	-57.0573010038598	-104.355749144389	-72.8269812338859	-88.4746140651607	-23.2970141387404	5.92265233134072	
2425666666.66668	-14.2355952768077	97.1657470626048	-57.3593627151615	-107.384163437882	-85.9541114596948	29.4547643682512	-23.2115623398959	4.48195110474386	
2426000000.00001	-14.165348432995	96.6737241736412	-57.6479044768445	-112.91168033517	-77.5215636657828	-166.584982734654	-23.1267135115421	3.14282336938876	
2426333333.33335	-14.1175986725968	96.1866342526264	-57.9717650189891	-116.10499823674	-76.9515144525166	145.559094881828	-23.0363757545677	2.02679001774934	
2426666666.66668	-14.058969985346	95.8011996286845	-58.4756804751644	-126.955248636836	-78.2664730474433	-25.3314937654328	-22.9696754395161	0.963503329320701	
2427000000.00001	-13.9940861089679	95.3315854508727	-58.1929097018884	-130.361192557066	-77.3688544963327	-12.6903131300135	-22.8550403137124	-0.0972301132035847	
2427333333.33335	-13.9410615194577	94.9551875711213	-58.2513330300752	-138.902918483334	-80.3775624851789	-118.302924449883	-22.779150173296	-0.962624144246841	
2427666666.66668	-13.8967269241811	94.541721210745	-57.3611289069251	-141.369713328449	-80.6790139317662	137.702066303228	-22.6548888064141	-1.82062502363293	
2428000000.00001	-13.8422087894442	94.087131669657	-57.2706772102249	-150.607581038812	-88.6591822232054	-122.826505341348	-22.5663450139874	-2.68275070743799	
2428333333.33335	-13.79510528589	93.7287565571586	-58.582337464508	-160.526543993886	-74.8987197944374	88.788827300323	-22.4817389715761	-3.2831754644149	
2428666666.66668	-13.7459682790318	93.3531049661154	-57.9145527544887	-166.644049400576	-71.1199855378278	54.4459826324054	-22.3905619473459	-3.98768434610599	
2429000000.00001	-13.7186130697855	93.0513543389876	-58.0919675533917	-173.925176358289	-93.2505458004105	-35.6564499054362	-22.2923522355684	-4.55791013227325	
2429333333.33335	-13.6663797731227	92.6735412575232	-59.1559903242514	-175.581799367804	-84.8228583574004	77.429771523282	-22.1768984827775	-5.04865090765741	
2429666666.66668	-13.6238062518273	92.2942865528876	-58.365668997283	169.979162428605	-79.0978491632333	150.527141788011	-22.0734900575485	-5.60654352529842	
2430000000.00001	-13.5863704630132	92.0446970259588	-58.0571157272199	161.629831988093	-82.0320919819367	66.5637490059854	-21.9735886939824	-5.77733956874501	
2430333333.33335	-13.5653536678057	91.7252310094431	-57.2171417334216	158.517894164228	-79.8944774409537	16.6919693237174	-21.8737742953144	-6.18153942867554	
2430666666.66668	-13.5278267904992	91.4683470409059	-57.0354869340445	150.930365591131	-79.0451187425045	73.382384926481	-21.7822420856739	-6.42523334687599	
2431000000.00001	-13.4940257744579	91.1335019244417	-57.6959242816738	144.720840165123	-87.2786678522843	-173.208511914242	-21.6506141655765	-6.60713694041169	
2431333333.33335	-13.4633497290757	90.8070342670098	-57.8469104849748	135.440617763495	-79.5192371297861	146.754549659751	-21.5340589957459	-6.79758197549768	
2431666666.66668	-13.432693101189	90.5501583377709	-57.8175490136393	126.545789271581	-89.4023957723309	179.77545696237	-21.4278969664577	-6.89673317512252	
2432000000.00002	-13.4055255049711	90.2922818893192	-57.0526174342579	114.410190175508	-76.4010909431301	-48.0448950260319	-21.3236013737272	-6.94488759276704	
2432333333.33335	-13.3872246243271	89.9805869855971	-57.1819354573087	109.365936649509	-78.2597783000729	39.5174504702514	-21.1954631835094	-7.06423093709446	
2432666666.66668	-13.3679484999084	89.7266319746418	-57.5546791210025	101.870750538534	-77.682744751166	47.8937291943022	-21.0787524065348	-7.14471082169309	
2433000000.00002	-13.3299098268998	89.4172173459862	-57.0391193865526	97.2503523429792	-80.4378904861862	56.0578636137697	-20.9514946355419	-7.17658167550513	
2433333333.33335	-13.3219444251753	89.1898028226695	-57.0077026771013	84.8497477510189	-79.4978982237629	-34.7043633937006	-20.8261918987431	-7.0223712679286	
2433666666.66668	-13.301820524993	88.9029132606082	-58.0211055908933	81.508069093965	-87.4992844488281	-22.3307139584078	-20.6876030403367	-7.15052552206757	
2434000000.00002	-13.2860490045581	88.6557745840089	-57.0878572366639	71.8987851628311	-84.9919484336572	50.6400189586436	-20.5801810109631	-7.13488888954443	
2434333333.33335	-13.2622442062842	88.3946671970735	-57.1674862200427	56.9735101576639	-82.9575981977946	53.2747388589004	-20.4306065978925	-7.04119134282099	
2434666666.66668	-13.2486302980956	88.207269328936	-56.8642054862996	54.9019216814883	-77.5479884065709	41.9034860272432	-20.3129762987142	-7.04719224394211	
2435000000.00002	-13.2382980991724	87.9573915873808	-56.6717331537707	49.9035337226368	-82.6651772800409	-87.2677596276208	-20.1572644865898	-7.10865462372121	
2435333333.33335	-13.2297475494935	87.6490571706703	-57.3192607996696	41.2232921197787	-84.3540019619367	-7.91323215191531	-20.0523893886996	-7.02111754189271	
2435666666.66668	-13.2114842381211	87.3753276703306	-58.1680803379437	35.1267442913868	-83.669612900848	-59.5575015332515	-19.9053894505444	-7.10759496386758	
2436000000.00002	-13.2127616303743	87.1395054676305	-57.4638295733934	24.9395735962416	-88.8034739727792	122.757827791809	-19.7927857828952	-7.20836838922899	
2436333333.33335	-13.2050189097933	86.8865118538664	-56.9279123400626	12.4492103291338	-76.3592620530826	48.4878564433743	-19.6698554211152	-7.26020927238282	
2436666666.66668	-13.209540338945	86.6176416072185	-57.0849914206399	2.97484824767522	-72.6320210274778	-88.3733796016713	-19.5577728715521	-7.39958073503729	
2437000000.00002	-13.1903247678316	86.3006865467894	-57.0183772843545	-0.0764558192599559	-73.3156662583746	25.0924592403155	-19.4414793744336	-7.50091691193756	
2437333333.33335	-13.1883356777693	86.046375147198	-57.9846674526156	-12.4881331787374	-84.21286976614	116.974449328912	-19.3394482685736	-7.60303773788461	
2437666666.66668	-13.1894403291659	85.6944585544945	-58.0824333002128	-16.3552863295072	-82.913427049217	7.63321111231632	-19.2398231250964	-7.70164008353801	
2438000000.00002	-13.1960469389478	85.4514363552972	-58.7816334467887	-25.2011909369243	-81.5051250104016	72.2967395369742	-19.1332735980492	-7.92814364364277	
2438333333.33335	-13.1821247956358	85.1153894305072	-57.8856109206622	-27.6483922896168	-81.9731942174421	150.187183363896	-19.0437699260089	-7.8743776346048	
2438666666.66669	-13.1909048463296	84.8242725527511	-59.1375720495392	-42.6089660753844	-81.1329935112725	163.777781890894	-18.9712081590205	-7.9969392882578	
2439000000.00002	-13.1921594976285	84.5840915887515	-58.2922650020643	-53.0118886193896	-78.6204075223354	-22.3500058222758	-18.8998076773502	-8.29738623010427	
2439333333.33335	-13.2148049948777	84.2242030757201	-58.6396584170761	-60.0314180937093	-85.8869637835574	-44.5969561260791	-18.8280033755709	-8.50594538336387	
2439666666.66669	-13.2151234185535	83.9310720179137	-59.1272500300129	-66.5761859227208	-76.5010712944656	-32.7257611702863	-18.7499999830652	-8.6133800039284	
2440000000.00002	-13.2068330680471	83.6262962249516	-59.0233725621933	-69.3909510751811	-79.934247767494	-138.697647052307	-18.7305853713925	-8.70024055737951	
2440333333.33335	-13.2298680836227	83.3596178049857	-58.9209785975428	-76.4931547168009	-76.0366785977117	19.1817545519944	-18.6379013299568	-8.82142345040568	
2440666666.66669	-13.2547286239931	83.0150257009567	-59.4370691352017	-83.1315822224438	-77.953923880122	-72.9270465969256	-18.60300408207	-9.01742594405863	
2441000000.00002	-13.2688350720972	82.6773055831072	-59.1905099569754	-88.7908948259826	-78.4004424013148	-85.1919452007737	-18.5816632078636	-9.27205910784234	
2441333333.33335	-13.2566739496622	82.2368277749142	-59.1318616172528	-99.4657065074201	-81.3147795041865	-92.950447310682	-18.560321835112	-9.23831560890218	
2441666666.66669	-13.3011333435976	81.9804096320166	-59.2848743532179	-98.557145577753	-84.3966451932612	-165.000597335185	-18.5192095507668	-9.31798818694327	
2442000000.00002	-13.3035859399546	81.6608320826666	-57.9258651352779	-110.345663897512	-79.5448845714708	-145.251950935021	-18.5218306067259	-9.62553240884864	
2442333333.33335	-13.329215962823	81.2474018576545	-58.6388139691649	-125.771281804957	-86.5675809292178	-104.351914053307	-18.5107609712128	-9.78521949511704	
2442666666.66669	-13.3290773784287	80.8987234102939	-59.6102654776818	-123.313386739738	-88.1723611816766	71.8339165759502	-18.5267983448215	-9.58361943332698	
2443000000.00002	-13.3721562021839	80.5064126804773	-58.3409896159529	-134.668020206034	-81.9250500039632	144.419122419371	-18.5055415296549	-9.68146596797889	
2443333333.33335	-13.3883148359536	80.2713686638857	-58.131714966363	-138.154124760223	-74.6649269241323	106.087994608476	-18.5493757040362	-9.80179739658266	
2443666666.66669	-13.4027814049297	79.8892306387942	-57.6890753235532	-154.352290264427	-78.2030220200582	-44.842851721013	-18.5564972093682	-9.77740050408934	
2444000000.00002	-13.4435722238213	79.514509979175	-59.4737227048776	-154.8402535179	-76.711834947977	176.800164551153	-18.593721285004	-9.88658638106169	
2444333333.33335	-13.4642088206461	79.0617140454088	-58.7001668255798	-161.159987314851	-89.0912465750664	55.0691298856444	-18.6275902229999	-9.81342364316623	
2444666666.66669	-13.4946664253238	78.6729347685583	-57.315769161539	-167.819480666242	-83.4935084189397	-124.385085527877	-18.6870163151406	-9.69304346159028	
2445000000.00002	-13.5287550243465	78.3128291741236	-57.5051260974768	174.086219620527	-82.9473333174564	154.805520180936	-18.7416704212335	-9.6935890163206	
2445333333.33335	-13.5707216462443	77.7455928401417	-58.517724109962	-179.712966763536	-83.4016959066248	155.193983043274	-18.8075994879274	-9.53078619170358	
2445666666.66669	-13.6042712810773	77.4412465069216	-58.9905239599328	160.317714229416	-76.7089816117016	92.8075790781991	-18.8990195068978	-9.46143247548036	
2446000000.00002	-13.6339190297249	76.9272182292186	-58.0846720484987	152.280232780535	-73.4455674208465	-17.0758810397546	-18.9621257943585	-9.23147411315584	
2446333333.33336	-13.6671270545423	76.6800989791529	-57.5722233890401	143.14923065396	-97.9229246817403	96.2355125493242	-19.041441667953	-9.08488775023701	
2446666666.66669	-13.6936651439717	76.0525950023677	-57.3017113021667	133.272726358124	-75.7657061229672	61.9266826665584	-19.1501593284431	-8.71265283928572	
2447000000.00002	-13.7239325544499	75.6302030643586	-58.5374392629358	132.979478348259	-74.4758555089629	12.172310128594	-19.2521107242524	-8.33695599003147	
2447333333.33336	-13.772283243105	75.2019445216555	-57.1412930601479	116.270229378964	-78.8575146427077	105.534748716022	-19.3614457247495	-8.02227138877329	
2447666666.66669	-13.8088159665984	74.7911757981491	-58.3609524998408	117.809245994972	-82.1041192853211	162.577273021708	-19.4785106903421	-7.48428565041698	
2448000000.00002	-13.8431888950544	74.3469420650459	-57.9494910037313	107.871222737288	-80.576980857809	-114.833364805992	-19.5953165355233	-7.00798642196386	
2448333333.33336	-13.8790960575364	73.8356936877711	-57.9044266066147	96.8765654388325	-91.770710176281	81.9458532328787	-19.7192876713794	-6.36925475842852	
2448666666.66669	-13.895354316864	73.3865262073735	-58.2737177600409	86.8918683464025	-83.7892111530267	5.83056038089288	-19.8421913198481	-5.67546982866886	
2449000000.00002	-13.941780202834	72.8830478613598	-59.8528630424971	88.1895498288286	-89.6235066913567	146.601223392542	-19.9810220668582	-4.71565270343455	
2449333333.33336	-13.9639037237663	72.317679258757	-58.3920111499317	76.2093782115933	-86.0119178253837	131.757104008354	-20.0835557016915	-4.0130446847646	
2449666666.66669	-13.9970196569543	71.8078439231484	-60.4083944643989	61.5684675431393	-81.7789758269585	51.042524461065	-20.2321736039878	-2.99851191603524	
2450000000.00002	-14.0199725596055	71.3194098619066	-59.5066261748976	56.5044010538694	-79.3443059131541	8.96167484469711	-20.348580487507	-1.77029616836345	
2450333333.33336	-14.0900030226555	70.7460591961996	-59.9471374617741	54.7886125181925	-80.5470455742869	34.4576319325426	-20.4417020025435	-0.779738407827254	
2450666666.66669	-14.099749452921	70.1286343547202	-58.821748540949	57.9691230070556	-98.33697054228	76.1760930114094	-20.5923261999887	0.476746233910451	
2451000000.00002	-14.1350307642977	69.6558329717369	-59.7808391268275	35.9893404289107	-82.5463200765344	93.7747180140167	-20.6900195557099	1.96758615102308	
2451333333.33336	-14.1652601628875	69.0053116937298	-60.4772359077013	33.2795615190722	-82.3083591867203	98.678107164382	-20.7785986525001	3.25326974742845	
2451666666.66669	-14.1952645707337	68.5881314927305	-59.7683690528664	27.9589053122428	-95.8889612956936	171.243850140586	-20.8955788030008	4.74563831777423	
2452000000.00002	-14.2184117219212	67.9193235837568	-59.8320130414964	22.4487150974889	-91.406062482021	-144.101435225462	-20.9495103773074	6.15780384021306	
2452333333.33336	-14.2307582995393	67.3605378193102	-59.6960846976759	12.2354209393445	-82.9885952020249	141.498308620717	-20.995480234452	7.72810590839599	
2452666666.66669	-14.2738637801313	66.752253458742	-58.5454349377211	1.92533134385104	-78.3984724903511	-98.067578729754	-21.0567515711432	9.14233900788429	
2453000000.00003	-14.2987099219566	66.2120415673304	-58.3211527592318	0.255760658828216	-78.9963630050702	171.672017533212	-21.1033974737204	10.5655869451173	
2453333333.33336	-14.2999012105929	65.6498028296816	-58.6002577186887	-7.32689811751774	-80.0267301096239	-121.182052752492	-21.0947237695484	12.2035668476504	
2453666666.66669	-14.3247019358866	64.9009713081456	-57.2746797321049	-15.8532907582704	-85.025846348334	154.347361469911	-21.1182910505866	13.8027554310318	
2454000000.00003	-14.338141058176	64.3184201452885	-58.5758904981615	-31.0900245274312	-79.8595060692248	-123.315611178811	-21.1147943021831	15.3512647189587	
2454333333.33336	-14.3403713578055	63.671406020165	-57.8861784093258	-34.8038380207705	-87.0863581873964	19.251845378804	-21.0908110230436	17.0072558205514	
2454666666.66669	-14.3503011909962	63.1687298192839	-57.278234511121	-48.103894896443	-80.7185057319388	23.2818789152167	-21.0471645341965	18.489391873506	
2455000000.00003	-14.3644367773328	62.5234372316805	-57.2623181571582	-47.9721758314716	-81.7660220738533	32.0536988831122	-21.0050708306915	19.75075750863	
2455333333.33336	-14.3599250230886	61.9433927025291	-57.3237903956119	-70.6053521689184	-77.6956794677406	-145.876569662664	-20.9534896112749	21.0766780165594	
2455666666.66669	-14.3638138534409	61.2029486848464	-57.269541097596	-73.6046731917393	-81.8357357091894	125.068492570607	-20.9085553616516	22.3933754389186	
2456000000.00003	-14.3559763832692	60.6246241078951	-57.1524645517306	-81.0743404073288	-80.6178881301254	157.575183885849	-20.8350480957834	23.6645668287015	
2456333333.33336	-14.356298217408	59.9312806261305	-57.5450786665353	-87.3278937882075	-87.6880938034114	-147.929071581462	-20.781556939439	24.7738934898403	
2456666666.66669	-14.3493718882038	59.3832730971638	-58.6046465988844	-99.665790208591	-84.7670139654707	163.252017812908	-20.6775628359386	25.7928716871215	
2457000000.00003	-14.3330996877347	58.7074605142024	-57.3021707355919	-109.490212414642	-75.2227045212824	-135.203325354645	-20.5753009388626	26.5653140155014	
2457333333.33336	-14.3202785340762	58.1960262957388	-57.3644699504118	-111.282922242784	-77.1948039214316	-112.145228760071	-20.5154920661511	27.6056497079692	
2457666666.66669	-14.2962424439976	57.3463802355179	-57.6754240488834	-124.091932851125	-82.8916169254794	-110.753158860048	-20.4305433133452	28.4443029973181	
2458000000.00003	-14.2714480234637	56.6802399879077	-57.3994145484211	-132.275779894685	-85.8135960947856	-160.990968967608	-20.3563191576793	29.0447235683091	
2458333333.33336	-14.2633530416834	56.1507710294759	-57.3572266952408	-137.904180300799	-81.395417914138	112.561757030766	-20.2614523927511	29.7927158645705	
2458666666.66669	-14.2268196947844	55.5042902852971	-57.4408931789549	-141.76615561879	-75.5661198109948	-129.729179646224	-20.1988655093914	30.4314801778246	
2459000000.00003	-14.2137135671179	54.8464369445202	-57.7302690904521	-148.311927460404	-82.3634446452614	29.1272031804372	-20.1699530887312	30.8242185503465	
2459333333.33336	-14.1770126630753	54.1824396103279	-55.8739206430573	-154.067973542772	-82.6728608106977	-131.138756504369	-20.0900217452683	31.45132043348	
2459666666.6667	-14.1498403560615	53.5472648643624	-56.5082175976696	-163.006236538909	-89.1203549536914	36.7486398135509	-20.0434725047828	31.9366490902969	
2460000000.00003	-14.116486038509	53.0138908284447	-55.9996760961725	-170.941429578874	-83.7862434770387	53.1280437421359	-19.9581197309239	32.0609261870733	
2460333333.33336	-14.072998918893	52.2724761007708	-56.2849845070784	177.005368086652	-92.9618233415465	-154.485638518437	-19.925696916224	32.6036674908694	
2460666666.6667	-14.0359360555285	51.6424847848285	-55.7510553681049	170.900766686327	-73.656656613523	-93.4583217071582	-19.8580706325457	32.843302119287	
2461000000.00003	-14.0064465202386	51.0230253164648	-55.7249313367883	161.912815533426	-84.6060174225026	-73.4835306341932	-19.8166984591746	33.1696607764642	
2461333333.33336	-13.9477635551944	50.4524552622001	-55.4401010873353	151.406881573534	-77.4366000623832	-30.6493320144826	-19.765424671537	33.3199054886362	
2461666666.6667	-13.9156930938416	49.7076059336698	-55.2655483732351	139.577275180309	-84.8456816791086	-103.976326159913	-19.7369731645739	33.6167438414945	
2462000000.00003	-13.8728026052729	49.186084624357	-56.0104233317007	133.259961174816	-80.2437301249847	-160.751731909378	-19.7079260553196	33.6466024288045	
2462333333.33336	-13.8323282140873	48.6262668757419	-55.4698534725081	122.924213064882	-74.2783002129693	-165.999217377253	-19.669762326304	33.8656932509834	
2462666666.6667	-13.7768538692613	47.9826468788512	-55.1050222448484	124.168074602892	-79.2344086443385	32.8153783107041	-19.6469590458099	33.981684115165	
2463000000.00003	-13.725541086885	47.3844739034325	-55.2012690966068	105.863399303868	-85.3131417756753	95.4643754305367	-19.6273099245799	33.9462850042972	
2463333333.33336	-13.6593372875662	46.8290904179568	-55.547754339985	95.712342957232	-82.7350765024456	47.3946769884567	-19.6150161676547	34.023840687766	
2463666666.6667	-13.6120972611464	46.1978052306917	-55.4052123584236	86.6731429838474	-81.9410603784164	93.0410380140875	-19.5860692938933	33.9692327913735	
2464000000.00003	-13.5563862243953	45.7453848880941	-55.3315357921054	77.5567620073066	-85.1563260718574	31.0971692035325	-19.5786856868312	33.8955440005532	
2464333333.33336	-13.5172210559368	45.1537551401423	-55.3573174985925	71.5405342346912	-80.0867268062051	-155.086308818904	-19.564622109853	33.7508815202282	
2464666666.6667	-13.4560117832807	44.5918803429661	-55.702673172674	61.5886594805715	-85.2591693338826	42.2639855602009	-19.5782690034482	33.5927911000281	
2465000000.00003	-13.3826849290788	44.018947059132	-54.8204104219349	52.2995487540803	-85.1598465996147	-132.333911188697	-19.558341514068	33.4488421747268	
2465333333.33336	-13.331475885281	43.5782058101421	-55.118421279595	41.8269032985046	-89.1573069502727	101.88005059182	-19.5609798749174	33.221193552115	
2465666666.6667	-13.267344861222	43.0295450714477	-54.7261575721738	32.1057140673791	-81.01266128096	-51.7038015777605	-19.5731025311362	32.985587266061	
2466000000.00003	-13.2216322195489	42.5249203972039	-55.5478101770595	17.4327095996324	-73.5900648174734	136.959570833561	-19.5861268551491	32.615817735776	
2466333333.33336	-13.1535556670726	42.0384814743828	-55.173121006973	13.5866104737714	-83.3913650061653	41.6837598740519	-19.5832147838104	32.3652449587765	
2466666666.6667	-13.0881005733009	41.507767704801	-55.0031077759728	3.1924295848366	-82.3265155391357	35.624284221682	-19.6191206667069	31.8941668609983	
2467000000.00003	-13.0347474355932	40.9984407328738	-54.8745313239963	-8.1103797266028	-85.3162601530607	-89.100308270596	-19.6518779859407	31.3862956643569	
2467333333.33337	-12.9686045094677	40.5493254373493	-54.6004336346042	-17.6428154361273	-83.7282230078269	-67.1099394807302	-19.6748984305136	30.8515712287743	
2467666666.6667	-12.9018420936182	40.1302961106652	-55.2404960411904	-26.5520762647325	-77.4422534278654	179.457754835084	-19.7315155850047	30.4613513071406	
2468000000.00003	-12.8441140452256	39.6928176391424	-54.7667960005465	-36.0715044971906	-76.6911212101807	-81.3437964018993	-19.7746558645416	29.9346674397559	
2468333333.33337	-12.7852602759875	39.31863805743	-54.8839281281593	-48.1864853569914	-80.4343798646665	-49.9778267317973	-19.8367972264551	29.3887782860531	
2468666666.6667	-12.7234957687737	38.8572814944546	-54.9912218349984	-56.2519287408171	-92.7579731710474	-31.9194885391045	-19.9005350762064	28.7269724329272	
2469000000.00003	-12.6504477354327	38.4952845353548	-54.8967581615161	-64.6470066799197	-76.5198935245689	-71.4392978561916	-19.9418128871794	28.1372617353797	
2469333333.33337	-12.5918044867509	38.062069819714	-54.5106376199814	-80.7179630121703	-77.8947700146011	-115.637515816086	-19.9832255978975	27.5378037529852	
2469666666.6667	-12.5262383288665	37.6309996734121	-55.7148362637111	-88.2697917370099	-97.1847451770635	-81.7970661157433	-20.0742702530052	26.9166644352229	
2470000000.00003	-12.463194316176	37.3216179958709	-55.0031293511536	-101.297851689719	-74.6440590685386	-139.590642365735	-20.1344541312925	26.0342622528882	
2470333333.33337	-12.3999457359536	36.9021998625431	-55.6734748597969	-107.469292084206	-77.4877919605637	-148.784430122347	-20.2483358443025	25.4564995881875	
2470666666.6667	-12.335417760101	36.5390511325488	-55.3004549076749	-112.569108531053	-77.0189081472337	-90.1912874325887	-20.2951118169282	24.7228321279865	
2471000000.00003	-12.2792502152641	36.1801379662348	-55.1487930087772	-127.387797096125	-73.4881713521213	-172.809863470223	-20.3900312878611	24.1214813988503	
2471333333.33337	-12.2139140020654	35.845943632786	-55.6941992317268	-137.897359176868	-81.6479351224434	-93.3151579757811	-20.4832953778663	23.3085918927629	
2471666666.6667	-12.1547014735924	35.543807706962	-56.5816717199616	-145.524853428553	-73.961206959598	-153.598593519162	-20.5649735207814	22.581408206159	
2472000000.00003	-12.0945828037926	35.2237216235307	-55.9926813287699	-158.136846741879	-74.3612990325394	-46.1807779234509	-20.6565031346465	21.9227350998517	
2472333333.33337	-12.0340266276499	34.8746074325341	-56.2937133478422	-168.594032903658	-104.207036257992	-49.2630065715072	-20.7591409080476	21.0653392480993	
2472666666.6667	-11.974530156424	34.5624187856045	-56.1817088723392	-178.905105318683	-83.3662739443798	90.4594952665617	-20.8385020367522	20.3674445870478	
2473000000.00003	-11.9159830326655	34.2961938433232	-56.4971533052754	169.322654895126	-76.1600165238741	-55.8721907003286	-20.929958919768	19.596775030085	
2473333333.33337	-11.8513385510118	33.9673211123076	-56.7758978964151	156.261515199092	-80.6881286652259	-64.7505647586644	-21.0085485053256	18.7814656549925	
2473666666.6667	-11.7977527866612	33.6405054301135	-56.9864952064116	154.099743375225	-81.3784367101748	177.410462667461	-21.0760096999019	18.029972248653	
2474000000.00004	-11.7392527817039	33.3823307546813	-57.370847001839	142.411221682628	-90.8377483044443	93.5185622186652	-21.1399732863164	17.2679034009402	
2474333333.33337	-11.6871926198281	33.0939943221897	-58.7738977022464	131.652936559971	-81.6241063726032	169.420470022786	-21.2321182217078	16.482276608513	
2474666666.6667	-11.6332799357822	32.8535889414527	-58.4563251224195	119.847441714854	-85.1991028889525	-136.783916026465	-21.2889989324546	15.6093275903377	
2475000000.00004	-11.5736240678008	32.5233577038114	-57.8859974196785	110.127569624671	-89.9532595274249	-20.2016742937124	-21.3392501095767	14.8652053971831	
2475333333.33337	-11.5234242096452	32.2002462851267	-58.7010251815623	97.7930287424444	-82.5440520017911	131.022529515498	-21.3838275325247	13.8534057472606	
2475666666.6667	-11.4663463648808	32.0230201095287	-58.2275365621117	92.106659296008	-75.6387166690742	-143.359840461314	-21.4168719960314	13.2255396673714	
2476000000.00004	-11.4184051481216	31.7006543392125	-59.5238962578962	84.4388558946495	-78.0474847259783	-25.2892382989671	-21.4511107550502	12.0268953311984	
2476333333.33337	-11.3693777470171	31.4671481988324	-59.1476892345693	74.5572342222862	-79.1068992455036	-62.9764804278545	-21.4923411527634	11.2170807302053	
2476666666.6667	-11.3154589295387	31.1071502204326	-60.9300062615809	63.5596019488631	-94.6689485974686	-160.755750801007	-21.5025751267934	10.0912797504254	
2477000000.00004	-11.2753054479174	30.8839647524807	-60.0579225169938	54.6764185711521	-78.4322489846692	-65.4818732522797	-21.5163953790443	9.14912509410412	
2477333333.33337	-11.2353455452735	30.6007298963631	-61.3800951021588	42.6662434402477	-83.1295705885295	0.53014857124917	-21.5156950561748	8.05223641112801	
2477666666.6667	-11.1853412498731	30.3434158018424	-61.4207450160389	33.5274147700228	-83.0569941782012	-110.211578905186	-21.5253939187888	7.08779557307154	
2478000000.00004	-11.1381818289293	30.0777254086387	-62.8776827964272	24.1039048581608	-81.2500297812136	-172.527974110226	-21.5131150336707	5.91750480169165	
2478333333.33337	-11.0964865037929	29.8103628182105	-62.6025835090023	7.81250305179021	-77.2992119620031	-29.3561833423782	-21.4742276746424	4.73295833168707	
2478666666.6667	-11.0597299700424	29.4821386250301	-61.6963825113336	1.67056997976504	-97.354598787588	139.076424484553	-21.4795441001144	3.57334159714405	
2479000000.00004	-11.023204239401	29.2169950958115	-61.3811031710823	-2.40581402870215	-92.0244655167466	-22.7664045268915	-21.4536097819077	2.41150178935609	
2479333333.33337	-10.9794643965752	28.972598462792	-63.2066420514629	-7.99091595325655	-74.3687034654228	-35.6108114460492	-21.4257579732408	1.07448614064058	
2479666666.6667	-10.943623973687	28.6469490806338	-63.7862142189654	-23.7492750823685	-76.7028638127868	-72.6158708619106	-21.4057528215009	0.0236609672876609	
2480000000.00004	-10.9048706345818	28.4509912222598	-63.6968390260873	-38.5103575686989	-80.4274851919194	-136.022586325719	-21.3495247610713	-1.46567849372933	
2480333333.33337	-10.8717426129425	28.1157916878223	-63.6690971712496	-35.7709033416687	-85.1119434405214	-37.8076264561982	-21.3104393889733	-2.56696872892929	
2480666666.66671	-10.8447762570295	27.8704789021785	-63.5902956809181	-53.1069417819352	-85.8048379784216	149.85324282375	-21.2479213954374	-3.66339976661362	
2481000000.00004	-10.812650191599	27.5248366460242	-64.1380211297658	-54.2295831117505	-77.4109826680491	-162.919513012813	-21.2149964629892	-5.10593087856605	
2481333333.33337	-10.7773494341841	27.2530967131685	-64.8956854720072	-45.2395754125683	-85.7292131735655	-4.41551829695439	-21.1427398381131	-6.18301765522266	
2481666666.66671	-10.7501083135809	26.905723534597	-65.950647050502	-76.0787151795903	-82.2192071406777	-78.1810926133619	-21.0812719347605	-7.59384487730504	
2482000000.00004	-10.7289995152217	26.6261206005348	-68.5561899934727	-103.011244016378	-80.8121428699723	4.06451030577045	-21.0341491493521	-8.75310666359208	
2482333333.33337	-10.7011718395496	26.4180775976565	-64.4095117775203	-84.3569007244184	-76.0568607341865	-50.5091352304564	-20.9532174284331	-10.0663732712271	
2482666666.66671	-10.6723326276445	25.9537106874544	-66.5779893919544	-111.768432249152	-88.3669425550475	-173.940296951183	-20.8827343273263	-11.3771298220651	
2483000000.00004	-10.6639094922203	25.6154603219379	-66.7640582263849	-107.145897195684	-87.971905732347	50.7253241337067	-20.816475180989	-12.5650051724493	
2483333333.33337	-10.6355917656465	25.3891723075914	-66.8343544426219	-98.0575691905917	-90.673383499058	22.3798535281832	-20.7409586478955	-13.7803988976525	
2483666666.66671	-10.6190500310161	25.061004171656	-69.6110866680495	-116.681620619152	-81.5701662399639	-120.727218230964	-20.6754512890597	-14.9044236943304	
2484000000.00004	-10.6004358088661	24.7091478108606	-66.0645963673994	-116.107086873893	-74.4811778660467	-98.4420375420592	-20.5961595180619	-16.0977420170149	
2484333333.33337	-10.5824364540217	24.3199386021347	-69.6961274673958	-123.696334244506	-81.6062456617642	81.2414656253769	-20.5201952915107	-17.1519717019037	
2484666666.66671	-10.5698914407295	23.980261360692	-68.9252448621148	-126.110927176999	-77.9837510688251	-20.054002276458	-20.4577089815458	-18.3133200684153	
2485000000.00004	-10.564205859748	23.6372731106511	-66.2405413893128	-127.466865066841	-76.3874264566244	111.69546916582	-20.3835262843735	-19.3582729808047	
2485333333.33337	-10.5507125171012	23.2687511291885	-65.6726107731695	-149.930859438656	-82.1912906231853	133.288403108051	-20.3143715589735	-20.4579673731698	
2485666666.66671	-10.547353960501	22.9290744402463	-65.2789328214296	-158.082489532252	-80.8399904693766	-167.872662667623	-20.2325439152806	-21.4950498898747	
2486000000.00004	-10.5338721713878	22.5239905897024	-62.2584196090164	-166.09445628309	-80.9713987242465	-123.627880243002	-20.1672993482268	-22.4868221925708	
2486333333.33337	-10.5402913450952	22.1662556615779	-64.077606461914	-174.918992720983	-77.4878749306872	-2.48048695504949	-20.1036673067449	-23.293643783886	
2486666666.66671	-10.5298040417614	21.7693317387936	-64.8956403161701	175.421973298196	-77.4922997680075	44.6842762246563	-20.0487339317057	-24.4022145939951	
2487000000.00004	-10.537902160843	21.3473971236053	-64.4736424763032	171.146199440036	-79.4815946563582	126.606398240103	-19.9741568748178	-25.2178102141739	
2487333333.33337	-10.5414552585661	20.9426014332433	-62.5113158430014	143.499015971003	-79.9322796126905	-114.032151610571	-19.9225437683836	-26.1265802639819	
2487666666.66671	-10.5441192630495	20.5650431822229	-62.0299958055617	141.939461104597	-81.839632944387	-6.30823772738609	-19.8635128825123	-26.925672649243	
2488000000.00004	-10.556136137567	20.2378979645958	-60.6297627223093	124.820348978624	-86.2765856757837	-46.7882717175662	-19.8176949090193	-27.6439586625203	
2488333333.33338	-10.5647578632314	19.7695586288932	-61.6462892149812	101.704939841805	-84.7322735381355	-6.18053496380599	-19.7677181200516	-28.4055202272597	
2488666666.66671	-10.5639107922899	19.3455247489102	-61.1430651386615	110.865233458931	-85.7205274287181	41.046422550899	-19.7300478909138	-28.9984485832065	
2489000000.00004	-10.5794792421139	18.9512872655244	-61.6300261517763	99.0530390945244	-88.8710196348087	-56.0071007647779	-19.6807092484845	-29.6335569007881	
2489333333.33338	-10.5843593932661	18.4875424568691	-63.2529509078424	85.4938506783226	-82.193609930374	-127.400252213319	-19.6442854392247	-30.2127758671782	
2489666666.66671	-10.6060226408161	18.02280605261	-62.6797028400205	72.5781901843734	-77.0387722418926	166.903663812245	-19.6158738255988	-30.7224771949542	
2490000000.00004	-10.6185132954799	17.6131826212062	-60.8223390934293	54.8565613308998	-71.8038589916687	-35.5953477655186	-19.5597067371766	-31.1504161754092	
2490333333.33338	-10.6556354103407	17.1599371930101	-60.5742291374499	49.5925230171742	-81.5457834647725	57.45998815516	-19.5164688358709	-31.6576488158513	
2490666666.66671	-10.6674405322485	16.6637416402382	-62.9752912382373	41.6013424979658	-93.9457605448356	42.7675146538797	-19.4828071853481	-31.9827244259231	
2491000000.00004	-10.7007107612273	16.1549558844648	-60.6153291535875	32.4014107630762	-81.6975122262098	116.351471181756	-19.4495981686512	-32.3404633574406	
2491333333.33338	-10.7172262597063	15.7465872832217	-61.1807691733211	7.55200521130146	-75.6902080979122	-69.4357883957156	-19.412741046355	-32.6431903379113	
2491666666.66671	-10.7515662637582	15.3087500700589	-61.3611256759898	10.3710856072279	-83.7322032995692	-45.6772334655023	-19.3808927874577	-32.9306260608264	
2492000000.00004	-10.7804433001761	14.8324144692413	-60.8010678705025	-3.0784801975272	-83.5252800440809	4.85609281426963	-19.3438328942441	-33.066265594856	
2492333333.33338	-10.8146497783619	14.2829760182966	-61.1828053712551	-13.7078860465524	-80.1352773000353	-25.2444842632	-19.3187281372826	-33.3603168817191	
2492666666.66671	-10.828586516882	13.7806436103242	-61.1079815903979	-19.0404934247471	-79.0613308493211	30.358779093745	-19.2568545647232	-33.5514373958879	
2493000000.00004	-10.8734995799035	13.3096955761611	-60.6485638209453	-32.4064156760902	-79.0182457069671	-120.377814051942	-19.2413322479413	-33.7522684565366	
2493333333.33338	-10.9133542828991	12.7822932366591	-61.0604084706003	-51.236648638684	-82.9149684521819	-43.2790107982691	-19.2071321868347	-33.9621398656031	
2493666666.66671	-10.9382575087977	12.2881203537305	-59.3796386781732	-53.4384746951738	-82.6951978608338	64.0688590883454	-19.1555861436271	-34.0449455863375	
2494000000.00004	-10.9785776920373	11.7808499253716	-61.4716352460998	-65.4471764004889	-87.1483679428193	81.5251517980097	-19.1442527579107	-34.2878206219668	
2494333333.33338	-11.021951038654	11.2497908221403	-60.8878648615367	-83.1514357722481	-78.5337335980515	110.814712590983	-19.1171911944626	-34.4378612188907	
2494666666.66671	-11.0538224883275	10.6681331297975	-61.1245098508904	-94.3712713939946	-77.41324270639	-18.3204616316909	-19.0927779284576	-34.6524136615111	
2495000000.00005	-11.0948980572749	10.1739477774781	-61.6962444716109	-105.436584743834	-82.4818226592003	19.6446393056382	-19.080582144428	-34.629458261344	
2495333333.33338	-11.1416523405984	9.70625154045228	-61.9788397671351	-109.960599947446	-73.0517850124977	-10.8093863586931	-19.0919278139996	-34.7429760426899	
2495666666.66671	-11.1710411192974	9.07628554691843	-61.6064026411834	-112.390054005604	-78.3650868412428	-177.83505646063	-19.0702235576348	-34.8860338365782	
2496000000.00005	-11.215303632186	8.59051285655152	-60.1150930328216	-132.123283558762	-76.9159082908587	173.764304864559	-19.0809377816309	-34.8890068332339	
2496333333.33338	-11.2631784032278	8.00801928262913	-61.7408387292255	-150.157476856517	-92.9419856814745	73.2062495132504	-19.0715761173856	-34.8763363280771	
2496666666.66671	-11.3046770614324	7.39678010872159	-62.3612325429091	-164.651075462771	-76.0317893075272	-69.8746446282421	-19.0940914495111	-34.9315508941782	
2497000000.00005	-11.3540249882109	6.82922288509439	-62.0596133362741	-164.642879087455	-85.2334622445797	-4.21332367619622	-19.116773316831	-34.9203162760255	
2497333333.33338	-11.3957816120229	6.30807562746993	-62.091262055525	-176.637689501172	-85.3222288917504	-29.1738026147996	-19.1353243706404	-34.8722046598359	
2497666666.66671	-11.4330407170424	5.6959368828097	-63.8995463381821	168.762338864705	-97.4324966861915	124.649290532082	-19.1437927306816	-34.8740758150722	
2498000000.00005	-11.4942011321454	5.12224263211241	-61.6598324081476	149.561551065218	-76.5264302942184	-53.6933297421129	-19.1555112871122	-34.6426190821453	
2498333333.33338	-11.5244148156225	4.44560829565277	-61.8892672474606	151.150664841813	-88.8699505609167	-123.156894098378	-19.1973157566045	-34.5606223788126	
2498666666.66671	-11.5717949393661	3.8610503041346	-62.7831272030586	137.376206647531	-85.552071737766	80.5055323514044	-19.2176438951484	-34.4193997197314	
2499000000.00005	-11.6216047237281	3.30994912968343	-62.1165590789163	131.590255172309	-81.1181824965504	-70.2813200001138	-19.2912819316274	-34.220607339727	
2499333333.33338	-11.669178611672	2.61005182420611	-63.3189700072872	112.356661077312	-76.0096592235887	51.7004469138538	-19.3362286884793	-34.0342622690577	
2499666666.66671	-11.7093984366408	2.01468379250502	-64.7531903651337	103.042712584011	-81.4073398068042	55.5974990866434	-19.3918608853515	-33.7697902484466	
2500000000.00005	-11.7531845513397	1.3366912352645	-64.1267676240302	102.578369973086	-85.0757791350884	11.6766398404312	-19.4366764485951	-33.5796437667754	
2500333333.33338	-11.7934771841927	0.715859956370848	-64.0359182119804	95.28828520366	-79.1486126161485	42.5473905826896	-19.5191914997163	-33.2129270584139	
2500666666.66671	-11.8409979984091	0.0391985713358724	-63.769295888406	91.0078991167325	-77.3455932994222	58.9496449630108	-19.5783432375306	-32.987734987577	
2501000000.00005	-11.8844561760032	-0.608310416070048	-66.0281294673981	69.4481967656001	-79.2248125538286	60.201355076514	-19.6520523223537	-32.6043846574853	
2501333333.33338	-11.9142382402954	-1.30195213922491	-63.6372105342058	63.4795648629897	-75.7498400318296	104.061240409193	-19.7406168691734	-31.9510431827232	
2501666666.66672	-11.9560266251977	-1.92459689690596	-65.92416029806	64.9442725788384	-83.6649139506984	77.8496397866415	-19.804357972404	-31.6043201617957	
2502000000.00005	-11.9926743405911	-2.6328309555266	-65.5330811629958	40.1418831732392	-81.0110141748797	158.918233060992	-19.901192079847	-31.2217518416687	
2502333333.33338	-12.0351143846213	-3.373259772023	-66.2405830897927	27.0723691908075	-84.7379200420163	-32.1691574625252	-19.9926189322159	-30.5836278884775	
2502666666.66672	-12.0535673477447	-4.08161995209494	-67.4072001692964	35.6897275951428	-79.649059083488	101.304271221846	-20.0789087420785	-29.9827822398641	
2503000000.00005	-12.1013272368501	-4.80557860890508	-65.9351021478022	16.6926477018919	-75.4907249618956	63.5464307713619	-20.171149496263	-29.2319912349747	
2503333333.33338	-12.1334147554358	-5.50988728194778	-68.0432988990566	9.90211130069616	-79.6388530094614	-155.961429232794	-20.260378408064	-28.6368962549071	
2503666666.66672	-12.163610163034	-6.23853226965655	-68.2779450940044	28.3101779362858	-81.1480387525956	18.0428414683055	-20.3766610783379	-27.93479286697	
2504000000.00005	-12.194065681936	-7.00254051173457	-72.882013557297	-5.37973223069429	-78.7733348191911	152.569193155011	-20.460663302248	-27.1357631536306	
2504333333.33338	-12.2156196966681	-7.83116197984897	-70.5708896717757	-25.848275972386	-80.816882268981	35.49656133267	-20.604383143873	-26.2025011811894	
2504666666.66672	-12.2498527120205	-8.50330158555841	-71.7090807590631	4.11791389568007	-77.909618546797	61.6108333627644	-20.7114388699291	-25.2938804209587	
2505000000.00005	-12.2727744333877	-9.2727608866759	-75.9599585547827	-3.47007868628293	-78.6633309708084	103.738695203312	-20.8330021252946	-24.2876780302239	
2505333333.33338	-12.2966468183544	-10.1138527498648	-71.2005294223928	10.5296678141416	-78.3044188660615	33.7053999053096	-20.9418443692641	-23.2437589777127	
2505666666.66672	-12.321252109184	-10.8399954167258	-69.9740773526275	-12.81083518351	-83.6217483099773	16.4855406920573	-21.0425922922421	-22.064113074693	
2506000000.00005	-12.3419316170642	-11.7097937825176	-72.4492059402042	6.93350420815784	-83.5914576580034	87.6976525013623	-21.1578901605372	-20.737797198744	
2506333333.33338	-12.3618718973848	-12.4642205334687	-72.0360207634552	17.411303416654	-84.4393613058286	139.026138213156	-21.2799826758523	-19.3363341745633	
2506666666.66672	-12.3732746424891	-13.2758202354879	-74.1674188147361	-23.4026363050588	-87.1021663374131	118.044079117266	-21.3922547779418	-18.0694025574017	
2507000000.00005	-12.3983017536686	-14.053215883272	-67.4752959018689	-30.0183994165617	-80.9850817820443	-21.087876946473	-21.4828606238055	-16.5372243039024	
2507333333.33338	-12.406219430809	-14.8509020114089	-66.7008194677092	-37.0416876019104	-81.1475644686989	24.9705137280699	-21.5630650872279	-14.9391442824136	
2507666666.66672	-12.4179888633179	-15.6669516921029	-65.2059196042033	-37.9570541416009	-85.637202750833	-48.3146477416667	-21.6423481034324	-13.3284442513579	
2508000000.00005	-12.4335453641696	-16.5512186466976	-66.2565095930322	-39.7637899607989	-83.1190584626143	96.081394787145	-21.7043212935293	-11.6818193089323	
2508333333.33338	-12.4499905410652	-17.3357885470064	-66.101705465532	-57.5120521575762	-73.7317928951427	103.538292112668	-21.7848979748483	-9.94586807536164	
2508666666.66672	-12.4521685305951	-18.0943428429083	-64.5902343873531	-56.7178571104038	-76.0843973705448	127.577930666039	-21.8562485730316	-7.93545353457651	
2509000000.00005	-12.4576607349048	-18.9687747360188	-65.6937509012228	-76.2805312504091	-85.4886491446431	103.444680881189	-21.8415309677249	-6.03873041571048	
2509333333.33339	-12.4680927885637	-19.7629951712184	-63.7328723016414	-83.6149081525343	-81.8635395595697	64.171746450772	-21.8615439653063	-4.10214135682299	
2509666666.66672	-12.469467336122	-20.5412667366937	-65.1464385142393	-102.059793984642	-86.8899851003985	112.265176409773	-21.8602271465073	-2.33849155038969	
2510000000.00005	-12.4696386511102	-21.401432926782	-62.8042668862688	-103.111997453991	-88.2760445417419	32.6230452284385	-21.8621232082188	-0.519298762913261	
2510333333.33339	-12.4720773338385	-22.2221735072914	-63.3584470477223	-115.287337640756	-76.6279049545198	149.268780566458	-21.8436013697314	1.34875764275784	
2510666666.66672	-12.474208844891	-23.027865075832	-63.4713271077822	-120.035074178331	-74.5536108281746	42.3901836131676	-21.7753060080519	3.06869382928077	
2511000000.00005	-12.4760660839157	-23.8172966374298	-64.0273580274195	-135.791357644419	-75.9505680070154	45.1089289163091	-21.7053803903694	4.8635594576149	
2511333333.33339	-12.4703438089329	-24.5867688518942	-61.4167109886525	-158.190927272398	-85.309574337211	171.249090033275	-21.6679223583137	6.65650924617866	
2511666666.66672	-12.4684993593698	-25.3875333246334	-61.466579092088	-151.09114406091	-87.153564083249	177.106548819904	-21.5995187276819	8.27420935299061	
2512000000.00005	-12.4667721251693	-26.1541765981613	-61.4203359753451	-159.042976158954	-79.439830181615	-143.552284526392	-21.4932204348649	9.89808715330016	
2512333333.33339	-12.4498488864685	-27.0027057188006	-62.248499503974	-162.731480254344	-81.7385618545198	70.0045401761939	-21.3819457173601	11.4309834323101	
2512666666.66672	-12.4495418552037	-27.7139455256657	-61.8452309452319	-167.968444528346	-79.3439052850009	84.9755266121496	-21.2876933907329	12.9191241255235	
2513000000.00005	-12.4457734517133	-28.4823407596387	-61.282369565837	-179.399114767146	-88.0181590304889	-117.855668611695	-21.1592369397327	14.5703522514493	
2513333333.33339	-12.436297258807	-29.2332171656614	-60.8964802779634	174.625729056571	-86.6415345885258	91.8859342477796	-21.0580093410457	15.7970783017061	
2513666666.66672	-12.4344874021776	-29.9387725641722	-61.3544684602644	159.348726346864	-76.2090541756694	32.4866065774365	-20.9507345473425	17.1397690576635	
2514000000.00005	-12.4289931350817	-30.6896807578713	-60.9528507237523	145.721698075988	-79.6906028669079	-164.32044631012	-20.7814491718238	18.3566934030817	
2514333333.33339	-12.4172453578899	-31.4285350917124	-60.6320459191532	141.824951737099	-82.7374764855808	-64.7037925104244	-20.6380750172562	19.5096730303422	
2514666666.66672	-12.405196501118	-32.1485758012266	-60.0285681743363	133.928956117602	-77.2580377992823	76.7666662262886	-20.4917802912247	20.6363459116776	
2515000000.00005	-12.398706432073	-32.8589906423028	-60.7767426363944	128.739955221239	-73.5296812519615	139.100964475402	-20.3421480040976	21.3766460350413	
2515333333.33339	-12.3821106269196	-33.5373311701663	-59.9474489818664	110.011339246996	-79.1975128044602	-179.754302424763	-20.2031004312173	22.2997892374802	
2515666666.66672	-12.3848762648125	-34.1951995353266	-59.3781087048503	97.3037858174689	-77.6776236319529	127.660593644348	-20.0498306252029	23.1459989173752	
2516000000.00006	-12.3688316508016	-34.8616250906304	-60.774231666943	97.0434965445152	-80.0059624169491	107.696677161489	-19.9077688689223	23.6758942993824	
2516333333.33339	-12.3666839672698	-35.5135255999535	-59.5420783758455	84.9799513749946	-75.4688151833209	77.0775916215343	-19.7510282874043	24.1835866061395	
2516666666.66672	-12.3575747009834	-36.1356190568105	-58.7148334078547	72.0337756953924	-91.9035808633552	108.478235164235	-19.6367839281815	24.6707368929318	
2517000000.00006	-12.354299608699	-36.7558057304515	-59.2078470567616	66.7407355381242	-76.191432262883	154.09697885159	-19.5067415144786	25.0611170799492	
2517333333.33339	-12.3461522011367	-37.3397543264014	-59.6179582734489	55.2167856343225	-77.9622610735575	-142.17192757939	-19.356996396604	25.3342956507596	
2517666666.66672	-12.3435323446096	-37.9826527300071	-58.2226471402435	50.1761905173596	-78.230742345046	60.0719676090082	-19.2228610099196	25.5136735492884	
2518000000.00006	-12.3291298852819	-38.5835259811813	-58.9992344498438	39.4299030856499	-84.9804338727587	173.349772317908	-19.1469924652603	25.6672719896222	
2518333333.33339	-12.3329047942465	-39.1098007907309	-58.0644539467155	24.694200474933	-86.6143644517292	79.4651322747986	-19.0374474850713	25.7264639405054	
2518666666.66672	-12.3207597433926	-39.6681869286509	-58.4274121111472	14.9459612489332	-84.0161800248371	164.966465949124	-18.9290427818458	25.7069080254396	
2519000000.00006	-12.3223146316056	-40.1551001406391	-57.9684108684212	6.45445984835667	-80.0638572036785	162.632927167455	-18.8611693252523	25.7762212320712	
2519333333.33339	-12.313338184767	-40.7331742054551	-58.4541946635737	-4.15797907389697	-88.2976688732695	172.167660042066	-18.7757321005596	25.6402061430509	
2519666666.66672	-12.3141871843139	-41.1716914500081	-58.2799051147612	-10.5107990852085	-78.184187674407	-145.10202541066	-18.6950201527265	25.5311890797198	
2520000000.00006	-12.3198312913792	-41.6593201680623	-57.5021609190769	-27.2329933364956	-81.5909480183892	119.429777236842	-18.6334248521657	25.2629015420946	
2520333333.33339	-12.3144672905755	-42.1076549993911	-58.1307613200716	-39.2425661061707	-89.9271966798073	128.431736561358	-18.5874586390012	24.9753692136323	
2520666666.66672	-12.3274768691933	-42.6005920639851	-58.1736110380464	-44.9852242504526	-84.3887520800696	-97.758635484162	-18.568471921682	24.7332015945839	
2521000000.00006	-12.3147382321567	-42.9687727035623	-57.2614633553729	-56.8249699417173	-78.6805017906154	102.11517285463	-18.5230583085174	24.3751379877805	
2521333333.33339	-12.3131500281261	-43.4337985703936	-58.6404719015807	-72.4856673034774	-83.2971175756097	-103.094234102069	-18.49611226065	24.1933134082201	
2521666666.66672	-12.3151154487848	-43.7608495233958	-58.313333573949	-84.1173667507938	-86.3318853660616	-104.059832063228	-18.4881112887676	23.6546812912466	
2522000000.00006	-12.3269930315726	-44.1710549441982	-58.521984203658	-86.1751228556469	-81.6127539252985	-139.343758598923	-18.5018942228187	23.3441504293387	
2522333333.33339	-12.3220171172316	-44.4887703192222	-58.5565267283002	-98.675612033159	-78.3022200609322	-166.460861216382	-18.4978456045698	22.9031083508825	
2522666666.66673	-12.3273379539416	-44.825082990373	-59.1321259628267	-107.762168780666	-90.6389718668135	-152.181753741787	-18.5158753623662	22.5447456703244	
2523000000.00006	-12.330906717371	-45.1884332146123	-58.3544321693443	-117.160520603351	-85.5831731569984	-115.09658083377	-18.546820443614	22.1417861411223	
2523333333.33339	-12.336503859963	-45.4957181922917	-59.024275774036	-122.088508371175	-75.9507083131243	51.0904217552952	-18.5561370104322	21.6500146963105	
2523666666.66673	-12.3437788375349	-45.8358815036505	-59.4638217028645	-137.175050084414	-76.7145439051995	-60.6987320138433	-18.6104034260496	21.2810426662595	
2524000000.00006	-12.3543927708455	-46.0387125928963	-60.0143546660469	-142.470633136914	-76.9436188830058	15.1300315265958	-18.6555403405397	20.8785011923427	
2524333333.33339	-12.354379044552	-46.306464297011	-61.812745899317	-142.938898958805	-84.5019929579099	-35.0289240949176	-18.6985044124329	20.433451579505	
2524666666.66673	-12.3604443189506	-46.6092502770432	-60.2289609662516	-159.331220091213	-85.1234145836733	-114.509687533713	-18.7419166426856	19.8437294804924	
2525000000.00006	-12.3677009671391	-46.7669390573195	-61.0320114236681	-166.322160259609	-76.5264941780504	154.544258750571	-18.8257247335424	19.267592414563	
2525333333.33339	-12.387596395868	-46.9881541577197	-62.4476239057064	-176.090097393399	-74.100548356428	51.6504569271255	-18.8764535381355	18.8777803714328	
2525666666.66673	-12.3892395238697	-47.2890267310106	-62.9977143280806	-176.258461097266	-85.5996720124653	107.617919122717	-18.9596034278918	18.3561002361347	
2526000000.00006	-12.3976335503173	-47.5265998792572	-63.5223437987769	178.194230647155	-73.8755200409908	96.3537424312376	-19.0640027195349	17.7724601568936	
2526333333.33339	-12.4155313271049	-47.7120616597364	-62.3848966651245	166.306476047249	-75.0732110361411	153.297945670659	-19.1315395949154	17.2927581849316	
2526666666.66673	-12.4252893830341	-47.8280015465201	-64.7886587919477	147.506909502312	-84.0941362236705	169.438566276121	-19.2253317547088	16.8051406950857	
2527000000.00006	-12.4398353126438	-48.0761054628157	-61.8208893448153	155.536588601991	-76.7750235088788	160.746143412471	-19.3316589798132	16.0841247894502	
2527333333.33339	-12.4551695781402	-48.3062795891806	-64.31283933905	144.374748916803	-89.9886519241203	-104.766791726741	-19.4204602485944	15.598865564482	
2527666666.66673	-12.4594992571354	-48.3898148748061	-64.0338450545979	136.4276098291	-83.6458211349649	-121.544433932953	-19.5320994126054	15.1329719462088	
2528000000.00006	-12.4842661121334	-48.6574350421492	-62.5042584905588	126.550667160162	-82.49242511095	139.662968163414	-19.617151500159	14.5643613282087	
2528333333.33339	-12.5097626900088	-48.798109664089	-61.7658801084371	116.012946905632	-74.4575788223031	133.234155207755	-19.7612363122005	13.9047737305446	
2528666666.66673	-12.5187195746237	-48.8999697896238	-63.5060017158722	120.918514196882	-88.3318983224687	-89.6928749059126	-19.862146392296	13.2905153624499	
2529000000.00006	-12.5339905835699	-49.0387690902049	-63.3575870092531	109.183904452947	-82.1610610747074	125.631042267057	-19.9664969242853	12.5928684000826	
2529333333.3334	-12.5716572402119	-49.3431349546849	-65.0438759809171	95.7999288323999	-88.6541113982027	24.1070721435748	-20.1116401967964	12.0375197928973	
2529666666.66673	-12.5967163498309	-49.3636997164074	-63.4472545423144	84.9901730378158	-82.1298500236146	-134.517420318962	-20.2233228695151	11.4650033967643	
2530000000.00006	-12.6035815266031	-49.5789353832662	-62.8348500513222	85.2732226143755	-83.36569811025	69.3466227018415	-20.3528720926631	10.6382800048777	
2530333333.3334	-12.6286862759213	-49.8191180419627	-63.0733134507963	84.5780117623454	-83.9969894304317	-48.1876175675274	-20.4859654402078	10.0297656730958	
2530666666.66673	-12.6569718735709	-49.9941449598068	-64.2092997082828	64.499322854405	-76.1414293669295	82.7658452903536	-20.6107245190978	9.45820500495924	
2531000000.00006	-12.6942962390355	-50.2201997410066	-62.3934963245183	56.5796034658083	-94.4454074243694	-150.409259283327	-20.7505223994706	8.62360428526221	
2531333333.3334	-12.7410978179351	-50.3613359020617	-63.7436956108649	57.7662949719614	-81.9557955828652	155.15422730667	-20.8603798010199	7.9843867654022	
2531666666.66673	-12.7639165862327	-50.5094713793836	-64.9651681864154	49.9505488290593	-80.5547483267862	-48.6444635692413	-21.0026090453111	7.26246413935335	
2532000000.00006	-12.7977956541666	-50.7644353072469	-64.3410520781657	29.8558853823834	-72.9216498317522	-137.83209834348	-21.1119686851345	6.44583972708758	
2532333333.3334	-12.8361895147387	-50.9729293563326	-65.8527916501466	19.8564306594775	-75.1110953999266	48.7550171520092	-21.2560748800161	5.73241134352053	
2532666666.66673	-12.8647777147776	-51.1588004012568	-68.7322401893202	8.06666821920555	-82.4411010791862	-121.493796956884	-21.3789053886347	4.91380538316306	
2533000000.00006	-12.9100779118695	-51.3068340638287	-64.4536618722008	8.10790990696298	-81.2774157619804	26.8089545150832	-21.4995836624676	4.09509778268254	
2533333333.3334	-12.9513641859527	-51.5372963184184	-66.2412285592091	3.76443008566654	-75.9463116686096	-170.77557589293	-21.6149690032317	3.23831925206	
2533666666.66673	-13.0015204102971	-51.6868671847674	-66.085954817463	-7.60846053789487	-76.7221518943297	-33.3706034950087	-21.7456612757909	2.53610170437514	
2534000000.00006	-13.0442840338223	-51.7349713303964	-66.2220868150834	-10.1331095427473	-72.1302786631548	-154.297593935899	-21.8492170576126	1.80336279162977	
2534333333.3334	-13.0885215314413	-52.1455570620094	-65.5475641195936	-24.380919301783	-83.2828853863857	-55.1086799818537	-21.9793520866535	0.901143770884888	
2534666666.66673	-13.138507723104	-52.1269238595377	-67.6188048931237	-27.5221345424339	-74.8971662071599	-49.4913043599335	-22.0556953057375	0.0187689600709725	
2535000000.00006	-13.2028284573361	-52.3742409050503	-66.1700198519501	-40.4589189484463	-79.2057054877573	154.198285367681	-22.1645441346097	-0.820776412564903	
2535333333.3334	-13.2584917191844	-52.6103480965347	-68.275950200388	-16.4634575606035	-77.6567320231551	-87.3231334197132	-22.2581892632761	-1.67684732063394	
2535666666.66673	-13.3102400693293	-52.7370478835272	-66.0310290081732	-50.423564102025	-87.3480339018056	-72.8536954735752	-22.318876296228	-2.56434938653025	
2536000000.00006	-13.373818284392	-52.9296181784937	-65.6112132886332	-56.728331462529	-75.4783689643605	-85.0668286103888	-22.4079643584614	-3.65212125042551	
2536333333.3334	-13.4229138505647	-53.1784590248821	-67.7020940652772	-56.6976862211024	-88.3365867377892	71.4478725039736	-22.4780127000802	-4.49133852381706	
2536666666.66673	-13.4808671293264	-53.3705391368521	-75.9896028004769	-49.9680633409342	-81.6281997221381	-4.02022403254278	-22.5222636199721	-5.50231907237327	
2537000000.00007	-13.5521111511866	-53.4944903915552	-65.6756651049919	-53.8818010070824	-87.8229121236612	-133.68624925709	-22.5778966947911	-6.67349145266823	
2537333333.3334	-13.6141281670778	-53.67184717902	-71.2108026448476	-75.8697263985267	-78.1361203495045	-15.9857902565163	-22.620391676767	-7.79503190493508	
2537666666.66673	-13.6813824501256	-53.9304697271723	-66.1865454715745	-65.5514892823384	-79.7352024888061	-105.649326296138	-22.6308958530822	-8.67788948479857	
2538000000.00007	-13.7554546013361	-54.1436955120197	-66.8931159825846	-65.0912408265638	-80.9172119041209	-152.091771393162	-22.6536617431378	-9.88334211168126	
2538333333.3334	-13.828281900863	-54.2489507699659	-66.3736597859538	-66.9734976949102	-86.6162798899728	67.0471145346822	-22.6791057665164	-11.271344781798	
2538666666.66673	-13.8828403522759	-54.3875213299667	-67.0784407122847	-63.1529425770522	-82.0354769926058	-133.655909260484	-22.6927463286614	-12.1414594681347	
2539000000.00007	-13.967106275802	-54.5027455498652	-65.2830154737569	-67.7151759927118	-85.2838784851184	-67.1093741374334	-22.6827633402645	-13.4963973953798	
2539333333.3334	-14.0586975143349	-54.7856827416155	-66.0515445423471	-80.3382259028367	-71.489629303047	7.55123790813368	-22.660789209247	-14.7328787002151	
2539666666.66673	-14.1322863765982	-54.9704016418025	-67.0422514774473	-74.3934952112149	-83.9440416123348	-30.5608485917867	-22.6616292838831	-15.8822946594201	
2540000000.00007	-14.2042152692547	-55.1858909957436	-64.4695073812497	-94.6554427173465	-75.3716681115368	-130.914299031743	-22.6315949764385	-17.1695525276146	
2540333333.3334	-14.2871876694281	-55.246288319952	-64.3178797246723	-104.447763419448	-82.0917647749555	164.403390365969	-22.6082701434798	-18.301042328414	
2540666666.66673	-14.3665339938348	-55.6383373602036	-62.1070565686796	-114.172182613752	-72.7943292885728	-102.488666014505	-22.5918119330018	-19.4707812644154	
2541000000.00007	-14.4559967213556	-55.757228347301	-63.4680360965005	-119.774672171487	-76.3105747573519	-149.016548377663	-22.536049286255	-20.8282185273663	
2541333333.3334	-14.530127043558	-55.8781148689132	-61.5461421130163	-134.073669061728	-81.2646542855293	-139.979356665407	-22.49240591989	-21.9786801117113	
2541666666.66673	-14.6222139307619	-56.1782215532015	-63.1542403307895	-148.562112217554	-79.1386327046647	14.0554426638446	-22.4228069778964	-23.3434403863792	
2542000000.00007	-14.7178035658127	-56.3428180567123	-62.1842803146175	-145.35540440424	-79.4697601092605	-63.7065383153033	-22.348103989506	-24.5428966537935	
2542333333.3334	-14.8091371020485	-56.5296360621932	-61.8550960921852	-175.590387182246	-79.2816352303305	-49.95801392276	-22.3039304080158	-25.9225789947335	
2542666666.66673	-14.8985620397495	-56.8283462427468	-60.3287713811665	-172.52505443771	-78.7372414623853	152.889807895229	-22.2515237400574	-27.0357254214073	
2543000000.00007	-14.9823130020394	-56.9909759903562	-61.4836607971894	172.62059202941	-83.6716778814202	48.2378805834874	-22.1789641181884	-28.2997921263478	
2543333333.3334	-15.0815912611845	-57.2352984836733	-61.2264045993954	162.548981030463	-85.3688121120751	-81.6365941064886	-22.0686885960894	-29.3855969400413	
2543666666.66674	-15.1538922360043	-57.5374159195801	-61.8524614506613	159.192086854837	-80.3569037801092	89.3505385765522	-22.0138434102953	-30.7267909722839	
2544000000.00007	-15.2695096446168	-57.7225612786359	-61.6618725282821	146.678441850374	-84.5131388273543	5.57413167840044	-21.9377234771559	-31.8432340211642	
2544333333.3334	-15.3720196418804	-57.9195194409344	-62.2802739190358	131.064473691466	-81.1340228544323	1.84885741239069	-21.8776288545943	-33.2167385285693	
2544666666.66674	-15.461920557621	-58.3163291369569	-61.6915125174199	127.332140945637	-78.5976385097002	-37.8451021781459	-21.819849377855	-34.3238565411641	
2545000000.00007	-15.5655001734277	-58.5895064072892	-61.1973014012253	111.098743955245	-84.6256024166845	17.10980944614	-21.7523280633906	-35.4687268037048	
2545333333.3334	-15.6435468907017	-58.8924340347285	-61.3360594562204	111.997216520052	-83.8947709965345	-149.287698632343	-21.6905675138933	-36.4988902894055	
2545666666.66674	-15.756846745183	-59.1722739646121	-61.5968137177591	94.5954257869199	-80.6843785741229	-141.229596963908	-21.6276391684605	-37.600366736923	
2546000000.00007	-15.8590260811041	-59.4890582817902	-60.3644843775775	93.8618140627346	-85.3803926273625	32.0526702584492	-21.5801423503149	-38.7084945717589	
2546333333.3334	-15.9545909945061	-59.817580310051	-61.8011579548057	77.3899932877487	-69.7465391995463	175.473133010212	-21.5238357697471	-39.7270645113181	
2546666666.66674	-16.0329166905735	-60.1975756967637	-61.4823974432214	76.5575281475363	-87.8425281382539	142.295400071187	-21.4595014597261	-40.7145947876523	
2547000000.00007	-16.1539080351347	-60.5217489811005	-61.7875664724198	57.4423595816475	-77.0873497139554	3.42368766711872	-21.4163967948248	-41.6910634667949	
2547333333.3334	-16.2593430980498	-60.9755058067842	-61.3523946169356	48.5206087977959	-77.6135406553512	-24.7684100872786	-21.3642970591554	-42.5837337903878	
2547666666.66674	-16.3603354959843	-61.3607516990806	-60.8921014963138	34.3715017281796	-76.9502604622423	-90.6633257221365	-21.3349348387877	-43.3897162565968	
2548000000.00007	-16.4571221736425	-61.7173157392632	-62.3835686678925	32.5784787773868	-72.1591989256248	28.4855981584702	-21.2941052822934	-44.4829130218808	
2548333333.3334	-16.5588643690886	-62.1611322393733	-62.8535201661689	21.3462930550413	-77.2278970277226	-118.476796719626	-21.3100196823955	-45.2392379080969	
2548666666.66674	-16.6646296913961	-62.5351528077503	-62.896571877273	4.08727754437762	-86.4180404665679	10.9065520349509	-21.280864267129	-45.8779405070398	
2549000000.00007	-16.7677129028474	-63.1364953571587	-62.3179463557337	-3.52688201178092	-84.8385610983725	18.5746238637611	-21.2737510107539	-46.6161877096094	
2549333333.3334	-16.8520863050447	-63.569978380616	-63.3364653186973	0.520362606283734	-75.6305109094969	11.2789724948201	-21.2780335093809	-47.3909894931397	
2549666666.66674	-16.9545565431216	-64.2089461501275	-64.4056570173816	-19.9254362542366	-78.6884687559555	87.868203446641	-21.276515175277	-48.108928777695	
2550000000.00007	-17.050410015032	-64.71282459538	-64.3092473231921	-7.6617916070307	-75.2722585358498	-62.9302246753524	-21.3038920221654	-48.6201612453413	
2550333333.33341	-17.1514935205458	-65.3667984470617	-65.241244702721	-26.2195551069065	-89.2624505895195	-3.35244716288322	-21.343662088294	-49.0592364543687	
2550666666.66674	-17.2441570855073	-65.9124341239257	-63.7024223980342	-46.772383811703	-78.7204179183418	-175.251104305441	-21.3759634292746	-49.5811205167807	
2551000000.00007	-17.355328891944	-66.6320293784395	-67.4578481727513	-33.1451813526324	-76.2378494319235	-52.7203533049782	-21.4257700804105	-50.0975824263446	
2551333333.33341	-17.4431945801924	-67.2748592555958	-63.4301553153823	-47.8489030027162	-79.8751826314749	5.80350571808232	-21.4721882404074	-50.1660782293014	
2551666666.66674	-17.5541310946596	-67.9358276456049	-66.22500663991	-64.1181119905856	-73.3111980774511	-175.310643652962	-21.536513517141	-50.5384351582721	
2552000000.00007	-17.646741125841	-68.7425293892048	-64.5164908550013	-70.6768175924834	-88.7112476482153	-117.758336517643	-21.6066054562717	-50.7664172592956	
2552333333.33341	-17.7336986964958	-69.4464085150205	-63.6774076346576	-77.9956335641384	-77.8749195132732	18.0640204778729	-21.6988835262663	-50.7513192220016	
2552666666.66674	-17.827997634935	-70.1218277691249	-64.0643016822351	-74.9172519345888	-94.4433849203946	138.525980829481	-21.7788288192618	-50.7315129058141	
2553000000.00007	-17.908398595916	-70.9650417531559	-64.8414703342785	-92.9128068033901	-89.7519690426343	-126.324476715541	-21.9092284244031	-50.6715860328657	
2553333333.33341	-18.0019446419973	-71.6742965664649	-66.4908071691784	-98.8561731701277	-77.8684616157265	-94.8850371961172	-22.0180838301445	-50.432948504962	
2553666666.66674	-18.0773537194879	-72.5280642976812	-67.0784140395791	-119.712295981369	-80.6276643600841	-31.2732248873334	-22.1418946960519	-50.1084779321135	
2554000000.00007	-18.172114549863	-73.4284172973091	-65.7077963030994	-132.975356110431	-76.694536745962	168.077777626482	-22.2298861911575	-49.5301475600052	
2554333333.33341	-18.2386606628017	-74.3105614588986	-66.4276727382619	-122.76772078719	-80.7660967619601	0.0959277140525105	-22.3791662260767	-48.6296720176322	
2554666666.66674	-18.3139775729422	-75.0298976154815	-66.4613332272961	-134.027593650518	-88.3977422036454	148.283027361332	-22.4970098049875	-47.9740229893445	
2555000000.00007	-18.3735722615282	-75.9259763722627	-68.5049397782118	-163.229654957059	-75.6771062483437	-37.6123213128529	-22.5929652084792	-46.888918008372	
2555333333.33341	-18.4504447163136	-76.9205537445856	-64.5782700452299	-147.234323885113	-96.2353811994701	-4.47811613265638	-22.7280935574243	-45.8780632911132	
2555666666.66674	-18.5271775406073	-77.8436189866749	-66.1145041402275	-144.181807486664	-74.1308021887437	49.0390741025053	-22.836002599198	-44.5558565571114	
2556000000.00007	-18.5778613004874	-78.7709519102796	-67.5024971053546	-169.207195807856	-77.2053877645258	-20.8161002427957	-22.9137220338294	-42.9876283256469	
2556333333.33341	-18.6270723734496	-79.6251138306909	-66.5899077853793	-169.910288476851	-78.5901942748876	-151.011897809686	-23.0022492294966	-41.4589229508116	
2556666666.66674	-18.6857217040916	-80.7855554022794	-68.7165461444402	-165.532306536454	-74.3912471358536	59.8507715540578	-23.0568673145894	-39.8818415573103	
2557000000.00007	-18.7269135962458	-81.561663953301	-67.9456627036101	-178.963279935908	-74.3529746140483	-169.546251007716	-23.1041194164893	-37.8710336786332	
2557333333.33341	-18.7835516789905	-82.5399263173097	-68.8750757038708	166.812626861558	-78.627266124824	72.8370508066528	-23.139203168817	-36.0434370391855	
2557666666.66674	-18.7976700147468	-83.6181659253574	-69.7253108403607	165.294420131303	-83.1740074608541	51.6642878594891	-23.161101942537	-34.3235540166513	
2558000000.00008	-18.8432286412417	-84.5777308085169	-66.5868806082011	156.454405779007	-81.0076049450149	-61.2815816501395	-23.1048319065045	-32.0057899198515	
2558333333.33341	-18.869653227222	-85.5688833297047	-64.3944868264238	151.804383180251	-76.4294084335268	134.877433321926	-23.0500487182715	-30.1294459416914	
2558666666.66674	-18.8872499331093	-86.543023137881	-67.3670570327432	132.662195274908	-84.6902505113201	-178.255416735149	-23.0076791330815	-28.1774462629725	
2559000000.00008	-18.9013297498584	-87.5904529297759	-68.1102029112327	124.537686466354	-79.5170772358707	-65.8394023441981	-22.9015861172162	-25.9689731912389	
2559333333.33341	-18.9157218925974	-88.5650983439105	-69.988268169907	148.959555167037	-79.5597523633454	-163.237564347567	-22.7936798516076	-24.1451431668636	
2559666666.66674	-18.9312451332028	-89.4224325601263	-68.375178338138	147.274323671929	-79.0684354535175	38.6386815208779	-22.643446705334	-22.314745971518	
2560000000.00008	-18.9162422237404	-90.4988951727569	-70.4814330918577	109.256299559226	-89.6138797064728	-19.7900705318489	-22.4782825605942	-20.3926777398153	
2560333333.33341	-18.926577328782	-91.5731870828737	-66.2211427666867	133.074863118141	-79.4160280679997	-0.463700668153151	-22.3401832149716	-18.8488993202238	
2560666666.66674	-18.9109771903084	-92.4762821408029	-70.4789615499523	115.846583506436	-82.9619449950984	-81.9362643895854	-22.1201660364766	-17.3510842010698	
2561000000.00008	-18.8985018069028	-93.4915139428202	-65.2756325652606	99.5260056539302	-72.1620865482524	90.4507505303689	-21.960112057826	-15.7506122362914	
2561333333.33341	-18.885119151186	-94.4366266949182	-65.4592546570914	132.101569362991	-74.4161108527185	43.3433104007929	-21.7443249052421	-14.4470657732465	
2561666666.66674	-18.8603155469651	-95.2844804145743	-65.8091013813175	93.9604747154866	-74.5531105191378	132.853744076748	-21.5255786297422	-13.2791822933154	
2562000000.00008	-18.8256741183508	-96.2605851443993	-66.6830921135322	89.5610918647153	-76.1228273334266	56.2030042028574	-21.3360385884796	-12.1153831697766	
2562333333.33341	-18.8017628010098	-97.2105621835767	-64.9312696895896	81.7562421153888	-76.1051218106787	77.0580740109636	-21.1316097196316	-11.0985556387613	
2562666666.66674	-18.7567796249948	-98.1650180206244	-64.677014338688	84.5972914877661	-82.050059107371	18.7893492894703	-20.9270442512752	-10.1672293943672	
2563000000.00008	-18.7291430695209	-99.0671944697157	-65.2740613279282	70.8390711997891	-80.0433449358741	173.812585493124	-20.7066392459956	-9.39764985434253	
2563333333.33341	-18.6775655667504	-99.877588904059	-64.0111159201914	52.3183569125823	-77.0425071015062	-14.3829117024504	-20.4979230745766	-8.59795713586988	
2563666666.66674	-18.6355921468636	-100.760959142589	-64.6272912673733	37.7822109407009	-81.9279482087085	179.367733173227	-20.3154217998673	-8.01452389988967	
2564000000.00008	-18.5812066965691	-101.59682633573	-64.254451993994	43.2366022735502	-76.099558789886	10.9666003638078	-20.1356975700993	-7.482970571536	
2564333333.33341	-18.5346278127483	-102.384350964419	-66.5132143825075	33.8054590676024	-75.4233015217882	108.961830596574	-19.9216763285845	-6.98394151940074	
2564666666.66675	-18.4759005484744	-103.207747689759	-64.9074413763494	12.6336824462804	-76.789864265681	84.0097101553474	-19.7688228460392	-6.69437734647666	
2565000000.00008	-18.4251174108798	-103.973402834786	-64.477446835161	15.1349452952644	-75.2425675922326	73.8720057502037	-19.5848597997769	-6.46470228678211	
2565333333.33341	-18.3803692081882	-104.727578126809	-65.6859277869928	1.57235591914043	-82.0112248191875	72.1774423948339	-19.43453394331	-6.27625241785325	
2565666666.66675	-18.3125414547804	-105.52056402756	-65.8933358948409	2.43073126520377	-88.7040346681251	124.290805659852	-19.2832889298469	-6.04797419350952	
2566000000.00008	-18.2556275837579	-106.208576226793	-65.2081892442002	-18.7347866060889	-96.2400827548528	-67.210984414715	-19.1579151578802	-5.92082927140213	
2566333333.33341	-18.2022832311428	-107.037811939929	-63.7921247737719	-31.7152804581502	-82.3757556524443	97.048239952407	-19.0325528740577	-5.94602824040031	
2566666666.66675	-18.136619859302	-107.777023426494	-65.3866586361683	-37.3540249059442	-81.4266116605184	-14.5171203718362	-18.9228481990567	-5.96429526158882	
2567000000.00008	-18.08282050769	-108.474153994125	-63.3075626220024	-43.5877985962047	-79.5523959355974	5.51475558437465	-18.8120628719741	-5.95512773720795	
2567333333.33341	-18.0223206710917	-109.197238383392	-62.3899315746313	-50.2555592193828	-79.0048374897886	-169.221570530097	-18.7340404873272	-5.99260788652083	
2567666666.66675	-17.9654574973196	-109.945482823784	-64.4605778077168	-63.0389970479586	-76.7410757008015	-116.139086830734	-18.6602810936327	-6.00543860945018	
2568000000.00008	-17.9181398335571	-110.56117697181	-66.4082583889088	-63.3633892207268	-82.8014199914323	32.9956480438699	-18.5800993891856	-6.29573520663577	
2568333333.33341	-17.8558273638803	-111.231899638329	-66.0471146503112	-112.157682833593	-82.1092610176945	145.621452489731	-18.5269844770812	-6.31091922476202	
2568666666.66675	-17.8002819980064	-111.886259765962	-67.0045161772245	-101.423698938785	-77.8329910666093	-77.0512196510946	-18.4979727809273	-6.45986704572029	
2569000000.00008	-17.7512353436959	-112.524988843941	-66.3145696372507	-104.682154442218	-82.4865065820363	139.867956535551	-18.4594212831093	-6.70722720083591	
2569333333.33341	-17.6879068211163	-113.127201111457	-65.5623105791231	-100.001928562657	-79.3922410882625	-61.8155017365408	-18.4167815367232	-6.87893592448545	
2569666666.66675	-17.6347012933439	-113.798174736644	-69.1255792906185	-116.501476282035	-75.1295375523363	125.749287390423	-18.4249321367198	-7.24265016432374	
2570000000.00008	-17.5781276463174	-114.274405473006	-65.2119256314758	-108.090985101743	-78.2548835294115	-83.9163854069967	-18.4389849569101	-7.18840686101254	
2570333333.33341	-17.5363584118745	-114.98993988657	-65.8693509987246	-121.373432872938	-79.4665715191182	-155.167097222129	-18.4806236467967	-7.4309421922021	
2570666666.66675	-17.4843466586065	-115.541921332321	-67.4559831143595	-89.7251050551302	-72.4368851047902	145.680118807868	-18.5077258652359	-7.70115324210852	
2571000000.00008	-17.4465030979484	-116.134322434471	-70.0526439320358	-128.98613158191	-84.853026574012	-60.1153973326022	-18.5470750583101	-7.75764424288453	
2571333333.33342	-17.3879140768354	-116.745689464572	-67.2298512292527	-105.359408581568	-85.3141551065801	-110.035390241305	-18.5912644987106	-7.80693070382323	
2571666666.66675	-17.3663719273666	-117.443646702177	-65.916229110984	-104.238179563512	-80.2124480517216	-132.859216086304	-18.6763247935231	-7.88344806841405	
2572000000.00008	-17.3114119535625	-117.940058686094	-65.0159543715117	-124.472127589144	-79.7777867122085	74.5422088642676	-18.7735004143508	-7.95725182338687	
2572333333.33342	-17.2900596064803	-118.44772068978	-64.6010742811367	-121.033709713724	-78.176521445625	-29.0634634654669	-18.8625160707664	-7.89236195055839	
2572666666.66675	-17.2551258522669	-118.945492711519	-63.0897856382963	-132.6076104733	-86.3942970458206	143.59460832233	-18.9781018623924	-7.81038121276651	
2573000000.00008	-17.2197240721526	-119.559482289018	-63.0865520326839	-138.970112770186	-82.5753821539467	-101.688074314887	-19.1255374804178	-7.60049382359982	
2573333333.33342	-17.1785763155315	-120.042248498601	-62.9994605415453	-158.225325213177	-78.0838228612575	78.2088009992733	-19.238654482405	-7.43046014515561	
2573666666.66675	-17.179127195775	-120.679827257846	-63.4183386315111	-163.72336649511	-81.925003942585	82.5847781315587	-19.3666101858147	-7.10787248722541	
2574000000.00008	-17.146032955002	-121.265851305872	-59.7774429659055	-172.267987077633	-78.1500651682218	-6.7261058167807	-19.5522956587465	-6.78736894532045	
2574333333.33342	-17.1370868949898	-121.764720275496	-60.7203833779382	179.142857769285	-89.0861769237556	106.024017972943	-19.6988633975678	-6.39802700513239	
2574666666.66675	-17.1122651331642	-122.354388951784	-60.3100087843552	167.484173927908	-79.4196939610693	-164.083743317314	-19.8421199150012	-5.66407277331148	
2575000000.00008	-17.1030640178412	-122.83358055886	-60.4225281709415	167.807795250517	-77.3653988497552	155.38687776437	-20.0206930239961	-5.04101359234916	
2575333333.33342	-17.0862012385316	-123.44279015787	-61.2773980392955	154.629611456491	-80.6587719026873	-69.8820359032119	-20.1853887564118	-4.26294659353354	
2575666666.66675	-17.0979672576874	-124.049812798845	-58.8573932842964	146.936593108975	-77.125842031672	160.579086038912	-20.3502008133622	-3.3222104063849	
2576000000.00008	-17.0986307610571	-124.512134607515	-59.3403180966622	133.611129681555	-89.3000114367192	51.8852539001807	-20.5178821448189	-2.38014665631192	
2576333333.33342	-17.11031012199	-125.068991259877	-59.0692018880386	128.544220773092	-75.3361472988456	-39.5473724934061	-20.6961156652225	-1.28721733463412	
2576666666.66675	-17.0990162683006	-125.760248650041	-59.1074412396311	109.231884986903	-82.2973753772962	-97.5664683423689	-20.8515826424977	-0.0306714463646087	
2577000000.00008	-17.1290833237735	-126.33315118689	-60.9132591268621	104.968414397907	-89.3679448101912	-107.096832167576	-20.9932704939384	1.43590182805444	
2577333333.33342	-17.1528288526099	-126.972293449842	-60.745449003445	94.2828859009834	-77.5506506461292	-134.286095017246	-21.1831454450495	2.83019574354447	
2577666666.66675	-17.1591316746589	-127.49388675127	-59.4967385729915	86.4818170320209	-91.6761622951048	3.83920214410759	-21.286570962525	4.29311261849714	
2578000000.00008	-17.2074751941034	-128.081080411034	-59.2737500943641	73.4608906100643	-93.1535890261042	-31.4248649517478	-21.3899389216638	5.76972104410344	
2578333333.33342	-17.2153350122855	-128.633217631531	-60.5073934000933	61.1302801944071	-81.3372509251936	-55.3115239925669	-21.4880180385254	7.62442535123757	
2578666666.66675	-17.2508058710725	-129.32651351543	-60.6071168187769	53.5730193834207	-84.0651967254319	-32.3230547990188	-21.5724849745581	9.30546265451417	
2579000000.00009	-17.3050612029307	-129.957014600517	-60.7547598723981	35.2269079062086	-79.857338109759	124.607256592824	-21.6147327837901	11.0973153629428	
2579333333.33342	-17.3419129236372	-130.424972923586	-60.3437242129379	32.1875960215141	-76.7641203202898	-48.8082922552644	-21.642460793425	12.8160734805741	
2579666666.66675	-17.4079945730439	-131.118374512983	-61.6346485033404	27.6748232366958	-89.9525127760631	32.6759415047197	-21.6731669401075	14.92868419396	
2580000000.00009	-17.4514359756692	-131.799887213371	-61.5200553706841	27.0561063241683	-76.6738492794195	114.419267802563	-21.6302925801627	16.4825029343807	
2580333333.33342	-17.5311890680931	-132.282380829381	-62.1735854325874	10.8040920411653	-79.5114046944041	88.1480344774201	-21.5940431363053	18.3171221073926	
2580666666.66675	-17.6040847315389	-133.008554634027	-60.9504249937511	3.70869852691518	-84.9954084464589	83.2746568656902	-21.5691626866058	19.8065583343619	
2581000000.00009	-17.6666237282005	-133.623034711219	-61.4724304736709	0.256407114007372	-90.0233697306486	151.072339522658	-21.5122943445306	21.3141155430942	
2581333333.33342	-17.7490753070065	-134.237172802193	-60.7273029210588	-11.5124696817999	-78.7345589544604	99.1696157135371	-21.420591342335	22.5069895635696	
2581666666.66675	-17.8190488856899	-134.935065172248	-61.3641788845154	-24.4198864131118	-76.1994139581481	132.161782546263	-21.3346323401016	23.9691456139824	
2582000000.00009	-17.9007736188542	-135.619967487816	-59.806840491882	-32.3398961413798	-83.8857281303459	-94.4264171967939	-21.2282933092575	25.3304095192514	
2582333333.33342	-18.0391008584049	-136.190621320895	-60.5113134247392	-36.8016346481733	-94.3378320733495	-2.30595975168785	-21.1333457572069	26.1907990552316	
2582666666.66675	-18.0974907592217	-136.895551174766	-60.7281097875183	-47.7833122523223	-85.8151708416538	153.341948779601	-20.9821844307059	26.8958020304776	
2583000000.00009	-18.1950080139451	-137.55540500303	-59.9522692655788	-49.7259776615109	-84.2089680076651	55.4578594047463	-20.881044426265	27.7148345095582	
2583333333.33342	-18.2812631079279	-138.161608551093	-59.9515657774455	-61.8790684101184	-82.7588498124007	14.9807235817598	-20.7547310578155	28.43320468996	
2583666666.66675	-18.424636046797	-138.785371919899	-59.3426891150817	-70.9983436520314	-89.7627113343422	-164.772233171916	-20.6137006930612	28.7913713715137	
2584000000.00009	-18.5191427343251	-139.560660620928	-60.6225772513157	-76.2228015626312	-75.0471851835084	-167.637101625512	-20.5282401659114	29.1741487413531	
2584333333.33342	-18.6694104516037	-140.208734012388	-58.935855660194	-84.3909687525958	-81.3373885019259	-41.0425643915285	-20.4065526048427	29.3774776912857	
2584666666.66675	-18.7588430730291	-140.839999402301	-59.113661295189	-102.491911007318	-75.7617433518246	-133.306365380206	-20.3416525954211	29.4375893562901	
2585000000.00009	-18.8993566169731	-141.642290371849	-58.6073208642193	-102.526413162882	-80.3873129635538	144.67506942587	-20.2325683400866	29.4673529409431	
2585333333.33342	-19.0401127895279	-142.311799317152	-60.97149143199	-112.834025095002	-83.9361448390393	159.035548281165	-20.1465392338969	29.2789506020043	
2585666666.66676	-19.1665152824121	-143.15608336082	-59.3321925848687	-123.980036509118	-89.1383274795722	-106.47171985562	-20.0714475211707	29.1307161932753	
2586000000.00009	-19.30429391852	-143.70052641419	-58.9238580157177	-130.492140351143	-78.5574140773008	-176.467493976596	-19.9871847086504	28.6482430278947	
2586333333.33342	-19.4451265633683	-144.487465380109	-59.6103142640587	-136.395231026102	-80.9314225649764	-69.8257957684738	-19.959052389597	28.3907983984368	
2586666666.66676	-19.6061989554525	-145.548979852682	-59.9247424005149	-150.667895540909	-75.4406038502457	168.219458094045	-19.9095640408756	27.8629056748291	
2587000000.00009	-19.7520367847114	-146.126471682616	-59.1961190684221	-153.811413381459	-84.0694284323405	-28.4726001498751	-19.8850243084346	27.39090567487	
2587333333.33342	-19.8862022355766	-146.836535510818	-58.659858844507	-165.719530608681	-79.6383660435744	130.619597377427	-19.8760624930493	26.7717766678876	
2587666666.66676	-20.0580814446084	-147.540073910729	-59.741243269733	179.544168809542	-88.041580504928	102.824818787219	-19.8597951419323	26.1529763591424	
2588000000.00009	-20.2330001045067	-148.523268477743	-60.2624741197277	174.9237709157	-79.7232207698325	-92.695015038075	-19.8410543463523	25.4742800114635	
2588333333.33342	-20.4043235482794	-149.400801281414	-59.9651587782029	171.53132610591	-82.9857191168377	-81.9701137681679	-19.8689933433212	24.7061781614574	
2588666666.66676	-20.5580475099899	-150.415538159555	-60.9946864754766	167.200182410921	-85.8812685794429	-110.328278833074	-19.9053740975126	23.8709259373692	
2589000000.00009	-20.7246560885171	-151.096044499887	-60.0647583662955	145.197501939602	-78.8654347762034	-164.014989406968	-19.9382744580842	22.933425373161	
2589333333.33342	-20.9202183582807	-152.10910676912	-59.3427549209115	127.558698668392	-75.9226908069203	173.028909778879	-19.9875948984734	21.9019385321583	
2589666666.66676	-21.1074016808653	-153.133284843178	-58.8714671680478	126.128631209291	-75.5164305251322	-177.392867927808	-20.0382706029461	20.8377884353802	
2590000000.00009	-21.2450436431005	-154.10586550673	-58.5722477817591	120.672334055619	-77.1235436423906	-104.575220067138	-20.1085824923838	19.8347122749164	
2590333333.33342	-21.4318283822023	-155.038202953019	-59.1072079298357	113.521602057101	-76.2545604284142	-36.0312652898891	-20.1922198915293	18.8246119929931	
2590666666.66676	-21.6176352808369	-156.134942938588	-61.588785172253	95.1023279677549	-74.6281296432261	-157.201275293943	-20.2906968008083	17.5623401494599	
2591000000.00009	-21.8013954440588	-157.19704616028	-60.0277296592543	93.5297739132151	-112.059933084902	132.537436168577	-20.4238777117034	16.2639776574291	
2591333333.33342	-22.0072132541152	-158.66419526718	-59.540301953427	79.7311932031212	-85.6272061244171	-123.962859067687	-20.5259066912095	15.1265014099932	
2591666666.66676	-22.1993444480665	-159.895814833353	-59.0575585721626	77.3848863411692	-79.307068235559	-167.566010546639	-20.6559714168587	13.6985558194832	
2592000000.00009	-22.3678911191976	-161.092159292384	-60.0011138746994	56.8849164568065	-71.4037276590692	-68.209555324058	-20.8411077063207	12.4866468604292	
2592333333.33343	-22.5526968462686	-162.297442532435	-60.0985035932521	36.5934038819609	-78.1963161445797	-106.715698723589	-21.0212864423861	11.0707800931533	
2592666666.66676	-22.7050757080809	-163.80235842989	-59.3101284496489	31.5433946653251	-72.5570152156257	156.615444068349	-21.1908015338367	9.8215124395428	
2593000000.00009	-22.883278608533	-165.577019896298	-60.1357070276476	26.092976999948	-80.4282779940703	32.1166097444763	-21.3844997086688	8.44950051589727	
2593333333.33343	-23.0381785816148	-166.929861957012	-59.8617455654765	4.28422757992153	-83.7513173320967	-109.31713261334	-21.6185840128422	7.16684509149562	
2593666666.66676	-23.2140211576154	-168.731787328003	-61.3205934863493	4.58053070838649	-79.4227127549962	-122.385583987846	-21.8555259663754	5.78320588224836	
2594000000.00009	-23.3616140407916	-170.480856266518	-61.159443711274	-8.22667333535523	-91.7387733149857	-39.9299096514958	-22.082151128534	4.2853457689938	
2594333333.33343	-23.5519152587179	-172.339877631204	-61.1710656362467	-23.6532414129143	-93.3968637132586	-105.08914636838	-22.3541974923208	3.26526402503394	
2594666666.66676	-23.6609193940079	-174.361646726072	-62.6677455290615	-33.5773948503676	-79.8677084929552	23.8292921262847	-22.6156816818048	1.75387612004109	
2595000000.00009	-23.8108961948417	-176.2448193506	-64.1833222789378	-50.2812866522235	-86.9191925448537	169.302675064581	-22.8874984074846	0.523042149119554	
2595333333.33343	-23.9071905963687	-178.555102512742	-63.4464249726971	-69.0443721734558	-78.2833690888704	30.9554142294116	-23.2035073737178	-0.44332883095826	
2595666666.66676	-24.0186857937058	179.293919742958	-63.3030966531699	-39.590716354029	-84.4633027427796	-151.20805669689	-23.4739172255378	-1.63552514370604	
2596000000.00009	-24.1109216296901	177.064385895052	-64.3622347057599	-63.6602456702639	-81.2208428869903	-172.113530956975	-23.7916946083895	-2.88455706731217	
2596333333.33343	-24.1845763726986	174.726873672714	-63.7339901820186	-92.4577335255545	-81.1292377779428	-95.8861513059759	-24.1226798844624	-3.85414594435165	
2596666666.66676	-24.222509627013	172.28020988654	-66.1604097839596	-88.9710596420454	-78.8824636843517	-97.7772094034167	-24.4137238101756	-4.88091713218886	
2597000000.00009	-24.2966139551457	169.799836457656	-66.4828343895891	-86.2139509545956	-84.0747214411098	26.2995038788975	-24.7779185658284	-5.66741106082821	
2597333333.33343	-24.2975649737921	167.0930208906	-68.2736451177142	-83.6352679111169	-79.0341869025245	124.374032823989	-25.1276632745571	-6.42653468044642	
2597666666.66676	-24.2884029973819	164.647775720762	-68.5890382990153	-114.353255795405	-76.0878972670454	151.789100531589	-25.4736472623322	-7.05376476081837	
2598000000.00009	-24.2626790038428	162.01629965428	-67.2373672331108	-111.489159676114	-78.278808862818	-106.679247460456	-25.7954781503156	-7.59654036436442	
2598333333.33343	-24.2361736403363	159.683073733682	-68.5084075665936	-111.909576731786	-79.2933278707191	162.038329043281	-26.1631525591395	-8.04565145909252	
2598666666.66676	-24.1744295898722	157.048279919538	-69.8358172844694	-134.062187753213	-78.3248074568047	-127.731441921236	-26.4869115046245	-8.5798581164183	
2599000000.00009	-24.1126259933446	154.600329808539	-68.947966993978	-102.68220258452	-78.7562636152939	-104.520713955928	-26.8635847920857	-8.4257791118969	
2599333333.33343	-23.9990423575054	151.912194590179	-72.9029220054812	-104.731254865505	-102.024120890115	85.4398811377711	-27.1779962070581	-8.46988369993647	
2599666666.66676	-23.8786159705902	149.377131949434	-80.5196324434307	-160.862109544023	-83.9849813118055	-157.642722474058	-27.5022741941128	-8.11559606017169	
2600000000.0001	-23.7610968945199	146.928423510013	-71.6092088790871	-144.628486324513	-93.293205018835	136.893752675513	-27.8391994346784	-7.36978082939074	
