!Agilent N9923A: A.05.34
!Date: Sunday, 13 March 2016 22:13:11
!Model: N9923A
!Serial: MY51491690
!GPS Latitude: 
!GPS Longitude: 
!GPS TimeStamp: 0001-01-01 00:00:00Z
!GPS Seconds Since Last Read: 0
!CHECKSUM:0927917848
!Correction: S11(ON U)S21(ON U)S12(ON U)S22(ON U)
!S2P File: Measurements:S11,S21,S12,S22:
# Hz S DB R 50
2400000000	-16.7664216181724	-176.28829309932	-60.4726706652352	146.603218041216	-88.1937539874342	-113.398753342908	-19.757321259326	3.73746464834546	
2400333333.33333	-16.8092974152925	-177.236328702505	-61.6328659586392	137.297441423116	-86.7896503782702	-76.3809379560584	-20.0464180060958	2.87306489578131	
2400666666.66667	-16.8488866755961	-178.07704882258	-60.8822497836395	126.608768138227	-85.2652234754822	78.4305735340981	-20.3409886105975	2.11621184092999	
2401000000	-16.9165952969204	-179.103039780687	-61.1204284636384	123.333689262155	-83.3657667769268	178.209356073593	-20.6522882841594	1.23566790689446	
2401333333.33333	-16.9777258210389	179.861946093097	-61.8074524815734	115.386752394673	-93.0029802941696	-75.9909778320082	-20.9948294563457	0.590028570028092	
2401666666.66667	-17.0304837956457	178.903597815335	-62.7309665557434	110.57865051366	-79.0912596868692	91.1098031464049	-21.3463971801035	-0.11267558681273	
2402000000	-17.0903371046692	177.928073340976	-61.8456698018009	106.929926139961	-81.7771033184173	110.057810499827	-21.7386208275515	-0.800367878665098	
2402333333.33333	-17.1506231478983	176.834512063156	-61.6761640940551	97.496797177901	-94.4136256307117	37.0859309344693	-22.1469330107187	-1.36307017482358	
2402666666.66667	-17.2146377277895	175.774505580318	-61.614019362296	86.8902961952688	-96.0874438564445	-62.6924307007721	-22.5819417111615	-1.82509716355255	
2403000000	-17.26530858786	174.719754813461	-62.3711297917954	84.7613922310444	-83.5322888196425	87.6386988814621	-23.0479672339906	-2.29455998233157	
2403333333.33333	-17.3417282015838	173.565386231158	-62.0267089873056	75.28992499177	-85.8544884016349	-30.9453603338087	-23.5263743053619	-2.52481042581902	
2403666666.66667	-17.3983122185299	172.367593655652	-62.3238717545456	72.3274430219782	-84.8952532434846	-174.133078318694	-24.0461293714198	-2.7639331018642	
2404000000	-17.4431177565306	171.272644237667	-63.4702821936228	67.2728200197343	-89.1697494615397	-60.6491403066754	-24.5883862435526	-2.70611170452937	
2404333333.33334	-17.5026084977976	170.052635473504	-62.9336884234278	57.3017590803412	-83.9796197819933	155.10623925572	-25.1979009617526	-2.52858394659607	
2404666666.66667	-17.5545541595385	168.808962944475	-62.4696242096212	57.8845614609222	-80.8514449614423	-150.966208486947	-25.8039902514431	-2.14730462704166	
2405000000	-17.6207040627646	167.521319746847	-61.8294486979343	48.8471141534492	-81.9325367716189	-108.852566924766	-26.4850851218948	-1.3215327804442	
2405333333.33334	-17.6584755658339	166.302489549691	-61.4868215173645	36.676187970084	-104.009786279973	-169.926454718037	-27.1338575853049	-0.360510393927615	
2405666666.66667	-17.7023671998399	165.063176195564	-62.9998009048597	36.0942519387754	-82.6057608132439	169.594974078729	-27.8496890931114	1.22015093446021	
2406000000	-17.7615418015125	163.626828736404	-62.3012220556064	27.4637491777263	-82.3042874678677	-42.78699388759	-28.5826164529907	3.31206733831714	
2406333333.33334	-17.8049397765405	162.32645779886	-62.5428502383022	24.5964400391263	-79.1657496603235	-114.213118276366	-29.3324821708183	5.96279139199259	
2406666666.66667	-17.8460093265736	160.916190265196	-62.5165752746977	13.0519470542378	-95.0522412023759	132.359201178043	-30.1330612945608	9.57478408913397	
2407000000	-17.877390584333	159.531759452395	-62.5708786310722	17.45591883853	-80.2486617685967	-51.9205157869804	-30.8249407122578	13.7737873943762	
2407333333.33334	-17.9101685659923	158.028612130896	-62.7610504239806	14.1012250765538	-92.4704112743074	-61.3244877073124	-31.4243485847607	18.8761310427881	
2407666666.66667	-17.9285603499788	156.542889272581	-62.4843202969007	2.96797696426727	-85.2120574580941	30.849577102684	-32.0218982208583	24.2638629883125	
2408000000	-17.9644886135649	155.121822023984	-61.8586123392227	4.39526426480478	-94.1917731865516	-95.9743245939013	-32.3699909489142	30.6133663154402	
2408333333.33334	-17.9712899123607	153.705740520262	-59.5605107750696	1.00943936970125	-86.4191672588128	-28.5832751115278	-32.6149319203442	37.1248355387189	
2408666666.66667	-17.9730668456099	152.122851739346	-58.7923496442513	-5.6907923800127	-80.9816286577271	133.450857218343	-32.733583245239	43.7393830756353	
2409000000	-17.9838403570356	150.641550345256	-59.1441014736795	-14.2811435141007	-77.5894862462197	-86.1979307334947	-32.5270266308914	49.8713629306679	
2409333333.33334	-17.9873405920049	148.997322962601	-57.899260332761	-27.8503682188083	-84.9378215185277	-122.320832541661	-32.2010478935909	55.7835583465208	
2409666666.66667	-17.9828449921154	147.510633192027	-56.9001040336393	-30.857777100955	-79.6736937774879	155.351344062271	-31.9357696978518	60.2642019510493	
2410000000	-17.9626961866934	145.897440091099	-57.124210325638	-41.5592621025186	-78.4397816131741	-127.634608559437	-31.5192055212239	64.2711397358924	
2410333333.33334	-17.9566360422317	144.424046202245	-56.2146290047253	-50.2016091418723	-79.561944863078	-113.495137862719	-31.047334364868	67.6041738921171	
2410666666.66667	-17.936072212228	142.925177103051	-56.538719903698	-61.2620010192089	-80.2759883504863	-83.9377513776067	-30.6226157873701	70.0579381865751	
2411000000.00001	-17.8960291279667	141.293441281868	-55.7479947533485	-69.6043332172544	-83.1578308967417	-106.273807215895	-30.1696626292744	72.0618506497249	
2411333333.33334	-17.8636657786282	139.829268728748	-55.2875166176623	-79.0203796622607	-91.2655302682594	7.88942348853516	-29.7455056762563	73.5486431226369	
2411666666.66667	-17.811009055513	138.318637047617	-55.543386403229	-90.2780761391446	-84.8108152922155	-39.413543760089	-29.3609177867022	74.5572983927602	
2412000000.00001	-17.7789617505493	136.789986146148	-55.633227583342	-98.3294842531626	-84.7752470195555	-85.2731527841689	-28.9497412737217	75.3355899650602	
2412333333.33334	-17.7221660001143	135.276590390202	-55.6121912627059	-105.153642204903	-82.6210481128163	18.1680716826397	-28.5684003554817	75.3468549353182	
2412666666.66667	-17.6637214352279	133.79482050566	-55.0432347030705	-113.801962014667	-81.4999094890815	-134.49460407786	-28.2360982567199	75.5197100973089	
2413000000.00001	-17.5971057397572	132.375194129417	-55.0062671094126	-124.800214614841	-84.1533146420042	-127.962754637427	-27.9163566489468	75.36347958206	
2413333333.33334	-17.5257114044201	130.843720404623	-55.1451388260065	-133.060405372519	-90.8333451180111	-150.154540824518	-27.620356850111	74.6978659449286	
2413666666.66667	-17.4551171522809	129.483009015592	-54.6322694214631	-144.060767287814	-94.4819166464279	-101.707615276844	-27.3125939705849	74.0825696613021	
2414000000.00001	-17.387620963902	128.100041029359	-54.5062423147307	-151.178826148457	-78.8727232473205	-122.513573787216	-27.0556736329446	73.0435589846463	
2414333333.33334	-17.3025288887521	126.710076493177	-54.5631840233779	-161.938660142569	-81.1325526899652	-89.2839237795272	-26.7990504318191	72.0624280999602	
2414666666.66667	-17.2088178373647	125.398413556556	-54.5794340703869	-170.207951699149	-82.7871540079256	-172.262622464983	-26.5758426853539	70.7305187428225	
2415000000.00001	-17.1063060698287	124.082718928406	-54.5280466080745	-178.147468999656	-85.8549470819273	-177.855910296838	-26.3380852794398	69.265170926648	
2415333333.33334	-17.0234763516458	122.78535713425	-54.0274567020453	170.692321026864	-80.7230778985496	174.802972861366	-26.1472259165989	67.6909765333784	
2415666666.66667	-16.9286823031547	121.574106845361	-54.0816843438462	162.663224912993	-82.2956776571442	-149.112885296823	-25.9762810800798	66.1455805980613	
2416000000.00001	-16.8211061036853	120.35483832069	-54.1771065338521	152.156596787381	-85.9914749444856	-68.0058534992547	-25.8115437270869	64.1428650456342	
2416333333.33334	-16.7229394307046	119.158448519874	-53.7473256607537	144.152523461272	-81.2718578148267	160.598120767197	-25.6613620242878	62.0912461109777	
2416666666.66667	-16.6320191277233	117.977645655401	-53.686120438554	134.652546364596	-81.3984621722312	59.8160216072385	-25.5253685812638	60.1474903886124	
2417000000.00001	-16.5205175102547	116.89871256154	-53.8901750330103	123.603866450888	-92.1317299628914	127.34770670612	-25.3785814002199	58.1153125198252	
2417333333.33334	-16.4233523537754	115.818225160269	-53.6638638688249	114.56110307368	-81.9506558634126	-87.1377402590618	-25.2812172120321	55.8420697229478	
2417666666.66668	-16.3151946008772	114.739775216108	-54.0559355517785	106.155005061765	-77.9608530983783	118.370899976303	-25.1549723410671	53.6748005823374	
2418000000.00001	-16.2080311250595	113.69379006609	-53.9240009885784	97.2340427591448	-93.6018391063906	125.726317341645	-25.0849538883002	51.3656632998516	
2418333333.33334	-16.1019932447674	112.65715035259	-53.7334078528108	87.1708913620733	-84.1382144721723	25.8550545082116	-24.9814812443504	48.9510965891789	
2418666666.66668	-16.0009448762249	111.672917017637	-53.8455689858464	76.6168114448266	-88.6350112829801	154.360603744749	-24.8808516545744	46.7735784597648	
2419000000.00001	-15.8886088082049	110.727236091249	-53.6465941258415	65.411753469398	-79.3710794097085	-26.4487588411586	-24.8287784449922	44.3379075487939	
2419333333.33334	-15.7908288608606	109.794654996087	-53.8704108730353	57.4111228408047	-83.1172015028727	-64.7293188891591	-24.7360074027181	41.9209486068867	
2419666666.66668	-15.6918518399449	108.929613802065	-53.949239142972	46.4768536177711	-82.2556614881574	29.3519321317916	-24.665516246687	39.6320192569639	
2420000000.00001	-15.5913325881303	107.98543932274	-54.0090156148346	37.1218296550559	-86.8443208495847	0.919241250552453	-24.6106626499434	37.0894467453769	
2420333333.33334	-15.4795500418477	107.147549177339	-54.3391033356661	25.7587230973953	-88.3319496039588	-81.4337206618432	-24.5294574639953	34.7610048451104	
2420666666.66668	-15.3852163577705	106.318777554129	-54.4280721113935	15.1648740954819	-88.7509627177544	18.1269808771659	-24.4673457183265	32.4407984560508	
2421000000.00001	-15.3007526702162	105.523017431095	-54.4867919436735	6.34743556889221	-82.3150753319772	49.4125369490846	-24.4019830863839	30.1698217826315	
2421333333.33334	-15.1961595237462	104.750113808419	-54.3097173465348	-6.04478130049014	-78.7254497227021	-33.5406365494706	-24.329879621149	28.0662608191509	
2421666666.66668	-15.1136549454774	103.967631587473	-54.6875402383862	-14.3949353084282	-86.1087417954816	-100.081570995897	-24.2670292306986	25.6910879384725	
2422000000.00001	-15.021231833561	103.222317849204	-55.3588298853245	-23.2794761828856	-91.4129434734286	136.360780169374	-24.1797056178362	23.6262711990749	
2422333333.33334	-14.9320915617086	102.486301295967	-55.4768247585179	-32.1755062298623	-78.0448581141561	-112.667811357572	-24.1195593182044	21.5492684801341	
2422666666.66668	-14.8480678753193	101.842906687844	-55.9097002683937	-41.2054553912568	-82.5285154373145	-59.221366581371	-24.0370077916728	19.4269836386368	
2423000000.00001	-14.7671522898081	101.176471925743	-56.3519497974089	-54.1604465508648	-80.4970321246207	-38.7560358028768	-23.9514114921648	17.4482830332734	
2423333333.33334	-14.6929527018347	100.545565555315	-57.3209317717966	-61.1098917627593	-84.0636877798151	-95.0088875415475	-23.8645094326404	15.6343767752068	
2423666666.66668	-14.6194728404422	99.9337641421599	-57.6289082856078	-67.4381775198397	-82.3467834920881	-62.4459412844072	-23.7805733527749	13.7824186141549	
2424000000.00001	-14.5418209407023	99.3616655462778	-57.9312576234653	-81.4686335023679	-82.8645235056252	2.18830497500284	-23.6942841699226	11.907866743807	
2424333333.33334	-14.47150744073	98.7271604519045	-58.6462275287998	-85.1428107482018	-85.4967917484305	114.535801697811	-23.6127979481709	10.2698606554644	
2424666666.66668	-14.4066858990275	98.1719659023629	-59.2560475491988	-90.8984172075122	-83.7979887058049	-90.7221304319315	-23.508117789593	8.65979163896673	
2425000000.00001	-14.3412199352609	97.6514362208802	-60.2384733101672	-99.0792517789545	-87.0252501738762	-160.341477539541	-23.4426883839835	7.15281637694234	
2425333333.33335	-14.2756683697498	97.1465371524647	-61.4425015315012	-102.998094059536	-86.9857581362422	76.8186104114731	-23.3559967675287	5.76922926739702	
2425666666.66668	-14.2156163625622	96.6266878439297	-60.7947250368967	-114.005111719771	-90.8847380170221	-93.1033348078639	-23.2449706106362	4.28769226612061	
2426000000.00001	-14.1610637136107	96.1760118042107	-62.9554859441614	-107.431684435471	-79.9045717316776	-51.6686623174396	-23.1569132147923	3.09059148127012	
2426333333.33335	-14.1025020371115	95.6824977610495	-62.0859571100149	-123.228336106153	-83.8814792699793	-118.055483417863	-23.0718452342943	1.88013784140969	
2426666666.66668	-14.0508290569782	95.2807681455864	-63.1375573899756	-119.476473841963	-78.6376158299491	-9.95582979619815	-22.9979867021331	0.790318282817848	
2427000000.00001	-13.9958072319136	94.8541275173865	-62.3823382727452	-126.989205948447	-83.2079357332759	0.401546366513574	-22.887565273345	-0.316868631366362	
2427333333.33335	-13.9491596450775	94.5198364367933	-62.4723426662564	-129.075006101915	-83.7567759700933	-127.365476218708	-22.7895276779705	-1.08441446829765	
2427666666.66668	-13.8954492462372	94.0828210396512	-62.4652743896032	-130.653667099567	-90.535439614607	-91.2845559009073	-22.7067958605639	-1.94883808502347	
2428000000.00001	-13.8529715172009	93.6727962631075	-63.8635381575995	-136.953603529427	-83.5230425414687	-175.960152887691	-22.6051034999933	-2.79865830603711	
2428333333.33335	-13.8049476962608	93.3383965962957	-63.8603866096215	-141.29504341921	-84.4527873686129	11.3293746533308	-22.5097975886712	-3.48497745530056	
2428666666.66668	-13.7651799239675	93.0322537577056	-64.3878999204136	-140.927615839897	-81.070942053946	-160.958717880524	-22.4014360160155	-4.11905457910491	
2429000000.00001	-13.7323447469522	92.6695050405262	-62.5394374123528	-150.158318155895	-83.5107033978995	-89.9917471722344	-22.3001545787801	-4.6826683703304	
2429333333.33335	-13.6933739057913	92.380435220969	-62.6354353940173	-158.633349123699	-85.0764284700191	-177.992588333182	-22.1919831928284	-5.15352194561553	
2429666666.66668	-13.6564305568379	92.0893185470337	-60.9733102507404	-161.43075048354	-80.6177120119962	-98.1691401124959	-22.0866472616519	-5.62490750464378	
2430000000.00001	-13.6194863750474	91.7621088132986	-60.8221684850772	-171.010514250977	-86.3494338889378	53.7003767255042	-21.9888807760029	-5.95842550459657	
2430333333.33335	-13.5935966314203	91.4874517742353	-60.0220360714235	-173.879538546496	-93.4397746627866	-179.192752534412	-21.8736807120832	-6.36827346981507	
2430666666.66668	-13.557415915952	91.233767592374	-59.2895674719848	179.221868598321	-81.4064011678499	-40.1387646681911	-21.7804591796975	-6.58686200595903	
2431000000.00001	-13.5332337376031	90.9575787417988	-59.8523491106223	168.891276152379	-84.4021843007843	-85.4206140745848	-21.662883313328	-6.76969969750575	
2431333333.33335	-13.4993801051784	90.6908662563073	-59.3028707139191	158.143106160265	-94.9001252120946	-97.0405507135012	-21.5578965709884	-6.86594259473077	
2431666666.66668	-13.4726274283948	90.479523111884	-59.3856619215618	149.257252608422	-80.1295761176967	149.250314423714	-21.4406164794309	-7.07314072587724	
2432000000.00002	-13.4535689362251	90.2017731738888	-58.4124967826946	142.104930433961	-80.876030462578	-3.07431757883853	-21.3234623207843	-7.04235191319827	
2432333333.33335	-13.435311683477	89.9454358835134	-58.3476468225589	131.672312739606	-96.5224264864588	68.0431114283001	-21.1981519180249	-7.06330536978238	
2432666666.66668	-13.4043055338352	89.766322045761	-58.0858751600454	124.730773480841	-96.5085818899999	-131.461133637132	-21.0686554281404	-7.14121421405664	
2433000000.00002	-13.3865365687417	89.5024334178418	-57.857994170802	115.089963905278	-78.8813070692979	128.819540844299	-20.9366052819687	-7.21811601541647	
2433333333.33335	-13.3744225297845	89.3055356013408	-57.8909515727774	107.213096138694	-86.862205439565	71.7973178056875	-20.8161140373372	-7.16996527979884	
2433666666.66668	-13.3498693514354	89.0917811925598	-57.8114872556677	98.7525761373208	-88.5488206051233	111.169208394941	-20.6845016659009	-7.21210567142048	
2434000000.00002	-13.3245706834201	88.8815905385148	-58.1164918165058	90.9956910797263	-114.637474459974	106.299030817528	-20.5613336656245	-7.15147901947584	
2434333333.33335	-13.3124503964511	88.6649396636224	-57.9430699415222	80.414726676736	-81.2137369407575	47.4485912770406	-20.4326678700128	-7.18730949213093	
2434666666.66668	-13.2943043968539	88.4365852457833	-57.4824615724799	71.0461955738854	-83.3787894755518	-61.0856751987482	-20.3071658510015	-7.16588649294519	
2435000000.00002	-13.2830524201174	88.1973778068616	-57.9086284754981	63.6674492695759	-86.8895222987048	40.9712344633633	-20.1584622838234	-7.23104899307158	
2435333333.33335	-13.2709242380024	87.9755724494973	-58.1730557374865	51.1531551568349	-81.1000966512986	-4.25452483238139	-20.0369738079046	-7.25450708274546	
2435666666.66668	-13.2521311388336	87.7100891900023	-57.2886459631718	40.3467492249545	-82.619171101398	1.04880963712116	-19.9055398132183	-7.28071313429296	
2436000000.00002	-13.2455092741292	87.4869155784327	-58.2943727401356	38.1838393030032	-83.9829962683463	123.392310103674	-19.7833045323541	-7.32135951670234	
2436333333.33335	-13.2354568027011	87.2531073702698	-57.6950203912077	27.0084812408591	-82.1348451261002	45.4476298919416	-19.6658912525051	-7.34622078277204	
2436666666.66668	-13.2248157880486	86.9115997109443	-58.3839501353318	18.7131286494773	-86.7146195960375	55.1414005267867	-19.5549155876509	-7.57740158677057	
2437000000.00002	-13.2179427701035	86.7281704215543	-59.1858776273395	7.43805270450569	-89.6313535987853	36.8353731894969	-19.4441953349379	-7.60966879363048	
2437333333.33335	-13.2025867123122	86.4734429807821	-58.901679900309	5.63513487527892	-89.9097304482757	167.94108214876	-19.3380068332117	-7.74131189467424	
2437666666.66668	-13.2090434097227	86.1564967953588	-59.7300700907963	-0.670593313649799	-100.059605196388	-161.720689615477	-19.2271717347751	-7.70019770743506	
2438000000.00002	-13.2153201660492	85.9189070443976	-59.3829957899673	-7.0803802370637	-83.4261018653704	112.780419170472	-19.1178154773941	-7.92953305759319	
2438333333.33335	-13.1979422828636	85.6019080507075	-60.0718288695748	-17.1565721041714	-82.4661598597503	54.3058485684666	-19.0334399758135	-8.0158260525012	
2438666666.66669	-13.1907246099835	85.2608985006534	-60.3753476732437	-18.266362859336	-86.6312390736661	57.9812860253972	-18.9522300711871	-8.12831136047719	
2439000000.00002	-13.190262184135	85.0132218898854	-59.9407079175728	-22.3653537734913	-82.2408840788	-17.2328240494199	-18.88963790015	-8.40937306556602	
2439333333.33335	-13.2029586765088	84.7110953298768	-59.9409423247737	-29.5610911440597	-83.1459354203848	31.0911301382347	-18.8031091820091	-8.54457031371834	
2439666666.66669	-13.2041368529091	84.4056840336277	-59.5608447570685	-35.3992031499542	-81.9774480946129	-41.5323595051098	-18.7467268979341	-8.62930749692359	
2440000000.00002	-13.1985006585273	84.0877575086503	-59.8370582887997	-39.7787497916753	-101.225954532748	-78.9407883275819	-18.6999997064512	-8.83801390272744	
2440333333.33335	-13.2188642139447	83.7060814889942	-59.1741079766404	-50.3681206442026	-81.1410409673594	19.4810784810667	-18.6428004068552	-9.05932914026783	
2440666666.66669	-13.2341318685482	83.4386637869688	-59.3905811032803	-57.4946089703719	-89.5530733041818	169.064309888917	-18.5942242797787	-9.08139659473899	
2441000000.00002	-13.242331422859	83.0968070771287	-58.8370200382086	-60.2157433170086	-87.4345434793286	-28.5427907103395	-18.5677761904467	-9.23288458652311	
2441333333.33335	-13.2313453469866	82.6530263453499	-58.9894954150201	-67.586750066662	-90.8931869510174	7.25178006216797	-18.5409079368093	-9.27081810523314	
2441666666.66669	-13.2670864477292	82.3114031699147	-58.9287887119239	-77.2430676335863	-88.2833117429149	-13.2330179731547	-18.5027165421236	-9.43592881727647	
2442000000.00002	-13.2751357458309	81.9885958051872	-57.9647436620771	-84.5078379900789	-81.03258471657	103.153769955984	-18.5144525893578	-9.64014030834345	
2442333333.33335	-13.2915720757546	81.5963431661048	-58.1017818831592	-96.7993112077118	-89.6031028348755	156.749333770232	-18.4969382646898	-9.6847511306763	
2442666666.66669	-13.3082313846974	81.2029353635263	-57.0385438299998	-102.909393996633	-86.3441133252199	6.14103612842828	-18.5101530497514	-9.74832211070884	
2443000000.00002	-13.3359909924128	80.7705422731626	-57.2649150766394	-110.339669061793	-96.5542755019236	95.0002075819705	-18.4983543738425	-9.79583983320058	
2443333333.33335	-13.3518615036112	80.4242386579209	-56.4411299301103	-116.805406024733	-87.8049852059614	174.853871595411	-18.5370807598652	-9.80698045822927	
2443666666.66669	-13.3811575226373	80.0387785912767	-56.5243396651726	-127.568041420451	-86.7885035460481	-135.287531995047	-18.5578847511094	-9.8896714399167	
2444000000.00002	-13.4049920303491	79.6209021677314	-56.4206278932394	-135.420649965365	-83.6401595824873	93.872404870557	-18.5892483727434	-9.94797227123042	
2444333333.33335	-13.4224459370461	79.2359531670457	-56.1701278456959	-146.028738621209	-87.343499227964	168.234525226888	-18.6384369245515	-9.75538382876147	
2444666666.66669	-13.454142347018	78.7774145042802	-55.1996955408124	-151.608874364508	-84.7673221808919	152.954036076176	-18.6751708463197	-9.85005770755219	
2445000000.00002	-13.4879376868028	78.366463478987	-55.6982585676933	-161.75295391256	-80.7235122530452	127.480692719619	-18.7424535679429	-9.69814130087899	
2445333333.33335	-13.5165079560597	77.9000490034898	-55.3249631314907	-168.439625333711	-83.0716251314755	108.055255781187	-18.8173315772322	-9.60665370681431	
2445666666.66669	-13.5569483558431	77.450117248527	-54.9827215889084	-175.286493384555	-82.4147952887216	148.025660749847	-18.8874609026269	-9.38652986970157	
2446000000.00002	-13.5850202669078	76.9788164973415	-54.9495018036489	172.57133938702	-88.0148849194033	-171.026379912615	-18.9638999367569	-9.20377894434372	
2446333333.33336	-13.6262483032604	76.5650606968216	-54.6331478562239	163.420590584237	-90.0104629259394	117.54966901795	-19.0519697258049	-9.02592291816622	
2446666666.66669	-13.6572709079877	76.0834209167862	-54.6711937476142	150.520985743663	-80.6458601714305	118.734556732523	-19.1449906914862	-8.68594130582108	
2447000000.00002	-13.6966397935297	75.5837505927449	-54.3015966620773	142.737358682625	-86.3790399439376	128.372142730722	-19.2472053051064	-8.27287085072164	
2447333333.33336	-13.733183989726	75.0922755176942	-54.3350852676097	132.002257485018	-82.1641556303315	146.82319942043	-19.3404422043444	-7.98921941024287	
2447666666.66669	-13.7618309369711	74.6194198556737	-54.1386376472219	123.395964518052	-93.2880076453872	-145.569135775666	-19.4869850773944	-7.35087718515079	
2448000000.00002	-13.802143935856	74.1237729855549	-54.4638819557242	113.523635646716	-86.1236437054998	87.2587840762751	-19.5923001904944	-6.91017052051709	
2448333333.33336	-13.8348315184311	73.6852448440721	-54.3367427795344	100.404914968588	-78.2826374634173	134.767785873021	-19.714454718795	-6.25346222713505	
2448666666.66669	-13.8600463934611	73.1747427909179	-54.8149605784082	90.5196977554738	-83.7979600291684	140.467399143247	-19.8580048577464	-5.60687703340182	
2449000000.00002	-13.8993890700733	72.6242296125387	-54.7245847212592	81.6189887458594	-79.7787439330281	-161.836408884023	-19.9900812813651	-4.5975540467222	
2449333333.33336	-13.9395748869422	72.0632461710368	-54.9785249799476	73.0661098033702	-87.0754571492996	45.796355172285	-20.1024093341131	-3.71459191203592	
2449666666.66669	-13.9768772354415	71.5992507704315	-55.7980272871938	61.8301477547803	-79.6853275042751	95.1780421001133	-20.2410516539877	-2.82472802013072	
2450000000.00002	-14.0149505694	71.0020016845936	-55.385216440431	55.6744590305611	-98.5136660557647	-27.2882333169942	-20.3479760967987	-1.60417806364869	
2450333333.33336	-14.0715098149747	70.4206627750229	-55.5983460793138	49.6267980387521	-78.4018787968481	104.807644452003	-20.4722395257656	-0.546141146782712	
2450666666.66669	-14.0916334266304	69.8434118207305	-55.9846204334974	40.0411303481459	-80.1540385797343	-160.928150101222	-20.567194615262	0.792060538395737	
2451000000.00002	-14.1186090456637	69.3098394146939	-56.0571866612072	31.2256343781868	-83.9524190437726	96.7118366165715	-20.6948304385448	2.06679296339478	
2451333333.33336	-14.163936927678	68.715513486398	-56.455437585764	24.3545304021961	-85.9818764923628	120.074352470048	-20.7888315860549	3.4279858225293	
2451666666.66669	-14.1859240171144	68.2334760594898	-56.1755764635568	15.2387382154906	-84.2291448412829	-57.4470330877492	-20.8745185838878	4.82269551375167	
2452000000.00002	-14.2152928679335	67.6009737191859	-56.3169045664673	5.05264014445289	-83.9754942065665	-4.68890439666514	-20.9166071043449	6.34544354295625	
2452333333.33336	-14.2401481321129	66.9817239738468	-56.2549478046385	-3.40982416111808	-83.9773961743151	2.29880136593592	-20.9807008384402	7.91275648416814	
2452666666.66669	-14.2626301018934	66.4278616504819	-56.3119737951173	-10.6358887142634	-84.3247253342872	82.5366434595002	-21.0349529854931	9.50025807628569	
2453000000.00003	-14.2966499101996	65.8699500087238	-56.6127550948905	-17.2614161005854	-86.2734925870392	-108.144497039436	-21.0693091696113	10.8982938975706	
2453333333.33336	-14.314041453585	65.2230725031078	-56.1674153262157	-23.7152746162872	-79.6455084594662	-72.460976347486	-21.0842774236045	12.6020887513826	
2453666666.66669	-14.3461801098291	64.5795025461421	-56.0996388699982	-35.7576387453419	-78.6244850553643	91.5933367773816	-21.095226064199	14.1218776452337	
2454000000.00003	-14.3591519472641	63.9642270622976	-56.2269447608375	-46.6505395445717	-84.7214335125477	103.151328476252	-21.0743199143688	15.6946811660871	
2454333333.33336	-14.3658903790709	63.3021843375326	-56.0811182895596	-54.9113670184984	-83.1463129227471	-3.73083170290149	-21.0609728143408	17.2215700540683	
2454666666.66669	-14.3814463969828	62.8226537948161	-55.8979399963532	-65.9013018358055	-82.4002252682382	-107.445496592307	-21.0228873347717	18.6602856907582	
2455000000.00003	-14.3811901053249	62.18408599889	-56.5503667800097	-72.9342644151887	-90.7262523691744	-1.12613883472298	-20.9755393398642	19.9183423466723	
2455333333.33336	-14.3954558384748	61.5889643457621	-56.7165670189936	-81.7120569199738	-84.0631362620934	-173.223597941708	-20.9233675300368	21.4101396039097	
2455666666.66669	-14.3941292190442	60.9045005858869	-56.8336289592984	-86.2895050823014	-103.612920605187	-107.494060230418	-20.8674845154166	22.6763456575233	
2456000000.00003	-14.3890961118172	60.3163173325536	-57.4147401636451	-98.1914127378762	-81.9574769608589	82.7929075227377	-20.7982968828212	23.8287596312788	
2456333333.33336	-14.3925963855322	59.6510422615712	-57.5410440181571	-102.934682009157	-94.0339710368242	-36.9591892275432	-20.7164886825373	25.0137983708854	
2456666666.66669	-14.3884894333604	59.0604269121713	-57.7215596345182	-115.765503946548	-80.3510936334202	-177.231529091979	-20.6315742502716	25.916375166032	
2457000000.00003	-14.3726470192426	58.478580257042	-57.407512533961	-121.160423800742	-81.9611650641914	-118.991386501006	-20.55738928343	26.8749280310611	
2457333333.33336	-14.3718185540669	57.9321436081481	-57.3345522502803	-125.437782373142	-91.1141566026666	174.292264834822	-20.4917477672267	27.8245697543537	
2457666666.66669	-14.3459539350858	57.1899236560234	-58.0081114284842	-128.493632893887	-88.6754712271714	158.253360991225	-20.4016719302896	28.5116282150185	
2458000000.00003	-14.3271679027435	56.5794051781398	-57.5614131441483	-135.921327232553	-90.4597914258898	-149.229214604721	-20.3025719027901	29.2627155850465	
2458333333.33336	-14.3064339541017	55.9441395955898	-58.1608604004239	-141.317467422727	-85.0178473747326	-126.353598806691	-20.2470324000702	29.9492737710076	
2458666666.66669	-14.2819215883457	55.3429923283761	-57.7465187586474	-150.781091507678	-111.00512330648	-37.0708183055909	-20.1545827770717	30.5430345043167	
2459000000.00003	-14.2647613938025	54.7347091201628	-57.1891916564022	-158.078185670109	-82.912233314938	176.042072616889	-20.1001176216838	31.0631894286312	
2459333333.33336	-14.2247638499915	54.1243497155766	-57.0289378333254	-164.259364513053	-91.3777201385863	-2.62165244259565	-20.04783853406	31.6677614590824	
2459666666.6667	-14.1986985084489	53.5040962903604	-56.8183193415666	-170.463963407754	-85.0435897145059	122.932558550692	-19.9952010824402	32.0912335088646	
2460000000.00003	-14.1656278067163	52.9150280998599	-56.8486860650506	179.004024004898	-81.5252368898744	-144.552190368123	-19.9208188409921	32.3838684767598	
2460333333.33336	-14.1237874961652	52.2764346502269	-56.7263229866478	172.09184495096	-75.0652281213614	-167.735600444534	-19.8901824458566	32.7374893260545	
2460666666.6667	-14.0888681607303	51.6409527855451	-55.965643198669	163.204341166465	-85.0872281093221	136.325005450631	-19.8239984219757	32.9789398790515	
2461000000.00003	-14.0521770552381	51.0754468350195	-56.1079905705431	153.45979316218	-80.6135770333807	-170.332988015884	-19.785873997194	33.3375452625095	
2461333333.33336	-13.9992789624982	50.5059217699822	-55.799866374718	145.086931863887	-83.3618598964736	-110.788851826261	-19.7311463415456	33.5413495827233	
2461666666.6667	-13.9562052093758	49.7813347293666	-56.2425787878079	137.742736353561	-84.1244410928927	-143.083930947241	-19.7114835215862	33.7555181991197	
2462000000.00003	-13.9120524594227	49.2883242330947	-56.0844702857686	126.89881947546	-90.7020051304825	172.868913914738	-19.6855731524358	33.8807061551611	
2462333333.33336	-13.8715076025343	48.7323292887339	-55.4882158590847	117.487785052361	-88.0608153738747	156.530067231782	-19.6551188427998	34.0151450806061	
2462666666.6667	-13.8112277857097	48.0969078466217	-55.8300655057893	107.119852549292	-94.8602425562138	114.247475899309	-19.6243721581026	34.0549518129181	
2463000000.00003	-13.7573699652412	47.5029528301661	-55.6536484812844	97.4284142879653	-78.404770875421	-168.778877922754	-19.5880071466024	34.1202236175604	
2463333333.33336	-13.7020665641584	46.9804167516248	-55.8283574305469	91.4887994548978	-85.1672473312099	132.444161994975	-19.5719825067859	34.1117862003501	
2463666666.6667	-13.6496966127541	46.3919504516658	-55.576443451815	80.6171776776291	-82.7570250498377	130.425026906058	-19.5678883346764	34.1640849489115	
2464000000.00003	-13.5894986517865	45.8516718727659	-55.6388422525299	72.5920401978121	-84.443659866222	-177.053907735112	-19.5541729748886	34.0303649564315	
2464333333.33336	-13.5411377061917	45.2974144141948	-54.957809127195	66.3399398819411	-81.9964288686155	-54.8142343629729	-19.5496841796767	33.9325106369726	
2464666666.6667	-13.478111881489	44.7050745258124	-55.2108863969009	54.9767663525027	-81.9126430973618	29.2492716467349	-19.5369536494758	33.7787593455498	
2465000000.00003	-13.409896218207	44.1708927245084	-54.5633301228876	44.1147547683046	-83.9675894345991	-178.855148083783	-19.5378467190617	33.5201361868516	
2465333333.33336	-13.3554178022107	43.722417786955	-55.0225701034564	35.6062392980869	-88.6681703043865	23.5465889299009	-19.5305174839397	33.3304471560239	
2465666666.6667	-13.2909752389619	43.1766879514844	-54.6534146009615	26.1833266744649	-80.610716232282	-121.074875571451	-19.5485009760936	33.1515616289083	
2466000000.00003	-13.2340916292315	42.6397311474346	-54.6894648649543	16.0192183360357	-86.9854919430915	-178.645463172207	-19.5609227781381	32.7324644899648	
2466333333.33336	-13.1713890995509	42.1501327523911	-54.2881880638926	2.56834355895733	-83.1531791040292	26.9279126655849	-19.5768128742583	32.3636885333278	
2466666666.6667	-13.1048498522908	41.6447479833378	-54.4158552983592	-6.26202774820532	-81.3695128876213	-142.390203661087	-19.6111688336973	31.9176325723428	
2467000000.00003	-13.0438235446185	41.176089553069	-54.4656037745902	-16.9051924189896	-94.9986388335706	-100.465142515405	-19.6291605392784	31.4878778318456	
2467333333.33337	-12.9807850202258	40.6889505499087	-54.2747152054286	-25.8675394224589	-101.49928960869	61.865772936805	-19.6570166510363	31.0344147189986	
2467666666.6667	-12.9141532470145	40.3148344104098	-53.7463069788979	-37.652105782216	-81.9527148331612	-45.2543864068981	-19.7023530601501	30.587784097366	
2468000000.00003	-12.8475484479017	39.836320481563	-54.0843237818063	-46.8459601543968	-86.0094789340428	-106.600667133667	-19.7678173836623	30.0634061923918	
2468333333.33337	-12.7865432837124	39.422730073257	-53.9523508112773	-58.1740888259789	-81.0459309027433	-123.820877515618	-19.8197291330913	29.4451691954615	
2468666666.6667	-12.7244181213789	38.9717085140732	-54.2280901950464	-69.6444217445009	-83.5073296727881	-75.4983928563011	-19.8911798448688	28.9133876729708	
2469000000.00003	-12.6486304228447	38.5640928143185	-54.1838801780774	-79.3344761880008	-88.1712634154926	-89.716708882875	-19.9235603778178	28.3499388240027	
2469333333.33337	-12.5867685362922	38.1812687037161	-54.4037770071308	-90.6403148410981	-85.2499405887302	134.375090222661	-19.993195969804	27.6617921809279	
2469666666.6667	-12.5269357942288	37.7696273124492	-54.3692627655529	-99.6199044872633	-75.936492260675	-137.704012089913	-20.0765965434029	27.0426744891516	
2470000000.00003	-12.4576864739442	37.4083791757037	-54.5218955714688	-110.28025480811	-80.0375051111596	-91.9838239423952	-20.1296572180265	26.2515280728048	
2470333333.33337	-12.3949957396209	37.0099408067852	-54.6506125232447	-122.073431922029	-76.6815012148973	-142.477380318947	-20.2286616607022	25.6158635579443	
2470666666.6667	-12.3304608987387	36.6479622829332	-54.6208397147947	-131.161035402251	-87.9518353972078	-91.4110882811263	-20.3108320994217	24.902940693048	
2471000000.00003	-12.2683328897378	36.31498339974	-54.9529963461553	-141.825170908065	-87.7058631203969	-111.254937968286	-20.3795864459055	24.2118040098348	
2471333333.33337	-12.2020806006101	35.9516356005105	-55.5214151825561	-152.689883420189	-79.5442406961587	-166.515737682888	-20.4871579143045	23.4377128698265	
2471666666.6667	-12.1429588048996	35.646321527954	-55.5415736668995	-161.450772084651	-84.1708496539251	178.111150832346	-20.5655072376289	22.7447007350917	
2472000000.00003	-12.0759590817211	35.2718199342988	-56.0975735866617	-169.616413474173	-82.3633192236936	-130.24811973777	-20.6661081731776	21.9748166619802	
2472333333.33337	-12.0109305438966	34.9344092189269	-55.7779103316828	177.791143989561	-85.1397226875788	-108.197426263919	-20.7410880573968	21.2085500591446	
2472666666.6667	-11.9564003306434	34.6864291015337	-56.2107917225685	170.170527865886	-81.147110046646	-162.121428859194	-20.8429185893506	20.4319137511677	
2473000000.00003	-11.896330047524	34.3191338192004	-56.3781075502533	155.652629003775	-101.626066259696	-127.721926897746	-20.9268152714894	19.6953557675584	
2473333333.33337	-11.8348361342148	34.0218646889883	-56.658870866682	148.760987481153	-86.0222223341582	143.742620060551	-21.009154286343	18.9302916935654	
2473666666.6667	-11.7715732841781	33.6855061471131	-57.4085235375839	137.694123842944	-82.0032185221613	-7.69789509933069	-21.0790669270405	18.097420849882	
2474000000.00004	-11.7179452429969	33.3935811394772	-56.9073908004803	123.002584353545	-84.238052708298	-177.139936993337	-21.1722959704443	17.2602907795891	
2474333333.33337	-11.6603983970891	33.1136295189943	-57.3244155601623	114.136881275957	-80.2766595505642	-129.303591914748	-21.2189949501089	16.5245449824696	
2474666666.6667	-11.6056524870771	32.8386920193773	-57.9351072201634	107.040821783916	-78.1746156915744	-8.23488867241919	-21.3007608161142	15.7045194970246	
2475000000.00004	-11.5488226320448	32.5159128908543	-57.6811213333234	95.5441854419284	-78.8306589081235	-26.8295771929789	-21.3397289982336	14.8365162066322	
2475333333.33337	-11.4986078252684	32.1895330903915	-58.0263673084334	85.2774044108586	-86.4098019906872	128.071431413669	-21.3942700009769	13.9705040005026	
2475666666.6667	-11.440332558587	31.9523915048463	-58.2625971479842	70.9124484111447	-91.0558731901343	-71.8784664967554	-21.433219079462	13.2369117146833	
2476000000.00004	-11.395176830534	31.6337877024661	-58.6565813109437	61.0148742478554	-82.6896019095782	-4.88734951295982	-21.4660765404146	12.1161926646433	
2476333333.33337	-11.3441272028999	31.3916594340885	-58.7333412484229	53.6486938333343	-86.3040598658221	-46.9378020087307	-21.509856476247	11.2035760076977	
2476666666.6667	-11.2967254755886	31.041377874781	-58.5532761066297	42.5449204260965	-79.8444129957895	38.0470713410169	-21.5344542069714	10.1053670309343	
2477000000.00004	-11.2469395324891	30.8001623171063	-59.3933982890846	30.8543114682255	-86.4509457399761	117.614610004293	-21.5486575058152	9.22116501400938	
2477333333.33337	-11.2051056978799	30.4949801568717	-58.7940391586967	23.1769839346697	-84.9005929170768	65.105912268402	-21.5416635466134	8.19800341608529	
2477666666.6667	-11.1576015744677	30.2134783612459	-59.5293869746704	10.9525504452614	-88.1370938402787	-141.543034474828	-21.5490657874496	7.03329290641068	
2478000000.00004	-11.1140857188669	29.9382594199015	-60.1521459300805	1.47667029500302	-90.67367450589	-17.2088528530662	-21.5224348303198	5.96721349791861	
2478333333.33337	-11.0738241504589	29.6773994024498	-60.3074083959383	-7.92865301109485	-81.6784115439759	-65.0178174324359	-21.4986037442079	4.87301120155275	
2478666666.6667	-11.0334986485266	29.3721676312653	-60.8398111030528	-16.8974420664042	-88.318898189547	166.430418159161	-21.5033206472462	3.65936622122711	
2479000000.00004	-10.9976613594232	29.130355495024	-61.1258255383368	-28.2406818276211	-89.7444956422533	-174.56307431008	-21.4726097684504	2.45803869199254	
2479333333.33337	-10.9637140661659	28.8329341429116	-61.7610651110058	-37.2855833033821	-84.8486623143133	11.8926506402865	-21.4416100492093	1.20392052769412	
2479666666.6667	-10.9274259933303	28.5142400196485	-62.0038450647884	-43.6588586016009	-80.6131574164525	-115.427162233171	-21.4169790502119	-0.0320473427122359	
2480000000.00004	-10.8911293102957	28.2307974943156	-61.5610312446422	-57.1609468462134	-87.3485268760407	45.296359564752	-21.3619927850749	-1.36212469836062	
2480333333.33337	-10.8601942733693	27.9682006884843	-62.3393300812399	-64.6442660393894	-84.3873595499548	-19.6993130455353	-21.321510742946	-2.51630160010406	
2480666666.66671	-10.8357858651131	27.6238176780756	-62.3461562396664	-69.3111320523531	-81.5862716313124	-12.4159221375789	-21.2612353581621	-3.77605056988779	
2481000000.00004	-10.8038927751874	27.3282260301614	-62.7057243128617	-77.6295548845326	-82.3612067527567	-42.0704276219018	-21.2236470084677	-5.0798398205433	
2481333333.33337	-10.7631699186773	26.9957040591544	-63.7920263965183	-87.4211980136213	-92.3160528785159	-54.6227198928434	-21.1630406023797	-6.31677197628314	
2481666666.66671	-10.7499223247286	26.7377329986035	-63.0917557101083	-92.0158389350722	-86.7287322381352	-176.419153457667	-21.0972664678203	-7.67787894567956	
2482000000.00004	-10.7167480888628	26.4583856153183	-63.3234439309962	-104.328561079017	-78.2786250864629	33.1384976560384	-21.0428177296403	-8.89208128347897	
2482333333.33337	-10.6919613514244	26.1182244846155	-64.100745374087	-114.323136734998	-85.3884044763638	-36.793292565182	-20.962698468187	-10.2116682753015	
2482666666.66671	-10.6687740218135	25.7905996636537	-63.7519883045195	-118.71584813291	-82.3683000819907	31.4153345069546	-20.889104191898	-11.4774062370666	
2483000000.00004	-10.6569934101819	25.44617107655	-62.8899147765181	-127.645239900256	-86.8215531538012	-89.0149655891435	-20.8277943101827	-12.617278523644	
2483333333.33337	-10.6330387999893	25.2122831791659	-65.0192442350659	-137.015429197947	-88.8611468973358	-28.0368486506119	-20.7498850996926	-13.8466320112413	
2483666666.66671	-10.6171894352255	24.8847776614543	-65.335065621852	-147.605285797586	-87.5871898692347	-57.1183116393317	-20.6699126356437	-15.1506303586306	
2484000000.00004	-10.6064095468196	24.5337090067793	-64.1745949191708	-155.350552041462	-84.7013038784692	-36.5587174700734	-20.6074456514899	-16.2729240186183	
2484333333.33337	-10.5869451454564	24.1491430158389	-65.0443391666934	-163.824982929131	-90.9989337439163	96.4258245627478	-20.5353887780194	-17.3763498458693	
2484666666.66671	-10.5714689293548	23.8561097887392	-65.6612711620647	-176.835844011827	-84.4039553598309	126.216422597453	-20.4649516036266	-18.5207417597054	
2485000000.00004	-10.5707632307032	23.5106915353413	-65.255802771161	172.481313847108	-92.0263511741738	50.3325919903808	-20.3884704271057	-19.5819334004401	
2485333333.33337	-10.5579496482574	23.1005039233277	-63.6577319539871	167.696736430093	-87.0967047947416	6.36304893452773	-20.3054373789929	-20.6625425355824	
2485666666.66671	-10.5529417376347	22.742171157357	-65.1405209279073	165.672056696337	-89.8801585072457	-139.63966781629	-20.2426133728207	-21.6815999975102	
2486000000.00004	-10.5454264561002	22.3578971034733	-63.7368830865025	156.554313970697	-89.6026479462344	-113.999420547725	-20.1773543023037	-22.6697658005585	
2486333333.33337	-10.5513013532762	22.0790671306595	-63.1246755910889	141.803520869882	-88.9967641319433	-8.29447287305	-20.1059366892744	-23.6009685635763	
2486666666.66671	-10.5448876283986	21.6903418294715	-62.338901694914	134.460868874594	-83.7573412843416	5.72458772039236	-20.0605823779435	-24.6109047637484	
2487000000.00004	-10.5449597334094	21.2749323013959	-61.7572170368469	123.188124868973	-77.1561176793755	-37.4278357330744	-19.986230318332	-25.4010386537386	
2487333333.33337	-10.5533020355333	20.905390268562	-61.4046100204238	106.840216591458	-94.8463802704473	35.4248578457702	-19.9316945743922	-26.4075274504439	
2487666666.66671	-10.5621597187083	20.5298958746073	-61.1409668550165	100.936842442016	-86.7784495664601	-20.7113480026338	-19.8832255712885	-27.0935880869615	
2488000000.00004	-10.571998141816	20.1027886557611	-61.4669744949816	95.2506838786091	-83.0137197079064	-16.9068507615921	-19.8327285450442	-27.90502435827	
2488333333.33338	-10.5817470727189	19.7489899988812	-60.8955828493712	84.6570616902323	-100.941691342125	-152.715328669926	-19.7796024537993	-28.5740060595647	
2488666666.66671	-10.5823480703932	19.3692195242035	-61.2737580103543	68.4221142743295	-85.4877484615293	67.9491915742015	-19.7320356965824	-29.264657418731	
2489000000.00004	-10.6000560150417	18.9561170800981	-60.5320574771832	61.2930185757749	-82.4122037765136	-52.8254024577013	-19.6887930998019	-29.8737675951783	
2489333333.33338	-10.6052016318178	18.5025466191688	-60.120069100819	51.6865869685058	-87.5668916947561	-91.2897777368656	-19.649291548811	-30.5217364030592	
2489666666.66671	-10.6219377468816	18.1138578516598	-60.666830790718	38.6308079704492	-78.9055726104668	48.1073110298215	-19.6086252602402	-30.9303255968878	
2490000000.00004	-10.6395057510461	17.65300172823	-59.9946938080567	26.3899465307032	-103.499904591403	26.2683172665082	-19.5661289190799	-31.3372376340437	
2490333333.33338	-10.6678666589754	17.2216941409365	-60.007331686772	19.8296045884714	-86.2069833607367	26.6108995723154	-19.519797896305	-31.8389652360929	
2490666666.66671	-10.6860020447429	16.7501814989578	-60.1552759579478	9.50311406647505	-86.3389757735041	-57.4676750532199	-19.4989820492488	-32.243794576244	
2491000000.00004	-10.7147527206273	16.3011087586006	-60.2412563622649	1.26000955708929	-85.9494508500253	-173.162161027401	-19.4584530947347	-32.5128119401969	
2491333333.33338	-10.731700033241	15.8408064189257	-60.7366332311829	-13.7430285962712	-80.7680719077908	-74.6499819681687	-19.4257859645467	-32.8403757450752	
2491666666.66671	-10.7726813827804	15.4030976721488	-60.4059073397938	-23.0928711814151	-80.5791952429608	41.5405335131448	-19.3837689911135	-33.1219697760867	
2492000000.00004	-10.7894882326823	14.9144111497603	-60.0467169473465	-33.6948525075728	-91.014664999042	70.981128230544	-19.3478311342085	-33.3179618328788	
2492333333.33338	-10.8185937897648	14.4472131346752	-59.6671691169953	-44.988609152774	-102.960216043858	103.455336520899	-19.2971651479152	-33.5620362237016	
2492666666.66671	-10.8490010414344	13.9231089323926	-60.2267172435316	-55.6898655883623	-87.9788619497067	21.8610324431044	-19.269592380293	-33.7497363766976	
2493000000.00004	-10.8872046747105	13.4480539151953	-60.4625912230712	-59.9294746530746	-79.1634378488191	70.0788838471623	-19.2420350186605	-33.9896862747183	
2493333333.33338	-10.9183975599642	12.9597903688759	-61.3332185405881	-73.4294299124459	-80.9134533870231	-79.1422434200117	-19.1973385539117	-34.1492237636358	
2493666666.66671	-10.950454650015	12.4462895931821	-60.4487230277442	-89.0947331684786	-80.1503618915604	30.0897333764848	-19.1652156084646	-34.2419108646258	
2494000000.00004	-10.985743332436	11.9601871401486	-61.472439356974	-96.7297275182324	-83.3599171650285	79.5512817903906	-19.151542511165	-34.4756429564489	
2494333333.33338	-11.0232156056843	11.444587421286	-61.7480825713525	-108.232336021302	-85.2710029252582	-32.7341030601387	-19.1319804482195	-34.6432292834226	
2494666666.66671	-11.0584222519809	10.8645476477938	-62.0742879534745	-123.185781333255	-87.429230567196	-28.2513437449684	-19.1035938105574	-34.7818697192075	
2495000000.00005	-11.0988331134223	10.3744884480066	-62.0962503722358	-127.638091290128	-91.145750476907	45.5729486139102	-19.0820954979222	-34.7576044254826	
2495333333.33338	-11.1404138447406	9.8096179317688	-61.9623675385078	-140.328786646941	-79.5723279838318	-52.2004027205246	-19.0837044122472	-34.917978068594	
2495666666.66671	-11.1782737492552	9.31674635609017	-61.6335739655378	-147.074293221909	-87.6105766989773	140.444352167588	-19.0598408700193	-34.9488199161858	
2496000000.00005	-11.2169871182587	8.74704653869089	-62.4153948867173	-157.738827648957	-85.9639951596933	76.5195573604534	-19.0770941610078	-34.971457067142	
2496333333.33338	-11.2672876061132	8.24249978144428	-62.7874558754725	-167.719944659113	-86.1883854922587	-140.255563345886	-19.0722483153124	-34.9620735892611	
2496666666.66671	-11.3031719518487	7.57133416408669	-62.4004891714215	178.676822818682	-80.8922651171395	-19.4555792321852	-19.0851191342249	-35.0160557940508	
2497000000.00005	-11.3555004987081	7.0264017166747	-62.6620212292592	164.516499947305	-96.4039785537369	-91.3557441196495	-19.1114920047081	-35.0078613497517	
2497333333.33338	-11.4032048003602	6.46178896784464	-63.5758541128188	163.261432375945	-80.2838902996399	-71.7922020747094	-19.1283549667406	-34.9643496594487	
2497666666.66671	-11.4392145598789	5.84072066989112	-63.7751067341665	153.186297835	-81.3517559970485	96.2874144870194	-19.1425177238682	-34.9526941824715	
2498000000.00005	-11.4811990181493	5.28689505155344	-63.7847455580608	145.006939646672	-84.2912730208327	22.8999421221018	-19.1719881235803	-34.8199671847972	
2498333333.33338	-11.5194410738633	4.64490704319376	-64.0196700072543	135.201032220549	-92.4463972890785	-149.722337290568	-19.1988890394548	-34.6245886450086	
2498666666.66671	-11.561559657757	4.03726468016857	-63.7748167543272	122.279329988823	-80.7199751072874	179.636736684424	-19.2300624389554	-34.4874086614493	
2499000000.00005	-11.605644737671	3.43399643397624	-63.8149160298751	121.806671028646	-88.7860932173336	1.56357975201724	-19.2878166450349	-34.2741378762959	
2499333333.33338	-11.6473178663978	2.7874996993227	-63.3542717229215	118.994332491593	-89.3517444896591	-34.4605792111586	-19.3366914289562	-34.1855872767375	
2499666666.66671	-11.6957930273143	2.15744831596128	-63.1608475696943	115.207460369541	-86.5112539504139	37.7013799465722	-19.3817091225534	-33.8610774264959	
2500000000.00005	-11.7335915915064	1.48424550348428	-63.3716448554704	102.180269404757	-86.6791135565258	148.670581938458	-19.4383696734999	-33.5189798295291	
2500333333.33338	-11.7750101051482	0.844289386153544	-64.7772222912938	98.427051980499	-86.8036064008305	40.5495392337897	-19.5177134573233	-33.1900030582618	
2500666666.66671	-11.8216050479543	0.190828504113297	-63.6418417764801	85.9948142595354	-82.5916462021462	2.04331859421308	-19.5804814695683	-33.0698300434619	
2501000000.00005	-11.865139627647	-0.501493859719582	-64.1201922686861	79.4705766526092	-81.0531292996184	120.316827431233	-19.6562254503797	-32.5590434753827	
2501333333.33338	-11.8989473990093	-1.17396938078665	-64.2850864050128	75.4949845596669	-88.937114480538	162.932179757983	-19.7344141332766	-32.0539254966701	
2501666666.66672	-11.9396494789864	-1.9636396632153	-64.1153125598415	66.8047889498938	-85.4886685833418	121.596698936995	-19.8019748721373	-31.6690643239136	
2502000000.00005	-11.9831867402093	-2.61131520652442	-63.7948597872446	45.9355587670793	-79.5745403598726	44.8503282778502	-19.8904453749891	-31.2277710064229	
2502333333.33338	-12.0235893365555	-3.34799358717896	-64.1384882438439	45.4288231466991	-82.1321480848582	64.3229294664668	-19.98233417421	-30.6041886436572	
2502666666.66672	-12.0510004801669	-4.07607430380605	-65.1257711614771	31.9667410757458	-87.5794404382131	43.9373953540989	-20.0761857228318	-29.9600689937079	
2503000000.00005	-12.084123941079	-4.79953230907013	-65.2291791885323	34.4088864267641	-85.2487229019262	105.963263530724	-20.1640427297167	-29.279118986145	
2503333333.33338	-12.1166056694594	-5.56713697745244	-62.9339617089171	23.3898376309509	-111.977067625492	-52.1683254734685	-20.2740299849359	-28.5551021873596	
2503666666.66672	-12.1565715071538	-6.31924647544016	-65.560944634363	12.6079229964439	-80.9142332899703	49.3752609077858	-20.3680834782927	-27.8946342407522	
2504000000.00005	-12.1820688600168	-7.06119516106686	-66.2231455376293	2.88786961097908	-82.0527784727575	82.6789646586761	-20.4707311353773	-27.0518076646897	
2504333333.33338	-12.2103692479291	-7.84401642434382	-65.5235147654004	-7.81519688732361	-88.0988398938244	38.2153557517122	-20.588462026491	-26.1656739004419	
2504666666.66672	-12.2414361070541	-8.62190059653446	-66.7835376357273	-3.92474661102525	-77.2369511964916	150.278761249447	-20.6980845154222	-25.260291461188	
2505000000.00005	-12.265079708817	-9.35877741511925	-68.8587007177424	-25.7778180844681	-78.7956684112314	46.4857342264181	-20.8056689437213	-24.1692130026021	
2505333333.33338	-12.2829297175093	-10.2003023302873	-66.2251721541967	-22.4480229875596	-83.8311526284872	-148.563383439375	-20.92323126657	-23.0680396081815	
2505666666.66672	-12.3123082386022	-10.9663131004291	-68.4181507418384	-20.9186875002337	-93.4070328550933	41.6884507051538	-21.0409352541398	-21.9103638937638	
2506000000.00005	-12.3403266569718	-11.8042719580911	-66.9413659590502	-20.4203808996639	-92.2357804750156	109.985988580074	-21.1652207900324	-20.6485535344978	
2506333333.33338	-12.3567389185746	-12.5453258883801	-66.1841278710096	-34.2841217159098	-85.0023574564159	165.161808966908	-21.2727040888769	-19.30446616973	
2506666666.66672	-12.3724064905608	-13.3779234166749	-67.4025142116412	-21.3099101685562	-90.6655041385655	-108.268784820919	-21.3798568801864	-17.7620296210292	
2507000000.00005	-12.3963846704163	-14.204421345281	-66.3062985262343	-35.1060820322067	-78.509670497869	55.8251055949369	-21.4686946508738	-16.3030043331773	
2507333333.33338	-12.4108017345471	-15.0261382596329	-65.0611110449042	-54.1411761446435	-88.8094764381082	-6.29947190597187	-21.5439809481423	-14.630291643865	
2507666666.66672	-12.4193109571308	-15.853071218164	-62.7427076783829	-58.1378597424748	-89.2000026806897	-82.9160722182614	-21.6357985273407	-13.1332594438064	
2508000000.00005	-12.4361173283133	-16.6801453004529	-63.7777430146188	-62.7184322302894	-81.8521104102503	67.5982674251591	-21.7123161396962	-11.4365729802068	
2508333333.33338	-12.4444209634848	-17.4596290519342	-63.5100859459425	-80.552398022512	-84.8741020975329	120.250279185823	-21.7696199342367	-9.69787656206551	
2508666666.66672	-12.4534816379756	-18.2797213308642	-63.6426452098927	-87.9637667305112	-86.696274886487	141.058056966347	-21.8162215545806	-7.79803786505912	
2509000000.00005	-12.4601814955485	-19.1222608363275	-61.5798623992109	-90.3097076588533	-89.8703580080795	-23.6027102085079	-21.8320999889411	-5.90216754835292	
2509333333.33339	-12.4702680202149	-19.9215323294895	-62.5010372990469	-98.1995617237399	-81.1924913347504	99.3286387627002	-21.8297857812743	-3.96187545184267	
2509666666.66672	-12.4716070796282	-20.7168650194412	-60.8547468012496	-114.076065503129	-87.385971283837	-36.7843082729026	-21.8394087466819	-2.14203471433195	
2510000000.00005	-12.4725665270771	-21.5741853028988	-62.2253753544312	-123.825816792136	-81.276023123274	125.92615108045	-21.8301004084042	-0.260763437606414	
2510333333.33339	-12.4745069446274	-22.422979049217	-61.0557217817	-127.102267010898	-88.7349040587706	154.306291118983	-21.7993279651506	1.47347768919059	
2510666666.66672	-12.4813526173646	-23.2075124688808	-61.2977624371985	-144.199000019556	-86.1700189013955	32.7676106409425	-21.7286259700561	3.33137059157618	
2511000000.00005	-12.4800151087181	-24.0272350897406	-60.7783528283939	-148.18225262179	-84.0471472072202	136.370524476395	-21.697097545295	5.07062747188456	
2511333333.33339	-12.4734233823473	-24.7850788414488	-60.738565081364	-160.16546752901	-82.042040094822	60.1875067102826	-21.6344707574728	6.86606260684039	
2511666666.66672	-12.4769305369758	-25.5990903637144	-59.8109500241541	-165.305094711174	-84.314409505204	130.246825911762	-21.5367908371063	8.49708422969886	
2512000000.00005	-12.4718720676818	-26.3503956806133	-60.3914856606683	-179.836112905358	-95.3464648432474	-41.6018926052486	-21.4323137607136	10.0666507419388	
2512333333.33339	-12.4647505788575	-27.186743940731	-60.0875612667108	165.569022448194	-87.0133269580483	113.857311947469	-21.3670106769032	11.6118082472125	
2512666666.66672	-12.4601834898331	-27.9302243727652	-60.3714410194388	165.675938905639	-82.0020871892345	-155.464936020396	-21.2389863670427	13.2573271754322	
2513000000.00005	-12.4527598329458	-28.676493644771	-59.8309550380731	156.140574496187	-81.0508871355971	169.340161568079	-21.1325906267251	14.6428305859082	
2513333333.33339	-12.4471565713404	-29.4323476353123	-60.0810763012373	148.567638152779	-84.0250100175153	78.7894754982465	-20.9828577477515	16.0425111420628	
2513666666.66672	-12.4402036171896	-30.1494893358087	-60.2850519532467	133.392100937232	-80.1536333044147	95.2470187395493	-20.8815295041038	17.3493583794152	
2514000000.00005	-12.4386104446953	-30.8961604882643	-60.2733241573877	128.27911731246	-85.9832845062706	48.4729539199627	-20.7302523309376	18.4849572378907	
2514333333.33339	-12.4255337061031	-31.6079260278315	-59.6919344335498	121.32751624239	-84.559540549902	61.0359683616229	-20.5719520695649	19.5641523851283	
2514666666.66672	-12.4155222758571	-32.3654589525628	-59.8339573478503	108.359916010456	-86.1735936216395	96.7940917134096	-20.4476833231037	20.6292567514419	
2515000000.00005	-12.4060172098388	-33.0438835994948	-60.2809310620339	101.804684876465	-83.6691217982508	-177.180876585423	-20.3035841685877	21.504083414945	
2515333333.33339	-12.3987169391208	-33.7088923980388	-59.2621624763326	95.4599661663534	-85.466977805019	162.542151956371	-20.1453167672574	22.3783241102197	
2515666666.66672	-12.3948740597115	-34.3779802704047	-59.888592180627	80.2834790746757	-87.2807913880331	-62.8010739728329	-19.9966757774054	23.1340014528923	
2516000000.00006	-12.379655811508	-35.033385943689	-59.6217335896628	72.8241355965829	-85.3352000453315	72.7005729648899	-19.8707651686067	23.7977562256491	
2516333333.33339	-12.376856084092	-35.6979562332922	-60.2662870287135	66.8150728511551	-91.4839427194772	148.651793792779	-19.7031878426539	24.2087564710556	
2516666666.66672	-12.3655550989215	-36.3016990266865	-60.2227809601348	48.8837758510153	-86.8586320152666	-179.50009973533	-19.5877324280752	24.6441909603961	
2517000000.00006	-12.3611317963947	-36.9444081043037	-60.3189967396536	48.1845519153052	-84.3360233447636	-18.3413816127785	-19.4595875417182	25.0862021318903	
2517333333.33339	-12.3550950881572	-37.5222486378671	-60.8581682753697	37.0387008349832	-87.774120431354	0.0912156609665042	-19.3248026057689	25.4676917789051	
2517666666.66672	-12.3477769934453	-38.1385065881208	-60.7972601653449	27.4801697456077	-90.5491738488502	-98.8417653367641	-19.1887211540841	25.4913308276977	
2518000000.00006	-12.3424217422983	-38.7449822947602	-59.5636600116894	21.7990298155586	-80.3622716501547	178.954298512141	-19.0906334291433	25.6644804765936	
2518333333.33339	-12.3346873710701	-39.2720827472176	-60.9411951255995	12.6576056871044	-78.7330842400378	67.6970546703961	-18.9831336618653	25.7481992913082	
2518666666.66672	-12.3296492921412	-39.7939086403919	-60.9885710479366	-0.291586448756118	-83.9744356459091	-93.883555837818	-18.8788783071182	25.70250965118	
2519000000.00006	-12.3336351821431	-40.3099971802608	-60.2720353940162	-6.31132491747785	-86.404339810305	-18.4737609714843	-18.8198954173246	25.8565835667379	
2519333333.33339	-12.3250492936557	-40.8246604000416	-60.4600796502562	-16.3642397737005	-78.4957550703458	-99.105060728656	-18.7392547457433	25.623970856035	
2519666666.66672	-12.3247140729378	-41.3322110526765	-59.6381770366198	-24.2735588859821	-88.0778454819972	49.4684637010082	-18.6629755052612	25.5361376988061	
2520000000.00006	-12.3293173372711	-41.7463967027488	-59.4056609309489	-35.936097683744	-89.7184504046886	-135.606517073751	-18.6052140051935	25.2993848012864	
2520333333.33339	-12.3201727948747	-42.1939158133628	-60.1422617445713	-47.797641317098	-82.7458796396089	-136.615862856403	-18.5604580547016	25.0427788846209	
2520666666.66672	-12.3321006339626	-42.6457969643504	-60.1428864765689	-50.4094261392693	-81.1941246579403	-73.5205307702493	-18.5217858844604	24.7327331663098	
2521000000.00006	-12.3217859991185	-43.0513856245735	-59.7516907937222	-65.1778046586966	-84.4094761076452	-147.554395366209	-18.4872750448506	24.4486347148554	
2521333333.33339	-12.3298010631824	-43.4917581183792	-60.0613736144074	-74.1402054668282	-86.0103147197468	174.522138697404	-18.4529956433913	24.1279123868704	
2521666666.66672	-12.3213169836753	-43.8203141472389	-59.6629134080467	-82.8879947977094	-78.7979404473585	-169.80821895482	-18.4653003709709	23.738262935675	
2522000000.00006	-12.3327368920682	-44.2412850501436	-60.2332152244076	-96.1744005308702	-81.1352529739824	118.430350572192	-18.4753397672598	23.4010640778057	
2522333333.33339	-12.3399374272867	-44.5744967379408	-60.4073012961279	-103.578876440735	-85.9957182660932	-57.4802536627886	-18.4723723724807	22.9407490424645	
2522666666.66673	-12.3343354982078	-44.8851741065919	-61.1352501544355	-113.652878182243	-85.7753820548157	-116.970170701532	-18.4917248168232	22.590097819909	
2523000000.00006	-12.3452395275211	-45.2008526190878	-61.7810464919978	-120.902458369934	-82.4290001691263	169.63269722354	-18.5171845861253	22.1924956338429	
2523333333.33339	-12.3437954800435	-45.4952044947514	-62.5338220932775	-132.883658456948	-85.422251312953	-139.45136104483	-18.536577207474	21.7370476232687	
2523666666.66673	-12.3503346363976	-45.8434772959484	-61.5804227047987	-133.653009267796	-89.849601683479	-104.916059285871	-18.5803178945815	21.3184542372132	
2524000000.00006	-12.3613041251695	-46.0589498517081	-62.1572393709277	-145.188519501067	-81.0803036225907	131.464469986001	-18.6314427623717	20.8725223800468	
2524333333.33339	-12.3604825315267	-46.3060523297845	-63.2896429571129	-149.84955314021	-89.3589472802714	-146.232785301178	-18.6795584429928	20.3734963159566	
2524666666.66673	-12.3674883875148	-46.6006300090952	-64.2674672153166	-161.508276600176	-78.6737273693218	-110.857369914634	-18.7421413248929	19.9000541430812	
2525000000.00006	-12.3779722913031	-46.7726672208459	-64.2356720740733	-165.696836046724	-90.3896839293121	40.7878790977696	-18.813054910205	19.3799069067526	
2525333333.33339	-12.3852058505842	-47.0069101261074	-66.392604195267	-168.860194814655	-94.1729461539721	-8.98668920267055	-18.859442125684	18.9237983170334	
2525666666.66673	-12.397752608163	-47.285850398624	-64.7367461375594	174.026000084025	-87.9047615245015	-122.608474944401	-18.9348972511636	18.3741748964295	
2526000000.00006	-12.4045226431736	-47.4676316285324	-66.1043636395971	-179.009043903597	-86.9845397335549	-109.131524649419	-19.0387746744709	17.8380420246183	
2526333333.33339	-12.4165863988453	-47.6846191733877	-66.9813024211521	165.588943070825	-84.0304736501837	-154.691063794909	-19.1071483719176	17.3114544728721	
2526666666.66673	-12.4257806488655	-47.8218972688588	-67.9650795368619	176.496514859314	-115.83330431635	168.136807222261	-19.2018589453115	16.7894859654844	
2527000000.00006	-12.4348602688381	-48.0092027155139	-69.084211446816	168.277543874031	-76.9154357937836	169.315022926171	-19.3133513088975	16.1848098618517	
2527333333.33339	-12.4517310279817	-48.231170276392	-65.979442987978	163.875403678289	-85.4567644811964	-79.5272309061654	-19.4269494380622	15.6608330133157	
2527666666.66673	-12.4544719979364	-48.2882902046552	-69.5310847196918	158.295294922621	-84.17608884712	-0.186573898069694	-19.5094107014379	15.1128138666003	
2528000000.00006	-12.475332786142	-48.555719390566	-68.6597688451824	159.657984605838	-108.069353720773	-89.3842955362769	-19.6201726794409	14.6333088546191	
2528333333.33339	-12.4979219089817	-48.6943398992925	-67.44428238935	164.783836515953	-94.3497432307829	-77.1079544586208	-19.7531098912149	13.9861720950089	
2528666666.66673	-12.5210608772448	-48.8680379599378	-66.395814091626	155.727721926428	-87.967918571423	-160.711495158221	-19.8591016030119	13.3285144842043	
2529000000.00006	-12.5328410970796	-49.0286653810284	-65.1379555114669	146.834181178291	-80.1203786498861	126.159968463663	-19.9839653244454	12.7371406160893	
2529333333.3334	-12.5551602826824	-49.2397198530228	-64.6646141346662	153.804059438478	-82.8518447994914	82.3767688772925	-20.1063593549078	12.1084248841415	
2529666666.66673	-12.5890748482866	-49.3639165546754	-64.4733892537491	134.13555865056	-90.828872670695	151.514336722899	-20.2201084458012	11.5070942658041	
2530000000.00006	-12.6018287785489	-49.5635617690661	-64.715399367089	134.143422426554	-89.7417714048569	105.179186181602	-20.357991904766	10.7653439964936	
2530333333.3334	-12.6295497077086	-49.8121644133756	-63.7157660603852	123.58685677221	-80.9028270637573	50.517650414687	-20.4845448493135	10.1707745293991	
2530666666.66673	-12.6452761998608	-49.9714428199301	-63.1737783288911	108.864084643587	-89.9817800296354	-103.993733216319	-20.6190770643957	9.40598215651253	
2531000000.00006	-12.6836001484164	-50.1486572639025	-62.5514448837234	105.929971883897	-81.7910421805627	166.065186609385	-20.7376165005241	8.78303453432162	
2531333333.3334	-12.7109004138263	-50.3502618860462	-63.2550939629062	98.4905851679844	-81.0859418573864	54.0613348178091	-20.8723806380539	8.11070612911281	
2531666666.66673	-12.7524419975721	-50.513670016602	-61.5904516430751	86.5612878025728	-80.4967986645448	96.0610172724175	-20.9912731988755	7.29617062308719	
2532000000.00006	-12.7787644493512	-50.7493497103744	-62.3186052590467	76.579937870767	-83.2261172934476	-172.336018849257	-21.1269112497073	6.60770507407122	
2532333333.3334	-12.8084019947328	-50.9321776499464	-61.8531808107229	69.9782759981794	-87.9376734440204	-54.9118862354871	-21.2421370762708	5.88056274943861	
2532666666.66673	-12.8504887342897	-51.0689615227282	-61.164997974215	56.0202540128909	-82.7553634877743	-67.8093279289777	-21.3933334142902	5.00885856222004	
2533000000.00006	-12.9011409711589	-51.3261198684353	-61.2535039730277	45.61029755447	-87.7624550231102	8.91358409316751	-21.5194625217017	4.24410527198831	
2533333333.3334	-12.9377179064407	-51.4700441582146	-60.2557651004229	39.8032015602275	-96.2617052634259	8.44376395248066	-21.6399755902636	3.39325580026299	
2533666666.66673	-12.9871861445436	-51.6486753417568	-61.1248469717332	24.4422112900409	-89.427658283234	-133.100608907627	-21.7659703361939	2.5429351647906	
2534000000.00006	-13.0366865392997	-51.8456253750171	-59.951712589492	20.6981697336114	-85.4480937837103	33.5615894766708	-21.8808311416897	1.84573851192815	
2534333333.3334	-13.0809464452428	-52.0546485074063	-60.2555931775327	6.94280894756327	-87.2809569708792	58.8216351916862	-21.9929692322969	0.913939942109247	
2534666666.66673	-13.1333391358743	-52.1144025925889	-60.3775145520908	4.99310609836792	-89.5624905797753	-69.9685769549646	-22.093022227786	0.100277705763583	
2535000000.00006	-13.1911799400848	-52.2813957171767	-59.9768258011374	-6.22915028956119	-94.2472038327983	21.3720576158579	-22.1954771009954	-0.794279658893822	
2535333333.3334	-13.2428574266619	-52.5247254524879	-61.0781388495534	-16.409844249539	-84.6547980108536	-73.0030631625411	-22.2689754203152	-1.59396393815011	
2535666666.66673	-13.2927897970485	-52.7144828116524	-59.975745050901	-23.4139173438174	-82.1950856377542	-178.191283325155	-22.3580058939052	-2.59132742573974	
2536000000.00006	-13.3623080225811	-52.8857474476777	-59.9751049031247	-34.3910097173694	-83.3824150709286	10.7173565827854	-22.4276822519979	-3.52749811204644	
2536333333.3334	-13.4150314961233	-53.117786285939	-60.3285731078876	-35.7895710251921	-87.448226351016	58.8568958183158	-22.4888571416522	-4.44398427150919	
2536666666.66673	-13.481077376589	-53.3107837100606	-60.974016627114	-44.0663288285762	-85.1059024172538	-4.73933661378202	-22.5394968476251	-5.57790323646588	
2537000000.00007	-13.5405489382874	-53.3620807523075	-61.0808464480666	-57.9314585871712	-87.6603020609277	-92.7763412117637	-22.5993567399339	-6.62344241059321	
2537333333.3334	-13.6094285176788	-53.6262275460066	-61.1279932324867	-66.4166100005799	-85.3562005795373	-115.460144255381	-22.6391047961902	-7.73389890149928	
2537666666.66673	-13.6569975928085	-53.7676761915765	-61.9645799229733	-80.6485949913605	-83.9035490592671	-63.6383597487785	-22.6533239992063	-8.87249292311034	
2538000000.00007	-13.7444385639335	-54.0134977779241	-62.4334167073012	-80.9833654498444	-83.5224294595265	-98.1737972488169	-22.6907945508257	-9.94900402130802	
2538333333.3334	-13.7960532361024	-54.1150711322112	-62.1944166570044	-88.1853831772574	-88.8780663482848	76.5618581937352	-22.6993342726617	-11.3449348291893	
2538666666.66673	-13.8785956209454	-54.3787485799648	-61.3772908702009	-90.7604794951834	-85.8486411521221	-39.6024486429231	-22.7117512685244	-12.2421454476588	
2539000000.00007	-13.9470407026947	-54.4517287957241	-61.6283203682056	-97.8093395251708	-89.6033945467541	83.6155609336775	-22.6912881391219	-13.5628446624442	
2539333333.3334	-14.0251532909915	-54.616818028514	-62.7397643853088	-107.029225921333	-84.9628070757539	-136.990460136755	-22.6871167890361	-14.8537997246584	
2539666666.66673	-14.1217070429228	-54.850572976267	-61.5111861584865	-111.048723310203	-95.6891813440401	-113.957543242543	-22.6899456974449	-15.998677451533	
2540000000.00007	-14.1825118466508	-55.0472777063803	-62.3647692141869	-114.171731433898	-88.5635975014486	-96.6606484748359	-22.6610965305349	-17.396504159779	
2540333333.3334	-14.2642292362482	-55.2798043200705	-61.3498954136535	-119.842606667836	-86.435559433943	39.3471129220564	-22.6147221395939	-18.4860987664015	
2540666666.66673	-14.3591980895762	-55.4912218987025	-61.1908507414812	-131.280517065088	-85.9420520141835	45.1844988965933	-22.5997696765152	-19.6796090179073	
2541000000.00007	-14.4404779310341	-55.7364739474829	-61.163908841305	-141.144070029673	-93.6165155525349	-30.5537783765854	-22.5593773925606	-21.1288061895625	
2541333333.3334	-14.515419558755	-55.8419379698621	-60.9120752682131	-146.589229291299	-80.8282302473499	-59.5144476641469	-22.5018685335397	-22.2354906110207	
2541666666.66673	-14.60326631673	-56.1949817507702	-59.9987116864632	-157.456444718288	-92.08095204042	27.5935926812847	-22.4417770489284	-23.5710071561514	
2542000000.00007	-14.7050537987964	-56.3692907788696	-61.11450790823	-164.211799027436	-83.3444119911466	-41.7816048564898	-22.3865604812485	-24.7867784391385	
2542333333.3334	-14.798836784916	-56.595243359752	-60.7851895146789	-173.834824711013	-83.9294341350039	-51.2173346063018	-22.3223702995925	-26.0557456080375	
2542666666.66673	-14.8791178104789	-56.8465281109922	-59.8121633025231	-179.537783216318	-88.2133585670387	-165.855343195328	-22.2707645589137	-27.2861425086413	
2543000000.00007	-14.9703398882707	-57.0602639525346	-60.4901743734016	166.362059769611	-86.3065422416824	167.456491343174	-22.2022014868942	-28.5555199665637	
2543333333.3334	-15.0666635544314	-57.3481667376425	-59.8565381025334	158.862555173467	-84.8373053447828	-11.8459513379523	-22.1057069114286	-29.6505614367161	
2543666666.66674	-15.1562949148157	-57.5817197142994	-60.0841746627297	148.118040366946	-79.7135912732898	117.179882953125	-22.0488012053448	-30.9690390129933	
2544000000.00007	-15.2614738536629	-57.8114110487742	-59.6584842141541	139.136206484327	-85.1405703533177	-37.2374415816814	-21.9630353283299	-32.157422208888	
2544333333.3334	-15.3658101129539	-58.0741652329475	-59.7604156375159	131.176748940631	-92.7975046496064	-9.10041696696998	-21.9051917194039	-33.418023782814	
2544666666.66674	-15.4509760573284	-58.4197059332072	-60.4494780724165	125.482326168894	-86.6263847214669	133.490766026257	-21.8337754052531	-34.5452275958865	
2545000000.00007	-15.5621880834315	-58.6796164514972	-60.3611932911035	112.671512525762	-84.7404081940919	-88.2058966692462	-21.7516450626896	-35.7198643292197	
2545333333.3334	-15.647484771996	-59.0115773203739	-59.0880086200668	102.379512208578	-86.2057048034168	67.0063277920303	-21.7025095161923	-36.7988639320173	
2545666666.66674	-15.7629152244511	-59.3293058361609	-59.3106756677803	95.3005381722106	-97.441954248407	-91.1833705059931	-21.6365352111686	-37.891924120511	
2546000000.00007	-15.8550632955308	-59.6515149211252	-59.7599579283918	87.2021322171867	-83.6878842921188	-154.581668303546	-21.5821307874673	-38.977659756765	
2546333333.3334	-15.9683303242506	-60.0112938238835	-58.7348302892073	75.3602998236019	-81.6856181273974	68.1281020305127	-21.5331042632613	-39.9903401019094	
2546666666.66674	-16.0702240193967	-60.3962799278152	-58.7390207530848	66.6451316492689	-90.7199515177411	-139.687187591509	-21.48721168136	-41.0401129056796	
2547000000.00007	-16.1688564813801	-60.6342230458312	-59.3705865572393	56.0190411911289	-88.46694474302	59.9977213127373	-21.4336953215324	-41.9659969940202	
2547333333.3334	-16.270531258631	-61.0947359682092	-59.6339883916981	46.6406366414325	-83.6494141908247	-171.063716352532	-21.3955979354165	-42.8519492233582	
2547666666.66674	-16.3789759062843	-61.4799543846658	-58.8323019390596	37.4244447476316	-84.2900923947872	75.5517001730283	-21.3407456452271	-43.7387989427552	
2548000000.00007	-16.4803537929485	-61.9334057916222	-60.7358620725723	30.809266770461	-92.3742443080504	-31.0788356393762	-21.3239719931407	-44.6829872872118	
2548333333.3334	-16.581098733792	-62.3667312922288	-61.1199458434848	19.6150998733457	-85.8591798810416	-82.8917204139319	-21.3114989184101	-45.436461080181	
2548666666.66674	-16.6859457311082	-62.7789765082549	-60.4429008416179	11.2596465439397	-90.9341215202068	28.8010770014063	-21.2905587502994	-46.3009908277447	
2549000000.00007	-16.7872818720929	-63.2516492611339	-61.6436865376472	4.34801318948688	-79.11835242622	-15.9592519642393	-21.2784642766501	-46.9388932628162	
2549333333.3334	-16.885141829999	-63.7632823366092	-62.1754690275948	-2.33351938643597	-79.0240909223117	-34.9062601328128	-21.2829251939855	-47.7100209650899	
2549666666.66674	-16.9924459283671	-64.2784787570189	-62.3236053377391	-8.79174736732075	-87.668794116112	-66.8072706190896	-21.2930549706076	-48.2992385073587	
2550000000.00007	-17.0998066853211	-64.8292483235815	-62.3796558095764	-9.94280587692753	-85.1486495777009	-67.1112884939364	-21.3100801701982	-48.8564285594556	
2550333333.33341	-17.1936975389216	-65.4998088277916	-61.5226890681543	-20.2743856119842	-82.703158934462	-107.435750961414	-21.3516093467477	-49.354313318233	
2550666666.66674	-17.2838087291157	-66.0534103180223	-62.7350224800749	-25.6768343537031	-85.6216847820124	-13.0419809789248	-21.3806305088507	-49.8670581842705	
2551000000.00007	-17.3977815018684	-66.7259197561105	-62.7672189512008	-23.7681099988781	-79.6577701170906	67.7619038192859	-21.4222846269977	-50.2680594415077	
2551333333.33341	-17.4951332771305	-67.4176516672583	-62.3428409234682	-34.7550823818328	-92.3574326417209	-36.2729562142586	-21.4858125281508	-50.5538023433624	
2551666666.66674	-17.601297643326	-68.0402592520553	-62.4287661713838	-36.3468274744099	-94.098874839623	-55.2236467043188	-21.5514329273908	-50.744533313123	
2552000000.00007	-17.7027002348684	-68.7112784993351	-62.7072705683382	-49.8982110480784	-84.3439284555019	125.787447392163	-21.6183396523904	-50.9697799497767	
2552333333.33341	-17.7877888823809	-69.4944319025752	-61.677866289985	-52.2570935746035	-82.5098708775038	32.8862230335265	-21.6885981773348	-50.9541247687253	
2552666666.66674	-17.8845846079401	-70.1674548289733	-61.8833499753181	-54.5287230470745	-89.5732724254454	-43.4820677546266	-21.8020422078677	-50.9000403052704	
2553000000.00007	-17.9674366810415	-70.9499615936081	-61.5177483186541	-65.3052482776602	-88.8589849528679	-12.816274142924	-21.9044666864234	-50.8274999102583	
2553333333.33341	-18.0555838322433	-71.7289765716981	-61.7923478164487	-80.2535606763512	-91.4376996311137	1.37987234575656	-22.0269100657613	-50.4939003407607	
2553666666.66674	-18.1477573125272	-72.5065163448567	-61.6426939064083	-89.5645758032137	-87.0502848801188	-139.084367816847	-22.1347757050412	-50.1170347249151	
2554000000.00007	-18.2258849765966	-73.3602530860208	-61.9515940329933	-99.9284027663441	-85.0002262635239	26.3625348851409	-22.2594086569289	-49.6476352140611	
2554333333.33341	-18.3048558511637	-74.1911124061062	-60.5801687952142	-103.33864818068	-97.4182712449771	-125.823397980002	-22.385143450264	-48.9692868568221	
2554666666.66674	-18.3839498341123	-75.0325230359994	-61.2062398886133	-110.403526432667	-92.1737964216652	34.4978493175105	-22.4999303871384	-48.0336670136403	
2555000000.00007	-18.4439241651025	-75.8219137666332	-61.9866080397049	-120.266639778211	-86.5649770150335	-22.2816147593185	-22.6114677040385	-47.1027941941969	
2555333333.33341	-18.5113976517472	-76.8031137203165	-61.5054663577148	-127.411623233656	-80.0034026474109	-146.989171149474	-22.7316644097708	-45.9135989088692	
2555666666.66674	-18.587618231148	-77.64960142502	-60.2538480730749	-133.616055989316	-82.3174022869089	-32.5416560203447	-22.8554673400722	-44.5198146985583	
2556000000.00007	-18.6394622427635	-78.5364754953779	-60.9717295435853	-145.433935044371	-82.289961871172	-69.3259976348195	-22.9255530863217	-43.0927002936234	
2556333333.33341	-18.6903812023249	-79.4785059817822	-61.6844580549749	-149.850792550896	-85.0146591246324	-167.431710055625	-23.0114706463122	-41.5529772618208	
2556666666.66674	-18.7410238641882	-80.4869575233042	-61.0063175469253	-159.331639322051	-81.2861062587939	-140.408941809649	-23.0792381989894	-39.8754449726567	
2557000000.00007	-18.7830323563405	-81.4049740128513	-60.9961504143463	-171.036601439034	-93.8060034343669	134.751912183538	-23.0992587334704	-38.0003204141004	
2557333333.33341	-18.8293531940325	-82.3812603648347	-60.8763604276091	178.774365146123	-84.8783811066187	101.056314932447	-23.144801250658	-36.1413241186256	
2557666666.66674	-18.8535787623372	-83.4676478999135	-60.3418669037601	172.210029387175	-83.1140843589562	36.2617259884685	-23.1529830993054	-34.2460380204632	
2558000000.00008	-18.897439774351	-84.2913263516855	-60.0340922094429	167.749645768169	-78.6360280546374	35.5957709601886	-23.1167463192387	-32.2234528352289	
2558333333.33341	-18.9122826668044	-85.2994186979383	-61.2242546672762	157.876170020431	-90.752491949534	-89.908348438394	-23.055995558685	-30.0275271365754	
2558666666.66674	-18.9211170203483	-86.3126574410784	-60.449255988821	149.397783814706	-85.2883292607806	-72.2027196406702	-22.9758352376529	-28.079757225553	
2559000000.00008	-18.9579627436032	-87.2950622906289	-60.9138326997435	135.333394842789	-85.8066930273468	107.806216140595	-22.8963267836005	-25.9870659780904	
2559333333.33341	-18.9518182711126	-88.3356058757157	-60.8803414524453	128.552045420857	-81.8211439836464	31.235788029867	-22.772034718851	-24.0560639024917	
2559666666.66674	-18.9562642901175	-89.2385563934758	-61.0842724218824	125.270136331497	-79.7908788651027	130.910793154725	-22.6106179874045	-22.2534617799062	
2560000000.00008	-18.9445605741146	-90.2613925934313	-61.3668153579612	114.840363578817	-80.5547035701325	-126.570914350406	-22.4600978743523	-20.4814888004451	
2560333333.33341	-18.9465881296057	-91.2341989248195	-60.6252370148849	107.758360813243	-86.3257260888615	-166.5669232427	-22.3085904224124	-18.7012542448512	
2560666666.66674	-18.9282273460579	-92.2177698685795	-61.3014602376409	100.587815993813	-88.0051940457154	143.134700279084	-22.1072667754889	-17.2159562061809	
2561000000.00008	-18.914105948767	-93.2016655488988	-62.2380528054058	98.6532278114026	-84.1371039463656	-11.7293325655106	-21.898807738339	-15.7209688295026	
2561333333.33341	-18.8876854073785	-94.1703776603014	-61.683862279961	90.9289940552208	-77.6493123168555	27.7070613458135	-21.7056973841763	-14.2979613005134	
2561666666.66674	-18.8649917118387	-95.1307904124548	-61.4932282685697	87.7353224040444	-84.2249839414127	90.0111233015259	-21.499149805667	-13.2671819886375	
2562000000.00008	-18.8309098372789	-96.0177361800314	-62.1555734416341	78.7947543202642	-79.4054130345378	36.7303104990501	-21.2932360140394	-12.1261712742895	
2562333333.33341	-18.8012225773603	-96.9754436431049	-62.4386421714662	70.2807046645133	-97.1298106302358	-109.832816020713	-21.0941541226454	-11.0883835716271	
2562666666.66674	-18.7547914723931	-97.8862358778078	-61.1785996335929	64.662156302303	-79.7046759261461	16.2925418781865	-20.87491961293	-10.1712457686648	
2563000000.00008	-18.7220539109586	-98.7449829371002	-61.3551287699333	55.7079871333148	-80.95755615112	-114.026445923019	-20.6642091142294	-9.37641661893472	
2563333333.33341	-18.6685755359493	-99.6557361497879	-61.6180380921994	47.0972681381947	-79.8776781777397	-53.2718193994111	-20.4642820632272	-8.60515886022815	
2563666666.66674	-18.6192610127156	-100.522379284699	-60.6787025663919	45.7994135989488	-82.0109385642628	48.7941048593932	-20.2729978051654	-8.03602150676821	
2564000000.00008	-18.5711600405747	-101.31651480856	-61.4081267204934	35.7515944579455	-86.7528829213296	78.2608519985435	-20.0790079167964	-7.54915299302228	
2564333333.33341	-18.5270282459947	-102.186932925206	-60.4961934197862	28.552119927648	-90.5988467989788	-23.6079072998945	-19.8942800791629	-7.12141744545888	
2564666666.66675	-18.4507891222649	-103.046629717644	-60.5530192087976	19.2375428116162	-88.83081926165	66.869185441342	-19.7297107333097	-6.80762697133802	
2565000000.00008	-18.3958000907169	-103.881858439974	-60.7808981563522	13.5825647794692	-83.2283368618945	-75.2198055192963	-19.5467362242463	-6.56487873287295	
2565333333.33341	-18.351126676469	-104.59731416027	-61.2019329208862	4.71795922242661	-86.163516800179	102.430754679611	-19.3982585598751	-6.28833601634376	
2565666666.66675	-18.2778627031858	-105.466343610945	-60.2834249032362	-4.30744614959586	-80.9408032675779	86.6421054782095	-19.263885697862	-6.1213959901455	
2566000000.00008	-18.2302493563062	-106.198081990028	-60.499861269243	-14.201924796642	-86.2106587187667	70.9346525440183	-19.1053058221889	-6.01064605019618	
2566333333.33341	-18.1566702897305	-106.979397829112	-60.4418146731638	-25.5570054740357	-84.6423031136537	81.0549224895755	-18.990487060925	-6.04598415624902	
2566666666.66675	-18.1124895665725	-107.758687919488	-59.9342878172145	-33.7731440532724	-85.1577891524212	-41.6459754946617	-18.8784826979468	-6.07293165207523	
2567000000.00008	-18.0448899905105	-108.493115417045	-60.0536404824999	-39.6349403042711	-84.889047975073	-29.6842665724064	-18.7853467413187	-6.09694880925682	
2567333333.33341	-17.9752496319198	-109.213764837794	-60.9658923249579	-49.044656126967	-83.0805819531025	78.6650083249225	-18.7038843782648	-6.18077371035876	
2567666666.66675	-17.9289773349457	-109.967259307109	-60.7438470279023	-58.9618136353477	-85.1953693782743	126.847506547956	-18.6220556705238	-6.14361979130611	
2568000000.00008	-17.8608819145936	-110.65475150085	-60.9187909277314	-68.5454805996103	-82.1266158172179	-23.0560503214413	-18.5497075386543	-6.28611402952291	
2568333333.33341	-17.8184600325446	-111.354989868477	-61.1453930967013	-78.5505486510875	-85.0584619374898	144.904362823106	-18.5008200480759	-6.48281901924463	
2568666666.66675	-17.752857103862	-111.968424831734	-62.9648354493371	-86.1034146044054	-86.0933567295711	109.982432747841	-18.4656118796175	-6.59661777964583	
2569000000.00008	-17.700746976716	-112.592408880507	-61.5921079120171	-87.7687398151098	-96.0004990803096	159.845694478458	-18.4231800204114	-6.85132704489294	
2569333333.33341	-17.6385683527223	-113.313746281861	-63.0207289414884	-89.8446847503849	-89.4794179785925	-7.92251498025465	-18.4112563343645	-6.96723299047558	
2569666666.66675	-17.6002873897113	-113.965932273057	-62.4161828217002	-102.822285656367	-92.1842381269865	-164.116444883012	-18.410938936071	-7.23132987674293	
2570000000.00008	-17.5437576698138	-114.511695476908	-62.6108210158455	-108.030449931115	-88.4270773165109	-60.4345875785374	-18.4222288430072	-7.33034658660206	
2570333333.33341	-17.4951593027765	-115.164605698263	-62.836370516859	-111.962390795465	-94.0134224170516	-150.246998686069	-18.4570562269297	-7.54127323040864	
2570666666.66675	-17.4478891673197	-115.715977610013	-63.4586398102497	-116.583121260616	-87.6565012491087	25.7279329766175	-18.4781689248986	-7.63075318245903	
2571000000.00008	-17.4065697016382	-116.367930948109	-62.7065234656578	-122.254113005511	-87.1441064705173	-155.279806766351	-18.5296924612686	-7.7651976335502	
2571333333.33342	-17.3583922920592	-116.951182643904	-61.8663371181254	-119.029869536856	-80.6009887170464	147.444655418581	-18.5882476292002	-7.78603973320392	
2571666666.66675	-17.3309433105197	-117.605868422402	-62.4118532711535	-131.45834267498	-93.4215824481608	14.3103358148212	-18.6646856129629	-7.86655778566374	
2572000000.00008	-17.287394079475	-118.18563389064	-61.2093416881416	-139.526684015842	-88.7779348453656	-106.90148368602	-18.7658752661941	-7.91966371631407	
2572333333.33342	-17.2607978802478	-118.675743454369	-60.7020747784039	-135.027203379179	-78.9335882954136	-154.288145108223	-18.8526197481091	-7.88024154469282	
2572666666.66675	-17.2255485165368	-119.214303719247	-60.2756380553988	-145.33629404482	-91.8177199054961	109.087234014054	-18.9747203667391	-7.88742701757858	
2573000000.00008	-17.195930171919	-119.762650458078	-59.601812845061	-154.043338137425	-81.9282671472873	172.930584749975	-19.0985677270106	-7.57616441035506	
2573333333.33342	-17.1565103140703	-120.379241134606	-58.4313039295761	-159.632908786204	-81.2768007325494	150.556438232607	-19.2235269225112	-7.44467914381062	
2573666666.66675	-17.1504092877763	-120.991046277642	-58.6378055137829	-166.328781162053	-87.6447168818075	-149.470279543589	-19.3741421715725	-7.0659183458546	
2574000000.00008	-17.1128802965008	-121.521228743997	-57.8936515796981	-175.27436885948	-86.4798970896157	-172.725850973451	-19.512764308145	-6.7948951316551	
2574333333.33342	-17.1020507318161	-121.97700747881	-57.3709254425342	174.734024418149	-80.6138373517008	-152.091548725564	-19.6670632056805	-6.21695531221672	
2574666666.66675	-17.0905819515443	-122.531960566032	-57.5948315994705	166.027190174604	-80.3277306486695	145.666207720721	-19.838776921519	-5.5483648105819	
2575000000.00008	-17.0827388955522	-123.132242647847	-56.6349364507845	153.7502471617	-81.6625290425022	149.846417056679	-20.0020292138674	-4.90294623006442	
2575333333.33342	-17.0656839598085	-123.694362349293	-56.3860471940338	148.310061357442	-88.6388090973769	113.79664391699	-20.1701307593846	-4.12602550439604	
2575666666.66675	-17.0799579218897	-124.29583890695	-56.4226176968752	138.272896676741	-86.5077951253693	148.60025641257	-20.3311943997065	-3.20373388819231	
2576000000.00008	-17.0713161619095	-124.809970466676	-55.8580393697816	125.768114531545	-79.8531879766012	105.582270053792	-20.5208011345663	-2.1882135321013	
2576333333.33342	-17.0733992039246	-125.430391799625	-56.2132577092196	116.659950854218	-78.6976121726677	142.011700377901	-20.6665400043227	-1.02635432645997	
2576666666.66675	-17.0886419004483	-126.014179391671	-55.5450199025785	103.961434502784	-88.8773111408213	120.045182611153	-20.8517333158274	0.184510251148727	
2577000000.00008	-17.1195165328833	-126.551184410239	-55.2159937384525	95.2282870777454	-83.9926642923296	-6.46607850640081	-21.0023459413778	1.57463547372984	
2577333333.33342	-17.1381561308941	-127.159783586722	-55.4048003285124	88.4146277715662	-81.6660683202763	69.635349540414	-21.1526138858836	3.10161922052693	
2577666666.66675	-17.148188149475	-127.761559554671	-55.5542168231367	74.4746741150999	-80.6336202180403	49.3612552498738	-21.2628651697638	4.39979383961692	
2578000000.00008	-17.1831376076775	-128.43048509119	-55.6332670390398	65.1720396661872	-90.0462633314642	93.037560615116	-21.3746256290012	5.99056154489567	
2578333333.33342	-17.2013166366505	-128.887607202521	-55.6203819645901	56.4913708610533	-78.7348469476747	-173.485947342743	-21.4537225158729	7.74482799260871	
2578666666.66675	-17.2547754495513	-129.441998769955	-55.9983440137881	46.6958997017571	-91.5802658593295	173.690319283159	-21.5338065738884	9.56967175589968	
2579000000.00009	-17.3140880513011	-130.063721602198	-55.7008581896091	36.466924879542	-85.0744440996668	57.6087120698627	-21.6070415081788	11.4998381159025	
2579333333.33342	-17.3377937940185	-130.708596795146	-55.9247945984435	27.6395564532953	-83.4269271749466	96.2216402982381	-21.6215780721296	13.2002067357062	
2579666666.66675	-17.40230230583	-131.391247073828	-56.2293160232659	19.4306250542272	-80.0302312959707	-106.720238579996	-21.6300045176318	15.2489526065148	
2580000000.00009	-17.4643941826232	-131.92918666214	-56.2205431665017	11.7191962435091	-89.4927476228606	110.759696391247	-21.6183050708827	16.8247191966378	
2580333333.33342	-17.5357393280737	-132.517795599411	-56.3658549772338	0.545518451544713	-80.3936056437815	127.887524562667	-21.5877648120656	18.4804927399664	
2580666666.66675	-17.6040671671708	-133.224521394705	-55.9425026320036	-6.48656963588453	-79.3184035298564	14.5849520546149	-21.540765117304	19.9435649037035	
2581000000.00009	-17.6727205499339	-133.845303628125	-56.3830249737273	-16.3812390985187	-79.8293593755245	31.6371961875012	-21.4882266727146	21.5154887008332	
2581333333.33342	-17.7584652117673	-134.38296391593	-56.4491561079427	-23.1299281203462	-94.1830488934408	-45.1371499070841	-21.3837926979457	22.7462937079371	
2581666666.66675	-17.8393446492592	-135.173581603964	-56.3828237117499	-33.2388038141641	-82.5722012616814	116.635693223657	-21.3144700273675	24.096940534309	
2582000000.00009	-17.9181883160969	-135.752734875708	-56.3710366650352	-39.4678867091037	-81.9533098247662	2.04416632338829	-21.1844991620438	25.3865744443824	
2582333333.33342	-18.0339774488745	-136.359387262816	-56.4133627637985	-46.6626367677582	-100.332453669107	-8.99112252096264	-21.0894099247199	26.3027652690072	
2582666666.66675	-18.1110600159113	-137.032207003372	-56.5147140750557	-56.1534649737996	-79.2224245054517	-135.792921539273	-20.9693905642174	27.109464998038	
2583000000.00009	-18.2098764357924	-137.682243462406	-56.4945533171118	-62.5131218633602	-87.4024146870338	-74.7330589725885	-20.8363087395902	27.8348462036796	
2583333333.33342	-18.310898968605	-138.228280412166	-56.2673656463424	-71.0231561360795	-98.5420400436826	-67.3003639649661	-20.7194883545906	28.5084044111634	
2583666666.66675	-18.4227045016407	-138.931052337232	-56.5700076083591	-79.8187659385806	-84.1606051216702	-70.4081105931263	-20.5950509711499	29.0020989493109	
2584000000.00009	-18.5544568591825	-139.607862727152	-55.9695570683154	-87.7767609569133	-78.714178858245	-139.703336289942	-20.502970888381	29.2622198635709	
2584333333.33342	-18.6787522016463	-140.244109751252	-56.3748907938634	-95.2297911306848	-84.2703669680816	-94.6509838102952	-20.3856010281965	29.3724884117479	
2584666666.66675	-18.8070851840694	-140.891890847608	-55.6864489097893	-104.108709486909	-77.6083199791859	-73.7642318897497	-20.2977185152294	29.6192327560054	
2585000000.00009	-18.9156321448061	-141.676177531703	-56.1208002424607	-108.465783430073	-83.2628184537212	-158.81082546307	-20.2016848948285	29.505870719669	
2585333333.33342	-19.0666312581561	-142.266660923791	-55.2803290178869	-117.025196377539	-84.1015845555413	-151.018690765666	-20.1272587917754	29.324512092409	
2585666666.66676	-19.181317991785	-143.025934211059	-55.9056997477518	-128.105712613015	-84.5661498709336	-90.2464605236911	-20.0535127880491	29.0663847308946	
2586000000.00009	-19.3311991417519	-143.749878605969	-55.7324253903308	-134.150659321986	-84.1932476271795	-59.7948684548543	-19.9741464831122	28.8286629960942	
2586333333.33342	-19.4682986281304	-144.440495916282	-55.9128791970236	-139.509345649182	-85.2693616676552	-160.841843341923	-19.9207367144886	28.4968699247015	
2586666666.66676	-19.6423798847617	-145.242317573727	-55.6152646439156	-154.513346034133	-85.0838296037262	-166.403172476469	-19.8910199516296	27.970760761765	
2587000000.00009	-19.7666995203087	-145.934157986602	-55.7715558758736	-159.850565678772	-90.6838223635869	65.7048618898148	-19.8561611909535	27.4697661250658	
2587333333.33342	-19.932903195732	-146.794496227252	-55.4043066733433	-169.369065262169	-91.4231040647441	30.2506493332043	-19.8522322127435	26.8267986323124	
2587666666.66676	-20.1027668128824	-147.449894667824	-55.5848671152322	-177.47826828166	-84.2652306499472	-131.307468713222	-19.8392449341677	26.1776489571021	
2588000000.00009	-20.2680236791864	-148.339362416113	-55.3484720590311	173.311177537122	-78.0455105128087	172.472485717326	-19.8339435344982	25.4277409605489	
2588333333.33342	-20.4373230153022	-149.139282605663	-55.4384527125869	163.704388527464	-80.7887146422888	130.309064121926	-19.8517742283824	24.6886785979949	
2588666666.66676	-20.5976554783619	-149.95557147497	-55.7238986915287	155.899539825337	-80.9595163248253	133.594275047856	-19.8831340135875	23.8794886461855	
2589000000.00009	-20.7632455985964	-150.854992550296	-55.6676903642026	147.518593998623	-82.1125841484985	177.32981748902	-19.9107898088248	22.9014987567158	
2589333333.33342	-20.9579819546257	-151.761555731132	-55.2315129411987	137.846873203253	-94.0778647537532	65.5358765789472	-19.9750297111959	21.9326274033667	
2589666666.66676	-21.1120291608057	-152.796835149103	-54.9766153974025	127.74385799037	-81.9458882497459	177.894388656541	-20.0362945410366	20.8998671534361	
2590000000.00009	-21.2956708607012	-153.583457617237	-54.7899249873638	118.47850891949	-81.4024463306879	55.163683635656	-20.1200610041984	19.7011566906609	
2590333333.33342	-21.4766647995745	-154.770433508186	-55.0433057490869	107.076184598251	-95.3189553574007	-117.227382732292	-20.2027494625972	18.7572904347482	
2590666666.66676	-21.6544894480864	-155.835313722093	-55.3914802301229	100.349171323898	-83.362358392433	135.143712092002	-20.2996508116345	17.5552127667038	
2591000000.00009	-21.8499817400116	-156.819496043085	-55.2733837221186	91.5295068539152	-89.9752549356815	100.935320987317	-20.4181849816227	16.3755470344792	
2591333333.33342	-22.0064091376863	-158.027851547108	-55.0365348355693	80.5986793353215	-82.2010036033021	23.1019500449629	-20.5391207316801	15.12976070116	
2591666666.66676	-22.2247829902753	-159.285969926958	-55.1644125306789	70.180238993682	-82.4912533970309	-61.4287814419563	-20.674047422218	13.7858109302456	
2592000000.00009	-22.3795092263101	-160.588891254037	-55.1142625580277	59.2166816933797	-85.3079003478565	-5.89121300438343	-20.8537180097281	12.4742367852946	
2592333333.33343	-22.5417700360949	-161.789957100076	-55.1893982743106	50.4086857225274	-93.8634845424005	48.8575297314361	-21.0340344646367	11.0783991881391	
2592666666.66676	-22.7265842670591	-163.182358140636	-55.2932747852277	41.5972832253422	-89.2541175757359	2.99592451620056	-21.2209906063712	9.80887770574469	
2593000000.00009	-22.9069625200703	-164.909028420299	-55.4442814441305	29.905733385491	-87.0897696218821	52.1485787377299	-21.4143764428714	8.60016720614385	
2593333333.33343	-23.0729666790639	-166.415615484001	-55.4401086233763	20.0869593831373	-84.8594002678335	-8.61108237441959	-21.6346734970695	7.12510629019825	
2593666666.66676	-23.2549001557851	-168.013010737324	-55.887525427998	8.91865595232373	-93.7067787820692	3.67860334244063	-21.881322823823	5.75399265520011	
2594000000.00009	-23.3978045596968	-169.745628285913	-56.1691251171123	0.11538315563009	-79.6255383463645	-88.0295710190269	-22.1193556513385	4.41128151519744	
2594333333.33343	-23.5433813290483	-171.713781466434	-55.9565663500364	-8.45218339161251	-88.9807663707414	149.307147179976	-22.3834782546937	3.16460787884716	
2594666666.66676	-23.6944562816672	-173.506349841398	-56.0863238397403	-15.6277155746706	-81.8954662448077	149.980906934422	-22.6609003024319	1.87746964715893	
2595000000.00009	-23.8213224040799	-175.620427709597	-56.1778312118165	-25.7178590651884	-84.3414915398517	-105.516598615086	-22.9381049752027	0.677847798950312	
2595333333.33343	-23.9090465704585	-177.876463120342	-56.3233922491955	-35.1676774068649	-92.8268200811242	-166.935368441305	-23.2475268802281	-0.559776316271922	
2595666666.66676	-24.0278193223555	-179.961700892534	-56.8139436336393	-45.0398988125737	-86.7725967205501	-134.308862210941	-23.5458016780441	-1.67699992427678	
2596000000.00009	-24.1278962259086	177.761077477586	-57.1060839745226	-51.8987822742942	-89.8848509924409	-44.1497009287244	-23.8441243500147	-2.7550313254142	
2596333333.33343	-24.2132656879334	175.280903767462	-56.9265705668889	-62.7881719467227	-78.4816999855029	-38.1529090573949	-24.1797593442955	-3.74151385030771	
2596666666.66676	-24.2479755327432	172.761959986762	-57.728457881835	-72.1862907454788	-88.5378420497981	-28.8877926666314	-24.5118541532637	-4.75418934277031	
2597000000.00009	-24.2956952668828	170.366281773473	-58.0727668477243	-78.9854997577514	-90.9148721076201	-146.469066404385	-24.85058738716	-5.57941597622937	
2597333333.33343	-24.3040252298069	167.675941780307	-58.0981373057598	-84.8434358359018	-91.1728790566787	167.408523585521	-25.2047133259431	-6.33025008072604	
2597666666.66676	-24.2746381020308	165.347574629445	-58.8384371499774	-95.0463562203729	-88.1173301832745	11.9796641936837	-25.5411288466696	-7.09022636696159	
2598000000.00009	-24.2741972154421	162.558200529945	-59.4190823888404	-99.6999994536759	-85.418384104622	2.56705776506761	-25.8763252445105	-7.46549065697865	
2598333333.33343	-24.2234354298719	160.103324541039	-59.0716397660437	-113.556771488409	-80.9543770558529	-56.638334499679	-26.2527256359373	-7.8406490658909	
2598666666.66676	-24.166004767065	157.528021720053	-60.1838145688769	-114.077307699633	-80.5040502356989	-101.561979995958	-26.6177733335469	-8.29361696323953	
2599000000.00009	-24.0904023927771	154.809704652729	-60.1563237802834	-124.252095432124	-81.1938597289537	-82.3738293036161	-26.9321004999337	-8.28364938128629	
2599333333.33343	-23.9838969206605	152.311163760319	-60.7548793755652	-129.014717471754	-86.3925138159487	-60.8695579585421	-27.281493292375	-8.09030386984881	
2599666666.66676	-23.8819994968905	149.714001386116	-61.7405491397583	-137.384664063887	-82.6498924154681	156.25544779948	-27.59638126539	-7.72363688456828	
2600000000.0001	-23.7342354369292	147.311048992845	-60.2116262343002	-141.914871385507	-90.7984451024201	169.512051817971	-27.8970004518069	-7.01369513880153	
