!Agilent N9923A: A.05.34
!Date: Sunday, 13 March 2016 22:29:25
!Model: N9923A
!Serial: MY51491690
!GPS Latitude: 
!GPS Longitude: 
!GPS TimeStamp: 0001-01-01 00:00:00Z
!GPS Seconds Since Last Read: 0
!CHECKSUM:0996035142
!Correction: S11(ON U)S21(ON U)S12(ON U)S22(ON U)
!S2P File: Measurements:S11,S21,S12,S22:
# Hz S DB R 50
2400000000	-16.5707164578925	-178.616557611314	-64.3970147724995	-69.6383626587787	-77.9570540812826	-125.262456345272	-19.7296545080857	3.7461387156474	
2400333333.33333	-16.6385990266489	-179.656397442173	-66.9445012172321	-56.3495461940415	-78.4689559464436	-148.683782586976	-20.0006163604601	2.7469173563646	
2400666666.66667	-16.669484045027	179.321174610346	-63.8661052419923	-71.9195230839836	-81.398993590283	117.885643333757	-20.2789102769418	1.93746075490148	
2401000000	-16.7641552159927	178.145028376886	-64.0140740000628	-79.8033916576946	-85.0703277088397	-127.509005626154	-20.5777264967317	1.02399562194002	
2401333333.33333	-16.8194107224887	177.245048769213	-64.3954094487026	-89.9594768257833	-76.8173417625284	-113.134320476134	-20.906741526972	0.419273326285257	
2401666666.66667	-16.9285975176669	175.947475755676	-63.1443177562583	-82.9790694512354	-71.7680112315425	-141.229019578208	-21.2620713949745	-0.515610161471994	
2402000000	-16.9792842206638	175.03791941936	-64.5178592058389	-111.059500187728	-89.4965385443224	-134.24255622732	-21.6337882128768	-1.14054029931584	
2402333333.33333	-17.0454412466275	173.90233494373	-66.04941410751	-110.085266610384	-80.3788866588957	114.061212396788	-22.0483234850324	-1.85764338694654	
2402666666.66667	-17.1317038459714	172.691578346616	-61.8743298815549	-131.061722481226	-79.0269735101425	-108.03514179485	-22.4398046085243	-2.37343270306125	
2403000000	-17.1935588210697	171.596509857786	-62.8026675037428	-128.85561861342	-93.0369868225558	-155.645183585461	-22.9233723885529	-2.84306848349541	
2403333333.33333	-17.2770815323478	170.507972927449	-63.7331101246635	-143.535608784734	-77.9854795375068	-93.7377224756712	-23.369215073246	-3.1800257493771	
2403666666.66667	-17.3317015082792	169.255559615598	-64.4945073307811	-149.553951185354	-83.1637219323389	131.4941954929	-23.8847866553943	-3.65603493624297	
2404000000	-17.4274200319632	168.053161383848	-64.477335425696	-168.321124037054	-75.5898702088971	-142.53280856963	-24.4058885504603	-3.60534056800777	
2404333333.33334	-17.505504983767	166.937391442083	-65.1102060402646	-160.10810383247	-84.6805103574002	101.801910765861	-25.0019004746246	-3.63441633260019	
2404666666.66667	-17.5859237798294	165.671671505772	-65.4159650549366	-175.859703428521	-81.4620037835123	155.698462198328	-25.592114762128	-3.23298385024895	
2405000000	-17.6726659802998	164.413251573222	-65.3474068780005	178.29019872655	-73.2914337760085	-74.5512415196961	-26.2598447071006	-2.82362787749263	
2405333333.33334	-17.6989627111107	163.204994292794	-65.437452127688	155.315504869522	-84.4013285857718	76.6126803279571	-26.8849688360065	-2.06585287991515	
2405666666.66667	-17.7595677910716	162.058051759881	-65.5427566036511	171.072318407612	-80.4530177451264	172.571518790025	-27.6403336950904	-0.616670284203284	
2406000000	-17.8332714827771	160.824240662813	-68.1551511459345	130.689084109325	-72.682039244898	-47.4598957892935	-28.3379520432799	1.0726091812048	
2406333333.33334	-17.8841548706284	159.49467327074	-63.7877956618651	135.457710812312	-75.99975874173	-125.014531615472	-29.0553510088494	3.24605576231501	
2406666666.66667	-17.9509974934555	158.188109721748	-63.9680803710809	133.135128938866	-82.4639135515236	152.449642071826	-29.8489962194679	6.56864333750296	
2407000000	-17.9976719498299	156.90822192294	-66.4292171441878	110.992759788858	-81.0835219022106	124.548095718949	-30.5896917296924	10.2387916125607	
2407333333.33334	-18.0669467011324	155.530639392815	-67.0346749042603	109.185870714367	-82.2777139158417	151.578236585749	-31.25157269732	14.311753065202	
2407666666.66667	-18.0910562350547	154.242601962362	-65.1341564942704	98.0335659776695	-81.9812214399156	-171.206347165888	-31.8885296348787	20.0214958772804	
2408000000	-18.1314097937778	152.94615897813	-64.7777894638403	88.3745494632936	-77.6559312434894	25.9848856613149	-32.3588387403489	25.8172029330378	
2408333333.33334	-18.1666724386877	151.63674165823	-66.2949572602564	88.7787653970086	-77.1589135774232	59.540028068888	-32.7041056761741	32.3214373889369	
2408666666.66667	-18.1850333756239	150.357953610007	-65.7426368465985	77.3711186965012	-80.5623775682913	-155.920075084578	-32.8813506014433	38.947311690836	
2409000000	-18.2016761499545	148.990661560334	-64.2306115329781	84.747488169329	-81.9216950754883	122.966585543887	-32.7747381932197	45.2960418398745	
2409333333.33334	-18.2217582397506	147.557093439777	-65.5819030919839	57.8104269258064	-78.4727581750007	-84.5153990821909	-32.5894803089896	51.4089777516613	
2409666666.66667	-18.2251662478588	146.340229822548	-65.1605351738384	62.090599988816	-95.3193881130876	163.16654221667	-32.290288780918	56.4174094692946	
2410000000	-18.226742683824	144.989727561425	-63.6968694146427	43.8439295191922	-73.7015462876614	-99.2593820288227	-31.906447373991	61.0818401581992	
2410333333.33334	-18.2074916476764	143.656208089959	-64.9003593609007	29.6809810684731	-89.9196030026662	96.3725268436792	-31.4641930545957	64.8278934458196	
2410666666.66667	-18.2038428980994	142.38265513057	-63.4317050162494	13.6769157186276	-81.6541729763924	-95.6947323223786	-31.0178153476657	67.8374900149458	
2411000000.00001	-18.1720673364879	140.887421590565	-64.7257445743146	17.4090229065337	-71.3855395257546	14.8169239194018	-30.6109973232828	70.0450569564086	
2411333333.33334	-18.1462997670525	139.716336153964	-64.7477539991182	-8.08411929907184	-78.172327044771	53.8656372723334	-30.1503550068722	71.8864582966095	
2411666666.66667	-18.1041153365515	138.313462687205	-63.9605517706753	-0.752674960375953	-75.9844460691457	-63.8749474116139	-29.7618008192909	73.0498944950362	
2412000000.00001	-18.0609101772536	136.972526893196	-65.8826593966348	-10.2474893625371	-93.0978809561085	-111.94498803152	-29.3195610152952	73.8536897007868	
2412333333.33334	-18.0179274096045	135.662465674357	-65.0261133803879	-17.9401577587905	-78.9005104483536	-99.1208313633795	-28.8698916609853	73.9827680864472	
2412666666.66667	-17.958513080774	134.374090320535	-64.3799257128583	-17.7937479686915	-85.1044263382698	50.9486327167654	-28.5659672621467	74.0927230799057	
2413000000.00001	-17.89736085922	133.073672417762	-63.3774874375446	-47.8826048273685	-80.498293833699	-18.2165759244772	-28.1716969037334	74.2942593758141	
2413333333.33334	-17.8286862304657	131.712477646022	-64.6695777994758	-47.1946474407827	-77.0294778460045	-95.9281147038385	-27.8878180750584	73.7690177773312	
2413666666.66667	-17.7509768758186	130.489914720586	-65.8287414958277	-60.9194722188203	-73.2789184151293	-21.3299820780356	-27.5572461998838	73.2107563176526	
2414000000.00001	-17.6872335855203	129.299242839782	-64.5830302259835	-70.9882522187721	-78.0113170609962	-139.751398412841	-27.2929755690705	72.4313830794331	
2414333333.33334	-17.5923952092031	127.994212461149	-65.5896944308919	-73.6801976677235	-100.424302610657	-25.0677631617479	-27.0256978181645	71.4098200903624	
2414666666.66667	-17.4932035975292	126.771411220734	-64.7816592796826	-71.8207354997218	-92.6663022858068	-68.9165016716658	-26.7810171597299	70.1262085865858	
2415000000.00001	-17.4122143027624	125.552134553128	-66.7492353848461	-92.2618299217254	-81.6756183697109	51.4094344139465	-26.5039441387436	68.6964523573175	
2415333333.33334	-17.3032289864759	124.488294575334	-66.3117683776981	-101.225089935646	-76.3334319718007	-176.971050923814	-26.3431831077221	66.9604745574426	
2415666666.66667	-17.2069227534203	123.262097961854	-66.0457235263588	-112.321286813707	-85.4031590577376	-11.0773370720072	-26.1292490425636	65.5563397169527	
2416000000.00001	-17.1007012753523	122.164046532851	-65.5322823509289	-113.379763859934	-86.8414046044665	69.3407411360516	-25.9518934612762	63.8893967259096	
2416333333.33334	-16.9838358274668	121.102619283708	-66.5289537783765	-131.140306381589	-79.0251546181946	-138.975269671328	-25.8005989584364	61.7903002829218	
2416666666.66667	-16.8820515213099	120.01182014922	-66.762048682197	-125.498550691163	-82.9802474076435	-124.183681909353	-25.6255474412017	59.5640876221969	
2417000000.00001	-16.7691260859146	118.884387596452	-68.9514839894033	-151.736406644608	-77.9399693464331	-77.4817311309849	-25.4889513254347	57.8117882429701	
2417333333.33334	-16.664127264854	117.914059538259	-67.2519440901082	-152.953419857241	-80.1985845059523	-135.197937967751	-25.3524303910814	55.6911130183174	
2417666666.66668	-16.5205697680859	116.857178225805	-67.9814150934558	-178.399109715056	-93.3833564348809	98.5570661398026	-25.2146255223318	53.5278750253276	
2418000000.00001	-16.4262116371592	115.954731872492	-65.8139825346849	-174.667507598887	-83.6087111340408	-28.7861665747214	-25.1087923117555	51.1303861569792	
2418333333.33334	-16.2924874086504	114.931995898118	-70.5971856682499	-173.383823085982	-77.2182463320494	52.8573166214175	-25.006734055943	48.7077970549678	
2418666666.66668	-16.1848691132642	113.933258770902	-69.9663176852712	176.765945627523	-81.1711954574807	17.9183970681564	-24.8933700774919	46.6833532373841	
2419000000.00001	-16.070170459907	113.034495337664	-69.390326847246	161.526241068184	-78.535113389315	38.4657230424742	-24.8125658180884	44.2040073628651	
2419333333.33334	-15.9486741089846	112.127233368637	-66.5645524929726	162.687593519585	-82.1499592185397	36.6479311757118	-24.75705470761	41.9844163443458	
2419666666.66668	-15.8378727553428	111.161837049322	-67.8847819793316	145.149924377864	-90.0235200072776	179.855381679787	-24.6949853888043	39.6075110928785	
2420000000.00001	-15.7312219136338	110.325643191117	-70.3780891417692	150.861060128591	-81.8121667435918	7.4799363361906	-24.5824682806063	37.1301868866377	
2420333333.33334	-15.6084114487561	109.508055580744	-68.9970615756655	113.041473798271	-76.1529600651235	26.7389766984493	-24.5208295259649	35.0398840971648	
2420666666.66668	-15.4900903742576	108.639676882543	-69.824039225352	95.5974914932601	-79.2347020203463	-66.2575432843474	-24.4548828190169	32.5827923223172	
2421000000.00001	-15.3851393415453	107.805173367533	-66.2886838747944	105.409859960275	-80.1332411897662	-43.9726589638928	-24.4043874160843	30.2169404324504	
2421333333.33334	-15.2743974720489	107.045031322958	-66.8566530649298	95.9245823195347	-86.9654764537835	-152.949361781581	-24.2858188815473	28.1247908644656	
2421666666.66668	-15.1741702245794	106.226584952891	-67.7409314573718	81.0423713308399	-79.6467993364346	126.479834382421	-24.2401632703765	25.8148627384514	
2422000000.00001	-15.061704421096	105.462000410514	-70.7271719943843	73.8656778832679	-82.9906834341495	112.51979185206	-24.137120759216	23.8042240384628	
2422333333.33334	-14.9676820918023	104.681829427605	-69.2009785403374	61.6388075118591	-76.764682503579	138.667965770092	-24.0437300589214	21.7262489510508	
2422666666.66668	-14.8561181941055	103.986700185579	-66.9216721976599	49.4149468328117	-93.2802021360625	-28.7861152219612	-23.9882406343142	19.773133294904	
2423000000.00001	-14.7704066640679	103.238631367446	-69.1428886097709	55.3585979255066	-96.2424987137528	-108.154974581139	-23.8969822704538	17.7473008263073	
2423333333.33334	-14.67427172505	102.565670719854	-71.2423691990686	52.908445022905	-89.8303845379833	27.6984617345494	-23.8191066464603	16.007180555439	
2423666666.66668	-14.5804762004429	101.821819697242	-66.143635354436	47.0167728253632	-84.2097388615624	-49.7662928486794	-23.711546307616	14.1511900568301	
2424000000.00001	-14.4986978237359	101.176675274352	-68.4468230063458	-0.22075893081089	-82.5304429340761	88.033570022095	-23.6260979271144	12.4010091244077	
2424333333.33334	-14.4092759323288	100.4993753023	-68.8868526786513	27.3383569958373	-82.5108871592073	-113.206693327441	-23.5567417298724	10.7839917010573	
2424666666.66668	-14.3285338510466	99.8252631769888	-71.4758804319017	35.5174560527617	-86.8600144522797	176.046282366951	-23.4684310279938	9.17959406765916	
2425000000.00001	-14.2580867041305	99.2243945963051	-71.0083562869793	23.4717684107597	-83.7491651300021	-48.2260942101857	-23.3779835080504	7.57754842960365	
2425333333.33335	-14.1766867085784	98.5894511864589	-66.7369441840396	-1.04389235666229	-83.1277775392173	-31.8429399378591	-23.3012222682284	6.1543227968893	
2425666666.66668	-14.1034721863868	98.0183456383709	-69.6444181409892	-29.2075646857782	-80.3437786388068	106.707213508472	-23.1961791281422	4.8555946127584	
2426000000.00001	-14.0384228271507	97.3983299776857	-70.7633455610877	-16.7798177230444	-82.728003707169	29.6975993052552	-23.1100111314061	3.45191140820296	
2426333333.33335	-13.9740431819922	96.818905006677	-70.0282440061167	-16.9111680071091	-80.4334215643963	-157.228386690497	-23.0372095004608	2.35977952022021	
2426666666.66668	-13.9049550581427	96.2812317526218	-69.7411888104177	-54.3931294834986	-82.0960918580031	135.87470411591	-22.9699723047356	1.27406591434311	
2427000000.00001	-13.8465991129083	95.7828593643252	-70.5951813994195	-65.7177090943475	-81.5365007688813	-169.387075848541	-22.8495753274638	0.164333748885289	
2427333333.33335	-13.7904726022371	95.2100627980161	-75.2967754491509	-37.5933261654119	-75.220329773417	-17.1823472059346	-22.7657647086554	-0.576013640465008	
2427666666.66668	-13.7362163753345	94.7200049742334	-71.1602336101057	-30.2764366698873	-80.2045898873254	29.3606141218293	-22.6659475730317	-1.56137461045675	
2428000000.00001	-13.6947517538271	94.2009817888063	-74.7632894212488	-68.7443550061939	-72.2659125397338	-39.9417766691924	-22.5635507940377	-2.43750781748706	
2428333333.33335	-13.6442995263926	93.7512863275924	-73.8748696089654	-69.7686673084917	-86.0781644381233	154.300529923482	-22.4826178952834	-3.07648267455359	
2428666666.66668	-13.6040628781821	93.3205941764332	-75.1487427613384	-125.906489585362	-80.5081852529689	143.569800268768	-22.3812357866451	-3.62071160243442	
2429000000.00001	-13.5684411695457	92.7808253600402	-70.3618912167606	-73.5605212444926	-78.5525616057506	-106.877818549615	-22.2797020128989	-4.26167815579712	
2429333333.33335	-13.5249843614469	92.3923585962242	-72.841592683993	-130.444254694082	-76.4391740013151	-154.398738776817	-22.1728265392344	-4.6615810526905	
2429666666.66668	-13.4886136940006	92.0599154039695	-74.2390262101136	-121.807880276067	-84.9687815618908	5.88180059602691	-22.0731807345532	-5.26910170746357	
2430000000.00001	-13.4484522384118	91.6569139147188	-82.6761470789946	-129.951667332665	-81.4765805243044	3.15134160495248	-21.9975392135472	-5.54601338448344	
2430333333.33335	-13.4246813308372	91.1990359892075	-74.5128800297717	-133.464932033574	-78.7054564100579	114.522141592231	-21.869352928197	-5.87680573779952	
2430666666.66668	-13.396838135905	90.8207376835798	-74.8304711045054	178.705264663782	-88.3460286993225	154.850141317781	-21.7785996552995	-6.25882258350566	
2431000000.00001	-13.3750533630544	90.4700193045114	-78.5657600605525	158.155162410245	-81.0709347328599	-124.790119876161	-21.6672979117121	-6.37501623098592	
2431333333.33335	-13.3515563422597	90.1244371471404	-75.5506923008011	158.70029320473	-76.429355621354	106.627436404585	-21.563144593304	-6.50670901411388	
2431666666.66668	-13.3216874016086	89.8151925149547	-80.6805326965212	-161.054131606804	-80.6233954756863	-143.04913253616	-21.4478422638942	-6.66446548454789	
2432000000.00002	-13.297745284832	89.4653284109925	-81.5961406100364	176.831453811461	-78.1192495179804	39.3186509405039	-21.322998792853	-6.61487991890298	
2432333333.33335	-13.28632101844	89.1290819619819	-81.4308297455794	-152.036851903566	-75.5604398183432	34.0950909180995	-21.2069977578784	-6.69116431597091	
2432666666.66668	-13.2730465425756	88.8213162709973	-76.2858142403717	-136.05026177687	-82.621389004029	-19.6077681372511	-21.0846436446258	-6.86348087343269	
2433000000.00002	-13.2611302235152	88.546359136723	-76.3865700906564	-157.504303798946	-79.0172650565456	-5.50222619215692	-20.9588249188571	-6.8320652336893	
2433333333.33335	-13.2483840374491	88.2901891285405	-78.2206012154416	-90.6439638940257	-78.64954310634	24.5780976228175	-20.8413054076907	-6.79368998893757	
2433666666.66668	-13.2445189836465	87.9497067163917	-76.2263739759646	-171.982952277522	-73.3579242401401	-66.4226410030781	-20.7200770670545	-6.85002365824143	
2434000000.00002	-13.2319519063719	87.7654583990471	-80.836015513646	-117.893022537666	-82.2727838465161	143.24106662324	-20.5982666435284	-6.82002464184245	
2434333333.33335	-13.2194929196346	87.5071415074621	-75.0018333926408	154.681155042574	-91.1964021504008	39.9003990459047	-20.4650531036823	-6.80082542565673	
2434666666.66668	-13.2198677671883	87.2868520401307	-84.8372020495936	73.754742117628	-81.7755932547148	-41.5956754124248	-20.3390560282456	-6.77113298094724	
2435000000.00002	-13.211647416372	86.9796808962424	-85.9867357739173	-147.402079706848	-77.4129414576943	-8.24064897389741	-20.2027680921258	-6.88269319160475	
2435333333.33335	-13.2100504188865	86.7256770131883	-76.2016318444214	-147.142513815504	-87.2415982871821	136.195626133751	-20.070332980663	-6.91263520624105	
2435666666.66668	-13.2062772146851	86.5251225751714	-75.9039370424237	-172.706078315498	-71.9470107974977	154.236297026943	-19.9566068858044	-6.92312380905854	
2436000000.00002	-13.2081297822896	86.2068924545602	-77.7294328959973	-177.290450410437	-93.3488683136834	103.167579478543	-19.8288580206567	-6.99739577953853	
2436333333.33335	-13.2066965046128	85.9533460659336	-78.4347691300501	-179.72205323708	-73.4772978868303	129.283949372972	-19.6999948642179	-7.02693300455941	
2436666666.66668	-13.2058529093946	85.600912451317	-70.176331256055	135.292341288068	-72.8110131347706	58.3264300027863	-19.5972051686076	-7.27065034068776	
2437000000.00002	-13.218144076076	85.4618736466487	-69.2698006607796	142.012263781182	-82.2265641242237	44.9285880397658	-19.4842759382578	-7.29642841856638	
2437333333.33335	-13.209302795717	85.1979328736871	-74.8912148634847	151.689793797805	-73.6532706892536	-15.2938518205134	-19.3722929973514	-7.40297713925067	
2437666666.66668	-13.2284956670571	84.9207958842322	-72.16611494294	129.593291205884	-86.9973056245476	-16.6945382097158	-19.2869368762449	-7.42118536412348	
2438000000.00002	-13.2477486339885	84.7360229432101	-71.2845847106624	119.771613990758	-80.4677572198847	140.504533002988	-19.1672610934467	-7.67802180818249	
2438333333.33335	-13.2432621980918	84.4347822187931	-71.8916759688546	73.1910392739914	-99.0979033011835	7.66282734336497	-19.0877357839377	-7.72598684194152	
2438666666.66669	-13.2478595330285	84.1845182418463	-71.7644429519592	104.682215202801	-79.5494221550526	-54.4676742114665	-19.0050588825904	-7.89952153172038	
2439000000.00002	-13.2540710708107	84.0062504594765	-73.5232010479185	89.260649900976	-75.2068778122419	38.9996866305252	-18.9313119539777	-7.99869507282494	
2439333333.33335	-13.276184470748	83.7052309061267	-70.6300908188433	80.1784073890094	-83.1694558687802	156.25690682757	-18.8516498857386	-8.40012896562467	
2439666666.66669	-13.2907864238357	83.4386018334679	-71.4406464717342	82.6052723439368	-80.2455564670219	-135.09447944772	-18.7932599864442	-8.27598775509926	
2440000000.00002	-13.3010187410191	83.1397778224058	-72.2682784741949	86.1741330350891	-79.3367702572748	83.1285212306522	-18.7378355595429	-8.53705247113728	
2440333333.33335	-13.3304765720205	82.9247451216963	-72.8351303862482	78.9587099127518	-76.6399739556579	-35.8162375227923	-18.6911296948317	-8.69010275675093	
2440666666.66669	-13.3459579420742	82.7185007751403	-70.3987755953851	48.7897566431686	-79.8207153968376	107.448192008611	-18.6358587081751	-8.92338670730656	
2441000000.00002	-13.3717857502616	82.4285892877603	-69.5573131355314	47.9843637880085	-90.0743615443741	8.1057224144866	-18.6016387033195	-8.85778837117574	
2441333333.33335	-13.3603735088749	82.0868213185607	-69.4361705981645	36.8152765088614	-82.2453931740569	39.9438331574075	-18.5851804557435	-9.00590671729973	
2441666666.66669	-13.4055010021553	81.8000140253295	-69.8727474948027	32.5913118535208	-77.7567398081254	-123.494410366995	-18.5472288910374	-9.17213681845635	
2442000000.00002	-13.4181771061316	81.5852083238715	-69.07126383549	22.2759316539381	-79.3191471950622	155.822206442801	-18.5615380128481	-9.44976060761527	
2442333333.33335	-13.431415200815	81.3544923647337	-69.7227926135961	-10.9170086560805	-73.534454863559	169.528311313134	-18.5305827352875	-9.39940947720335	
2442666666.66669	-13.4553007198411	80.9556345481004	-70.5180152333464	-28.9439460527676	-78.2542367231055	-37.3091290123599	-18.5428686328062	-9.43614580097205	
2443000000.00002	-13.4943310260252	80.6499453719455	-68.8805531163406	-24.5093929900389	-86.1587122746697	101.049681739811	-18.5347096435944	-9.50751430021504	
2443333333.33335	-13.5088954343999	80.3779264539966	-68.1351520367365	-53.1856023175136	-96.1787358250478	130.372809361439	-18.5765273537785	-9.59919668904146	
2443666666.66669	-13.5339997525161	80.0642504299163	-72.5172394986229	-85.3909534656096	-84.6760829825621	110.62269721673	-18.5825287547754	-9.66316153419292	
2444000000.00002	-13.5513154138892	79.7300963486757	-72.694857910268	-34.2050710497838	-78.6483499110257	-62.9989002350727	-18.6229285093337	-9.69242649650536	
2444333333.33335	-13.5883084871125	79.4151460626695	-68.5347088002488	-39.7519470708942	-73.8644045428859	-82.0903562339279	-18.670344385058	-9.63840322028522	
2444666666.66669	-13.6032857859765	79.0359514134129	-71.2606992625356	-79.9241533132622	-89.7846570593832	31.1608005854444	-18.7002813763275	-9.64882032686379	
2445000000.00002	-13.6342863207167	78.7726030959501	-71.5531642586736	-37.0685810188055	-83.3139913108904	126.918609893587	-18.7585652950272	-9.53725847677435	
2445333333.33335	-13.6568435829047	78.4358363274462	-69.4095044138598	-100.995805342014	-78.8906233786835	42.3446007302377	-18.8259734190582	-9.48524543382406	
2445666666.66669	-13.7012021545352	77.9890098691866	-71.7242693734073	-64.0902838070662	-82.9175763215174	-22.9049837853541	-18.9018518657729	-9.28074448984223	
2446000000.00002	-13.720070110682	77.5560093349445	-68.1343925480697	-105.645911733164	-97.7491220233384	135.91995617363	-18.9672698833581	-9.23152578972623	
2446333333.33336	-13.7677793570082	77.2206723121035	-70.1047017973045	-137.223467535936	-88.1128387473479	31.6662823660323	-19.0679363815918	-9.00488630275169	
2446666666.66669	-13.7758068752804	76.8219120096853	-70.2424445190232	-111.339664431081	-84.1431602122801	66.7528646249182	-19.1635469541814	-8.79919472141477	
2447000000.00002	-13.8058673812164	76.3800586648628	-69.0126502865637	-151.6663513289	-96.003779447652	35.0059263236786	-19.2607492328842	-8.30093130492321	
2447333333.33336	-13.8515199610905	75.9989966586574	-73.2903464434043	-135.449582550107	-79.2532764161298	142.903142046917	-19.3483254239281	-8.16621728228056	
2447666666.66669	-13.8538275427998	75.638606268778	-75.795215246662	-138.583445949293	-74.0459758578359	-92.3902783963379	-19.4960131695444	-7.34017730129256	
2448000000.00002	-13.8869011290222	75.1874634831192	-71.6684657686985	-160.047240891184	-86.7624840354472	-136.600533687122	-19.589272389845	-7.08571992554488	
2448333333.33336	-13.9070114206323	74.7364947838072	-75.3536206450304	-163.167302281766	-75.6033529145812	119.751544595186	-19.724093311799	-6.5041130906076	
2448666666.66669	-13.9485298131528	74.3039275121293	-69.7153470125946	173.073199866209	-80.2569436009322	159.147931796284	-19.8599454156231	-5.8593003587371	
2449000000.00002	-13.9699169735497	73.8246925444278	-70.6520957839709	-178.094854096867	-75.9901037947847	22.8835754281064	-19.995368440047	-4.95982479800988	
2449333333.33336	-13.9863569317657	73.2502445796011	-71.6914925840294	-160.437515164854	-77.9735179580089	46.8579047020034	-20.0973862399205	-4.22777204804922	
2449666666.66669	-14.026215483352	72.8109627761848	-71.2612303338873	156.448621278808	-80.2814617256241	122.935067188812	-20.2362428282689	-3.24550288841745	
2450000000.00002	-14.0340650817087	72.2554207028107	-71.2672216597036	167.707533988224	-85.2203828586599	71.8561804041561	-20.3604536923184	-2.07382364140346	
2450333333.33336	-14.086201426251	71.7566997797672	-74.717714781666	165.288658469258	-94.0661708155409	56.6585222853088	-20.474368565174	-1.13015133771383	
2450666666.66669	-14.1073109827885	71.1801326285093	-70.1890329091997	143.226186963217	-79.9737217872713	126.933663562832	-20.6044791285179	0.26500094055649	
2451000000.00002	-14.112553680434	70.6838089654301	-69.5515989095868	173.944383342887	-85.2132583277098	132.874659089799	-20.7033363642163	1.65429818923004	
2451333333.33336	-14.1341693160111	70.0991543683301	-71.7086125922974	119.65422901958	-91.1615778506269	103.908609594093	-20.8204248296787	2.79870895602532	
2451666666.66669	-14.1511313855028	69.5672145754116	-74.0619445960945	92.5125434513596	-81.7136209672581	-168.054547573604	-20.9062305179972	4.00622720358827	
2452000000.00002	-14.1753089157548	68.9039983415312	-69.2581019080286	142.053033164402	-75.8158821364926	54.2958754196469	-20.9893626017551	5.85936977564795	
2452333333.33336	-14.1797303905798	68.2476237786021	-72.3363263559897	114.766365748831	-81.454845898507	121.974758793828	-21.0417000119024	7.39115918735119	
2452666666.66669	-14.2013101640717	67.8092515046525	-66.9884109702911	100.573830507583	-81.8966280127046	114.9031018556	-21.1021107530667	8.68581525189233	
2453000000.00003	-14.217049509035	67.1379960120778	-70.6560760832891	105.915761189631	-83.0889521573609	-104.241598978719	-21.1225745093559	10.0226302079949	
2453333333.33336	-14.2218398270332	66.5020763393439	-72.414962927292	66.9528093990768	-80.6982651161967	-133.274014650069	-21.1553007836298	11.8410940686721	
2453666666.66669	-14.2426224123624	65.8096113421132	-75.5976394824012	102.578898114497	-77.9868457418	171.228113695592	-21.1588381251666	13.4351747401523	
2454000000.00003	-14.2421779478753	65.2091232666856	-71.9723931347548	60.3322336949192	-79.4947316358486	-136.111932451775	-21.1577295002667	14.8887604222495	
2454333333.33336	-14.244036686538	64.5285259225465	-77.8114146690905	57.716875728431	-78.5495323978982	-133.879213911809	-21.1527723061236	16.5815224208539	
2454666666.66669	-14.241854905867	63.9296579468644	-72.316512771382	32.3879769654991	-84.1053207931184	59.0180512954517	-21.1120734299346	17.7643304673724	
2455000000.00003	-14.2426009926445	63.3010268999169	-71.5993289333197	49.2333113230319	-77.7049299648207	59.4343728413139	-21.0945659893128	19.2991082113183	
2455333333.33336	-14.2479419606756	62.6421227198061	-70.8795769678716	12.4039549581899	-75.1854947337795	140.162617219561	-21.0097443925057	20.6667967774481	
2455666666.66669	-14.2356391740174	61.8228616232333	-71.0703535109807	2.0542880693292	-91.4854551243415	-172.378984446489	-20.9482127171965	21.8773100454629	
2456000000.00003	-14.2332900121332	61.1898070968717	-67.6746341541991	-28.7909904214444	-80.9610747249948	-169.804094748175	-20.8958723881105	23.1234390994804	
2456333333.33336	-14.2238994445972	60.4811391250886	-74.6088763916919	-12.3301757568216	-75.3153990427027	174.093597485907	-20.8398670580583	24.3264514214368	
2456666666.66669	-14.2188712349605	59.8097570977834	-71.6294393647577	-42.6731501887155	-84.4708831670388	67.814206925096	-20.7333934367141	25.3213645240965	
2457000000.00003	-14.2012297410585	59.1422463348938	-70.9349349708452	-42.9611203274476	-83.9824206097422	98.0084996775916	-20.6782122844435	26.2194498827772	
2457333333.33336	-14.1917566425909	58.478463990385	-73.3669660148924	-49.7843457544964	-73.914166367848	-147.62339977007	-20.5867076231285	27.1227567271487	
2457666666.66669	-14.15696192081	57.7350115865159	-71.4264959914069	-61.3252929299666	-81.4880011934128	48.1407658440169	-20.5169037283691	27.9089734510319	
2458000000.00003	-14.1432992482507	56.9326553006893	-70.6034298457735	-97.2076211393593	-99.268260740727	-177.874392495461	-20.4218738857843	28.7514924741713	
2458333333.33336	-14.118437975202	56.2631540025901	-70.6557804737016	-79.7115403559396	-79.0566351075816	-140.643891766745	-20.3765207133948	29.3821094852391	
2458666666.66669	-14.0937281456733	55.6099677345113	-68.9303571056256	-56.895049358316	-84.2684243969612	-1.610265313971	-20.2833218219519	29.9255274169116	
2459000000.00003	-14.0798657788421	54.884546721986	-68.6808639709769	-120.185795148371	-90.102773824779	177.629428637619	-20.2258736388044	30.5583901876515	
2459333333.33336	-14.0340896060563	54.1899739657559	-70.5896281623605	-73.5251411779329	-77.8175062771761	104.782675241725	-20.1816975003135	31.100519007434	
2459666666.6667	-14.0177117925156	53.4844885589528	-73.4592269168209	-143.376481936926	-90.8332015567348	-113.851043227605	-20.0969147126095	31.5783520914531	
2460000000.00003	-13.990051383603	52.7869919283228	-70.5138557461615	-160.617420652905	-74.4270779226101	-177.162296609395	-20.0500394968695	31.9252107819757	
2460333333.33336	-13.9483931056459	52.1044953247657	-70.2581541632432	-156.213173111158	-76.7911260202737	-77.7653755411319	-19.9967627460622	32.3426445602727	
2460666666.6667	-13.9163918823298	51.4155749529611	-69.608734070599	-153.153841899021	-82.6902569909409	118.353181646355	-19.9160021903777	32.5257819042616	
2461000000.00003	-13.8814041744733	50.7426234286898	-68.8574468667018	-135.063513134261	-75.8298179987848	165.731365723793	-19.8920615755384	32.9253505943671	
2461333333.33336	-13.8388618643271	50.1123947311821	-74.5964907166326	-156.26177517755	-88.2671810274418	151.739573487763	-19.8363551570376	33.1789323313839	
2461666666.6667	-13.7988620571118	49.3257677877863	-73.1872464823284	-168.157318560273	-90.590497143627	-71.7444020089878	-19.8114745087941	33.3484257764485	
2462000000.00003	-13.7568060758388	48.788931919909	-72.2307888238002	162.715808509008	-86.2488647096894	100.415602319897	-19.7924404738499	33.4578954393519	
2462333333.33336	-13.7250112829091	48.1975233368493	-72.8291929288032	101.190541684652	-94.3308552685372	174.584086816514	-19.7367570754072	33.5597032856015	
2462666666.6667	-13.673482746714	47.5066639696656	-73.7813289369204	144.854234414687	-81.0198354103429	104.582692721762	-19.7156455626252	33.7341514763635	
2463000000.00003	-13.632586175277	46.861574777317	-68.169654233532	131.668077989837	-83.3383163673063	88.9614357191321	-19.6838312836685	33.6333016279218	
2463333333.33336	-13.5748074395155	46.2959005535076	-76.5100410197876	94.7961084283327	-76.535288857088	-76.9609082536966	-19.6829607496699	33.7622888457566	
2463666666.6667	-13.5334371733564	45.6774759870206	-69.8282173436682	87.0593856607073	-85.2672129100037	43.1850207841047	-19.669435727316	33.7522409272873	
2464000000.00003	-13.4793873036494	45.142246775889	-73.9582165145758	91.9713811613017	-88.4888263278266	53.3349092424815	-19.6377973226543	33.6899561428048	
2464333333.33336	-13.4451870939046	44.6166429865842	-79.8157640647863	140.924777052935	-76.326857343867	-135.507222552892	-19.6255753261892	33.3807353345073	
2464666666.6667	-13.3889037266149	43.9880916567284	-74.0456977526472	66.9376590919541	-83.7023979615535	-61.5076785783131	-19.6324796753252	33.3551784234873	
2465000000.00003	-13.327167264029	43.4319953742741	-81.2512518118785	121.719457939451	-73.779811054223	1.37968704563203	-19.6245875212465	33.1732948338352	
2465333333.33336	-13.2799642413393	42.9522093440582	-84.7715315611226	95.9470376933975	-84.3419065278348	-130.492085276319	-19.6129471922348	32.9346738218622	
2465666666.6667	-13.2292995483851	42.3880813325608	-75.0260539367842	36.8140846504071	-87.3887453231063	150.991878479544	-19.625068631225	32.7534551368572	
2466000000.00003	-13.1862029567992	41.9210843780703	-87.48845806413	-53.4901681466413	-73.6366686564194	-38.4858757647483	-19.6311932356254	32.2128096304467	
2466333333.33336	-13.1326458068169	41.4545062433274	-81.659154780202	-143.196155925873	-79.810286030521	9.27420600244567	-19.622372173571	32.0321443924919	
2466666666.6667	-13.0768293568876	40.9266085228686	-88.5294436540241	41.9559703014212	-76.4839660355232	-156.013422926906	-19.6715168852144	31.7086826946809	
2467000000.00003	-13.0222517385222	40.4703347976432	-84.0274763619365	-37.4379078813075	-93.6335964900586	53.9208159665008	-19.7029515405865	31.1926210715735	
2467333333.33337	-12.9715677034284	39.9753179217903	-73.253618954574	-61.3884546769821	-83.7488511254326	-12.9759842117275	-19.7194963230834	30.6343103977083	
2467666666.6667	-12.9060316356962	39.6838968792855	-78.1070925075487	9.08292355878014	-72.7549784763336	-110.590983725669	-19.7658562283767	30.2552374135024	
2468000000.00003	-12.8513522372935	39.2027480018851	-78.8374196785134	-139.102023882526	-83.5735445338397	98.7486191261907	-19.798228815379	29.6349194298224	
2468333333.33337	-12.7968963263384	38.8267797881814	-75.7505319318099	-119.94600529422	-83.3723691728085	-151.081183217682	-19.8687027734594	29.0823020493514	
2468666666.6667	-12.754453389279	38.429984506505	-85.4735251236111	148.264301856995	-84.5752452703942	-178.569289664952	-19.9172361428335	28.5010091468439	
2469000000.00003	-12.6807827963934	38.0493161758164	-84.669515878185	5.24665637634139	-81.8465460618952	-120.017604192161	-19.9498928134648	28.000272061056	
2469333333.33337	-12.6322163932673	37.7209272434772	-83.6028948226521	63.0712384944108	-76.289385387155	179.095319283465	-20.0313813363282	27.2316833499933	
2469666666.6667	-12.5778638365485	37.3479975805983	-96.6740060382627	65.7012527569574	-84.9226803265505	34.445975865249	-20.114641430987	26.5621850640571	
2470000000.00003	-12.506974663689	37.0528614942401	-73.3183307963428	30.2126046018968	-89.99976354275	64.2965263951311	-20.1497416399584	25.8668677009333	
2470333333.33337	-12.4673249146633	36.6323927518538	-83.0254685472275	134.480050937681	-84.088440354726	-143.0645907809	-20.2701402136207	25.1847088911601	
2470666666.6667	-12.4029154226869	36.3279799208012	-75.7645199950714	64.1548063529923	-82.1598120751469	123.658725870652	-20.3197362877724	24.3774410780557	
2471000000.00003	-12.3432866786567	36.0184281324074	-83.1442589115812	-156.086964847484	-77.9179446990643	-56.5100232233497	-20.4087429956002	23.8179250806165	
2471333333.33337	-12.2849419378902	35.7168472820221	-81.2428625971173	99.4059766479631	-87.1399676824321	88.3234738628862	-20.5097521806341	23.0341524860523	
2471666666.6667	-12.2345454942334	35.4873633360312	-74.8169983534201	10.619390134213	-92.6293344336447	-136.331903360192	-20.5767021408144	22.4205390853982	
2472000000.00003	-12.1753534742215	35.193924640107	-76.5671925816566	-31.8234793055243	-78.3090015641686	-126.944796811065	-20.692526862741	21.6488639585866	
2472333333.33337	-12.1086466697151	34.8985232296194	-78.0203008378616	17.2800282113472	-81.6870617257215	-146.757975821102	-20.7665146981988	20.807852224717	
2472666666.6667	-12.0568292637062	34.609063035651	-80.8661829363392	-38.4976453054853	-83.4249390104046	-52.2915085992585	-20.8463447736605	19.9906337311858	
2473000000.00003	-12.0045433058331	34.3144819325933	-82.5765759637679	-37.8371813703202	-85.7463971435725	75.8140829504576	-20.9264989643358	19.2640416518122	
2473333333.33337	-11.9462443916871	34.0844380692843	-82.5406449807964	-36.9656448567493	-79.4420617412722	113.939875540362	-21.0091834536722	18.5312548803889	
2473666666.6667	-11.8836008664575	33.8149074556098	-74.0590139515341	16.7370925614183	-89.5041326669648	92.9207150585422	-21.0901372952636	17.7003048392823	
2474000000.00004	-11.8299174084268	33.5910004383839	-86.5393092183556	-109.062258724119	-79.0092353391683	-89.1445578832268	-21.1669481457627	16.8927810061357	
2474333333.33337	-11.7794712446015	33.3348756313387	-78.1290705430464	11.2163436777465	-81.5584101282008	-44.0419272607333	-21.2184318893571	16.1870493927592	
2474666666.6667	-11.7193786278493	33.1331625433876	-86.5257566380046	-115.885569118219	-81.7490885145919	170.755010700429	-21.2846567883721	15.2998735893535	
2475000000.00004	-11.6656027494004	32.8645272442352	-83.7479636522533	68.5483238573025	-79.1623117336572	121.294835857806	-21.3287583953319	14.4801991876132	
2475333333.33337	-11.6043650838482	32.5851989772937	-74.1297599482678	-110.456993377922	-79.8948841714007	-159.54987572873	-21.3742375404131	13.7718472227053	
2475666666.6667	-11.5488332742124	32.4045079963896	-83.1894320834395	-120.989796205891	-79.6409985008408	-94.2325439988091	-21.4333559412467	12.8424095509043	
2476000000.00004	-11.5003046995907	32.1296260436331	-73.3173494820799	-116.602795306555	-74.8216071900242	-116.352502435008	-21.460274500375	11.9394699353864	
2476333333.33337	-11.4466319349483	31.9241549645673	-70.7737706472917	-89.8504260197859	-72.6073994374337	36.4653170866276	-21.4866189031628	10.9501042313383	
2476666666.6667	-11.3934111676277	31.6132424700833	-74.9377804411602	-107.796551205415	-72.4005387527213	-122.250485948127	-21.5127301751997	9.97381746064807	
2477000000.00004	-11.3448438542439	31.4105771682726	-72.7805396965371	-96.0141654852128	-84.3927599796692	2.9802593678474	-21.5042907222905	9.09200923573599	
2477333333.33337	-11.2917539994972	31.1195875032006	-79.1399251136113	-139.783399511149	-77.7023558201442	-179.805050809836	-21.4985873669217	8.06581943894785	
2477666666.6667	-11.2368207000482	30.9380470147923	-73.4098580407889	-152.195583695541	-80.0260147562352	30.6802783512888	-21.514516127558	6.99196473413984	
2478000000.00004	-11.1860056962606	30.6966633279254	-78.4740316893562	-141.228959984182	-81.9826300497044	76.4175592727815	-21.5139475126997	5.86033997000348	
2478333333.33337	-11.1297934017128	30.46082102758	-76.6433827421332	-108.403899978236	-76.8329826165029	64.5633357584197	-21.4817495504754	4.70838592288228	
2478666666.6667	-11.0954287128555	30.1822956902059	-77.0960585534879	-174.029373360944	-81.3224538738608	64.2408311829982	-21.4724510424165	3.47528661075324	
2479000000.00004	-11.056218883839	29.9310406613004	-75.33500628993	-163.869836032459	-82.455129209307	23.419679092294	-21.4533216726949	2.41242853912471	
2479333333.33337	-11.0072428549726	29.6773151971565	-72.2299494778577	-166.103052617718	-76.3348675097076	27.0569576663472	-21.4197954796833	1.24396596591162	
2479666666.6667	-10.9587701275717	29.3896646456112	-71.9886544078369	164.450327957693	-79.8637313281172	39.0043698801427	-21.3780792080761	0.0394042806247794	
2480000000.00004	-10.9199673034407	29.1009541305798	-76.2300077418227	133.166199150173	-81.3168617084902	-36.1547100826747	-21.3292169710952	-1.20085441507259	
2480333333.33337	-10.872614253041	28.8368572982028	-75.0715013079952	142.881549853438	-76.3821628430382	-91.9196105686666	-21.2748825473861	-2.3540032670874	
2480666666.66671	-10.8413991704047	28.5029323083886	-71.7911588909164	108.935751013031	-84.7946264175111	-19.1587723195248	-21.2267224983526	-3.50799525600282	
2481000000.00004	-10.8039468054573	28.2295237886774	-70.3633634944814	75.4379324789087	-76.5665994688926	108.549214726779	-21.1727827069694	-4.86281984163305	
2481333333.33337	-10.7680164947714	27.9434621107658	-70.3044869886321	77.6957886953405	-82.4959435573988	3.90832112972004	-21.1281695521252	-6.04902397823248	
2481666666.66671	-10.7366596575097	27.5780483461776	-72.8237903069011	72.3831912732234	-84.1327846146085	149.365878752275	-21.0717306137612	-7.46893936127884	
2482000000.00004	-10.7091034946901	27.2717065526743	-76.2321289382305	26.9859876284273	-79.742095408885	56.0468751081474	-21.013381474999	-8.66480651350182	
2482333333.33337	-10.6772600073612	27.0424904699185	-76.7498301575934	48.1126071905617	-80.7645414203613	120.962886540513	-20.9312533155754	-9.97057403854372	
2482666666.66671	-10.6448358766478	26.5928934559127	-72.0869343195201	61.8556385618644	-85.6875955955048	-89.2082587868077	-20.8664420760015	-11.2256562569776	
2483000000.00004	-10.6208663719248	26.290811842937	-77.111798999119	27.4908078743485	-82.7828427823732	-165.406848764849	-20.8065499197415	-12.2666307698652	
2483333333.33337	-10.5942256100318	25.950451390712	-70.0240646531053	44.9139010144005	-80.5364583886492	-6.48477304609568	-20.7271292332092	-13.5049557806469	
2483666666.66671	-10.5733059946012	25.5292338368541	-72.3977269914353	-3.71056418043602	-80.3689149947497	-76.4503949262384	-20.6491092051723	-14.6770123121663	
2484000000.00004	-10.5592978401354	25.1806926648258	-77.0395815785373	-11.9618221225177	-78.0583641903811	-11.6943196540475	-20.5823014980447	-15.9249585157591	
2484333333.33337	-10.5336646078187	24.8729111637839	-77.6141243833299	-13.3312312693748	-85.436462079663	-0.928175290147371	-20.5248333561685	-16.9646303382589	
2484666666.66671	-10.5166029425186	24.4032100158677	-77.3250536305407	-6.91210852322229	-77.3703522272493	-0.514294127281677	-20.450641091532	-18.0902572008072	
2485000000.00004	-10.5039240168416	24.0501520789274	-73.2607019364434	-17.5023624168827	-80.2026459399907	116.656812909414	-20.3630478032641	-19.1978705933556	
2485333333.33337	-10.4918144925307	23.6835727201706	-74.4862104691225	-60.5990859783826	-78.4994924424022	-64.3925049457949	-20.306438950391	-20.1765803213773	
2485666666.66671	-10.4909844383368	23.2508261007911	-88.3775133178566	-122.582054849109	-79.9762365575455	-161.318844421005	-20.239464938794	-21.2181701555391	
2486000000.00004	-10.477734998458	22.8260849479448	-79.7662907545977	-11.6581509757012	-88.5715693929364	-143.995130922349	-20.1666073322178	-22.2429796001834	
2486333333.33337	-10.4715135077417	22.4302097802931	-73.6667392983116	-115.638863391901	-76.2309522677188	8.78512174261449	-20.1005848126032	-23.079823412246	
2486666666.66671	-10.4685948670794	22.014458703825	-72.830698813757	-128.975234789994	-77.4603453874589	-26.2279710554643	-20.0595588385484	-24.1489444845562	
2487000000.00004	-10.4630830402978	21.5363879278868	-73.6905049450884	-53.9556786552876	-87.8723843489485	45.3423972344322	-19.9986599729703	-24.9987606579851	
2487333333.33337	-10.4744705497555	21.0806695047672	-81.6083022179836	-65.211105256794	-76.3272524404955	-109.870185525093	-19.9337309069626	-25.9246626423889	
2487666666.66671	-10.4827339628907	20.6890341697712	-80.0049585368238	-149.362312991298	-72.4551039645017	-35.1087268447911	-19.8816904685717	-26.6342437732715	
2488000000.00004	-10.487768815641	20.2547630286717	-83.6397173716754	-138.138007116136	-88.8446066217407	-28.7115181810156	-19.8283508423228	-27.3923500626497	
2488333333.33338	-10.4975306715279	19.7629466862785	-78.5707590233738	161.1731107264	-78.6024074466054	5.2549539189411	-19.778997062166	-28.0372712196377	
2488666666.66671	-10.5032761248604	19.3481088445479	-76.6168843248273	137.274184603431	-80.0085877381004	-88.6314940623995	-19.7424745235185	-28.7924403115529	
2489000000.00004	-10.5206984813213	18.8743021694613	-71.5563107094754	127.927488569207	-86.106812688548	50.5593541216891	-19.687303359989	-29.3545109804297	
2489333333.33338	-10.5277980815616	18.369220262683	-78.0653663942399	70.7798453498704	-78.5160312989917	-147.471410699838	-19.6536649484782	-29.996652825922	
2489666666.66671	-10.5419728160339	17.833529086847	-78.276601480791	98.9077200732153	-87.8574897445636	-81.1829593146604	-19.624667502987	-30.4864536517192	
2490000000.00004	-10.5619950965778	17.3617837829439	-80.3988053995238	82.8293798983011	-79.6858531582602	82.0586766495015	-19.5748653727217	-30.7733097765285	
2490333333.33338	-10.6011038397631	16.9171490537133	-82.4418898303975	-36.1986722727348	-80.0588852967313	-137.932893679972	-19.5220919376978	-31.3759262433054	
2490666666.66671	-10.6109206212647	16.3689578576157	-80.0439832400634	26.5150239588149	-87.7380598750768	125.45179667323	-19.5027038504174	-31.6727668278524	
2491000000.00004	-10.642498620932	15.8946955549999	-83.6907547295083	37.0296764422592	-85.3565386702442	-84.6765831511226	-19.4587392162196	-32.0629444061358	
2491333333.33338	-10.6667391884113	15.3170608449552	-77.2213167669876	33.2016212063989	-83.1205740236244	-175.660210457501	-19.4237946766637	-32.3910226148063	
2491666666.66671	-10.7108003600253	14.9131418697226	-76.682793233896	42.8585800391321	-77.6344221001983	44.6642035112628	-19.4011025892362	-32.6920150461507	
2492000000.00004	-10.732338122318	14.3768899059346	-78.9632016815816	84.4998010679809	-82.9656973518358	-83.419316126462	-19.3555654049581	-32.880159484063	
2492333333.33338	-10.7624189765907	13.8443892502782	-76.8259404411372	59.7081488028937	-86.5553237014841	5.7460608572228	-19.3184753362376	-33.0889645105492	
2492666666.66671	-10.8009844852782	13.2931925355673	-88.9229741800784	-96.8059004068129	-78.1147339904506	36.1001816304209	-19.2752417535446	-33.3087149111894	
2493000000.00004	-10.8427409676445	12.7797248892844	-78.2360639280786	37.2593524251212	-78.2697321590143	40.1179586483328	-19.2505519293605	-33.5082721447756	
2493333333.33338	-10.8713074633288	12.3485712017887	-94.7659633208776	-6.67842992643187	-84.4814152911467	-93.1947555699495	-19.2262318393562	-33.797951730037	
2493666666.66671	-10.9124163165375	11.7826620253576	-77.7572357048629	-74.0817455499276	-76.7495939441862	-61.5418236262953	-19.1734338219623	-33.906486816452	
2494000000.00004	-10.9597780939538	11.2243438214287	-79.5108750500968	-15.8491754411417	-81.338549134835	149.925936987539	-19.1729772962276	-34.0891469631177	
2494333333.33338	-10.9910962213278	10.68429117124	-74.8487130954187	-83.5200432189367	-93.5492402209268	42.6416425291509	-19.1596288288995	-34.2310668617303	
2494666666.66671	-11.0400001432833	10.1066554185597	-79.8122734611237	-122.902319672459	-75.4057594341219	98.6664106159123	-19.1250072805269	-34.3764306701476	
2495000000.00005	-11.0880804278012	9.61139359732618	-83.5324066963762	-120.219147084961	-77.0243937909357	-58.9528743736503	-19.107774870287	-34.4612642708455	
2495333333.33338	-11.1324948872708	9.05639310078385	-78.4009529873012	-134.485773626527	-79.373811163924	70.2675350395978	-19.1054454402397	-34.591316305082	
2495666666.66671	-11.1852649267905	8.58892140284687	-80.6739105315949	-121.19440986375	-75.737941834799	-52.6838705641834	-19.0801985561816	-34.5201270167103	
2496000000.00005	-11.2215596765768	8.00190650366053	-75.7644059707345	-100.323046708094	-82.8358425544236	-69.5144269108717	-19.1057977693254	-34.6704175381255	
2496333333.33338	-11.2709159130306	7.42351957746957	-75.876313409011	-96.8601241827965	-104.051232871832	-74.2886684533702	-19.0972644818393	-34.6507304961187	
2496666666.66671	-11.2999701808408	6.84715124144826	-80.5911519868828	154.245446659204	-80.6288588604356	-90.8087569576806	-19.121291465207	-34.644052610292	
2497000000.00005	-11.3619048735696	6.31015349076102	-75.638199038159	-153.302591469478	-73.3421700589903	92.4272359021256	-19.1385908313049	-34.7006639140402	
2497333333.33338	-11.407375365779	5.77508059587315	-71.6464880758858	-177.456921621197	-80.6949872533149	6.54441940186961	-19.1506573119773	-34.6719742162775	
2497666666.66671	-11.4612316872212	5.19221016123131	-81.0571639893228	164.486385679564	-76.4355160029852	-64.1217759981537	-19.1885826214932	-34.6805723849159	
2498000000.00005	-11.5146506145463	4.6115033106994	-75.440415893287	157.097174386212	-81.3543757928133	5.75168841669573	-19.1958933192093	-34.5070935246428	
2498333333.33338	-11.5535794371319	3.99893937173743	-74.5227700740846	95.1584544866391	-90.5624622764931	55.8688587685827	-19.2143475043548	-34.3716957483996	
2498666666.66671	-11.5881147531857	3.42134763603249	-85.2060546041174	117.337530187559	-99.8626290891506	143.067119657247	-19.2667373233769	-34.2597774938289	
2499000000.00005	-11.6467501189417	2.97183399739072	-78.5306082181801	65.2985955313164	-75.654500349648	-83.5722405605006	-19.3223088637031	-34.2034246380209	
2499333333.33338	-11.6895797945208	2.27980793780022	-74.5674749915633	63.0789351359312	-75.1332342665429	116.480503339241	-19.3601455916199	-34.0370646834707	
2499666666.66671	-11.739946448909	1.65288638606755	-79.5627957865113	60.2066205065032	-77.8395966126706	-27.1135342947031	-19.4128432969457	-33.7224886183119	
2500000000.00005	-11.7849352980161	1.18176619202271	-75.6092990607073	89.7482145817495	-82.6757459466547	2.67218697792788	-19.4534769435623	-33.3688825379363	
2500333333.33338	-11.8274263210317	0.455674265597222	-77.2840502436842	71.2077088553392	-84.5458613813208	94.2121749338608	-19.5395708269008	-33.0774166781561	
2500666666.66671	-11.8725851239304	-0.105154006257545	-72.1911156725611	87.1214097815394	-86.7909797194906	164.361621804162	-19.6153405557241	-32.9300556874595	
2501000000.00005	-11.9177192463445	-0.80895034848555	-72.184880780361	87.883030350472	-82.5795017600124	-116.880661532184	-19.6738930482172	-32.5328030091949	
2501333333.33338	-11.9575417576085	-1.40727305026803	-83.7107936188934	166.323801569141	-78.0245234585824	-61.4688521351941	-19.7495665621806	-31.9648399244665	
2501666666.66672	-11.9945013548225	-2.12935872535997	-77.2793013332518	61.3803256345171	-84.1334708448506	-35.1515287619226	-19.821394003	-31.6581974467852	
2502000000.00005	-12.0369970765183	-2.73601363358827	-79.6940226052589	18.1854697539563	-80.6029384516826	29.9667344242712	-19.9143684135589	-31.1283495201091	
2502333333.33338	-12.0807728372255	-3.43543902390062	-77.0136768125389	55.3333072341203	-80.695303197013	-25.7990566425292	-20.0154942325408	-30.5968623585803	
2502666666.66672	-12.1066969555666	-4.08572208756567	-73.8621777758505	58.6110647102441	-87.9689240979521	-28.1491121954739	-20.114028264744	-30.0795988577036	
2503000000.00005	-12.1439198050183	-4.74686130397682	-76.1204372766538	25.6284394585442	-84.4997288025745	82.3425548778971	-20.2013467784498	-29.3370795732119	
2503333333.33338	-12.1743897820407	-5.42626434614684	-76.9365914274858	13.842156206361	-71.5554275162258	20.8914759642218	-20.297230623444	-28.6145068936727	
2503666666.66672	-12.2130508254201	-6.1403547657138	-71.6891499587306	-33.635854640436	-80.858956957766	-177.51803463444	-20.397379771679	-27.8995956905513	
2504000000.00005	-12.2369661801775	-6.83668967627133	-79.7107815620036	-174.335001288558	-77.2177689982279	-168.938342869275	-20.4811057351761	-27.2638461761623	
2504333333.33338	-12.2599924619069	-7.62082801264026	-74.1147749731414	-33.4781947686893	-86.3375517034624	116.348356452069	-20.6363170054561	-26.2707285915795	
2504666666.66672	-12.2910959738359	-8.29505287467141	-80.4153829306068	-7.05123747914728	-85.6071430687584	60.5243129730638	-20.7204521692051	-25.5252737842653	
2505000000.00005	-12.3114519023657	-8.96740162080954	-80.320703655848	-158.136363056553	-83.3712915203438	-79.220052046432	-20.8366180460546	-24.4582321283508	
2505333333.33338	-12.3341796992711	-9.7842634297914	-74.5353750551846	-87.5866442786632	-103.714597010425	-148.60715151614	-20.9439322755982	-23.4134080624028	
2505666666.66672	-12.3565387321339	-10.5024030465833	-81.1770842980331	-178.454110359671	-73.3684940568177	64.3963588410649	-21.0813464156614	-22.2386961228172	
2506000000.00005	-12.3784759061741	-11.2744172917852	-84.3549319786231	21.6288231862914	-75.0975285785415	10.3778821130528	-21.1788803433134	-20.8773265666501	
2506333333.33338	-12.3918777266787	-11.995770035487	-81.2631776346973	160.93118990251	-80.6280184750109	67.4033037806584	-21.3124898671951	-19.8052707293818	
2506666666.66672	-12.3980165576267	-12.7955835401361	-76.9548060503199	-50.4806677682404	-81.1147033270267	172.64004793443	-21.4299016199862	-18.2166331661497	
2507000000.00005	-12.4246565955485	-13.5843184017021	-75.0930029714673	-105.582555339389	-81.1159219552076	-126.97551638425	-21.5213856650326	-16.84614725245	
2507333333.33338	-12.4305843859407	-14.3490226932838	-90.9672261839984	-178.305696484177	-82.0349386688524	82.2127935873909	-21.6024829434848	-15.1103649735877	
2507666666.66672	-12.432473880052	-15.122322397497	-73.2871433380297	-115.79228332305	-83.271741586116	-174.95265599805	-21.6966394993591	-13.5879792417897	
2508000000.00005	-12.4528030332461	-15.9134607570479	-92.4709725446015	31.1400527122163	-76.3572231107189	36.9481389982916	-21.7701920005687	-11.8758093074912	
2508333333.33338	-12.4572269528496	-16.6886471413422	-84.0234660156661	-112.294724448302	-82.5328735492097	11.3293824338257	-21.8426126769229	-10.3317493612326	
2508666666.66672	-12.4599401378524	-17.4877956246101	-79.5326330930652	-154.747419535115	-79.5383966902473	71.6266623489883	-21.9001132259526	-8.40592539504822	
2509000000.00005	-12.4576757712935	-18.3355375073119	-78.5312662362427	80.2790536381958	-76.5293076317137	132.188798951882	-21.8997891923621	-6.56645525370403	
2509333333.33339	-12.465614050447	-19.0685688905927	-85.8300556331527	-161.382160643166	-75.1739167330246	24.99852688485	-21.9289593587976	-4.40189173409589	
2509666666.66672	-12.4610407765293	-19.8700057286615	-79.7326903809143	117.004302756394	-79.0607586775794	-18.609854291128	-21.9311107214467	-2.79719575914277	
2510000000.00005	-12.4618424463136	-20.701073149664	-82.3654187612719	146.690240889512	-80.6727622455747	25.9752096500323	-21.9316697977781	-0.96738720979663	
2510333333.33339	-12.461202447553	-21.5064438052726	-77.9071407408748	-158.393123432016	-76.3163718005324	2.93675653913578	-21.8921948655775	0.948865768119165	
2510666666.66672	-12.4620756796634	-22.3070146649808	-76.1565020529737	82.7674316387887	-76.8233453399341	139.038419844839	-21.841217539663	2.74899188387828	
2511000000.00005	-12.4538998068166	-23.0972006075339	-75.3264372205598	91.1719657551232	-78.0401056104068	169.387688416846	-21.8214533323183	4.50092475186157	
2511333333.33339	-12.4502120611852	-23.8625559768347	-80.5597467320784	-89.430370013343	-76.8621654213387	39.6042145270633	-21.741149199958	6.27269600280848	
2511666666.66672	-12.4456209162627	-24.6814908797743	-77.6658240545848	-133.871367922466	-77.8922830124323	88.5536810133364	-21.6838376379185	7.90686025590958	
2512000000.00005	-12.4428307283313	-25.441376637283	-82.9411261174529	-51.6915553716985	-78.830393975504	-150.67265344665	-21.5906879468058	9.57480224204765	
2512333333.33339	-12.4272769266669	-26.250408525264	-75.4853766817243	-149.457543138435	-76.8657415718628	-177.591917225504	-21.4983391412481	11.0196405426868	
2512666666.66672	-12.417994763545	-27.0018516020956	-83.4989746163917	150.901708407919	-84.0010335490712	-147.920752906123	-21.3728955494129	12.6489383268552	
2513000000.00005	-12.4130782959688	-27.7301116313862	-73.6500520940986	-135.737050045707	-87.2361583132283	61.9299617705302	-21.2880713781985	14.2263299964013	
2513333333.33339	-12.4008292006488	-28.5277297122566	-78.8146163201928	133.651991052933	-76.6978192990514	130.883425553318	-21.1748592243668	15.6309774643574	
2513666666.66672	-12.394223843872	-29.2355503304768	-88.3656323268774	55.6063952377343	-78.6636760108319	28.8777533085426	-21.0322148533878	17.0656481268111	
2514000000.00005	-12.3837791865183	-30.0129641192727	-74.5005297375849	-163.969371976614	-75.7331847168694	-100.118188375806	-20.8837576574028	18.0979339776679	
2514333333.33339	-12.3731933922042	-30.6897233220656	-82.6631137375472	153.069148824274	-78.8794118432825	134.215529398859	-20.7295195854514	19.2032756678079	
2514666666.66672	-12.3541896644404	-31.5068043319653	-79.663915216273	160.869565656397	-74.638424499322	74.4960329024831	-20.5870679867796	20.217100086783	
2515000000.00005	-12.3420350552659	-32.1960357903137	-74.71651499653	-170.878109041631	-78.2155549430929	-167.867047649098	-20.4542372150499	21.1421675697401	
2515333333.33339	-12.3362075798793	-32.9028009522832	-74.1977345331176	107.403742251893	-91.384975628362	129.055983694017	-20.2924141573952	22.1417901739502	
2515666666.66672	-12.3262331905857	-33.5894071415435	-78.4172395309465	150.930578391627	-82.9079442925419	-84.7938310134189	-20.1655846137662	22.8507094135649	
2516000000.00006	-12.3109415093029	-34.310888500174	-73.1598548007144	86.9889556241324	-83.4280813006912	127.827787029084	-20.0137233557715	23.6358258983292	
2516333333.33339	-12.3099006938762	-34.9835153511267	-71.6125890610375	152.074992661102	-95.5052610217088	22.595864251878	-19.8577645614045	24.0235327371258	
2516666666.66672	-12.2922248251501	-35.6139015480169	-79.1124616369847	129.904830915637	-75.9704839501481	123.447210226176	-19.7300465761141	24.5935732136597	
2517000000.00006	-12.28317446139	-36.2845836170104	-91.3299682664592	-87.1432216255238	-80.9885008350449	30.1250181152392	-19.5811568132916	24.876541648544	
2517333333.33339	-12.2774456965575	-36.8625856608478	-79.3121995285035	50.3872910455809	-87.6310160361604	-46.8581503952075	-19.4809567136508	25.2654449984141	
2517666666.66672	-12.269139449744	-37.5468639394714	-81.487392289705	22.7918111571948	-98.8762131455968	165.35702698927	-19.3464303077633	25.5769370706292	
2518000000.00006	-12.2645753866779	-38.159796319018	-80.1733277470903	83.5433087052508	-80.0909553876045	-155.631645707581	-19.2286358159819	25.5163069917	
2518333333.33339	-12.2568075601998	-38.7763473104195	-88.6376514135188	0.437446174419412	-80.7991877693253	-145.185660182122	-19.113607726795	25.6886372991694	
2518666666.66672	-12.2497715889615	-39.3883602495476	-81.0807582132429	-60.6400197867911	-85.2386941791247	-159.079988335008	-19.0194633314501	25.6646193329574	
2519000000.00006	-12.259145002868	-39.9206878982651	-70.7503702100137	54.1467697824043	-85.4394277781209	-119.437811106594	-18.9402382801552	25.781345437017	
2519333333.33339	-12.2397241061404	-40.4543044562462	-83.9955149136315	-2.88748534019801	-74.3333041737607	164.222560248136	-18.8447081665506	25.641103154047	
2519666666.66672	-12.2418913340653	-41.0182531096113	-76.8104471745827	-92.8309246515595	-79.3690832876256	-137.640684791106	-18.7753434701447	25.4510902309676	
2520000000.00006	-12.2482234439316	-41.5078815368617	-75.2406273212591	26.598232901369	-84.0436976901502	-131.821631735747	-18.7222933404643	25.2025335004242	
2520333333.33339	-12.2438430448176	-41.9863770754557	-75.5735519492041	-33.7380804370662	-77.8415197872063	-36.1203851878828	-18.6718770369267	25.0279779402237	
2520666666.66672	-12.256104897383	-42.512458842459	-76.0891136099748	-132.278285841225	-94.4389161647589	16.4942576596816	-18.6198389752777	24.7108517382676	
2521000000.00006	-12.2419899203033	-43.0086960715692	-93.4383282173803	-114.082315242516	-86.6742335635589	-105.753601787721	-18.5833705888766	24.4248764266779	
2521333333.33339	-12.2559507715527	-43.4945038511761	-83.3123477053306	-101.028459018948	-82.9499823159303	-105.008635421013	-18.5456883446989	24.1208385676006	
2521666666.66672	-12.2424032779411	-43.844750741723	-91.4761730811843	99.2773841532979	-82.9405013587083	-26.2142348285891	-18.5472566387356	23.6819697897193	
2522000000.00006	-12.2597452265978	-44.3460489038381	-74.4943591702159	-24.3061636356742	-75.3448898193922	138.430761811889	-18.5618419105963	23.3136418722189	
2522333333.33339	-12.279882892126	-44.6945580553961	-76.5582677544148	-19.1797748863952	-80.2994050497921	-152.568286463795	-18.5525759467686	22.904299635963	
2522666666.66673	-12.2762077831266	-45.0631375373382	-80.4226322252188	-75.0353729923692	-84.5736003320878	-40.1101477176337	-18.5584171853791	22.5244364972702	
2523000000.00006	-12.2862842690965	-45.3966927582011	-81.9727532703834	-14.8023867968446	-79.6990572353529	116.26940116454	-18.5856871362624	22.1207092819113	
2523333333.33339	-12.2937498026562	-45.7845312801375	-71.3637879437716	-97.6002148742776	-102.175985931996	41.8904971466947	-18.6109320444802	21.6629957871963	
2523666666.66673	-12.3109284109916	-46.0894558109268	-73.3943850808931	-63.3066819085122	-81.8202431313055	163.622791686633	-18.650624681842	21.2894932196171	
2524000000.00006	-12.3129549768845	-46.40542979719	-78.3266273485991	-58.2194122674118	-87.2067082514827	136.420899005907	-18.7026562778266	20.8393421266457	
2524333333.33339	-12.3225306436217	-46.7060506237281	-76.6032918596064	-98.4911764693972	-81.5882521506795	-152.406062291858	-18.7408908977713	20.310968447664	
2524666666.66673	-12.3367510456321	-46.9809871780379	-81.8014377643736	-105.66475292289	-76.5294947394695	-119.356097495543	-18.8043253828046	19.8791134494905	
2525000000.00006	-12.3478218765527	-47.1931813429559	-86.5364062697438	-68.5955613221825	-81.019968959536	-162.484047859414	-18.8580162862396	19.2437314786584	
2525333333.33339	-12.3598178589537	-47.4238417066711	-77.8768000421687	-178.348860775652	-76.9170694958916	-154.866142605906	-18.9045338212788	18.8817793456272	
2525666666.66673	-12.382878776146	-47.6681488146503	-86.374488293349	-106.271568000785	-82.7692026237447	8.2768755022664	-18.9833623104516	18.3696790347216	
2526000000.00006	-12.3926235928461	-47.9019018559905	-80.3975887873252	164.465461477064	-84.3108869204352	-172.524652887735	-19.0527947836131	17.8019051095406	
2526333333.33339	-12.4203513484069	-48.0864477201386	-76.1637323365196	-141.042433812139	-72.0429384563159	-178.286916573415	-19.1186898011169	17.2102804652507	
2526666666.66673	-12.4163004106	-48.3347430663325	-75.3639262429991	-129.470008855959	-85.5222652772796	30.7409693135469	-19.2347872390791	16.7018436499238	
2527000000.00006	-12.439564567347	-48.5037750457954	-73.5793808535	-163.268175433563	-81.2205522915154	95.7159815626988	-19.3393489230863	16.0753205052209	
2527333333.33339	-12.462175363735	-48.7214015279293	-73.18339697572	-166.620488562656	-84.4491894177374	128.115639297865	-19.449518995785	15.5224525257376	
2527666666.66673	-12.4912137822199	-48.7872316808235	-94.1271859582433	-56.8127497170699	-88.6986759970959	-35.7247656926204	-19.5428145278615	15.0793955713987	
2528000000.00006	-12.5074632914933	-49.0441948741904	-77.6876308654726	-136.041212154073	-87.5210546953219	75.0497924513398	-19.6261065153186	14.4756847088872	
2528333333.33339	-12.5332449365324	-49.1737923606698	-79.2426693902503	-164.958021965874	-77.6993891865134	-74.6099985934944	-19.7525994404315	13.8386224117445	
2528666666.66673	-12.5525703458	-49.2508956922618	-72.6416492825744	134.893800454606	-78.8986102709827	-149.474033500958	-19.8729474297728	13.1427241561294	
2529000000.00006	-12.5753777651625	-49.4460603664427	-80.3272182681722	82.2656224400254	-75.3319041713579	-176.58814790391	-19.9884621302569	12.5208782942534	
2529333333.3334	-12.5942217216686	-49.6088534328762	-75.1084814513169	96.3741221027521	-73.0812074404031	-57.9855038776411	-20.1017655537627	11.8430816667549	
2529666666.66673	-12.6277050553804	-49.7053406911832	-77.2469886211811	32.9500940588697	-88.950152711273	133.485710110967	-20.2197065474018	11.2417153401426	
2530000000.00006	-12.6482558151538	-49.8920619154612	-89.1346547172893	139.254002395846	-78.2714994765819	30.5607846540189	-20.3617409583675	10.6027004720738	
2530333333.3334	-12.6734279077702	-50.0525235563566	-81.1227120132804	164.594867919295	-77.9118585036268	162.444425385025	-20.4791318819024	9.87723148970973	
2530666666.66673	-12.7009840663113	-50.2690018707346	-72.3012758172349	63.8465004068386	-81.5917973694704	30.3099583505748	-20.6192373421033	9.17197041917504	
2531000000.00006	-12.7446575018968	-50.433659849639	-72.0939660394375	65.9808763886784	-96.1157120099867	-131.136883354897	-20.7236560972961	8.44972849459503	
2531333333.3334	-12.7798666079091	-50.6337466230416	-78.0966111751658	32.0817264786642	-80.7651112624653	81.0176808485726	-20.8578721108922	7.85901370538026	
2531666666.66673	-12.8136340113349	-50.7595569543791	-75.0425084787692	-1.90607564755304	-83.8733413708205	119.076143948453	-20.9689820312133	7.09160298171538	
2532000000.00006	-12.8453147273159	-50.8108315313849	-70.5352791087818	3.88674718043487	-75.1638184553023	-127.597193387512	-21.0998399446211	6.3009933256599	
2532333333.3334	-12.8795858599686	-51.0900075368723	-69.4480798371395	38.436093458416	-80.6406106225005	52.7878206516717	-21.2096458554908	5.53455706141007	
2532666666.66673	-12.9257585129666	-51.0692800756982	-76.6189675198828	-11.9329216710344	-83.0925616269704	-21.9619755582616	-21.3614512270336	4.82733710876867	
2533000000.00006	-12.9671463963265	-51.2918847978724	-83.098323572322	-12.6587480669802	-82.0063065576766	29.5906847554402	-21.4811323798198	4.02706660272982	
2533333333.3334	-13.0050575844436	-51.4602258300687	-72.9375633921197	7.72789719209265	-92.9984305425944	-68.0669732558908	-21.594696804683	3.13540927495283	
2533666666.66673	-13.0492103395905	-51.6315484503262	-86.0657029701808	11.0905071323513	-79.9029183030217	-132.752183146815	-21.7303952352016	2.35690228550615	
2534000000.00006	-13.0977749432521	-51.830479807467	-74.7445412295661	-58.9128416809647	-80.2962389224275	42.4884084805309	-21.8476673457302	1.66877408323544	
2534333333.3334	-13.1574994096413	-51.932468768307	-74.0134323858304	-108.149692843521	-75.4174625298415	-141.872131076311	-21.9497233368294	0.887210756771545	
2534666666.66673	-13.2027056930486	-51.9928350945086	-71.2759275301118	-86.0894476037076	-84.6402800196983	-39.9758503430186	-22.0349768741988	-0.0508239826527838	
2535000000.00006	-13.2526089193061	-52.1764533503177	-76.6919551002397	-96.0010209105361	-75.0382438787612	-119.399107507061	-22.1422028637679	-0.900243976473381	
2535333333.3334	-13.3123271278894	-52.3775595377069	-77.1854480721932	-73.1905574523493	-82.8406198147499	-166.212667265099	-22.2223212885653	-1.82761173451753	
2535666666.66673	-13.3453664442223	-52.5239031576829	-75.5080455473964	-155.536310568129	-73.6833786118862	-150.592823562752	-22.3173899953495	-2.77234144019065	
2536000000.00006	-13.4258862001302	-52.6883851882105	-85.9862241614588	-133.796789095294	-77.3063642341088	168.694311181872	-22.3796580891045	-3.66533389401565	
2536333333.3334	-13.4820007204276	-52.9314017596717	-79.8083795457534	-105.2475730709	-83.1308296713489	-30.0257268037159	-22.4182165034524	-4.59331508737156	
2536666666.66673	-13.5312987813701	-53.1527575598671	-83.6430110225766	172.214481097487	-84.1928108019385	-33.4653784837521	-22.4857474951913	-5.60502678446441	
2537000000.00007	-13.5868750642573	-53.1515602560209	-78.493147859885	-92.5515493315225	-76.5237158944818	-83.1921075838292	-22.5365819367118	-6.61270867546155	
2537333333.3334	-13.6623871196517	-53.4227862881299	-86.4512912590544	14.8822707347913	-80.9995452718833	-49.1813433346719	-22.5788462469418	-7.68469502247441	
2537666666.66673	-13.703188221247	-53.5078306530082	-77.0522994466394	178.691682657672	-85.3012761925952	117.307134048455	-22.5925931297818	-8.72340634137071	
2538000000.00007	-13.7857287034648	-53.7385911259154	-75.447269712868	-165.613507995436	-83.6768403621927	-177.80429880991	-22.6293673879097	-9.7911119309181	
2538333333.3334	-13.83028909125	-53.7909911059351	-87.5003776295688	-41.297551331938	-79.6583291650794	34.4253635131021	-22.6217464044616	-11.2106737970265	
2538666666.66673	-13.9118818020314	-54.0409142544661	-80.7583562734053	78.6701191115921	-87.2808527993825	71.6558488255253	-22.6487208816183	-12.1010608466916	
2539000000.00007	-13.9873265393868	-54.0358472340248	-82.7542595318404	-164.617057280878	-78.8881766779001	-28.2552583652766	-22.6563032057005	-13.3234754530856	
2539333333.3334	-14.0560449825498	-54.3290846675031	-79.0653636606042	-108.489108596533	-77.0207498462505	5.39710607471233	-22.635565514359	-14.6133252951975	
2539666666.66673	-14.1435097906378	-54.4673572909363	-82.5784616583459	77.4597986749804	-77.7347774419377	56.6479790285263	-22.6137626189454	-15.6684497963975	
2540000000.00007	-14.2042137629996	-54.6839793482291	-74.9298597646126	-22.2394936287385	-81.5870154184116	-139.684121847412	-22.5792221761003	-16.9534287834005	
2540333333.3334	-14.2747092109668	-54.8977113853573	-75.1101653247896	51.8024930828751	-87.6054726734389	-106.876730765698	-22.5595599712181	-18.1055504818831	
2540666666.66673	-14.3644372948875	-55.0582009584714	-70.8133243135126	4.12831450917806	-76.5016567365785	-12.8469662147262	-22.5376532050289	-19.2512747001125	
2541000000.00007	-14.4391957881984	-55.29122493463	-72.0086081901045	-51.1158510830704	-80.6798575202595	-37.6133999745142	-22.4998026479618	-20.6193210340805	
2541333333.3334	-14.5120850127464	-55.4467787961491	-75.9860084938459	-72.6490858286847	-71.8922714720611	-85.1829322678958	-22.451272769964	-21.7761037453155	
2541666666.66673	-14.5681918512777	-55.6987261142668	-73.8570117807035	-49.8476408703946	-74.3552013878736	-45.0204595074284	-22.3798888311641	-23.040832972336	
2542000000.00007	-14.6668120571906	-55.8463838540858	-72.7603232952702	-27.8880884928218	-83.7406858970558	126.421699016868	-22.3368748574472	-24.2949453776033	
2542333333.3334	-14.7506953626736	-56.224685728722	-75.2272505805796	-90.9252925204175	-81.2025516409254	48.2390137015518	-22.272835733433	-25.4234606274808	
2542666666.66673	-14.8497376736635	-56.3573949739615	-73.4638596553865	-59.181015220825	-78.2727393226957	33.6280769857097	-22.2158948503073	-26.6426098966462	
2543000000.00007	-14.9273782032378	-56.5990375374653	-77.1256149492318	-140.043575603807	-81.1204261489987	53.4901557190001	-22.1516572820062	-28.0079153582846	
2543333333.3334	-15.0143773552912	-56.7743957592345	-72.1447549259906	-109.79120452661	-79.0423801121274	-53.206360414037	-22.0563157875484	-29.0248451099074	
2543666666.66674	-15.1128516520224	-56.9478442665148	-75.3172923082928	168.004956893116	-82.5267950634765	172.228931328571	-22.0023760642612	-30.3273380555718	
2544000000.00007	-15.2010486999877	-57.2963217143388	-80.0120933795284	-116.287981792841	-73.2888051803151	162.796067720094	-21.9303569123552	-31.5155601925716	
2544333333.3334	-15.3000160801828	-57.680718004385	-80.4159334971898	-152.8394669788	-79.0338749823661	-17.6064052680912	-21.85655336805	-32.646934705803	
2544666666.66674	-15.3653814761929	-57.9144860770457	-78.0395501829377	-129.34576710647	-78.3650445239601	147.53861140856	-21.7973190276634	-33.8419132578482	
2545000000.00007	-15.4818841576607	-58.2133722768495	-72.7357816429217	-155.858750252231	-94.0272158008709	-4.33897534369236	-21.7064518056916	-34.9339691906776	
2545333333.3334	-15.5599006144401	-58.5103520455204	-74.6055998809147	160.343274978063	-72.3822298065916	71.2426934147873	-21.6631353187395	-36.0068500726939	
2545666666.66674	-15.6623613636954	-58.8435923433778	-68.9477662494218	165.318060303805	-77.5785083215733	-23.8913960881783	-21.6053386806426	-37.1590094744564	
2546000000.00007	-15.750821057879	-59.1738395147521	-73.7420433624826	134.977104325979	-80.1739205814563	-7.10928244167581	-21.5452037050272	-38.2965914581589	
2546333333.3334	-15.850749736039	-59.5720633260679	-73.1956845074182	141.357711757906	-77.54103492387	154.486342847478	-21.5166490325033	-39.2930673442141	
2546666666.66674	-15.9424487129942	-60.0003743958511	-71.0951885871141	118.494426584066	-89.2335296711416	130.34904034467	-21.4364333457389	-40.2505139577912	
2547000000.00007	-16.0532180852267	-60.3106879988679	-65.4378253048689	101.408988897317	-84.3312068980958	-85.7053032442492	-21.3909423378831	-41.2621810612475	
2547333333.3334	-16.1352539783569	-60.80682389706	-68.5127796654515	98.1374527477841	-84.259999616383	56.749877712334	-21.3513839980741	-42.0619003534653	
2547666666.66674	-16.2276127420966	-61.2292256311116	-70.654907136202	75.3623444461635	-74.0381452246846	30.0110214303912	-21.3138219063689	-42.9816491973143	
2548000000.00007	-16.3396206819384	-61.7307622205399	-68.4961922466329	95.3460647939197	-80.47368666332	-28.2073620133148	-21.2866586467536	-43.8759599696805	
2548333333.3334	-16.4451387609997	-62.198427791005	-67.1392390198945	71.5688558972022	-71.6344535900397	-15.2099867468657	-21.2663570207084	-44.7384325092815	
2548666666.66674	-16.5467734282112	-62.6337683643343	-69.94703248982	54.345374839888	-83.0944224800756	-80.7216150321979	-21.2708309775624	-45.5027442290101	
2549000000.00007	-16.6387842060709	-63.1926537579738	-70.633569375881	50.5830902547228	-78.3906558303724	-49.6530012239888	-21.2572846833542	-46.1395546266324	
2549333333.3334	-16.734801074131	-63.8147107940651	-67.9869354710351	28.9987538407275	-81.0879175712257	-97.039281644268	-21.2595037720876	-46.9912737148422	
2549666666.66674	-16.8531594253303	-64.3246336263672	-66.7852599433389	34.9814640716772	-84.1321279847245	123.991955172373	-21.2826026361173	-47.6001769965367	
2550000000.00007	-16.9391761477731	-64.8965632879062	-67.5529433599027	37.2934627149547	-80.8399838102231	115.594312843506	-21.2868754127199	-48.2012037283756	
2550333333.33341	-17.032940128012	-65.6101425564264	-66.5693298492224	18.4134824127752	-81.9178665675116	-148.099175148299	-21.3137676957232	-48.8156912351895	
2550666666.66674	-17.1355375267378	-66.2379357490491	-67.4035888468945	-9.31848234262327	-86.5948134376654	176.105005611054	-21.3551563685765	-49.146460202908	
2551000000.00007	-17.2335957895883	-67.0568384419634	-70.7695839043296	-10.471180909078	-77.7639165656457	23.4881495774312	-21.4036434394567	-49.6147106431427	
2551333333.33341	-17.3472938716712	-67.6711948687061	-66.7099002579029	-25.5082865965997	-78.677287259557	-61.7196474161311	-21.4527463903926	-49.951918431288	
2551666666.66674	-17.4380992452922	-68.3104853781957	-67.3230134430825	-11.317508990647	-85.8996683684276	116.525603048357	-21.5070742802841	-50.1677733671562	
2552000000.00007	-17.5364874471541	-69.0653385026905	-68.207683289399	-69.6277481636941	-82.3707311020225	142.214208190546	-21.581552464547	-50.3425796128965	
2552333333.33341	-17.62236651939	-69.8506576628166	-68.4187664674237	-48.1849367079246	-77.7413236287515	-19.8251534871681	-21.6729903835574	-50.4087163571838	
2552666666.66674	-17.7361091517599	-70.4784931099563	-68.5463856863094	-42.5509079037413	-92.0691846067711	-50.1907808847344	-21.7709964693262	-50.4280391503817	
2553000000.00007	-17.8136243737537	-71.3964205721623	-73.0856164959079	-62.2627349328353	-76.0696893338356	-3.45929205229235	-21.8782338954196	-50.3048321996046	
2553333333.33341	-17.8922798377533	-72.1870905654367	-69.9257786886362	-103.018868762689	-97.5352939702562	89.5864036011102	-21.9874181229906	-49.9794353381288	
2553666666.66674	-17.9921818107585	-73.0434339057941	-68.3470759875286	-98.2803249020638	-71.8846315966275	-37.3349948403765	-22.1109139847243	-49.7556981784161	
2554000000.00007	-18.0840090110058	-74.0076844260529	-68.9684597845499	-91.4224178237388	-76.5365680916526	147.732425246563	-22.2388066038577	-49.2978567894617	
2554333333.33341	-18.1475400324195	-74.7480281101775	-73.5809077666641	-109.502771533713	-89.2570318454479	-152.711612844363	-22.3612190811501	-48.6565610729561	
2554666666.66674	-18.2362895745309	-75.6646467844248	-75.0674155185561	-100.508671914223	-82.813649670466	15.6441597194371	-22.464988235688	-47.9396966325148	
2555000000.00007	-18.3044600672033	-76.511321746801	-69.5617033359821	-121.122684763503	-75.5321110118044	-22.7586930593501	-22.57235753265	-46.9398813413234	
2555333333.33341	-18.379521272508	-77.4896259799746	-71.0975288129108	-147.60021135318	-78.8011332756602	82.9670915009853	-22.7148115196528	-45.7737090595026	
2555666666.66674	-18.450469075371	-78.3585946060913	-67.1907956220994	-158.19965192182	-77.5832407316192	-16.0149864109076	-22.8154991548355	-44.7597480351039	
2556000000.00007	-18.499565343333	-79.3083302008282	-69.1971406125453	-165.637896104021	-87.0411844080776	24.9453116079535	-22.9279618162783	-42.9663372059135	
2556333333.33341	-18.5644722693738	-80.3354535179263	-68.077803228434	164.498741807217	-77.3584759676381	100.843616832932	-23.017594759865	-41.5543625381348	
2556666666.66674	-18.614917051164	-81.2624361518172	-68.216928567403	153.151503178093	-78.5794188640541	-163.979305491379	-23.0711015824579	-40.0815056912779	
2557000000.00007	-18.6680721595661	-82.1617606530682	-70.9233696797877	139.796760459426	-85.9376616144293	55.1361354619349	-23.119220907458	-38.2166824028889	
2557333333.33341	-18.733841867891	-83.0945180268396	-75.9571824809851	160.939340505323	-84.5561134992648	-83.5423668647449	-23.1538989105862	-36.2805909767906	
2557666666.66674	-18.7644201807543	-84.1521031167233	-71.2996817769936	137.244783537745	-79.1793483355582	74.3077156318924	-23.1795426468781	-34.4613334866469	
2558000000.00008	-18.8005285671382	-85.1199872647365	-69.1893844081449	115.552696728084	-84.5563364430617	-173.277641478148	-23.1674966338371	-32.181979399291	
2558333333.33341	-18.8297853491074	-86.0200447379168	-70.3554857943732	119.312802205791	-75.7846992605006	83.7297083092089	-23.1122623139433	-30.401012936893	
2558666666.66674	-18.8488610523117	-86.9999161512455	-69.5991080891686	109.457500543411	-75.5282999648444	-122.491371796691	-23.0329680281771	-28.2671926507304	
2559000000.00008	-18.8928869676948	-87.9428923390841	-71.9339042593473	114.890899142775	-80.9447360623345	-83.2656482638369	-22.9535793203998	-26.21361993977	
2559333333.33341	-18.9038551154997	-88.9804932646769	-67.7607344191546	98.6226046433867	-84.9263890483622	32.1000161829692	-22.871455418729	-24.3817007608751	
2559666666.66674	-18.9186171528683	-89.8056521306757	-70.4817339443062	89.9892415657352	-80.9849665679136	-58.7331769712327	-22.7218179473137	-22.4207424233307	
2560000000.00008	-18.9220018775173	-90.8466627203725	-69.6860494211488	63.566600095037	-84.5939993345503	-14.7591370247242	-22.5840596462732	-20.7424587565131	
2560333333.33341	-18.9184672492802	-91.8691642899583	-69.7378456440225	74.1244531209267	-79.0089286791058	11.097056648119	-22.4177797307211	-18.878132523825	
2560666666.66674	-18.919070191026	-92.7360441626804	-71.8231643920383	69.9421202999539	-81.2631959639932	-32.8676175992094	-22.2341389334739	-17.412962871842	
2561000000.00008	-18.9104550057065	-93.668436068483	-77.579564080866	35.0185652941817	-81.2493476409955	-76.4076426781405	-22.0204996021058	-15.8385766154479	
2561333333.33341	-18.8957921513468	-94.6082655491669	-72.607134095518	12.3797199363461	-85.294338574881	58.7036067139101	-21.8288787646508	-14.27611627345	
2561666666.66674	-18.8876401089768	-95.4725329550419	-72.1415640013374	2.52650708702979	-83.732415591559	130.348376873892	-21.6044705430274	-13.1516877452401	
2562000000.00008	-18.8585513282373	-96.28036904681	-73.9907042821192	26.7413416870954	-78.9046050189871	42.801700658039	-21.4211599346353	-12.1721262651167	
2562333333.33341	-18.8264856429785	-97.3239671252488	-74.3389319377727	36.8760063282529	-80.3638332049926	179.01916598903	-21.2199748176722	-11.0773768997449	
2562666666.66674	-18.7891475571958	-98.1446558771731	-72.8053197795705	14.6241529980106	-78.4416752023289	61.132788026756	-21.0064941718609	-10.030145282032	
2563000000.00008	-18.7609299733027	-98.9357077994118	-82.6767690820886	-18.2189871443639	-88.4455140977151	119.119876460862	-20.7830270557034	-9.30447207469616	
2563333333.33341	-18.7215696979379	-99.8281443799838	-77.8221748240472	-78.939170634541	-94.0711859761156	74.3044138062395	-20.6015883135089	-8.45692225791136	
2563666666.66674	-18.6877720454377	-100.634114505486	-78.319746810301	-21.7793956812707	-85.1022733625803	-1.23606313398014	-20.399141309942	-8.01979215216656	
2564000000.00008	-18.6395504977202	-101.4378295244	-71.2142723362927	-11.7345432961883	-79.757051467795	104.546408992481	-20.2071468108242	-7.43058030609182	
2564333333.33341	-18.6057549745946	-102.247136955667	-76.7108053790829	-32.0363525691507	-76.105644831815	118.416144816565	-20.035997216187	-6.88502374437768	
2564666666.66675	-18.536680996284	-102.993848838759	-70.3814180041731	10.4084831679764	-77.0781641329653	49.316559432353	-19.8456424108044	-6.61126811054011	
2565000000.00008	-18.4936649080702	-103.781486636562	-75.2476517123161	-35.0408937816481	-85.4952757534579	-11.2270749957684	-19.6667524287945	-6.25381240299578	
2565333333.33341	-18.4456248116984	-104.46094807608	-77.9529211581018	-47.5633369267018	-84.8569936034356	67.8851915546172	-19.5167540973919	-5.99008183814358	
2565666666.66675	-18.3914064630985	-105.201348653128	-78.2775412183698	-11.1630297700004	-80.7753712838371	-56.5961930516035	-19.366531766849	-5.86413755783647	
2566000000.00008	-18.3407292078387	-105.844609700976	-74.643891722307	-89.8478588130022	-93.5980143036259	-146.220741963131	-19.2259941521238	-5.73818634944522	
2566333333.33341	-18.2774228421388	-106.638338539933	-73.4425097496452	-112.846440684951	-75.2133267404319	-83.9588919794856	-19.1050968470434	-5.65496354079767	
2566666666.66675	-18.2216759737863	-107.383881062982	-73.5813090908601	-118.241114965413	-84.1614643464349	-94.4638068802731	-18.9949395003559	-5.81835481340269	
2567000000.00008	-18.1608100031295	-108.08702512552	-72.7772513294052	-117.108387021892	-79.1795226995575	56.2886410594983	-18.8695718266912	-5.72758491160228	
2567333333.33341	-18.0996363576388	-108.707564847261	-68.1618848737126	-147.0171393185	-94.901353105498	101.535795487371	-18.7982307619154	-5.88188011157746	
2567666666.66675	-18.0430916576729	-109.35066569786	-75.9317262259708	-175.04265163878	-84.0056601895746	-21.6212916373321	-18.7148282527293	-5.86206928876672	
2568000000.00008	-17.9691497216097	-109.935589759968	-87.9896051057956	-108.718565990496	-85.7744410206161	-15.1897115777917	-18.6203189212554	-5.99262392314028	
2568333333.33341	-17.9248039539276	-110.612881564123	-74.1547103374227	155.420954061464	-84.8445211670325	-148.555072485386	-18.5934666046685	-6.07088232806757	
2568666666.66675	-17.8517798054317	-111.206316400858	-74.1126225485808	-170.937875290558	-80.4138477800538	-152.56263077484	-18.5160343654381	-6.30771462169361	
2569000000.00008	-17.8127966901043	-111.80735935762	-77.7378724058444	-165.80826594881	-77.4333427740214	173.854315946724	-18.5168828720441	-6.553158073562	
2569333333.33341	-17.7372811415816	-112.384031472524	-83.3836467860483	93.1060712292118	-76.9804281268826	-68.7713737983158	-18.4793898714382	-6.71851926495932	
2569666666.66675	-17.693415287785	-113.059120617933	-75.0626728003219	133.862368088406	-78.9431871296096	18.397113348124	-18.4856302481694	-7.114006112858	
2570000000.00008	-17.6325825398886	-113.576008749129	-72.8988630734299	145.624507053214	-90.1041171562227	132.904518387352	-18.4945749396792	-7.09459924777923	
2570333333.33341	-17.5914934656502	-114.350324879877	-78.7933034486328	-94.6644133528132	-84.9099441101727	-74.2921853491381	-18.5071956535307	-7.34517806322373	
2570666666.66675	-17.5230723765003	-114.679371178977	-79.5013319269605	83.9621916335403	-81.6772996432979	-132.864018450003	-18.5357062232745	-7.40328301351008	
2571000000.00008	-17.4835389486356	-115.295701532803	-75.1931287627008	109.100454747772	-70.890611409002	14.7001420663385	-18.5908204152551	-7.62045816913651	
2571333333.33342	-17.4242620492913	-115.900649604905	-83.1905703071886	174.62604569995	-74.1788606412138	91.6704213189117	-18.639854949906	-7.65286203810748	
2571666666.66675	-17.3900963607432	-116.464492782066	-83.809644890656	-179.379079805544	-80.6185954826446	-177.687281591461	-18.7104949178968	-7.69075926334619	
2572000000.00008	-17.3336994077625	-117.064855677237	-77.204650038308	-160.008590300359	-86.5919325094268	79.8212853220873	-18.8175899269523	-7.89780539131259	
2572333333.33342	-17.2884199884284	-117.560104803225	-84.3677655839805	151.739960900822	-76.0771309831243	122.992601823588	-18.8874249855035	-7.84987923196094	
2572666666.66675	-17.2577650882727	-118.069597624904	-75.521209381941	178.273486824288	-74.5556723659814	-157.34698375498	-19.013256270582	-7.84651436496373	
2573000000.00008	-17.2347106737068	-118.730534337219	-75.0499635516913	-169.139904241259	-75.787717578047	89.8856433907698	-19.1411089857542	-7.52533133412559	
2573333333.33342	-17.1878967668059	-119.305681259508	-76.6398556845262	-154.932733217312	-88.0800979290982	86.1792431912327	-19.255844166605	-7.44253027740256	
2573666666.66675	-17.171342362552	-119.836113592112	-75.9944233653113	-12.9788093580555	-78.471780616346	-108.039038797748	-19.3993548199928	-7.34406315541429	
2574000000.00008	-17.1122572083138	-120.260615575557	-75.3317639301425	-175.391927056744	-83.6477837187235	75.462503474366	-19.5549546411746	-6.89807388659888	
2574333333.33342	-17.1125267870211	-120.888513040225	-80.1392090792501	82.9070438460982	-74.7571094940856	173.081124003915	-19.7021743534675	-6.46102621942704	
2574666666.66675	-17.0995244759404	-121.572144200441	-72.5728204942121	-178.744822693982	-74.9972319062188	83.6495294233266	-19.8661633236932	-5.80116620245152	
2575000000.00008	-17.0879283715279	-122.119758776079	-80.6225042695012	166.143035337754	-77.8339734913809	-97.4500562905935	-20.0422344769599	-5.17893638485945	
2575333333.33342	-17.0610141489599	-122.705208743175	-86.5855955918508	179.030105409152	-75.3441385405888	158.198574470842	-20.2169747982651	-4.49716523096526	
2575666666.66675	-17.0812305502093	-123.310256527988	-78.4862005907584	70.448137792117	-87.9498718428324	-65.8007542785388	-20.3684281679081	-3.65351139105274	
2576000000.00008	-17.0622428756553	-123.903642765094	-78.7436551382332	121.40713872082	-85.0053357073679	-32.2963938942477	-20.5624475262344	-2.58935699798898	
2576333333.33342	-17.060221842982	-124.501144519048	-81.2361854969449	-29.1619866598832	-79.6289579225197	-72.1155007233036	-20.7035880906095	-1.53593789035257	
2576666666.66675	-17.0680361477818	-125.019441334885	-81.4617176233361	-103.28947828169	-77.4837862729379	-135.262095932769	-20.8995889128913	-0.415040910736523	
2577000000.00008	-17.0894960470199	-125.633126808952	-97.3117042288657	-38.5736154128585	-75.4731477261234	-28.320315366521	-21.0348329318179	0.991585045474449	
2577333333.33342	-17.1100491296775	-126.192244838525	-78.3745411986411	54.7214142394395	-85.147505822701	178.422413055626	-21.1948835155085	2.6236135168867	
2577666666.66675	-17.1294337907161	-127.047411674796	-84.1713247097863	143.494570375213	-89.1487918971571	-22.5268291217912	-21.3006150224457	3.91133928479358	
2578000000.00008	-17.155319915286	-127.674744422635	-83.9817588876176	50.4490606337338	-80.1115252082025	-125.294902066926	-21.4442231432489	5.36982004953889	
2578333333.33342	-17.1578637342278	-128.077614765597	-77.3658995973169	-102.531186394474	-74.5985286830666	143.196604669411	-21.5495111801782	7.05546317718445	
2578666666.66675	-17.2123602540641	-128.781759207098	-80.5003932868074	28.7555960721595	-76.9464473885733	167.292849267472	-21.5975418032222	8.82328243139328	
2579000000.00009	-17.2648009847407	-129.327745431217	-76.9764489481821	68.5807405214399	-91.4889339954841	-160.832314524221	-21.6888719716467	10.6802660688087	
2579333333.33342	-17.3049125922958	-130.130715346012	-76.0554842900295	-43.5719293398617	-77.6444172009582	129.420408774562	-21.7133793427916	12.4738828457757	
2579666666.66675	-17.3485357757095	-130.66545917534	-83.7819745207413	-68.3316386964491	-74.2979421699004	-172.548036917806	-21.7342169935761	14.4686328006865	
2580000000.00009	-17.4095244496725	-131.370275306828	-88.4055658760678	21.2364124600097	-74.6326687065277	-127.709905099505	-21.752626551528	16.0266461538556	
2580333333.33342	-17.4698789137794	-131.928690712447	-83.7613519454494	47.379231767708	-79.6025283179522	117.365676839333	-21.7208481862816	17.9067753888695	
2580666666.66675	-17.5180755216026	-132.803694679722	-83.2463960485361	1.96184617537777	-84.9048407201511	60.430053979358	-21.6621306998898	19.4142247021866	
2581000000.00009	-17.5932328890686	-133.484427273013	-84.0881689952875	-61.6044567607487	-81.567814450602	-159.721116546415	-21.5872640959166	20.8232118835584	
2581333333.33342	-17.668211098331	-133.90771356905	-77.0370988466409	-28.3390353835921	-75.673294717148	75.4774742054518	-21.5251831516639	22.0374539948388	
2581666666.66675	-17.7533264988279	-134.885183014018	-76.4983189134501	-78.8322622471512	-77.3191366567024	-74.7124669061702	-21.4331361868897	23.5742038325052	
2582000000.00009	-17.8445142710131	-135.486961620735	-78.99643902286	-54.7677525038398	-76.0621398886858	-52.8883140907601	-21.328343507968	24.9559890284145	
2582333333.33342	-17.9658336765847	-136.148026302475	-75.0187238639494	-29.4138081098007	-78.9471121262882	-60.7389061449785	-21.2354010911788	25.8319744434813	
2582666666.66675	-18.0066279049275	-136.947605921749	-77.6520564413731	-103.615916108317	-82.4047750797601	-5.64030667477928	-21.1086122051699	26.5818595810556	
2583000000.00009	-18.1203953949077	-137.516227899194	-73.5322433661524	-61.2755188716442	-84.9713392392803	143.657754600698	-20.9717303682587	27.4862047532772	
2583333333.33342	-18.2100971155434	-138.186488528444	-74.415202941917	-95.4428331904473	-78.5533993969414	-165.172008940548	-20.8536730635545	28.1444071969857	
2583666666.66675	-18.3065496820016	-139.0312343312	-92.3507558406715	-31.5672735098858	-73.9872243724874	137.508150472843	-20.7301518532104	28.5932979831494	
2584000000.00009	-18.436918215713	-139.795817455199	-75.8767958268222	-86.3617803867508	-79.6175496778935	35.3487668437349	-20.6290242012763	28.9554604136377	
2584333333.33342	-18.550966881812	-140.405889113762	-70.4638429078467	-98.0049092939093	-81.5997392772102	-176.931757540117	-20.5100195460099	29.1620501345112	
2584666666.66675	-18.6904114352192	-141.28744223325	-77.6802418338692	-144.547922959766	-88.9757237413212	29.2096107720498	-20.4164052484169	29.409956222271	
2585000000.00009	-18.791601150797	-142.091434960772	-74.2947356906292	-103.750444700858	-77.877543167781	-177.357195002938	-20.3228825262637	29.3420808426733	
2585333333.33342	-18.9490967907852	-142.716742361264	-92.5218536065264	-2.73002665340057	-79.9102859720941	-62.3185545074054	-20.2488379287775	29.1818720166093	
2585666666.66676	-19.0648685766945	-143.504620667413	-75.0447307152566	-133.779785886341	-73.4713555029671	-163.474192829722	-20.1483562960359	28.9497318396011	
2586000000.00009	-19.2194827330908	-144.31765443942	-78.0530145625285	-118.464853927581	-94.3562388838576	-2.3178730056856	-20.0614113359521	28.7173017045606	
2586333333.33342	-19.3604739633576	-145.101000863809	-85.0630313983252	165.698501634767	-84.5844919349248	149.591018482888	-20.0212832525234	28.3570814537452	
2586666666.66676	-19.533486362528	-145.88967147094	-73.136745055139	129.457086433998	-79.4301804611674	-116.326002671182	-19.9810033119442	27.916825896386	
2587000000.00009	-19.6749604978174	-146.857181338181	-80.5514136393227	154.953418895773	-82.318459920215	111.718924256353	-19.9392354682644	27.5639478495666	
2587333333.33342	-19.8265153156915	-147.614554305368	-71.613431828984	-149.877193260312	-80.1504976595427	-160.713909858915	-19.936399242761	26.8047812091883	
2587666666.66676	-20.0119885076721	-148.476640861651	-79.440016703119	-137.614587464563	-75.1809712615695	-37.1885322037873	-19.9104945696593	26.1638770012891	
2588000000.00009	-20.1375964474511	-149.525652786464	-78.4777315120573	108.160809682754	-73.3554770166471	-69.680080018657	-19.895084970972	25.5010171292454	
2588333333.33342	-20.3418043771654	-150.346757167496	-93.9971215463876	-158.34502591194	-84.5247087480814	-91.1051030919726	-19.9068225932571	24.6847816255789	
2588666666.66676	-20.5148534657187	-151.142788066676	-79.499785337846	106.880534521791	-75.8818466296085	160.662377794417	-19.9230672484548	23.9225358858767	
2589000000.00009	-20.6747872680622	-152.1876241393	-75.5557959171501	105.709010271386	-94.0921265255262	137.697284518534	-19.9540832271972	22.8694782027926	
2589333333.33342	-20.8436990139221	-153.007979243681	-74.7433987198025	179.231056859675	-80.8097684044659	87.3349615863412	-19.9902772416851	21.9080069552207	
2589666666.66676	-21.0297965873704	-154.179949612365	-74.8237953551298	103.285995743282	-77.1841496535394	-60.4922445318821	-20.0346383439049	20.9467982458648	
2590000000.00009	-21.211014798845	-155.056691524391	-75.9778926007262	130.246553541708	-76.1437700879725	-170.211553646585	-20.1319565306074	19.7786913656055	
2590333333.33342	-21.393540070735	-156.296181542305	-71.2929352755563	84.660505731248	-81.7621919376661	-61.0935301007078	-20.2006207065507	18.7577044444704	
2590666666.66676	-21.5654745789387	-157.319090375151	-74.655968346396	101.418085331187	-77.1537531539408	171.868968577665	-20.2883370638528	17.6116489310585	
2591000000.00009	-21.7676197134716	-158.558007247252	-78.1537824714802	45.0143288554976	-77.4823143923567	-142.873264965674	-20.3996644065431	16.2843343436101	
2591333333.33342	-21.9475066264005	-159.808492185184	-69.8126567755759	63.4413711611325	-90.1015188124324	23.5123881838607	-20.5326394068127	15.1432056224261	
2591666666.66676	-22.1662962644971	-161.100252470942	-77.7681818679855	30.1245555658861	-80.9314589004681	166.593348338207	-20.6430105346766	13.7256041692576	
2592000000.00009	-22.3597902571432	-162.398566937386	-73.6430309379319	83.3744670683743	-88.264560929456	-8.54609174233568	-20.8067254239839	12.5079448380067	
2592333333.33343	-22.4841125838978	-163.586800963185	-70.8184240218353	-37.7021669015101	-76.9874139719853	-106.379210055436	-20.9803978045765	10.9592342023587	
2592666666.66676	-22.6986948613436	-165.09710377646	-76.8429234728933	5.00751367769924	-87.6781700611102	-3.75140508861119	-21.1605310364839	9.73489407826766	
2593000000.00009	-22.8734387434578	-166.810150231163	-69.4526970680082	-27.8071354824606	-78.2831217020037	-174.24113213983	-21.3622089492641	8.44750168486659	
2593333333.33343	-23.0710367779546	-168.375973131166	-72.1611770970704	-44.0427911231658	-93.6997757337541	107.742973167419	-21.5875294006298	7.0715969273565	
2593666666.66676	-23.2601565882293	-170.04409185097	-75.3370099345465	-106.157173435449	-88.9551520551688	104.061660392835	-21.8025036860802	5.62845287445293	
2594000000.00009	-23.356650091586	-171.763311066695	-71.0281388450085	-56.7004091647362	-81.785940696257	10.9066632496051	-22.0246887771351	4.36746329501469	
2594333333.33343	-23.5536447680547	-173.60237128758	-75.0902684999082	-62.8462190898011	-84.7301221187217	-94.0782051050172	-22.2804830681014	3.00314836645692	
2594666666.66676	-23.7239504951209	-175.351024084969	-72.2002134190876	-90.5052271025935	-79.3941822191677	2.98500520035219	-22.5080065661562	1.74679334633132	
2595000000.00009	-23.8356036265209	-177.583362642897	-81.7265195554856	-32.8954608622938	-76.6834986269967	-88.8149959536847	-22.791360877855	0.540547214656493	
2595333333.33343	-23.958573979546	-179.5322076242	-78.2360666095459	-99.7845219698856	-80.7457629854653	134.996761392266	-23.0973879222005	-0.625721458964459	
2595666666.66676	-24.0726465940435	178.458501767415	-75.3561841707575	-107.95737209995	-85.1322542960916	11.894253411223	-23.3927814013163	-1.87869940723139	
2596000000.00009	-24.1621165797302	176.088257240721	-75.5476156565295	-119.981133685996	-82.4379000256888	175.009083738135	-23.697079928965	-3.06602155287962	
2596333333.33343	-24.2381208495565	173.637454926603	-73.1797819002261	-146.265888702452	-78.6332748236913	-166.956366868419	-24.0115831549054	-4.10365470166462	
2596666666.66676	-24.2965693715942	171.355017299474	-73.6810064708216	-137.286151917111	-86.5458023313666	-172.953027064825	-24.3253269841189	-5.11972189904593	
2597000000.00009	-24.3536246526939	169.098676801641	-74.8551563264382	-166.855887011066	-85.1005424092164	-79.8248221613812	-24.6728759593692	-5.8902290804924	
2597333333.33343	-24.3665132892163	166.459389829023	-73.1969041218003	166.486164828617	-78.0409580111572	-123.622856528696	-24.9753047500772	-6.74269192811735	
2597666666.66676	-24.3779995013482	164.097186538316	-82.8531084811997	-173.485868031663	-75.3390957434549	-167.881767028628	-25.3259244567908	-7.40687498155813	
2598000000.00009	-24.3498154195926	161.657798177083	-79.7486040311155	144.87500215332	-80.9729889077439	100.883448358183	-25.6717462380188	-8.05449680737989	
2598333333.33343	-24.3314405932411	159.421095134031	-79.048104606244	-109.44036177173	-79.1027906035853	54.9041245762283	-26.009067066927	-8.49104403986231	
2598666666.66676	-24.2553765643735	156.760423363783	-83.6605048447761	161.41696868864	-77.8350134445435	13.8831299448163	-26.3637842369687	-8.90224908253628	
2599000000.00009	-24.2174842487249	154.18695416347	-73.4042562307049	84.9309663911625	-81.2704110535258	-113.16695780411	-26.6806433688203	-9.05043302026602	
2599333333.33343	-24.1055759729598	151.9263209722	-89.2903805131223	71.2287101114472	-78.8835409088294	-27.0569700834821	-27.0331967579916	-8.85451260274454	
2599666666.66676	-24.0192157189074	149.380855916395	-74.5734682824054	94.3849248951505	-84.5703166573294	170.285385501003	-27.3587156052901	-8.739985642149	
2600000000.0001	-23.8848171828625	147.118107499341	-79.026696450937	50.9668413076068	-73.3302587736431	54.4989150293861	-27.6921194455666	-8.07329835160207	
