!Agilent N9923A: A.05.34
!Date: Sunday, 13 March 2016 22:09:27
!Model: N9923A
!Serial: MY51491690
!GPS Latitude: 
!GPS Longitude: 
!GPS TimeStamp: 0001-01-01 00:00:00Z
!GPS Seconds Since Last Read: 0
!CHECKSUM:0048618439
!Correction: S11(ON U)S21(ON U)S12(ON U)S22(ON U)
!S2P File: Measurements:S11,S21,S12,S22:
# Hz S DB R 50
2400000000	-16.7881206981556	-175.759511843887	-65.0228795042972	154.144723852143	-84.8165328006103	68.7232742290032	-19.7678691780481	3.76746016665513	
2400333333.33333	-16.8315721170243	-176.688424699271	-65.5971970518897	145.407735393248	-78.5441364295676	-146.059540299379	-20.0647426598973	2.84608768333932	
2400666666.66667	-16.8617514669725	-177.532676580513	-66.7226280762052	154.781942989459	-85.478493048943	-130.334299250429	-20.3524696511212	2.09159164990123	
2401000000	-16.926226268755	-178.532395256314	-65.5483676250919	145.991773857749	-79.7698222813923	-75.7699744867308	-20.6793295151058	1.19220925726434	
2401333333.33333	-16.9848656174044	-179.579177299086	-65.2928396813443	142.799861658063	-82.9157517995604	147.030673808761	-21.0285977339513	0.612742338412341	
2401666666.66667	-17.0396231584125	179.391094705561	-65.9642874403538	141.585002695511	-82.5052210473638	156.758063139945	-21.3705396170393	-0.170945985051607	
2402000000	-17.0872761832594	178.456014918852	-65.2646544018998	127.450715489596	-87.6154319571648	136.586046969077	-21.7717915559716	-0.728983968244671	
2402333333.33333	-17.165236338643	177.375913465412	-65.965607082017	135.050053453543	-83.936206302101	-166.084147732948	-22.1675956783902	-1.33913046083995	
2402666666.66667	-17.2134237730077	176.27310332554	-63.6599293914222	121.336097930179	-79.9006434957599	123.387318067988	-22.6129211864287	-1.81051800060168	
2403000000	-17.2600441659336	175.224657222376	-62.5773404021654	121.269948922104	-91.0741193506673	-73.1308634393101	-23.0966632288614	-2.27274760671821	
2403333333.33333	-17.3220657768131	174.029085561252	-63.7659838051586	110.00908506658	-86.6330268648167	30.851441459592	-23.5736708053647	-2.37182123343829	
2403666666.66667	-17.3650810739659	172.838010108875	-62.0278546544557	108.76180347735	-82.7169406768578	173.670465944267	-24.0935568911515	-2.56385496237104	
2404000000	-17.418271398162	171.737630875193	-62.3452715052968	99.8114765141223	-92.2002500808482	-116.771670148055	-24.6526920538188	-2.49100482019764	
2404333333.33334	-17.482840610362	170.463408342703	-61.7381610541068	92.950397904194	-82.7949336654582	88.9386660083859	-25.2495356201214	-2.27749064226508	
2404666666.66667	-17.5327368611465	169.195547494535	-61.6702045719079	83.1198128247913	-79.4544839474022	-80.1811722872374	-25.8691175428557	-1.89947111513792	
2405000000	-17.5862831130305	167.927182802514	-61.2240310711026	73.1957815660456	-87.4894503095091	-34.9825670221982	-26.5391570575404	-1.01924598638384	
2405333333.33334	-17.6297064048054	166.704347259875	-60.6587121502677	63.3329939962559	-97.2227333977988	-92.272963701943	-27.2231194185726	0.0362839631503484	
2405666666.66667	-17.6696598139428	165.34145235337	-61.5030169297658	59.0309998159725	-80.5836705433427	178.671256301195	-27.9543108516725	1.77072184074642	
2406000000	-17.7185279477864	163.959447980963	-60.891686386168	50.900573315142	-85.728243330965	-133.644896690035	-28.683581821586	3.94875870938315	
2406333333.33334	-17.7553322586312	162.608845527821	-59.7067341432312	45.1473229358525	-99.1417675819955	169.208686753376	-29.4299108853858	6.73458114681734	
2406666666.66667	-17.7944036238665	161.146282088397	-59.4133450960692	44.292678134007	-93.1778285692668	-73.762205374485	-30.1989333921941	10.4031041591298	
2407000000	-17.8245908820941	159.70048226641	-59.532301096966	37.5183923177885	-84.9516877731399	-171.14301307931	-30.8795735584465	14.628738267454	
2407333333.33334	-17.8632493741162	158.156072926939	-59.765574395491	26.7539263666159	-85.0836179776238	-147.513665085288	-31.4945861368066	19.8963941005641	
2407666666.66667	-17.8767033850076	156.647559232274	-58.3158796664367	25.2338054027074	-80.1568832242517	-19.7247944373107	-32.0638070996463	25.479681692179	
2408000000	-17.9093117856304	155.109763162551	-57.7675057456842	13.0240963585124	-84.8554205197842	-148.271470289703	-32.3636580124354	31.7491295894232	
2408333333.33334	-17.921371919199	153.596502086368	-58.2096256939561	6.72408585220754	-99.4827545294654	-85.4057050692556	-32.5708235642198	38.4938814124458	
2408666666.66667	-17.9234511147254	152.00756616505	-57.2375486497604	-2.56466123961628	-81.8371315791831	-117.098995802072	-32.6746703759562	44.96206875661	
2409000000	-17.9403781788275	150.426858417438	-55.961393749832	-12.7759111318315	-78.2406784694588	-28.5875754548891	-32.4600057353698	51.2036559162953	
2409333333.33334	-17.9371558922419	148.810956557428	-55.7369557856378	-19.4097309442211	-93.3895915907738	138.527854292944	-32.128164380765	56.625940002174	
2409666666.66667	-17.9285123271727	147.26094251809	-55.3357947392752	-31.5742490815257	-83.8270522916086	24.2458231772527	-31.8410429788302	61.2976950553425	
2410000000	-17.9114986647053	145.630987015667	-54.7290319035718	-37.8604235076639	-80.4714504187084	-46.4759707999333	-31.3867387498377	65.243452367008	
2410333333.33334	-17.9078094566518	144.087399299031	-54.3951084001528	-48.9512848811169	-88.2587906168603	175.257086501019	-30.9434941629902	68.2401908086841	
2410666666.66667	-17.8870124480174	142.493674635876	-54.6152572647345	-56.2690038861105	-81.6473288482523	-144.92864979404	-30.5463117059514	70.7403948146979	
2411000000.00001	-17.8482133670912	140.929895052335	-53.9816334965878	-69.3966991185438	-85.9820564010857	114.98488913202	-30.100428854084	72.4972860633639	
2411333333.33334	-17.8240399292507	139.343790519443	-54.129249374708	-76.274936699594	-80.7110102946623	-113.700312851814	-29.681197919024	74.2315751811826	
2411666666.66667	-17.7647442518169	137.775517946093	-54.088518605675	-88.0148554587468	-81.7046348361795	-130.556018566124	-29.2650064721121	75.0740417210822	
2412000000.00001	-17.7396994196768	136.247278330757	-53.4320508514873	-94.8643768501401	-75.9254392810166	-93.7980034815268	-28.8549515638279	75.7561367438471	
2412333333.33334	-17.6789461910105	134.725838898098	-53.550452225445	-105.650090143108	-83.261635905143	-170.909848438583	-28.4673982010824	75.6238166059182	
2412666666.66667	-17.6248623796287	133.23020707202	-53.4129188223474	-116.147412201502	-80.7734828760945	-104.544825541267	-28.1453510626251	75.9223427124847	
2413000000.00001	-17.5608059070137	131.768447649022	-53.562865464385	-126.097820666282	-92.1342563885864	145.289466162647	-27.8397591239967	75.6372725615354	
2413333333.33334	-17.4977319728728	130.283855600877	-53.3042636954589	-135.382299994685	-84.1686515614448	-137.346829266034	-27.5327487137554	74.966326416133	
2413666666.66667	-17.4203020907948	128.852608278248	-53.2683558611929	-142.161197377784	-81.4058025064847	170.085604056612	-27.261126889347	74.3158944684041	
2414000000.00001	-17.3576808791958	127.472156628998	-53.1888363307589	-154.469479188265	-85.960761620069	-173.297985961708	-27.0121506023402	73.2511758944846	
2414333333.33334	-17.2725968470361	126.089712497928	-52.9944747251503	-162.430695354138	-79.1300274429409	172.871794774965	-26.7515406653969	72.1897369258395	
2414666666.66667	-17.1810405211918	124.760159405259	-53.2042125929233	-172.012460830939	-84.1886093228867	-119.945152083725	-26.5253671182453	70.8511728947762	
2415000000.00001	-17.0917948153305	123.440742396413	-53.2213005693522	178.950033070267	-89.208078055268	3.27899712740692	-26.307099035232	69.4211413952822	
2415333333.33334	-17.008692837553	122.193374904814	-53.444238133912	167.917070543362	-93.320257520772	170.338984342749	-26.1098536853109	67.739823352501	
2415666666.66667	-16.9176206406103	120.9067251873	-52.9129611550532	159.847477001806	-91.2510420059718	-113.884243435718	-25.9508793454936	66.0526494988294	
2416000000.00001	-16.8133202918417	119.719874606955	-52.7171917150897	147.660182408573	-78.6403484645691	-95.7347956427243	-25.7839344003787	64.2926188814493	
2416333333.33334	-16.7210875571584	118.546844221647	-52.9878933943664	136.947295011497	-89.9957352609559	-31.3656862392877	-25.626390718369	62.2802128195431	
2416666666.66667	-16.6274675622551	117.351995476139	-52.8369837140474	129.404187520277	-90.413692952946	-149.575265768991	-25.5003133498572	60.1882120774572	
2417000000.00001	-16.5221918801481	116.316198628381	-52.7867006554512	118.460003849028	-84.3322679462546	-91.4452597315125	-25.3616202366033	58.1732918822819	
2417333333.33334	-16.4274900351364	115.21059586263	-53.0793281393105	107.020214972061	-79.6548210961328	-149.673179326893	-25.2684322142065	55.9315646373119	
2417666666.66668	-16.3217402623976	114.157397613297	-53.1430045236171	100.65537968487	-79.2894501792364	82.899527673223	-25.1490950145537	53.6898212695463	
2418000000.00001	-16.2224412142336	113.132384392007	-53.8153054236	91.0652593343847	-80.4617457318936	-179.972169116853	-25.0826757927138	51.4310394261507	
2418333333.33334	-16.1101059723224	112.127248439626	-53.617352543994	80.3818019716176	-88.6949769257769	126.197466952944	-24.9652890011577	49.0243115342056	
2418666666.66668	-16.0152526698001	111.131831473228	-53.5709564988731	69.2169196997456	-77.9032764987952	-25.2488127110756	-24.8558511654257	46.8318104012476	
2419000000.00001	-15.9061468191698	110.213998641193	-53.6642090080222	61.4039715914074	-84.2748011378897	-12.8523079186565	-24.8282411051123	44.3748845796614	
2419333333.33334	-15.8091915618071	109.346538932252	-53.4189290688946	50.792927343429	-94.723304099264	-138.485182847372	-24.7366055924544	41.892142619779	
2419666666.66668	-15.7118332035503	108.450535161059	-53.8151267188836	44.0315028153007	-76.3750860490536	19.8499259423808	-24.6911563547238	39.5692680339547	
2420000000.00001	-15.6178886898675	107.600213450537	-54.0836111710505	33.8869064196286	-81.2763968999106	7.03423459867787	-24.6189336238521	37.0284703265734	
2420333333.33334	-15.5112722812672	106.77099153804	-54.0169377375942	24.9113224025491	-105.311328255982	-83.6818558022055	-24.5320282372909	34.8032429703779	
2420666666.66668	-15.4162607010154	105.962303605104	-54.0779572928627	12.8381734616348	-83.8073904016466	-14.9632036384692	-24.4802117966562	32.3822523768256	
2421000000.00001	-15.3326034650012	105.186571472636	-54.7939035459343	2.59805507735042	-95.963234584429	-42.8688169858445	-24.4164823593841	30.0775409889429	
2421333333.33334	-15.2288671726873	104.448505795098	-54.6546998943929	-6.41570282316961	-79.9152572601611	-24.2356968675031	-24.3427121419022	27.8716426518471	
2421666666.66668	-15.1495715902594	103.681726289016	-55.5296041315797	-15.264387703469	-88.9219467854635	46.1813630481548	-24.2710109640191	25.5447584845545	
2422000000.00001	-15.0581123125671	102.952649420432	-55.257620708141	-26.0507924828095	-80.5496097820078	-63.1265731413323	-24.1914335622882	23.4418292180238	
2422333333.33334	-14.9678321451669	102.259932038491	-55.004206993076	-32.5572692641549	-85.944081106225	177.176468068881	-24.120398478038	21.2883078386927	
2422666666.66668	-14.8806111763462	101.639554932945	-56.0026003823144	-43.2478547030736	-85.1293830472474	-50.1244385652844	-24.060803346999	19.3373635460384	
2423000000.00001	-14.8013689947687	100.988355124054	-56.5314238285552	-52.1669233379063	-83.9184413156898	-103.079968155056	-23.979650473798	17.2280007570486	
2423333333.33334	-14.7296079450555	100.389569953342	-56.0991208887864	-61.5162794201694	-77.8085769020145	-61.6622308372627	-23.8777963571948	15.3511177221592	
2423666666.66668	-14.6516713255229	99.7630398712121	-57.2780691421392	-70.1782641708285	-82.0894352863378	-37.239165483063	-23.7865096274299	13.5671707458832	
2424000000.00001	-14.5780016365776	99.2215123867322	-57.5719400793442	-77.5154933695838	-83.7756767807087	-21.6064881742571	-23.6920418112709	11.7609062291093	
2424333333.33334	-14.5013401855974	98.6199445257831	-57.8136307155972	-90.1827290156613	-89.6787512775692	-26.4581036922296	-23.6186954021275	10.0542575896713	
2424666666.66668	-14.4395126114468	98.0719191544257	-58.4948245938852	-91.0776484390892	-76.6674505525721	-5.12039631229066	-23.5318661568107	8.4525282245243	
2425000000.00001	-14.3758808172746	97.5754309616641	-58.4755573133671	-106.634375550777	-90.2710427445432	-70.3219230146367	-23.4579941730531	6.82506368395513	
2425333333.33335	-14.3071336102932	97.097379750143	-59.5590874852148	-114.645450533542	-80.7804220917224	-49.6496244212019	-23.3663386922822	5.5093406603899	
2425666666.66668	-14.2472556137192	96.6140050362725	-59.3309623112313	-121.264210796544	-79.5573817124397	-79.4589892313087	-23.2527293585723	4.03262668642489	
2426000000.00001	-14.182696339582	96.1344697580672	-60.9854506443797	-136.596391960413	-84.1835076068127	-29.3989860578204	-23.1729476131275	2.8087092879408	
2426333333.33335	-14.1316290933906	95.6742030312295	-62.4264312008765	-136.047168787503	-82.075755048477	-103.920932122727	-23.0791874362261	1.61801564760925	
2426666666.66668	-14.0737266114174	95.2987757104444	-61.96421108178	-137.265685662301	-84.4190115864452	42.1157473428602	-23.0029952652646	0.530269743732742	
2427000000.00001	-14.0178149165601	94.906595687247	-62.1400132639737	-156.349629111983	-80.1452673320621	-18.9283785569087	-22.9070322684637	-0.558202815185871	
2427333333.33335	-13.9695325244607	94.5070241835047	-63.5689442907223	-152.888162947432	-106.937795720565	153.548483173653	-22.8037273738932	-1.47404865029886	
2427666666.66668	-13.9184351357367	94.1166234279281	-64.5476148218344	-161.637969362788	-94.9596924710316	43.6811854465709	-22.7101085617769	-2.2426360194676	
2428000000.00001	-13.8678933411245	93.7715268763386	-65.8833205868644	-162.932014766824	-80.6722219231987	38.2518188504676	-22.6076397363271	-3.01086311723546	
2428333333.33335	-13.8210533452457	93.3995971122322	-65.320910547301	-159.806677360866	-78.9325593775992	-80.6641246161143	-22.5097468729929	-3.70552457498499	
2428666666.66668	-13.7792492353564	93.1257500043123	-65.5295976344123	-169.919776723844	-90.4288997373113	-114.551627720636	-22.416633874323	-4.28528288133676	
2429000000.00001	-13.7432695186253	92.745398491957	-65.392762573897	-165.428319308963	-83.442462879045	-57.5518612193843	-22.3110414449549	-4.87413730786359	
2429333333.33335	-13.698884810458	92.4401345669312	-65.1995262900952	-168.292465619222	-92.1967165797617	36.4951680740951	-22.1982240254699	-5.27475560263553	
2429666666.66668	-13.6589225106761	92.105639297683	-64.5502542457932	-168.757979241668	-80.9980962569585	-34.4927986631193	-22.0931192481469	-5.89040801085359	
2430000000.00001	-13.6193015068698	91.8848501373534	-63.4178261833966	-172.518895146338	-80.0924368931642	-123.551591346526	-21.999135569043	-6.14719158317931	
2430333333.33335	-13.5903758575526	91.6079283673244	-63.3979638906755	-178.864878278515	-86.6382586024978	141.351718849217	-21.8713868746799	-6.56326124319364	
2430666666.66668	-13.5568003166059	91.3070575802391	-63.357132376847	175.804838077431	-90.1123846425621	-7.52957262844215	-21.7758341532985	-6.78241574186726	
2431000000.00001	-13.5245965630058	91.0484028000572	-61.4326481225129	169.26601569433	-87.8886043421357	-24.7208897969595	-21.6530229272559	-6.99847565337794	
2431333333.33335	-13.4919003433581	90.7446241414229	-61.8960495203325	159.411885149248	-87.6470685818998	-11.3926971880468	-21.5433106307447	-7.03393350249188	
2431666666.66668	-13.4651370168071	90.5464024384035	-60.419293682635	147.703321936826	-88.4893902867758	149.921793837556	-21.4265023238481	-7.25189441321282	
2432000000.00002	-13.441617210263	90.2659460626974	-61.034965709101	143.360611769585	-94.3209058467369	-131.114979309104	-21.3101066612633	-7.20725507065059	
2432333333.33335	-13.4166644322334	89.9927883898836	-60.0703594327692	135.970904417366	-81.6213669843515	-6.27204561795515	-21.1988178468993	-7.28709054768052	
2432666666.66668	-13.3915991914016	89.8001424048272	-59.5664417729802	125.926643613774	-78.7231952901155	93.6521867824862	-21.0596531685578	-7.33631266804441	
2433000000.00002	-13.3672317089467	89.484985223006	-58.7315380903024	119.573951138172	-80.7471992717645	122.781487559846	-20.9282021732335	-7.29533285367379	
2433333333.33335	-13.350449876895	89.3635777079694	-60.1048513652661	103.844000532794	-84.2414113586158	43.4358066342918	-20.8061089733704	-7.28868781951654	
2433666666.66668	-13.329057211656	89.0598279720358	-59.5390679137446	98.5998145239746	-79.9477016564585	60.6430864395625	-20.6656491580591	-7.39348734244407	
2434000000.00002	-13.3091560225181	88.8658159624437	-58.9421043464244	86.6316721022967	-90.4528032656845	-178.844971203749	-20.539840077129	-7.32179720467348	
2434333333.33335	-13.2933323680215	88.6532522341343	-59.5672889495847	87.3563144477354	-84.0391221993797	47.7262923218481	-20.4125295825652	-7.39523595537845	
2434666666.66668	-13.2826930141722	88.4247233840413	-59.0471963198954	70.1259445496758	-78.3609062266576	11.1411671962609	-20.2805524135907	-7.37837942559569	
2435000000.00002	-13.2595055516732	88.1501528416513	-59.4363831208435	62.6026464784012	-81.5169177390318	94.3286549348546	-20.1407749779057	-7.34442559631265	
2435333333.33335	-13.2464265386528	87.9028367680528	-59.3999907652656	52.6632337948186	-83.9964430520858	6.49089351336091	-20.0273791127376	-7.43346177400964	
2435666666.66668	-13.229763829602	87.6240402007221	-58.632772396255	42.7186085605934	-84.2518945553607	-39.7733068367628	-19.8794338853027	-7.39908521415707	
2436000000.00002	-13.2188686940827	87.391814042933	-59.3590275122418	37.5593884448843	-105.530589541881	-149.180626348015	-19.7670115811759	-7.49745212257794	
2436333333.33335	-13.2104922935619	87.0954485259193	-59.7605967105659	28.2436886383773	-87.4172011140512	59.8124734845594	-19.6391528030084	-7.56549262022896	
2436666666.66668	-13.2129184597255	86.867512336925	-59.7171463259743	23.9627980707286	-83.8339216987023	-36.8663735942962	-19.5263215236779	-7.73585619975889	
2437000000.00002	-13.2003388722333	86.6472824696197	-59.8055036360111	11.855521677636	-78.3403065080857	21.7517515821082	-19.4187869474963	-7.76236148168462	
2437333333.33335	-13.1892566918428	86.3255262388589	-60.0557354805224	10.0423004392009	-81.0629623425789	94.185746482218	-19.308349188292	-8.00629332020303	
2437666666.66668	-13.1862703324353	85.990847233317	-60.2672452980676	-3.70481618166938	-76.6578953995436	12.3304400822696	-19.2063196885516	-7.90590007493716	
2438000000.00002	-13.188643194916	85.7341511732335	-60.2968906717704	-13.3342861962941	-83.4494744074607	-14.5769855770015	-19.1065354567859	-8.1371982280212	
2438333333.33335	-13.178316301527	85.3998041344581	-60.7398709062985	-12.1833908638732	-83.4386936185975	32.3123928293362	-19.0067845447653	-8.18714864586207	
2438666666.66669	-13.1851190958636	85.0979018233687	-61.5172931151138	-17.6746701423631	-79.3606247425421	85.7793671553092	-18.9272745950711	-8.38148612703355	
2439000000.00002	-13.17667728539	84.8294443711889	-61.7723851277281	-20.5455609465154	-86.323216551041	-149.26298471154	-18.8665264008172	-8.56077533260377	
2439333333.33335	-13.1835662126398	84.4933775886603	-61.193965341597	-31.8438290830491	-87.7411560803498	88.0651626675715	-18.7927708185126	-8.76370739379969	
2439666666.66669	-13.19410043592	84.2137323992738	-61.5494053281255	-33.2732860542203	-90.2934319173723	-154.955106499072	-18.733616915995	-8.80505752981009	
2440000000.00002	-13.1927537884961	83.9059568790716	-60.5473152557855	-43.029824079597	-96.7927020903811	179.986848013264	-18.6802438694925	-8.95752625598076	
2440333333.33335	-13.2089478775377	83.5329523380508	-60.3029280094791	-46.2827603425836	-87.7212016018278	8.60234808921305	-18.6237129144787	-9.09323925586006	
2440666666.66669	-13.2130998299016	83.2616234303238	-60.5960396546056	-52.6021027206033	-94.8272608084524	-81.6524916508004	-18.578099225656	-9.36684611489561	
2441000000.00002	-13.2399692337476	82.8825217855661	-59.5001761243838	-66.6163886070024	-88.734993497671	40.3454938438981	-18.5504726159211	-9.3914259903389	
2441333333.33335	-13.2247436016263	82.5190728095822	-59.4411183327034	-73.4325226862343	-89.0034279401753	-17.55266765011	-18.5320195150654	-9.48879735699386	
2441666666.66669	-13.2598607991474	82.0920267538049	-59.048249304063	-83.6557118390806	-85.3351041686376	56.6235996820473	-18.4891658470543	-9.62590099260877	
2442000000.00002	-13.2730371675851	81.7788744914651	-58.5988504818701	-88.603562430441	-81.8866101690218	-38.1833300214566	-18.4983742427509	-9.76048832303179	
2442333333.33335	-13.2913453938679	81.3933718453866	-58.8099783305661	-101.090724049927	-80.2151902035242	128.346743629128	-18.4885878912344	-9.82634917201742	
2442666666.66669	-13.3110320330481	81.0492835930708	-58.2427122462786	-107.56463895147	-95.2572380656841	-56.1110400040004	-18.4940754333749	-9.84928247436726	
2443000000.00002	-13.332230550722	80.63953094701	-57.6975505894729	-116.4518508595	-86.9120018001174	-139.492040443464	-18.4780539814192	-9.88002467482576	
2443333333.33335	-13.3506118398818	80.3241397160248	-57.1407660850288	-123.948372750471	-84.6132845412647	-156.514820379341	-18.5202874669735	-10.0054220543763	
2443666666.66669	-13.38804398911	79.9602730066707	-57.0898847054416	-136.608474989094	-84.2219668909588	-79.1558624954445	-18.5299384494647	-9.97062052303062	
2444000000.00002	-13.4082626440919	79.478938093502	-57.1434237322203	-145.433544787534	-84.4700973623462	-158.935466599092	-18.5720043572995	-9.96280877087664	
2444333333.33335	-13.431208425628	79.0676868559973	-57.0207949277669	-156.274919296003	-86.0455073035517	-162.142999866136	-18.6125120897221	-9.86322870841415	
2444666666.66669	-13.4658046049598	78.6327516317731	-57.1404786000736	-160.88363294326	-83.2166218119252	46.3089712298379	-18.6607445690972	-9.95600326569508	
2445000000.00002	-13.4949157527656	78.3244245219497	-56.6561502258217	-171.468816284117	-87.178734668361	142.146329676468	-18.7212986643184	-9.785241485256	
2445333333.33335	-13.527063162302	77.7848141282836	-56.6089406562538	177.209722355191	-85.8531575801919	160.008986014216	-18.7948362604547	-9.69877866390628	
2445666666.66669	-13.5676642846427	77.4032819495638	-56.4639889945667	168.999623726917	-79.3326159303809	-157.986553896655	-18.8609813985435	-9.46086883370306	
2446000000.00002	-13.595480272177	76.8844337275677	-56.5147267899465	162.342997437877	-81.5881172487649	90.3546343551938	-18.9387835156269	-9.28822342400473	
2446333333.33336	-13.6389558364647	76.4770459712942	-55.8353975595682	148.756784490949	-80.7976717707837	-177.120835680959	-19.0329663443307	-9.05619030207682	
2446666666.66669	-13.6661962508529	76.0126755457898	-56.7218058211658	141.342764929813	-82.5993026088441	151.231410836516	-19.1268958974062	-8.70866263916291	
2447000000.00002	-13.7130688935209	75.4914345730779	-56.2951700618349	131.374226381482	-83.6532127193898	125.266534207693	-19.2327476099663	-8.26360597029127	
2447333333.33336	-13.7513266956337	75.0866773996622	-56.0678867278907	116.177656747379	-82.9872433045894	119.667502619766	-19.3323476051173	-8.00725188225635	
2447666666.66669	-13.7788889024327	74.5967689458739	-55.8443202783677	108.422980819877	-91.1977613792241	133.289358300897	-19.4652281093224	-7.36648302875612	
2448000000.00002	-13.8129732791354	74.1346290820269	-55.9470992914583	97.9693645833622	-84.7408090152693	84.4619264751084	-19.5830786338417	-6.90645984471277	
2448333333.33336	-13.8510632002668	73.6464930672769	-56.220433576691	86.5684642702991	-100.489889088151	153.273167565359	-19.7125476098303	-6.31146893359693	
2448666666.66669	-13.8896992267923	73.1965002696791	-56.2879538394182	76.9286668367103	-90.8307317596548	82.9451619941894	-19.8437687582122	-5.63237958224973	
2449000000.00002	-13.9260260544564	72.6271369851822	-56.851257065671	64.2398503200995	-83.3551255826326	76.8648272015933	-19.9640344051141	-4.66803138361008	
2449333333.33336	-13.9590033015082	72.064011429331	-57.1493597922355	53.3538031287934	-89.220741212001	-72.2862180033312	-20.0949850530577	-3.71763334134319	
2449666666.66669	-13.9996700023707	71.5347503471106	-57.6043895548732	43.3189280428578	-85.1347005974213	-118.629746544599	-20.2218170849257	-2.81792877113548	
2450000000.00002	-14.0301912675876	70.9692906003523	-58.6785783744484	36.6077795325677	-85.4354643427864	112.44549586739	-20.3337263527367	-1.60150761680498	
2450333333.33336	-14.0881646028978	70.3959319604205	-58.3533354617686	24.7212091903529	-83.3629613244032	-178.6828467126	-20.4416718327773	-0.562378695864991	
2450666666.66669	-14.109778664406	69.8260703161189	-59.6014356554896	21.870473181575	-79.5629934050607	145.85187348177	-20.564957145803	0.814752958040454	
2451000000.00002	-14.1446818059421	69.337272307333	-59.7693226657271	8.63500334765483	-84.8056045147807	-172.869012316243	-20.6726221776974	2.17694181533227	
2451333333.33336	-14.1791047958961	68.6956062876937	-60.5729434110829	-0.304125648105204	-90.7822398833189	105.967350290344	-20.7672512765977	3.46688016958748	
2451666666.66669	-14.2033838159992	68.2544335306115	-60.6751281007597	-8.43831960229484	-77.3063085700239	149.35856965122	-20.8580353660464	4.970135951416	
2452000000.00002	-14.2359295075448	67.563043479701	-61.4504601984364	-11.6421469102917	-88.8607286781131	-75.7586777991359	-20.9167814220893	6.48884225379587	
2452333333.33336	-14.2524211345516	66.9378441184656	-61.6834602708368	-21.1807112491966	-88.8280463836985	-62.5753161548632	-20.9609574297773	7.96959956275517	
2452666666.66669	-14.2874302724653	66.4108249134529	-61.4483706107761	-26.2020121543268	-90.1756280886421	172.024942259511	-21.0215343742162	9.5962982764818	
2453000000.00003	-14.3186430188135	65.853222228502	-61.3187714607916	-36.3054938628238	-90.1749219641125	-17.7555799624325	-21.0522591334046	11.0378050448619	
2453333333.33336	-14.3332560299877	65.2781943391029	-61.6723037870075	-45.0976500331912	-88.4207345597582	141.049557388122	-21.0551117666658	12.6816990200331	
2453666666.66669	-14.3610141002782	64.5733142357072	-62.9307285578558	-48.0365306080152	-78.22366947005	110.414334034051	-21.0713409894335	14.2154478504716	
2454000000.00003	-14.3770095333555	63.9650694945162	-62.4444693918929	-48.9388536512228	-83.1890658564438	140.572039611344	-21.0504618081306	15.848184884459	
2454333333.33336	-14.3796380541106	63.3178356329296	-62.9151538908711	-65.7590323791172	-81.6250335711255	142.638463981738	-21.0513259244955	17.3519566037574	
2454666666.66669	-14.3976527964966	62.8301086263214	-63.7453356698058	-73.0884892249974	-81.8921621390462	145.239014301027	-20.9858721116064	18.6915732844421	
2455000000.00003	-14.4077557794078	62.180469686051	-62.2000691872356	-82.7769649187062	-88.6923490016568	94.0412710779526	-20.950141825304	20.1328911778992	
2455333333.33336	-14.4066656958705	61.5462936761728	-63.5225045676885	-92.2335859319144	-96.5694731371762	-110.810594449401	-20.8749588189695	21.5705183149111	
2455666666.66669	-14.4134389043999	60.94065689599	-63.8940820459249	-94.111171113586	-89.4711972958929	172.596933640196	-20.8271239900916	22.7538951392154	
2456000000.00003	-14.4095336386943	60.3062292901467	-62.8213447350975	-98.1688047010627	-81.6689772660983	167.501545392499	-20.7597474349572	23.9702512680743	
2456333333.33336	-14.407203070407	59.708873679346	-64.0440358282561	-109.531014421653	-91.9456677991101	-55.2737358991738	-20.6681881360002	25.101327825391	
2456666666.66669	-14.4043614456516	59.0303078064389	-64.1338980936252	-114.403215580481	-82.024810697485	134.266489377559	-20.6034207059725	25.9976735661676	
2457000000.00003	-14.388369224043	58.4526716536898	-64.004492417688	-111.868908707357	-90.8197511027345	14.9052839521439	-20.5025434453307	26.9510063427572	
2457333333.33336	-14.3833999081064	57.9148022956785	-63.6806047471643	-114.546744084353	-81.5967912854326	-102.044655626559	-20.4413354112526	27.8532759799872	
2457666666.66669	-14.3640592223056	57.2030562785235	-64.1045350812398	-129.051531206062	-102.497941121142	65.1893571628298	-20.3688566586962	28.5014108884922	
2458000000.00003	-14.3370831910219	56.5572510113743	-64.2483052153035	-122.411902690077	-89.2021483664971	-168.065242803172	-20.2795149429806	29.4163323043068	
2458333333.33336	-14.3213433115584	55.9124824938895	-62.4146932820463	-136.286375269056	-83.6529454328789	-162.354796528771	-20.2004249475919	29.952356775934	
2458666666.66669	-14.2915639055521	55.3054167254577	-62.4305897169841	-134.983224346559	-98.4734668895021	23.3636016148448	-20.1315430794922	30.717696724894	
2459000000.00003	-14.2765463251145	54.6948256492445	-63.5771919237055	-145.151457495763	-84.0675415406267	-172.636743738372	-20.0694127299535	31.0777842368288	
2459333333.33336	-14.2339742325524	54.0792597266933	-62.503523116146	-141.922570949595	-85.4147015913406	56.5888383492833	-20.0155498854591	31.476967932875	
2459666666.6667	-14.2085277950331	53.4368080081481	-61.575746541944	-150.231496203674	-94.0322610888035	-116.388256760269	-19.9530273536404	32.0217129221575	
2460000000.00003	-14.1728449563974	52.8430065132477	-60.4020653445643	-171.513190014536	-90.038765277786	178.142366770079	-19.8835257537199	32.4078328305485	
2460333333.33336	-14.1310754561929	52.216239066387	-60.7093013161724	-174.758818434718	-83.494085088528	-83.3103921926709	-19.8447766971546	32.7735270951829	
2460666666.6667	-14.0976844953164	51.6041069294726	-60.8940309945976	177.95600272618	-87.9578874389913	40.2931943927611	-19.7996735014346	33.0266344650392	
2461000000.00003	-14.0525319702116	51.0077605961895	-59.5097334628058	168.104760392798	-90.7792264579888	162.032836320933	-19.7519575194385	33.3429146262641	
2461333333.33336	-13.9990512476172	50.404236584684	-59.7938015557897	156.415305571879	-87.9535228877666	-66.2507877457729	-19.7110092804846	33.5906239914431	
2461666666.6667	-13.9605206845365	49.7018344629768	-58.6692217018674	153.095731589606	-84.1121767842134	-96.5922917565378	-19.6672140157193	33.7817728786092	
2462000000.00003	-13.9172000017365	49.1864900692815	-58.4087432186445	140.242223033893	-86.0206928767474	122.950648179464	-19.6424506174772	34.0141514340974	
2462333333.33336	-13.8753499327798	48.6348535124171	-58.6002470269712	132.351084746328	-92.443101817937	-172.890062079279	-19.6174929687367	33.9994306961498	
2462666666.6667	-13.8113156080021	48.0142731646759	-58.0138050783308	124.564708624714	-86.2032073895182	107.308589504003	-19.593750937883	34.0731934161815	
2463000000.00003	-13.7627137365744	47.3814955195328	-57.6085896720439	113.033325263045	-85.7812578659413	31.5455113055386	-19.5746692543388	34.1288103389934	
2463333333.33336	-13.7000861853052	46.8175711163672	-57.5107246588987	104.009215173651	-88.541688786774	17.7482158511606	-19.5510320566947	34.1506646571143	
2463666666.6667	-13.6463206115725	46.2005272131295	-56.9632854122489	96.0141752779701	-76.3534683643115	71.3817515911866	-19.5456243082629	34.0905514854261	
2464000000.00003	-13.5890373873169	45.6974641698527	-57.333723846189	83.8511496721086	-90.8704437150483	-97.2670246290256	-19.5239672036148	34.0618085797651	
2464333333.33336	-13.5466482514871	45.1678252700845	-57.238206184053	69.546134545218	-91.8647612740021	-164.98398261907	-19.5241546752648	33.9729025833498	
2464666666.6667	-13.4751753214244	44.5510499873792	-56.6656782501625	61.1614071257712	-77.2974736294913	-161.838681395042	-19.5153169725314	33.7971050436571	
2465000000.00003	-13.405441644829	43.978639821377	-56.3055929685188	49.2080619772696	-87.7125051473637	61.9163007244798	-19.5081080386153	33.5578866183714	
2465333333.33336	-13.3506443066019	43.4979156586592	-56.196482831066	39.5600236523337	-81.8202060701306	-69.9047383820652	-19.5217413394527	33.4107073466554	
2465666666.6667	-13.2859947556108	42.9567499944397	-56.1368083400333	26.1138536766588	-80.6920144954106	-128.716516660098	-19.532031518364	33.1024312216814	
2466000000.00003	-13.2377366572393	42.4450886309235	-55.8990422061845	14.4441893835599	-82.6840349538526	-62.5869892292452	-19.5525269584822	32.7310615912881	
2466333333.33336	-13.1674690223847	41.905347104562	-55.4890559449081	3.55882491936744	-84.5862954119062	-45.162234278597	-19.5659721762998	32.4907300070228	
2466666666.6667	-13.1068115382685	41.4123908684892	-55.845292779786	-6.0933857954673	-85.3293713403513	-1.36196201044664	-19.5919573131792	31.9674651313916	
2467000000.00003	-13.045838551311	40.9169788835827	-55.3944083465471	-14.8775309791056	-82.8509367337542	-29.730133552645	-19.6123765693308	31.4656989617772	
2467333333.33337	-12.9788440694861	40.436435620332	-55.3500952479913	-27.7944934148013	-84.2293616962834	-48.6773722628663	-19.6452959257282	31.0724832319426	
2467666666.6667	-12.9150131653136	40.042772910078	-55.00993912919	-38.8499796292215	-83.6118374144883	-47.568501281127	-19.6886721971434	30.6129088482092	
2468000000.00003	-12.8510204630416	39.574597893736	-55.542530672493	-49.6266314673182	-76.161456974084	-142.29705621503	-19.7536810114368	30.1007929401569	
2468333333.33337	-12.7908734135681	39.1615066796159	-55.1212354808972	-60.7102623078798	-86.1178917534394	-44.6587803687057	-19.8034698584178	29.5489494668756	
2468666666.6667	-12.7325179032332	38.7217034033452	-54.9646554996285	-73.0552638925773	-86.9808298256338	37.4555185809585	-19.8737605000851	28.9104455651583	
2469000000.00003	-12.6545910971215	38.3000891049559	-55.4180860022951	-84.092625123254	-94.6263770701872	-138.977400809096	-19.9236342503079	28.3545326188751	
2469333333.33337	-12.5952664907671	37.9073100772987	-55.1059711655443	-96.9374021407078	-87.3158514824745	-120.829458389563	-19.9838690370771	27.6946933093813	
2469666666.6667	-12.5337398678492	37.4909072701226	-55.6435790562566	-106.776290651071	-83.9648937073326	-145.783853428589	-20.0608802507749	27.050360166487	
2470000000.00003	-12.4650479690725	37.1708691238842	-55.4131474834668	-119.480775407704	-83.2283677261367	-141.587857601603	-20.1348706844591	26.3058675755951	
2470333333.33337	-12.4098226239957	36.7366127879267	-55.5271678303994	-130.865611839476	-85.7782665492492	-91.5854764361549	-20.2239127229276	25.6201868329192	
2470666666.6667	-12.342421414157	36.40347806602	-56.0996982254096	-141.567584381995	-89.7073999494226	112.850077418098	-20.294370431264	24.9129729017294	
2471000000.00003	-12.2824057684316	36.056213375257	-56.3091075775015	-152.027785183593	-88.8401256375639	-170.774435625311	-20.3823770059257	24.2476357961022	
2471333333.33337	-12.2155833200756	35.7189582419906	-56.6169497232153	-160.404795540261	-84.347794318622	-82.6971268004453	-20.4928781209738	23.4558595976691	
2471666666.6667	-12.1562790784417	35.4189839385061	-56.85178765125	-173.600437456916	-79.7595464952428	129.327057736973	-20.5678360869013	22.813609618443	
2472000000.00003	-12.0920007451579	35.0588112883295	-56.4927250036148	177.093615995458	-83.3809182746681	166.023754806793	-20.6708787845437	21.9763581330953	
2472333333.33337	-12.0266273500527	34.7455496076578	-57.4220640538507	166.981809654439	-95.236941043128	-0.0145058046085303	-20.748005940114	21.261727733095	
2472666666.6667	-11.9723938013252	34.4719377661502	-57.4495575865911	151.630243412898	-91.6694990443995	166.482918117533	-20.8436637901147	20.5409553635318	
2473000000.00003	-11.9161298700528	34.1296681413782	-57.3692613516942	143.192108747642	-90.35456561432	125.397646424299	-20.918730700035	19.6937309165041	
2473333333.33337	-11.8526347212413	33.8504810551184	-57.9480818585132	130.456795154959	-84.3624605181453	-137.361101561957	-21.0198917142366	18.9272558049311	
2473666666.6667	-11.7940100261091	33.5455482777125	-57.7908398216016	116.219104089609	-95.4587088593395	69.9070530375827	-21.0912407539356	18.2128576987225	
2474000000.00004	-11.7366047377995	33.2707288599012	-58.4939821601023	107.138498041453	-88.4734200719891	-50.6592924025163	-21.1766173239683	17.2924335729033	
2474333333.33337	-11.6802633912782	32.9704989750939	-58.1413146075381	97.0136984418676	-81.8019432070807	-111.184296622979	-21.2425122532102	16.5112409532619	
2474666666.6667	-11.6192182117107	32.7256405396299	-58.6915597431987	83.3679529483855	-85.5300392475651	76.600300015862	-21.3062365592485	15.7027520676042	
2475000000.00004	-11.565790454096	32.4539758611037	-59.3207218648991	76.099292978309	-99.0845189331941	160.288280467365	-21.3652976615335	14.8246059794864	
2475333333.33337	-11.5140985170392	32.1274307829025	-59.1866108869292	59.8440854114946	-96.7505737521736	-72.435111679753	-21.4104284621466	13.9912174679567	
2475666666.6667	-11.4535887165768	31.8905712651253	-58.9276125080901	46.3910166503715	-83.407847985558	-64.0752907053524	-21.461976600001	13.1251022624494	
2476000000.00004	-11.4106473471924	31.5979763548655	-59.2467820500086	38.8208268285493	-86.2442648344951	-92.7257546735238	-21.4795955550285	12.0964503436301	
2476333333.33337	-11.3585179788752	31.3619482170683	-60.0770332873908	26.6672168699958	-88.3779139681066	4.6895089954507	-21.51826107596	11.2103244641105	
2476666666.6667	-11.3098542272287	31.0257933056149	-60.091530203841	19.2025483493351	-84.8870393971281	-161.699292012763	-21.545953822863	10.1508286313622	
2477000000.00004	-11.2594741825858	30.7947635145359	-60.0945072728046	1.95237630465003	-88.1181134734964	-58.97658282947	-21.5650914617236	9.14440817651692	
2477333333.33337	-11.2169670882169	30.4862670877672	-60.7375353740002	-7.9539476371988	-79.5257517503183	-42.475603783283	-21.5553590732239	8.131669478324	
2477666666.6667	-11.1579649220002	30.2211187563601	-60.73676213992	-17.6296245948908	-83.9405102622439	-96.0811886474714	-21.5529266078677	6.9642980374039	
2478000000.00004	-11.1199887960758	29.9474772264406	-61.1415923498416	-28.8765954318379	-80.0981687107608	-112.734839728129	-21.5399969926519	5.8132729560562	
2478333333.33337	-11.0746087015726	29.6833862908951	-61.600388453292	-41.5144290980809	-91.2672796160231	-129.3707158321	-21.5152788705522	4.7237429309178	
2478666666.6667	-11.0397691967447	29.3889986183082	-62.2638931492192	-53.3017354678144	-87.2016164296824	-88.7059396743566	-21.511639263795	3.42604381365026	
2479000000.00004	-11.0009557391705	29.144180500479	-62.5348030417573	-71.5187277889233	-85.3441807621084	-114.550900255552	-21.4994531248902	2.33406153614267	
2479333333.33337	-10.9589821591892	28.8485990741153	-63.5102585324419	-75.6850789259795	-85.4463382450256	-5.73276146095599	-21.4584167347002	1.02423445086962	
2479666666.6667	-10.9259205703554	28.5630968029488	-63.6206752589678	-84.9862120267966	-84.7866370677889	-169.576515621747	-21.4303605464099	-0.256422178642767	
2480000000.00004	-10.8856754052481	28.2898014119657	-66.518141406277	-99.0943794999703	-90.099300916931	-41.5739638856679	-21.3717511739358	-1.56868549075696	
2480333333.33337	-10.8555250064883	27.9777709209479	-65.2027359283277	-106.968748956782	-91.9940368164832	79.7160562160353	-21.3313595103905	-2.67880640798332	
2480666666.66671	-10.8294952517734	27.6755776968914	-65.8800735721065	-117.866512134386	-85.5007133046664	-13.0192793082517	-21.2768255622948	-3.95145692207108	
2481000000.00004	-10.7967587767103	27.361641135387	-67.9635260194036	-122.360361623972	-82.5386616333757	-138.951948238423	-21.236283605643	-5.32650648297896	
2481333333.33337	-10.759269900073	27.0857281802904	-69.6829148528478	-140.627384576125	-82.6175557049012	58.6685698292659	-21.1761061998081	-6.48783914973916	
2481666666.66671	-10.732786690787	26.7426276933284	-68.1932062850967	-128.561913389962	-91.7924514807028	-151.755610833105	-21.1046648790917	-7.88228404659714	
2482000000.00004	-10.7100969326634	26.4632426695743	-72.4642840048946	-122.655432569707	-82.0350523466733	112.899819884215	-21.0597852536789	-9.10995841238979	
2482333333.33337	-10.6866930848748	26.1275300682503	-70.8726112884049	-159.674183461346	-88.4272001756773	98.7841068379901	-20.9835497124637	-10.4318419297594	
2482666666.66671	-10.6579214751748	25.808057612961	-71.5102051974359	-149.70461239253	-85.2050467005538	108.883581459537	-20.9068523515888	-11.7268891336666	
2483000000.00004	-10.6449977333441	25.4946466134408	-75.388710364627	-155.384615039609	-93.4833187003562	-36.1267471306348	-20.8307315671385	-12.8971156865955	
2483333333.33337	-10.6199103404347	25.1975195486959	-70.978784220256	-155.422387217122	-91.7672125263547	-42.0044349339755	-20.7649836707829	-14.0830630820113	
2483666666.66671	-10.5988791591032	24.8460169620949	-71.612110632941	-156.603293044452	-86.5915874353838	-53.5049790916607	-20.6871265267984	-15.3057070209038	
2484000000.00004	-10.5923649692883	24.5067243622904	-73.7545244384397	-161.612004835043	-88.637928101156	-36.6509678999657	-20.6130526408968	-16.4567254119822	
2484333333.33337	-10.5697460396635	24.1104198261973	-72.2600326319071	-156.720757288944	-86.6864939667103	142.392341697403	-20.5520839091521	-17.599631706056	
2484666666.66671	-10.5599842043924	23.8038622204779	-72.2555094292999	177.895143498972	-89.5780084413727	72.9584609668477	-20.4812259629913	-18.7619120432959	
2485000000.00004	-10.5581737194449	23.473607459518	-70.6551785468119	173.110616895524	-79.1920518792923	-64.0236993689036	-20.397755516745	-19.8728706585398	
2485333333.33337	-10.5450077034043	23.1161517016119	-68.045175123488	157.466594073859	-78.8703138804814	-34.394621945073	-20.3288573363729	-20.9279736307111	
2485666666.66671	-10.5424432989872	22.700034957404	-70.1634790852237	164.517847525024	-80.8766260065014	1.17529493673674	-20.2507261698255	-21.9503244679583	
2486000000.00004	-10.5337755741307	22.3084701028465	-69.4339129076179	149.912375028324	-79.8273297582067	-62.5800450947609	-20.1840270785369	-22.9262374160128	
2486333333.33337	-10.5294985412354	21.9582888595645	-67.8587514791448	150.345819865532	-79.1122078931194	-14.078535129165	-20.1191491487851	-23.8596331123649	
2486666666.66671	-10.5288631545235	21.6115422700525	-67.6223295637971	123.989436780458	-82.0908175539959	-87.1893560813675	-20.0654796657404	-24.8451911064678	
2487000000.00004	-10.5376463248777	21.1919926483437	-66.9623993974985	127.742380012077	-92.6592535948178	16.135243953449	-19.9891112205242	-25.7413970388834	
2487333333.33337	-10.5435296173275	20.8030893654945	-66.2199102291621	120.711969117166	-91.2264173191298	-3.38676809722769	-19.9362464153337	-26.6380965362483	
2487666666.66671	-10.5454055045496	20.4571855721778	-65.8702849935178	117.472076634848	-87.0318464680451	-36.9974140842832	-19.8849610122663	-27.3916076436028	
2488000000.00004	-10.5527354219231	20.033687901863	-64.8099073173765	104.395531130089	-78.8821530610226	112.599827016726	-19.8271228248156	-28.1513047581206	
2488333333.33338	-10.5685092560208	19.6475209879286	-65.4294537954875	89.8052819802691	-81.038846064992	50.9693938488517	-19.7790056081178	-28.8419271728941	
2488666666.66671	-10.5746186996553	19.2417468048585	-65.6003770556102	80.5831771763921	-78.0033705270486	-35.7075858706383	-19.722991889386	-29.4706276813222	
2489000000.00004	-10.5904564956394	18.8426137281054	-65.5975040313952	77.5421388587751	-80.406820099446	-2.75717439609137	-19.686424580938	-30.122301073431	
2489333333.33338	-10.5982536856417	18.4044549365801	-65.128070160967	64.9807691605373	-98.3267569246771	-58.1837623562751	-19.6508780136967	-30.75548568098	
2489666666.66671	-10.6183579343512	17.9916432359964	-64.6736091744742	51.0408587538663	-88.8093989688277	-126.682573310651	-19.5953127804226	-31.199910584841	
2490000000.00004	-10.6367899271497	17.5045269875206	-64.0185120047134	44.6731338661947	-95.5139592118928	-52.7716196013274	-19.5629273545882	-31.6252227926116	
2490333333.33338	-10.675343579745	17.070515772585	-65.3631754416613	29.3928571527542	-88.1354688967198	-33.4693548346566	-19.5164098427135	-32.1306798912236	
2490666666.66671	-10.6784487000881	16.5903271105896	-64.1966719058406	18.0251871525152	-83.5606775899828	109.12084372164	-19.4895587734461	-32.4281637474121	
2491000000.00004	-10.7114259765682	16.1470484908144	-64.8709346974726	10.8963733060804	-90.1203291415439	-119.669451797643	-19.4597974562706	-32.7931147377148	
2491333333.33338	-10.7365582001774	15.6871532938552	-64.6984154568772	1.14469176912605	-93.3272302742301	-178.963562393378	-19.4135190178619	-33.0963912112545	
2491666666.66671	-10.7707163166163	15.255391758135	-64.6648222954177	-8.71368476814193	-75.2293534078306	14.1208644048073	-19.3781662797462	-33.4301741596054	
2492000000.00004	-10.7983251800739	14.7918832795551	-64.1834748491507	-17.1118562777678	-85.1400395355921	0.37496385721804	-19.3335651532972	-33.6270357635093	
2492333333.33338	-10.8216012212809	14.2544568411373	-64.8999212228767	-14.3250307707743	-98.9273569621359	179.29884508997	-19.2945339711407	-33.8287091514557	
2492666666.66671	-10.8529273888299	13.8100477165118	-64.9804784197092	-31.2663452348273	-84.9567299525802	19.4404111504459	-19.2661661178306	-34.0368290536066	
2493000000.00004	-10.8954093472981	13.3066444342828	-64.2227585392804	-35.9516996531783	-83.4308672235602	-140.311368323284	-19.2396727107879	-34.2024445177908	
2493333333.33338	-10.9196184747522	12.8398859444355	-64.6242838177859	-43.0644938990463	-82.2372766790557	-80.3543429388639	-19.1911620180431	-34.4134232786236	
2493666666.66671	-10.9573008417703	12.3395195734406	-65.6201049723948	-56.5879342665302	-85.243513208912	4.52909749948695	-19.1563917743415	-34.4818688371983	
2494000000.00004	-10.9989033988124	11.8216976003967	-66.0014454921476	-65.7490662385398	-89.1718456140074	-141.910672200177	-19.1453083596355	-34.7105718963722	
2494333333.33338	-11.0349077101536	11.3063188604126	-66.3395023859592	-70.6099096828913	-86.2925473733169	-2.90228839625941	-19.1156816515494	-34.8473816014266	
2494666666.66671	-11.0768397197807	10.7571838656009	-65.6809876757528	-80.747831208343	-87.1779969623483	-41.1232971694775	-19.0913889369624	-34.9552202267958	
2495000000.00005	-11.1171173227957	10.2778179724463	-66.4633385401985	-89.7669006098117	-83.0628380560441	-123.729980436173	-19.0797948225713	-34.993599002098	
2495333333.33338	-11.1575307662425	9.7120836398441	-67.3169178572021	-94.3458667278365	-98.4140112424139	2.25752137025216	-19.0688343893035	-35.0745863335748	
2495666666.66671	-11.1976403556452	9.1858136877392	-66.7649677834832	-105.57338536864	-83.435346760419	-123.307758489213	-19.0648529256107	-35.1424546118746	
2496000000.00005	-11.2445528779107	8.65235162701129	-65.9328900919288	-111.995883219892	-86.0826305598238	119.315337197878	-19.0744122460111	-35.1853244933451	
2496333333.33338	-11.2857752661819	8.09414368962503	-66.9588603669817	-115.12505562386	-91.7579363265548	17.3921299493165	-19.0642085119754	-35.1739192194963	
2496666666.66671	-11.3257557158556	7.48272170807606	-66.8773067332139	-128.473325863699	-85.5421723312922	13.2271644065529	-19.0874056694511	-35.2575799711903	
2497000000.00005	-11.3738844745259	6.95628762545612	-67.3233096569867	-127.286459702594	-88.5894030913479	16.0313575514286	-19.097278456047	-35.1936248402781	
2497333333.33338	-11.417486823972	6.40778640946653	-67.1007809990556	-136.112692432544	-83.2500295881252	31.433721035363	-19.1289713379576	-35.1428684575642	
2497666666.66671	-11.4612260505002	5.77303055307341	-67.0621433051075	-154.185934214783	-89.350744322151	-168.316139275739	-19.1363017635614	-35.1455212124514	
2498000000.00005	-11.5058457110677	5.20732866575003	-64.7932964290884	-158.221407364591	-87.6521769410902	-83.6584335838847	-19.1558551028401	-34.9661561304957	
2498333333.33338	-11.5448566613343	4.57189987280586	-64.3112316238145	-169.738748968268	-85.1655043213382	86.4922424196609	-19.1800770929493	-34.7709547485467	
2498666666.66671	-11.5873971278549	3.97291182016551	-64.6936252783624	-174.003605244801	-87.1229058867492	139.126734850081	-19.2206881584203	-34.5353584348894	
2499000000.00005	-11.6347227786309	3.43873378542683	-64.6119443855609	178.08091498901	-85.4060034286156	-156.720890634016	-19.2715845791405	-34.3515796688494	
2499333333.33338	-11.6758648618006	2.74013088309633	-64.7519411888862	171.514339290097	-81.1511151628723	-134.620518433472	-19.3335841615024	-34.2257423380525	
2499666666.66671	-11.7226417597032	2.14945467243168	-64.2236865613644	163.517976689775	-79.670660036601	65.4377540756013	-19.3862284619013	-34.0481657682635	
2500000000.00005	-11.7660677950069	1.49452588314188	-64.1039221401043	153.63258406661	-80.939729457344	106.30276151169	-19.4261379109061	-33.7104842527699	
2500333333.33338	-11.8026594659115	0.873824947718737	-64.5331244945124	144.856101211694	-90.5437839681912	21.5055052721665	-19.5108496199621	-33.3944434313726	
2500666666.66671	-11.8501321437683	0.158330276221954	-63.9466291304514	143.472192149634	-86.2225841410893	68.3428751264193	-19.5692476501622	-33.1752363725249	
2501000000.00005	-11.8960553170978	-0.482681010149483	-63.5781828966499	131.845454519271	-80.1096039065562	38.9669610125179	-19.6402114684576	-32.7210014806486	
2501333333.33338	-11.9235355635694	-1.2114572616347	-63.8675220252002	119.273756542327	-84.2863876474805	132.688972624863	-19.7140266253779	-32.1735389355467	
2501666666.66672	-11.9702910127731	-1.93654182380203	-64.7087574213371	110.877553332687	-84.0931639674904	-93.8443422530056	-19.7867408263938	-31.7431511440129	
2502000000.00005	-12.0118294647569	-2.55285784448024	-64.6405748938001	102.584816073139	-85.8297083151311	-55.0375108531558	-19.8854268346353	-31.2255280876546	
2502333333.33338	-12.046378844155	-3.29560482887671	-64.2799393733502	98.2666364115871	-82.3753560993857	40.5061968348135	-19.984025790404	-30.7306527461697	
2502666666.66672	-12.0745480310071	-4.03497255076463	-64.095732502524	90.1629775171298	-83.7411784498377	16.8353039808805	-20.075973681233	-30.0228441546548	
2503000000.00005	-12.1134050609337	-4.74470117933098	-63.721895191963	79.5375713704509	-83.6461463780871	119.494467462228	-20.1522215702138	-29.3618543214578	
2503333333.33338	-12.1384930123061	-5.4668190164873	-63.6939867513027	77.5626184749497	-86.8958928631613	15.7690710571887	-20.258060964499	-28.6539138173057	
2503666666.66672	-12.1751749663858	-6.21445245270929	-64.9761626544142	69.3257631122944	-82.8450251405769	103.492817838107	-20.3629388276816	-27.8306071640896	
2504000000.00005	-12.2032101205608	-6.96517396207647	-64.6151921953814	54.1503930035803	-82.0815025530364	88.4222431233667	-20.4655635240974	-27.0664086560049	
2504333333.33338	-12.2299184662769	-7.76671734277555	-64.2071405422511	48.3945505972783	-80.5434509134345	61.5486486439392	-20.5866316992061	-26.1989887199026	
2504666666.66672	-12.2606906454431	-8.5084720566849	-65.0380599120113	38.5737046353083	-82.8181937812606	117.999511680558	-20.6909150248633	-25.2925154413053	
2505000000.00005	-12.2841559912942	-9.28518168451563	-63.6679109477661	42.0340946187242	-90.2514987153982	51.0465767402114	-20.7967697015396	-24.0750716623038	
2505333333.33338	-12.3033283984419	-10.0950800869949	-62.9479965802365	37.2306908597929	-106.187487062334	165.311784078027	-20.9209804111223	-22.942871318574	
2505666666.66672	-12.3314353984097	-10.8834092264187	-63.7062422215281	26.4964988354817	-82.6826566988665	127.606969921636	-21.0473071256189	-21.8356180332945	
2506000000.00005	-12.3504727632521	-11.7428720967596	-63.6081109709332	18.0145512624108	-87.4821785663738	101.703278421997	-21.1484180194951	-20.5886766912191	
2506333333.33338	-12.3695825015588	-12.4932535020008	-62.500260579596	15.5986147005243	-106.974303225675	-45.5788735424003	-21.2603475073775	-19.229992841721	
2506666666.66672	-12.3818317982482	-13.3020928586772	-62.5593603387152	2.63168652311584	-85.9887023375384	-179.240186756128	-21.3631962928925	-17.7985838260937	
2507000000.00005	-12.4054077120042	-14.1329561922317	-62.7499573017251	5.67456024386031	-86.5741529218824	136.686247913438	-21.4514090273492	-16.2489428190326	
2507333333.33338	-12.4158181667359	-14.947398653575	-61.5331469122896	-6.6083433099644	-85.0300187198487	101.221655327191	-21.541107791872	-14.6094427819174	
2507666666.66672	-12.4317861586858	-15.7930251671728	-61.578255803962	-20.5690395955071	-84.6628923498102	22.3272353190077	-21.6178930741315	-12.9708025442464	
2508000000.00005	-12.4428932752955	-16.6386490200966	-61.0988502740912	-22.3904923457679	-85.9532516789688	74.8448286439124	-21.6828452235031	-11.2854222501789	
2508333333.33338	-12.453099698686	-17.4290280261215	-60.1852614988374	-31.1693722825935	-93.3432025668908	98.9179678373959	-21.7403152379737	-9.54661618578134	
2508666666.66672	-12.4610858786338	-18.2529377742709	-59.5047998261634	-45.5153386757553	-89.3063116824791	-44.615168484808	-21.7988156241354	-7.70181027850812	
2509000000.00005	-12.4678839442945	-19.0975735470796	-60.0036934783603	-52.4305126315992	-93.8945122312791	-7.62098243566668	-21.7822862198941	-5.87197188121253	
2509333333.33339	-12.4748168997746	-19.88115523737	-59.0037338890141	-68.500670582197	-87.0192532208012	70.1428943855613	-21.8038636584698	-3.87208628848019	
2509666666.66672	-12.471541908531	-20.6849977914982	-59.1073209779254	-76.4437197964931	-76.8803551506867	-135.811943737411	-21.8062336630151	-1.99318265385947	
2510000000.00005	-12.476406398537	-21.5569583392118	-58.5794308074159	-83.6776035606078	-91.4703339497618	-144.327723580639	-21.7894211000307	-0.138055977334254	
2510333333.33339	-12.4757485015098	-22.4074086008698	-58.8147508814651	-95.2901467961151	-84.1237151748874	-97.896732754849	-21.7629594263071	1.67677534292979	
2510666666.66672	-12.4805278412433	-23.2209787811442	-58.4286973217083	-104.522701076801	-90.3414401082321	-11.8412929070068	-21.7022325375978	3.43522664422657	
2511000000.00005	-12.4788000655199	-24.0145286084915	-58.5585756750883	-117.382038928996	-91.0104217813968	87.997281125375	-21.6564922420126	5.16551325412503	
2511333333.33339	-12.475162732936	-24.8033860946342	-58.1094135534128	-129.856672767074	-86.2196539741759	-88.3218642432205	-21.5881011517247	6.91474582702204	
2511666666.66672	-12.4710469499489	-25.6280164027176	-57.9170917905638	-140.742717764867	-84.6777885129932	-14.17517410203	-21.509364668952	8.54523934187123	
2512000000.00005	-12.4677840320649	-26.4377606070926	-57.8793547500289	-145.132603534648	-81.5719184150593	-166.243503572301	-21.4014290547	10.1835834268527	
2512333333.33339	-12.4591548474411	-27.2433346555549	-57.9496817590443	-157.6302463385	-95.9069391617676	-106.568390791623	-21.317712286382	11.803875758648	
2512666666.66672	-12.451219997493	-27.9905163728277	-57.4921001655768	-163.782892173495	-79.8040577634418	112.304062703274	-21.2007904677981	13.2897448134907	
2513000000.00005	-12.4493331407439	-28.7683466073049	-57.2214399641703	-177.379841206754	-78.8361305101528	158.215696980423	-21.0810869727953	14.8572879342123	
2513333333.33339	-12.438468661706	-29.5535494607462	-57.59563804256	172.382479515896	-82.0544510776653	33.4756032632773	-20.966566181699	16.1840489350737	
2513666666.66672	-12.4329346968666	-30.2801425800763	-57.2597244428171	166.058487151941	-85.7475366730325	136.614448021205	-20.8284651661448	17.3618505984407	
2514000000.00005	-12.4249242573007	-31.0465917697613	-56.79450032804	159.40226195996	-75.0106148737605	154.157401373885	-20.6878996205529	18.5126456608423	
2514333333.33339	-12.416268712111	-31.7607411270265	-56.8189998967129	141.947837445805	-83.2606336891361	129.891899186608	-20.5327551639322	19.6548909990549	
2514666666.66672	-12.4052557442639	-32.5217375990716	-56.8161317295202	135.508027429099	-79.854533996571	148.724522636531	-20.4032840346599	20.7422520772626	
2515000000.00005	-12.3962125309863	-33.2482967542419	-57.0272954629798	123.07865275386	-83.6276264700447	-166.706489318165	-20.253539045871	21.5844820783559	
2515333333.33339	-12.3880762635777	-33.934255635289	-57.1176900898278	115.999142042515	-85.6075345139805	169.371059319437	-20.1044910446422	22.4720154602405	
2515666666.66672	-12.3866016628221	-34.6136319728394	-57.4244859856044	107.009121007379	-79.5537445537346	134.96907153653	-19.9591277801901	23.1402059177237	
2516000000.00006	-12.3721001343107	-35.3026830018686	-56.9643542329248	92.5421461139109	-77.1725527541699	149.279483548931	-19.8189320490709	23.801193134067	
2516333333.33339	-12.3677483877414	-35.9655185728469	-57.5397362982957	85.4499128803818	-83.6954696896163	150.636334684881	-19.6574012993475	24.251865190055	
2516666666.66672	-12.3556830455347	-36.5816001744889	-57.7407245220304	76.3566147611319	-87.0733168010519	120.746197522925	-19.5494462423717	24.6480805149407	
2517000000.00006	-12.3566947943149	-37.2372897454868	-57.4661943955171	66.2587829863403	-87.0124190517577	169.721579527025	-19.4151662438646	25.0508540333531	
2517333333.33339	-12.3502719723557	-37.7871135386747	-57.8843444541956	57.7449375529392	-85.4363308806433	76.750112189421	-19.2821814513001	25.4579303389613	
2517666666.66672	-12.346616397861	-38.4322486615046	-57.5526785759387	50.0269200246784	-88.373964401604	-144.554560184296	-19.1513756262815	25.5792207825247	
2518000000.00006	-12.3339549727132	-39.0434716978787	-57.5739794513212	35.7563108776688	-81.4108501719013	120.562285164291	-19.0542605173724	25.6805354294165	
2518333333.33339	-12.3342992880671	-39.5904215084608	-57.881966199535	26.0771130143807	-81.3743869922293	99.051725843984	-18.9441519408099	25.7529693397961	
2518666666.66672	-12.3312319470043	-40.1268057189216	-58.0589062444561	17.3526481952076	-100.328187292535	141.543381611837	-18.8355364570744	25.7095094058316	
2519000000.00006	-12.337244226933	-40.5905812582451	-58.0975751556248	11.306525600489	-88.0166544873376	-92.2862029795712	-18.7776580419418	25.7794712708365	
2519333333.33339	-12.324070053074	-41.1254651898415	-57.6414313220051	-0.136414394726831	-92.1770274390828	-33.3419640638819	-18.6941456971844	25.6196453745167	
2519666666.66672	-12.3255483537968	-41.6242095838811	-58.1772241880183	-9.47908798085124	-89.8323204283577	-166.570744575425	-18.628602094443	25.5576859250951	
2520000000.00006	-12.3280262465893	-42.0749213104077	-57.8199100059171	-20.6668936566687	-77.9283485950215	-42.8195711828402	-18.5651871863422	25.2443565980633	
2520333333.33339	-12.3248748371319	-42.5065463774838	-58.5847595128423	-26.9070157070921	-83.2139611767765	-148.303142641744	-18.52878755716	25.0455148889027	
2520666666.66672	-12.3364854832331	-42.9555112256873	-58.9243439050212	-38.9608995371245	-77.3390064992607	152.95486667191	-18.4851891200569	24.7161825802956	
2521000000.00006	-12.3302775918832	-43.3618715860868	-58.4957010490661	-51.3743686346313	-90.7480959926907	126.833668984445	-18.4664393563	24.4249045956126	
2521333333.33339	-12.3319120610739	-43.7859053240929	-58.7404970599797	-60.2843267732472	-100.179284930622	-64.5898360196385	-18.4366944695382	24.0574358506289	
2521666666.66672	-12.330429520456	-44.1270030925059	-58.7552578659521	-71.2171640209841	-82.6329536027541	58.4968938800445	-18.4390842050659	23.6633936516291	
2522000000.00006	-12.3398612424023	-44.5231635589885	-59.6593654740191	-80.6440884502826	-84.8731554965245	125.269186443627	-18.4504142212271	23.3899543483254	
2522333333.33339	-12.3469941184928	-44.8261429234731	-59.6487446715583	-88.8585456248931	-80.9503806740983	-125.953081413298	-18.456518107109	23.0688525711587	
2522666666.66673	-12.3479742239103	-45.176397193763	-60.1414339173934	-98.6344413059177	-100.682096392137	34.7364288525319	-18.4675579937591	22.5911434899276	
2523000000.00006	-12.3528197320286	-45.5450122039753	-60.301178706912	-108.436262224821	-89.9013217913586	50.4799586161808	-18.4937086778951	22.1527218335338	
2523333333.33339	-12.3543797175627	-45.7963192524575	-60.5424020546161	-116.781832954063	-81.6705589723965	-151.443727011969	-18.4983699943423	21.6618145775921	
2523666666.66673	-12.3624588791422	-46.0963027679155	-61.7335338396978	-121.179963600188	-82.0651210701777	113.407943343225	-18.5634146447876	21.3399103669769	
2524000000.00006	-12.3747049592326	-46.3032635030233	-61.7734950742396	-133.165971688848	-84.9556397755998	-105.063698132054	-18.6192591530912	20.856327434857	
2524333333.33339	-12.3760582565442	-46.54809320887	-62.4949227180557	-137.831537356986	-92.6006574517158	-96.1274916344407	-18.6625420683252	20.4161769539895	
2524666666.66673	-12.3889400471464	-46.8156024401094	-62.2032002464971	-145.811516583029	-84.9759018405082	-115.177708147345	-18.7238198390398	19.9139821357059	
2525000000.00006	-12.3933830599975	-47.0214976078539	-64.8056626116654	-154.976317289043	-91.6854181175982	-3.94713184886285	-18.7941024157821	19.3816948731722	
2525333333.33339	-12.40174538997	-47.2064478766698	-64.8381475173035	-168.439922436019	-93.5667861862527	139.547149776075	-18.853724297602	18.9259167892206	
2525666666.66673	-12.4152369775189	-47.4545117955401	-65.7246870432149	-166.612281734564	-88.7968347138139	-113.917027926293	-18.932281782062	18.4593443273658	
2526000000.00006	-12.4234674826701	-47.676480012142	-64.5506678131457	-168.300933437238	-97.7408860946638	145.270941903231	-19.0186865199817	17.8874145875037	
2526333333.33339	-12.4375245361914	-47.7857533456165	-66.9789803224874	-164.98081439607	-87.8658108743417	-115.357378578852	-19.1022127818347	17.3358585966516	
2526666666.66673	-12.4418564818345	-48.00683228549	-66.0681517217598	-169.725845232143	-93.8988693952378	172.217629723195	-19.2046691112865	16.828179063856	
2527000000.00006	-12.4527044860135	-48.1775652993126	-67.6919179114223	-174.473210408692	-84.9459565731132	56.4615326816782	-19.3065782994854	16.2120512558611	
2527333333.33339	-12.4647854498551	-48.3648883676253	-65.4551306156842	-168.205903449107	-87.1245553476555	57.6405644101397	-19.4167038815783	15.6957809383288	
2527666666.66673	-12.4822115406367	-48.4457852706339	-65.02612487471	-164.599653617197	-87.0962180696545	-14.9372479919998	-19.5123093244213	15.2114457981374	
2528000000.00006	-12.5033170252739	-48.6650443687596	-66.12433017734	-168.070939604457	-84.3863284161103	-177.032045466313	-19.6276745698076	14.6814859058092	
2528333333.33339	-12.5242194426212	-48.8092537412157	-64.6259959375227	175.993358253183	-90.1753587071974	145.227945128272	-19.7476933820515	14.0406748798113	
2528666666.66673	-12.5404220648628	-48.9374533764266	-64.5077773754505	-178.519092300376	-94.0764225608749	14.3838974979155	-19.8520240680612	13.3724372468601	
2529000000.00006	-12.5548567749825	-49.0810645303103	-63.5471481971983	169.961912925343	-104.172183717713	-83.5241080422019	-19.9760832297546	12.6991670626178	
2529333333.3334	-12.5788890805047	-49.301789044345	-63.8263559907171	165.019525074111	-86.4643890575899	-36.5327431156889	-20.1088978377629	12.1541725596759	
2529666666.66673	-12.6051209094173	-49.3835548410532	-61.6865475227486	152.712774601593	-83.1847990601683	158.11895875933	-20.2270163655781	11.5440807907584	
2530000000.00006	-12.6181529834055	-49.5684507754148	-61.2462341281064	143.7388995591	-87.6884074503446	-133.224159109171	-20.3578556651431	10.8315898345409	
2530333333.3334	-12.6432953996284	-49.7852835786455	-60.6107822417522	138.779533799842	-95.9326838794216	-163.26904287457	-20.4995039553441	10.1973663847494	
2530666666.66673	-12.6711458223542	-49.9287431340418	-60.6830909428824	121.274331301396	-99.5491789572563	136.541276781725	-20.6268663447779	9.49536171486618	
2531000000.00006	-12.7006779229312	-50.1347414454611	-60.4111042655646	111.098762989892	-85.2243802994668	-135.217086460496	-20.7423659334621	8.82107323610887	
2531333333.3334	-12.740131751003	-50.3067575322193	-60.027235565518	104.195132279721	-95.7779970955404	77.1242192096479	-20.8760122178014	8.09650110885143	
2531666666.66673	-12.7736744750197	-50.4355806706969	-59.789291890765	90.828923638638	-84.6143788373001	-120.244214698084	-21.0046986602678	7.38729943065545	
2532000000.00006	-12.7985259148919	-50.605495654611	-60.0450650690678	79.4970857544832	-86.5869239722749	102.325947746851	-21.1389390855619	6.56763273213055	
2532333333.3334	-12.827420378499	-50.7681664561282	-60.5736304427377	68.5321008867125	-97.8297111033343	-99.3538851414585	-21.2554645979623	5.83119063229974	
2532666666.66673	-12.8691756004175	-50.9450383496499	-60.2572156135289	59.5632221006947	-88.7386643499982	-136.402785301625	-21.4016930401234	5.00870705377365	
2533000000.00006	-12.9088690855677	-51.1414447326008	-60.0956826467289	49.4408366710727	-83.4166697437478	-99.0709343197482	-21.5349455761794	4.15018324616226	
2533333333.3334	-12.9441997023433	-51.3290417728371	-60.4721012212552	39.1947353785049	-84.7941414745857	103.768955350123	-21.6578262840332	3.4196072996872	
2533666666.66673	-12.994374970553	-51.4750057412355	-59.4985144757759	34.588730478016	-86.2719719327405	-179.135521050743	-21.7824327375689	2.62983636857806	
2534000000.00006	-13.0355820514208	-51.6570057004651	-60.4410585054718	19.768355298603	-85.7173967162255	17.6328349322664	-21.9035536202471	1.82289192719605	
2534333333.3334	-13.0803251109279	-51.7767071939224	-59.7809570864689	12.9013059446731	-90.5214059780358	167.679678506068	-22.0135939369	0.918593794936028	
2534666666.66673	-13.1361841730093	-51.959051171197	-61.023145211792	6.88925207295731	-86.999036361423	41.3363182321454	-22.1102619850671	0.123193093696518	
2535000000.00006	-13.182001756786	-52.1090503568228	-61.5232670486981	-3.08164351152706	-84.6185178961258	-84.6856681655071	-22.2142185186954	-0.781851692987131	
2535333333.3334	-13.2339573127416	-52.3918051932983	-61.0382559853074	-15.5187053094627	-81.3568834613042	-93.1452482876227	-22.2984516094187	-1.70064295836992	
2535666666.66673	-13.2922384746845	-52.4820089402183	-61.3524076500163	-21.4315087529709	-78.4615904974822	-22.6481439283918	-22.385286024656	-2.59480811363591	
2536000000.00006	-13.3471382647931	-52.671488448066	-62.188642830936	-27.2810306513567	-91.5080830187894	-121.708968729424	-22.4523661940259	-3.5536303337339	
2536333333.3334	-13.4064028193734	-52.8782736766203	-62.4381556006629	-30.5063715428536	-87.417959737654	-70.8635770836838	-22.5214102077073	-4.60149643023751	
2536666666.66673	-13.4512031762691	-53.1206603637981	-61.6685494116846	-43.5212530426479	-80.6849258665979	-96.1335976377953	-22.5707923884742	-5.68177752603944	
2537000000.00007	-13.5207220135095	-53.2143558552039	-62.8057844817949	-41.7266165196093	-84.082999436723	-76.2637170526198	-22.6332665955928	-6.661210086158	
2537333333.3334	-13.5925679056366	-53.4354865623219	-63.6878013377955	-60.6346684110156	-91.3724456139568	-60.1130543220379	-22.6630867942554	-7.74176528452366	
2537666666.66673	-13.650310187285	-53.6327906888027	-64.3309199291009	-51.2885355970861	-102.461290276187	96.5489085930334	-22.6892761768705	-8.8789195018039	
2538000000.00007	-13.7238674765926	-53.8487079829767	-63.6954946060792	-66.7789141203489	-86.8847830226263	-144.914489763254	-22.7057025631806	-9.99121001754138	
2538333333.3334	-13.7830525624213	-54.0103223984538	-63.6120516428202	-57.9329213368472	-82.7083079469826	154.297206771786	-22.7226151005147	-11.3217044234629	
2538666666.66673	-13.8502910662334	-54.1862862711939	-63.519315723457	-64.7016164951682	-81.108324924154	-97.0715054871559	-22.7350259050213	-12.3969888014753	
2539000000.00007	-13.9293356493346	-54.3198101379188	-65.2637707628015	-64.7910567186339	-94.9228694851814	156.694071389565	-22.7310318405166	-13.6935756298753	
2539333333.3334	-14.013964344726	-54.5254776453079	-63.4388189200804	-81.9993125750462	-90.5196281260871	-133.735718064339	-22.7167849875109	-14.9741005328911	
2539666666.66673	-14.0930156759463	-54.8039318294316	-62.7941258909569	-81.4971307119006	-95.1012988507391	-27.3153921012873	-22.7037551208452	-16.1485234211615	
2540000000.00007	-14.1620048921503	-55.0322082308855	-62.7108746614685	-89.0878646440162	-95.6901884327213	62.6733317655668	-22.674392678311	-17.4916252645041	
2540333333.3334	-14.2426283261574	-55.2202620482295	-62.0852964800973	-94.8257487524672	-96.6009003663911	-123.020264696823	-22.6375363148947	-18.6295932171543	
2540666666.66673	-14.3432284274275	-55.4617164750155	-61.0536514228948	-97.1808210886662	-96.6572824976027	-89.6968849099897	-22.6171227262514	-19.8844192292029	
2541000000.00007	-14.4115507851188	-55.6889318132709	-61.6517077264711	-112.171655524203	-80.9476362179504	15.9783198969484	-22.5698214539643	-21.2245025233582	
2541333333.3334	-14.4941475676395	-55.8732680760097	-60.9534575661473	-120.72944533964	-80.5609335920461	150.213744106088	-22.5323905299106	-22.4363372320333	
2541666666.66673	-14.5758751604976	-56.1920043218606	-61.2622071054067	-125.47308056665	-86.0889696747896	-32.5415399551395	-22.4533598076358	-23.7924649587206	
2542000000.00007	-14.6734534594923	-56.4572316891477	-60.2249599371745	-134.965431538359	-91.9084800531492	54.0954584478675	-22.4062863678286	-25.0668497478378	
2542333333.3334	-14.7643872520206	-56.6828504671629	-60.4848977524091	-146.64858677479	-97.5154233011049	82.6700045235967	-22.3367355470811	-26.3913651158704	
2542666666.66673	-14.8675511745766	-56.9193429527611	-59.5724509358593	-156.834794897506	-87.976145612781	165.841872506596	-22.2740966556513	-27.5821984035784	
2543000000.00007	-14.9563139253284	-57.1874082060306	-60.1440476244083	-163.756541721918	-90.3617969871921	16.8869301390106	-22.2079330040668	-28.8633563516465	
2543333333.3334	-15.0513408397788	-57.4663486130432	-59.1976837244622	-173.663253426262	-89.3374228412219	-79.5697090882984	-22.1115833482731	-30.0061810103822	
2543666666.66674	-15.1431756421629	-57.7071172164987	-59.2394714011515	178.60766449003	-103.218564862029	-5.74680542952369	-22.0617382785948	-31.3434322798819	
2544000000.00007	-15.258088905101	-58.0069745408672	-59.0225481106544	167.573600846221	-97.749741299916	77.604657339217	-21.9749110054967	-32.4944412439021	
2544333333.3334	-15.3588230194206	-58.3398432028917	-59.4348466633	165.419317303025	-99.1420169523984	143.567973427438	-21.9044918751592	-33.735866531388	
2544666666.66674	-15.4477873222879	-58.6372814684674	-59.1472404590144	154.399697980624	-82.3432097073735	-16.7742388140318	-21.8384608436525	-34.9481975547564	
2545000000.00007	-15.5675368456311	-58.8706350101196	-59.0538450826018	147.871265280773	-77.8773458249425	14.9112298570215	-21.7764865691319	-36.0547208926976	
2545333333.3334	-15.6537219573813	-59.2723380585495	-59.4227121202991	133.731124753525	-85.4382544996648	-76.6822644360198	-21.7139055836969	-37.1677218854591	
2545666666.66674	-15.7725998313922	-59.5726608037468	-59.4729495639556	126.568163009142	-83.8438373263791	-88.4703584956477	-21.6496496051775	-38.2692305288509	
2546000000.00007	-15.8701518338164	-59.9049858372775	-59.3972381954968	115.409270994333	-88.8995801399856	104.975955717896	-21.5996355693805	-39.3291566327308	
2546333333.3334	-15.9832725351193	-60.3092220978681	-59.5029101676148	102.268239373175	-81.6943398225507	96.2259359447004	-21.5517288558135	-40.3762962094273	
2546666666.66674	-16.0881338671119	-60.6485422974457	-59.4392991643914	96.4282903615643	-83.3080791588956	0.0410694347963113	-21.4901237901107	-41.3537095289096	
2547000000.00007	-16.1899678726227	-60.9731900921001	-58.9796542655276	86.8681706347984	-85.1828755790046	5.16835024607503	-21.4319977253414	-42.2835543046133	
2547333333.3334	-16.3087975003509	-61.3564729486139	-58.9621982013788	74.1808508305262	-80.9954529856711	34.6433528650389	-21.4093552807966	-43.2344115236327	
2547666666.66674	-16.4061463807897	-61.7831785996551	-59.35307176186	68.744546855823	-83.9199401540142	76.4257686589462	-21.3669961138011	-44.0324962572054	
2548000000.00007	-16.51320118737	-62.2097887876672	-60.0201211957173	61.5928317821607	-78.0636105277162	-16.9253136436217	-21.3310803912917	-45.0492962179574	
2548333333.3334	-16.6138048441917	-62.5866472801031	-60.46028408188	48.6881835187969	-81.9138358359611	-31.3810492111912	-21.3113496655246	-45.799619509054	
2548666666.66674	-16.7253045220391	-62.9933577026442	-60.3480580524717	50.7558811630255	-88.7622862089191	-174.979538975016	-21.3130197240332	-46.5493789967736	
2549000000.00007	-16.8389940384148	-63.5443951229537	-60.373321573049	37.990043807476	-81.5514500100428	-5.17277322156765	-21.2907170637085	-47.2225618052992	
2549333333.3334	-16.9296502809914	-64.0133697813231	-60.4956629394337	35.4536455379305	-83.3042693618522	-38.0994230611582	-21.2952919271843	-47.9362946260608	
2549666666.66674	-17.0479037948698	-64.5574017134984	-60.9916928155642	33.957718971417	-84.9562942509155	65.1720984396113	-21.3056826844304	-48.6051362317974	
2550000000.00007	-17.1447817545665	-64.994150555192	-61.4854722840332	22.7817580198774	-91.3497019868794	-44.4022947096691	-21.3289436011715	-49.2010266079463	
2550333333.33341	-17.2573960179553	-65.7326110373793	-60.7313512963015	17.0914773138195	-81.7955762533163	72.2545334163401	-21.3613989285025	-49.6175695662956	
2550666666.66674	-17.3510399724951	-66.2697578427897	-60.39362092165	10.806233917403	-85.6692655913152	32.2528505753349	-21.3823404224282	-50.0628952345467	
2551000000.00007	-17.4604715000425	-66.9007155152298	-60.4783395449036	9.35315839507147	-80.2095524141439	-16.8755876808022	-21.4335483629797	-50.5338578390333	
2551333333.33341	-17.5582296213908	-67.5220691280038	-60.546726007604	-4.35035781703849	-81.8081318082223	-146.491635803597	-21.4848125530283	-50.8511508515803	
2551666666.66674	-17.6638550653761	-68.1370046001837	-59.4246375902299	-9.64653863942012	-80.9084315415954	47.4899153216543	-21.5644237465751	-51.0176302255224	
2552000000.00007	-17.761603442039	-68.8694380646962	-60.2417808447023	-16.0238968341891	-77.3185496770347	-94.9421254700944	-21.6325016826813	-51.2116403235668	
2552333333.33341	-17.8503369306032	-69.6169377904079	-60.3456064875289	-23.8425609254434	-83.6450447693812	13.4332434016191	-21.7031744454176	-51.1472909252644	
2552666666.66674	-17.9478262155711	-70.2477945522301	-59.2813842742292	-23.6592844496556	-81.7329508763306	-9.40559716712994	-21.8200870545954	-51.1294283604892	
2553000000.00007	-18.0349656315302	-71.0057199044734	-59.7539384183392	-35.5680710678076	-78.2577237933208	-99.7677005073804	-21.9216554039008	-51.0544274540652	
2553333333.33341	-18.1274685187496	-71.775820439794	-58.9961915236372	-42.1590283319968	-90.4177918323079	-2.46297349854111	-22.0274120457531	-50.7030695225315	
2553666666.66674	-18.2173888249526	-72.5829543032271	-58.777891529635	-52.1359030700603	-77.724918054464	14.9787007407958	-22.1337963620838	-50.3727463052037	
2554000000.00007	-18.2964847155104	-73.3862964970611	-59.2336319420591	-55.4483455580067	-86.1084462001437	127.664871390335	-22.2763215856276	-49.8097743743313	
2554333333.33341	-18.3722717800048	-74.2590614846815	-58.7310910897747	-72.450107472752	-81.3644417263484	-125.186481113675	-22.3767496223379	-49.0408887974391	
2554666666.66674	-18.4554786494227	-75.0820797072545	-58.7221989718164	-78.1211800372914	-79.6788702728285	-50.3817033753714	-22.5012078319417	-48.1727458623032	
2555000000.00007	-18.5144835332438	-75.8885295929124	-58.9107408533249	-88.2551096187996	-90.8535794435225	133.364603815599	-22.6333122802764	-47.1763787333145	
2555333333.33341	-18.5808411861128	-76.8022708700205	-59.6653625367015	-91.2880036649863	-85.3316514983627	112.724551244638	-22.7406685695971	-45.9990781481597	
2555666666.66674	-18.6568956630257	-77.6555060435642	-58.4836184737168	-107.104782640933	-86.0586236004733	31.1413002213993	-22.8527229349572	-44.6894548329432	
2556000000.00007	-18.7171288382238	-78.5693908432864	-58.2561507097371	-110.674227265647	-90.3184858696266	-90.5784266323519	-22.9316003799224	-43.2972449770101	
2556333333.33341	-18.7684924513908	-79.4831231242159	-57.9734542590069	-120.122176558799	-79.2585294843109	-1.17429704075051	-23.0246491988686	-41.6027477399335	
2556666666.66674	-18.8104016090226	-80.5242796075642	-58.633692774987	-130.652012184611	-90.0408472245978	144.681866012145	-23.0694708306834	-39.9106686588248	
2557000000.00007	-18.8542980115446	-81.3641321851558	-58.0208004118339	-138.049648792655	-82.2288430528483	116.002295209368	-23.0987710308852	-38.0466111417968	
2557333333.33341	-18.8991755438866	-82.2804230963309	-57.863879965591	-150.048468259277	-84.8078731494737	-139.841615056158	-23.1282367656042	-36.0965779880491	
2557666666.66674	-18.9236316154844	-83.384237597045	-57.7960502755679	-155.858767897092	-84.0126725416518	-114.102146143902	-23.1386358343596	-34.3156101699728	
2558000000.00008	-18.9587564660303	-84.304545368495	-58.0453478394953	-166.716056505807	-83.6354504836304	101.990433337785	-23.1104966815639	-32.1387477722007	
2558333333.33341	-18.9761388643136	-85.2456630177166	-57.8649200155359	-173.862384498315	-81.0422940406133	65.9859750458309	-23.0512438004617	-30.0361432516618	
2558666666.66674	-18.987014932839	-86.2400789241112	-57.8816659009388	-179.493391988313	-86.2781812037015	82.4544018652488	-22.9502164018199	-28.1525448001821	
2559000000.00008	-19.0105561037739	-87.2084199075968	-57.5217924744435	169.267668462688	-82.7669340322328	93.7877598330438	-22.8590992390975	-25.955375078302	
2559333333.33341	-19.0069979430831	-88.289142446067	-57.6721735274847	159.044890672632	-78.9355379991599	22.9556316035699	-22.7384549368071	-24.0352127902355	
2559666666.66674	-19.0111470471587	-89.1613351009651	-57.9550772446231	155.609374090201	-79.1857907009746	-19.5360361332243	-22.5957567411591	-22.1644032716067	
2560000000.00008	-18.9973617738813	-90.1775427098161	-57.6254831874005	146.44797799233	-99.8260537888625	117.446809462669	-22.433440547999	-20.4981582453522	
2560333333.33341	-18.9981004507254	-91.2009680814883	-57.2172147971524	138.533282999065	-86.8810438460037	62.1107392234352	-22.2722230412357	-18.6811230353982	
2560666666.66674	-18.9767397822047	-92.1674503667851	-57.2700544353534	130.834106936158	-84.7890472295915	70.8346758435147	-22.0733413336284	-17.099785711579	
2561000000.00008	-18.9627310451927	-93.1219638176041	-57.2934615831032	118.620936942112	-89.4590916311777	94.650284901427	-21.8780757903995	-15.7479302637749	
2561333333.33341	-18.9231275599911	-94.0516214087966	-57.0291823447736	114.460900347801	-91.2438050464097	-101.144022048447	-21.6630548556821	-14.3675440715929	
2561666666.66674	-18.9011857944059	-95.0004388594535	-56.5893645917239	105.31840708569	-91.0956622655494	105.453267275735	-21.4467937858858	-13.3294293375352	
2562000000.00008	-18.8672651411097	-95.9391759540754	-57.3861071707957	95.180304664947	-77.5659280327049	118.711240629196	-21.2447368826282	-12.1854203026388	
2562333333.33341	-18.8306843868748	-96.9340921158423	-56.5122751307895	86.6880815067932	-87.2602060190786	-170.586703686635	-21.0503790918081	-11.1561261384488	
2562666666.66674	-18.7850618526633	-97.7746259815065	-56.1108855840332	81.3626663183193	-80.3778460189813	105.150554864465	-20.8345056304936	-10.2099074087887	
2563000000.00008	-18.7414444692774	-98.6656962182187	-56.7506039431213	72.2515396314562	-83.2524743983031	23.2953402923891	-20.6180083254911	-9.51069051038323	
2563333333.33341	-18.6878864035578	-99.6016791588046	-56.5476792112652	60.7260267941389	-92.5831106431226	79.3283294769402	-20.4166779935783	-8.81630425133062	
2563666666.66674	-18.6274611549217	-100.495096749421	-56.7781584835306	55.2391296981315	-84.1842866107509	73.8224709711118	-20.2371206475576	-8.19116953579489	
2564000000.00008	-18.5745361421291	-101.283066637393	-56.5437431579971	48.0018607096999	-79.5521300564022	80.2455515771027	-20.0472919921632	-7.7192276450173	
2564333333.33341	-18.5310387301122	-102.162758349144	-57.0610580520763	35.9233186077966	-80.1576629112533	22.341295738939	-19.8639849682253	-7.18888266900309	
2564666666.66675	-18.4575143390887	-103.012900400528	-56.9027382087041	29.0042849420649	-86.3814005399247	56.2772099118621	-19.6953031800024	-6.97309112167038	
2565000000.00008	-18.3928900749806	-103.827368893762	-56.8500612569826	17.1711282432684	-81.7387184794818	68.7582007664976	-19.5155567908892	-6.65378501402937	
2565333333.33341	-18.3503871896009	-104.589617202789	-56.6658004340526	9.56245811908531	-83.252100957443	29.9144061564698	-19.3626111998998	-6.46907705985131	
2565666666.66675	-18.2801906206201	-105.385879032105	-57.3885669195304	-0.166383684753296	-88.3028444015256	-66.4048461385236	-19.2348515840771	-6.21596711533347	
2566000000.00008	-18.2210866621865	-106.213241687652	-57.5573677907721	-7.79859858529107	-87.7415034371768	13.312586568039	-19.0805521130346	-6.14144968769114	
2566333333.33341	-18.1550039047407	-106.997216229709	-57.3578764448231	-16.3816878699795	-88.6613624616045	-78.0762621959191	-18.9660760661229	-6.11563092686534	
2566666666.66675	-18.0892239095783	-107.803464574628	-57.4207471195795	-26.9906994892586	-82.2232926864311	-16.5761142173138	-18.8604674759213	-6.14118965379811	
2567000000.00008	-18.0328324618683	-108.52585714696	-57.4236775329491	-32.5660397162856	-85.8090565581099	88.9666738676602	-18.7456370275453	-6.20472215862775	
2567333333.33341	-17.9636511899815	-109.244331362756	-57.4224965465167	-41.8254592671745	-83.0655333860695	126.162150974305	-18.6700980028538	-6.27805923512941	
2567666666.66675	-17.9166803757183	-109.9949095701	-58.1819123491798	-55.4223575979952	-81.1309818938292	179.666832851939	-18.5963219818201	-6.2776618191305	
2568000000.00008	-17.8420948686553	-110.714919038803	-58.7786202872575	-55.3889054706233	-92.7212561257013	-142.937864170696	-18.5265366326334	-6.41863854419201	
2568333333.33341	-17.7972767822864	-111.459470229872	-58.0243695100123	-65.8328923858193	-81.4220809986064	84.1437741718642	-18.4753014607353	-6.53141911536564	
2568666666.66675	-17.731532617895	-112.035342488369	-58.6025887448409	-77.0229640981272	-89.3936119177336	122.154665609288	-18.4408860892646	-6.70152653050672	
2569000000.00008	-17.6773923200097	-112.758856469889	-58.5737570844199	-80.0221535824185	-90.2964740952894	-77.3000437028317	-18.4002194840507	-6.87737083097288	
2569333333.33341	-17.6179651878213	-113.42334710692	-58.2713715908848	-85.7632337674269	-92.1906177291169	-159.574678988328	-18.3813484882788	-7.03867782971584	
2569666666.66675	-17.5694207411673	-114.07116257405	-58.3646889229256	-90.4828323187773	-90.2795092429716	119.515622467103	-18.3825231800059	-7.36030165916494	
2570000000.00008	-17.5179231570202	-114.689223805943	-59.4262475682463	-98.950814547519	-77.3387263591651	156.629922998994	-18.3927497526778	-7.39642467206231	
2570333333.33341	-17.4672223442057	-115.403608425752	-58.1553689816058	-106.476357829467	-85.0501914779353	153.292234717998	-18.435768228146	-7.6713896723881	
2570666666.66675	-17.4214277489007	-115.951084088736	-58.4406595617364	-109.237240813531	-85.9841443874386	82.6090999354547	-18.456421408103	-7.72491281585889	
2571000000.00008	-17.3779752992778	-116.57698437833	-58.1112004758611	-117.513372534429	-92.9136257510389	52.8871825187555	-18.5126979992962	-7.85402834599208	
2571333333.33342	-17.3375332544375	-117.219879513261	-58.305473963161	-126.305294232854	-83.5605695075536	-118.469277359151	-18.577090727692	-7.83799048168557	
2571666666.66675	-17.3095030135517	-117.888365553649	-57.6039973791708	-135.566447642947	-88.8301893852281	86.3624846799813	-18.6447243170844	-7.88376683841922	
2572000000.00008	-17.2655038323478	-118.40194002466	-57.3797981444887	-138.094108657774	-109.814817544454	-29.7017779364375	-18.7403652820391	-8.00212416437134	
2572333333.33342	-17.2363829885808	-118.953277013023	-57.3614787669373	-149.76397518555	-88.3084421543167	-173.529030756833	-18.8368834844756	-7.96007515711965	
2572666666.66675	-17.20694333149	-119.481306845618	-56.9916320114382	-154.17471952483	-81.2959058154189	-131.793576554082	-18.9725229352478	-7.89703356939707	
2573000000.00008	-17.1735601710315	-120.033364025963	-56.9079606135432	-162.571773162043	-80.6799828634605	-171.617721295801	-19.092973721828	-7.61475078340067	
2573333333.33342	-17.1302901405308	-120.653313917938	-56.1782422879823	-174.070276397113	-78.4249943465586	138.550282076859	-19.2183867983847	-7.43324430896544	
2573666666.66675	-17.1321844118733	-121.204423334963	-56.0683499302451	178.522320771183	-87.010036248067	108.169151961372	-19.3564055648316	-7.05163805248016	
2574000000.00008	-17.0886334496705	-121.829282538416	-56.3062248925278	171.152821621065	-95.1102222944801	51.9261284967097	-19.5204008749338	-6.62857942823429	
2574333333.33342	-17.0874445874126	-122.285243213247	-55.5438651542533	160.597685989097	-91.4492787128052	-29.6543131650193	-19.6738661284059	-6.04336153026906	
2574666666.66675	-17.0713462316082	-122.919897098575	-55.8014994859056	151.699445722194	-86.3755628708505	135.25196240215	-19.8303297023195	-5.47944473015059	
2575000000.00008	-17.0765639695194	-123.471256302955	-55.2980520792369	144.346309919996	-85.5398443564083	141.540328759938	-19.9903719582387	-4.79366701794225	
2575333333.33342	-17.0523771925163	-123.998480422612	-55.5249894966758	135.233614732774	-85.1844377479762	123.600229918846	-20.1618892563143	-4.0354544013374	
2575666666.66675	-17.0718922009514	-124.638752512106	-55.2704850144807	124.721942201459	-93.923617830973	162.139246175575	-20.3316086049449	-3.13247463193204	
2576000000.00008	-17.0707633996227	-125.194618857334	-55.3925623041236	110.777028883189	-82.6028361184247	-174.162998657421	-20.4956401592047	-2.12082042915608	
2576333333.33342	-17.0717704382372	-125.756521716605	-55.2740805088383	105.207873183069	-86.7690432814977	-11.677747169485	-20.6645510071379	-0.981579778119908	
2576666666.66675	-17.0864305985761	-126.35272475324	-55.1717892272529	94.4385031971997	-78.6520374417292	111.895656556581	-20.8404059888925	0.281036783836073	
2577000000.00008	-17.1112529675281	-126.864782689347	-55.4448343348563	86.8109937998213	-85.5104357073517	90.0721720504861	-20.9803320578225	1.65972308355924	
2577333333.33342	-17.141110211096	-127.459126558615	-55.3397897010739	75.7546099495629	-83.7328789661668	41.4127833512445	-21.1408014407236	3.22041791644204	
2577666666.66675	-17.1594543608596	-128.129107517825	-55.5379363985338	66.3027125226242	-82.1327004078532	-157.47019114618	-21.2273873225844	4.68519250270954	
2578000000.00008	-17.1881656163226	-128.746697221265	-55.82546391631	59.5192219320503	-84.7245548655955	123.941840474986	-21.3526411406405	6.26557757551123	
2578333333.33342	-17.2118180662649	-129.220459716481	-55.6893770227472	48.3147918141859	-113.068333499941	58.2231882012757	-21.4212247922117	8.02328505812857	
2578666666.66675	-17.2622559044971	-129.757923602919	-56.0633911520716	41.1893416840643	-87.1471674929094	25.0439149078377	-21.5136647442718	9.8613735617915	
2579000000.00009	-17.3242549171578	-130.332551713962	-56.8001123056566	32.4799543589683	-85.3773483983032	73.0814211042535	-21.5613869484748	11.6954889898013	
2579333333.33342	-17.3567320985848	-131.092661787869	-56.5035608667517	20.596434143076	-79.9314212026674	100.84058916766	-21.5947496915251	13.3866966262788	
2579666666.66675	-17.418384165539	-131.675550717555	-56.9215393482819	12.2019686456281	-84.5626064834172	50.1832790607595	-21.5809369094339	15.3807276150338	
2580000000.00009	-17.4701501366015	-132.253540066799	-56.7455656890002	4.81802830715816	-85.1979365154574	52.6648819781143	-21.5674631238722	16.9271473585169	
2580333333.33342	-17.5455947184961	-132.684318303436	-57.1457070506327	-4.04757623622376	-81.0740636572166	136.503041217384	-21.5349908424677	18.6906874004828	
2580666666.66675	-17.623252947648	-133.478424559448	-57.3312103461211	-12.6875488842345	-99.6485887670799	-133.831892002881	-21.4944004254985	20.1301609973828	
2581000000.00009	-17.6997601251716	-134.080569188452	-57.5411559771472	-23.9294036000498	-113.295419789983	140.257265524777	-21.433756440511	21.7024399063075	
2581333333.33342	-17.7723526083994	-134.584434759811	-57.5814795105081	-30.2601885284276	-83.0076980333497	13.7097866431737	-21.3400541668042	22.9313329545398	
2581666666.66675	-17.8527873366828	-135.341436990173	-58.6321962727965	-40.616618677385	-81.6143132021321	-72.5622651177105	-21.2607124913991	24.2153592328592	
2582000000.00009	-17.9413934641872	-135.947368714123	-57.9542766545176	-49.4819461861044	-92.1107690836611	-130.16416358967	-21.1328876585174	25.5064727229631	
2582333333.33342	-18.0697329342752	-136.476422155193	-58.3359034263935	-56.2975243514639	-81.9780892933788	-130.014386903787	-21.0392981589944	26.3536125611791	
2582666666.66675	-18.1283392453978	-137.123050250522	-58.5809922835055	-60.3474279442547	-80.0552967245919	-26.2137098325702	-20.9033250329335	27.1707951799933	
2583000000.00009	-18.2415950200819	-137.821243318846	-59.2349381080606	-66.6721655887091	-76.0493789375024	-161.495849360957	-20.7832429091878	27.9132838190132	
2583333333.33342	-18.3366778616658	-138.308138816149	-58.7826886242397	-72.4629586308934	-81.0077135049368	106.049089432806	-20.6610433384612	28.5217085266178	
2583666666.66675	-18.446818671428	-138.997282174693	-59.4513155236377	-83.7294116734703	-86.2285700717043	-140.02302430531	-20.5564162744281	28.9316074525457	
2584000000.00009	-18.5816405552309	-139.689544261355	-59.1558757131719	-85.5606620762374	-91.1325681609381	164.976888177455	-20.4640384659174	29.2360636686443	
2584333333.33342	-18.7132927479758	-140.303969652739	-60.0366246881419	-91.2724154086679	-80.7131558685298	162.670200773789	-20.3276365697579	29.4166048275368	
2584666666.66675	-18.8294298100705	-141.024917289495	-59.6138094953139	-97.7740317490255	-80.436290191191	161.519529264653	-20.2445370232186	29.585931070052	
2585000000.00009	-18.945524282577	-141.685636629056	-58.263015166723	-104.697765322143	-83.7418202108362	-154.267644535562	-20.1586340497532	29.5636103028394	
2585333333.33342	-19.0970215014945	-142.295100613505	-58.8812622038218	-113.141064756705	-85.6303214809961	143.443602976723	-20.0866451583819	29.3168096402274	
2585666666.66676	-19.2201028207043	-143.093296881692	-59.3406961927307	-120.975090370329	-78.7146764733957	148.216058983121	-20.024332253744	29.0863858657019	
2586000000.00009	-19.3663754398544	-143.690195734622	-58.6762215758896	-125.317895289671	-81.7140844776012	132.696631595145	-19.9429449840451	28.7791514220663	
2586333333.33342	-19.5087661437278	-144.398164246877	-58.6514980527031	-134.661687804685	-82.2928656201517	-135.427294156859	-19.8891490198295	28.4961372310338	
2586666666.66676	-19.6700049869962	-145.20544284389	-58.5826862791541	-143.668890760522	-80.1039042327623	-105.469816169892	-19.8505479360454	27.899234893585	
2587000000.00009	-19.810086687939	-145.976275478499	-58.7465984580213	-148.149068649113	-82.8800559552435	91.7936444274084	-19.8199533740569	27.4299441777602	
2587333333.33342	-19.9674877942376	-146.710863575472	-58.0254333813283	-157.242071447859	-86.236266900782	140.368757117875	-19.8351117678287	26.7746548402791	
2587666666.66676	-20.1441141855403	-147.360085009216	-58.081562027211	-162.100703005115	-86.7523285153348	-159.7903694428	-19.8039487998834	26.1904494643701	
2588000000.00009	-20.3031189358172	-148.305043872852	-57.8841101580464	-174.39677623976	-78.9856527593251	-137.231304508523	-19.8029138890873	25.3835474117403	
2588333333.33342	-20.4765299236391	-148.961691103309	-58.3411139064059	176.096358763095	-87.001850236372	161.293120696377	-19.8364263095136	24.6460179830466	
2588666666.66676	-20.647994475011	-149.898552712029	-57.9588785951836	171.547262069164	-84.0329740200394	134.89809728907	-19.8640996486296	23.8136001433436	
2589000000.00009	-20.8136531453703	-150.716166860985	-57.8224326062242	158.218351625354	-81.2492283828817	133.562974901825	-19.8932637999961	22.8455190632263	
2589333333.33342	-20.9900595705037	-151.597682717453	-57.4618863832146	150.987626785005	-84.7065486375719	-144.566392443348	-19.9644398118298	21.8238776236887	
2589666666.66676	-21.1577531499864	-152.57976344294	-57.0573857144124	143.164668954055	-83.9428634414397	119.95124283348	-20.0149780688108	20.838832464531	
2590000000.00009	-21.3344900409872	-153.453792550578	-57.5928963203098	134.200160112648	-82.0837462164398	-154.972942203806	-20.1119413626421	19.6922023152822	
2590333333.33342	-21.5173699168452	-154.535010934282	-56.6401996648373	120.195797721822	-89.2435450918254	15.8098208641885	-20.1889217587014	18.7394904312329	
2590666666.66676	-21.6998777655853	-155.545625575814	-57.6644152381782	106.926185521357	-83.124336015396	-176.546115904636	-20.2952625002758	17.5064243809499	
2591000000.00009	-21.8899207534865	-156.65252251317	-57.3849627735833	96.709703091463	-99.1378988348308	-20.8729117739312	-20.4158268143096	16.2836780541353	
2591333333.33342	-22.0558291325372	-157.873900437384	-56.9240497019812	86.8351967503643	-80.536229423474	103.385948050797	-20.5537973529418	15.0620334307956	
2591666666.66676	-22.2638278244657	-159.09945219662	-58.2679434562133	79.7255786011739	-87.5554565702661	114.756495647396	-20.6886009594652	13.7245341950706	
2592000000.00009	-22.4403097201176	-160.409334341709	-57.7169052848028	71.3821163354459	-103.463692099762	-93.003031172386	-20.8697722231591	12.4684715101516	
2592333333.33343	-22.6050223204154	-161.558984698252	-58.3459190860239	54.2851031871785	-86.4739518186666	-149.793716153075	-21.0509689272759	11.0858171957836	
2592666666.66676	-22.792941902683	-163.080031866781	-58.1260805540662	48.8319181848314	-82.9056606563247	-118.900645092066	-21.2353360392116	9.81084980638193	
2593000000.00009	-22.9658384827594	-164.49047252411	-58.0068650822158	31.3592797574321	-78.7286893575536	-164.732027874893	-21.4234674927501	8.50896625100249	
2593333333.33343	-23.1372722303733	-166.182987651566	-59.4638829847599	29.5160337460078	-80.8724042589859	117.802296700852	-21.6646378921771	7.09272890097149	
2593666666.66676	-23.3270795937107	-167.664176958732	-59.0433598086116	21.0930271377785	-84.3374403892402	-50.6946666187156	-21.9171283702705	5.67543644276599	
2594000000.00009	-23.4348460268756	-169.559926791509	-59.4456383846688	7.92683366797419	-86.8649406284011	-33.1667128764655	-22.1473385313682	4.44662932014008	
2594333333.33343	-23.6086107801209	-171.317505997066	-59.4241992138908	-3.17966462355296	-84.0854730155157	9.72047768919094	-22.422323087596	3.17270763679612	
2594666666.66676	-23.7479901179013	-173.164157542677	-59.8158861256314	-17.5302384813743	-91.1252305538133	72.251414102474	-22.6930974152578	1.77458532029023	
2595000000.00009	-23.8781160297699	-175.305789505255	-60.0232026551941	-14.0856438418782	-87.6509975716928	-124.730235826247	-22.9717430045031	0.593559549178775	
2595333333.33343	-23.9862821545178	-177.566896934856	-60.8107648056289	-31.720320787905	-84.2307264992028	-173.77670800523	-23.2867820738767	-0.485937139711413	
2595666666.66676	-24.0934815307269	-179.701508732526	-61.334813045996	-35.7232461529066	-76.6725503564486	-103.364353004827	-23.5830103494938	-1.700752383296	
2596000000.00009	-24.1730786645677	178.005570770336	-61.5780475541255	-47.6852037665249	-100.92031426729	160.314627632105	-23.905475753625	-2.7223299062708	
2596333333.33343	-24.2623224159441	175.643376152299	-62.038650340156	-53.9079286586871	-79.9615562517035	-154.105460294114	-24.2397940144874	-3.7547617148315	
2596666666.66676	-24.2899892233755	173.180491669881	-63.0825705690554	-63.1586096796978	-92.1748949914205	-148.059594013816	-24.5503386606133	-4.86066506805183	
2597000000.00009	-24.3503525334175	170.725667733025	-63.1512565316948	-77.7399605049038	-84.1875736139651	-162.235975646115	-24.9104164251382	-5.62079305164341	
2597333333.33343	-24.3410718468737	167.974595220742	-64.3622722256384	-86.3177101185003	-83.951114295215	-112.3489407229	-25.2675405103418	-6.23454254016094	
2597666666.66676	-24.3374899602929	165.337944467153	-65.9270146086314	-93.3180457878159	-90.9805788465972	-134.121131721095	-25.5942257170763	-6.80762843864944	
2598000000.00009	-24.3184956477774	162.758920624081	-66.9610704349292	-94.493266434821	-90.1010353162524	-175.498789347701	-25.9572834685299	-7.45514547002433	
2598333333.33343	-24.268138150414	160.205947793395	-67.8366226548226	-96.8422493489347	-92.9164359199752	104.639997168584	-26.3380678810116	-7.81361016186956	
2598666666.66676	-24.210786089756	157.561613825382	-68.2310888107255	-93.7156794569191	-78.5564565928016	-31.7923163450362	-26.6658335116353	-8.24055282520254	
2599000000.00009	-24.1240615590923	154.961944994688	-70.0440191191395	-112.377471867341	-82.6379999579847	-153.354139750625	-27.0278136990594	-8.05889707319186	
2599333333.33343	-24.0242509132569	152.34685536329	-69.9909773804589	-86.3781105352312	-80.634859301528	20.6105324051869	-27.3568005101366	-7.92598686202292	
2599666666.66676	-23.9018333348441	149.870954935645	-71.1217263877751	-94.8939281050733	-88.8511335232899	-96.6723111966459	-27.6792252221098	-7.52633726634477	
2600000000.0001	-23.7500304701044	147.379515096602	-70.4032259882538	-111.347261028743	-86.4388535512173	-84.1502954943951	-28.0159247111891	-6.73943034044812	
