!Agilent N9923A: A.05.34
!Date: Tuesday, 08 March 2016 07:46:08
!Model: N9923A
!Serial: MY51491690
!GPS Latitude: 
!GPS Longitude: 
!GPS TimeStamp: 0001-01-01 00:00:00Z
!GPS Seconds Since Last Read: 0
!CHECKSUM:0154031549
!Correction: S11()S21(Rdy)S12()S22()
!S2P File: Measurements:S11,S21,S12,S22:
# Hz S DB R 50
2000000000	0	0	-51.6605414292187	100.543330278691	0	0	0	0	
2001666666.66667	0	0	-51.9343958506289	57.001612018941	0	0	0	0	
2003333333.33333	0	0	-51.9500965882641	16.6621635520843	0	0	0	0	
2005000000	0	0	-52.446489641661	-23.1012426059515	0	0	0	0	
2006666666.66667	0	0	-52.3422350770863	-65.6581969942316	0	0	0	0	
2008333333.33333	0	0	-52.8179028547003	-108.615550253617	0	0	0	0	
2010000000	0	0	-53.7704303707827	-146.014195721651	0	0	0	0	
2011666666.66667	0	0	-53.4682553238503	176.713597468855	0	0	0	0	
2013333333.33333	0	0	-53.1819342774033	136.810435567015	0	0	0	0	
2015000000	0	0	-52.8326940387431	92.824055212407	0	0	0	0	
2016666666.66667	0	0	-53.2855507305733	50.8973425259362	0	0	0	0	
2018333333.33333	0	0	-53.3841882616419	9.15133614441623	0	0	0	0	
2020000000	0	0	-54.1579287048325	-30.096128983803	0	0	0	0	
2021666666.66667	0	0	-55.2048620742545	-66.4134908594905	0	0	0	0	
2023333333.33333	0	0	-55.9371740454397	-101.230077604996	0	0	0	0	
2025000000	0	0	-56.0596730832274	-135.571274703085	0	0	0	0	
2026666666.66667	0	0	-56.24303707818	-164.63879338371	0	0	0	0	
2028333333.33333	0	0	-55.9700379023354	156.974626443171	0	0	0	0	
2030000000	0	0	-55.0124047843437	120.369881109786	0	0	0	0	
2031666666.66667	0	0	-54.9137308905346	82.7646687361085	0	0	0	0	
2033333333.33333	0	0	-54.7236528393273	46.2111204444007	0	0	0	0	
2035000000	0	0	-54.6911674264666	6.85788105341329	0	0	0	0	
2036666666.66667	0	0	-53.2997223901338	-28.8721751968617	0	0	0	0	
2038333333.33334	0	0	-52.8262207545196	-76.0032340985743	0	0	0	0	
2040000000	0	0	-52.9744830564822	-130.952576108386	0	0	0	0	
2041666666.66667	0	0	-54.1666082838469	174.384820499594	0	0	0	0	
2043333333.33334	0	0	-57.3578136052518	126.059348166383	0	0	0	0	
2045000000	0	0	-61.4385895191727	75.4617927300123	0	0	0	0	
2046666666.66667	0	0	-74.777252232096	66.125701645154	0	0	0	0	
2048333333.33334	0	0	-64.0805743205978	115.78742175831	0	0	0	0	
2050000000	0	0	-59.7207142028222	72.8784507598367	0	0	0	0	
2051666666.66667	0	0	-57.6636730328551	36.3095537295824	0	0	0	0	
2053333333.33334	0	0	-55.3702480908143	-8.19569763258694	0	0	0	0	
2055000000	0	0	-55.3419965114341	-56.4343640524544	0	0	0	0	
2056666666.66667	0	0	-56.3324116011728	-91.9201246311018	0	0	0	0	
2058333333.33334	0	0	-56.1164402048561	-116.999611216683	0	0	0	0	
2060000000	0	0	-54.0163267111555	-152.197799183569	0	0	0	0	
2061666666.66667	0	0	-51.8263806113173	164.281836014075	0	0	0	0	
2063333333.33334	0	0	-50.4294535410417	118.791914897385	0	0	0	0	
2065000000	0	0	-50.0164960759341	74.1397146362813	0	0	0	0	
2066666666.66667	0	0	-48.9568201777222	27.7703811103018	0	0	0	0	
2068333333.33334	0	0	-48.7966106931424	-21.2979740883606	0	0	0	0	
2070000000	0	0	-48.9794632185886	-70.1760542373209	0	0	0	0	
2071666666.66667	0	0	-49.8920186750524	-122.038999489761	0	0	0	0	
2073333333.33334	0	0	-51.78985112188	-168.307943772927	0	0	0	0	
2075000000	0	0	-53.328000944535	147.922287442635	0	0	0	0	
2076666666.66667	0	0	-54.9084460214068	111.246243847607	0	0	0	0	
2078333333.33334	0	0	-55.8163696256659	78.3663915232665	0	0	0	0	
2080000000	0	0	-56.0861516049303	43.0443119301248	0	0	0	0	
2081666666.66667	0	0	-56.9417051098582	-3.50049371421146	0	0	0	0	
2083333333.33334	0	0	-58.3589751516712	-41.1966928895773	0	0	0	0	
2085000000	0	0	-60.4209747656304	-72.0524254936153	0	0	0	0	
2086666666.66667	0	0	-63.6537885746546	-77.8464316687306	0	0	0	0	
2088333333.33334	0	0	-62.0649229683261	-105.186279954792	0	0	0	0	
2090000000	0	0	-59.5666656206495	-141.936023963428	0	0	0	0	
2091666666.66667	0	0	-57.2312862291347	-178.923102177636	0	0	0	0	
2093333333.33334	0	0	-56.4086531766827	142.634609930606	0	0	0	0	
2095000000	0	0	-55.7471404625558	100.600560291507	0	0	0	0	
2096666666.66667	0	0	-54.9197154139918	64.8427283664112	0	0	0	0	
2098333333.33334	0	0	-53.5104553893665	21.8371458023872	0	0	0	0	
2100000000	0	0	-51.8477463135266	-24.2376593961455	0	0	0	0	
2101666666.66667	0	0	-51.0991888110995	-69.7763748763373	0	0	0	0	
2103333333.33334	0	0	-50.4604273320275	-120.596085636813	0	0	0	0	
2105000000.00001	0	0	-50.2704116325857	-173.709724609861	0	0	0	0	
2106666666.66667	0	0	-50.4221773394262	138.285685860773	0	0	0	0	
2108333333.33334	0	0	-51.3989978697074	87.695865710994	0	0	0	0	
2110000000.00001	0	0	-52.4027473724835	41.4111861698132	0	0	0	0	
2111666666.66667	0	0	-53.6135705942831	1.04860633435022	0	0	0	0	
2113333333.33334	0	0	-54.330179557728	-40.0981180604758	0	0	0	0	
2115000000.00001	0	0	-55.6931176250055	-83.4791032800887	0	0	0	0	
2116666666.66667	0	0	-57.6687424666204	-125.52801357192	0	0	0	0	
2118333333.33334	0	0	-58.9887596547228	-152.244972156095	0	0	0	0	
2120000000.00001	0	0	-57.3031851668483	175.743452302518	0	0	0	0	
2121666666.66667	0	0	-56.2586735893138	130.735675075269	0	0	0	0	
2123333333.33334	0	0	-56.5782422202348	81.9907413097537	0	0	0	0	
2125000000.00001	0	0	-59.0852908538539	37.2993051252151	0	0	0	0	
2126666666.66667	0	0	-60.5923090856328	8.07534764289942	0	0	0	0	
2128333333.33334	0	0	-58.9661080883692	-11.0140408134684	0	0	0	0	
2130000000.00001	0	0	-56.9514391457879	-60.6267193793597	0	0	0	0	
2131666666.66667	0	0	-57.1555272469236	-106.314142618318	0	0	0	0	
2133333333.33334	0	0	-58.4191725695167	-154.216426536299	0	0	0	0	
2135000000.00001	0	0	-57.9503433226197	157.501056253614	0	0	0	0	
2136666666.66667	0	0	-60.7580132487867	114.924890119509	0	0	0	0	
2138333333.33334	0	0	-62.0036880792968	72.5072172200063	0	0	0	0	
2140000000.00001	0	0	-67.4933284796508	23.2730274905807	0	0	0	0	
2141666666.66667	0	0	-68.4570508604387	47.7839833691636	0	0	0	0	
2143333333.33334	0	0	-67.0876468390163	26.4100380504216	0	0	0	0	
2145000000.00001	0	0	-63.9254102970007	-7.53326054826322	0	0	0	0	
2146666666.66667	0	0	-62.5707381878001	-35.4461599979952	0	0	0	0	
2148333333.33334	0	0	-61.1497114235645	-75.512800706947	0	0	0	0	
2150000000.00001	0	0	-58.0843542461895	-107.125788457021	0	0	0	0	
2151666666.66667	0	0	-55.7038589183374	-145.17961459496	0	0	0	0	
2153333333.33334	0	0	-53.8993521647794	177.684206584468	0	0	0	0	
2155000000.00001	0	0	-52.3590536686927	132.938214461325	0	0	0	0	
2156666666.66667	0	0	-50.8637313919827	84.8513335744226	0	0	0	0	
2158333333.33334	0	0	-49.901323393813	36.6564467837393	0	0	0	0	
2160000000.00001	0	0	-49.4946306670829	-13.2622710326243	0	0	0	0	
2161666666.66667	0	0	-49.8383187366865	-59.3219741788379	0	0	0	0	
2163333333.33334	0	0	-49.682909156135	-106.039078511591	0	0	0	0	
2165000000.00001	0	0	-50.0638710492583	-150.861014545167	0	0	0	0	
2166666666.66667	0	0	-49.9564569882128	163.832313715082	0	0	0	0	
2168333333.33334	0	0	-50.7560016631339	119.622879015166	0	0	0	0	
2170000000	0	0	-51.2642592157849	74.7741263873377	0	0	0	0	
2171666666.66667	0	0	-52.2292574532132	36.9313175091032	0	0	0	0	
2173333333.33334	0	0	-52.3259299849813	-5.19536043726929	0	0	0	0	
2175000000	0	0	-52.6187255501192	-51.7089335354259	0	0	0	0	
2176666666.66667	0	0	-54.180814296323	-102.531837406043	0	0	0	0	
2178333333.33334	0	0	-56.2717269346594	-149.585770788708	0	0	0	0	
2180000000	0	0	-60.246843366002	174.231403346437	0	0	0	0	
2181666666.66667	0	0	-60.1769287969338	159.011639884701	0	0	0	0	
2183333333.33334	0	0	-59.802742525209	133.725251202576	0	0	0	0	
2185000000	0	0	-58.8695914918404	104.715737043529	0	0	0	0	
2186666666.66667	0	0	-57.8208338912792	75.483973179941	0	0	0	0	
2188333333.33334	0	0	-55.3419895539477	30.2166178181397	0	0	0	0	
2190000000	0	0	-54.8805753974689	-20.5979746155866	0	0	0	0	
2191666666.66667	0	0	-54.6909856611331	-70.5762058819537	0	0	0	0	
2193333333.33334	0	0	-55.9319987236069	-117.896737521995	0	0	0	0	
2195000000	0	0	-55.9350862050018	-154.478493996366	0	0	0	0	
2196666666.66667	0	0	-55.6797469820558	160.759243960635	0	0	0	0	
2198333333.33334	0	0	-56.1738630218041	121.179173003888	0	0	0	0	
2200000000	0	0	-55.8641731059188	83.3373578455663	0	0	0	0	
2201666666.66667	0	0	-54.9643759962456	56.4654629810981	0	0	0	0	
2203333333.33333	0	0	-52.838399993203	5.97911346570445	0	0	0	0	
2205000000	0	0	-51.1941106434544	-44.6517767063914	0	0	0	0	
2206666666.66667	0	0	-50.0838282590332	-99.1306476154493	0	0	0	0	
2208333333.33333	0	0	-50.2135764021081	-155.897722532879	0	0	0	0	
2210000000	0	0	-50.8252465541975	149.233352023462	0	0	0	0	
2211666666.66667	0	0	-51.30174968475	92.2148404681243	0	0	0	0	
2213333333.33333	0	0	-53.835726740019	36.7468471918935	0	0	0	0	
2215000000	0	0	-57.1799901350762	-20.8899668536661	0	0	0	0	
2216666666.66667	0	0	-64.1835116292712	-69.7421980106881	0	0	0	0	
2218333333.33333	0	0	-83.1043199158698	36.53393826626	0	0	0	0	
2220000000	0	0	-62.1560577544968	-23.4762311615623	0	0	0	0	
2221666666.66667	0	0	-58.9204986310024	-68.4693028591844	0	0	0	0	
2223333333.33333	0	0	-56.827475509655	-113.138463307858	0	0	0	0	
2225000000	0	0	-54.3239929981217	-156.089310058742	0	0	0	0	
2226666666.66667	0	0	-52.5700326571604	158.785712771139	0	0	0	0	
2228333333.33333	0	0	-51.3244015027235	108.617025724017	0	0	0	0	
2230000000	0	0	-51.2136150818136	62.8357172916901	0	0	0	0	
2231666666.66667	0	0	-50.7539975377321	18.8901059119406	0	0	0	0	
2233333333.33333	0	0	-50.5297992201677	-21.3219429182116	0	0	0	0	
2235000000	0	0	-49.6863457956961	-62.7769015010625	0	0	0	0	
2236666666.66667	0	0	-49.1834027460926	-113.357156055593	0	0	0	0	
2238333333.33333	0	0	-49.7109983611804	-154.134492842575	0	0	0	0	
2240000000	0	0	-49.8263899999133	165.255115445735	0	0	0	0	
2241666666.66666	0	0	-48.7261368078247	127.417679466334	0	0	0	0	
2243333333.33333	0	0	-47.9954943894053	81.8266068702038	0	0	0	0	
2245000000	0	0	-47.8421539968829	33.9663353992579	0	0	0	0	
2246666666.66666	0	0	-48.5476606481934	-12.9444733053053	0	0	0	0	
2248333333.33333	0	0	-49.4931598820274	-53.4272656205314	0	0	0	0	
2250000000	0	0	-49.3823698664319	-93.9005481855711	0	0	0	0	
2251666666.66666	0	0	-49.3335094615296	-135.710220026822	0	0	0	0	
2253333333.33333	0	0	-49.0556325905202	-176.953805398962	0	0	0	0	
2255000000	0	0	-49.6246281216301	140.361406123633	0	0	0	0	
2256666666.66666	0	0	-49.8943903075076	97.2338744983594	0	0	0	0	
2258333333.33333	0	0	-50.3772630458383	52.5829393254205	0	0	0	0	
2260000000	0	0	-50.7265240013648	4.86871646210885	0	0	0	0	
2261666666.66666	0	0	-52.1741594321323	-38.4443501538635	0	0	0	0	
2263333333.33333	0	0	-54.2426217124022	-81.7885317453488	0	0	0	0	
2265000000	0	0	-55.2533176435105	-112.310826789423	0	0	0	0	
2266666666.66666	0	0	-55.9285336262751	-143.145808474333	0	0	0	0	
2268333333.33333	0	0	-55.3420289331972	174.544205313273	0	0	0	0	
2270000000	0	0	-55.3953713021536	125.045599757528	0	0	0	0	
2271666666.66666	0	0	-56.4887139421521	79.0153330631342	0	0	0	0	
2273333333.33333	0	0	-58.092067235124	39.7301278371442	0	0	0	0	
2274999999.99999	0	0	-58.9857858042844	-0.29355782740181	0	0	0	0	
2276666666.66666	0	0	-57.8579500077679	-52.8017671043901	0	0	0	0	
2278333333.33333	0	0	-58.8925759609231	-106.019792051635	0	0	0	0	
2279999999.99999	0	0	-58.5861221309356	-154.428364839226	0	0	0	0	
2281666666.66666	0	0	-57.9445625484532	155.545820489185	0	0	0	0	
2283333333.33333	0	0	-57.7338886909846	92.9273919791734	0	0	0	0	
2284999999.99999	0	0	-58.8641075183328	46.2043376383943	0	0	0	0	
2286666666.66666	0	0	-59.6893152437794	1.25302992647746	0	0	0	0	
2288333333.33333	0	0	-58.2933208101856	-44.8964839621762	0	0	0	0	
2289999999.99999	0	0	-57.9333545845007	-89.1216955371073	0	0	0	0	
2291666666.66666	0	0	-55.8351110617931	-131.012724884045	0	0	0	0	
2293333333.33333	0	0	-55.3579993759335	178.645350993407	0	0	0	0	
2294999999.99999	0	0	-54.8960396553932	137.240041497897	0	0	0	0	
2296666666.66666	0	0	-54.0638723253373	97.0599077117678	0	0	0	0	
2298333333.33333	0	0	-52.6022909693451	61.3816230860626	0	0	0	0	
2299999999.99999	0	0	-50.808688529107	16.0408757682996	0	0	0	0	
2301666666.66666	0	0	-49.372026042755	-36.9691811186735	0	0	0	0	
2303333333.33333	0	0	-48.8513689851129	-90.4803185624145	0	0	0	0	
2304999999.99999	0	0	-49.2256093233469	-139.262800261643	0	0	0	0	
2306666666.66666	0	0	-50.2178077553895	174.930694307786	0	0	0	0	
2308333333.33332	0	0	-50.5645707565456	128.189094980748	0	0	0	0	
2309999999.99999	0	0	-51.7305072075285	77.9807285338297	0	0	0	0	
2311666666.66666	0	0	-53.7531357051212	28.7779384886303	0	0	0	0	
2313333333.33332	0	0	-56.825640820302	-6.95225799340936	0	0	0	0	
2314999999.99999	0	0	-58.8216600920043	-37.0781454154255	0	0	0	0	
2316666666.66666	0	0	-59.3629684790613	-62.7317551206014	0	0	0	0	
2318333333.33332	0	0	-59.4735537605568	-94.4338874250803	0	0	0	0	
2319999999.99999	0	0	-57.1377594344777	-128.732203136906	0	0	0	0	
2321666666.66666	0	0	-56.2642010834749	-170.42679031729	0	0	0	0	
2323333333.33332	0	0	-55.5216971713362	134.801310129693	0	0	0	0	
2324999999.99999	0	0	-55.866757534344	92.7331583310119	0	0	0	0	
2326666666.66666	0	0	-55.8603827868684	42.1862891463051	0	0	0	0	
2328333333.33332	0	0	-54.7988816924731	-11.988679100925	0	0	0	0	
2329999999.99999	0	0	-54.0451114012337	-73.7128739301674	0	0	0	0	
2331666666.66666	0	0	-54.554465749899	-135.001562649859	0	0	0	0	
2333333333.33332	0	0	-55.6432821627544	167.418467580038	0	0	0	0	
2334999999.99999	0	0	-55.671170844359	116.231167348448	0	0	0	0	
2336666666.66666	0	0	-55.2389694527226	67.2283287860994	0	0	0	0	
2338333333.33332	0	0	-54.9083023429243	23.2170763128539	0	0	0	0	
2339999999.99999	0	0	-53.544291053014	-19.8423225899701	0	0	0	0	
2341666666.66666	0	0	-52.2815638698434	-69.8924176352371	0	0	0	0	
2343333333.33332	0	0	-51.2218197554984	-116.760027048609	0	0	0	0	
2344999999.99999	0	0	-51.0016260692514	-166.251987004604	0	0	0	0	
2346666666.66665	0	0	-51.6287376405939	151.843869115986	0	0	0	0	
2348333333.33332	0	0	-51.5981675332272	110.627942948779	0	0	0	0	
2349999999.99999	0	0	-50.739869421068	74.9960330897368	0	0	0	0	
2351666666.66665	0	0	-49.9681541085612	32.6936225756538	0	0	0	0	
2353333333.33332	0	0	-50.1298688852907	-8.40731544557413	0	0	0	0	
2354999999.99999	0	0	-49.9299987574296	-46.9399711523319	0	0	0	0	
2356666666.66665	0	0	-49.1939991863133	-80.1654042583732	0	0	0	0	
2358333333.33332	0	0	-47.8146729097598	-120.889822802778	0	0	0	0	
2359999999.99999	0	0	-46.9011547557907	-163.356595901994	0	0	0	0	
2361666666.66665	0	0	-46.1498879170668	151.520273667761	0	0	0	0	
2363333333.33332	0	0	-45.9944573748722	103.948967832975	0	0	0	0	
2364999999.99999	0	0	-46.6122496385791	57.6612938287136	0	0	0	0	
2366666666.66665	0	0	-47.7376795604215	16.0123525282923	0	0	0	0	
2368333333.33332	0	0	-48.8538118403171	-23.9741223943204	0	0	0	0	
2369999999.99999	0	0	-49.4710051004973	-53.5083867176012	0	0	0	0	
2371666666.66665	0	0	-48.8643366294878	-86.0622636543871	0	0	0	0	
2373333333.33332	0	0	-48.4715223498293	-121.456710945947	0	0	0	0	
2374999999.99999	0	0	-48.0386508284547	-164.596260707175	0	0	0	0	
2376666666.66665	0	0	-48.0341510015635	155.204050037991	0	0	0	0	
2378333333.33332	0	0	-48.0688712017778	118.324893900481	0	0	0	0	
2379999999.99998	0	0	-47.7466420236331	78.5823624154454	0	0	0	0	
2381666666.66665	0	0	-47.3971533738252	34.2019196868411	0	0	0	0	
2383333333.33332	0	0	-47.5979895989725	-13.4492587361493	0	0	0	0	
2384999999.99998	0	0	-48.3608858941874	-59.6319088217444	0	0	0	0	
2386666666.66665	0	0	-50.2185454152815	-109.744516585081	0	0	0	0	
2388333333.33332	0	0	-53.1316484215349	-156.911477996315	0	0	0	0	
2389999999.99998	0	0	-59.8092783495898	158.920702103512	0	0	0	0	
2391666666.66665	0	0	-67.0185763774895	176.923716105758	0	0	0	0	
2393333333.33332	0	0	-60.5123069748899	-142.197725002563	0	0	0	0	
2394999999.99998	0	0	-56.0270256129404	-175.433488372293	0	0	0	0	
2396666666.66665	0	0	-52.2582937058012	144.77736748826	0	0	0	0	
2398333333.33332	0	0	-49.8812760531572	104.715169918477	0	0	0	0	
2399999999.99998	0	0	-47.6604422707717	61.8198306522147	0	0	0	0	
2401666666.66665	0	0	-46.3237438837988	15.9371742516635	0	0	0	0	
2403333333.33332	0	0	-45.3517840265209	-29.3324413251979	0	0	0	0	
2404999999.99998	0	0	-44.3511432302073	-74.1138861034056	0	0	0	0	
2406666666.66665	0	0	-44.1019665867955	-118.991504396498	0	0	0	0	
2408333333.33332	0	0	-43.6812807359257	-166.242500927062	0	0	0	0	
2409999999.99998	0	0	-43.6414099395738	146.689004241886	0	0	0	0	
2411666666.66665	0	0	-44.3480272430415	98.4932651367144	0	0	0	0	
2413333333.33331	0	0	-45.547416412693	52.6561007393191	0	0	0	0	
2414999999.99998	0	0	-47.1666461977953	13.4241479486478	0	0	0	0	
2416666666.66665	0	0	-48.7294223019264	-20.8465944572833	0	0	0	0	
2418333333.33331	0	0	-48.6050999803305	-52.1906169611902	0	0	0	0	
2419999999.99998	0	0	-48.5898367262502	-90.1046763053122	0	0	0	0	
2421666666.66665	0	0	-48.8630767040255	-131.259252125971	0	0	0	0	
2423333333.33331	0	0	-49.5969680799172	-171.685091720333	0	0	0	0	
2424999999.99998	0	0	-50.7441107357733	150.999506983018	0	0	0	0	
2426666666.66665	0	0	-52.0665773983401	113.808356180999	0	0	0	0	
2428333333.33331	0	0	-53.4348963825272	78.0288142652251	0	0	0	0	
2429999999.99998	0	0	-54.4658352674333	45.9873531348255	0	0	0	0	
2431666666.66665	0	0	-55.2191375997663	13.2265395742209	0	0	0	0	
2433333333.33331	0	0	-56.186244419831	-12.9504148496805	0	0	0	0	
2434999999.99998	0	0	-56.2385812441853	-47.7528731420341	0	0	0	0	
2436666666.66665	0	0	-58.8373917250394	-82.3253862481623	0	0	0	0	
2438333333.33331	0	0	-63.3821986209292	-94.2024062051794	0	0	0	0	
2439999999.99998	0	0	-58.8258236281288	-83.3458499035505	0	0	0	0	
2441666666.66665	0	0	-54.7612535106158	-122.807178665431	0	0	0	0	
2443333333.33331	0	0	-52.9576998886382	-160.204154296894	0	0	0	0	
2444999999.99998	0	0	-51.8532798769617	163.156889466525	0	0	0	0	
2446666666.66665	0	0	-50.1623679020818	126.41445342399	0	0	0	0	
2448333333.33331	0	0	-49.0986497598772	84.6596218096185	0	0	0	0	
2449999999.99998	0	0	-48.0653025540039	42.2369506016489	0	0	0	0	
2451666666.66664	0	0	-47.6903712922497	0.285298858643834	0	0	0	0	
2453333333.33331	0	0	-46.9748189519202	-40.1212365249642	0	0	0	0	
2454999999.99998	0	0	-46.3892506906077	-82.3396657538164	0	0	0	0	
2456666666.66664	0	0	-46.5451305944181	-124.620880250766	0	0	0	0	
2458333333.33331	0	0	-46.545633820776	-164.655678390313	0	0	0	0	
2459999999.99998	0	0	-46.1328786284247	157.15971226501	0	0	0	0	
2461666666.66664	0	0	-45.5648287028177	116.402251671814	0	0	0	0	
2463333333.33331	0	0	-44.9319200248126	71.8301259128495	0	0	0	0	
2464999999.99998	0	0	-45.0265499086236	27.6508751903606	0	0	0	0	
2466666666.66664	0	0	-45.2840771784464	-17.6697758936713	0	0	0	0	
2468333333.33331	0	0	-45.6502640332156	-62.2768815524338	0	0	0	0	
2469999999.99998	0	0	-46.5382494637579	-105.947503154466	0	0	0	0	
2471666666.66664	0	0	-47.2191903444189	-148.816209743463	0	0	0	0	
2473333333.33331	0	0	-48.194554553453	167.759876924476	0	0	0	0	
2474999999.99998	0	0	-49.0883822140015	124.630254592242	0	0	0	0	
2476666666.66664	0	0	-50.5193852294275	80.0295131131958	0	0	0	0	
2478333333.33331	0	0	-53.2045919175725	32.0063543893543	0	0	0	0	
2479999999.99998	0	0	-58.0836964304429	-6.07563179539337	0	0	0	0	
2481666666.66664	0	0	-61.5894707102859	-4.3777355592252	0	0	0	0	
2483333333.33331	0	0	-58.7745559373459	-5.74327694832203	0	0	0	0	
2484999999.99997	0	0	-54.906223606227	-43.4302895992441	0	0	0	0	
2486666666.66664	0	0	-52.8956193307822	-88.9151630578535	0	0	0	0	
2488333333.33331	0	0	-53.0835427128248	-143.559873821019	0	0	0	0	
2489999999.99997	0	0	-54.4040285367722	168.378361282696	0	0	0	0	
2491666666.66664	0	0	-56.3697578966983	128.091931002329	0	0	0	0	
2493333333.33331	0	0	-57.5135285355659	81.8200625720911	0	0	0	0	
2494999999.99997	0	0	-58.8040317099066	29.9145825600297	0	0	0	0	
2496666666.66664	0	0	-63.7760405437826	-27.8791099191395	0	0	0	0	
2498333333.33331	0	0	-72.8263684941826	-179.808184066713	0	0	0	0	
2499999999.99997	0	0	-61.0391114467855	62.4167740955532	0	0	0	0	
2501666666.66664	0	0	-56.7733519469747	-2.24968709735913	0	0	0	0	
2503333333.33331	0	0	-55.3107789007509	-62.839001381618	0	0	0	0	
2504999999.99997	0	0	-54.7571584643214	-118.707239466924	0	0	0	0	
2506666666.66664	0	0	-56.5423945172425	-175.290977746682	0	0	0	0	
2508333333.33331	0	0	-58.0599536729745	140.110224750772	0	0	0	0	
2509999999.99997	0	0	-58.4429525343636	92.7637959443182	0	0	0	0	
2511666666.66664	0	0	-61.3968035207281	42.6940307656649	0	0	0	0	
2513333333.33331	0	0	-64.6085330116054	10.6159369947344	0	0	0	0	
2514999999.99997	0	0	-65.2460981297801	-8.96569367894822	0	0	0	0	
2516666666.66664	0	0	-63.7839649484757	-63.7771222917265	0	0	0	0	
2518333333.3333	0	0	-63.8021760626525	-154.411644149541	0	0	0	0	
2519999999.99997	0	0	-67.1776635335836	127.648762660682	0	0	0	0	
2521666666.66664	0	0	-67.0734494299677	17.9414350453325	0	0	0	0	
2523333333.3333	0	0	-64.7894126908077	-39.8897525356304	0	0	0	0	
2524999999.99997	0	0	-63.8836613621502	-97.592679123202	0	0	0	0	
2526666666.66664	0	0	-64.8634290213839	-156.632770044195	0	0	0	0	
2528333333.3333	0	0	-64.7159574484431	143.069555866096	0	0	0	0	
2529999999.99997	0	0	-68.6178465542901	133.552269330446	0	0	0	0	
2531666666.66664	0	0	-64.3555194175782	77.9486838509493	0	0	0	0	
2533333333.3333	0	0	-62.3447540943327	25.6223080346461	0	0	0	0	
2534999999.99997	0	0	-59.524281854243	-27.2191318900538	0	0	0	0	
2536666666.66664	0	0	-60.249506242457	-78.5113799008781	0	0	0	0	
2538333333.3333	0	0	-58.3035878845468	-125.764659892397	0	0	0	0	
2539999999.99997	0	0	-56.953142193346	175.172057106399	0	0	0	0	
2541666666.66664	0	0	-56.6704201336666	110.350417937653	0	0	0	0	
2543333333.3333	0	0	-56.9792192498362	47.6749766512439	0	0	0	0	
2544999999.99997	0	0	-58.7997885502719	-9.06464881196041	0	0	0	0	
2546666666.66664	0	0	-59.7297050352738	-48.2255355436143	0	0	0	0	
2548333333.3333	0	0	-62.0753812614342	-90.2388240922038	0	0	0	0	
2549999999.99997	0	0	-64.0409877225876	-126.188271862435	0	0	0	0	
2551666666.66664	0	0	-63.9549900852096	-150.479724297336	0	0	0	0	
2553333333.3333	0	0	-61.8358523808568	179.047936447909	0	0	0	0	
2554999999.99997	0	0	-59.6534269088625	150.11829342108	0	0	0	0	
2556666666.66663	0	0	-55.6044251220966	106.490950431656	0	0	0	0	
2558333333.3333	0	0	-54.0709109209602	59.251682337816	0	0	0	0	
2559999999.99997	0	0	-53.9607016536841	10.5407558047461	0	0	0	0	
2561666666.66663	0	0	-52.5408853047884	-32.4881686569747	0	0	0	0	
2563333333.3333	0	0	-52.1660851184159	-75.889787458172	0	0	0	0	
2564999999.99997	0	0	-51.66558899858	-123.389047660891	0	0	0	0	
2566666666.66663	0	0	-52.4744109074319	-168.826593489699	0	0	0	0	
2568333333.3333	0	0	-52.5073748593547	157.458763781667	0	0	0	0	
2569999999.99997	0	0	-51.5900596175146	124.749591609276	0	0	0	0	
2571666666.66663	0	0	-49.9363881731632	81.2455651427932	0	0	0	0	
2573333333.3333	0	0	-49.0969400756969	34.4584191242423	0	0	0	0	
2574999999.99997	0	0	-49.5029936263466	-11.4216089649897	0	0	0	0	
2576666666.66663	0	0	-49.663847782529	-56.4338362325505	0	0	0	0	
2578333333.3333	0	0	-50.9694478614913	-98.1659251194889	0	0	0	0	
2579999999.99997	0	0	-51.7915686513055	-136.465858582043	0	0	0	0	
2581666666.66663	0	0	-51.9968613044732	-168.311509104141	0	0	0	0	
2583333333.3333	0	0	-52.013842539546	158.696483195733	0	0	0	0	
2584999999.99997	0	0	-51.2272088647928	121.929872659178	0	0	0	0	
2586666666.66663	0	0	-51.103245507741	84.8633463971487	0	0	0	0	
2588333333.3333	0	0	-51.5198175530537	47.1485972843176	0	0	0	0	
2589999999.99996	0	0	-51.1658162451802	12.4611558951497	0	0	0	0	
2591666666.66663	0	0	-50.2101588719774	-23.4246599053222	0	0	0	0	
2593333333.3333	0	0	-49.2974835339692	-66.0641195454654	0	0	0	0	
2594999999.99996	0	0	-48.9429978414072	-108.708324589798	0	0	0	0	
2596666666.66663	0	0	-49.5964303472626	-151.137074455107	0	0	0	0	
2598333333.3333	0	0	-49.4071753963324	170.823528223408	0	0	0	0	
2599999999.99996	0	0	-49.700040138602	130.320626899582	0	0	0	0	
2601666666.66663	0	0	-49.9736438878751	92.5952733219032	0	0	0	0	
2603333333.3333	0	0	-50.7403568249618	56.0687351106434	0	0	0	0	
2604999999.99996	0	0	-50.9158344302128	22.2471577420992	0	0	0	0	
2606666666.66663	0	0	-50.3328937464557	-13.9229627053284	0	0	0	0	
2608333333.3333	0	0	-50.2567981877834	-48.6068642264952	0	0	0	0	
2609999999.99996	0	0	-49.5046472943493	-87.9440110547179	0	0	0	0	
2611666666.66663	0	0	-48.9018736746816	-129.719791955112	0	0	0	0	
2613333333.3333	0	0	-49.1347420016608	-173.418033676564	0	0	0	0	
2614999999.99996	0	0	-49.5699796064844	148.394130765279	0	0	0	0	
2616666666.66663	0	0	-49.6398072216206	112.612079243446	0	0	0	0	
2618333333.3333	0	0	-49.6504430518943	76.7297658634289	0	0	0	0	
2619999999.99996	0	0	-49.4698591335793	39.7567105387773	0	0	0	0	
2621666666.66663	0	0	-49.1691813966166	3.93381920598656	0	0	0	0	
2623333333.33329	0	0	-48.5013665377535	-35.0484247552879	0	0	0	0	
2624999999.99996	0	0	-47.9080705076135	-76.6753068967922	0	0	0	0	
2626666666.66663	0	0	-47.3576174372502	-118.181796075662	0	0	0	0	
2628333333.33329	0	0	-47.2902356327713	-162.940805477396	0	0	0	0	
2629999999.99996	0	0	-47.0417323334157	154.380661111058	0	0	0	0	
2631666666.66663	0	0	-47.0688505623492	107.828565644741	0	0	0	0	
2633333333.33329	0	0	-47.5930164437105	59.8410217592045	0	0	0	0	
2634999999.99996	0	0	-49.2451208415331	15.4131693959879	0	0	0	0	
2636666666.66663	0	0	-50.9870183117824	-23.754148335804	0	0	0	0	
2638333333.33329	0	0	-51.9940536079643	-58.9088130171927	0	0	0	0	
2639999999.99996	0	0	-52.9010299784436	-92.0438263996202	0	0	0	0	
2641666666.66663	0	0	-54.3430259535943	-134.508689807996	0	0	0	0	
2643333333.33329	0	0	-56.189650760153	-162.040774681923	0	0	0	0	
2644999999.99996	0	0	-56.7141762347898	177.628928303544	0	0	0	0	
2646666666.66663	0	0	-53.6196316375141	154.138955593594	0	0	0	0	
2648333333.33329	0	0	-51.9625764648824	110.266060891317	0	0	0	0	
2649999999.99996	0	0	-51.1019907466138	66.1781768817132	0	0	0	0	
2651666666.66663	0	0	-50.7347779249983	23.9325529488694	0	0	0	0	
2653333333.33329	0	0	-50.7275811782296	-19.9386765434837	0	0	0	0	
2654999999.99996	0	0	-50.728237922082	-63.395119499548	0	0	0	0	
2656666666.66663	0	0	-51.3637060911301	-104.266668846104	0	0	0	0	
2658333333.33329	0	0	-52.0591191798477	-148.458324477769	0	0	0	0	
2659999999.99996	0	0	-53.4091207720451	172.838503076659	0	0	0	0	
2661666666.66662	0	0	-53.8782250635856	140.54899983418	0	0	0	0	
2663333333.33329	0	0	-54.0154347855003	110.772185182715	0	0	0	0	
2664999999.99996	0	0	-53.4427489472004	78.4965692276636	0	0	0	0	
2666666666.66662	0	0	-51.8000849343114	45.6806999445612	0	0	0	0	
2668333333.33329	0	0	-50.7024360355515	7.86713884661571	0	0	0	0	
2669999999.99996	0	0	-49.8522885956429	-33.3810403377387	0	0	0	0	
2671666666.66662	0	0	-49.3886674051259	-76.7828732200718	0	0	0	0	
2673333333.33329	0	0	-49.0878383533882	-121.711893858081	0	0	0	0	
2674999999.99996	0	0	-48.98943727632	-167.152500565702	0	0	0	0	
2676666666.66662	0	0	-49.2209945310304	150.997872638667	0	0	0	0	
2678333333.33329	0	0	-49.2756338643766	110.83118804412	0	0	0	0	
2679999999.99996	0	0	-49.9282613357319	69.959452014027	0	0	0	0	
2681666666.66662	0	0	-50.3402769728035	31.5974969608862	0	0	0	0	
2683333333.33329	0	0	-50.4951043770906	-4.75600033457734	0	0	0	0	
2684999999.99996	0	0	-50.2056471244063	-42.3485028313812	0	0	0	0	
2686666666.66662	0	0	-49.5962980650109	-76.9417153776153	0	0	0	0	
2688333333.33329	0	0	-48.8693786136887	-116.630956797328	0	0	0	0	
2689999999.99996	0	0	-48.1212969385889	-160.530649882605	0	0	0	0	
2691666666.66662	0	0	-47.6513087006463	155.94612123935	0	0	0	0	
2693333333.33329	0	0	-46.7935828478682	110.55298548938	0	0	0	0	
2694999999.99995	0	0	-46.8791635884937	62.409191998831	0	0	0	0	
2696666666.66662	0	0	-47.5228147718729	16.1838480137237	0	0	0	0	
2698333333.33329	0	0	-48.5751062040607	-31.4130740255977	0	0	0	0	
2699999999.99995	0	0	-49.9289583073131	-76.5661195811817	0	0	0	0	
2701666666.66662	0	0	-51.6252880071822	-116.072805262012	0	0	0	0	
2703333333.33329	0	0	-53.5885509888774	-153.49734522623	0	0	0	0	
2704999999.99995	0	0	-55.4934210686032	167.12265712217	0	0	0	0	
2706666666.66662	0	0	-57.254419290166	126.388141775889	0	0	0	0	
2708333333.33329	0	0	-63.3353792139032	90.7155673168651	0	0	0	0	
2709999999.99995	0	0	-69.2082700634112	135.283605814652	0	0	0	0	
2711666666.66662	0	0	-56.8305769376854	123.763924521327	0	0	0	0	
2713333333.33329	0	0	-53.1689473744947	77.3057724757726	0	0	0	0	
2714999999.99995	0	0	-51.4850981111342	29.1763876684291	0	0	0	0	
2716666666.66662	0	0	-49.961620204786	-14.2591939398312	0	0	0	0	
2718333333.33329	0	0	-48.9727630361205	-58.8497973391148	0	0	0	0	
2719999999.99995	0	0	-48.5756987330401	-103.495976343283	0	0	0	0	
2721666666.66662	0	0	-47.9196511483411	-147.407832092807	0	0	0	0	
2723333333.33329	0	0	-47.2814496648781	170.48487784405	0	0	0	0	
2724999999.99995	0	0	-47.1634069718903	125.977907136534	0	0	0	0	
2726666666.66662	0	0	-47.1209967601171	82.6832379080314	0	0	0	0	
2728333333.33328	0	0	-47.256442179096	36.4654064726304	0	0	0	0	
2729999999.99995	0	0	-47.7004119980804	-8.08394603526867	0	0	0	0	
2731666666.66662	0	0	-48.1067843676137	-53.400600465969	0	0	0	0	
2733333333.33328	0	0	-49.3863248347156	-94.8856244812084	0	0	0	0	
2734999999.99995	0	0	-50.9487494989682	-137.408799197936	0	0	0	0	
2736666666.66662	0	0	-52.8465443056613	-170.031791320705	0	0	0	0	
2738333333.33328	0	0	-53.6928516138315	162.920580034022	0	0	0	0	
2739999999.99995	0	0	-53.3527274371971	132.728800628548	0	0	0	0	
2741666666.66662	0	0	-52.6763646059811	101.38441277716	0	0	0	0	
2743333333.33328	0	0	-52.4600986647418	64.4703968443756	0	0	0	0	
2744999999.99995	0	0	-52.0579778530278	28.9520208547643	0	0	0	0	
2746666666.66662	0	0	-51.6747179470501	-8.73946521430325	0	0	0	0	
2748333333.33328	0	0	-51.2510272940204	-43.3138619424871	0	0	0	0	
2749999999.99995	0	0	-50.721300401471	-84.0725522582463	0	0	0	0	
2751666666.66662	0	0	-49.1106721478227	-125.327087312496	0	0	0	0	
2753333333.33328	0	0	-48.7531937908062	-172.114853121881	0	0	0	0	
2754999999.99995	0	0	-48.9079579538585	142.684483576114	0	0	0	0	
2756666666.66662	0	0	-48.9769514767267	100.008337415217	0	0	0	0	
2758333333.33328	0	0	-49.2925885448646	55.5183775237165	0	0	0	0	
2759999999.99995	0	0	-49.9654111147201	8.3818588305066	0	0	0	0	
2761666666.66662	0	0	-51.3549205987398	-36.1967760375977	0	0	0	0	
2763333333.33328	0	0	-52.852625168631	-80.3706357109407	0	0	0	0	
2764999999.99995	0	0	-55.0954698013055	-116.96856471335	0	0	0	0	
2766666666.66661	0	0	-55.4277747121295	-144.356323576686	0	0	0	0	
2768333333.33328	0	0	-54.9242557583771	178.595372925856	0	0	0	0	
2769999999.99995	0	0	-54.0342506721377	138.787107896892	0	0	0	0	
2771666666.66661	0	0	-55.944001011543	92.9902278123768	0	0	0	0	
2773333333.33328	0	0	-56.1976602679068	55.9896157646071	0	0	0	0	
2774999999.99995	0	0	-57.4535173477345	21.6825274509224	0	0	0	0	
2776666666.66661	0	0	-57.4794057519863	0.320934128716113	0	0	0	0	
2778333333.33328	0	0	-56.5704826727976	-37.7979789868885	0	0	0	0	
2779999999.99995	0	0	-55.1401772010373	-82.4669474231015	0	0	0	0	
2781666666.66661	0	0	-54.1745599956267	-128.163880476248	0	0	0	0	
2783333333.33328	0	0	-53.0376778312142	176.123800488403	0	0	0	0	
2784999999.99995	0	0	-52.9129452433621	129.059257313677	0	0	0	0	
2786666666.66661	0	0	-54.1223887136854	76.8779556482413	0	0	0	0	
2788333333.33328	0	0	-54.6519745813712	35.6577918143499	0	0	0	0	
2789999999.99995	0	0	-55.0208557772694	-13.2476347325927	0	0	0	0	
2791666666.66661	0	0	-55.5023836770572	-64.1936695544161	0	0	0	0	
2793333333.33328	0	0	-56.0405528734344	-109.429853726409	0	0	0	0	
2794999999.99995	0	0	-57.5775269034185	-147.438794486476	0	0	0	0	
2796666666.66661	0	0	-58.1949144374163	176.37093001154	0	0	0	0	
2798333333.33328	0	0	-56.8924445565686	133.296610672597	0	0	0	0	
2799999999.99994	0	0	-57.8337575689829	89.9393002614531	0	0	0	0	
2801666666.66661	0	0	-57.0608020111914	50.566938410267	0	0	0	0	
2803333333.33328	0	0	-57.5574821561869	5.25152620419915	0	0	0	0	
2804999999.99994	0	0	-58.0531718559984	-33.6827127686675	0	0	0	0	
2806666666.66661	0	0	-57.3362340820851	-69.4126680384202	0	0	0	0	
2808333333.33328	0	0	-56.5064946105698	-114.541516519172	0	0	0	0	
2809999999.99994	0	0	-56.892338870577	-155.712608072782	0	0	0	0	
2811666666.66661	0	0	-56.5234766054592	159.716191003879	0	0	0	0	
2813333333.33328	0	0	-56.6534166410782	123.732593205374	0	0	0	0	
2814999999.99994	0	0	-55.8009667863787	83.6535944636933	0	0	0	0	
2816666666.66661	0	0	-56.7064766114943	34.2737243491126	0	0	0	0	
2818333333.33328	0	0	-57.2659980158387	-0.694791500280736	0	0	0	0	
2819999999.99994	0	0	-58.6090553930221	-31.7272188048263	0	0	0	0	
2821666666.66661	0	0	-59.0828078479647	-74.848275207822	0	0	0	0	
2823333333.33328	0	0	-57.5343787421178	-109.167021451709	0	0	0	0	
2824999999.99994	0	0	-56.4478699641865	-148.387181194924	0	0	0	0	
2826666666.66661	0	0	-59.4815697067282	178.220029907829	0	0	0	0	
2828333333.33328	0	0	-57.8678493116882	147.02866030054	0	0	0	0	
2829999999.99994	0	0	-56.6294620678475	111.174723614032	0	0	0	0	
2831666666.66661	0	0	-56.6582427895543	62.5375852992888	0	0	0	0	
2833333333.33327	0	0	-58.0470994740629	20.7856996506339	0	0	0	0	
2834999999.99994	0	0	-58.4946660194262	-18.8828103809456	0	0	0	0	
2836666666.66661	0	0	-59.7478425238235	-51.5798931045041	0	0	0	0	
2838333333.33327	0	0	-59.1411145390605	-81.2391891207436	0	0	0	0	
2839999999.99994	0	0	-58.1731814541904	-114.99695787944	0	0	0	0	
2841666666.66661	0	0	-57.7463445380643	-160.169582137857	0	0	0	0	
2843333333.33327	0	0	-58.0187327143687	175.778529592181	0	0	0	0	
2844999999.99994	0	0	-58.9789592086588	130.071847299278	0	0	0	0	
2846666666.66661	0	0	-58.4829294385336	86.8318259361491	0	0	0	0	
2848333333.33327	0	0	-61.5815915593015	57.3488697687754	0	0	0	0	
2849999999.99994	0	0	-67.6775535536955	33.5132779305542	0	0	0	0	
2851666666.66661	0	0	-63.5565710432013	34.9636903229981	0	0	0	0	
2853333333.33327	0	0	-59.4866673376813	12.4090334490496	0	0	0	0	
2854999999.99994	0	0	-55.3811763555811	-36.2056763014413	0	0	0	0	
2856666666.66661	0	0	-54.3285865853166	-81.3605953162518	0	0	0	0	
2858333333.33327	0	0	-54.327908680163	-124.162001976452	0	0	0	0	
2859999999.99994	0	0	-54.0529503403765	-165.764562354909	0	0	0	0	
2861666666.66661	0	0	-54.1776811071751	157.948250258577	0	0	0	0	
2863333333.33327	0	0	-53.0282024951214	124.056822297222	0	0	0	0	
2864999999.99994	0	0	-51.8681251042768	82.9279672534788	0	0	0	0	
2866666666.6666	0	0	-50.7355582701249	39.7578967964071	0	0	0	0	
2868333333.33327	0	0	-50.9266864164875	-5.46726998693311	0	0	0	0	
2869999999.99994	0	0	-50.3414649406491	-49.4875867412915	0	0	0	0	
2871666666.6666	0	0	-50.5768286884067	-90.8089155865678	0	0	0	0	
2873333333.33327	0	0	-50.7011860052897	-130.683078251901	0	0	0	0	
2874999999.99994	0	0	-51.0398870950628	-170.989614153484	0	0	0	0	
2876666666.6666	0	0	-51.2851987873584	154.954027737038	0	0	0	0	
2878333333.33327	0	0	-51.438829302405	118.68025631646	0	0	0	0	
2879999999.99994	0	0	-51.7667206864231	81.2733577626943	0	0	0	0	
2881666666.6666	0	0	-51.1021975571762	40.3487433215641	0	0	0	0	
2883333333.33327	0	0	-50.3314453453	0.953361832215865	0	0	0	0	
2884999999.99994	0	0	-50.2259821474255	-39.9807844801861	0	0	0	0	
2886666666.6666	0	0	-50.3891087499965	-84.978033688112	0	0	0	0	
2888333333.33327	0	0	-50.4716741624632	-125.112137620839	0	0	0	0	
2889999999.99994	0	0	-51.096346837646	-169.467654889423	0	0	0	0	
2891666666.6666	0	0	-51.6148607128849	152.869205454701	0	0	0	0	
2893333333.33327	0	0	-51.7303899676795	116.870612353655	0	0	0	0	
2894999999.99994	0	0	-51.4738656692211	72.7484156243012	0	0	0	0	
2896666666.6666	0	0	-52.5072568863945	30.0560072882483	0	0	0	0	
2898333333.33327	0	0	-53.4971900131328	-13.591056644333	0	0	0	0	
2899999999.99994	0	0	-54.1164735850637	-52.8129038214853	0	0	0	0	
2901666666.6666	0	0	-54.545233352319	-96.446932273027	0	0	0	0	
2903333333.33327	0	0	-55.7745047743209	-141.447225396328	0	0	0	0	
2904999999.99993	0	0	-57.9581351857971	-179.81887912544	0	0	0	0	
2906666666.6666	0	0	-59.4125944724922	141.104688075539	0	0	0	0	
2908333333.33327	0	0	-64.1711881630504	122.541147864397	0	0	0	0	
2909999999.99993	0	0	-63.6004823787229	111.918810781692	0	0	0	0	
2911666666.6666	0	0	-65.0667027758742	86.5845458535217	0	0	0	0	
2913333333.33327	0	0	-61.3850997503586	56.0257176103302	0	0	0	0	
2914999999.99993	0	0	-59.2658347032308	10.7935494483053	0	0	0	0	
2916666666.6666	0	0	-58.061199187407	-33.1578671834562	0	0	0	0	
2918333333.33327	0	0	-58.5424743878623	-89.6792559265192	0	0	0	0	
2919999999.99993	0	0	-60.6244989912197	-127.974584194732	0	0	0	0	
2921666666.6666	0	0	-61.4708684310727	-158.907720719604	0	0	0	0	
2923333333.33327	0	0	-59.7888271426452	168.636390031485	0	0	0	0	
2924999999.99993	0	0	-59.0375939154544	112.445287789253	0	0	0	0	
2926666666.6666	0	0	-62.1392810761732	61.0614757815978	0	0	0	0	
2928333333.33327	0	0	-62.6442642015683	5.62919631360701	0	0	0	0	
2929999999.99993	0	0	-63.8922695987353	-35.2039621043814	0	0	0	0	
2931666666.6666	0	0	-63.8506719048641	-98.9566190781741	0	0	0	0	
2933333333.33327	0	0	-66.2777633081015	179.43253243314	0	0	0	0	
2934999999.99993	0	0	-68.159880175809	100.283136469088	0	0	0	0	
2936666666.6666	0	0	-70.5951770317941	37.7061508759433	0	0	0	0	
2938333333.33326	0	0	-66.5586354028026	-47.7437576859927	0	0	0	0	
2939999999.99993	0	0	-64.9370143280889	-88.6364969038065	0	0	0	0	
2941666666.6666	0	0	-63.7131320261377	-164.699635779818	0	0	0	0	
2943333333.33326	0	0	-62.8918298295985	146.233197014041	0	0	0	0	
2944999999.99993	0	0	-63.0832337364105	96.4009971701373	0	0	0	0	
2946666666.6666	0	0	-65.4258662336978	45.928932550039	0	0	0	0	
2948333333.33326	0	0	-65.2417632338179	3.86247187924316	0	0	0	0	
2949999999.99993	0	0	-66.2961757195897	-58.5213277413	0	0	0	0	
2951666666.6666	0	0	-64.9102572511751	-107.401097568345	0	0	0	0	
2953333333.33326	0	0	-67.8242210894853	-162.026900852481	0	0	0	0	
2954999999.99993	0	0	-67.8001619103839	150.66483059462	0	0	0	0	
2956666666.6666	0	0	-69.5448905981435	102.782277021608	0	0	0	0	
2958333333.33326	0	0	-69.4364463094526	41.5986840272425	0	0	0	0	
2959999999.99993	0	0	-76.2898005970615	-16.339809348372	0	0	0	0	
2961666666.6666	0	0	-71.4640963263246	-91.2354814563843	0	0	0	0	
2963333333.33326	0	0	-68.6571275790167	-147.715801621966	0	0	0	0	
2964999999.99993	0	0	-64.8498631572398	131.134715420039	0	0	0	0	
2966666666.6666	0	0	-63.3852272538131	51.6984997309825	0	0	0	0	
2968333333.33326	0	0	-61.2554846346978	-9.99337660244654	0	0	0	0	
2969999999.99993	0	0	-61.8464054593596	-78.3732993678319	0	0	0	0	
2971666666.66659	0	0	-61.3734691703184	-133.655081023962	0	0	0	0	
2973333333.33326	0	0	-60.9319559823179	178.581451630341	0	0	0	0	
2974999999.99993	0	0	-59.6557561469031	135.33067233673	0	0	0	0	
2976666666.66659	0	0	-59.4702720900503	76.8470481723503	0	0	0	0	
2978333333.33326	0	0	-59.4220123877759	28.7006314499791	0	0	0	0	
2979999999.99993	0	0	-59.2310712624346	-28.4170609793535	0	0	0	0	
2981666666.66659	0	0	-58.6076092681787	-72.4840169809546	0	0	0	0	
2983333333.33326	0	0	-58.9484577076115	-108.27270768024	0	0	0	0	
2984999999.99993	0	0	-57.3173627987262	-152.458233582717	0	0	0	0	
2986666666.66659	0	0	-56.6218837407537	156.880961501465	0	0	0	0	
2988333333.33326	0	0	-55.0029993815431	114.830866705307	0	0	0	0	
2989999999.99993	0	0	-55.1064816576533	66.0236478247537	0	0	0	0	
2991666666.66659	0	0	-53.8406859900218	22.2320862769367	0	0	0	0	
2993333333.33326	0	0	-53.0343446946904	-25.6213120166656	0	0	0	0	
2994999999.99993	0	0	-52.6955746940916	-69.7513438959593	0	0	0	0	
2996666666.66659	0	0	-52.6731328659456	-114.869884669461	0	0	0	0	
2998333333.33326	0	0	-52.984174120881	-157.930140009359	0	0	0	0	
2999999999.99993	0	0	-52.7519004610177	154.793485450203	0	0	0	0	
