!Agilent N9923A: A.05.34
!Date: Tuesday, 08 March 2016 07:49:37
!Model: N9923A
!Serial: MY51491690
!GPS Latitude: 
!GPS Longitude: 
!GPS TimeStamp: 0001-01-01 00:00:00Z
!GPS Seconds Since Last Read: 0
!CHECKSUM:1837662058
!Correction: S11()S21(Rdy)S12()S22()
!S2P File: Measurements:S11,S21,S12,S22:
# Hz S DB R 50
2000000000	0	0	-52.7526001033406	96.33877038861	0	0	0	0	
2001666666.66667	0	0	-52.6830648697416	52.9983253991	0	0	0	0	
2003333333.33333	0	0	-52.8055738150368	8.85226433565034	0	0	0	0	
2005000000	0	0	-53.2748495626704	-33.1311333969532	0	0	0	0	
2006666666.66667	0	0	-53.2908291036561	-76.1434633712787	0	0	0	0	
2008333333.33333	0	0	-53.189477457972	-119.207529273604	0	0	0	0	
2010000000	0	0	-53.1071194864494	-164.494392414739	0	0	0	0	
2011666666.66667	0	0	-52.9754017553559	155.064460506136	0	0	0	0	
2013333333.33333	0	0	-53.396402072484	111.067139579806	0	0	0	0	
2015000000	0	0	-54.1022216306829	72.3776582304673	0	0	0	0	
2016666666.66667	0	0	-53.9713673373914	30.8821605192877	0	0	0	0	
2018333333.33333	0	0	-54.6428478519112	-8.19388042178045	0	0	0	0	
2020000000	0	0	-54.9486156667458	-45.9987725012435	0	0	0	0	
2021666666.66667	0	0	-55.5826938642295	-82.2286509832267	0	0	0	0	
2023333333.33333	0	0	-56.7282049765653	-119.849566226553	0	0	0	0	
2025000000	0	0	-57.1477097729646	-155.558682960401	0	0	0	0	
2026666666.66667	0	0	-57.2373622529019	171.963317339814	0	0	0	0	
2028333333.33333	0	0	-58.0334044237348	138.188447697388	0	0	0	0	
2030000000	0	0	-57.1706026820619	107.981229337667	0	0	0	0	
2031666666.66667	0	0	-56.2182178114225	67.2020804599333	0	0	0	0	
2033333333.33333	0	0	-55.6109753988039	31.2314879605362	0	0	0	0	
2035000000	0	0	-54.8769033597391	-9.4920171270257	0	0	0	0	
2036666666.66667	0	0	-54.6747574952711	-49.1711076742238	0	0	0	0	
2038333333.33334	0	0	-54.689901083389	-92.6199020352465	0	0	0	0	
2040000000	0	0	-55.578426661529	-137.802335761817	0	0	0	0	
2041666666.66667	0	0	-56.3567791025057	173.833229648674	0	0	0	0	
2043333333.33334	0	0	-59.3711477670281	121.336721312866	0	0	0	0	
2045000000	0	0	-65.338221577574	88.520513138547	0	0	0	0	
2046666666.66667	0	0	-67.5564141860263	119.687680382483	0	0	0	0	
2048333333.33334	0	0	-60.8254155378722	108.020341660969	0	0	0	0	
2050000000	0	0	-57.5963012304027	65.1303243309685	0	0	0	0	
2051666666.66667	0	0	-55.0519795410583	18.9238806826193	0	0	0	0	
2053333333.33334	0	0	-54.2118331589032	-25.4843743090141	0	0	0	0	
2055000000	0	0	-54.3411629255565	-70.0938683865091	0	0	0	0	
2056666666.66667	0	0	-55.3342960828959	-103.161240295876	0	0	0	0	
2058333333.33334	0	0	-54.7244719531486	-134.71492446823	0	0	0	0	
2060000000	0	0	-52.7722902185717	-167.004268800767	0	0	0	0	
2061666666.66667	0	0	-51.0073582447967	149.601301258248	0	0	0	0	
2063333333.33334	0	0	-50.0699771802649	101.824223429271	0	0	0	0	
2065000000	0	0	-49.4010544828158	58.2612122017437	0	0	0	0	
2066666666.66667	0	0	-49.2825256998471	15.206644594012	0	0	0	0	
2068333333.33334	0	0	-48.9162471564631	-30.8351802004334	0	0	0	0	
2070000000	0	0	-49.0669074793861	-77.4200146982925	0	0	0	0	
2071666666.66667	0	0	-49.5943801475699	-121.339136319291	0	0	0	0	
2073333333.33334	0	0	-50.7269153802194	-167.463574212645	0	0	0	0	
2075000000	0	0	-52.0459508218979	150.612336967013	0	0	0	0	
2076666666.66667	0	0	-52.6956671144264	116.661543051578	0	0	0	0	
2078333333.33334	0	0	-52.4660598940536	78.5336101897899	0	0	0	0	
2080000000	0	0	-52.7859904148323	38.1806335636756	0	0	0	0	
2081666666.66667	0	0	-53.240721501083	-4.12663830698734	0	0	0	0	
2083333333.33334	0	0	-53.9464858285689	-49.1539154748879	0	0	0	0	
2085000000	0	0	-55.3956664229212	-92.5952675473034	0	0	0	0	
2086666666.66667	0	0	-57.7941604035017	-132.404671383595	0	0	0	0	
2088333333.33334	0	0	-60.0155794093535	-160.792894362164	0	0	0	0	
2090000000	0	0	-61.3671662620486	164.309955450601	0	0	0	0	
2091666666.66667	0	0	-61.4377995875539	143.250648082054	0	0	0	0	
2093333333.33334	0	0	-62.2105774082814	117.91043610527	0	0	0	0	
2095000000	0	0	-60.1080668931193	81.5576377655729	0	0	0	0	
2096666666.66667	0	0	-59.5624311819077	66.0198569702967	0	0	0	0	
2098333333.33334	0	0	-57.1393417125603	23.3340672326436	0	0	0	0	
2100000000	0	0	-55.383806370159	-16.6807575341987	0	0	0	0	
2101666666.66667	0	0	-53.7183482648266	-67.5019555954076	0	0	0	0	
2103333333.33334	0	0	-53.1132365141378	-120.997653905096	0	0	0	0	
2105000000.00001	0	0	-52.6323546052782	-173.368808566525	0	0	0	0	
2106666666.66667	0	0	-53.465483374364	133.032580086249	0	0	0	0	
2108333333.33334	0	0	-54.126832163947	81.5496445974345	0	0	0	0	
2110000000.00001	0	0	-56.1647571706684	33.6220062838186	0	0	0	0	
2111666666.66667	0	0	-58.3949039648812	-13.4831920017603	0	0	0	0	
2113333333.33334	0	0	-60.0352621762626	-50.8172927818894	0	0	0	0	
2115000000.00001	0	0	-62.1816730477769	-94.9213044343404	0	0	0	0	
2116666666.66667	0	0	-65.1732653791095	-138.587939623459	0	0	0	0	
2118333333.33334	0	0	-72.2264832097021	173.584327002629	0	0	0	0	
2120000000.00001	0	0	-72.6448038467146	164.506337324769	0	0	0	0	
2121666666.66667	0	0	-68.8101455768587	106.898574970122	0	0	0	0	
2123333333.33334	0	0	-73.6068757569382	-37.6778347535034	0	0	0	0	
2125000000.00001	0	0	-64.6736211335936	-132.038195107623	0	0	0	0	
2126666666.66667	0	0	-60.0948301374688	145.801716741807	0	0	0	0	
2128333333.33334	0	0	-57.7775887888333	84.1965402105736	0	0	0	0	
2130000000.00001	0	0	-57.7737533081013	23.2871942032428	0	0	0	0	
2131666666.66667	0	0	-58.4868879930187	-31.2258468098709	0	0	0	0	
2133333333.33334	0	0	-60.1010731617603	-76.0164029216627	0	0	0	0	
2135000000.00001	0	0	-61.4461213065727	-126.041152535181	0	0	0	0	
2136666666.66667	0	0	-61.7352083657684	-159.734907475061	0	0	0	0	
2138333333.33334	0	0	-62.3795596241322	-178.870324867696	0	0	0	0	
2140000000.00001	0	0	-59.6468510714808	140.968083666768	0	0	0	0	
2141666666.66667	0	0	-58.8406164215799	99.0141847814073	0	0	0	0	
2143333333.33334	0	0	-58.5336691891461	58.7920846212305	0	0	0	0	
2145000000.00001	0	0	-57.6727085026371	15.8294017348334	0	0	0	0	
2146666666.66667	0	0	-57.1840889234059	-23.7619019173739	0	0	0	0	
2148333333.33334	0	0	-58.1714388121541	-62.5738019285851	0	0	0	0	
2150000000.00001	0	0	-56.6779558582792	-92.1459084623656	0	0	0	0	
2151666666.66667	0	0	-55.3558007893332	-135.39844601348	0	0	0	0	
2153333333.33334	0	0	-54.0024556076438	-176.163710059874	0	0	0	0	
2155000000.00001	0	0	-52.5650692329741	141.058257899173	0	0	0	0	
2156666666.66667	0	0	-51.1716332919545	93.2998005190841	0	0	0	0	
2158333333.33334	0	0	-50.2410309899019	46.5172714019494	0	0	0	0	
2160000000.00001	0	0	-50.3038821059559	-3.76736686686655	0	0	0	0	
2161666666.66667	0	0	-50.3851655657647	-52.1262158876135	0	0	0	0	
2163333333.33334	0	0	-51.1077525114337	-97.4795348123382	0	0	0	0	
2165000000.00001	0	0	-51.6623398527931	-145.168882359772	0	0	0	0	
2166666666.66667	0	0	-51.9735855099741	170.804993702745	0	0	0	0	
2168333333.33334	0	0	-52.8522681114536	128.118089441028	0	0	0	0	
2170000000	0	0	-53.5232833310162	83.2922742992779	0	0	0	0	
2171666666.66667	0	0	-54.4055816611681	41.4732034061823	0	0	0	0	
2173333333.33334	0	0	-54.1743035173232	0.862095594381936	0	0	0	0	
2175000000	0	0	-54.6184570740419	-41.6955342301238	0	0	0	0	
2176666666.66667	0	0	-55.2442539073936	-92.9887657558863	0	0	0	0	
2178333333.33334	0	0	-56.878853385168	-149.808080633716	0	0	0	0	
2180000000	0	0	-60.076325742408	166.648709356356	0	0	0	0	
2181666666.66667	0	0	-63.3695216631426	151.34018244146	0	0	0	0	
2183333333.33334	0	0	-62.5647457290419	119.209896047587	0	0	0	0	
2185000000	0	0	-64.3307673149744	83.0784174356738	0	0	0	0	
2186666666.66667	0	0	-62.3310880446937	60.8702156713346	0	0	0	0	
2188333333.33334	0	0	-59.274050978428	27.0211375277057	0	0	0	0	
2190000000	0	0	-57.4338696815634	-22.5285643854279	0	0	0	0	
2191666666.66667	0	0	-57.0970064945445	-82.654890170774	0	0	0	0	
2193333333.33334	0	0	-57.96891090496	-141.944444170263	0	0	0	0	
2195000000	0	0	-60.1270058686261	170.932654821907	0	0	0	0	
2196666666.66667	0	0	-61.0945886030003	128.344677886457	0	0	0	0	
2198333333.33334	0	0	-63.9373855319332	95.7288220526254	0	0	0	0	
2200000000	0	0	-66.043803722723	69.8266892298581	0	0	0	0	
2201666666.66667	0	0	-60.1434551294324	64.915620724896	0	0	0	0	
2203333333.33333	0	0	-56.4262554643192	16.2287117418481	0	0	0	0	
2205000000	0	0	-54.2112957706681	-40.7332157052285	0	0	0	0	
2206666666.66667	0	0	-52.4696998564191	-102.693414854012	0	0	0	0	
2208333333.33333	0	0	-51.7896836610041	-156.352420901	0	0	0	0	
2210000000	0	0	-52.0333930798901	145.808454111568	0	0	0	0	
2211666666.66667	0	0	-52.5415683942286	91.0341991861878	0	0	0	0	
2213333333.33333	0	0	-55.2408085901989	36.4554411172893	0	0	0	0	
2215000000	0	0	-59.2254213278273	-7.91085676932479	0	0	0	0	
2216666666.66667	0	0	-64.6849383968089	-31.5180963708371	0	0	0	0	
2218333333.33333	0	0	-63.4017486350639	-24.0608452948888	0	0	0	0	
2220000000	0	0	-59.2092641255886	-52.5652897771852	0	0	0	0	
2221666666.66667	0	0	-57.0556377190924	-88.9219106278471	0	0	0	0	
2223333333.33333	0	0	-55.8520327147327	-132.092535534686	0	0	0	0	
2225000000	0	0	-54.2113984572328	-168.639092133505	0	0	0	0	
2226666666.66667	0	0	-52.1978147767118	150.922884124699	0	0	0	0	
2228333333.33333	0	0	-50.9953270966801	106.008527486054	0	0	0	0	
2230000000	0	0	-50.3244084647882	61.1970121306199	0	0	0	0	
2231666666.66667	0	0	-49.5393192264923	16.8571734589742	0	0	0	0	
2233333333.33333	0	0	-49.0226022502013	-23.1955067099065	0	0	0	0	
2235000000	0	0	-47.6217352284941	-68.2224561066301	0	0	0	0	
2236666666.66667	0	0	-47.2141810886818	-114.766770261613	0	0	0	0	
2238333333.33333	0	0	-47.2065862890798	-158.018144122911	0	0	0	0	
2240000000	0	0	-47.0243233040811	163.310897191775	0	0	0	0	
2241666666.66666	0	0	-46.3642630190397	122.770803074592	0	0	0	0	
2243333333.33333	0	0	-45.4918454123055	79.4915600598323	0	0	0	0	
2245000000	0	0	-45.2483985436264	31.8239516185428	0	0	0	0	
2246666666.66666	0	0	-45.4357200436445	-16.750226488873	0	0	0	0	
2248333333.33333	0	0	-46.0508657766646	-58.9954227553649	0	0	0	0	
2250000000	0	0	-46.7018638195133	-100.837823060612	0	0	0	0	
2251666666.66666	0	0	-46.7371857821583	-139.152713160077	0	0	0	0	
2253333333.33333	0	0	-46.6991033795456	-179.706264967885	0	0	0	0	
2255000000	0	0	-46.5577770734069	138.92946542436	0	0	0	0	
2256666666.66666	0	0	-46.71659463874	95.314682586426	0	0	0	0	
2258333333.33333	0	0	-47.0018359347516	50.3323617418087	0	0	0	0	
2260000000	0	0	-47.3971201235196	3.31704122585565	0	0	0	0	
2261666666.66666	0	0	-48.4695453373097	-43.46416609722	0	0	0	0	
2263333333.33333	0	0	-50.016128074418	-89.3524485029035	0	0	0	0	
2265000000	0	0	-52.289996958704	-128.011857783717	0	0	0	0	
2266666666.66666	0	0	-53.1377396306139	-166.518327397935	0	0	0	0	
2268333333.33333	0	0	-54.0549270464163	150.438804694156	0	0	0	0	
2270000000	0	0	-56.0595538269973	114.197790114225	0	0	0	0	
2271666666.66666	0	0	-57.5357064301496	77.3032048823484	0	0	0	0	
2273333333.33333	0	0	-59.4733555450789	39.3403413737689	0	0	0	0	
2274999999.99999	0	0	-61.3331693694845	0.504200256728165	0	0	0	0	
2276666666.66666	0	0	-62.3257826156367	-46.6396425716637	0	0	0	0	
2278333333.33333	0	0	-64.6683915102239	-63.1755205648038	0	0	0	0	
2279999999.99999	0	0	-64.5070561703675	-98.3768874055068	0	0	0	0	
2281666666.66666	0	0	-64.99700946185	-141.080586779853	0	0	0	0	
2283333333.33333	0	0	-67.1844220437447	133.149562046098	0	0	0	0	
2284999999.99999	0	0	-81.0872851326665	80.5926920202046	0	0	0	0	
2286666666.66666	0	0	-75.5021872135932	158.617665746986	0	0	0	0	
2288333333.33333	0	0	-78.8120300356986	43.9082095060896	0	0	0	0	
2289999999.99999	0	0	-74.2410799905089	-52.9789613281162	0	0	0	0	
2291666666.66666	0	0	-69.6890888792175	-114.295277432151	0	0	0	0	
2293333333.33333	0	0	-65.7447836506354	179.565581368142	0	0	0	0	
2294999999.99999	0	0	-63.6573598178242	140.608721556762	0	0	0	0	
2296666666.66666	0	0	-62.0543689019955	108.608752511819	0	0	0	0	
2298333333.33333	0	0	-57.5372987334881	75.498106781403	0	0	0	0	
2299999999.99999	0	0	-54.7659238397351	20.9409320335546	0	0	0	0	
2301666666.66666	0	0	-52.1270137251981	-34.5010176914923	0	0	0	0	
2303333333.33333	0	0	-51.4454136206425	-85.8335628757659	0	0	0	0	
2304999999.99999	0	0	-51.3246753122774	-137.771968066378	0	0	0	0	
2306666666.66666	0	0	-51.2895304823432	175.61138947187	0	0	0	0	
2308333333.33332	0	0	-51.5743639827018	125.714940458564	0	0	0	0	
2309999999.99999	0	0	-52.2185887726541	76.1326853161776	0	0	0	0	
2311666666.66666	0	0	-54.3010262694603	27.4352260041691	0	0	0	0	
2313333333.33332	0	0	-57.090020915441	-7.41633993744495	0	0	0	0	
2314999999.99999	0	0	-58.2282548591197	-39.9779849322541	0	0	0	0	
2316666666.66666	0	0	-59.2043920438142	-68.124671663386	0	0	0	0	
2318333333.33332	0	0	-59.2089748558355	-93.1153891786819	0	0	0	0	
2319999999.99999	0	0	-57.0875322565534	-127.413934214596	0	0	0	0	
2321666666.66666	0	0	-55.8504360134259	-165.987518850689	0	0	0	0	
2323333333.33332	0	0	-55.0911682832685	142.99206601155	0	0	0	0	
2324999999.99999	0	0	-54.274276192782	102.352507682189	0	0	0	0	
2326666666.66666	0	0	-53.9125272603108	52.5602812532326	0	0	0	0	
2328333333.33332	0	0	-53.8040539228053	-1.56402456388291	0	0	0	0	
2329999999.99999	0	0	-53.7511939030225	-63.2091784099068	0	0	0	0	
2331666666.66666	0	0	-55.1485595294454	-121.910655902039	0	0	0	0	
2333333333.33332	0	0	-56.6154486956814	-167.300257047574	0	0	0	0	
2334999999.99999	0	0	-58.0589457232099	142.978359917141	0	0	0	0	
2336666666.66666	0	0	-57.9982875827202	94.1539515909394	0	0	0	0	
2338333333.33332	0	0	-57.9650792394934	40.644011769009	0	0	0	0	
2339999999.99999	0	0	-57.6296665131029	-8.00073712321529	0	0	0	0	
2341666666.66666	0	0	-56.4020557983139	-54.816682588054	0	0	0	0	
2343333333.33332	0	0	-55.8137020964505	-102.364617974199	0	0	0	0	
2344999999.99999	0	0	-55.2461012052214	-149.144320667885	0	0	0	0	
2346666666.66665	0	0	-54.8042894890023	169.070618017709	0	0	0	0	
2348333333.33332	0	0	-53.8357767159833	128.452222347113	0	0	0	0	
2349999999.99999	0	0	-52.3866289393704	89.1869269686474	0	0	0	0	
2351666666.66665	0	0	-51.5950298104136	44.3065867108938	0	0	0	0	
2353333333.33332	0	0	-51.6097663969047	-0.272536416107398	0	0	0	0	
2354999999.99999	0	0	-51.0227575079095	-38.6409685793515	0	0	0	0	
2356666666.66665	0	0	-49.8261267038258	-78.9511177115651	0	0	0	0	
2358333333.33332	0	0	-49.3150756825801	-119.839996369173	0	0	0	0	
2359999999.99999	0	0	-48.4957811118462	-164.720352185481	0	0	0	0	
2361666666.66665	0	0	-47.8008111232405	151.322581808678	0	0	0	0	
2363333333.33332	0	0	-47.7555065720475	108.234529338408	0	0	0	0	
2364999999.99999	0	0	-48.1157755966377	65.3013018160733	0	0	0	0	
2366666666.66665	0	0	-48.5222346282602	21.4353731462313	0	0	0	0	
2368333333.33332	0	0	-49.0338859988722	-12.841190856737	0	0	0	0	
2369999999.99999	0	0	-48.6334423195337	-48.944906974462	0	0	0	0	
2371666666.66665	0	0	-48.1540697067252	-83.8239905707961	0	0	0	0	
2373333333.33332	0	0	-47.8731683209925	-127.216405913706	0	0	0	0	
2374999999.99999	0	0	-47.5535555481815	-168.400588858991	0	0	0	0	
2376666666.66665	0	0	-47.4787249326738	152.050522944867	0	0	0	0	
2378333333.33332	0	0	-47.8027722692033	110.757612805873	0	0	0	0	
2379999999.99998	0	0	-47.5859208020265	69.778017619521	0	0	0	0	
2381666666.66665	0	0	-47.0672887020366	27.6729428924979	0	0	0	0	
2383333333.33332	0	0	-47.1385526740792	-18.3510427468993	0	0	0	0	
2384999999.99998	0	0	-47.7328639255404	-66.9628315384863	0	0	0	0	
2386666666.66665	0	0	-48.9815718670651	-114.528248597812	0	0	0	0	
2388333333.33332	0	0	-50.7605846101225	-168.970863771322	0	0	0	0	
2389999999.99998	0	0	-55.4948308006149	136.897419746533	0	0	0	0	
2391666666.66665	0	0	-63.2831641787876	64.8380912469368	0	0	0	0	
2393333333.33332	0	0	-66.0896142782792	-106.119085927223	0	0	0	0	
2394999999.99998	0	0	-57.3457353235227	-162.31481887201	0	0	0	0	
2396666666.66665	0	0	-53.3042218308138	150.929746397263	0	0	0	0	
2398333333.33332	0	0	-50.9788307686371	106.177090634174	0	0	0	0	
2399999999.99998	0	0	-48.6974033747114	59.0925879844332	0	0	0	0	
2401666666.66665	0	0	-47.3646762091165	16.2179560998234	0	0	0	0	
2403333333.33332	0	0	-46.3359499027467	-28.0084065855797	0	0	0	0	
2404999999.99998	0	0	-45.5484956555621	-73.7354097495714	0	0	0	0	
2406666666.66665	0	0	-44.8605384261774	-117.87265433531	0	0	0	0	
2408333333.33332	0	0	-44.6182539449109	-163.532275296777	0	0	0	0	
2409999999.99998	0	0	-44.5580972051335	151.039205838456	0	0	0	0	
2411666666.66665	0	0	-45.0433762633437	103.886271996599	0	0	0	0	
2413333333.33331	0	0	-46.0887830215438	60.7678668212031	0	0	0	0	
2414999999.99998	0	0	-46.9508460576026	23.5680872150014	0	0	0	0	
2416666666.66665	0	0	-47.5628695250628	-10.3334694097363	0	0	0	0	
2418333333.33331	0	0	-47.538744526431	-46.89959939171	0	0	0	0	
2419999999.99998	0	0	-47.6121072873623	-85.3340894480493	0	0	0	0	
2421666666.66665	0	0	-47.7568251156686	-123.630323413021	0	0	0	0	
2423333333.33331	0	0	-48.2014919637365	-163.529914625293	0	0	0	0	
2424999999.99998	0	0	-48.4419223737858	159.995747952289	0	0	0	0	
2426666666.66665	0	0	-48.7136159297672	118.98039924455	0	0	0	0	
2428333333.33331	0	0	-49.8052889341481	80.3140912183594	0	0	0	0	
2429999999.99998	0	0	-50.6496259745137	36.4269741033959	0	0	0	0	
2431666666.66665	0	0	-52.3523125783319	4.87946702072758	0	0	0	0	
2433333333.33331	0	0	-53.6359149737802	-25.9828369340402	0	0	0	0	
2434999999.99998	0	0	-53.4492566554782	-58.6734058754209	0	0	0	0	
2436666666.66665	0	0	-54.3124876601045	-98.3950511650766	0	0	0	0	
2438333333.33331	0	0	-56.0349448310365	-127.04558709518	0	0	0	0	
2439999999.99998	0	0	-56.0646513349234	-151.742361445468	0	0	0	0	
2441666666.66665	0	0	-56.3130694857648	-178.655726324832	0	0	0	0	
2443333333.33331	0	0	-56.3346950892256	154.831534798144	0	0	0	0	
2444999999.99998	0	0	-56.2737435016408	128.596231299429	0	0	0	0	
2446666666.66665	0	0	-54.5817352466719	105.717029159287	0	0	0	0	
2448333333.33331	0	0	-52.7079087264715	71.5592343626496	0	0	0	0	
2449999999.99998	0	0	-50.5386075357921	31.1210207923943	0	0	0	0	
2451666666.66664	0	0	-50.1880635305038	-9.78461654983871	0	0	0	0	
2453333333.33331	0	0	-49.5130846854777	-50.5311102069844	0	0	0	0	
2454999999.99998	0	0	-49.3399594018802	-90.8458076472293	0	0	0	0	
2456666666.66664	0	0	-48.8302972635569	-130.752820344056	0	0	0	0	
2458333333.33331	0	0	-48.6777262411006	-170.130929868384	0	0	0	0	
2459999999.99998	0	0	-48.2664837961495	153.411419072747	0	0	0	0	
2461666666.66664	0	0	-47.4779685698317	113.595833387875	0	0	0	0	
2463333333.33331	0	0	-47.1618093427597	70.1694201423962	0	0	0	0	
2464999999.99998	0	0	-46.8577562183402	24.6486987948019	0	0	0	0	
2466666666.66664	0	0	-46.9467497188796	-20.4036365151523	0	0	0	0	
2468333333.33331	0	0	-47.6329201842586	-64.9745893196919	0	0	0	0	
2469999999.99998	0	0	-48.7683264647878	-109.232262545294	0	0	0	0	
2471666666.66664	0	0	-49.6981816444708	-152.707552572124	0	0	0	0	
2473333333.33331	0	0	-50.3978847418815	165.427690792634	0	0	0	0	
2474999999.99998	0	0	-51.5785066155853	123.136351197666	0	0	0	0	
2476666666.66664	0	0	-53.7520946990713	75.0959897659621	0	0	0	0	
2478333333.33331	0	0	-58.4080883629386	26.8274526327745	0	0	0	0	
2479999999.99998	0	0	-65.224045705037	4.43564836576589	0	0	0	0	
2481666666.66664	0	0	-62.4928683169379	19.1499836661133	0	0	0	0	
2483333333.33331	0	0	-59.0020685842908	0.278573655023409	0	0	0	0	
2484999999.99997	0	0	-56.5829161709542	-43.1354358341025	0	0	0	0	
2486666666.66664	0	0	-56.2720552262802	-93.0742596839732	0	0	0	0	
2488333333.33331	0	0	-57.3120873285598	-148.326756504031	0	0	0	0	
2489999999.99997	0	0	-61.3350725401713	164.000392949202	0	0	0	0	
2491666666.66664	0	0	-66.7475777230026	125.892855778991	0	0	0	0	
2493333333.33331	0	0	-68.947372266394	91.0545741214777	0	0	0	0	
2494999999.99997	0	0	-74.9003773063172	-83.9831067971127	0	0	0	0	
2496666666.66664	0	0	-63.881924892025	-151.598389605742	0	0	0	0	
2498333333.33331	0	0	-58.0949213944078	134.6990175476	0	0	0	0	
2499999999.99997	0	0	-54.1801752741404	78.7305737722905	0	0	0	0	
2501666666.66664	0	0	-52.8698558402072	18.3965356937641	0	0	0	0	
2503333333.33331	0	0	-52.3861092644594	-37.4971661273905	0	0	0	0	
2504999999.99997	0	0	-53.4303115309422	-90.4752638204511	0	0	0	0	
2506666666.66664	0	0	-55.0835044247849	-137.750537771626	0	0	0	0	
2508333333.33331	0	0	-57.5913805956272	-177.46862875799	0	0	0	0	
2509999999.99997	0	0	-59.7826808929865	149.12921185983	0	0	0	0	
2511666666.66664	0	0	-61.756193093951	126.012427608592	0	0	0	0	
2513333333.33331	0	0	-62.0359599112524	106.260726870233	0	0	0	0	
2514999999.99997	0	0	-60.8183020085519	68.5825894346487	0	0	0	0	
2516666666.66664	0	0	-59.536757943357	25.7184639387885	0	0	0	0	
2518333333.3333	0	0	-61.5305210461761	5.54643381179716	0	0	0	0	
2519999999.99997	0	0	-60.7727387204494	-14.0138008832924	0	0	0	0	
2521666666.66664	0	0	-58.86125750732	-48.2353071165706	0	0	0	0	
2523333333.3333	0	0	-56.830901028679	-79.822081378728	0	0	0	0	
2524999999.99997	0	0	-55.0788833256461	-121.865071372241	0	0	0	0	
2526666666.66664	0	0	-53.9484606482689	-166.173048157541	0	0	0	0	
2528333333.3333	0	0	-53.3138227588672	147.311183487404	0	0	0	0	
2529999999.99997	0	0	-53.650684989914	97.5883037254528	0	0	0	0	
2531666666.66664	0	0	-53.7017054755893	59.7313616812904	0	0	0	0	
2533333333.3333	0	0	-53.5264437425951	14.9714896503757	0	0	0	0	
2534999999.99997	0	0	-53.0801310849411	-30.9952280921552	0	0	0	0	
2536666666.66664	0	0	-53.9478783147254	-76.817347265532	0	0	0	0	
2538333333.3333	0	0	-54.7852249061093	-120.460555381857	0	0	0	0	
2539999999.99997	0	0	-54.8454525061219	-167.343610116545	0	0	0	0	
2541666666.66664	0	0	-55.9046179072633	143.553408623629	0	0	0	0	
2543333333.3333	0	0	-60.1116996766163	94.2732670032375	0	0	0	0	
2544999999.99997	0	0	-63.8075763954966	71.2841792511733	0	0	0	0	
2546666666.66664	0	0	-62.1658106189729	51.1407387896569	0	0	0	0	
2548333333.3333	0	0	-59.9465065178669	22.6553411550095	0	0	0	0	
2549999999.99997	0	0	-57.8334170662632	-23.6173045827127	0	0	0	0	
2551666666.66664	0	0	-56.2234183804243	-67.0592901728145	0	0	0	0	
2553333333.3333	0	0	-56.7234148334823	-115.502601814219	0	0	0	0	
2554999999.99997	0	0	-54.4971632710159	-165.005581816933	0	0	0	0	
2556666666.66663	0	0	-54.0359108045934	140.699187836845	0	0	0	0	
2558333333.3333	0	0	-53.5466801492419	89.3964883081853	0	0	0	0	
2559999999.99997	0	0	-53.5831527528878	42.9759744055615	0	0	0	0	
2561666666.66663	0	0	-52.6331463806025	-2.85733087164655	0	0	0	0	
2563333333.3333	0	0	-52.287714906291	-52.146027210241	0	0	0	0	
2564999999.99997	0	0	-52.5409854291623	-101.523559844416	0	0	0	0	
2566666666.66663	0	0	-53.7254870390691	-144.141386176607	0	0	0	0	
2568333333.3333	0	0	-53.9354276546093	-179.978323735486	0	0	0	0	
2569999999.99997	0	0	-53.1673969879289	137.960525970122	0	0	0	0	
2571666666.66663	0	0	-51.9721453790131	94.9493909739356	0	0	0	0	
2573333333.3333	0	0	-51.7640359151975	47.2821567211219	0	0	0	0	
2574999999.99997	0	0	-52.149913035148	3.97053977910904	0	0	0	0	
2576666666.66663	0	0	-52.4602609666185	-38.9987224865292	0	0	0	0	
2578333333.3333	0	0	-53.5338312417025	-74.1096769891147	0	0	0	0	
2579999999.99997	0	0	-54.1639450436687	-102.641498825597	0	0	0	0	
2581666666.66663	0	0	-54.0151721419019	-139.745623109553	0	0	0	0	
2583333333.3333	0	0	-53.3404943233359	-177.156705512252	0	0	0	0	
2584999999.99997	0	0	-52.8902342174521	144.315963295618	0	0	0	0	
2586666666.66663	0	0	-52.6682274795409	107.163237764589	0	0	0	0	
2588333333.3333	0	0	-52.9867089654683	72.8226107383697	0	0	0	0	
2589999999.99996	0	0	-51.8678289511908	39.7746419717326	0	0	0	0	
2591666666.66663	0	0	-51.2929996134076	2.18727651982404	0	0	0	0	
2593333333.3333	0	0	-50.3063529240729	-40.1853487812314	0	0	0	0	
2594999999.99996	0	0	-50.0773799125663	-83.3982643945667	0	0	0	0	
2596666666.66663	0	0	-49.9629008472517	-120.047370453086	0	0	0	0	
2598333333.3333	0	0	-49.8839383618524	-158.081150181383	0	0	0	0	
2599999999.99996	0	0	-50.0049348211661	163.78012678946	0	0	0	0	
2601666666.66663	0	0	-49.5518299616882	123.919953898184	0	0	0	0	
2603333333.3333	0	0	-48.8285398872225	88.9869485715136	0	0	0	0	
2604999999.99996	0	0	-48.1543706266178	51.190393587021	0	0	0	0	
2606666666.66663	0	0	-47.5598304597634	11.3145885787373	0	0	0	0	
2608333333.3333	0	0	-46.9801309461942	-28.5361557942426	0	0	0	0	
2609999999.99996	0	0	-46.2477631469844	-71.6274621288959	0	0	0	0	
2611666666.66663	0	0	-46.431469793585	-114.808463377828	0	0	0	0	
2613333333.3333	0	0	-46.6914025063854	-160.173762624069	0	0	0	0	
2614999999.99996	0	0	-47.6051888046406	161.147765592774	0	0	0	0	
2616666666.66663	0	0	-47.8092361981224	123.318780185997	0	0	0	0	
2618333333.3333	0	0	-48.0123211775558	88.0640760667918	0	0	0	0	
2619999999.99996	0	0	-48.2059942305565	50.4740878460229	0	0	0	0	
2621666666.66663	0	0	-47.47315544161	12.808676004842	0	0	0	0	
2623333333.33329	0	0	-47.4425299922253	-25.2650595863377	0	0	0	0	
2624999999.99996	0	0	-46.802218958486	-64.8433169981379	0	0	0	0	
2626666666.66663	0	0	-46.6192963389599	-107.96270729969	0	0	0	0	
2628333333.33329	0	0	-46.9362982033599	-149.335910230748	0	0	0	0	
2629999999.99996	0	0	-46.7995313351691	169.032252475075	0	0	0	0	
2631666666.66663	0	0	-47.260324283471	124.990471738036	0	0	0	0	
2633333333.33329	0	0	-47.8380143773399	80.2747682801743	0	0	0	0	
2634999999.99996	0	0	-48.9360815823851	40.5910813931913	0	0	0	0	
2636666666.66663	0	0	-50.4835887043718	2.59681008978672	0	0	0	0	
2638333333.33329	0	0	-50.7348365371505	-34.2079931049843	0	0	0	0	
2639999999.99996	0	0	-51.7267376251938	-72.0695897432676	0	0	0	0	
2641666666.66663	0	0	-53.2422130370161	-107.706991816299	0	0	0	0	
2643333333.33329	0	0	-54.7531522202731	-132.526029902706	0	0	0	0	
2644999999.99996	0	0	-53.0294403816703	-158.379973852595	0	0	0	0	
2646666666.66663	0	0	-51.2351845701716	168.862413356168	0	0	0	0	
2648333333.33329	0	0	-50.2370965044485	127.64356315267	0	0	0	0	
2649999999.99996	0	0	-49.4386622435183	86.8769384941305	0	0	0	0	
2651666666.66663	0	0	-49.1795122460728	40.8291232187552	0	0	0	0	
2653333333.33329	0	0	-49.4036867078713	-1.62858598697085	0	0	0	0	
2654999999.99996	0	0	-49.7058623898863	-47.5949065965673	0	0	0	0	
2656666666.66663	0	0	-50.9595812600018	-91.1723851320325	0	0	0	0	
2658333333.33329	0	0	-51.6165908833321	-131.623541408382	0	0	0	0	
2659999999.99996	0	0	-53.7899552323967	-164.847459696922	0	0	0	0	
2661666666.66662	0	0	-53.7881291360031	164.648542623284	0	0	0	0	
2663333333.33329	0	0	-53.4925682205601	128.626547378739	0	0	0	0	
2664999999.99996	0	0	-52.8331216016755	98.7325957932877	0	0	0	0	
2666666666.66662	0	0	-51.6647513207208	59.8364045773886	0	0	0	0	
2668333333.33329	0	0	-50.9214591771558	21.5626786803189	0	0	0	0	
2669999999.99996	0	0	-50.1967323782436	-19.533099893832	0	0	0	0	
2671666666.66662	0	0	-49.4322642833199	-66.1265073005777	0	0	0	0	
2673333333.33329	0	0	-49.8395622269436	-111.873812874482	0	0	0	0	
2674999999.99996	0	0	-50.2555246713729	-155.570810598385	0	0	0	0	
2676666666.66662	0	0	-50.7827947624047	166.341755892514	0	0	0	0	
2678333333.33329	0	0	-51.11691420538	121.345841659384	0	0	0	0	
2679999999.99996	0	0	-51.8126690071511	84.562411278409	0	0	0	0	
2681666666.66662	0	0	-52.5820554165771	49.2753111941388	0	0	0	0	
2683333333.33329	0	0	-52.2303179963811	12.2748112733526	0	0	0	0	
2684999999.99996	0	0	-51.5565239540441	-23.5331934082552	0	0	0	0	
2686666666.66662	0	0	-50.7091571798119	-59.8643182453839	0	0	0	0	
2688333333.33329	0	0	-49.9667323691433	-103.89767729822	0	0	0	0	
2689999999.99996	0	0	-49.376758126682	-147.312464836468	0	0	0	0	
2691666666.66662	0	0	-48.6120259943994	166.215526133874	0	0	0	0	
2693333333.33329	0	0	-48.3880434407431	117.925985413617	0	0	0	0	
2694999999.99995	0	0	-48.7192083461412	68.9145918149256	0	0	0	0	
2696666666.66662	0	0	-49.4860325730603	19.2923336798298	0	0	0	0	
2698333333.33329	0	0	-50.6239291973328	-27.3171296810548	0	0	0	0	
2699999999.99995	0	0	-52.6184396542909	-74.9694394102168	0	0	0	0	
2701666666.66662	0	0	-54.9421995998132	-118.960497659233	0	0	0	0	
2703333333.33329	0	0	-58.3979208041446	-154.328303202811	0	0	0	0	
2704999999.99995	0	0	-60.9525974578848	172.489611204528	0	0	0	0	
2706666666.66662	0	0	-65.6008806889006	139.950161494946	0	0	0	0	
2708333333.33329	0	0	-73.7441928088781	-153.441350316106	0	0	0	0	
2709999999.99995	0	0	-61.5698560747773	-171.053996125014	0	0	0	0	
2711666666.66662	0	0	-55.3654186732197	136.628918016625	0	0	0	0	
2713333333.33329	0	0	-52.6843272394398	88.8830849546073	0	0	0	0	
2714999999.99995	0	0	-51.172056722769	37.843938948435	0	0	0	0	
2716666666.66662	0	0	-50.448530621304	-4.57347256066771	0	0	0	0	
2718333333.33329	0	0	-49.8574214486428	-50.6064919144762	0	0	0	0	
2719999999.99995	0	0	-49.2626341859211	-93.4923598607676	0	0	0	0	
2721666666.66662	0	0	-48.5619807977416	-138.398759610518	0	0	0	0	
2723333333.33329	0	0	-48.0866102194748	177.645024819556	0	0	0	0	
2724999999.99995	0	0	-47.8695808157358	134.445314198053	0	0	0	0	
2726666666.66662	0	0	-48.0372635860757	91.2246835814993	0	0	0	0	
2728333333.33328	0	0	-47.9939209429206	48.1904753068229	0	0	0	0	
2729999999.99995	0	0	-48.264930034866	3.56762153179333	0	0	0	0	
2731666666.66662	0	0	-48.8019176304473	-39.557997409732	0	0	0	0	
2733333333.33328	0	0	-49.4834583605052	-83.0975099323339	0	0	0	0	
2734999999.99995	0	0	-50.4904334135699	-126.091112677803	0	0	0	0	
2736666666.66662	0	0	-52.5542735936174	-161.012889085622	0	0	0	0	
2738333333.33328	0	0	-53.4633942365304	168.765278672296	0	0	0	0	
2739999999.99995	0	0	-53.0652660151695	142.507782866291	0	0	0	0	
2741666666.66662	0	0	-52.0161445944241	106.403655960223	0	0	0	0	
2743333333.33328	0	0	-51.9635647030221	66.6316545368932	0	0	0	0	
2744999999.99995	0	0	-51.3520046462146	28.6203104598036	0	0	0	0	
2746666666.66662	0	0	-50.7080860511676	-8.34076766735984	0	0	0	0	
2748333333.33328	0	0	-50.6135398461513	-45.4471932791616	0	0	0	0	
2749999999.99995	0	0	-49.7320451362397	-86.4436166630419	0	0	0	0	
2751666666.66662	0	0	-49.1237506654173	-129.872195530114	0	0	0	0	
2753333333.33328	0	0	-48.4027766443826	-175.223426397523	0	0	0	0	
2754999999.99995	0	0	-48.8685916871912	138.890873377737	0	0	0	0	
2756666666.66662	0	0	-48.8867465821495	98.2576931124492	0	0	0	0	
2758333333.33328	0	0	-49.4248577067158	51.3813720781766	0	0	0	0	
2759999999.99995	0	0	-49.7583690553529	5.54009836673695	0	0	0	0	
2761666666.66662	0	0	-51.3003179176659	-40.0037502701274	0	0	0	0	
2763333333.33328	0	0	-53.7389212205094	-84.0523437288302	0	0	0	0	
2764999999.99995	0	0	-55.688676101366	-117.950862644233	0	0	0	0	
2766666666.66661	0	0	-56.6144981836598	-142.492429292042	0	0	0	0	
2768333333.33328	0	0	-55.3264953994239	-169.971775856528	0	0	0	0	
2769999999.99995	0	0	-54.7152061134528	144.897194455943	0	0	0	0	
2771666666.66661	0	0	-54.6047382847122	105.482903358109	0	0	0	0	
2773333333.33328	0	0	-55.356001787463	64.2943909645002	0	0	0	0	
2774999999.99995	0	0	-56.1846888818559	32.3385864537361	0	0	0	0	
2776666666.66661	0	0	-56.3779936099521	-7.13315334044528	0	0	0	0	
2778333333.33328	0	0	-54.9525626751723	-45.2225544970307	0	0	0	0	
2779999999.99995	0	0	-54.4634193759029	-91.3226528056561	0	0	0	0	
2781666666.66661	0	0	-54.0377588177356	-137.420726199827	0	0	0	0	
2783333333.33328	0	0	-53.4198391101697	176.153739860678	0	0	0	0	
2784999999.99995	0	0	-53.324265144053	126.520060267256	0	0	0	0	
2786666666.66661	0	0	-53.9393813117465	81.4824915932719	0	0	0	0	
2788333333.33328	0	0	-55.2538487969482	31.8811310629303	0	0	0	0	
2789999999.99995	0	0	-56.011062159516	-19.969616154744	0	0	0	0	
2791666666.66661	0	0	-57.4433721452224	-62.1057047618567	0	0	0	0	
2793333333.33328	0	0	-59.6027457236609	-105.876298550397	0	0	0	0	
2794999999.99995	0	0	-60.4935909320295	-149.179854613811	0	0	0	0	
2796666666.66661	0	0	-61.0696304203746	177.616460037394	0	0	0	0	
2798333333.33328	0	0	-60.545930485221	138.835288201291	0	0	0	0	
2799999999.99994	0	0	-60.7503004630226	116.000134605542	0	0	0	0	
2801666666.66661	0	0	-60.2956763798714	72.3875808516262	0	0	0	0	
2803333333.33328	0	0	-61.2296658873277	22.8714725158817	0	0	0	0	
2804999999.99994	0	0	-60.5978013244024	-20.3835432796855	0	0	0	0	
2806666666.66661	0	0	-58.5075623746098	-56.8514351117965	0	0	0	0	
2808333333.33328	0	0	-59.355570486867	-105.950689642837	0	0	0	0	
2809999999.99994	0	0	-58.441193257697	-149.540128626128	0	0	0	0	
2811666666.66661	0	0	-58.4528808619508	176.332178292808	0	0	0	0	
2813333333.33328	0	0	-58.2948338022905	127.044048717032	0	0	0	0	
2814999999.99994	0	0	-58.2249970693463	80.2230374624795	0	0	0	0	
2816666666.66661	0	0	-59.6213601956317	40.837680478197	0	0	0	0	
2818333333.33328	0	0	-60.2658259412447	12.9695999107424	0	0	0	0	
2819999999.99994	0	0	-60.1332879390291	-30.5957625180074	0	0	0	0	
2821666666.66661	0	0	-59.1187941069337	-56.3731677999293	0	0	0	0	
2823333333.33328	0	0	-58.9895171819136	-98.1338946602354	0	0	0	0	
2824999999.99994	0	0	-58.0735729124114	-135.614119010616	0	0	0	0	
2826666666.66661	0	0	-58.3171314532062	-175.938024833168	0	0	0	0	
2828333333.33328	0	0	-56.9638495644657	145.636231797092	0	0	0	0	
2829999999.99994	0	0	-56.1174264067754	102.323202965682	0	0	0	0	
2831666666.66661	0	0	-55.9685011224061	58.291821731588	0	0	0	0	
2833333333.33327	0	0	-56.4003043948803	22.5118061825516	0	0	0	0	
2834999999.99994	0	0	-58.9139612338218	-16.7223565721352	0	0	0	0	
2836666666.66661	0	0	-60.684697131287	-57.7605776572294	0	0	0	0	
2838333333.33327	0	0	-60.4640593051842	-91.9262328847883	0	0	0	0	
2839999999.99994	0	0	-58.781128417393	-121.369697030621	0	0	0	0	
2841666666.66661	0	0	-58.7437235705437	-155.721053596611	0	0	0	0	
2843333333.33327	0	0	-60.8916480676567	165.741148013475	0	0	0	0	
2844999999.99994	0	0	-60.0975373261284	127.611511581498	0	0	0	0	
2846666666.66661	0	0	-59.7690956865283	103.158419572466	0	0	0	0	
2848333333.33327	0	0	-61.7498377149288	67.3846588464208	0	0	0	0	
2849999999.99994	0	0	-62.805031170826	40.1984675209855	0	0	0	0	
2851666666.66661	0	0	-61.3097102196267	25.3060218479465	0	0	0	0	
2853333333.33327	0	0	-57.9740495562602	-5.07019940581336	0	0	0	0	
2854999999.99994	0	0	-56.2088991792415	-50.106142750605	0	0	0	0	
2856666666.66661	0	0	-54.2756570402213	-95.9326453205043	0	0	0	0	
2858333333.33327	0	0	-54.2026057053063	-143.530324837629	0	0	0	0	
2859999999.99994	0	0	-54.3809121284168	179.915723642395	0	0	0	0	
2861666666.66661	0	0	-54.3579437074564	141.401047753361	0	0	0	0	
2863333333.33327	0	0	-54.3409792023595	111.255709540707	0	0	0	0	
2864999999.99994	0	0	-52.8771314954422	69.5747900159658	0	0	0	0	
2866666666.6666	0	0	-52.4053200010023	28.9214496707204	0	0	0	0	
2868333333.33327	0	0	-51.7205957753868	-13.8946173178309	0	0	0	0	
2869999999.99994	0	0	-51.6596551985248	-57.9059818177071	0	0	0	0	
2871666666.6666	0	0	-51.752769140073	-99.0634863030121	0	0	0	0	
2873333333.33327	0	0	-52.5774865989017	-139.515308321606	0	0	0	0	
2874999999.99994	0	0	-52.8627202144114	-175.296874450753	0	0	0	0	
2876666666.6666	0	0	-52.4873749210125	148.95677969052	0	0	0	0	
2878333333.33327	0	0	-52.6590573145613	111.17252341833	0	0	0	0	
2879999999.99994	0	0	-52.3229527888024	75.3863056054431	0	0	0	0	
2881666666.6666	0	0	-51.9142580567702	34.4274312991809	0	0	0	0	
2883333333.33327	0	0	-51.8736960842715	-7.99161463295038	0	0	0	0	
2884999999.99994	0	0	-51.0896651364152	-49.8048025611377	0	0	0	0	
2886666666.6666	0	0	-50.9576098870387	-94.5339629756711	0	0	0	0	
2888333333.33327	0	0	-51.3955131317944	-138.918355976505	0	0	0	0	
2889999999.99994	0	0	-52.061557193748	176.762536133347	0	0	0	0	
2891666666.6666	0	0	-53.3564485629428	143.278216920473	0	0	0	0	
2893333333.33327	0	0	-54.8103110154842	101.285925839449	0	0	0	0	
2894999999.99994	0	0	-54.6409063859894	60.3237771161312	0	0	0	0	
2896666666.6666	0	0	-54.8616072276841	19.6031976631052	0	0	0	0	
2898333333.33327	0	0	-55.6765458923992	-16.7938205650254	0	0	0	0	
2899999999.99994	0	0	-56.1877267571808	-60.2316196465794	0	0	0	0	
2901666666.6666	0	0	-55.9287008647252	-96.7201093454393	0	0	0	0	
2903333333.33327	0	0	-56.5951102669149	-141.694592868917	0	0	0	0	
2904999999.99993	0	0	-58.2765501678207	176.748654091064	0	0	0	0	
2906666666.6666	0	0	-61.6820548156969	129.181640814762	0	0	0	0	
2908333333.33327	0	0	-64.6251358128978	85.5296653592911	0	0	0	0	
2909999999.99993	0	0	-68.6960919581414	93.4532622020841	0	0	0	0	
2911666666.6666	0	0	-68.4799787538347	102.618662521513	0	0	0	0	
2913333333.33327	0	0	-65.3395751591645	55.5726306273767	0	0	0	0	
2914999999.99993	0	0	-64.1646281720271	15.6811854980823	0	0	0	0	
2916666666.6666	0	0	-59.556496143879	-33.7914653141772	0	0	0	0	
2918333333.33327	0	0	-61.4632410490352	-87.6897090798275	0	0	0	0	
2919999999.99993	0	0	-63.5227427845265	-120.384031531658	0	0	0	0	
2921666666.6666	0	0	-63.6622996717131	-153.31212963484	0	0	0	0	
2923333333.33327	0	0	-63.4965771714163	157.647532996064	0	0	0	0	
2924999999.99993	0	0	-64.8284097754083	114.157852250051	0	0	0	0	
2926666666.6666	0	0	-64.3670117219704	68.4152837040237	0	0	0	0	
2928333333.33327	0	0	-69.2352904755658	32.7480782475522	0	0	0	0	
2929999999.99993	0	0	-70.3452712893181	-53.2984531119345	0	0	0	0	
2931666666.6666	0	0	-67.9455232652489	-108.556619632017	0	0	0	0	
2933333333.33327	0	0	-69.3380184914327	161.78292269717	0	0	0	0	
2934999999.99993	0	0	-72.7619930100766	49.0698724356994	0	0	0	0	
2936666666.6666	0	0	-66.760445253993	-6.06342340198135	0	0	0	0	
2938333333.33326	0	0	-67.1879911942529	-58.7204990363548	0	0	0	0	
2939999999.99993	0	0	-66.7040403381986	-101.904080585015	0	0	0	0	
2941666666.6666	0	0	-63.5626771065356	-155.091832938046	0	0	0	0	
2943333333.33326	0	0	-64.658989449151	163.558390453086	0	0	0	0	
2944999999.99993	0	0	-67.2378595885713	113.951924981955	0	0	0	0	
2946666666.6666	0	0	-67.858645849592	90.8042409871899	0	0	0	0	
2948333333.33326	0	0	-63.299183474262	55.4974091937544	0	0	0	0	
2949999999.99993	0	0	-65.4187325293826	15.6726544774366	0	0	0	0	
2951666666.6666	0	0	-64.1183035339596	-32.7415933590661	0	0	0	0	
2953333333.33326	0	0	-67.5998328457898	-92.0577664903345	0	0	0	0	
2954999999.99993	0	0	-66.7353031680851	-123.375271344974	0	0	0	0	
2956666666.6666	0	0	-66.5698894151262	-155.262023553207	0	0	0	0	
2958333333.33326	0	0	-67.5047824487105	-175.811735536131	0	0	0	0	
2959999999.99993	0	0	-67.7571915233966	157.337686054369	0	0	0	0	
2961666666.6666	0	0	-73.0055294265892	137.178001057324	0	0	0	0	
2963333333.33326	0	0	-68.5964676839438	79.5795064059044	0	0	0	0	
2964999999.99993	0	0	-63.7394409406342	62.2935154131246	0	0	0	0	
2966666666.6666	0	0	-60.8066764790152	10.4775154856783	0	0	0	0	
2968333333.33326	0	0	-59.107030297755	-36.6812409758268	0	0	0	0	
2969999999.99993	0	0	-58.0701678948159	-92.7046759652578	0	0	0	0	
2971666666.66659	0	0	-59.0039983072946	-142.931902314529	0	0	0	0	
2973333333.33326	0	0	-58.5420050013372	-179.066433042748	0	0	0	0	
2974999999.99993	0	0	-58.6233802683695	131.035470316024	0	0	0	0	
2976666666.66659	0	0	-56.6225394413443	84.8201395357306	0	0	0	0	
2978333333.33326	0	0	-56.791293738039	35.3719864421089	0	0	0	0	
2979999999.99993	0	0	-56.4406981276127	-8.02784141123078	0	0	0	0	
2981666666.66659	0	0	-55.6844810074447	-51.8459250486152	0	0	0	0	
2983333333.33326	0	0	-55.3564890169467	-103.480638115433	0	0	0	0	
2984999999.99993	0	0	-54.0723757900093	-143.005133769048	0	0	0	0	
2986666666.66659	0	0	-53.2582078935686	165.671973467751	0	0	0	0	
2988333333.33326	0	0	-52.6398138316149	120.304579367112	0	0	0	0	
2989999999.99993	0	0	-53.1498460161996	72.8045600702535	0	0	0	0	
2991666666.66659	0	0	-52.7357649624657	27.9195303149902	0	0	0	0	
2993333333.33326	0	0	-52.0829252467734	-17.401460436305	0	0	0	0	
2994999999.99993	0	0	-52.5257186163299	-64.5844342170279	0	0	0	0	
2996666666.66659	0	0	-52.2754542570995	-106.539683986573	0	0	0	0	
2998333333.33326	0	0	-51.6759364943135	-152.680380291964	0	0	0	0	
2999999999.99993	0	0	-51.4524447353175	163.019919817311	0	0	0	0	
