!Agilent N9923A: A.05.34
!Date: Tuesday, 08 March 2016 07:56:01
!Model: N9923A
!Serial: MY51491690
!GPS Latitude: 
!GPS Longitude: 
!GPS TimeStamp: 0001-01-01 00:00:00Z
!GPS Seconds Since Last Read: 0
!CHECKSUM:1270006606
!Correction: S11()S21(Rdy)S12()S22()
!S2P File: Measurements:S11,S21,S12,S22:
# Hz S DB R 50
2000000000	0	0	-55.6489629465109	99.3677115413519	0	0	0	0	
2001666666.66667	0	0	-55.2421144964511	54.3444752309001	0	0	0	0	
2003333333.33333	0	0	-54.3614247064328	8.32279749691968	0	0	0	0	
2005000000	0	0	-53.9342817341881	-35.4278489953342	0	0	0	0	
2006666666.66667	0	0	-53.0214318257699	-83.0597174322009	0	0	0	0	
2008333333.33333	0	0	-52.9907153648675	-132.751724826758	0	0	0	0	
2010000000	0	0	-53.2787256466487	178.552212696205	0	0	0	0	
2011666666.66667	0	0	-53.0823793284074	131.275101136157	0	0	0	0	
2013333333.33333	0	0	-54.2900033293613	86.8356835041525	0	0	0	0	
2015000000	0	0	-54.940744338482	42.6012184155627	0	0	0	0	
2016666666.66667	0	0	-55.446054217532	0.351733294936628	0	0	0	0	
2018333333.33333	0	0	-57.5182211225359	-42.5894111473572	0	0	0	0	
2020000000	0	0	-60.0828508334742	-87.6669523322868	0	0	0	0	
2021666666.66667	0	0	-62.9168107397355	-111.636317415663	0	0	0	0	
2023333333.33333	0	0	-64.7600920325979	-131.327442632856	0	0	0	0	
2025000000	0	0	-66.4292002925651	-125.191775023023	0	0	0	0	
2026666666.66667	0	0	-63.4858987853129	-148.812974666338	0	0	0	0	
2028333333.33333	0	0	-60.0012621319077	178.661887332575	0	0	0	0	
2030000000	0	0	-58.7468469023911	143.066912061244	0	0	0	0	
2031666666.66667	0	0	-56.3257871434912	103.765055259922	0	0	0	0	
2033333333.33333	0	0	-54.9206503971977	64.5844977433434	0	0	0	0	
2035000000	0	0	-53.4850647114238	24.6831580109376	0	0	0	0	
2036666666.66667	0	0	-52.6386217177381	-23.0143796773817	0	0	0	0	
2038333333.33334	0	0	-52.2331005159778	-68.3972270368755	0	0	0	0	
2040000000	0	0	-52.6294636673047	-115.450722000322	0	0	0	0	
2041666666.66667	0	0	-53.3207961771182	-165.419685316317	0	0	0	0	
2043333333.33334	0	0	-55.2523265119122	149.761933248842	0	0	0	0	
2045000000	0	0	-57.0303124231608	113.557760205224	0	0	0	0	
2046666666.66667	0	0	-59.5230327461706	97.2194531957825	0	0	0	0	
2048333333.33334	0	0	-57.6207628561009	73.0065664397252	0	0	0	0	
2050000000	0	0	-56.4995439963221	43.7414941941856	0	0	0	0	
2051666666.66667	0	0	-55.1332076009531	10.1846509934322	0	0	0	0	
2053333333.33334	0	0	-54.2202817757539	-34.0472524469839	0	0	0	0	
2055000000	0	0	-54.6215651946729	-76.4720466072739	0	0	0	0	
2056666666.66667	0	0	-55.6805521449112	-112.435884816982	0	0	0	0	
2058333333.33334	0	0	-54.9660466678132	-144.35077743571	0	0	0	0	
2060000000	0	0	-54.189066134906	-173.253053438606	0	0	0	0	
2061666666.66667	0	0	-52.9534468442453	148.012239582019	0	0	0	0	
2063333333.33334	0	0	-51.7726123017938	105.012114857071	0	0	0	0	
2065000000	0	0	-50.7731460918793	65.2525253043252	0	0	0	0	
2066666666.66667	0	0	-50.217229853991	21.7238188982421	0	0	0	0	
2068333333.33334	0	0	-49.7480138031446	-22.6396509758521	0	0	0	0	
2070000000	0	0	-50.0215047754778	-72.62348591721	0	0	0	0	
2071666666.66667	0	0	-51.0513637703973	-120.283832510783	0	0	0	0	
2073333333.33334	0	0	-52.1052636190099	-164.475994995595	0	0	0	0	
2075000000	0	0	-53.5711959961423	154.90159871541	0	0	0	0	
2076666666.66667	0	0	-54.9839900416498	120.775785356506	0	0	0	0	
2078333333.33334	0	0	-55.1760563828348	86.1046863520098	0	0	0	0	
2080000000	0	0	-55.3772144756204	50.0043594876494	0	0	0	0	
2081666666.66667	0	0	-56.1520966853328	8.81272014030383	0	0	0	0	
2083333333.33334	0	0	-56.7949278527463	-36.3172844958298	0	0	0	0	
2085000000	0	0	-58.831361861183	-71.9371995838539	0	0	0	0	
2086666666.66667	0	0	-60.9780205284911	-108.713924591835	0	0	0	0	
2088333333.33334	0	0	-62.658297401971	-137.132628394503	0	0	0	0	
2090000000	0	0	-64.1888750859666	-171.282291983911	0	0	0	0	
2091666666.66667	0	0	-64.738082045201	173.702357252826	0	0	0	0	
2093333333.33334	0	0	-64.2132220385926	136.214804681002	0	0	0	0	
2095000000	0	0	-63.5426129580089	106.576960728879	0	0	0	0	
2096666666.66667	0	0	-63.1114226988316	77.6013858267265	0	0	0	0	
2098333333.33334	0	0	-60.5632370818066	38.6778331424697	0	0	0	0	
2100000000	0	0	-58.5254148029928	-16.7208173533066	0	0	0	0	
2101666666.66667	0	0	-57.494266249155	-72.3674781774129	0	0	0	0	
2103333333.33334	0	0	-57.6359412442842	-128.382138868546	0	0	0	0	
2105000000.00001	0	0	-56.7857192524802	163.151481923616	0	0	0	0	
2106666666.66667	0	0	-56.896233839905	105.151686583521	0	0	0	0	
2108333333.33334	0	0	-56.1621835560029	40.0172688192733	0	0	0	0	
2110000000.00001	0	0	-57.0950325581211	-21.4955689421084	0	0	0	0	
2111666666.66667	0	0	-56.6289187099656	-75.1586537318927	0	0	0	0	
2113333333.33334	0	0	-56.5310239669532	-132.042834285267	0	0	0	0	
2115000000.00001	0	0	-55.3626958110392	172.046661046902	0	0	0	0	
2116666666.66667	0	0	-54.6382004468347	121.876389487139	0	0	0	0	
2118333333.33334	0	0	-54.4994060333172	74.439745948853	0	0	0	0	
2120000000.00001	0	0	-54.9148771768851	30.9865484711501	0	0	0	0	
2121666666.66667	0	0	-54.7761851928574	-12.0155146178803	0	0	0	0	
2123333333.33334	0	0	-54.3087242359883	-62.6946972025308	0	0	0	0	
2125000000.00001	0	0	-53.6856644860913	-117.439252315225	0	0	0	0	
2126666666.66667	0	0	-54.4251830355785	-173.389964444197	0	0	0	0	
2128333333.33334	0	0	-55.9852851945633	138.847630655594	0	0	0	0	
2130000000.00001	0	0	-59.5212308580705	89.6341216128196	0	0	0	0	
2131666666.66667	0	0	-62.4566820878851	61.6875030158513	0	0	0	0	
2133333333.33334	0	0	-64.5539587085585	34.4826545386631	0	0	0	0	
2135000000.00001	0	0	-62.7072352280394	8.304213759644	0	0	0	0	
2136666666.66667	0	0	-62.7847347219066	-32.0847498127909	0	0	0	0	
2138333333.33334	0	0	-62.6099781472933	-73.4808779161178	0	0	0	0	
2140000000.00001	0	0	-62.126188145065	-137.131293764398	0	0	0	0	
2141666666.66667	0	0	-61.6256874385154	171.908930745725	0	0	0	0	
2143333333.33334	0	0	-64.9518483923062	123.851752240723	0	0	0	0	
2145000000.00001	0	0	-64.4496938689535	79.7057950068514	0	0	0	0	
2146666666.66667	0	0	-64.0004432220791	45.3045351776219	0	0	0	0	
2148333333.33334	0	0	-63.2199648905405	-18.8163582931337	0	0	0	0	
2150000000.00001	0	0	-61.5477457619129	-83.9039704127441	0	0	0	0	
2151666666.66667	0	0	-59.8639358146733	-141.61930357721	0	0	0	0	
2153333333.33334	0	0	-59.1934534928665	179.591217999714	0	0	0	0	
2155000000.00001	0	0	-56.064419095461	125.637196548766	0	0	0	0	
2156666666.66667	0	0	-54.474873973538	75.5579302897413	0	0	0	0	
2158333333.33334	0	0	-52.7617669544913	21.1563175527904	0	0	0	0	
2160000000.00001	0	0	-52.3972222779459	-29.2984142305586	0	0	0	0	
2161666666.66667	0	0	-51.7026482210765	-82.6727424349067	0	0	0	0	
2163333333.33334	0	0	-51.7766416241303	-130.273374801875	0	0	0	0	
2165000000.00001	0	0	-52.1290798803855	-178.409998341748	0	0	0	0	
2166666666.66667	0	0	-52.5014842849407	135.599632719186	0	0	0	0	
2168333333.33334	0	0	-52.9664847221651	98.3092461291642	0	0	0	0	
2170000000	0	0	-53.1871096989783	58.6362412756684	0	0	0	0	
2171666666.66667	0	0	-52.659331738159	21.9856490700796	0	0	0	0	
2173333333.33334	0	0	-51.7763873024304	-22.0647516149396	0	0	0	0	
2175000000	0	0	-51.2588816098343	-70.0522441122889	0	0	0	0	
2176666666.66667	0	0	-51.3817574269673	-113.455441724303	0	0	0	0	
2178333333.33334	0	0	-52.0300465095379	-159.429678447319	0	0	0	0	
2180000000	0	0	-52.9812429958631	158.678198111976	0	0	0	0	
2181666666.66667	0	0	-53.35841153864	117.492181999729	0	0	0	0	
2183333333.33334	0	0	-53.2806666572133	84.6847843161791	0	0	0	0	
2185000000	0	0	-54.145149218021	50.7898772124615	0	0	0	0	
2186666666.66667	0	0	-53.0166122335586	17.1936396717437	0	0	0	0	
2188333333.33334	0	0	-52.7620638426672	-24.8777839717107	0	0	0	0	
2190000000	0	0	-51.9287617840632	-69.3303473944033	0	0	0	0	
2191666666.66667	0	0	-51.7104388904987	-117.247452352614	0	0	0	0	
2193333333.33334	0	0	-51.9186715703223	-157.761646269444	0	0	0	0	
2195000000	0	0	-52.8646913965376	160.938976288997	0	0	0	0	
2196666666.66667	0	0	-52.787955921581	125.28220220765	0	0	0	0	
2198333333.33334	0	0	-52.9699924715089	87.3577642558274	0	0	0	0	
2200000000	0	0	-52.9795162085155	51.6360018514064	0	0	0	0	
2201666666.66667	0	0	-51.9267885726339	19.0433749627714	0	0	0	0	
2203333333.33333	0	0	-50.259979021134	-18.1040314078705	0	0	0	0	
2205000000	0	0	-48.5189519971003	-61.7758133434686	0	0	0	0	
2206666666.66667	0	0	-47.580685983546	-111.488782296459	0	0	0	0	
2208333333.33333	0	0	-47.1774959350633	-161.090119241588	0	0	0	0	
2210000000	0	0	-47.4729108681594	148.829978882837	0	0	0	0	
2211666666.66667	0	0	-47.7890787742073	100.425422824617	0	0	0	0	
2213333333.33333	0	0	-48.7301859407641	54.8546976758046	0	0	0	0	
2215000000	0	0	-49.8891279457742	12.0276174595521	0	0	0	0	
2216666666.66667	0	0	-51.4339160603233	-27.8712723346579	0	0	0	0	
2218333333.33333	0	0	-52.3737400026898	-63.6206646602374	0	0	0	0	
2220000000	0	0	-52.3605110964922	-99.1652900244104	0	0	0	0	
2221666666.66667	0	0	-53.1328604785513	-135.90779347237	0	0	0	0	
2223333333.33333	0	0	-53.3217662750209	-170.548721063567	0	0	0	0	
2225000000	0	0	-53.0875010929425	162.666458643651	0	0	0	0	
2226666666.66667	0	0	-51.4717388050554	132.100084029866	0	0	0	0	
2228333333.33333	0	0	-49.7744800496429	88.4402411778748	0	0	0	0	
2230000000	0	0	-49.0772063187342	44.9804458416263	0	0	0	0	
2231666666.66667	0	0	-48.6714947387497	3.6615373116892	0	0	0	0	
2233333333.33333	0	0	-48.5656413222576	-38.7353500630813	0	0	0	0	
2235000000	0	0	-47.4402138618595	-83.1171765481146	0	0	0	0	
2236666666.66667	0	0	-46.9084581615841	-129.182163996101	0	0	0	0	
2238333333.33333	0	0	-47.0534345214266	-173.24428770616	0	0	0	0	
2240000000	0	0	-47.4429711448033	145.220940039351	0	0	0	0	
2241666666.66666	0	0	-47.3808898070904	104.516534426102	0	0	0	0	
2243333333.33333	0	0	-47.1788326698481	64.9337744521087	0	0	0	0	
2245000000	0	0	-47.1490514904316	19.0446830325822	0	0	0	0	
2246666666.66666	0	0	-47.5870731065083	-23.526349118865	0	0	0	0	
2248333333.33333	0	0	-47.8902351091243	-66.2342082856479	0	0	0	0	
2250000000	0	0	-48.0220486446026	-105.211952458957	0	0	0	0	
2251666666.66666	0	0	-48.7496550138601	-149.379281411133	0	0	0	0	
2253333333.33333	0	0	-49.1023099420505	172.827828868773	0	0	0	0	
2255000000	0	0	-49.5111100681604	132.412620033233	0	0	0	0	
2256666666.66666	0	0	-50.2590737092903	94.2958365433103	0	0	0	0	
2258333333.33333	0	0	-50.2447759352873	55.1246512303589	0	0	0	0	
2260000000	0	0	-50.9106827198794	12.3614460491033	0	0	0	0	
2261666666.66666	0	0	-51.5865348158952	-26.9677743332632	0	0	0	0	
2263333333.33333	0	0	-52.3786207428556	-69.8677909396043	0	0	0	0	
2265000000	0	0	-53.7878704442457	-107.184411641893	0	0	0	0	
2266666666.66666	0	0	-54.9973071566625	-140.093086390757	0	0	0	0	
2268333333.33333	0	0	-55.6714280347874	-172.091888630741	0	0	0	0	
2270000000	0	0	-56.4168715286987	162.277716397013	0	0	0	0	
2271666666.66666	0	0	-56.1140004635851	124.856160434929	0	0	0	0	
2273333333.33333	0	0	-55.2143387323014	89.7631248340878	0	0	0	0	
2274999999.99999	0	0	-55.2723374750419	51.3619678131477	0	0	0	0	
2276666666.66666	0	0	-55.0448956521986	14.3458211019522	0	0	0	0	
2278333333.33333	0	0	-55.4713219322224	-24.2048616914791	0	0	0	0	
2279999999.99999	0	0	-54.4111646136144	-67.3906913357756	0	0	0	0	
2281666666.66666	0	0	-54.432818547917	-109.123397660039	0	0	0	0	
2283333333.33333	0	0	-55.4233247513648	-152.63437303519	0	0	0	0	
2284999999.99999	0	0	-55.4877750940964	169.205278295305	0	0	0	0	
2286666666.66666	0	0	-55.317130831794	129.790857060765	0	0	0	0	
2288333333.33333	0	0	-56.2871362105136	87.6067283818427	0	0	0	0	
2289999999.99999	0	0	-57.1907036912252	42.3204166798244	0	0	0	0	
2291666666.66666	0	0	-58.3361296096333	3.10786502627595	0	0	0	0	
2293333333.33333	0	0	-58.5398202216564	-35.1913486130903	0	0	0	0	
2294999999.99999	0	0	-58.5873365150793	-73.3050173452095	0	0	0	0	
2296666666.66666	0	0	-57.7510449172828	-124.230370848095	0	0	0	0	
2298333333.33333	0	0	-57.7474677844677	-179.992625566278	0	0	0	0	
2299999999.99999	0	0	-58.4813012186313	117.721499472825	0	0	0	0	
2301666666.66666	0	0	-60.908519933082	42.5391165468084	0	0	0	0	
2303333333.33333	0	0	-63.0880800060698	-38.0192697203026	0	0	0	0	
2304999999.99999	0	0	-65.0863011692414	-107.481006227812	0	0	0	0	
2306666666.66666	0	0	-64.5426207150509	-178.592083043703	0	0	0	0	
2308333333.33332	0	0	-67.0364183591425	98.2234993217715	0	0	0	0	
2309999999.99999	0	0	-66.5856474607251	4.15550826525935	0	0	0	0	
2311666666.66666	0	0	-65.6802158354067	-75.3619479772186	0	0	0	0	
2313333333.33332	0	0	-66.3687344209101	-155.192312662957	0	0	0	0	
2314999999.99999	0	0	-64.7228574045611	125.126279893161	0	0	0	0	
2316666666.66666	0	0	-64.1667518618934	65.5297056245116	0	0	0	0	
2318333333.33332	0	0	-61.6914442605288	10.9893406672465	0	0	0	0	
2319999999.99999	0	0	-61.1490869383818	-58.0628028209267	0	0	0	0	
2321666666.66666	0	0	-60.2336570745534	-104.423378382592	0	0	0	0	
2323333333.33332	0	0	-59.98833029356	-157.260206151608	0	0	0	0	
2324999999.99999	0	0	-59.034973598433	144.560332828412	0	0	0	0	
2326666666.66666	0	0	-57.9995339645518	87.8880438952475	0	0	0	0	
2328333333.33332	0	0	-58.0591843025645	26.8308448167746	0	0	0	0	
2329999999.99999	0	0	-56.8200134803847	-52.7663824864066	0	0	0	0	
2331666666.66666	0	0	-56.4896603372354	-116.475314518116	0	0	0	0	
2333333333.33332	0	0	-57.0654122744429	-175.719576345561	0	0	0	0	
2334999999.99999	0	0	-56.3254194856508	129.134491012082	0	0	0	0	
2336666666.66666	0	0	-55.2227809130916	82.3940567551154	0	0	0	0	
2338333333.33332	0	0	-53.4334581759473	28.6046289133432	0	0	0	0	
2339999999.99999	0	0	-52.4634173533012	-25.9670018843811	0	0	0	0	
2341666666.66666	0	0	-51.7622118659469	-78.8057462415655	0	0	0	0	
2343333333.33332	0	0	-51.4484318571916	-131.100485412323	0	0	0	0	
2344999999.99999	0	0	-52.334296536681	-177.626061169617	0	0	0	0	
2346666666.66665	0	0	-53.2432222893039	139.623829591487	0	0	0	0	
2348333333.33332	0	0	-54.4753944184747	104.096561168694	0	0	0	0	
2349999999.99999	0	0	-54.5008329671848	79.0128810400436	0	0	0	0	
2351666666.66665	0	0	-52.6563668623336	41.7663308813613	0	0	0	0	
2353333333.33332	0	0	-51.8432252350686	8.57977827237108	0	0	0	0	
2354999999.99999	0	0	-50.8544516729433	-31.7819191303789	0	0	0	0	
2356666666.66665	0	0	-49.7728791540476	-71.9794675075542	0	0	0	0	
2358333333.33332	0	0	-48.535636581504	-111.443608007592	0	0	0	0	
2359999999.99999	0	0	-47.4324405238147	-154.436620187518	0	0	0	0	
2361666666.66665	0	0	-46.4495179156554	161.228081343465	0	0	0	0	
2363333333.33332	0	0	-45.9959045341731	115.825059969448	0	0	0	0	
2364999999.99999	0	0	-46.2046369840112	70.0119128485768	0	0	0	0	
2366666666.66665	0	0	-46.203942921415	26.1078089778973	0	0	0	0	
2368333333.33332	0	0	-46.9817900544859	-14.4712894912247	0	0	0	0	
2369999999.99999	0	0	-47.1039591169414	-52.8582320359116	0	0	0	0	
2371666666.66665	0	0	-46.8652004074959	-90.842497894243	0	0	0	0	
2373333333.33332	0	0	-46.5746465246775	-130.457328443492	0	0	0	0	
2374999999.99999	0	0	-46.1931416978868	-171.890923198156	0	0	0	0	
2376666666.66665	0	0	-46.6084806982489	144.866979998596	0	0	0	0	
2378333333.33332	0	0	-46.8945771892983	105.675447476602	0	0	0	0	
2379999999.99998	0	0	-46.7522266005759	63.0556021155235	0	0	0	0	
2381666666.66665	0	0	-46.6666929584077	22.6044934287442	0	0	0	0	
2383333333.33332	0	0	-46.956002599398	-22.0149878749572	0	0	0	0	
2384999999.99998	0	0	-47.0082312566518	-67.0726913935816	0	0	0	0	
2386666666.66665	0	0	-47.8852318132779	-113.966215804065	0	0	0	0	
2388333333.33332	0	0	-49.7832912128838	-161.489165925993	0	0	0	0	
2389999999.99998	0	0	-53.141321763121	152.344271446765	0	0	0	0	
2391666666.66665	0	0	-57.8926478354522	109.401924521944	0	0	0	0	
2393333333.33332	0	0	-65.5240735203108	75.9381516389486	0	0	0	0	
2394999999.99998	0	0	-73.2933307089098	160.757618336983	0	0	0	0	
2396666666.66665	0	0	-59.118522242482	147.578441605411	0	0	0	0	
2398333333.33332	0	0	-54.2348017234039	94.3542159245245	0	0	0	0	
2399999999.99998	0	0	-51.4520106518522	55.3133088118831	0	0	0	0	
2401666666.66665	0	0	-49.6009807795028	10.5629245765762	0	0	0	0	
2403333333.33332	0	0	-48.4288513759787	-33.7920806058163	0	0	0	0	
2404999999.99998	0	0	-47.3660817688406	-75.5918085165976	0	0	0	0	
2406666666.66665	0	0	-46.6337552443249	-121.644387879245	0	0	0	0	
2408333333.33332	0	0	-46.4714221049218	-165.599373635461	0	0	0	0	
2409999999.99998	0	0	-45.9731283694841	150.320593015234	0	0	0	0	
2411666666.66665	0	0	-46.058283604093	104.969051347454	0	0	0	0	
2413333333.33331	0	0	-46.5540942367751	60.9237688814082	0	0	0	0	
2414999999.99998	0	0	-47.7593777628811	20.9176435381351	0	0	0	0	
2416666666.66665	0	0	-48.0072056830477	-16.3048957983028	0	0	0	0	
2418333333.33331	0	0	-48.1017294850153	-52.3493059669083	0	0	0	0	
2419999999.99998	0	0	-48.416578477891	-90.3684462772757	0	0	0	0	
2421666666.66665	0	0	-48.2165035404053	-131.864203166339	0	0	0	0	
2423333333.33331	0	0	-48.7511506471309	-168.415239630672	0	0	0	0	
2424999999.99998	0	0	-48.7866244284755	150.475132494818	0	0	0	0	
2426666666.66665	0	0	-49.0077257547926	105.942187115223	0	0	0	0	
2428333333.33331	0	0	-50.0415002635464	63.1266869851082	0	0	0	0	
2429999999.99998	0	0	-51.2816125237609	25.4411654095376	0	0	0	0	
2431666666.66665	0	0	-52.9709324979062	-15.8536972651508	0	0	0	0	
2433333333.33331	0	0	-54.9428576826122	-49.0790144394862	0	0	0	0	
2434999999.99998	0	0	-56.3705586778407	-75.1488973063775	0	0	0	0	
2436666666.66665	0	0	-57.4053668249902	-100.558724676995	0	0	0	0	
2438333333.33331	0	0	-58.3403143865818	-132.556785833425	0	0	0	0	
2439999999.99998	0	0	-58.0926195034137	-159.076843780246	0	0	0	0	
2441666666.66665	0	0	-57.9345761508374	165.56634900215	0	0	0	0	
2443333333.33331	0	0	-60.1795032833639	123.366761028601	0	0	0	0	
2444999999.99998	0	0	-63.6492551569107	100.633748769775	0	0	0	0	
2446666666.66665	0	0	-63.0403354927125	126.733257055728	0	0	0	0	
2448333333.33331	0	0	-58.3130549746635	96.7430709855542	0	0	0	0	
2449999999.99998	0	0	-55.3501874732988	53.654908289451	0	0	0	0	
2451666666.66664	0	0	-53.431915343294	10.1991171174835	0	0	0	0	
2453333333.33331	0	0	-51.9193458523249	-28.4636346103049	0	0	0	0	
2454999999.99998	0	0	-50.9614606234748	-68.2266624941347	0	0	0	0	
2456666666.66664	0	0	-50.0820538939714	-111.86628415337	0	0	0	0	
2458333333.33331	0	0	-49.4057990201492	-152.820444579263	0	0	0	0	
2459999999.99998	0	0	-48.7035581862674	166.658113977523	0	0	0	0	
2461666666.66664	0	0	-47.7811735723209	123.380990589953	0	0	0	0	
2463333333.33331	0	0	-47.4891749988696	78.046613657489	0	0	0	0	
2464999999.99998	0	0	-47.3027687229005	33.4004913418757	0	0	0	0	
2466666666.66664	0	0	-47.2339836603019	-12.1955683687911	0	0	0	0	
2468333333.33331	0	0	-47.4221489442837	-57.2018875373011	0	0	0	0	
2469999999.99998	0	0	-48.0530631306586	-102.506946105202	0	0	0	0	
2471666666.66664	0	0	-48.8090225008625	-146.946353304559	0	0	0	0	
2473333333.33331	0	0	-49.8907509439752	167.858945733552	0	0	0	0	
2474999999.99998	0	0	-51.0069808008164	121.094719343818	0	0	0	0	
2476666666.66664	0	0	-53.2329685090167	72.1890002027297	0	0	0	0	
2478333333.33331	0	0	-56.0626272101029	25.412503443381	0	0	0	0	
2479999999.99998	0	0	-59.7578700643425	-0.514383466965155	0	0	0	0	
2481666666.66664	0	0	-62.7517600509975	-7.77512991372076	0	0	0	0	
2483333333.33331	0	0	-61.4926815640776	-27.9592964187509	0	0	0	0	
2484999999.99997	0	0	-59.6318742067055	-70.3020638209574	0	0	0	0	
2486666666.66664	0	0	-57.8137288024344	-115.847683209241	0	0	0	0	
2488333333.33331	0	0	-56.5569074208722	-179.540181229011	0	0	0	0	
2489999999.99997	0	0	-58.4731558539622	115.777298906236	0	0	0	0	
2491666666.66664	0	0	-59.4954605909084	58.4851334639163	0	0	0	0	
2493333333.33331	0	0	-59.5161724110124	-4.19287147905311	0	0	0	0	
2494999999.99997	0	0	-57.8865115898431	-63.8802965645598	0	0	0	0	
2496666666.66664	0	0	-55.8466977316125	-129.159991737134	0	0	0	0	
2498333333.33331	0	0	-53.7583019942545	169.524651604587	0	0	0	0	
2499999999.99997	0	0	-53.430157400665	109.806420558839	0	0	0	0	
2501666666.66664	0	0	-52.3256981411316	51.6596814428051	0	0	0	0	
2503333333.33331	0	0	-52.8150391257899	1.02762894483501	0	0	0	0	
2504999999.99997	0	0	-53.8022467887512	-49.5294277704691	0	0	0	0	
2506666666.66664	0	0	-56.140992700934	-93.6295199664489	0	0	0	0	
2508333333.33331	0	0	-57.3749814843147	-125.094577454707	0	0	0	0	
2509999999.99997	0	0	-58.8806407105573	-156.669063263197	0	0	0	0	
2511666666.66664	0	0	-57.2053999642161	-179.702641844119	0	0	0	0	
2513333333.33331	0	0	-55.8087886312105	134.332255200325	0	0	0	0	
2514999999.99997	0	0	-56.3274361396766	88.7205532232369	0	0	0	0	
2516666666.66664	0	0	-57.0040429448302	42.7560628511992	0	0	0	0	
2518333333.3333	0	0	-58.2229024092096	10.316604045949	0	0	0	0	
2519999999.99997	0	0	-57.7283357418466	-7.16236241133159	0	0	0	0	
2521666666.66664	0	0	-57.6399836416876	-40.7135204665644	0	0	0	0	
2523333333.3333	0	0	-56.3467622320642	-77.874643649255	0	0	0	0	
2524999999.99997	0	0	-56.7714408025203	-113.468027930742	0	0	0	0	
2526666666.66664	0	0	-56.9509358550646	-155.839762109336	0	0	0	0	
2528333333.3333	0	0	-55.5803160514094	169.325637886417	0	0	0	0	
2529999999.99997	0	0	-54.9997363677199	133.273624829441	0	0	0	0	
2531666666.66664	0	0	-54.2951333001509	94.5043533781725	0	0	0	0	
2533333333.3333	0	0	-53.6134343999512	48.4839854665235	0	0	0	0	
2534999999.99997	0	0	-53.0738182182089	3.40962089727692	0	0	0	0	
2536666666.66664	0	0	-53.7946619741129	-41.6011052014873	0	0	0	0	
2538333333.3333	0	0	-54.1371331122303	-84.7524167193081	0	0	0	0	
2539999999.99997	0	0	-53.7342000278293	-129.332869200727	0	0	0	0	
2541666666.66664	0	0	-55.1225105684655	179.767957704963	0	0	0	0	
2543333333.3333	0	0	-57.2735493842255	134.603544243437	0	0	0	0	
2544999999.99997	0	0	-58.5674204692499	94.8943667066177	0	0	0	0	
2546666666.66664	0	0	-60.5399356746447	57.102554364909	0	0	0	0	
2548333333.3333	0	0	-60.8983860640248	22.0288765188198	0	0	0	0	
2549999999.99997	0	0	-59.3284333073053	-26.6007491906117	0	0	0	0	
2551666666.66664	0	0	-59.2749536679768	-72.6846867515059	0	0	0	0	
2553333333.3333	0	0	-59.9514161680186	-120.055727859256	0	0	0	0	
2554999999.99997	0	0	-60.7825972378109	-172.552482529779	0	0	0	0	
2556666666.66663	0	0	-60.9297330542988	143.452793200235	0	0	0	0	
2558333333.3333	0	0	-60.0197909166459	93.4998205115197	0	0	0	0	
2559999999.99997	0	0	-57.8597259411347	34.3480624992774	0	0	0	0	
2561666666.66663	0	0	-56.4806752987274	-12.8473121033312	0	0	0	0	
2563333333.3333	0	0	-54.444103186919	-69.9525248995982	0	0	0	0	
2564999999.99997	0	0	-54.9548674924996	-119.424697421694	0	0	0	0	
2566666666.66663	0	0	-55.0080749087335	-172.809616785861	0	0	0	0	
2568333333.3333	0	0	-55.1722558297484	137.682695621134	0	0	0	0	
2569999999.99997	0	0	-56.3696716046948	100.160087865005	0	0	0	0	
2571666666.66663	0	0	-55.5234298929103	55.6644973247579	0	0	0	0	
2573333333.3333	0	0	-55.9157659474938	17.5102220014642	0	0	0	0	
2574999999.99997	0	0	-56.130226228817	-23.8810610991792	0	0	0	0	
2576666666.66663	0	0	-55.8406145823664	-56.864526988954	0	0	0	0	
2578333333.3333	0	0	-56.8197631400277	-90.896904279608	0	0	0	0	
2579999999.99997	0	0	-56.779485320649	-123.820076624227	0	0	0	0	
2581666666.66663	0	0	-55.2174383785549	-163.240232153631	0	0	0	0	
2583333333.3333	0	0	-55.8578942974113	162.483918241656	0	0	0	0	
2584999999.99997	0	0	-54.4255625477506	114.951808180526	0	0	0	0	
2586666666.66663	0	0	-55.3025746108953	81.7718366905006	0	0	0	0	
2588333333.3333	0	0	-55.336349436456	45.2827899372176	0	0	0	0	
2589999999.99996	0	0	-55.2534626686974	12.3446417829014	0	0	0	0	
2591666666.66663	0	0	-54.8249952673374	-14.0409729018498	0	0	0	0	
2593333333.3333	0	0	-53.8880689896331	-52.6220152270725	0	0	0	0	
2594999999.99996	0	0	-53.1082052185631	-90.3376520947885	0	0	0	0	
2596666666.66663	0	0	-52.9708069423799	-129.562983182553	0	0	0	0	
2598333333.3333	0	0	-52.5491848985293	-162.9276657691	0	0	0	0	
2599999999.99996	0	0	-52.3831100522502	161.386594617917	0	0	0	0	
2601666666.66663	0	0	-51.4865434107471	123.570455453631	0	0	0	0	
2603333333.3333	0	0	-51.0095215101742	88.9128904735996	0	0	0	0	
2604999999.99996	0	0	-50.1219098127975	52.4120209700512	0	0	0	0	
2606666666.66663	0	0	-48.9552866888087	15.0617039978318	0	0	0	0	
2608333333.3333	0	0	-47.7348671629029	-25.2318025422629	0	0	0	0	
2609999999.99996	0	0	-46.8897643639479	-69.1096146271559	0	0	0	0	
2611666666.66663	0	0	-46.2616091857123	-113.662916680346	0	0	0	0	
2613333333.3333	0	0	-46.5649701524397	-158.682318882328	0	0	0	0	
2614999999.99996	0	0	-46.8410718137342	160.412005862342	0	0	0	0	
2616666666.66663	0	0	-46.9844850227557	122.777693422208	0	0	0	0	
2618333333.3333	0	0	-46.56585162904	83.8387641656774	0	0	0	0	
2619999999.99996	0	0	-46.2317954778802	45.9239740627576	0	0	0	0	
2621666666.66663	0	0	-46.0722240793009	4.74277731046892	0	0	0	0	
2623333333.33329	0	0	-45.6698081136701	-36.7048673077883	0	0	0	0	
2624999999.99996	0	0	-45.6007480502814	-76.0408957424772	0	0	0	0	
2626666666.66663	0	0	-45.3932398203944	-119.58002371032	0	0	0	0	
2628333333.33329	0	0	-45.5922818411807	-160.634530991125	0	0	0	0	
2629999999.99996	0	0	-45.4901846085153	156.286801716203	0	0	0	0	
2631666666.66663	0	0	-45.606652460216	113.330354217327	0	0	0	0	
2633333333.33329	0	0	-45.8562153513791	70.4276096602724	0	0	0	0	
2634999999.99996	0	0	-46.5901848187455	25.571224304662	0	0	0	0	
2636666666.66663	0	0	-47.5462976698863	-13.7430587445306	0	0	0	0	
2638333333.33329	0	0	-48.7050013192235	-51.0314815284658	0	0	0	0	
2639999999.99996	0	0	-48.8439021836325	-90.2802479814756	0	0	0	0	
2641666666.66663	0	0	-49.9074914587337	-129.922448005595	0	0	0	0	
2643333333.33329	0	0	-51.4277092361048	-166.408197402873	0	0	0	0	
2644999999.99996	0	0	-51.770644141506	160.98155049404	0	0	0	0	
2646666666.66663	0	0	-51.1062820038699	130.409750770075	0	0	0	0	
2648333333.33329	0	0	-50.4261172313408	93.7224155316061	0	0	0	0	
2649999999.99996	0	0	-49.9867161561257	51.0925453441538	0	0	0	0	
2651666666.66663	0	0	-49.8255896914195	11.5004803659054	0	0	0	0	
2653333333.33329	0	0	-49.4537331164196	-30.8176313556857	0	0	0	0	
2654999999.99996	0	0	-49.2594441579315	-74.7008362865513	0	0	0	0	
2656666666.66663	0	0	-49.5891204607499	-118.328875730333	0	0	0	0	
2658333333.33329	0	0	-50.9276220325164	-165.776248544092	0	0	0	0	
2659999999.99996	0	0	-52.5016786712153	153.738918450798	0	0	0	0	
2661666666.66662	0	0	-53.70255976301	120.446808405762	0	0	0	0	
2663333333.33329	0	0	-54.5823636570989	93.0495008211514	0	0	0	0	
2664999999.99996	0	0	-54.1026474712521	66.4308120718115	0	0	0	0	
2666666666.66662	0	0	-52.59889186153	26.8672939362103	0	0	0	0	
2668333333.33329	0	0	-52.7335679896635	-12.2240436141835	0	0	0	0	
2669999999.99996	0	0	-52.4072685409594	-53.5423888054342	0	0	0	0	
2671666666.66662	0	0	-51.5001226942846	-91.4601706550348	0	0	0	0	
2673333333.33329	0	0	-51.4917955649366	-134.640403069951	0	0	0	0	
2674999999.99996	0	0	-50.7620855435685	-178.818480884066	0	0	0	0	
2676666666.66662	0	0	-51.4923397659062	134.576118518975	0	0	0	0	
2678333333.33329	0	0	-51.87215594856	88.6993184224121	0	0	0	0	
2679999999.99996	0	0	-52.8277026030099	47.5423173518724	0	0	0	0	
2681666666.66662	0	0	-53.4762120822708	7.64986863612717	0	0	0	0	
2683333333.33329	0	0	-54.5912888646434	-29.3208584656114	0	0	0	0	
2684999999.99996	0	0	-55.4108117616511	-62.8688451409749	0	0	0	0	
2686666666.66662	0	0	-55.1731679781663	-91.6583056555682	0	0	0	0	
2688333333.33329	0	0	-54.6965167187195	-127.595701550209	0	0	0	0	
2689999999.99996	0	0	-53.4191002118543	-169.395840544743	0	0	0	0	
2691666666.66662	0	0	-52.6790150067812	153.899303768748	0	0	0	0	
2693333333.33329	0	0	-52.2993995535887	104.344592752954	0	0	0	0	
2694999999.99995	0	0	-51.4088400915011	61.6560970554423	0	0	0	0	
2696666666.66662	0	0	-51.6221523169028	16.359575481999	0	0	0	0	
2698333333.33329	0	0	-52.0120520382946	-36.9937780565007	0	0	0	0	
2699999999.99995	0	0	-53.3869157131742	-86.472856752988	0	0	0	0	
2701666666.66662	0	0	-54.6933767172503	-135.37786258836	0	0	0	0	
2703333333.33329	0	0	-56.7223879090443	176.917596885095	0	0	0	0	
2704999999.99995	0	0	-60.0418289297549	129.783185181008	0	0	0	0	
2706666666.66662	0	0	-63.3981778671369	83.5283076773596	0	0	0	0	
2708333333.33329	0	0	-74.3040123265879	12.8613286325736	0	0	0	0	
2709999999.99995	0	0	-68.7549984386424	-138.036132809454	0	0	0	0	
2711666666.66662	0	0	-61.6295404671786	140.066105978689	0	0	0	0	
2713333333.33329	0	0	-56.5788579503887	88.1061399550501	0	0	0	0	
2714999999.99995	0	0	-55.1866640390135	33.6585249699417	0	0	0	0	
2716666666.66662	0	0	-53.3251517655651	-14.7717996216133	0	0	0	0	
2718333333.33329	0	0	-52.7516423496506	-62.9562587760308	0	0	0	0	
2719999999.99995	0	0	-52.5179861933067	-103.752141076401	0	0	0	0	
2721666666.66662	0	0	-51.451851802752	-146.778286178203	0	0	0	0	
2723333333.33329	0	0	-51.062423793906	168.580492616201	0	0	0	0	
2724999999.99995	0	0	-50.6988702035279	128.145504699439	0	0	0	0	
2726666666.66662	0	0	-50.5234782324026	84.4025419722498	0	0	0	0	
2728333333.33328	0	0	-50.4772996602041	39.2795879707578	0	0	0	0	
2729999999.99995	0	0	-50.4892724628189	-3.68023707129916	0	0	0	0	
2731666666.66662	0	0	-50.4374928246165	-44.9043133831341	0	0	0	0	
2733333333.33328	0	0	-50.6532787598977	-94.3484750040546	0	0	0	0	
2734999999.99995	0	0	-52.2372600163685	-134.182253822004	0	0	0	0	
2736666666.66662	0	0	-52.9954014252082	-171.33325942463	0	0	0	0	
2738333333.33328	0	0	-53.5988187576	153.807128849211	0	0	0	0	
2739999999.99995	0	0	-53.4992204077847	118.251211841787	0	0	0	0	
2741666666.66662	0	0	-53.5854348242307	80.841602504427	0	0	0	0	
2743333333.33328	0	0	-54.2002533650194	43.8208223228296	0	0	0	0	
2744999999.99995	0	0	-55.0238870998783	10.0756637163417	0	0	0	0	
2746666666.66662	0	0	-54.488289308934	-23.3065742953204	0	0	0	0	
2748333333.33328	0	0	-54.2309788273644	-58.091084183926	0	0	0	0	
2749999999.99995	0	0	-53.2127531356133	-92.8716123598579	0	0	0	0	
2751666666.66662	0	0	-51.6120302944921	-129.615326737515	0	0	0	0	
2753333333.33328	0	0	-50.4077347111486	-177.413752120977	0	0	0	0	
2754999999.99995	0	0	-50.4305226875372	138.999717244919	0	0	0	0	
2756666666.66662	0	0	-49.6761639305956	95.7539973467431	0	0	0	0	
2758333333.33328	0	0	-49.5285583081043	53.0751168848625	0	0	0	0	
2759999999.99995	0	0	-49.4254136614459	4.21952984622255	0	0	0	0	
2761666666.66662	0	0	-49.795132235049	-44.5117098996515	0	0	0	0	
2763333333.33328	0	0	-51.1799426095213	-90.9086410238955	0	0	0	0	
2764999999.99995	0	0	-51.9778719143301	-132.290000428192	0	0	0	0	
2766666666.66661	0	0	-53.9791166972488	-168.286785920339	0	0	0	0	
2768333333.33328	0	0	-53.3937069489508	159.79856669935	0	0	0	0	
2769999999.99995	0	0	-52.8440540479393	115.096859882203	0	0	0	0	
2771666666.66661	0	0	-52.8649860218233	74.8081424784548	0	0	0	0	
2773333333.33328	0	0	-52.864437590996	30.1262909768462	0	0	0	0	
2774999999.99995	0	0	-53.6605163838409	-18.5400491279834	0	0	0	0	
2776666666.66661	0	0	-54.9273884516098	-58.7135312473767	0	0	0	0	
2778333333.33328	0	0	-55.4169409191427	-96.9532219473727	0	0	0	0	
2779999999.99995	0	0	-55.1937536694413	-135.525461695841	0	0	0	0	
2781666666.66661	0	0	-55.081693825432	-177.926030606565	0	0	0	0	
2783333333.33328	0	0	-54.3479746620447	145.838364902441	0	0	0	0	
2784999999.99995	0	0	-53.7810087947572	102.996132903769	0	0	0	0	
2786666666.66661	0	0	-54.5589652742598	56.373625338075	0	0	0	0	
2788333333.33328	0	0	-53.9256788431458	13.7530170669903	0	0	0	0	
2789999999.99995	0	0	-54.946702194314	-32.1038489164587	0	0	0	0	
2791666666.66661	0	0	-54.2972383130168	-79.1974992325912	0	0	0	0	
2793333333.33328	0	0	-55.9912571142919	-124.10461425362	0	0	0	0	
2794999999.99995	0	0	-56.2737875217791	-168.418605306922	0	0	0	0	
2796666666.66661	0	0	-57.4397179975977	160.374595403763	0	0	0	0	
2798333333.33328	0	0	-56.9465711906132	123.971933392849	0	0	0	0	
2799999999.99994	0	0	-57.1287744896663	84.0907739599853	0	0	0	0	
2801666666.66661	0	0	-57.3042988470458	44.7310708108296	0	0	0	0	
2803333333.33328	0	0	-57.7885023532061	10.2935714437182	0	0	0	0	
2804999999.99994	0	0	-57.4683472303589	-22.7431359172576	0	0	0	0	
2806666666.66661	0	0	-56.241527105349	-65.9641751395502	0	0	0	0	
2808333333.33328	0	0	-55.6892614607042	-110.201136490167	0	0	0	0	
2809999999.99994	0	0	-55.7390130707263	-151.395158159676	0	0	0	0	
2811666666.66661	0	0	-55.8066040377553	170.97458328429	0	0	0	0	
2813333333.33328	0	0	-55.7365701995938	131.39610027436	0	0	0	0	
2814999999.99994	0	0	-55.8823351694409	90.8259593902792	0	0	0	0	
2816666666.66661	0	0	-56.3714611938715	46.8716122065137	0	0	0	0	
2818333333.33328	0	0	-57.4055069421721	14.3589842006232	0	0	0	0	
2819999999.99994	0	0	-57.0833394100688	-26.3099114874711	0	0	0	0	
2821666666.66661	0	0	-56.5543773000557	-59.364990577516	0	0	0	0	
2823333333.33328	0	0	-56.657517564053	-92.5713171139142	0	0	0	0	
2824999999.99994	0	0	-54.6239109106796	-133.98998217835	0	0	0	0	
2826666666.66661	0	0	-54.7961694436369	-175.196164793842	0	0	0	0	
2828333333.33328	0	0	-54.5694362285148	146.719570376544	0	0	0	0	
2829999999.99994	0	0	-54.1123980668429	104.882987327923	0	0	0	0	
2831666666.66661	0	0	-54.512963872641	63.5156782786626	0	0	0	0	
2833333333.33327	0	0	-55.0520581096266	17.6910624390833	0	0	0	0	
2834999999.99994	0	0	-56.4598891372599	-26.2681838580264	0	0	0	0	
2836666666.66661	0	0	-56.5082442060764	-56.2157111215918	0	0	0	0	
2838333333.33327	0	0	-57.6123125213676	-88.3363104177977	0	0	0	0	
2839999999.99994	0	0	-57.2224076192225	-123.27195498	0	0	0	0	
2841666666.66661	0	0	-56.6786166893026	-160.24058671612	0	0	0	0	
2843333333.33327	0	0	-57.74653717112	172.624553094076	0	0	0	0	
2844999999.99994	0	0	-57.3641969436076	135.478540149509	0	0	0	0	
2846666666.66661	0	0	-56.8064583819228	96.8893979509671	0	0	0	0	
2848333333.33327	0	0	-56.5399308751807	59.0787784198424	0	0	0	0	
2849999999.99994	0	0	-57.6931303280563	31.1369340898506	0	0	0	0	
2851666666.66661	0	0	-56.1955101578317	-1.81984583547949	0	0	0	0	
2853333333.33327	0	0	-55.6568897036602	-43.5047918195552	0	0	0	0	
2854999999.99994	0	0	-54.2910155570208	-81.4656527326657	0	0	0	0	
2856666666.66661	0	0	-53.4099887831609	-121.909616743505	0	0	0	0	
2858333333.33327	0	0	-53.1766079659767	-167.059663356277	0	0	0	0	
2859999999.99994	0	0	-54.5082774857976	154.081453775068	0	0	0	0	
2861666666.66661	0	0	-55.4941018771549	120.56279660781	0	0	0	0	
2863333333.33327	0	0	-54.6848332447584	83.5731666615746	0	0	0	0	
2864999999.99994	0	0	-53.9518471413293	53.0093756060538	0	0	0	0	
2866666666.6666	0	0	-53.3580433310059	10.9453848020667	0	0	0	0	
2868333333.33327	0	0	-52.7583700357072	-26.7557841816987	0	0	0	0	
2869999999.99994	0	0	-52.3005538905251	-71.6786725413807	0	0	0	0	
2871666666.6666	0	0	-52.5630850743523	-115.648942149576	0	0	0	0	
2873333333.33327	0	0	-52.9328595007146	-155.485477466644	0	0	0	0	
2874999999.99994	0	0	-53.9249656386013	170.764219425936	0	0	0	0	
2876666666.6666	0	0	-54.4812775296527	133.574220829625	0	0	0	0	
2878333333.33327	0	0	-53.6479049074504	99.7760258298358	0	0	0	0	
2879999999.99994	0	0	-53.2448626444796	61.5513932173648	0	0	0	0	
2881666666.6666	0	0	-53.0987591904887	20.4175114059489	0	0	0	0	
2883333333.33327	0	0	-52.6690440834251	-22.3946270739918	0	0	0	0	
2884999999.99994	0	0	-52.1359910977631	-62.4179575398785	0	0	0	0	
2886666666.6666	0	0	-52.008310798041	-107.267457115323	0	0	0	0	
2888333333.33327	0	0	-52.5660951250636	-153.174018062826	0	0	0	0	
2889999999.99994	0	0	-53.5490294861234	163.878996571524	0	0	0	0	
2891666666.6666	0	0	-55.202419471153	121.825218583016	0	0	0	0	
2893333333.33327	0	0	-55.4454803389718	85.8532243060379	0	0	0	0	
2894999999.99994	0	0	-55.6712488629301	45.175981569507	0	0	0	0	
2896666666.6666	0	0	-56.1168268327149	5.19090409252888	0	0	0	0	
2898333333.33327	0	0	-56.9466445767629	-40.5004089717665	0	0	0	0	
2899999999.99994	0	0	-57.9956641132066	-83.1546174864249	0	0	0	0	
2901666666.6666	0	0	-59.2397284979331	-123.570670606892	0	0	0	0	
2903333333.33327	0	0	-60.293933472321	-165.619965367831	0	0	0	0	
2904999999.99993	0	0	-61.613695305537	143.031857913853	0	0	0	0	
2906666666.6666	0	0	-65.07045503535	85.6577516855737	0	0	0	0	
2908333333.33327	0	0	-67.4890421898551	23.2678210879867	0	0	0	0	
2909999999.99993	0	0	-72.6499722897532	-102.98235463449	0	0	0	0	
2911666666.6666	0	0	-73.990597970489	169.596200528864	0	0	0	0	
2913333333.33327	0	0	-65.7677814239969	99.9537123246582	0	0	0	0	
2914999999.99993	0	0	-63.6785040811351	50.9439631652292	0	0	0	0	
2916666666.6666	0	0	-63.8081289906839	-5.58246549849019	0	0	0	0	
2918333333.33327	0	0	-65.0315625476259	-51.3848217749413	0	0	0	0	
2919999999.99993	0	0	-66.6730237169472	-79.8056050211618	0	0	0	0	
2921666666.6666	0	0	-65.7435658579095	-103.080860162662	0	0	0	0	
2923333333.33327	0	0	-64.7073946988688	-163.156840573308	0	0	0	0	
2924999999.99993	0	0	-65.3838316139976	175.804429767985	0	0	0	0	
2926666666.6666	0	0	-63.1438314388661	130.833252127288	0	0	0	0	
2928333333.33327	0	0	-61.5649494679023	84.603519842485	0	0	0	0	
2929999999.99993	0	0	-64.6401298508983	41.6106886449763	0	0	0	0	
2931666666.6666	0	0	-66.271514149638	6.30910083207543	0	0	0	0	
2933333333.33327	0	0	-69.3071788583317	-19.9792789503913	0	0	0	0	
2934999999.99993	0	0	-65.8644790047485	-48.4001062907251	0	0	0	0	
2936666666.6666	0	0	-63.2844587042202	-80.4463180702707	0	0	0	0	
2938333333.33326	0	0	-62.6420726132291	-124.483048699737	0	0	0	0	
2939999999.99993	0	0	-61.5134510161653	-167.374596434003	0	0	0	0	
2941666666.6666	0	0	-60.9153937387321	147.138396457231	0	0	0	0	
2943333333.33326	0	0	-61.6173341352026	109.327889825303	0	0	0	0	
2944999999.99993	0	0	-63.5722517762925	50.1621137530058	0	0	0	0	
2946666666.6666	0	0	-67.1949279074565	16.260067644851	0	0	0	0	
2948333333.33326	0	0	-67.2897754889224	-10.6287869708145	0	0	0	0	
2949999999.99993	0	0	-67.1489143589521	-41.5343774846988	0	0	0	0	
2951666666.6666	0	0	-61.8754131000967	-64.2653101924077	0	0	0	0	
2953333333.33326	0	0	-63.5191637848952	-107.392757072083	0	0	0	0	
2954999999.99993	0	0	-60.4959755899799	-150.763670933935	0	0	0	0	
2956666666.6666	0	0	-62.270445700897	149.597555807414	0	0	0	0	
2958333333.33326	0	0	-64.499218569282	103.148934693301	0	0	0	0	
2959999999.99993	0	0	-62.8127786731732	63.5513711430913	0	0	0	0	
2961666666.6666	0	0	-63.055557436083	25.452723808051	0	0	0	0	
2963333333.33326	0	0	-65.0644464426258	-21.3587247345413	0	0	0	0	
2964999999.99993	0	0	-64.0656258732837	-77.6198599433398	0	0	0	0	
2966666666.6666	0	0	-68.2147822882036	-91.1460948525083	0	0	0	0	
2968333333.33326	0	0	-67.4499659599405	-110.789493547481	0	0	0	0	
2969999999.99993	0	0	-66.2470105677322	-137.134623401537	0	0	0	0	
2971666666.66659	0	0	-67.2696226360237	162.811444439182	0	0	0	0	
2973333333.33326	0	0	-63.0236627251832	135.82463390648	0	0	0	0	
2974999999.99993	0	0	-63.0182851650071	96.8140362694348	0	0	0	0	
2976666666.66659	0	0	-59.7290628646278	52.9665404338528	0	0	0	0	
2978333333.33326	0	0	-59.6888720156223	10.2880954001174	0	0	0	0	
2979999999.99993	0	0	-58.1972758769809	-23.5149044386887	0	0	0	0	
2981666666.66659	0	0	-57.8048369367045	-74.7017882668336	0	0	0	0	
2983333333.33326	0	0	-56.1792745029456	-119.166460658367	0	0	0	0	
2984999999.99993	0	0	-55.8297345003838	-151.260786048197	0	0	0	0	
2986666666.66659	0	0	-54.7119474203305	154.967938423255	0	0	0	0	
2988333333.33326	0	0	-53.8809468845355	109.223289256349	0	0	0	0	
2989999999.99993	0	0	-53.6189212159941	63.8998563787823	0	0	0	0	
2991666666.66659	0	0	-53.5634837142456	17.5955695504162	0	0	0	0	
2993333333.33326	0	0	-52.6695400747205	-20.1409622071522	0	0	0	0	
2994999999.99993	0	0	-52.2264311425485	-69.8515760581648	0	0	0	0	
2996666666.66659	0	0	-51.9871186513121	-113.389726230511	0	0	0	0	
2998333333.33326	0	0	-51.4342147195943	-152.038456360467	0	0	0	0	
2999999999.99993	0	0	-51.7844726309547	161.826911749334	0	0	0	0	
