!Agilent N9923A: A.05.34
!Date: Tuesday, 08 March 2016 08:04:44
!Model: N9923A
!Serial: MY51491690
!GPS Latitude: 
!GPS Longitude: 
!GPS TimeStamp: 0001-01-01 00:00:00Z
!GPS Seconds Since Last Read: 0
!CHECKSUM:1586827895
!Correction: S11()S21(Rdy)S12()S22()
!S2P File: Measurements:S11,S21,S12,S22:
# Hz S DB R 50
2000000000	0	0	-58.615356237215	87.2405473771323	0	0	0	0	
2001666666.66667	0	0	-57.997376989339	42.1830109038717	0	0	0	0	
2003333333.33333	0	0	-56.9863769065699	9.96285643006644	0	0	0	0	
2005000000	0	0	-56.0166085076911	-32.6872776455949	0	0	0	0	
2006666666.66667	0	0	-55.1033696754154	-76.9452487357359	0	0	0	0	
2008333333.33333	0	0	-54.929774426804	-120.418027340952	0	0	0	0	
2010000000	0	0	-54.9902917052997	-170.330492583211	0	0	0	0	
2011666666.66667	0	0	-55.9012576485342	145.96883274992	0	0	0	0	
2013333333.33333	0	0	-56.4436319800076	102.355565891809	0	0	0	0	
2015000000	0	0	-56.0588403703306	67.4522997042443	0	0	0	0	
2016666666.66667	0	0	-57.0642906006867	25.3873679190145	0	0	0	0	
2018333333.33333	0	0	-57.3485034506329	-11.822144420655	0	0	0	0	
2020000000	0	0	-58.8753825203286	-44.4978297856824	0	0	0	0	
2021666666.66667	0	0	-59.3025574587672	-71.0980191065826	0	0	0	0	
2023333333.33333	0	0	-60.3129562512558	-101.588250892438	0	0	0	0	
2025000000	0	0	-59.2777035365415	-136.134555470925	0	0	0	0	
2026666666.66667	0	0	-59.5322982345392	-165.164858223224	0	0	0	0	
2028333333.33333	0	0	-57.5573765840279	159.764082045453	0	0	0	0	
2030000000	0	0	-56.8997176044539	123.483345712339	0	0	0	0	
2031666666.66667	0	0	-55.8588080515119	85.7741739841701	0	0	0	0	
2033333333.33333	0	0	-54.8342901848917	43.8705202896182	0	0	0	0	
2035000000	0	0	-54.2784986107305	5.83782386221514	0	0	0	0	
2036666666.66667	0	0	-52.8653568905945	-37.3534289339818	0	0	0	0	
2038333333.33334	0	0	-52.8876745017145	-80.6381086535853	0	0	0	0	
2040000000	0	0	-52.8483271636831	-130.14347962414	0	0	0	0	
2041666666.66667	0	0	-53.3882411775858	-177.544092458125	0	0	0	0	
2043333333.33334	0	0	-54.6593187693948	136.334344198636	0	0	0	0	
2045000000	0	0	-56.8695136065115	97.6596087880757	0	0	0	0	
2046666666.66667	0	0	-59.0658083037973	70.0732875817916	0	0	0	0	
2048333333.33334	0	0	-58.1783623311468	42.4658492443371	0	0	0	0	
2050000000	0	0	-57.0694529316052	8.47558283071711	0	0	0	0	
2051666666.66667	0	0	-57.6271802912834	-33.053471811905	0	0	0	0	
2053333333.33334	0	0	-57.6281317690712	-75.8391179897236	0	0	0	0	
2055000000	0	0	-58.9838023675669	-121.265875023338	0	0	0	0	
2056666666.66667	0	0	-60.9723227603629	-160.462463850913	0	0	0	0	
2058333333.33334	0	0	-65.2655518209239	175.860109394436	0	0	0	0	
2060000000	0	0	-62.4889334361615	179.803427639342	0	0	0	0	
2061666666.66667	0	0	-59.3928502277951	151.343226300974	0	0	0	0	
2063333333.33334	0	0	-56.977712130906	106.052255768582	0	0	0	0	
2065000000	0	0	-55.6729283143715	65.6118969775216	0	0	0	0	
2066666666.66667	0	0	-54.0186511703736	20.4885233492062	0	0	0	0	
2068333333.33334	0	0	-53.7575857296013	-29.9511332052215	0	0	0	0	
2070000000	0	0	-53.6170679598526	-78.4929444768536	0	0	0	0	
2071666666.66667	0	0	-54.5005875117468	-124.468833045321	0	0	0	0	
2073333333.33334	0	0	-55.8105633330473	-162.806820872025	0	0	0	0	
2075000000	0	0	-56.3315830835669	151.41943153367	0	0	0	0	
2076666666.66667	0	0	-56.1230633774956	113.73213917387	0	0	0	0	
2078333333.33334	0	0	-56.7923967356381	72.7305417806566	0	0	0	0	
2080000000	0	0	-57.1910192763253	28.6204153834	0	0	0	0	
2081666666.66667	0	0	-57.8330459322429	-17.0169821832465	0	0	0	0	
2083333333.33334	0	0	-59.1425532514792	-64.0389381342666	0	0	0	0	
2085000000	0	0	-59.3867889576522	-108.403772565977	0	0	0	0	
2086666666.66667	0	0	-59.1499358423691	-163.327324425721	0	0	0	0	
2088333333.33334	0	0	-62.1986603044654	145.739326822926	0	0	0	0	
2090000000	0	0	-61.57576621888	91.8564033743754	0	0	0	0	
2091666666.66667	0	0	-63.1615645850713	38.8682689640871	0	0	0	0	
2093333333.33334	0	0	-63.2840169283523	-23.4087274436474	0	0	0	0	
2095000000	0	0	-61.9882196297241	-81.9254377633146	0	0	0	0	
2096666666.66667	0	0	-63.340701324944	-151.683738235338	0	0	0	0	
2098333333.33334	0	0	-63.0589040076442	148.626221389082	0	0	0	0	
2100000000	0	0	-62.8159327792039	82.7286684407091	0	0	0	0	
2101666666.66667	0	0	-63.8835578853252	13.9079350369856	0	0	0	0	
2103333333.33334	0	0	-67.2347545728747	-61.4581583466707	0	0	0	0	
2105000000.00001	0	0	-69.2439660201786	-143.8551235959	0	0	0	0	
2106666666.66667	0	0	-66.4188026236331	93.5956500249643	0	0	0	0	
2108333333.33334	0	0	-64.6924419279638	21.6500545927988	0	0	0	0	
2110000000.00001	0	0	-62.3211283999902	-43.7754909192904	0	0	0	0	
2111666666.66667	0	0	-61.4993831583302	-97.0333179068414	0	0	0	0	
2113333333.33334	0	0	-60.3576741715617	-153.458889452508	0	0	0	0	
2115000000.00001	0	0	-59.9930207838229	164.791973312128	0	0	0	0	
2116666666.66667	0	0	-58.8560118095578	120.911776381739	0	0	0	0	
2118333333.33334	0	0	-58.6337476454352	74.3012766601881	0	0	0	0	
2120000000.00001	0	0	-59.395088361901	30.1269055560908	0	0	0	0	
2121666666.66667	0	0	-59.9358184159475	1.35332807423682	0	0	0	0	
2123333333.33334	0	0	-58.1358625348773	-46.2813225102184	0	0	0	0	
2125000000.00001	0	0	-58.0972814087688	-84.827036849598	0	0	0	0	
2126666666.66667	0	0	-58.3769277088456	-131.30073985431	0	0	0	0	
2128333333.33334	0	0	-60.72111567559	-170.988019077894	0	0	0	0	
2130000000.00001	0	0	-59.3551885330883	159.594362964299	0	0	0	0	
2131666666.66667	0	0	-58.0544089413657	121.457221114816	0	0	0	0	
2133333333.33334	0	0	-57.8429453999858	77.1959805854059	0	0	0	0	
2135000000.00001	0	0	-56.7016371578094	37.1678106948482	0	0	0	0	
2136666666.66667	0	0	-57.2525656357246	-7.73659173709333	0	0	0	0	
2138333333.33334	0	0	-56.5858989942512	-52.3772024143332	0	0	0	0	
2140000000.00001	0	0	-56.5739765868848	-97.2329801062998	0	0	0	0	
2141666666.66667	0	0	-56.6180363750888	-142.88354854608	0	0	0	0	
2143333333.33334	0	0	-56.1117911876772	168.016744147546	0	0	0	0	
2145000000.00001	0	0	-56.6149160544682	118.648510939101	0	0	0	0	
2146666666.66667	0	0	-57.4890858912484	73.1009862253437	0	0	0	0	
2148333333.33334	0	0	-57.5058667050669	27.0588408830905	0	0	0	0	
2150000000.00001	0	0	-58.7882866618901	-26.5135992142334	0	0	0	0	
2151666666.66667	0	0	-59.2022318009797	-80.4528051618677	0	0	0	0	
2153333333.33334	0	0	-59.2945817527197	-136.959792449797	0	0	0	0	
2155000000.00001	0	0	-58.2019041187514	164.264339570463	0	0	0	0	
2156666666.66667	0	0	-58.5984547730656	109.303129618475	0	0	0	0	
2158333333.33334	0	0	-58.0567345325724	41.9513422433207	0	0	0	0	
2160000000.00001	0	0	-57.1860343952117	-13.1769623820882	0	0	0	0	
2161666666.66667	0	0	-57.1635728456475	-73.1390350566889	0	0	0	0	
2163333333.33334	0	0	-56.1300979984457	-122.002795513344	0	0	0	0	
2165000000.00001	0	0	-55.7951108562557	-172.707947125935	0	0	0	0	
2166666666.66667	0	0	-55.1617626005628	136.754902656816	0	0	0	0	
2168333333.33334	0	0	-54.7162465727363	88.6969497750129	0	0	0	0	
2170000000	0	0	-55.2748623291221	44.3941896000743	0	0	0	0	
2171666666.66667	0	0	-54.6046121582942	4.39573386915465	0	0	0	0	
2173333333.33334	0	0	-54.2276674708014	-34.0410507059888	0	0	0	0	
2175000000	0	0	-53.9162296776808	-78.7214117429496	0	0	0	0	
2176666666.66667	0	0	-53.3535866998501	-125.59895342721	0	0	0	0	
2178333333.33334	0	0	-53.3964973947953	-170.060718508008	0	0	0	0	
2180000000	0	0	-53.4579223061345	150.200647971395	0	0	0	0	
2181666666.66667	0	0	-53.1907059109249	110.413432104807	0	0	0	0	
2183333333.33334	0	0	-52.0819701834904	72.6679826048665	0	0	0	0	
2185000000	0	0	-51.8547763136169	32.415255999559	0	0	0	0	
2186666666.66667	0	0	-51.5710083604658	-4.85481691469421	0	0	0	0	
2188333333.33334	0	0	-50.8317095247814	-47.5499687369901	0	0	0	0	
2190000000	0	0	-50.4001310835883	-91.2030891249069	0	0	0	0	
2191666666.66667	0	0	-49.9459859389561	-136.171500240662	0	0	0	0	
2193333333.33334	0	0	-50.5690049603362	-179.448564073364	0	0	0	0	
2195000000	0	0	-50.8048154181225	140.724965767282	0	0	0	0	
2196666666.66667	0	0	-51.3658416573501	101.737302912845	0	0	0	0	
2198333333.33334	0	0	-51.468848205216	65.7653744103613	0	0	0	0	
2200000000	0	0	-50.9232694667654	28.8816616208849	0	0	0	0	
2201666666.66667	0	0	-50.1879188558368	-8.04842058203385	0	0	0	0	
2203333333.33333	0	0	-48.9806469237125	-44.8936100177769	0	0	0	0	
2205000000	0	0	-48.2656228530195	-85.4571243477565	0	0	0	0	
2206666666.66667	0	0	-47.3952675476142	-130.350284482939	0	0	0	0	
2208333333.33333	0	0	-46.9744387359304	-174.535498084406	0	0	0	0	
2210000000	0	0	-46.8228012834925	138.859721423583	0	0	0	0	
2211666666.66667	0	0	-47.0319181054403	94.102674031139	0	0	0	0	
2213333333.33333	0	0	-47.8818243199471	51.0089744637619	0	0	0	0	
2215000000	0	0	-48.9241770947828	8.36710659068945	0	0	0	0	
2216666666.66667	0	0	-49.8281117176861	-27.2199090791442	0	0	0	0	
2218333333.33333	0	0	-50.4135188165137	-62.8296266529928	0	0	0	0	
2220000000	0	0	-50.1952455708492	-97.7952070758414	0	0	0	0	
2221666666.66667	0	0	-50.3194376309391	-135.122003455395	0	0	0	0	
2223333333.33333	0	0	-50.196616561017	-172.357499090716	0	0	0	0	
2225000000	0	0	-50.0469571333895	151.260290524062	0	0	0	0	
2226666666.66667	0	0	-49.3942784721214	117.848811712361	0	0	0	0	
2228333333.33333	0	0	-48.538538456231	79.112921731037	0	0	0	0	
2230000000	0	0	-47.8981712792333	37.0816602723642	0	0	0	0	
2231666666.66667	0	0	-47.4793568858661	-4.36306053772113	0	0	0	0	
2233333333.33333	0	0	-46.8259666882534	-48.4368241373541	0	0	0	0	
2235000000	0	0	-46.7583987227719	-92.6626091924247	0	0	0	0	
2236666666.66667	0	0	-46.6034793786445	-137.71948697011	0	0	0	0	
2238333333.33333	0	0	-47.0063764909543	178.372762800404	0	0	0	0	
2240000000	0	0	-47.9081820488897	136.521116139346	0	0	0	0	
2241666666.66666	0	0	-48.1886721802478	96.8401064260315	0	0	0	0	
2243333333.33333	0	0	-48.2624877734702	55.456603947894	0	0	0	0	
2245000000	0	0	-48.3198800904364	13.1054271262083	0	0	0	0	
2246666666.66666	0	0	-49.19441284676	-29.4264578115142	0	0	0	0	
2248333333.33333	0	0	-49.5551706002252	-74.575761710413	0	0	0	0	
2250000000	0	0	-50.1816752033121	-116.43792972729	0	0	0	0	
2251666666.66666	0	0	-51.6159542522464	-159.427703516436	0	0	0	0	
2253333333.33333	0	0	-52.9852155847271	160.002105949024	0	0	0	0	
2255000000	0	0	-55.0914780101909	122.488261695445	0	0	0	0	
2256666666.66666	0	0	-57.2673737076047	94.8764445158207	0	0	0	0	
2258333333.33333	0	0	-58.2952894744277	69.5869732334142	0	0	0	0	
2260000000	0	0	-57.0688356685097	50.1026335378581	0	0	0	0	
2261666666.66666	0	0	-56.968971445278	-1.19275681690605	0	0	0	0	
2263333333.33333	0	0	-57.9688979147633	-39.9126200422402	0	0	0	0	
2265000000	0	0	-59.1752837786921	-72.1859362492557	0	0	0	0	
2266666666.66666	0	0	-59.4604088696906	-99.8448172019258	0	0	0	0	
2268333333.33333	0	0	-58.6033817680271	-132.901375338182	0	0	0	0	
2270000000	0	0	-57.9440886246223	-169.717372945588	0	0	0	0	
2271666666.66666	0	0	-57.2465267445509	154.636850450299	0	0	0	0	
2273333333.33333	0	0	-56.9493433246577	107.823218840328	0	0	0	0	
2274999999.99999	0	0	-57.7273508335102	63.1537070195617	0	0	0	0	
2276666666.66666	0	0	-58.0457689643241	28.0951685763792	0	0	0	0	
2278333333.33333	0	0	-58.6547620771238	-13.0777891950742	0	0	0	0	
2279999999.99999	0	0	-58.0368913630655	-60.3274285034177	0	0	0	0	
2281666666.66666	0	0	-59.5619032747044	-105.395547287601	0	0	0	0	
2283333333.33333	0	0	-60.6152689654515	-153.707845312523	0	0	0	0	
2284999999.99999	0	0	-61.3497980352825	169.82252156818	0	0	0	0	
2286666666.66666	0	0	-63.7113096562975	129.053376995274	0	0	0	0	
2288333333.33333	0	0	-66.1754986673903	88.8503461195298	0	0	0	0	
2289999999.99999	0	0	-65.7717279652502	33.7096691294909	0	0	0	0	
2291666666.66666	0	0	-65.4162425881882	-39.4943854634863	0	0	0	0	
2293333333.33333	0	0	-68.1005798236163	-125.834425720215	0	0	0	0	
2294999999.99999	0	0	-66.7339207668987	-167.864401484605	0	0	0	0	
2296666666.66666	0	0	-65.8450608813714	132.544262925829	0	0	0	0	
2298333333.33333	0	0	-62.9254763361554	92.8855732005318	0	0	0	0	
2299999999.99999	0	0	-59.6664016361113	40.418281709722	0	0	0	0	
2301666666.66666	0	0	-57.8859714375722	-19.4553897720696	0	0	0	0	
2303333333.33333	0	0	-57.6439810490437	-74.5471937495525	0	0	0	0	
2304999999.99999	0	0	-58.2911065608207	-125.070009253064	0	0	0	0	
2306666666.66666	0	0	-58.2530200239836	-163.402528185943	0	0	0	0	
2308333333.33332	0	0	-57.9491740172694	155.578930707036	0	0	0	0	
2309999999.99999	0	0	-57.8857993608052	107.930620316479	0	0	0	0	
2311666666.66666	0	0	-59.1673051479634	49.5714313983041	0	0	0	0	
2313333333.33332	0	0	-61.7411174629168	18.476289612945	0	0	0	0	
2314999999.99999	0	0	-63.8765331622004	-15.8472066804498	0	0	0	0	
2316666666.66666	0	0	-63.1112825834833	-41.2404087163246	0	0	0	0	
2318333333.33332	0	0	-61.1923432256648	-77.9617991830737	0	0	0	0	
2319999999.99999	0	0	-60.4257084268361	-131.811748255267	0	0	0	0	
2321666666.66666	0	0	-60.4370468007255	-165.835506589573	0	0	0	0	
2323333333.33332	0	0	-60.1846919369479	139.859759843055	0	0	0	0	
2324999999.99999	0	0	-59.755184929407	97.548754850582	0	0	0	0	
2326666666.66666	0	0	-58.5647727791748	47.9813889206367	0	0	0	0	
2328333333.33332	0	0	-57.8811897634571	-9.38118272439814	0	0	0	0	
2329999999.99999	0	0	-57.0394984251914	-67.8711358216261	0	0	0	0	
2331666666.66666	0	0	-56.5810616550751	-122.296299133832	0	0	0	0	
2333333333.33332	0	0	-55.6385487049956	-169.483278822212	0	0	0	0	
2334999999.99999	0	0	-55.6605325512939	139.68962795044	0	0	0	0	
2336666666.66666	0	0	-53.7235320205912	91.0318006261943	0	0	0	0	
2338333333.33332	0	0	-52.6345236895307	41.2170385780098	0	0	0	0	
2339999999.99999	0	0	-51.8268093450121	-12.1044537268478	0	0	0	0	
2341666666.66666	0	0	-51.6871217241015	-62.717992431162	0	0	0	0	
2343333333.33332	0	0	-52.1419853080378	-108.622208796338	0	0	0	0	
2344999999.99999	0	0	-52.3581713339764	-147.42553555974	0	0	0	0	
2346666666.66665	0	0	-52.1787771752988	172.291433201123	0	0	0	0	
2348333333.33332	0	0	-51.9300273692958	133.681237288628	0	0	0	0	
2349999999.99999	0	0	-51.1804405922877	96.6383875992463	0	0	0	0	
2351666666.66665	0	0	-50.2552951440149	52.8099025017557	0	0	0	0	
2353333333.33332	0	0	-49.8292497724298	11.6252392728071	0	0	0	0	
2354999999.99999	0	0	-49.2325432394779	-29.8335724159561	0	0	0	0	
2356666666.66665	0	0	-48.9388919880362	-74.4741675916451	0	0	0	0	
2358333333.33332	0	0	-49.143666158851	-117.304665718598	0	0	0	0	
2359999999.99999	0	0	-49.0734436154482	-159.178103957979	0	0	0	0	
2361666666.66665	0	0	-49.2415066934456	159.974955845591	0	0	0	0	
2363333333.33332	0	0	-49.0034840957065	118.584430258028	0	0	0	0	
2364999999.99999	0	0	-49.5269150196192	76.7795165125616	0	0	0	0	
2366666666.66665	0	0	-50.4970376310773	36.2099259039348	0	0	0	0	
2368333333.33332	0	0	-51.9838210265104	1.87082257849044	0	0	0	0	
2369999999.99999	0	0	-52.4107044557972	-30.1080219129421	0	0	0	0	
2371666666.66665	0	0	-51.8505304950475	-62.0986706029458	0	0	0	0	
2373333333.33332	0	0	-51.3372306656043	-94.088849969041	0	0	0	0	
2374999999.99999	0	0	-50.0195983184453	-128.582670649824	0	0	0	0	
2376666666.66665	0	0	-49.5913728193841	-167.269598256159	0	0	0	0	
2378333333.33332	0	0	-48.013296301842	152.324150298967	0	0	0	0	
2379999999.99998	0	0	-47.242112939415	107.953568426656	0	0	0	0	
2381666666.66665	0	0	-47.1401766993063	60.2840811994261	0	0	0	0	
2383333333.33332	0	0	-48.0531442892982	11.5500280359394	0	0	0	0	
2384999999.99998	0	0	-49.4265416422764	-31.5596624673316	0	0	0	0	
2386666666.66665	0	0	-50.9289362918057	-76.2265643151945	0	0	0	0	
2388333333.33332	0	0	-53.2842937935373	-111.635778583229	0	0	0	0	
2389999999.99998	0	0	-56.3061508602917	-145.912861508302	0	0	0	0	
2391666666.66665	0	0	-60.474700272442	-156.305964328153	0	0	0	0	
2393333333.33332	0	0	-57.9292445920528	-156.431060313487	0	0	0	0	
2394999999.99998	0	0	-53.9911558742813	175.505391063994	0	0	0	0	
2396666666.66665	0	0	-51.6669738073387	140.40830640513	0	0	0	0	
2398333333.33332	0	0	-49.3057898029102	97.8768033988224	0	0	0	0	
2399999999.99998	0	0	-48.1330809984642	54.6996252092702	0	0	0	0	
2401666666.66665	0	0	-47.3504868986882	9.73720410622276	0	0	0	0	
2403333333.33332	0	0	-46.7446206137242	-33.0314386880377	0	0	0	0	
2404999999.99998	0	0	-46.1056222129046	-77.4233543609276	0	0	0	0	
2406666666.66665	0	0	-46.1135816580617	-123.181881803089	0	0	0	0	
2408333333.33332	0	0	-46.4493040105388	-169.192619070451	0	0	0	0	
2409999999.99998	0	0	-46.9929569923641	147.781211068519	0	0	0	0	
2411666666.66665	0	0	-48.0946344301573	104.81711676676	0	0	0	0	
2413333333.33331	0	0	-49.1480522110526	62.6990417979857	0	0	0	0	
2414999999.99998	0	0	-50.5378615367162	24.8459022987293	0	0	0	0	
2416666666.66665	0	0	-51.6633972953276	-6.28896036845299	0	0	0	0	
2418333333.33331	0	0	-52.3968490724512	-42.6944315498509	0	0	0	0	
2419999999.99998	0	0	-53.2936951396201	-73.5265215108673	0	0	0	0	
2421666666.66665	0	0	-53.3321993934913	-95.0834343675459	0	0	0	0	
2423333333.33331	0	0	-52.3121131713054	-131.851870326989	0	0	0	0	
2424999999.99998	0	0	-52.2508175945047	-167.633884153165	0	0	0	0	
2426666666.66665	0	0	-52.0260026682604	159.944256049655	0	0	0	0	
2428333333.33331	0	0	-51.6065308597057	119.830838170817	0	0	0	0	
2429999999.99998	0	0	-50.6575278392597	83.5494190124423	0	0	0	0	
2431666666.66665	0	0	-50.9524870546074	43.1069424785126	0	0	0	0	
2433333333.33331	0	0	-50.9811117643613	3.58173558499665	0	0	0	0	
2434999999.99998	0	0	-50.9115630745628	-41.2861409223765	0	0	0	0	
2436666666.66665	0	0	-51.5518828022823	-81.2603482380259	0	0	0	0	
2438333333.33331	0	0	-52.8712049939557	-118.066623995616	0	0	0	0	
2439999999.99998	0	0	-54.2826379898355	-156.686724280401	0	0	0	0	
2441666666.66665	0	0	-54.8753597888101	163.72354079689	0	0	0	0	
2443333333.33331	0	0	-56.8045904788532	120.967069658978	0	0	0	0	
2444999999.99998	0	0	-61.9184394076294	72.0871606289173	0	0	0	0	
2446666666.66665	0	0	-70.4392358497931	131.771244204985	0	0	0	0	
2448333333.33331	0	0	-59.5834256460677	103.315765096379	0	0	0	0	
2449999999.99998	0	0	-55.4443573002512	60.8147027318387	0	0	0	0	
2451666666.66664	0	0	-53.7718807608178	18.7160851744428	0	0	0	0	
2453333333.33331	0	0	-52.5017355195968	-26.2474756476186	0	0	0	0	
2454999999.99998	0	0	-51.7783775277568	-64.6344374361306	0	0	0	0	
2456666666.66664	0	0	-51.5197763291862	-102.479905908567	0	0	0	0	
2458333333.33331	0	0	-51.0016956436187	-144.764122758221	0	0	0	0	
2459999999.99998	0	0	-50.5975173982684	175.963334426994	0	0	0	0	
2461666666.66664	0	0	-49.8045386716736	131.87321648944	0	0	0	0	
2463333333.33331	0	0	-49.2940670482785	86.2116565976612	0	0	0	0	
2464999999.99998	0	0	-49.0709282998266	42.5277425850838	0	0	0	0	
2466666666.66664	0	0	-49.2034003902291	-2.22157577908908	0	0	0	0	
2468333333.33331	0	0	-50.011984254523	-48.8152409830014	0	0	0	0	
2469999999.99998	0	0	-50.9613052645252	-96.136360702255	0	0	0	0	
2471666666.66664	0	0	-52.1725159605497	-138.269406005174	0	0	0	0	
2473333333.33331	0	0	-54.3290677307373	177.161649298633	0	0	0	0	
2474999999.99998	0	0	-56.0448811295772	139.016679061135	0	0	0	0	
2476666666.66664	0	0	-58.6811941646749	102.632524701256	0	0	0	0	
2478333333.33331	0	0	-60.9372431236825	67.8283689833974	0	0	0	0	
2479999999.99998	0	0	-63.8094694309388	48.6459499817488	0	0	0	0	
2481666666.66664	0	0	-60.2839413451648	41.9621403885773	0	0	0	0	
2483333333.33331	0	0	-58.5870632938788	-1.84623526986333	0	0	0	0	
2484999999.99997	0	0	-56.989464128222	-52.3159404985891	0	0	0	0	
2486666666.66664	0	0	-56.4275157868574	-109.582222123304	0	0	0	0	
2488333333.33331	0	0	-57.7985319146167	-169.012466568473	0	0	0	0	
2489999999.99997	0	0	-60.602709401435	124.280909975214	0	0	0	0	
2491666666.66664	0	0	-62.1941006384294	62.6993402384513	0	0	0	0	
2493333333.33331	0	0	-62.6133000864433	-15.5885326432935	0	0	0	0	
2494999999.99997	0	0	-62.757277652677	-74.4564465451665	0	0	0	0	
2496666666.66664	0	0	-61.6446509874012	-138.762050891489	0	0	0	0	
2498333333.33331	0	0	-59.8668528979649	162.566533037374	0	0	0	0	
2499999999.99997	0	0	-59.9409103230088	107.691181428661	0	0	0	0	
2501666666.66664	0	0	-60.1719670659674	54.3812001981214	0	0	0	0	
2503333333.33331	0	0	-60.9957195528599	6.60072897761017	0	0	0	0	
2504999999.99997	0	0	-63.4252690719747	-30.4632975093559	0	0	0	0	
2506666666.66664	0	0	-63.6469242487808	-54.9374774065284	0	0	0	0	
2508333333.33331	0	0	-64.9771623989195	-72.6298086344044	0	0	0	0	
2509999999.99997	0	0	-63.3367199065574	-94.0851144496728	0	0	0	0	
2511666666.66664	0	0	-60.5453535969006	-123.267787477674	0	0	0	0	
2513333333.33331	0	0	-58.8019779299061	-168.48851852617	0	0	0	0	
2514999999.99997	0	0	-59.21472615779	144.275296961713	0	0	0	0	
2516666666.66664	0	0	-58.8763415012565	105.617385151577	0	0	0	0	
2518333333.3333	0	0	-57.6688636084473	67.999912074323	0	0	0	0	
2519999999.99997	0	0	-57.1571029695438	34.2512970361899	0	0	0	0	
2521666666.66664	0	0	-55.8103884274511	-11.6283229077191	0	0	0	0	
2523333333.3333	0	0	-55.4648093688269	-51.4953017105456	0	0	0	0	
2524999999.99997	0	0	-56.4482808552648	-89.4909503990558	0	0	0	0	
2526666666.66664	0	0	-55.3562926857105	-126.442426275	0	0	0	0	
2528333333.3333	0	0	-55.6264815709694	-159.281991116438	0	0	0	0	
2529999999.99997	0	0	-54.8728066449028	157.049944165026	0	0	0	0	
2531666666.66664	0	0	-54.0918448394271	121.509920737034	0	0	0	0	
2533333333.3333	0	0	-53.0923926057743	68.0783458600404	0	0	0	0	
2534999999.99997	0	0	-53.4866511111026	20.3634975854209	0	0	0	0	
2536666666.66664	0	0	-53.7674857236822	-23.7600983027713	0	0	0	0	
2538333333.3333	0	0	-53.9933901577328	-63.5653369658962	0	0	0	0	
2539999999.99997	0	0	-54.3511866708975	-115.794807987785	0	0	0	0	
2541666666.66664	0	0	-57.0268444262682	-171.606137542133	0	0	0	0	
2543333333.3333	0	0	-59.9101846924416	150.449943206199	0	0	0	0	
2544999999.99997	0	0	-64.7405454742324	115.762376510395	0	0	0	0	
2546666666.66664	0	0	-66.1525038911829	80.5873454524934	0	0	0	0	
2548333333.3333	0	0	-69.2257856316059	39.2030613397451	0	0	0	0	
2549999999.99997	0	0	-65.8549424846537	42.7209374204186	0	0	0	0	
2551666666.66664	0	0	-64.8575300342285	3.08442442806929	0	0	0	0	
2553333333.3333	0	0	-63.8602441791604	-51.8095206880639	0	0	0	0	
2554999999.99997	0	0	-64.897923943717	-101.466934038468	0	0	0	0	
2556666666.66663	0	0	-65.8738765730171	177.885005052847	0	0	0	0	
2558333333.3333	0	0	-66.0570175615185	103.090701293935	0	0	0	0	
2559999999.99997	0	0	-64.8369745890467	30.1830327427263	0	0	0	0	
2561666666.66663	0	0	-62.6457092768658	-26.1063497500131	0	0	0	0	
2563333333.3333	0	0	-64.3465936534074	-87.9261557629949	0	0	0	0	
2564999999.99997	0	0	-62.4522999812889	-140.07936865864	0	0	0	0	
2566666666.66663	0	0	-61.936197734546	172.01911772199	0	0	0	0	
2568333333.3333	0	0	-62.1995749878924	128.024421226609	0	0	0	0	
2569999999.99997	0	0	-62.3260309258337	93.6469684037055	0	0	0	0	
2571666666.66663	0	0	-60.2074381967591	52.5056655751458	0	0	0	0	
2573333333.3333	0	0	-59.8985623842577	11.5480844474619	0	0	0	0	
2574999999.99997	0	0	-60.6299934280444	-39.1296206512678	0	0	0	0	
2576666666.66663	0	0	-60.6275566948937	-76.6225384906286	0	0	0	0	
2578333333.3333	0	0	-64.9861641007444	-107.634900896256	0	0	0	0	
2579999999.99997	0	0	-64.0732578844497	-117.631635775685	0	0	0	0	
2581666666.66663	0	0	-62.7161919589222	-160.37421428249	0	0	0	0	
2583333333.3333	0	0	-63.0382760838713	166.999504349261	0	0	0	0	
2584999999.99997	0	0	-62.757986936748	117.338612115276	0	0	0	0	
2586666666.66663	0	0	-63.7828739574687	82.9544695462879	0	0	0	0	
2588333333.3333	0	0	-63.5839490953291	53.5640397867233	0	0	0	0	
2589999999.99996	0	0	-61.916767947165	24.5925013608348	0	0	0	0	
2591666666.66663	0	0	-60.9371589852745	-4.93207253672613	0	0	0	0	
2593333333.3333	0	0	-61.9744156876533	-37.3170573190606	0	0	0	0	
2594999999.99996	0	0	-60.5672880593949	-77.384706368015	0	0	0	0	
2596666666.66663	0	0	-61.5485580759241	-103.555314115799	0	0	0	0	
2598333333.3333	0	0	-60.1772058011703	-133.778610514531	0	0	0	0	
2599999999.99996	0	0	-57.5785635181331	-165.311368688918	0	0	0	0	
2601666666.66663	0	0	-56.0800460478352	155.99633123774	0	0	0	0	
2603333333.3333	0	0	-55.3501342560206	115.403889734443	0	0	0	0	
2604999999.99996	0	0	-54.4283388983549	75.5585832716257	0	0	0	0	
2606666666.66663	0	0	-52.7971634614246	34.2644899196007	0	0	0	0	
2608333333.3333	0	0	-51.2387580970479	-7.49156343414907	0	0	0	0	
2609999999.99996	0	0	-50.3629390703131	-51.5641054541933	0	0	0	0	
2611666666.66663	0	0	-49.7856869764829	-99.8950000257626	0	0	0	0	
2613333333.3333	0	0	-50.359971994318	-144.50028701648	0	0	0	0	
2614999999.99996	0	0	-50.4012625524513	169.469522359713	0	0	0	0	
2616666666.66663	0	0	-50.4032990717327	128.193894853363	0	0	0	0	
2618333333.3333	0	0	-50.4382190605193	88.6727206986218	0	0	0	0	
2619999999.99996	0	0	-50.9622125590138	43.5261320645506	0	0	0	0	
2621666666.66663	0	0	-50.5654218159026	4.50104434859681	0	0	0	0	
2623333333.33329	0	0	-50.6785713798906	-38.0495738012067	0	0	0	0	
2624999999.99996	0	0	-51.3691021676388	-78.5395487215864	0	0	0	0	
2626666666.66663	0	0	-51.9153882682144	-121.050277594761	0	0	0	0	
2628333333.33329	0	0	-51.9509805554977	-161.756734298463	0	0	0	0	
2629999999.99996	0	0	-52.8469647853038	159.471081072424	0	0	0	0	
2631666666.66663	0	0	-52.652268276993	115.365654939608	0	0	0	0	
2633333333.33329	0	0	-52.818495857768	73.7899194190094	0	0	0	0	
2634999999.99996	0	0	-53.8529796190009	27.5115789404638	0	0	0	0	
2636666666.66663	0	0	-56.9609334656123	-11.9490052697238	0	0	0	0	
2638333333.33329	0	0	-57.2764676140853	-41.5027503821546	0	0	0	0	
2639999999.99996	0	0	-57.7253918296678	-82.0071777321605	0	0	0	0	
2641666666.66663	0	0	-58.4062458695917	-118.474927166378	0	0	0	0	
2643333333.33329	0	0	-60.8655454828262	-146.723931701107	0	0	0	0	
2644999999.99996	0	0	-61.1203989920464	-170.233030461449	0	0	0	0	
2646666666.66663	0	0	-58.4557826891342	163.99187558064	0	0	0	0	
2648333333.33329	0	0	-57.126055768017	115.87952492294	0	0	0	0	
2649999999.99996	0	0	-56.6659650550432	73.8754852546615	0	0	0	0	
2651666666.66663	0	0	-55.857025856578	37.953258821266	0	0	0	0	
2653333333.33329	0	0	-55.1733016519729	-3.439931872474	0	0	0	0	
2654999999.99996	0	0	-54.6839983483491	-49.7533503748283	0	0	0	0	
2656666666.66663	0	0	-54.9255450564015	-97.1954814503368	0	0	0	0	
2658333333.33329	0	0	-57.1097529198087	-143.59958755414	0	0	0	0	
2659999999.99996	0	0	-57.7017568465473	-178.471077863444	0	0	0	0	
2661666666.66662	0	0	-57.7195130091399	157.25550243657	0	0	0	0	
2663333333.33329	0	0	-56.4048834035128	122.660412638105	0	0	0	0	
2664999999.99996	0	0	-54.3830696869442	77.8592347996656	0	0	0	0	
2666666666.66662	0	0	-53.6440033292968	36.9182464126401	0	0	0	0	
2668333333.33329	0	0	-52.8084583469333	-11.4773367090482	0	0	0	0	
2669999999.99996	0	0	-53.0713231504214	-57.5371258964717	0	0	0	0	
2671666666.66662	0	0	-53.0545311690379	-99.5509906368383	0	0	0	0	
2673333333.33329	0	0	-52.518756276099	-146.573945998299	0	0	0	0	
2674999999.99996	0	0	-52.3904444414741	162.529559097565	0	0	0	0	
2676666666.66662	0	0	-52.4242959500208	116.024997146765	0	0	0	0	
2678333333.33329	0	0	-53.6448929509113	66.5778503650186	0	0	0	0	
2679999999.99996	0	0	-54.9968158531687	23.3182748809287	0	0	0	0	
2681666666.66662	0	0	-56.3828243761931	-22.5206638236296	0	0	0	0	
2683333333.33329	0	0	-58.63487599806	-58.9803119009555	0	0	0	0	
2684999999.99996	0	0	-61.8657768809564	-104.230168114267	0	0	0	0	
2686666666.66662	0	0	-63.6360883385028	-131.598580835606	0	0	0	0	
2688333333.33329	0	0	-62.9432852504859	-138.942668382574	0	0	0	0	
2689999999.99996	0	0	-61.3504478777151	-179.855917864415	0	0	0	0	
2691666666.66662	0	0	-59.8065500966765	147.108882825379	0	0	0	0	
2693333333.33329	0	0	-58.2611769791217	107.415302042294	0	0	0	0	
2694999999.99995	0	0	-56.4319681843376	63.5497238315637	0	0	0	0	
2696666666.66662	0	0	-57.13217532168	11.0618141341481	0	0	0	0	
2698333333.33329	0	0	-57.5668379113703	-44.4119285293999	0	0	0	0	
2699999999.99995	0	0	-58.8933553818297	-96.3141472923297	0	0	0	0	
2701666666.66662	0	0	-62.1142026665601	-143.243237817727	0	0	0	0	
2703333333.33329	0	0	-64.9405508155627	167.970539201319	0	0	0	0	
2704999999.99995	0	0	-70.0063377160869	153.877276951717	0	0	0	0	
2706666666.66662	0	0	-75.9244452046022	95.0280006953021	0	0	0	0	
2708333333.33329	0	0	-70.9151186755323	176.172371517274	0	0	0	0	
2709999999.99995	0	0	-65.5091768043871	141.548522647806	0	0	0	0	
2711666666.66662	0	0	-63.1354708115113	104.732849697639	0	0	0	0	
2713333333.33329	0	0	-61.787747162541	64.960450671486	0	0	0	0	
2714999999.99995	0	0	-58.5642358393255	15.4037153693368	0	0	0	0	
2716666666.66662	0	0	-57.4209262407981	-22.6058130039828	0	0	0	0	
2718333333.33329	0	0	-57.1540552867859	-67.477286605622	0	0	0	0	
2719999999.99995	0	0	-56.5530786249932	-105.07732350879	0	0	0	0	
2721666666.66662	0	0	-55.0478731468468	-150.633713290177	0	0	0	0	
2723333333.33329	0	0	-53.9978198057131	171.308487064587	0	0	0	0	
2724999999.99995	0	0	-53.8243786236241	130.057642326196	0	0	0	0	
2726666666.66662	0	0	-52.8346636130024	87.6061946521148	0	0	0	0	
2728333333.33328	0	0	-53.30049364099	44.5425798330817	0	0	0	0	
2729999999.99995	0	0	-52.8258612339411	0.0750924265454234	0	0	0	0	
2731666666.66662	0	0	-52.6283360635983	-49.0938404803488	0	0	0	0	
2733333333.33328	0	0	-53.304455604174	-98.0798486318246	0	0	0	0	
2734999999.99995	0	0	-54.7582043910444	-139.204315611986	0	0	0	0	
2736666666.66662	0	0	-56.4086815420046	178.981693439932	0	0	0	0	
2738333333.33328	0	0	-55.9593667990698	150.127711364779	0	0	0	0	
2739999999.99995	0	0	-55.9226447935896	114.221425021833	0	0	0	0	
2741666666.66662	0	0	-55.8556136133265	75.0953432701301	0	0	0	0	
2743333333.33328	0	0	-55.860872718005	32.1583336856756	0	0	0	0	
2744999999.99995	0	0	-56.5736767718995	-6.41953318250977	0	0	0	0	
2746666666.66662	0	0	-57.2218826230616	-41.9922096567106	0	0	0	0	
2748333333.33328	0	0	-57.5502151672993	-78.1475862183789	0	0	0	0	
2749999999.99995	0	0	-57.4201845842119	-103.736484831437	0	0	0	0	
2751666666.66662	0	0	-56.6317365389221	-145.871592489594	0	0	0	0	
2753333333.33328	0	0	-54.936863557604	172.575584324478	0	0	0	0	
2754999999.99995	0	0	-54.5336500230553	135.643109077995	0	0	0	0	
2756666666.66662	0	0	-54.1137884466818	88.0199472295501	0	0	0	0	
2758333333.33328	0	0	-53.3647404270999	42.3338976455692	0	0	0	0	
2759999999.99995	0	0	-53.5288046521986	-4.29702267628821	0	0	0	0	
2761666666.66662	0	0	-53.5482775948853	-52.8824093828954	0	0	0	0	
2763333333.33328	0	0	-54.1917017360178	-103.443541168311	0	0	0	0	
2764999999.99995	0	0	-55.7036853192932	-151.121022398079	0	0	0	0	
2766666666.66661	0	0	-58.4575515762216	177.689141991874	0	0	0	0	
2768333333.33328	0	0	-59.4691637927603	149.251918470723	0	0	0	0	
2769999999.99995	0	0	-57.3740261034386	115.736474888088	0	0	0	0	
2771666666.66661	0	0	-57.6846368680006	75.4607908885218	0	0	0	0	
2773333333.33328	0	0	-57.3469571540532	34.7706706521835	0	0	0	0	
2774999999.99995	0	0	-58.5608619751557	-5.68241050169034	0	0	0	0	
2776666666.66661	0	0	-57.6329518292975	-38.1318463613754	0	0	0	0	
2778333333.33328	0	0	-57.1264062949491	-76.2868762155388	0	0	0	0	
2779999999.99995	0	0	-56.0521649020087	-118.361906353137	0	0	0	0	
2781666666.66661	0	0	-55.6962241831655	-157.476765053689	0	0	0	0	
2783333333.33328	0	0	-54.6695658475249	157.594946557269	0	0	0	0	
2784999999.99995	0	0	-53.4503188668995	107.124447375799	0	0	0	0	
2786666666.66661	0	0	-53.9494043452393	64.0291591434139	0	0	0	0	
2788333333.33328	0	0	-54.4759744382304	21.3537641646098	0	0	0	0	
2789999999.99995	0	0	-53.6223032476249	-24.8533885174789	0	0	0	0	
2791666666.66661	0	0	-54.1956359005737	-73.0774956120473	0	0	0	0	
2793333333.33328	0	0	-54.7417905942127	-114.439699897079	0	0	0	0	
2794999999.99995	0	0	-55.383021314318	-154.695596667236	0	0	0	0	
2796666666.66661	0	0	-55.6763945601027	164.523851141768	0	0	0	0	
2798333333.33328	0	0	-56.7876793195341	130.559455905909	0	0	0	0	
2799999999.99994	0	0	-56.6603481279355	96.9487618074643	0	0	0	0	
2801666666.66661	0	0	-57.5754551231323	55.3390780467394	0	0	0	0	
2803333333.33328	0	0	-57.1902615988134	14.8934683191924	0	0	0	0	
2804999999.99994	0	0	-56.8881769229046	-23.8444008567587	0	0	0	0	
2806666666.66661	0	0	-56.0257217030574	-60.6365348288196	0	0	0	0	
2808333333.33328	0	0	-56.2649787126737	-108.803642475924	0	0	0	0	
2809999999.99994	0	0	-56.2956063084394	-148.555953780432	0	0	0	0	
2811666666.66661	0	0	-57.2044213707457	169.026060750125	0	0	0	0	
2813333333.33328	0	0	-57.0070738783158	134.65155203512	0	0	0	0	
2814999999.99994	0	0	-56.7837209254805	97.4073408510375	0	0	0	0	
2816666666.66661	0	0	-58.1761355242372	57.163663803342	0	0	0	0	
2818333333.33328	0	0	-58.5910421503532	21.6741823530112	0	0	0	0	
2819999999.99994	0	0	-59.0683400782903	-17.459679909923	0	0	0	0	
2821666666.66661	0	0	-58.3809093031664	-57.1001847468908	0	0	0	0	
2823333333.33328	0	0	-57.3003740003847	-90.2221070608315	0	0	0	0	
2824999999.99994	0	0	-57.5444000175234	-129.806447373442	0	0	0	0	
2826666666.66661	0	0	-57.0385167941996	-171.828378898719	0	0	0	0	
2828333333.33328	0	0	-57.0218473981064	158.394423128994	0	0	0	0	
2829999999.99994	0	0	-56.7655988487817	120.035832616804	0	0	0	0	
2831666666.66661	0	0	-56.9964052540788	65.7365620413532	0	0	0	0	
2833333333.33327	0	0	-58.0912473825552	14.880005283581	0	0	0	0	
2834999999.99994	0	0	-60.5172568987659	-18.7468831662211	0	0	0	0	
2836666666.66661	0	0	-62.3296125638352	-51.6491254040125	0	0	0	0	
2838333333.33327	0	0	-63.6398082727667	-69.583049203882	0	0	0	0	
2839999999.99994	0	0	-62.6168604337698	-91.9317567913036	0	0	0	0	
2841666666.66661	0	0	-59.7336639396482	-139.094853093124	0	0	0	0	
2843333333.33327	0	0	-59.2521219141567	178.825458697295	0	0	0	0	
2844999999.99994	0	0	-59.0785733592876	136.708730465992	0	0	0	0	
2846666666.66661	0	0	-61.3192899495478	91.0984684617303	0	0	0	0	
2848333333.33327	0	0	-62.9945031962624	50.6277650568341	0	0	0	0	
2849999999.99994	0	0	-64.2561438334611	22.0785556153588	0	0	0	0	
2851666666.66661	0	0	-65.1663836554263	2.62193778764096	0	0	0	0	
2853333333.33327	0	0	-65.5893881508317	-27.1690996915679	0	0	0	0	
2854999999.99994	0	0	-62.9285854196718	-59.4921240421214	0	0	0	0	
2856666666.66661	0	0	-60.9680380694686	-97.8173291594386	0	0	0	0	
2858333333.33327	0	0	-61.1079671687034	-141.826287162427	0	0	0	0	
2859999999.99994	0	0	-61.5016338617857	174.21836055042	0	0	0	0	
2861666666.66661	0	0	-62.6216099107465	148.526048906069	0	0	0	0	
2863333333.33327	0	0	-60.9469668038889	127.769210034656	0	0	0	0	
2864999999.99994	0	0	-59.1204279120055	86.6550557616781	0	0	0	0	
2866666666.6666	0	0	-58.9308258035504	47.7663421514219	0	0	0	0	
2868333333.33327	0	0	-58.0366075816777	1.53035505846219	0	0	0	0	
2869999999.99994	0	0	-58.2040621502244	-44.8848960975077	0	0	0	0	
2871666666.6666	0	0	-58.2943403883363	-91.8853232473967	0	0	0	0	
2873333333.33327	0	0	-58.0484335458029	-126.340235887051	0	0	0	0	
2874999999.99994	0	0	-58.6761069856234	-170.321942394973	0	0	0	0	
2876666666.6666	0	0	-58.8028627832071	157.353935965907	0	0	0	0	
2878333333.33327	0	0	-58.4670159470873	122.046287678672	0	0	0	0	
2879999999.99994	0	0	-57.2265868262985	82.3730512098144	0	0	0	0	
2881666666.6666	0	0	-58.4761852656108	43.093981801177	0	0	0	0	
2883333333.33327	0	0	-58.0911862783797	-8.88183893426214	0	0	0	0	
2884999999.99994	0	0	-57.9984237086413	-45.6301623011321	0	0	0	0	
2886666666.6666	0	0	-57.3875553021567	-91.8351595096147	0	0	0	0	
2888333333.33327	0	0	-57.5144987667644	-139.248046870621	0	0	0	0	
2889999999.99994	0	0	-57.2822292981235	175.201976510954	0	0	0	0	
2891666666.6666	0	0	-60.405007175922	138.467586982431	0	0	0	0	
2893333333.33327	0	0	-60.7912565754678	90.2834964423736	0	0	0	0	
2894999999.99994	0	0	-60.758596732205	46.2970679593747	0	0	0	0	
2896666666.6666	0	0	-62.1362449997382	-13.2925833359417	0	0	0	0	
2898333333.33327	0	0	-63.7326714354463	-67.7215236622163	0	0	0	0	
2899999999.99994	0	0	-65.0695945873061	-105.659989478152	0	0	0	0	
2901666666.6666	0	0	-70.6843968787921	-168.759303659523	0	0	0	0	
2903333333.33327	0	0	-67.6015967802809	163.339514456951	0	0	0	0	
2904999999.99993	0	0	-70.2580715724954	117.43337288911	0	0	0	0	
2906666666.6666	0	0	-68.0181667885215	37.0238131443289	0	0	0	0	
2908333333.33327	0	0	-67.298664352496	-43.387235962131	0	0	0	0	
2909999999.99993	0	0	-68.6717519946598	-95.4278864614324	0	0	0	0	
2911666666.6666	0	0	-69.6553521959977	173.771331428539	0	0	0	0	
2913333333.33327	0	0	-67.5327354217297	118.208118883123	0	0	0	0	
2914999999.99993	0	0	-74.1866045771564	37.9961983451193	0	0	0	0	
2916666666.6666	0	0	-72.5612819328797	-13.2961028147079	0	0	0	0	
2918333333.33327	0	0	-83.1320880381356	-156.162011997359	0	0	0	0	
2919999999.99993	0	0	-72.8039959747856	116.367736892394	0	0	0	0	
2921666666.6666	0	0	-68.3068206464074	23.8150143929011	0	0	0	0	
2923333333.33327	0	0	-68.0532903661138	-43.496287735772	0	0	0	0	
2924999999.99993	0	0	-68.0047818373812	-94.9339413079193	0	0	0	0	
2926666666.6666	0	0	-70.6041198858	-145.39787628041	0	0	0	0	
2928333333.33327	0	0	-68.8574330505654	-166.463982701518	0	0	0	0	
2929999999.99993	0	0	-67.057780063447	160.094570682868	0	0	0	0	
2931666666.6666	0	0	-67.9077657771111	106.358822674604	0	0	0	0	
2933333333.33327	0	0	-68.9519248313185	65.934945667244	0	0	0	0	
2934999999.99993	0	0	-66.3955835879265	12.0345956092572	0	0	0	0	
2936666666.6666	0	0	-67.1244356103844	-29.7340440135819	0	0	0	0	
2938333333.33326	0	0	-66.7093555468674	-73.0673162652116	0	0	0	0	
2939999999.99993	0	0	-66.6004111581176	-140.791912273239	0	0	0	0	
2941666666.6666	0	0	-73.0774226246768	147.57725569122	0	0	0	0	
2943333333.33326	0	0	-104.23178660196	73.2613895776431	0	0	0	0	
2944999999.99993	0	0	-74.0391268396965	-100.699614650662	0	0	0	0	
2946666666.6666	0	0	-67.3204030616244	-161.36647916561	0	0	0	0	
2948333333.33326	0	0	-63.8388162266185	131.496824604114	0	0	0	0	
2949999999.99993	0	0	-64.4307411033659	72.0176087174286	0	0	0	0	
2951666666.6666	0	0	-64.373045338835	21.6381432519768	0	0	0	0	
2953333333.33326	0	0	-65.4100090200494	-27.2601692832177	0	0	0	0	
2954999999.99993	0	0	-67.6205441523586	-73.6332527797512	0	0	0	0	
2956666666.6666	0	0	-63.8526650712517	-108.098170049319	0	0	0	0	
2958333333.33326	0	0	-63.8902194836444	-157.145524760379	0	0	0	0	
2959999999.99993	0	0	-61.0986516921639	-179.566101843605	0	0	0	0	
2961666666.6666	0	0	-61.5267848074934	116.650836212129	0	0	0	0	
2963333333.33326	0	0	-62.5160937490242	87.5492342226454	0	0	0	0	
2964999999.99993	0	0	-61.6681204092526	32.1449430391533	0	0	0	0	
2966666666.6666	0	0	-61.5403346172426	-5.44005749338335	0	0	0	0	
2968333333.33326	0	0	-60.3238151515607	-47.6167985572922	0	0	0	0	
2969999999.99993	0	0	-59.9002535569025	-96.1837291335894	0	0	0	0	
2971666666.66659	0	0	-60.1037632654282	-139.344510348782	0	0	0	0	
2973333333.33326	0	0	-59.8429746785697	170.600141470852	0	0	0	0	
2974999999.99993	0	0	-59.9575950865885	132.800084619372	0	0	0	0	
2976666666.66659	0	0	-59.9917329846107	79.6661612656935	0	0	0	0	
2978333333.33326	0	0	-59.6674154193527	43.7994076677011	0	0	0	0	
2979999999.99993	0	0	-59.0525839540368	-1.70050899345549	0	0	0	0	
2981666666.66659	0	0	-58.4463550471531	-44.506941150778	0	0	0	0	
2983333333.33326	0	0	-57.4107969281742	-87.0872243089227	0	0	0	0	
2984999999.99993	0	0	-56.9685785187103	-125.156713725698	0	0	0	0	
2986666666.66659	0	0	-55.9136841708631	-173.466128002641	0	0	0	0	
2988333333.33326	0	0	-55.9736172571369	137.383878701519	0	0	0	0	
2989999999.99993	0	0	-55.5116431812153	90.6024818933644	0	0	0	0	
2991666666.66659	0	0	-55.3525121296665	42.0255502555074	0	0	0	0	
2993333333.33326	0	0	-55.2311292779802	1.19765950072526	0	0	0	0	
2994999999.99993	0	0	-55.7443400464115	-47.8577639146877	0	0	0	0	
2996666666.66659	0	0	-55.7372019326534	-89.1794236970533	0	0	0	0	
2998333333.33326	0	0	-56.0406185653297	-134.264116553299	0	0	0	0	
2999999999.99993	0	0	-56.2053571403635	-172.668410965981	0	0	0	0	
