!Agilent N9923A: A.05.34
!Date: Tuesday, 08 March 2016 08:11:59
!Model: N9923A
!Serial: MY51491690
!GPS Latitude: 
!GPS Longitude: 
!GPS TimeStamp: 0001-01-01 00:00:00Z
!GPS Seconds Since Last Read: 0
!CHECKSUM:1877929514
!Correction: S11()S21(Rdy)S12()S22()
!S2P File: Measurements:S11,S21,S12,S22:
# Hz S DB R 50
2000000000	0	0	-65.35379173992	53.0537284878617	0	0	0	0	
2001666666.66667	0	0	-68.0460969124264	2.23076208798356	0	0	0	0	
2003333333.33333	0	0	-68.2161314804373	-14.0247055029432	0	0	0	0	
2005000000	0	0	-67.6135269363487	-51.5079947323796	0	0	0	0	
2006666666.66667	0	0	-68.3061517512168	-94.8096048429319	0	0	0	0	
2008333333.33333	0	0	-69.3263143695694	-144.408324947594	0	0	0	0	
2010000000	0	0	-68.2166282580961	173.035351615183	0	0	0	0	
2011666666.66667	0	0	-70.9748779017339	113.394020785175	0	0	0	0	
2013333333.33333	0	0	-71.8697913378862	70.7216344521016	0	0	0	0	
2015000000	0	0	-83.2002268348966	-25.2326975164892	0	0	0	0	
2016666666.66667	0	0	-85.8270527783627	36.3332770779384	0	0	0	0	
2018333333.33333	0	0	-74.7319790723251	76.8644302725127	0	0	0	0	
2020000000	0	0	-81.5779854382578	69.0822818416586	0	0	0	0	
2021666666.66667	0	0	-68.7555628919711	16.0286056576259	0	0	0	0	
2023333333.33333	0	0	-66.0627060215228	-22.6019003632421	0	0	0	0	
2025000000	0	0	-65.4798699907966	-62.4435671918045	0	0	0	0	
2026666666.66667	0	0	-65.8117082400043	-105.213075137963	0	0	0	0	
2028333333.33333	0	0	-65.3655946476141	-170.078452474232	0	0	0	0	
2030000000	0	0	-63.9629078840727	154.01335363723	0	0	0	0	
2031666666.66667	0	0	-66.3943804576704	104.453422475842	0	0	0	0	
2033333333.33333	0	0	-64.0212417507913	71.4429980333567	0	0	0	0	
2035000000	0	0	-64.949125303262	38.3779104873562	0	0	0	0	
2036666666.66667	0	0	-62.7194471237937	4.62110007343541	0	0	0	0	
2038333333.33334	0	0	-61.9606440477835	-33.668558845276	0	0	0	0	
2040000000	0	0	-61.416826179958	-84.1764045582485	0	0	0	0	
2041666666.66667	0	0	-61.8197855297357	-127.900477840777	0	0	0	0	
2043333333.33334	0	0	-62.0782950189054	-167.525218073036	0	0	0	0	
2045000000	0	0	-60.4367510132784	155.638720005451	0	0	0	0	
2046666666.66667	0	0	-60.2369540062771	118.919279190246	0	0	0	0	
2048333333.33334	0	0	-59.1864124105033	77.7018556139953	0	0	0	0	
2050000000	0	0	-58.1577438976374	30.4524743771865	0	0	0	0	
2051666666.66667	0	0	-58.5856883511154	-12.8073519403589	0	0	0	0	
2053333333.33334	0	0	-58.4150998082326	-60.9396149647952	0	0	0	0	
2055000000	0	0	-59.7034912346489	-113.375504658087	0	0	0	0	
2056666666.66667	0	0	-60.7497888800986	-158.643462542801	0	0	0	0	
2058333333.33334	0	0	-64.5511053996138	163.48368342081	0	0	0	0	
2060000000	0	0	-66.83726964855	144.527167253382	0	0	0	0	
2061666666.66667	0	0	-65.4398105047751	115.494902563679	0	0	0	0	
2063333333.33334	0	0	-62.4304074762346	79.5858852904312	0	0	0	0	
2065000000	0	0	-62.2853916269929	28.1871845959541	0	0	0	0	
2066666666.66667	0	0	-62.3790586421274	-5.81383943884424	0	0	0	0	
2068333333.33334	0	0	-62.8780286177595	-54.0437785060609	0	0	0	0	
2070000000	0	0	-63.353880850115	-94.598451097302	0	0	0	0	
2071666666.66667	0	0	-64.9586254840986	-126.488315082917	0	0	0	0	
2073333333.33334	0	0	-66.9170941573949	-164.376725167857	0	0	0	0	
2075000000	0	0	-66.6224420664004	-178.351089947246	0	0	0	0	
2076666666.66667	0	0	-67.1988731026468	134.967292810222	0	0	0	0	
2078333333.33334	0	0	-66.6751843093913	105.504376223926	0	0	0	0	
2080000000	0	0	-65.2321351726685	64.9035510858228	0	0	0	0	
2081666666.66667	0	0	-64.3119009025322	16.0160923884818	0	0	0	0	
2083333333.33334	0	0	-65.712338344567	-34.8476612591039	0	0	0	0	
2085000000	0	0	-69.0571157265796	-60.1281246861672	0	0	0	0	
2086666666.66667	0	0	-69.532200982271	-119.271434257925	0	0	0	0	
2088333333.33334	0	0	-69.0466644777788	-143.92497512713	0	0	0	0	
2090000000	0	0	-71.664147922488	131.313392924238	0	0	0	0	
2091666666.66667	0	0	-70.991626955655	117.431165294111	0	0	0	0	
2093333333.33334	0	0	-76.0588957517868	40.6148257689765	0	0	0	0	
2095000000	0	0	-71.4645757096046	-62.3288729053476	0	0	0	0	
2096666666.66667	0	0	-73.8423119730917	-121.797060118242	0	0	0	0	
2098333333.33334	0	0	-73.9173145769979	159.643577096514	0	0	0	0	
2100000000	0	0	-71.2486615544607	104.232061509957	0	0	0	0	
2101666666.66667	0	0	-72.1004255635011	22.5948118935139	0	0	0	0	
2103333333.33334	0	0	-71.7961741232578	-55.2128158117643	0	0	0	0	
2105000000.00001	0	0	-71.1390058082742	-140.255539371941	0	0	0	0	
2106666666.66667	0	0	-74.1962803149283	132.659277021688	0	0	0	0	
2108333333.33334	0	0	-69.3741130970926	54.5188210425987	0	0	0	0	
2110000000.00001	0	0	-67.6585534931665	-24.4448379242633	0	0	0	0	
2111666666.66667	0	0	-64.5465037256122	-75.8640304757104	0	0	0	0	
2113333333.33334	0	0	-64.5828175157401	-129.849895289378	0	0	0	0	
2115000000.00001	0	0	-64.0724238117573	177.089051016461	0	0	0	0	
2116666666.66667	0	0	-61.3086901038822	121.760393142276	0	0	0	0	
2118333333.33334	0	0	-61.1304935478637	71.5983273933538	0	0	0	0	
2120000000.00001	0	0	-63.0785327422076	30.2433048813053	0	0	0	0	
2121666666.66667	0	0	-62.5728622609826	-0.741578270950546	0	0	0	0	
2123333333.33334	0	0	-62.2703439179391	-48.7247000608773	0	0	0	0	
2125000000.00001	0	0	-60.293594148501	-95.163916766143	0	0	0	0	
2126666666.66667	0	0	-59.7140677442124	-138.781063946069	0	0	0	0	
2128333333.33334	0	0	-60.1778306669542	176.747903976134	0	0	0	0	
2130000000.00001	0	0	-60.8915245658444	134.934250425439	0	0	0	0	
2131666666.66667	0	0	-60.3619811504142	95.8425173595137	0	0	0	0	
2133333333.33334	0	0	-59.8783777158414	46.9815726232791	0	0	0	0	
2135000000.00001	0	0	-61.1981996643735	19.906436157401	0	0	0	0	
2136666666.66667	0	0	-60.3636281374775	-24.702902685945	0	0	0	0	
2138333333.33334	0	0	-58.9356516393395	-68.9207553147876	0	0	0	0	
2140000000.00001	0	0	-58.2355757868588	-116.898347483984	0	0	0	0	
2141666666.66667	0	0	-57.4212070894399	-159.512835019821	0	0	0	0	
2143333333.33334	0	0	-58.133845208373	155.053248115538	0	0	0	0	
2145000000.00001	0	0	-57.0802492947794	111.454614542336	0	0	0	0	
2146666666.66667	0	0	-57.949342594188	63.5385180336524	0	0	0	0	
2148333333.33334	0	0	-57.4343051288404	12.7091430993643	0	0	0	0	
2150000000.00001	0	0	-57.7385369836941	-28.4896817280742	0	0	0	0	
2151666666.66667	0	0	-57.979991727654	-71.2592003189371	0	0	0	0	
2153333333.33334	0	0	-57.7270141485666	-112.125229295062	0	0	0	0	
2155000000.00001	0	0	-57.3781420960206	-165.98094691363	0	0	0	0	
2156666666.66667	0	0	-56.5868649152264	145.487039131864	0	0	0	0	
2158333333.33334	0	0	-57.3201663473994	96.9334135687155	0	0	0	0	
2160000000.00001	0	0	-57.7983997983315	47.3155906495543	0	0	0	0	
2161666666.66667	0	0	-60.6958895587488	-2.26025341210292	0	0	0	0	
2163333333.33334	0	0	-61.1855540233039	-48.7216186432943	0	0	0	0	
2165000000.00001	0	0	-62.9699682890716	-99.2051012764333	0	0	0	0	
2166666666.66667	0	0	-63.2432850552662	-150.123219081933	0	0	0	0	
2168333333.33334	0	0	-64.7490376293967	162.969809436544	0	0	0	0	
2170000000	0	0	-63.546124418421	110.024405472977	0	0	0	0	
2171666666.66667	0	0	-63.6888343296146	62.6978632253105	0	0	0	0	
2173333333.33334	0	0	-63.3622810055255	-7.56534979228839	0	0	0	0	
2175000000	0	0	-62.3184208962481	-78.888871308619	0	0	0	0	
2176666666.66667	0	0	-63.6263001326205	-144.927656240721	0	0	0	0	
2178333333.33334	0	0	-63.8869496939929	146.736707169093	0	0	0	0	
2180000000	0	0	-68.1292900479707	87.0393962348286	0	0	0	0	
2181666666.66667	0	0	-70.8883172140067	44.7294779282185	0	0	0	0	
2183333333.33334	0	0	-80.5410869477425	141.111127260366	0	0	0	0	
2185000000	0	0	-75.0915620744861	114.711200927865	0	0	0	0	
2186666666.66667	0	0	-67.8924680864462	45.1323920953687	0	0	0	0	
2188333333.33334	0	0	-63.1450911654893	4.35990541739912	0	0	0	0	
2190000000	0	0	-62.0806855873413	-69.6091709959796	0	0	0	0	
2191666666.66667	0	0	-60.9021405847334	-111.841050154312	0	0	0	0	
2193333333.33334	0	0	-60.4639034160417	-170.64211866551	0	0	0	0	
2195000000	0	0	-60.718306669301	148.394155063363	0	0	0	0	
2196666666.66667	0	0	-59.0600149500916	105.990786368246	0	0	0	0	
2198333333.33334	0	0	-59.5356491637486	65.2367766940364	0	0	0	0	
2200000000	0	0	-59.6279590757792	25.9929459152603	0	0	0	0	
2201666666.66667	0	0	-59.9739055532989	-11.6023735655341	0	0	0	0	
2203333333.33333	0	0	-59.3313843786976	-44.7212988268219	0	0	0	0	
2205000000	0	0	-57.1059028554102	-93.5469894168007	0	0	0	0	
2206666666.66667	0	0	-56.2644259798877	-139.997619653609	0	0	0	0	
2208333333.33333	0	0	-55.0198299658389	175.27143439099	0	0	0	0	
2210000000	0	0	-54.6629364063207	126.800520599564	0	0	0	0	
2211666666.66667	0	0	-55.2096064437141	78.8822800418218	0	0	0	0	
2213333333.33333	0	0	-55.7728260179434	30.9622365653193	0	0	0	0	
2215000000	0	0	-58.2549986837248	-8.11452087451277	0	0	0	0	
2216666666.66667	0	0	-59.13733383155	-46.4235040905781	0	0	0	0	
2218333333.33333	0	0	-59.5511184821549	-93.5543741915071	0	0	0	0	
2220000000	0	0	-61.5010109407458	-131.025832991781	0	0	0	0	
2221666666.66667	0	0	-62.2505214235123	-160.907588432355	0	0	0	0	
2223333333.33333	0	0	-62.2686854892581	172.671700884414	0	0	0	0	
2225000000	0	0	-63.158677250111	136.219950613049	0	0	0	0	
2226666666.66667	0	0	-62.1294750700328	120.548871968884	0	0	0	0	
2228333333.33333	0	0	-59.163450426908	87.8381206162127	0	0	0	0	
2230000000	0	0	-58.3192572276433	45.7548854314516	0	0	0	0	
2231666666.66667	0	0	-57.0403159373468	8.46892418472517	0	0	0	0	
2233333333.33333	0	0	-55.2468813240457	-39.906863621215	0	0	0	0	
2235000000	0	0	-54.3412993976965	-88.5239101958345	0	0	0	0	
2236666666.66667	0	0	-53.7777475104175	-134.316901175369	0	0	0	0	
2238333333.33333	0	0	-53.9009105937121	-178.609278339347	0	0	0	0	
2240000000	0	0	-54.3518694141454	132.461459804629	0	0	0	0	
2241666666.66666	0	0	-54.2341806406677	90.0095538832396	0	0	0	0	
2243333333.33333	0	0	-54.5841462819341	46.3041417216819	0	0	0	0	
2245000000	0	0	-54.4624516711839	2.2941288644565	0	0	0	0	
2246666666.66666	0	0	-55.6094073881163	-47.4549549516166	0	0	0	0	
2248333333.33333	0	0	-57.1571907554237	-91.4502465238423	0	0	0	0	
2250000000	0	0	-57.588238823029	-132.316132435545	0	0	0	0	
2251666666.66666	0	0	-58.9012619747791	-176.610443075393	0	0	0	0	
2253333333.33333	0	0	-60.3597152684152	144.580426153699	0	0	0	0	
2255000000	0	0	-61.5063855933344	113.848558419387	0	0	0	0	
2256666666.66666	0	0	-61.2494358287067	78.6296436665841	0	0	0	0	
2258333333.33333	0	0	-62.5304052385311	44.8356415963268	0	0	0	0	
2260000000	0	0	-61.8173267325229	3.3840908107745	0	0	0	0	
2261666666.66666	0	0	-61.3550938182065	-41.5631327616479	0	0	0	0	
2263333333.33333	0	0	-61.1483140868815	-94.4747036914408	0	0	0	0	
2265000000	0	0	-61.0187176597522	-138.057782638361	0	0	0	0	
2266666666.66666	0	0	-63.7147998364219	-176.927767327419	0	0	0	0	
2268333333.33333	0	0	-63.4914751528819	146.74968025133	0	0	0	0	
2270000000	0	0	-65.5007019275991	109.873932312107	0	0	0	0	
2271666666.66666	0	0	-65.8358442088086	78.2870577649777	0	0	0	0	
2273333333.33333	0	0	-63.8343138220591	32.2524259073215	0	0	0	0	
2274999999.99999	0	0	-61.1451385386177	-16.6475832387647	0	0	0	0	
2276666666.66666	0	0	-59.8036044354042	-65.9236052697545	0	0	0	0	
2278333333.33333	0	0	-60.0291923287954	-119.67688064789	0	0	0	0	
2279999999.99999	0	0	-60.1811372335231	-161.087596061395	0	0	0	0	
2281666666.66666	0	0	-57.4937342378555	143.946002601564	0	0	0	0	
2283333333.33333	0	0	-59.4259843242335	100.497041325416	0	0	0	0	
2284999999.99999	0	0	-60.5751122826106	59.1509135572645	0	0	0	0	
2286666666.66666	0	0	-59.1620004875391	20.8809073167636	0	0	0	0	
2288333333.33333	0	0	-58.2415284052164	-26.3900278613951	0	0	0	0	
2289999999.99999	0	0	-57.5768403591085	-61.7729247905737	0	0	0	0	
2291666666.66666	0	0	-56.3195639669696	-108.889462744289	0	0	0	0	
2293333333.33333	0	0	-55.3837441018425	-147.042793655485	0	0	0	0	
2294999999.99999	0	0	-54.1089079955405	167.061316624401	0	0	0	0	
2296666666.66666	0	0	-54.0892702341636	118.855175457938	0	0	0	0	
2298333333.33333	0	0	-53.8676294208988	73.3318720452914	0	0	0	0	
2299999999.99999	0	0	-53.9024803235702	25.2785683848192	0	0	0	0	
2301666666.66666	0	0	-53.7284214396025	-22.7070798430037	0	0	0	0	
2303333333.33333	0	0	-54.920844716529	-65.2608861779577	0	0	0	0	
2304999999.99999	0	0	-56.1100741714732	-109.552429887081	0	0	0	0	
2306666666.66666	0	0	-56.9095686992367	-148.473953008197	0	0	0	0	
2308333333.33332	0	0	-58.4216643829469	169.2296840139	0	0	0	0	
2309999999.99999	0	0	-59.5646397168994	138.494816009539	0	0	0	0	
2311666666.66666	0	0	-59.5940417197954	110.007918623678	0	0	0	0	
2313333333.33332	0	0	-60.0449296413959	70.732201133618	0	0	0	0	
2314999999.99999	0	0	-59.7308482647301	30.9984271881383	0	0	0	0	
2316666666.66666	0	0	-60.2601995469626	-7.50762224439427	0	0	0	0	
2318333333.33332	0	0	-59.1327178464978	-43.5086528147946	0	0	0	0	
2319999999.99999	0	0	-59.1487554057716	-90.1914695192376	0	0	0	0	
2321666666.66666	0	0	-59.6400775684421	-133.023503053384	0	0	0	0	
2323333333.33332	0	0	-59.251494256504	179.549475469344	0	0	0	0	
2324999999.99999	0	0	-60.3539943109917	127.296588340009	0	0	0	0	
2326666666.66666	0	0	-61.4426449630031	80.9903463171243	0	0	0	0	
2328333333.33332	0	0	-63.3751445989207	35.7601925020344	0	0	0	0	
2329999999.99999	0	0	-65.5266570986829	-33.730412434005	0	0	0	0	
2331666666.66666	0	0	-65.4862688056931	-103.005479372921	0	0	0	0	
2333333333.33332	0	0	-67.3023965613058	-159.578562824229	0	0	0	0	
2334999999.99999	0	0	-65.4857209559851	131.390155501382	0	0	0	0	
2336666666.66666	0	0	-63.1853441941859	72.5273619658846	0	0	0	0	
2338333333.33332	0	0	-61.9411775029484	7.13674013197968	0	0	0	0	
2339999999.99999	0	0	-60.6715938556487	-59.2781505032323	0	0	0	0	
2341666666.66666	0	0	-62.1810568373272	-119.952039739781	0	0	0	0	
2343333333.33332	0	0	-63.3888732516644	-165.343716079565	0	0	0	0	
2344999999.99999	0	0	-64.9692413716954	166.227428388972	0	0	0	0	
2346666666.66665	0	0	-69.0653228029136	147.698980898464	0	0	0	0	
2348333333.33332	0	0	-65.5079243146147	145.623249044362	0	0	0	0	
2349999999.99999	0	0	-62.4561527448081	108.685268354726	0	0	0	0	
2351666666.66665	0	0	-59.3707622920518	70.5650802635321	0	0	0	0	
2353333333.33332	0	0	-58.843869047377	21.2805622369722	0	0	0	0	
2354999999.99999	0	0	-57.0096496114511	-27.7839299506648	0	0	0	0	
2356666666.66665	0	0	-57.0768844974908	-68.611733187485	0	0	0	0	
2358333333.33332	0	0	-57.2354683914319	-117.290833230152	0	0	0	0	
2359999999.99999	0	0	-57.5982571748104	-161.449872100002	0	0	0	0	
2361666666.66665	0	0	-58.1098111136176	163.142921932378	0	0	0	0	
2363333333.33332	0	0	-58.8555302657331	120.230153342537	0	0	0	0	
2364999999.99999	0	0	-60.3225719208863	89.3446426580374	0	0	0	0	
2366666666.66665	0	0	-62.8223562192308	49.2162463562358	0	0	0	0	
2368333333.33332	0	0	-60.7503709374841	41.6256744116595	0	0	0	0	
2369999999.99999	0	0	-57.6207960667063	7.95781433296157	0	0	0	0	
2371666666.66665	0	0	-55.6803582241888	-27.1453180289635	0	0	0	0	
2373333333.33332	0	0	-54.0342508150152	-73.1048989151789	0	0	0	0	
2374999999.99999	0	0	-53.3595791006634	-118.678210027224	0	0	0	0	
2376666666.66665	0	0	-53.2367579166128	-159.650522025807	0	0	0	0	
2378333333.33332	0	0	-52.4349788574358	155.72348750211	0	0	0	0	
2379999999.99998	0	0	-52.5384276406069	107.090207521225	0	0	0	0	
2381666666.66665	0	0	-53.2712509609684	58.6797090487204	0	0	0	0	
2383333333.33332	0	0	-54.0805804382801	16.5020808603444	0	0	0	0	
2384999999.99998	0	0	-55.9393036506617	-28.4316778754249	0	0	0	0	
2386666666.66665	0	0	-58.635540489997	-59.8408342762558	0	0	0	0	
2388333333.33332	0	0	-59.3121196063769	-89.6316576451717	0	0	0	0	
2389999999.99998	0	0	-60.4130030080643	-101.206238482746	0	0	0	0	
2391666666.66665	0	0	-59.4032202192097	-122.933014730404	0	0	0	0	
2393333333.33332	0	0	-56.5905374707497	-149.222782305013	0	0	0	0	
2394999999.99998	0	0	-54.7843190312983	169.541340922996	0	0	0	0	
2396666666.66665	0	0	-53.0175339878417	132.069771188716	0	0	0	0	
2398333333.33332	0	0	-51.2509304477542	88.8124432102358	0	0	0	0	
2399999999.99998	0	0	-50.5057498436802	44.1255480942206	0	0	0	0	
2401666666.66665	0	0	-50.359639681933	0.681032645576138	0	0	0	0	
2403333333.33332	0	0	-49.6526553428215	-43.8680324650798	0	0	0	0	
2404999999.99998	0	0	-49.2558119181271	-87.0720068740246	0	0	0	0	
2406666666.66665	0	0	-49.3819185850214	-132.534541766124	0	0	0	0	
2408333333.33332	0	0	-49.4021688350326	-179.433427312718	0	0	0	0	
2409999999.99998	0	0	-49.8980793438368	137.71133718006	0	0	0	0	
2411666666.66665	0	0	-51.2466970558361	93.3243624028539	0	0	0	0	
2413333333.33331	0	0	-52.2234287332668	49.7331808136771	0	0	0	0	
2414999999.99998	0	0	-53.3176808361723	10.0969987747501	0	0	0	0	
2416666666.66665	0	0	-54.3487426669519	-25.1450028815679	0	0	0	0	
2418333333.33331	0	0	-55.311627764081	-55.3324974690708	0	0	0	0	
2419999999.99998	0	0	-55.5248157272789	-89.0325947408737	0	0	0	0	
2421666666.66665	0	0	-56.0311086020988	-121.733775039701	0	0	0	0	
2423333333.33331	0	0	-55.6052221490684	-151.391936880276	0	0	0	0	
2424999999.99998	0	0	-54.3253612490083	173.737419438565	0	0	0	0	
2426666666.66665	0	0	-53.427154301837	132.96831776651	0	0	0	0	
2428333333.33331	0	0	-52.3003961010924	88.6235501168736	0	0	0	0	
2429999999.99998	0	0	-52.0826147680011	42.6549260926757	0	0	0	0	
2431666666.66665	0	0	-52.1271662026772	-5.85231378232569	0	0	0	0	
2433333333.33331	0	0	-52.4842842442508	-46.7914950743196	0	0	0	0	
2434999999.99998	0	0	-52.5087069078223	-98.477462674029	0	0	0	0	
2436666666.66665	0	0	-54.4363746019007	-142.120803412051	0	0	0	0	
2438333333.33331	0	0	-55.2107098971262	176.118514752736	0	0	0	0	
2439999999.99998	0	0	-56.0631992861949	131.019019474239	0	0	0	0	
2441666666.66665	0	0	-57.1661109173866	89.1813973247799	0	0	0	0	
2443333333.33331	0	0	-57.4115141957114	43.8985548924399	0	0	0	0	
2444999999.99998	0	0	-57.4899930584057	-10.5825063332164	0	0	0	0	
2446666666.66665	0	0	-58.9331032612056	-67.9851819839412	0	0	0	0	
2448333333.33331	0	0	-59.6829074365984	-124.164764465493	0	0	0	0	
2449999999.99998	0	0	-62.2127290210226	159.555061612841	0	0	0	0	
2451666666.66664	0	0	-64.353254466132	97.6180864841208	0	0	0	0	
2453333333.33331	0	0	-65.8575668505083	54.5575195987684	0	0	0	0	
2454999999.99998	0	0	-65.4240141231212	-5.46114243112284	0	0	0	0	
2456666666.66664	0	0	-64.6261766136422	-50.1734507606876	0	0	0	0	
2458333333.33331	0	0	-63.8563428752032	-90.1664893189849	0	0	0	0	
2459999999.99998	0	0	-61.6849663201885	-152.010887343325	0	0	0	0	
2461666666.66664	0	0	-62.7903717161956	153.132154395375	0	0	0	0	
2463333333.33331	0	0	-62.816485491357	83.0552715014339	0	0	0	0	
2464999999.99998	0	0	-64.338637044241	37.0870997462877	0	0	0	0	
2466666666.66664	0	0	-67.2598841845508	-2.14501573107977	0	0	0	0	
2468333333.33331	0	0	-65.3159587376926	-89.5296401356308	0	0	0	0	
2469999999.99998	0	0	-72.4377954519811	-170.503646461385	0	0	0	0	
2471666666.66664	0	0	-74.1435513007344	92.0412039227878	0	0	0	0	
2473333333.33331	0	0	-72.6156853662166	42.8703320490191	0	0	0	0	
2474999999.99998	0	0	-74.498350551329	-25.2347606912914	0	0	0	0	
2476666666.66664	0	0	-66.1894427665713	-44.6565588381691	0	0	0	0	
2478333333.33331	0	0	-61.5004325348884	-90.5043371791315	0	0	0	0	
2479999999.99998	0	0	-59.5374729788673	-150.620214121744	0	0	0	0	
2481666666.66664	0	0	-59.0097302058884	157.737275609592	0	0	0	0	
2483333333.33331	0	0	-60.1530058104725	97.2058218468166	0	0	0	0	
2484999999.99997	0	0	-59.1546258353159	48.5357906664798	0	0	0	0	
2486666666.66664	0	0	-61.1238648035351	4.52010993782468	0	0	0	0	
2488333333.33331	0	0	-61.6854982367636	-22.8477367544492	0	0	0	0	
2489999999.99997	0	0	-61.6408145528914	-44.9273260783636	0	0	0	0	
2491666666.66664	0	0	-60.6277278606632	-85.5056968282586	0	0	0	0	
2493333333.33331	0	0	-59.1232762538168	-119.595378308895	0	0	0	0	
2494999999.99997	0	0	-58.6804866472049	-163.259518417159	0	0	0	0	
2496666666.66664	0	0	-57.2232177517886	156.02411489301	0	0	0	0	
2498333333.33331	0	0	-56.4044870604371	110.682434488776	0	0	0	0	
2499999999.99997	0	0	-55.3672359934883	65.3790220914393	0	0	0	0	
2501666666.66664	0	0	-53.9928529148159	19.5608643861182	0	0	0	0	
2503333333.33331	0	0	-53.77169874922	-29.4107871509958	0	0	0	0	
2504999999.99997	0	0	-54.5338930561347	-78.4834132765525	0	0	0	0	
2506666666.66664	0	0	-54.9827437352308	-126.020447922129	0	0	0	0	
2508333333.33331	0	0	-56.2987142628974	-175.004572048579	0	0	0	0	
2509999999.99997	0	0	-57.8381030414776	137.173615608414	0	0	0	0	
2511666666.66664	0	0	-58.3903864594996	101.095645642734	0	0	0	0	
2513333333.33331	0	0	-58.0867359118909	49.8581026145464	0	0	0	0	
2514999999.99997	0	0	-60.1246952376378	3.87732180653973	0	0	0	0	
2516666666.66664	0	0	-61.2726859918507	-44.1301495274748	0	0	0	0	
2518333333.3333	0	0	-61.6000648920798	-96.3570916924825	0	0	0	0	
2519999999.99997	0	0	-64.9542738535747	-133.234099073628	0	0	0	0	
2521666666.66664	0	0	-69.2017255266172	150.631261018873	0	0	0	0	
2523333333.3333	0	0	-76.0492429107941	111.006960164246	0	0	0	0	
2524999999.99997	0	0	-71.3788884426259	0.564358714463692	0	0	0	0	
2526666666.66664	0	0	-74.2900548740944	-113.211330776574	0	0	0	0	
2528333333.3333	0	0	-81.0551463260064	-118.459362659437	0	0	0	0	
2529999999.99997	0	0	-82.3025937317854	-64.5962581175879	0	0	0	0	
2531666666.66664	0	0	-77.2340007840391	158.594091638983	0	0	0	0	
2533333333.3333	0	0	-75.0558637968374	73.6020484725737	0	0	0	0	
2534999999.99997	0	0	-69.9182180910701	35.5434053257074	0	0	0	0	
2536666666.66664	0	0	-73.4063808615119	-11.3467531146037	0	0	0	0	
2538333333.3333	0	0	-71.2581381397454	-63.8943739439167	0	0	0	0	
2539999999.99997	0	0	-74.124307100631	-151.765932763735	0	0	0	0	
2541666666.66664	0	0	-70.1799790758896	128.078242557506	0	0	0	0	
2543333333.3333	0	0	-69.9787661235371	68.482638985806	0	0	0	0	
2544999999.99997	0	0	-72.1723228019226	-2.63024880368272	0	0	0	0	
2546666666.66664	0	0	-71.7644156234889	-14.2117317513226	0	0	0	0	
2548333333.3333	0	0	-68.1868936920972	-86.2940500548318	0	0	0	0	
2549999999.99997	0	0	-68.0462777357525	-141.57540463299	0	0	0	0	
2551666666.66664	0	0	-65.9042904811558	152.09480801573	0	0	0	0	
2553333333.3333	0	0	-68.6724876521035	91.3355669196882	0	0	0	0	
2554999999.99997	0	0	-70.9077371125014	59.3837366824852	0	0	0	0	
2556666666.66663	0	0	-73.1817411806128	70.2792552588361	0	0	0	0	
2558333333.3333	0	0	-68.3768178494546	35.6194965232256	0	0	0	0	
2559999999.99997	0	0	-64.4564382446126	-22.4551521803304	0	0	0	0	
2561666666.66663	0	0	-63.7209918166073	-54.7583340247298	0	0	0	0	
2563333333.3333	0	0	-62.1210466196014	-100.213536270687	0	0	0	0	
2564999999.99997	0	0	-62.8116839756252	-139.022553574956	0	0	0	0	
2566666666.66663	0	0	-63.1424158100845	167.918766892117	0	0	0	0	
2568333333.3333	0	0	-62.7981617915856	129.600845159299	0	0	0	0	
2569999999.99997	0	0	-62.3071176976102	90.848504449646	0	0	0	0	
2571666666.66663	0	0	-61.2519185737925	50.264340324782	0	0	0	0	
2573333333.3333	0	0	-61.8557659539415	9.58529027095811	0	0	0	0	
2574999999.99997	0	0	-61.5938695018326	-21.77829800291	0	0	0	0	
2576666666.66663	0	0	-60.9235859934423	-66.9305919719377	0	0	0	0	
2578333333.3333	0	0	-60.7419812013211	-101.456273456843	0	0	0	0	
2579999999.99997	0	0	-61.2583158114317	-138.14424512027	0	0	0	0	
2581666666.66663	0	0	-60.619838360599	173.442495802991	0	0	0	0	
2583333333.3333	0	0	-59.8973550985458	123.856960953682	0	0	0	0	
2584999999.99997	0	0	-59.8039789090123	72.790400603834	0	0	0	0	
2586666666.66663	0	0	-62.4967487487338	29.1213842209195	0	0	0	0	
2588333333.3333	0	0	-62.3839244964381	-7.31632141241157	0	0	0	0	
2589999999.99996	0	0	-64.3186771915785	-43.2984571358639	0	0	0	0	
2591666666.66663	0	0	-66.0089107032588	-80.7276915578338	0	0	0	0	
2593333333.3333	0	0	-67.3418642530469	-123.716879814567	0	0	0	0	
2594999999.99996	0	0	-69.9614767941024	-165.512157841479	0	0	0	0	
2596666666.66663	0	0	-72.5921884593872	114.050980836246	0	0	0	0	
2598333333.3333	0	0	-83.2970449690291	65.456086942313	0	0	0	0	
2599999999.99996	0	0	-74.7958183665521	-92.532104962634	0	0	0	0	
2601666666.66663	0	0	-68.1570005621995	-175.381458567933	0	0	0	0	
2603333333.3333	0	0	-69.1813070859497	150.405083171595	0	0	0	0	
2604999999.99996	0	0	-64.7423988977559	97.4288873325624	0	0	0	0	
2606666666.66663	0	0	-61.9396152570708	50.4850968271966	0	0	0	0	
2608333333.3333	0	0	-59.9375124134473	5.96108171960177	0	0	0	0	
2609999999.99996	0	0	-58.52558436791	-47.1455033452708	0	0	0	0	
2611666666.66663	0	0	-57.3114782799185	-98.8863535541626	0	0	0	0	
2613333333.3333	0	0	-57.3003890980401	-156.713015997032	0	0	0	0	
2614999999.99996	0	0	-59.634384046248	158.655038218668	0	0	0	0	
2616666666.66663	0	0	-60.3515393078884	125.888246218698	0	0	0	0	
2618333333.3333	0	0	-59.5353494731081	92.1500791344559	0	0	0	0	
2619999999.99996	0	0	-59.3768617940482	42.9962811010733	0	0	0	0	
2621666666.66663	0	0	-58.5797754220405	2.22433407570343	0	0	0	0	
2623333333.33329	0	0	-60.2691740457576	-40.9822707667396	0	0	0	0	
2624999999.99996	0	0	-59.9710502178539	-81.1765798400701	0	0	0	0	
2626666666.66663	0	0	-60.8029562362517	-127.509127117395	0	0	0	0	
2628333333.33329	0	0	-60.3476433443492	-170.059395032707	0	0	0	0	
2629999999.99996	0	0	-59.3544465588841	149.15614611992	0	0	0	0	
2631666666.66663	0	0	-60.1182471973016	95.0277320731172	0	0	0	0	
2633333333.33329	0	0	-61.9609064723633	49.724831898101	0	0	0	0	
2634999999.99996	0	0	-64.353074217199	10.4063823034626	0	0	0	0	
2636666666.66663	0	0	-68.5845966460217	-48.694807404481	0	0	0	0	
2638333333.33329	0	0	-71.0605731478696	-41.9030904469307	0	0	0	0	
2639999999.99996	0	0	-67.3218328273497	-55.6249231781421	0	0	0	0	
2641666666.66663	0	0	-68.4164211023618	-99.5158478314864	0	0	0	0	
2643333333.33329	0	0	-71.101076971054	179.625508716409	0	0	0	0	
2644999999.99996	0	0	-74.8178197846171	160.113902734865	0	0	0	0	
2646666666.66663	0	0	-74.4167403490607	144.580228565389	0	0	0	0	
2648333333.33329	0	0	-69.9207797981401	130.357078840345	0	0	0	0	
2649999999.99996	0	0	-67.8549671412705	87.5569000829524	0	0	0	0	
2651666666.66663	0	0	-65.1149858191638	31.9235246583632	0	0	0	0	
2653333333.33329	0	0	-65.4828153608392	-7.16466913716186	0	0	0	0	
2654999999.99996	0	0	-67.4647829273589	-62.9019261458315	0	0	0	0	
2656666666.66663	0	0	-66.0809324415626	-121.187786936551	0	0	0	0	
2658333333.33329	0	0	-71.5259611194093	176.978205894614	0	0	0	0	
2659999999.99996	0	0	-79.4397212516515	-55.8486604493715	0	0	0	0	
2661666666.66662	0	0	-71.5458957492742	-114.916184574727	0	0	0	0	
2663333333.33329	0	0	-66.1741914707905	178.018760671775	0	0	0	0	
2664999999.99996	0	0	-63.1959917139436	122.434209898656	0	0	0	0	
2666666666.66662	0	0	-61.2375303287924	67.8430385660369	0	0	0	0	
2668333333.33329	0	0	-61.2923157010184	21.2898058879284	0	0	0	0	
2669999999.99996	0	0	-61.8768239808908	-19.5249429513654	0	0	0	0	
2671666666.66662	0	0	-62.015354990709	-75.9578137203347	0	0	0	0	
2673333333.33329	0	0	-61.7059329574416	-127.052707851988	0	0	0	0	
2674999999.99996	0	0	-61.9304668971842	-178.883857648712	0	0	0	0	
2676666666.66662	0	0	-63.3751007221192	133.09756600375	0	0	0	0	
2678333333.33329	0	0	-69.3537712261352	89.1885737430633	0	0	0	0	
2679999999.99996	0	0	-70.7401459699586	67.6350537045668	0	0	0	0	
2681666666.66662	0	0	-67.2684814393368	43.7576171996632	0	0	0	0	
2683333333.33329	0	0	-67.6844992589603	7.26376006674396	0	0	0	0	
2684999999.99996	0	0	-65.398932389288	-11.5444886923678	0	0	0	0	
2686666666.66662	0	0	-66.6074208989412	-47.1753991710471	0	0	0	0	
2688333333.33329	0	0	-64.8481290240822	-93.0363144286621	0	0	0	0	
2689999999.99996	0	0	-61.9125289598648	-128.250542120707	0	0	0	0	
2691666666.66662	0	0	-62.5787651053852	-172.902374013347	0	0	0	0	
2693333333.33329	0	0	-60.6669660781097	130.324822604359	0	0	0	0	
2694999999.99995	0	0	-61.9516273341702	90.5351329642302	0	0	0	0	
2696666666.66662	0	0	-60.4474304711319	46.2857423078222	0	0	0	0	
2698333333.33329	0	0	-60.1502728556268	2.25300664509373	0	0	0	0	
2699999999.99995	0	0	-62.2567442289366	-51.6806472148249	0	0	0	0	
2701666666.66662	0	0	-63.3183196271225	-98.0538175307443	0	0	0	0	
2703333333.33329	0	0	-65.1363271361739	-134.394964044848	0	0	0	0	
2704999999.99995	0	0	-66.9423865249618	-143.692758479818	0	0	0	0	
2706666666.66662	0	0	-66.062147308309	167.259809629027	0	0	0	0	
2708333333.33329	0	0	-65.0960845190653	123.589889970999	0	0	0	0	
2709999999.99995	0	0	-67.5130818029897	78.3246887694036	0	0	0	0	
2711666666.66662	0	0	-73.3835297925299	46.0616045512269	0	0	0	0	
2713333333.33329	0	0	-68.8929422247535	51.4419798953615	0	0	0	0	
2714999999.99995	0	0	-67.393066966754	21.7692807473977	0	0	0	0	
2716666666.66662	0	0	-70.60359300402	-16.3956801525328	0	0	0	0	
2718333333.33329	0	0	-66.94489246115	-56.5543075657925	0	0	0	0	
2719999999.99995	0	0	-64.7750771138838	-85.9797754513751	0	0	0	0	
2721666666.66662	0	0	-63.8926410384638	-102.770008183018	0	0	0	0	
2723333333.33329	0	0	-61.2150154157842	-154.3326325311	0	0	0	0	
2724999999.99995	0	0	-60.618444442316	150.909139587679	0	0	0	0	
2726666666.66662	0	0	-59.5421505417374	102.131423551388	0	0	0	0	
2728333333.33328	0	0	-59.5424126805702	52.551750104818	0	0	0	0	
2729999999.99995	0	0	-59.8401284681948	10.4900022948702	0	0	0	0	
2731666666.66662	0	0	-61.0918842329916	-28.6140108116003	0	0	0	0	
2733333333.33328	0	0	-60.3566568714821	-82.6894420272086	0	0	0	0	
2734999999.99995	0	0	-61.0515795564041	-127.678784928357	0	0	0	0	
2736666666.66662	0	0	-63.5693723805421	-161.712039263413	0	0	0	0	
2738333333.33328	0	0	-66.84010199412	-174.460896571807	0	0	0	0	
2739999999.99995	0	0	-66.9686136350214	149.5047174912	0	0	0	0	
2741666666.66662	0	0	-66.2980614871142	113.854310639158	0	0	0	0	
2743333333.33328	0	0	-64.0746879291732	88.976034574444	0	0	0	0	
2744999999.99995	0	0	-62.035728943609	62.3064360613183	0	0	0	0	
2746666666.66662	0	0	-62.1385963197529	19.8775075233688	0	0	0	0	
2748333333.33328	0	0	-62.0448088436676	-17.2485612052387	0	0	0	0	
2749999999.99995	0	0	-60.0489081477525	-59.7749948735647	0	0	0	0	
2751666666.66662	0	0	-57.7174271956199	-102.918402842242	0	0	0	0	
2753333333.33328	0	0	-57.7963900348785	-149.156800611082	0	0	0	0	
2754999999.99995	0	0	-56.7696267379376	162.620948618515	0	0	0	0	
2756666666.66662	0	0	-56.1188700200343	119.676405542569	0	0	0	0	
2758333333.33328	0	0	-56.2929652234641	72.9192918470412	0	0	0	0	
2759999999.99995	0	0	-56.0394260885777	22.6910597134449	0	0	0	0	
2761666666.66662	0	0	-56.8568678935178	-31.6782775801296	0	0	0	0	
2763333333.33328	0	0	-57.3771247996389	-79.1372951973336	0	0	0	0	
2764999999.99995	0	0	-58.8371945036866	-122.823374925079	0	0	0	0	
2766666666.66661	0	0	-60.4840129376417	-169.781844926539	0	0	0	0	
2768333333.33328	0	0	-61.8179968692651	162.158192368593	0	0	0	0	
2769999999.99995	0	0	-62.385265946199	120.419024902033	0	0	0	0	
2771666666.66661	0	0	-62.3657096956582	99.4042789224124	0	0	0	0	
2773333333.33328	0	0	-62.9990960398447	52.9101673370203	0	0	0	0	
2774999999.99995	0	0	-64.9090448152133	12.118741969171	0	0	0	0	
2776666666.66661	0	0	-64.4470260851057	-19.62862775312	0	0	0	0	
2778333333.33328	0	0	-62.5988312919949	-51.4796402253009	0	0	0	0	
2779999999.99995	0	0	-61.5433914068541	-99.2713585185844	0	0	0	0	
2781666666.66661	0	0	-61.2274393797118	-135.975205561178	0	0	0	0	
2783333333.33328	0	0	-60.2881624223244	176.865192889814	0	0	0	0	
2784999999.99995	0	0	-59.8338224468066	133.099786500874	0	0	0	0	
2786666666.66661	0	0	-60.7926025135252	94.6061018580112	0	0	0	0	
2788333333.33328	0	0	-59.9691147522647	41.4121297282156	0	0	0	0	
2789999999.99995	0	0	-60.4677801965183	-10.4141766439711	0	0	0	0	
2791666666.66661	0	0	-61.5375566336572	-46.6899282380802	0	0	0	0	
2793333333.33328	0	0	-60.913530623627	-92.3217545920593	0	0	0	0	
2794999999.99995	0	0	-63.0131725656213	-137.274176407689	0	0	0	0	
2796666666.66661	0	0	-63.3223778156021	-175.290322981828	0	0	0	0	
2798333333.33328	0	0	-63.9545542547933	159.659195622276	0	0	0	0	
2799999999.99994	0	0	-64.4564839656192	124.390336184072	0	0	0	0	
2801666666.66661	0	0	-65.0778943680553	89.3673423921729	0	0	0	0	
2803333333.33328	0	0	-64.5483296431504	48.2634268293559	0	0	0	0	
2804999999.99994	0	0	-66.6424222638732	-11.997885766265	0	0	0	0	
2806666666.66661	0	0	-65.0747608121346	-51.8458490678087	0	0	0	0	
2808333333.33328	0	0	-66.815505753459	-64.8173377761268	0	0	0	0	
2809999999.99994	0	0	-69.4450111668128	-111.587323983818	0	0	0	0	
2811666666.66661	0	0	-69.4567981101487	-152.562629095539	0	0	0	0	
2813333333.33328	0	0	-71.1067516255715	179.416490870007	0	0	0	0	
2814999999.99994	0	0	-75.2745372965305	155.810440417474	0	0	0	0	
2816666666.66661	0	0	-72.9123313090438	133.784226568497	0	0	0	0	
2818333333.33328	0	0	-66.8250772015817	116.080910531013	0	0	0	0	
2819999999.99994	0	0	-65.4970965686105	95.9046054304057	0	0	0	0	
2821666666.66661	0	0	-63.3205002050784	41.6734937459599	0	0	0	0	
2823333333.33328	0	0	-62.8169519455918	6.62547524564948	0	0	0	0	
2824999999.99994	0	0	-63.0024215707526	-40.1594225483303	0	0	0	0	
2826666666.66661	0	0	-59.8655942776018	-93.6163788539735	0	0	0	0	
2828333333.33328	0	0	-59.4317924040498	-136.588654655887	0	0	0	0	
2829999999.99994	0	0	-60.3248443845399	-168.986998554545	0	0	0	0	
2831666666.66661	0	0	-61.5861446353156	142.662240889371	0	0	0	0	
2833333333.33327	0	0	-61.595156995579	112.452065902275	0	0	0	0	
2834999999.99994	0	0	-63.9406338392928	72.0220646110725	0	0	0	0	
2836666666.66661	0	0	-61.7156140983167	40.3224078911951	0	0	0	0	
2838333333.33327	0	0	-60.1132510168873	-4.13138284710032	0	0	0	0	
2839999999.99994	0	0	-59.8314803538317	-36.6293782724148	0	0	0	0	
2841666666.66661	0	0	-59.3572798401606	-87.3409527740244	0	0	0	0	
2843333333.33327	0	0	-60.8867586746898	-130.148100523336	0	0	0	0	
2844999999.99994	0	0	-59.6974945996838	-172.220489512171	0	0	0	0	
2846666666.66661	0	0	-59.8770905895317	146.397741734775	0	0	0	0	
2848333333.33327	0	0	-61.421598225693	109.282461332679	0	0	0	0	
2849999999.99994	0	0	-62.3931949316239	88.0572866132381	0	0	0	0	
2851666666.66661	0	0	-62.5200212120923	40.7140195693373	0	0	0	0	
2853333333.33327	0	0	-60.5945057774365	22.1400262250898	0	0	0	0	
2854999999.99994	0	0	-59.2458825298248	-31.1941440896484	0	0	0	0	
2856666666.66661	0	0	-58.9868657571938	-76.0260460018367	0	0	0	0	
2858333333.33327	0	0	-58.7550113060942	-120.502179253126	0	0	0	0	
2859999999.99994	0	0	-58.8033103720089	-161.955711725466	0	0	0	0	
2861666666.66661	0	0	-59.6461809967841	152.753171826086	0	0	0	0	
2863333333.33327	0	0	-59.8199689965798	120.99438138913	0	0	0	0	
2864999999.99994	0	0	-61.9248640272555	83.6006808462908	0	0	0	0	
2866666666.6666	0	0	-61.849648495322	39.7142540990015	0	0	0	0	
2868333333.33327	0	0	-63.7272111719039	1.22093396785369	0	0	0	0	
2869999999.99994	0	0	-64.1692950705114	-44.3040109305491	0	0	0	0	
2871666666.6666	0	0	-64.5753521032006	-69.2324875137073	0	0	0	0	
2873333333.33327	0	0	-61.6591014929099	-103.54569405836	0	0	0	0	
2874999999.99994	0	0	-62.5706371172592	-148.424368979752	0	0	0	0	
2876666666.6666	0	0	-62.1504086600112	-179.543699868911	0	0	0	0	
2878333333.33327	0	0	-61.2492475191953	143.749484855979	0	0	0	0	
2879999999.99994	0	0	-63.2431495720807	98.1521192444964	0	0	0	0	
2881666666.6666	0	0	-62.6109170092609	65.5212204492679	0	0	0	0	
2883333333.33327	0	0	-65.986893780189	8.65841374881638	0	0	0	0	
2884999999.99994	0	0	-63.1358641791101	-18.3718732540431	0	0	0	0	
2886666666.6666	0	0	-62.5339550570106	-79.7368546495369	0	0	0	0	
2888333333.33327	0	0	-62.9390528360226	-120.254334889741	0	0	0	0	
2889999999.99994	0	0	-63.6803486637785	-146.330485163953	0	0	0	0	
2891666666.6666	0	0	-66.1680050203894	160.213396842961	0	0	0	0	
2893333333.33327	0	0	-67.1214791046726	147.70614359025	0	0	0	0	
2894999999.99994	0	0	-66.220613428339	97.2006608274168	0	0	0	0	
2896666666.6666	0	0	-65.2725380520664	54.3876631385286	0	0	0	0	
2898333333.33327	0	0	-68.2256930850962	14.3781066819831	0	0	0	0	
2899999999.99994	0	0	-67.9596223738911	-13.8944289559334	0	0	0	0	
2901666666.6666	0	0	-68.025795003528	-67.4289073444094	0	0	0	0	
2903333333.33327	0	0	-63.6747067919851	-131.900407296677	0	0	0	0	
2904999999.99993	0	0	-68.7412977637326	-175.137827236683	0	0	0	0	
2906666666.6666	0	0	-67.2061161298854	73.751920147272	0	0	0	0	
2908333333.33327	0	0	-68.8342996863184	-6.61553964137995	0	0	0	0	
2909999999.99993	0	0	-73.5387803161641	-92.2203812888507	0	0	0	0	
2911666666.6666	0	0	-74.4112435590279	-132.464417936673	0	0	0	0	
2913333333.33327	0	0	-68.7507508922737	133.745682801701	0	0	0	0	
2914999999.99993	0	0	-72.5583079741492	98.9377265105591	0	0	0	0	
2916666666.6666	0	0	-69.1406387987772	18.9453508600486	0	0	0	0	
2918333333.33327	0	0	-72.9738965632616	-60.7424057906193	0	0	0	0	
2919999999.99993	0	0	-76.3711101423866	-124.31794075525	0	0	0	0	
2921666666.6666	0	0	-75.2575059676764	-93.9579293902295	0	0	0	0	
2923333333.33327	0	0	-70.5240001403058	-99.7890740683731	0	0	0	0	
2924999999.99993	0	0	-68.4637531687703	-155.316052351968	0	0	0	0	
2926666666.6666	0	0	-69.8328491928812	174.327087343823	0	0	0	0	
2928333333.33327	0	0	-66.5977545325399	129.51765203896	0	0	0	0	
2929999999.99993	0	0	-75.1680759551679	29.0395939102927	0	0	0	0	
2931666666.6666	0	0	-73.0302707186688	-3.85549106021502	0	0	0	0	
2933333333.33327	0	0	-76.4986785374887	39.6354248951393	0	0	0	0	
2934999999.99993	0	0	-71.7682171780071	-50.2316000124434	0	0	0	0	
2936666666.6666	0	0	-69.3330629988579	-91.3249807749694	0	0	0	0	
2938333333.33326	0	0	-73.9113975035952	-120.845647390557	0	0	0	0	
2939999999.99993	0	0	-69.5072328393452	162.474927990368	0	0	0	0	
2941666666.6666	0	0	-73.4158618194995	127.901814779691	0	0	0	0	
2943333333.33326	0	0	-75.2160421612367	-0.46197912283936	0	0	0	0	
2944999999.99993	0	0	-77.7039095470926	-88.000467784098	0	0	0	0	
2946666666.6666	0	0	-79.7747020822138	-101.327316066459	0	0	0	0	
2948333333.33326	0	0	-70.5658663886187	104.10283941538	0	0	0	0	
2949999999.99993	0	0	-68.8698952432932	25.8354234418803	0	0	0	0	
2951666666.6666	0	0	-68.5402122085923	-26.1143174453735	0	0	0	0	
2953333333.33326	0	0	-65.6278487900536	-81.2814030459605	0	0	0	0	
2954999999.99993	0	0	-65.9791810913705	-119.352716169419	0	0	0	0	
2956666666.6666	0	0	-65.8776729289699	-160.711548720646	0	0	0	0	
2958333333.33326	0	0	-66.4362339908096	165.692991758671	0	0	0	0	
2959999999.99993	0	0	-65.6268590576641	121.285062576654	0	0	0	0	
2961666666.6666	0	0	-66.0161016485703	97.1495211973199	0	0	0	0	
2963333333.33326	0	0	-64.2823168218914	12.7395756738236	0	0	0	0	
2964999999.99993	0	0	-64.4479711647388	-12.7659543501446	0	0	0	0	
2966666666.6666	0	0	-64.9575692595506	-52.528658064503	0	0	0	0	
2968333333.33326	0	0	-62.927908063746	-88.8753872442798	0	0	0	0	
2969999999.99993	0	0	-61.7301740253504	-136.931027892486	0	0	0	0	
2971666666.66659	0	0	-62.7045269899711	177.303449966983	0	0	0	0	
2973333333.33326	0	0	-62.3595661108601	150.089294555041	0	0	0	0	
2974999999.99993	0	0	-62.6414630545122	108.652326568231	0	0	0	0	
2976666666.66659	0	0	-63.4976851839792	54.1199235953246	0	0	0	0	
2978333333.33326	0	0	-63.8103934570444	25.6272828675314	0	0	0	0	
2979999999.99993	0	0	-60.7633795611181	-24.8929159472655	0	0	0	0	
2981666666.66659	0	0	-61.6241716523513	-52.0138546559569	0	0	0	0	
2983333333.33326	0	0	-60.0958335216094	-99.3020551694483	0	0	0	0	
2984999999.99993	0	0	-59.371166580472	-137.412678502103	0	0	0	0	
2986666666.66659	0	0	-56.7527265759119	176.308253493119	0	0	0	0	
2988333333.33326	0	0	-57.0832511213477	135.617011329769	0	0	0	0	
2989999999.99993	0	0	-56.6564763473199	79.8714264520985	0	0	0	0	
2991666666.66659	0	0	-57.1205142353261	44.2699890931071	0	0	0	0	
2993333333.33326	0	0	-57.158422483513	-10.0870068359915	0	0	0	0	
2994999999.99993	0	0	-56.8021337453137	-46.8313502405563	0	0	0	0	
2996666666.66659	0	0	-56.7637926519378	-91.8416115051619	0	0	0	0	
2998333333.33326	0	0	-56.5735412266859	-139.836581933038	0	0	0	0	
2999999999.99993	0	0	-57.6229190418125	175.999021080127	0	0	0	0	
