!Agilent N9923A: A.05.34
!Date: Tuesday, 08 March 2016 08:12:31
!Model: N9923A
!Serial: MY51491690
!GPS Latitude: 
!GPS Longitude: 
!GPS TimeStamp: 0001-01-01 00:00:00Z
!GPS Seconds Since Last Read: 0
!CHECKSUM:0866979388
!Correction: S11()S21(Rdy)S12()S22()
!S2P File: Measurements:S11,S21,S12,S22:
# Hz S DB R 50
2000000000	0	0	-64.4138919086307	76.9555426969147	0	0	0	0	
2001666666.66667	0	0	-68.0869875459432	26.8883130785775	0	0	0	0	
2003333333.33333	0	0	-71.0265168707771	-23.276335692028	0	0	0	0	
2005000000	0	0	-73.8956066637913	-41.9885524478536	0	0	0	0	
2006666666.66667	0	0	-69.9588143448608	-73.3229981338033	0	0	0	0	
2008333333.33333	0	0	-74.6265073897653	-133.463137454108	0	0	0	0	
2010000000	0	0	-70.4110224981872	-165.347681108894	0	0	0	0	
2011666666.66667	0	0	-73.44243498288	127.964151729117	0	0	0	0	
2013333333.33333	0	0	-73.8594979744694	91.9022522900146	0	0	0	0	
2015000000	0	0	-75.8035823147997	3.52985396612285	0	0	0	0	
2016666666.66667	0	0	-75.7522789834095	-106.131630478356	0	0	0	0	
2018333333.33333	0	0	-84.2776204739927	-162.40268659163	0	0	0	0	
2020000000	0	0	-75.4991916966081	110.925124981349	0	0	0	0	
2021666666.66667	0	0	-70.1977777303766	40.2102179491058	0	0	0	0	
2023333333.33333	0	0	-69.2254794500109	-2.08474460530456	0	0	0	0	
2025000000	0	0	-66.9265296297471	-57.0731216549297	0	0	0	0	
2026666666.66667	0	0	-65.3848028230227	-107.83146499244	0	0	0	0	
2028333333.33333	0	0	-65.0096029790455	-155.704778975255	0	0	0	0	
2030000000	0	0	-65.9739128894397	160.260645874418	0	0	0	0	
2031666666.66667	0	0	-66.1427288140761	117.633450874394	0	0	0	0	
2033333333.33333	0	0	-65.7982346814442	85.5344418712901	0	0	0	0	
2035000000	0	0	-64.1740059546789	42.4067271258678	0	0	0	0	
2036666666.66667	0	0	-64.7170637194887	0.189790744830742	0	0	0	0	
2038333333.33334	0	0	-63.4693903250161	-44.1432258800286	0	0	0	0	
2040000000	0	0	-64.7955395706405	-93.2444612707725	0	0	0	0	
2041666666.66667	0	0	-65.5102211242904	-134.197151293665	0	0	0	0	
2043333333.33334	0	0	-66.3447698537007	-172.407366295042	0	0	0	0	
2045000000	0	0	-65.9862286978905	157.839153004767	0	0	0	0	
2046666666.66667	0	0	-65.7701123639806	141.223903997626	0	0	0	0	
2048333333.33334	0	0	-63.0027443865214	79.0363104713488	0	0	0	0	
2050000000	0	0	-62.3324941145872	39.7899711565954	0	0	0	0	
2051666666.66667	0	0	-61.6146441974113	-15.1258280222735	0	0	0	0	
2053333333.33334	0	0	-61.5614259571382	-62.634440767878	0	0	0	0	
2055000000	0	0	-63.0166439924756	-107.019270635946	0	0	0	0	
2056666666.66667	0	0	-66.9931870738044	-161.000765996881	0	0	0	0	
2058333333.33334	0	0	-69.6700005048501	173.032036477411	0	0	0	0	
2060000000	0	0	-73.6072532712973	164.404528725135	0	0	0	0	
2061666666.66667	0	0	-68.8480822670789	130.976531327796	0	0	0	0	
2063333333.33334	0	0	-65.5738813913314	85.0146422360271	0	0	0	0	
2065000000	0	0	-66.0494442676257	46.9814404453267	0	0	0	0	
2066666666.66667	0	0	-65.4277481684065	11.7051442712006	0	0	0	0	
2068333333.33334	0	0	-64.7933318602253	-27.3323842756383	0	0	0	0	
2070000000	0	0	-65.1455657724004	-73.8324638226161	0	0	0	0	
2071666666.66667	0	0	-64.5142505011761	-106.803863657434	0	0	0	0	
2073333333.33334	0	0	-68.9226725443481	-140.165013307135	0	0	0	0	
2075000000	0	0	-72.3489939344529	179.374240852647	0	0	0	0	
2076666666.66667	0	0	-71.6023709930267	158.452533988068	0	0	0	0	
2078333333.33334	0	0	-71.5573362992778	108.617940280384	0	0	0	0	
2080000000	0	0	-68.5133859994839	107.248235877345	0	0	0	0	
2081666666.66667	0	0	-68.9050106391908	60.3591252946391	0	0	0	0	
2083333333.33334	0	0	-68.4439517875072	24.0980385829697	0	0	0	0	
2085000000	0	0	-67.6188413526975	-25.5129788999304	0	0	0	0	
2086666666.66667	0	0	-68.6681590115881	-44.024055925024	0	0	0	0	
2088333333.33334	0	0	-70.0641695879936	-101.864963648778	0	0	0	0	
2090000000	0	0	-66.9989616677407	-147.937401518397	0	0	0	0	
2091666666.66667	0	0	-70.8987871553219	155.979528032917	0	0	0	0	
2093333333.33334	0	0	-70.2797312125625	94.2434343885771	0	0	0	0	
2095000000	0	0	-76.5628457624056	23.4338524965837	0	0	0	0	
2096666666.66667	0	0	-92.8496556855054	-36.637026151863	0	0	0	0	
2098333333.33334	0	0	-75.9800744638812	170.76817987188	0	0	0	0	
2100000000	0	0	-70.2148155865418	87.4048815443377	0	0	0	0	
2101666666.66667	0	0	-66.3157049963845	49.4973416424556	0	0	0	0	
2103333333.33334	0	0	-65.6575246385267	-24.8796929868662	0	0	0	0	
2105000000.00001	0	0	-65.9711417010161	-91.618984058797	0	0	0	0	
2106666666.66667	0	0	-66.8622283781438	-144.35045765249	0	0	0	0	
2108333333.33334	0	0	-71.3858535013744	171.943499606846	0	0	0	0	
2110000000.00001	0	0	-69.7877310521114	132.479749322384	0	0	0	0	
2111666666.66667	0	0	-69.8611317108994	43.5448577826523	0	0	0	0	
2113333333.33334	0	0	-74.656362183536	-0.51749123898589	0	0	0	0	
2115000000.00001	0	0	-75.7691604719477	-82.4413085635051	0	0	0	0	
2116666666.66667	0	0	-73.6349829374784	143.224316301764	0	0	0	0	
2118333333.33334	0	0	-69.7410331891799	96.0713226964932	0	0	0	0	
2120000000.00001	0	0	-72.2594663070348	37.0509266828629	0	0	0	0	
2121666666.66667	0	0	-68.6044479964633	-9.10102062246059	0	0	0	0	
2123333333.33334	0	0	-67.9755490570683	-14.1038802683384	0	0	0	0	
2125000000.00001	0	0	-66.7870999176522	-86.1735774167957	0	0	0	0	
2126666666.66667	0	0	-64.1975839167871	-144.433664438249	0	0	0	0	
2128333333.33334	0	0	-65.1476789437187	177.900376333242	0	0	0	0	
2130000000.00001	0	0	-62.9031231972087	134.408027117597	0	0	0	0	
2131666666.66667	0	0	-62.9577194248848	88.008314586551	0	0	0	0	
2133333333.33334	0	0	-62.261736963323	54.0937551073686	0	0	0	0	
2135000000.00001	0	0	-62.4297875215836	2.34042662998188	0	0	0	0	
2136666666.66667	0	0	-62.3293047067732	-33.8167248611046	0	0	0	0	
2138333333.33334	0	0	-61.5844560491	-78.3815267514551	0	0	0	0	
2140000000.00001	0	0	-60.0325737410973	-120.636625270761	0	0	0	0	
2141666666.66667	0	0	-58.6799232012146	-167.569969108319	0	0	0	0	
2143333333.33334	0	0	-58.5322055863306	143.934583575981	0	0	0	0	
2145000000.00001	0	0	-58.6843713207271	96.303297460822	0	0	0	0	
2146666666.66667	0	0	-59.1966505150012	53.0268524434622	0	0	0	0	
2148333333.33334	0	0	-58.579079494632	8.42111524471177	0	0	0	0	
2150000000.00001	0	0	-59.9363065119481	-26.9705658306108	0	0	0	0	
2151666666.66667	0	0	-58.8517833825725	-70.1962391211175	0	0	0	0	
2153333333.33334	0	0	-59.0048405160019	-118.957969721955	0	0	0	0	
2155000000.00001	0	0	-58.3540483591693	-165.869220668649	0	0	0	0	
2156666666.66667	0	0	-58.97239411794	154.868139710339	0	0	0	0	
2158333333.33334	0	0	-58.497665525314	102.684472982159	0	0	0	0	
2160000000.00001	0	0	-58.2635328409808	60.7594931651535	0	0	0	0	
2161666666.66667	0	0	-59.8123909297968	17.9395994645599	0	0	0	0	
2163333333.33334	0	0	-60.2930908662644	-35.7400568768718	0	0	0	0	
2165000000.00001	0	0	-61.0719929608061	-83.4838472701593	0	0	0	0	
2166666666.66667	0	0	-63.5624569242194	-126.632079333041	0	0	0	0	
2168333333.33334	0	0	-64.0759114714153	-172.089377326924	0	0	0	0	
2170000000	0	0	-65.3351195259591	160.81333500589	0	0	0	0	
2171666666.66667	0	0	-64.3769387100804	112.746011496771	0	0	0	0	
2173333333.33334	0	0	-64.7278123894907	66.9610568180326	0	0	0	0	
2175000000	0	0	-69.5354051522359	5.91879019862384	0	0	0	0	
2176666666.66667	0	0	-78.7484980670672	-64.6214383471516	0	0	0	0	
2178333333.33334	0	0	-81.426959802209	105.824338472426	0	0	0	0	
2180000000	0	0	-79.0853834573079	-127.958129037211	0	0	0	0	
2181666666.66667	0	0	-73.7731924984307	-83.427368360423	0	0	0	0	
2183333333.33334	0	0	-73.652187173886	-151.484986920339	0	0	0	0	
2185000000	0	0	-72.6648786188077	172.515149544649	0	0	0	0	
2186666666.66667	0	0	-68.63272541747	85.4264873573993	0	0	0	0	
2188333333.33334	0	0	-68.7589626798875	4.59391513418095	0	0	0	0	
2190000000	0	0	-65.4219249260782	-52.7716234636228	0	0	0	0	
2191666666.66667	0	0	-63.3111016221514	-113.269679363859	0	0	0	0	
2193333333.33334	0	0	-62.5646957246125	-163.228528936686	0	0	0	0	
2195000000	0	0	-61.8691908912509	145.743996649881	0	0	0	0	
2196666666.66667	0	0	-61.1333760132022	98.7324999502734	0	0	0	0	
2198333333.33334	0	0	-60.2518026581153	52.2010123613228	0	0	0	0	
2200000000	0	0	-60.6608777491134	6.60156569843678	0	0	0	0	
2201666666.66667	0	0	-61.8042532009168	-46.3019014981632	0	0	0	0	
2203333333.33333	0	0	-61.5653671614605	-81.2171247398556	0	0	0	0	
2205000000	0	0	-61.336751796725	-118.315413779822	0	0	0	0	
2206666666.66667	0	0	-59.6404667734024	-161.571739204939	0	0	0	0	
2208333333.33333	0	0	-59.4675066044205	153.478279372093	0	0	0	0	
2210000000	0	0	-59.074057080448	113.857199572507	0	0	0	0	
2211666666.66667	0	0	-59.2277715543384	76.2156550075167	0	0	0	0	
2213333333.33333	0	0	-60.5646978914683	27.7808255366269	0	0	0	0	
2215000000	0	0	-61.0162101313285	-6.31626355353078	0	0	0	0	
2216666666.66667	0	0	-61.0272130329639	-39.3162060007461	0	0	0	0	
2218333333.33333	0	0	-59.9162405925446	-77.434526911395	0	0	0	0	
2220000000	0	0	-59.2238797172301	-123.378248534618	0	0	0	0	
2221666666.66667	0	0	-60.2560030716921	-174.764190295839	0	0	0	0	
2223333333.33333	0	0	-59.5640401799336	148.009101433603	0	0	0	0	
2225000000	0	0	-61.7634598375754	101.741102761256	0	0	0	0	
2226666666.66667	0	0	-61.8041538065946	71.7851549534712	0	0	0	0	
2228333333.33333	0	0	-64.6328189087458	54.8628209333474	0	0	0	0	
2230000000	0	0	-62.7765756347393	20.265037262645	0	0	0	0	
2231666666.66667	0	0	-61.263860132057	-10.9960237094684	0	0	0	0	
2233333333.33333	0	0	-58.6141707705376	-43.4551381527513	0	0	0	0	
2235000000	0	0	-56.9303526163725	-92.8272029511687	0	0	0	0	
2236666666.66667	0	0	-55.6218908559362	-140.860242897157	0	0	0	0	
2238333333.33333	0	0	-54.9417551482195	169.19656117031	0	0	0	0	
2240000000	0	0	-55.1351331056568	126.787532223976	0	0	0	0	
2241666666.66666	0	0	-55.6314425211391	76.7942771871478	0	0	0	0	
2243333333.33333	0	0	-56.3569513871658	32.8862130985991	0	0	0	0	
2245000000	0	0	-57.0638846553124	-12.2990647320115	0	0	0	0	
2246666666.66666	0	0	-57.8998058710799	-63.3776726907597	0	0	0	0	
2248333333.33333	0	0	-59.1789376512102	-107.760267196668	0	0	0	0	
2250000000	0	0	-58.8620699843077	-141.543878655899	0	0	0	0	
2251666666.66666	0	0	-60.006035343517	177.154620041376	0	0	0	0	
2253333333.33333	0	0	-61.0184566784139	134.696047790976	0	0	0	0	
2255000000	0	0	-62.292338129116	82.2089361170697	0	0	0	0	
2256666666.66666	0	0	-62.3961120835832	53.1370325498126	0	0	0	0	
2258333333.33333	0	0	-64.4538108867651	15.9898604193698	0	0	0	0	
2260000000	0	0	-62.2896164270189	-23.8828029233778	0	0	0	0	
2261666666.66666	0	0	-63.786127602786	-64.2863285707748	0	0	0	0	
2263333333.33333	0	0	-63.3251386901154	-128.642807697774	0	0	0	0	
2265000000	0	0	-64.522873310973	178.386178613058	0	0	0	0	
2266666666.66666	0	0	-65.4656617309139	138.875899388266	0	0	0	0	
2268333333.33333	0	0	-66.8615661647052	88.9667298936913	0	0	0	0	
2270000000	0	0	-66.2499562523073	31.5263473448864	0	0	0	0	
2271666666.66666	0	0	-69.0851441057139	-21.4372671984859	0	0	0	0	
2273333333.33333	0	0	-78.0315113818966	-88.1358052517934	0	0	0	0	
2274999999.99999	0	0	-71.3963618199532	-63.806953608363	0	0	0	0	
2276666666.66666	0	0	-65.9369935251785	-102.062307512208	0	0	0	0	
2278333333.33333	0	0	-64.1471415353826	-151.513378631148	0	0	0	0	
2279999999.99999	0	0	-65.4781691839325	162.746011581778	0	0	0	0	
2281666666.66666	0	0	-63.4539790195229	106.71870970796	0	0	0	0	
2283333333.33333	0	0	-63.4175276016171	60.3906641283873	0	0	0	0	
2284999999.99999	0	0	-65.0001312871314	8.66705144795059	0	0	0	0	
2286666666.66666	0	0	-66.0864680342243	-11.3181817802731	0	0	0	0	
2288333333.33333	0	0	-63.5754718262187	-43.6669808251	0	0	0	0	
2289999999.99999	0	0	-62.002746970677	-77.5539841191584	0	0	0	0	
2291666666.66666	0	0	-60.2303618983602	-125.382922906743	0	0	0	0	
2293333333.33333	0	0	-59.3799867018754	-160.6288915278	0	0	0	0	
2294999999.99999	0	0	-57.7032315727065	158.71397148918	0	0	0	0	
2296666666.66666	0	0	-56.7278770326719	111.015687309006	0	0	0	0	
2298333333.33333	0	0	-57.0491212732002	63.3882539213706	0	0	0	0	
2299999999.99999	0	0	-55.8881001154792	21.5249732994202	0	0	0	0	
2301666666.66666	0	0	-55.6706391887947	-30.1654097568012	0	0	0	0	
2303333333.33333	0	0	-56.1926442779085	-74.5019417709087	0	0	0	0	
2304999999.99999	0	0	-57.3501024260804	-117.606418135159	0	0	0	0	
2306666666.66666	0	0	-56.8618924834226	-158.184137730402	0	0	0	0	
2308333333.33332	0	0	-57.5913665139511	149.478043640395	0	0	0	0	
2309999999.99999	0	0	-59.5517815895285	115.634621699421	0	0	0	0	
2311666666.66666	0	0	-61.2927592471214	81.1024400231891	0	0	0	0	
2313333333.33332	0	0	-62.6986010881388	43.3811090427143	0	0	0	0	
2314999999.99999	0	0	-63.0993704097782	19.2186997054309	0	0	0	0	
2316666666.66666	0	0	-61.5348786227801	-20.4663366981127	0	0	0	0	
2318333333.33332	0	0	-61.8356915232658	-49.2429302981042	0	0	0	0	
2319999999.99999	0	0	-60.9696934547184	-94.1384684192662	0	0	0	0	
2321666666.66666	0	0	-59.0045859215008	-136.99713716603	0	0	0	0	
2323333333.33332	0	0	-59.4981308688173	-172.578129799473	0	0	0	0	
2324999999.99999	0	0	-58.3519104930898	138.293821642043	0	0	0	0	
2326666666.66666	0	0	-59.3558287462806	85.4871680856787	0	0	0	0	
2328333333.33332	0	0	-60.2808190885495	34.8179639774835	0	0	0	0	
2329999999.99999	0	0	-61.2740072699248	-23.4205352519177	0	0	0	0	
2331666666.66666	0	0	-62.2391098644811	-86.2825482489317	0	0	0	0	
2333333333.33332	0	0	-65.2118612828569	-144.065763044456	0	0	0	0	
2334999999.99999	0	0	-66.9953924603586	173.407676160036	0	0	0	0	
2336666666.66666	0	0	-67.2271377847706	104.898685099878	0	0	0	0	
2338333333.33332	0	0	-66.5893561974552	17.9595338238456	0	0	0	0	
2339999999.99999	0	0	-66.590169126606	-49.1137258007316	0	0	0	0	
2341666666.66666	0	0	-69.2694306073418	-115.231215479014	0	0	0	0	
2343333333.33332	0	0	-78.5341918576856	-121.890056354493	0	0	0	0	
2344999999.99999	0	0	-77.3269151067717	-105.03933164164	0	0	0	0	
2346666666.66665	0	0	-68.7830815937398	-112.34991259262	0	0	0	0	
2348333333.33332	0	0	-67.8367675357687	-170.292249046552	0	0	0	0	
2349999999.99999	0	0	-62.7314764898573	134.895568606783	0	0	0	0	
2351666666.66665	0	0	-61.2956517126366	80.7086352159841	0	0	0	0	
2353333333.33332	0	0	-60.1407250108793	34.465024955825	0	0	0	0	
2354999999.99999	0	0	-59.5037186505304	-15.5626921351246	0	0	0	0	
2356666666.66665	0	0	-58.6984057447118	-58.3925354005332	0	0	0	0	
2358333333.33332	0	0	-58.2749857479295	-101.184297802169	0	0	0	0	
2359999999.99999	0	0	-57.9709942937319	-148.084392319847	0	0	0	0	
2361666666.66665	0	0	-58.1635924723148	166.574937871006	0	0	0	0	
2363333333.33332	0	0	-58.8151756096396	127.135484890577	0	0	0	0	
2364999999.99999	0	0	-61.0411518907035	76.8489787812435	0	0	0	0	
2366666666.66665	0	0	-63.0053188435905	47.6469504484942	0	0	0	0	
2368333333.33332	0	0	-63.3410270965414	29.0560888733837	0	0	0	0	
2369999999.99999	0	0	-61.2672444280196	9.83786402140723	0	0	0	0	
2371666666.66665	0	0	-58.4928027295668	-37.9533236946438	0	0	0	0	
2373333333.33332	0	0	-56.3482143769036	-77.7011116295716	0	0	0	0	
2374999999.99999	0	0	-57.2476175027237	-128.360033441661	0	0	0	0	
2376666666.66665	0	0	-56.2040007223754	-161.642307942997	0	0	0	0	
2378333333.33332	0	0	-55.7008863528823	161.210687139402	0	0	0	0	
2379999999.99998	0	0	-55.7261960370619	112.503397362104	0	0	0	0	
2381666666.66665	0	0	-56.2138614901029	65.5245519645098	0	0	0	0	
2383333333.33332	0	0	-57.6887577722783	20.4410059060886	0	0	0	0	
2384999999.99998	0	0	-59.5964242413631	-21.8093917005734	0	0	0	0	
2386666666.66665	0	0	-61.5613371383756	-46.1266061339041	0	0	0	0	
2388333333.33332	0	0	-64.0738854686589	-69.4693989260382	0	0	0	0	
2389999999.99998	0	0	-60.6486449804242	-86.0486507588601	0	0	0	0	
2391666666.66665	0	0	-59.0895279641831	-105.653694907521	0	0	0	0	
2393333333.33332	0	0	-56.826255186578	-146.490092081733	0	0	0	0	
2394999999.99998	0	0	-55.5235213344572	174.412746369001	0	0	0	0	
2396666666.66665	0	0	-53.5579615417144	136.116499528467	0	0	0	0	
2398333333.33332	0	0	-52.814704742103	90.8227257563688	0	0	0	0	
2399999999.99998	0	0	-51.1544385693222	46.6037008187265	0	0	0	0	
2401666666.66665	0	0	-51.0315799917035	-0.247284849184588	0	0	0	0	
2403333333.33332	0	0	-51.2496534323141	-41.1432043221017	0	0	0	0	
2404999999.99998	0	0	-50.5427189977539	-82.2605008835066	0	0	0	0	
2406666666.66665	0	0	-50.1440790995467	-126.199651472127	0	0	0	0	
2408333333.33332	0	0	-50.2895456925458	-174.929425551881	0	0	0	0	
2409999999.99998	0	0	-50.8076667044466	142.504810643138	0	0	0	0	
2411666666.66665	0	0	-51.8666831182558	98.2209189831786	0	0	0	0	
2413333333.33331	0	0	-52.4552850010274	54.4822777020986	0	0	0	0	
2414999999.99998	0	0	-53.8238007437063	15.14171682997	0	0	0	0	
2416666666.66665	0	0	-54.2445404152813	-19.5412258766478	0	0	0	0	
2418333333.33331	0	0	-54.7748060420814	-45.1064410647153	0	0	0	0	
2419999999.99998	0	0	-54.7368326710919	-83.0562428492487	0	0	0	0	
2421666666.66665	0	0	-54.366597315148	-117.216942196163	0	0	0	0	
2423333333.33331	0	0	-53.8931147000668	-153.815191570294	0	0	0	0	
2424999999.99998	0	0	-53.6021362803738	168.839551313087	0	0	0	0	
2426666666.66665	0	0	-53.0596263716327	126.596091010364	0	0	0	0	
2428333333.33331	0	0	-52.1875623184658	84.3635367899234	0	0	0	0	
2429999999.99998	0	0	-51.9420664885238	37.9426400428426	0	0	0	0	
2431666666.66665	0	0	-51.6525260307766	-8.2366012321611	0	0	0	0	
2433333333.33331	0	0	-51.8943425507366	-54.7208530525356	0	0	0	0	
2434999999.99998	0	0	-52.3227542663312	-100.090417175654	0	0	0	0	
2436666666.66665	0	0	-53.3840204037374	-144.761888243521	0	0	0	0	
2438333333.33331	0	0	-54.3640872376972	171.111740227119	0	0	0	0	
2439999999.99998	0	0	-55.4436407955911	130.627112439781	0	0	0	0	
2441666666.66665	0	0	-56.0885942030797	89.9101592479869	0	0	0	0	
2443333333.33331	0	0	-56.3265549209551	37.4920118026598	0	0	0	0	
2444999999.99998	0	0	-56.154911611234	-12.1359832855732	0	0	0	0	
2446666666.66665	0	0	-57.5201326150653	-60.7529560979386	0	0	0	0	
2448333333.33331	0	0	-59.7095466649486	-116.014536054488	0	0	0	0	
2449999999.99998	0	0	-61.1788719409437	177.234855768527	0	0	0	0	
2451666666.66664	0	0	-62.5020144520283	125.494108493857	0	0	0	0	
2453333333.33331	0	0	-66.7675280649874	51.156315987012	0	0	0	0	
2454999999.99998	0	0	-68.6871762130515	-1.90495047955977	0	0	0	0	
2456666666.66664	0	0	-70.5807525474323	-60.2498917766425	0	0	0	0	
2458333333.33331	0	0	-82.9771476437253	-115.838470722428	0	0	0	0	
2459999999.99998	0	0	-72.1097636463278	162.220164970545	0	0	0	0	
2461666666.66664	0	0	-71.300469958024	83.4545078056189	0	0	0	0	
2463333333.33331	0	0	-69.8292078063921	21.2636076068098	0	0	0	0	
2464999999.99998	0	0	-67.5580693963937	-51.5751522007755	0	0	0	0	
2466666666.66664	0	0	-65.8124847394656	-97.8718971698241	0	0	0	0	
2468333333.33331	0	0	-65.2914736346569	-161.98234070537	0	0	0	0	
2469999999.99998	0	0	-64.5401010603058	132.480240516359	0	0	0	0	
2471666666.66664	0	0	-63.2056949563874	66.6066012851698	0	0	0	0	
2473333333.33331	0	0	-64.0406786984802	18.6388795900283	0	0	0	0	
2474999999.99998	0	0	-64.289684368426	-22.1236390464734	0	0	0	0	
2476666666.66664	0	0	-63.3586556204079	-52.6400573990949	0	0	0	0	
2478333333.33331	0	0	-60.2447706413807	-96.1929695386405	0	0	0	0	
2479999999.99998	0	0	-58.8199710615933	-147.369187492495	0	0	0	0	
2481666666.66664	0	0	-58.8673435821615	170.587940929506	0	0	0	0	
2483333333.33331	0	0	-58.7799636952331	117.59074429048	0	0	0	0	
2484999999.99997	0	0	-58.7322357320157	71.4110259775047	0	0	0	0	
2486666666.66664	0	0	-59.1924848928145	34.589159480118	0	0	0	0	
2488333333.33331	0	0	-61.1016251405898	-17.3360732419512	0	0	0	0	
2489999999.99997	0	0	-61.1174750563191	-52.2532768134536	0	0	0	0	
2491666666.66664	0	0	-60.9758122820953	-87.4696554629505	0	0	0	0	
2493333333.33331	0	0	-60.5009110501322	-120.769542192167	0	0	0	0	
2494999999.99997	0	0	-60.6820026998697	-158.5132775543	0	0	0	0	
2496666666.66664	0	0	-58.4588713575395	156.763871191724	0	0	0	0	
2498333333.33331	0	0	-58.4796532329342	114.308215237366	0	0	0	0	
2499999999.99997	0	0	-58.6061736399964	66.1936367921306	0	0	0	0	
2501666666.66664	0	0	-57.3709451875295	28.2612996477219	0	0	0	0	
2503333333.33331	0	0	-56.6726773246036	-21.4679204929752	0	0	0	0	
2504999999.99997	0	0	-57.1508876778407	-68.0830708190385	0	0	0	0	
2506666666.66664	0	0	-57.9486828189976	-125.637129393782	0	0	0	0	
2508333333.33331	0	0	-58.4911415103716	-166.034449722582	0	0	0	0	
2509999999.99997	0	0	-60.1993038133321	146.082574176779	0	0	0	0	
2511666666.66664	0	0	-60.4489507549965	94.8677786779001	0	0	0	0	
2513333333.33331	0	0	-61.6351511698169	42.7510068493695	0	0	0	0	
2514999999.99997	0	0	-63.7437359003522	-14.9491066188938	0	0	0	0	
2516666666.66664	0	0	-65.2658478051275	-77.5051214404959	0	0	0	0	
2518333333.3333	0	0	-67.7807427203448	-147.162542497736	0	0	0	0	
2519999999.99997	0	0	-70.1555997178463	128.92765331934	0	0	0	0	
2521666666.66664	0	0	-67.1832327263857	54.7442760545993	0	0	0	0	
2523333333.3333	0	0	-65.0429072832129	-6.33515207343296	0	0	0	0	
2524999999.99997	0	0	-65.7806492676715	-64.1419922845446	0	0	0	0	
2526666666.66664	0	0	-65.7271360365156	-117.689632538149	0	0	0	0	
2528333333.3333	0	0	-69.1870617909197	-169.506350499647	0	0	0	0	
2529999999.99997	0	0	-72.1712378319065	171.204471764304	0	0	0	0	
2531666666.66664	0	0	-72.4543703356851	155.967711778824	0	0	0	0	
2533333333.3333	0	0	-70.3305173528435	70.6269377333015	0	0	0	0	
2534999999.99997	0	0	-69.0608096135189	19.2612098614315	0	0	0	0	
2536666666.66664	0	0	-69.2156263669623	-30.2577498269634	0	0	0	0	
2538333333.3333	0	0	-69.4496971361649	-91.483173329945	0	0	0	0	
2539999999.99997	0	0	-75.8710104583613	-138.807031875396	0	0	0	0	
2541666666.66664	0	0	-81.5289114532109	142.793407021426	0	0	0	0	
2543333333.3333	0	0	-77.1430496203662	67.1634667234061	0	0	0	0	
2544999999.99997	0	0	-72.8279443468407	-43.7184522141259	0	0	0	0	
2546666666.66664	0	0	-84.9884070141618	-97.2371829192423	0	0	0	0	
2548333333.3333	0	0	-75.5793364505008	-135.196967189707	0	0	0	0	
2549999999.99997	0	0	-76.5450296389993	171.175131242042	0	0	0	0	
2551666666.66664	0	0	-70.912753495719	109.300119647746	0	0	0	0	
2553333333.3333	0	0	-71.3318633677913	72.5080795929407	0	0	0	0	
2554999999.99997	0	0	-75.913147159873	-29.5415446521465	0	0	0	0	
2556666666.66663	0	0	-72.4425700919537	-111.947330972171	0	0	0	0	
2558333333.3333	0	0	-76.102002084836	144.875217433265	0	0	0	0	
2559999999.99997	0	0	-78.696190962747	62.0635347879675	0	0	0	0	
2561666666.66663	0	0	-68.7936827933013	-7.07805258190239	0	0	0	0	
2563333333.3333	0	0	-65.810257102239	-59.912279164762	0	0	0	0	
2564999999.99997	0	0	-67.1120562904865	-88.2653096796894	0	0	0	0	
2566666666.66663	0	0	-69.525565257852	-136.738406581096	0	0	0	0	
2568333333.3333	0	0	-66.7162125024803	165.479990576101	0	0	0	0	
2569999999.99997	0	0	-67.7515098174333	130.897855420042	0	0	0	0	
2571666666.66663	0	0	-64.9359498745333	77.3200259587295	0	0	0	0	
2573333333.3333	0	0	-65.1678491784955	34.3017111361709	0	0	0	0	
2574999999.99997	0	0	-66.7603731799491	8.98320015072558	0	0	0	0	
2576666666.66663	0	0	-66.1016929630288	-28.4790497328362	0	0	0	0	
2578333333.3333	0	0	-66.4947842688716	-65.3711661008115	0	0	0	0	
2579999999.99997	0	0	-66.6081275314341	-91.0304545110799	0	0	0	0	
2581666666.66663	0	0	-64.638078328188	-141.192887843269	0	0	0	0	
2583333333.3333	0	0	-66.3194183301636	156.892916014636	0	0	0	0	
2584999999.99997	0	0	-68.2606851709229	128.281454874747	0	0	0	0	
2586666666.66663	0	0	-69.3656860330024	83.0910080645378	0	0	0	0	
2588333333.3333	0	0	-69.6162560819109	68.436297064905	0	0	0	0	
2589999999.99996	0	0	-67.6436812308495	53.4727322428772	0	0	0	0	
2591666666.66663	0	0	-65.4140899870831	8.05843846810292	0	0	0	0	
2593333333.3333	0	0	-66.3534718572649	-20.8514178810646	0	0	0	0	
2594999999.99996	0	0	-69.1088993630652	-68.6725863752706	0	0	0	0	
2596666666.66663	0	0	-70.2162079532673	-84.4389690502892	0	0	0	0	
2598333333.3333	0	0	-66.0224301969237	-83.8437910722517	0	0	0	0	
2599999999.99996	0	0	-62.0775682492405	-137.979248209475	0	0	0	0	
2601666666.66663	0	0	-61.2581084296989	177.368764152912	0	0	0	0	
2603333333.3333	0	0	-60.2762756601703	138.294970437702	0	0	0	0	
2604999999.99996	0	0	-58.6412789644498	89.0887901270951	0	0	0	0	
2606666666.66663	0	0	-58.3172309282681	48.0581835886315	0	0	0	0	
2608333333.3333	0	0	-57.2885741562541	2.11554724514591	0	0	0	0	
2609999999.99996	0	0	-55.8052354348935	-41.8561524383848	0	0	0	0	
2611666666.66663	0	0	-55.1713685918109	-95.0693630756396	0	0	0	0	
2613333333.3333	0	0	-56.2412079695428	-145.991332669142	0	0	0	0	
2614999999.99996	0	0	-57.1015008767251	171.120787636567	0	0	0	0	
2616666666.66663	0	0	-57.5214532581811	135.236761451736	0	0	0	0	
2618333333.3333	0	0	-57.746788804815	93.5801095601837	0	0	0	0	
2619999999.99996	0	0	-56.8919829198001	51.3059182685911	0	0	0	0	
2621666666.66663	0	0	-57.1177151364809	3.2635142568043	0	0	0	0	
2623333333.33329	0	0	-57.702196895313	-43.5904860579763	0	0	0	0	
2624999999.99996	0	0	-58.2128895046388	-87.0174709079652	0	0	0	0	
2626666666.66663	0	0	-58.1309666478464	-134.558079147613	0	0	0	0	
2628333333.33329	0	0	-59.9525541055798	179.916040737334	0	0	0	0	
2629999999.99996	0	0	-59.4030740038839	133.702968501794	0	0	0	0	
2631666666.66663	0	0	-62.1561012010166	90.0309590155363	0	0	0	0	
2633333333.33329	0	0	-64.0318817737321	29.0965024635486	0	0	0	0	
2634999999.99996	0	0	-66.1368894006024	-22.3457643011445	0	0	0	0	
2636666666.66663	0	0	-70.9505908480426	-80.5371471510543	0	0	0	0	
2638333333.33329	0	0	-76.1725877142218	26.2604185557727	0	0	0	0	
2639999999.99996	0	0	-79.561538918745	-33.8572350169686	0	0	0	0	
2641666666.66663	0	0	-75.3819851928608	-95.3062334738776	0	0	0	0	
2643333333.33329	0	0	-70.9276949970301	-157.312970203988	0	0	0	0	
2644999999.99996	0	0	-76.9555043022797	162.293579381621	0	0	0	0	
2646666666.66663	0	0	-72.4089932351517	146.064331198346	0	0	0	0	
2648333333.33329	0	0	-70.5812474784125	154.778818406803	0	0	0	0	
2649999999.99996	0	0	-70.0620948760505	62.0264036242649	0	0	0	0	
2651666666.66663	0	0	-71.7397459098341	37.4144912827207	0	0	0	0	
2653333333.33329	0	0	-74.317672600907	-24.261720206319	0	0	0	0	
2654999999.99996	0	0	-70.0428086473304	-70.990824691083	0	0	0	0	
2656666666.66663	0	0	-70.747744163307	-142.681148758432	0	0	0	0	
2658333333.33329	0	0	-70.0553809596333	138.816185736016	0	0	0	0	
2659999999.99996	0	0	-72.1817097691108	41.3533048267387	0	0	0	0	
2661666666.66662	0	0	-71.3315966179836	-33.9000969383822	0	0	0	0	
2663333333.33329	0	0	-74.1841270771047	-111.991738267137	0	0	0	0	
2664999999.99996	0	0	-73.9120733625024	-157.796859741048	0	0	0	0	
2666666666.66662	0	0	-67.9875183956087	93.8792698110438	0	0	0	0	
2668333333.33329	0	0	-68.9963794885336	20.3578002197842	0	0	0	0	
2669999999.99996	0	0	-70.9640340130212	-27.9179827902571	0	0	0	0	
2671666666.66662	0	0	-73.0034935861757	-71.1146987418375	0	0	0	0	
2673333333.33329	0	0	-71.9831420631311	-145.986504076539	0	0	0	0	
2674999999.99996	0	0	-73.9853919603127	96.3814434981378	0	0	0	0	
2676666666.66662	0	0	-71.132644687612	54.9497433963477	0	0	0	0	
2678333333.33329	0	0	-73.0255764315608	-8.25003048294009	0	0	0	0	
2679999999.99996	0	0	-75.9141998133681	-27.3494428680017	0	0	0	0	
2681666666.66662	0	0	-77.8401869286534	-148.140966941117	0	0	0	0	
2683333333.33329	0	0	-75.8582755327249	143.220440604737	0	0	0	0	
2684999999.99996	0	0	-74.3613671195329	61.166294875097	0	0	0	0	
2686666666.66662	0	0	-74.153625507852	14.5823723325945	0	0	0	0	
2688333333.33329	0	0	-69.5319719863761	-63.7218793380982	0	0	0	0	
2689999999.99996	0	0	-72.9627360404977	-103.467901404182	0	0	0	0	
2691666666.66662	0	0	-70.7584020507716	-171.6486348192	0	0	0	0	
2693333333.33329	0	0	-68.8116562538116	141.55352816532	0	0	0	0	
2694999999.99995	0	0	-70.0508020355916	80.4928755194573	0	0	0	0	
2696666666.66662	0	0	-68.2326381437935	30.9050026578682	0	0	0	0	
2698333333.33329	0	0	-67.7198134986497	-16.1633930013754	0	0	0	0	
2699999999.99995	0	0	-66.6733664415075	-60.8760778510877	0	0	0	0	
2701666666.66662	0	0	-70.5572281242947	-102.575592847457	0	0	0	0	
2703333333.33329	0	0	-72.8309993794602	161.997654768591	0	0	0	0	
2704999999.99995	0	0	-78.2610490531689	138.811138082942	0	0	0	0	
2706666666.66662	0	0	-76.5833291458355	121.574779729879	0	0	0	0	
2708333333.33329	0	0	-78.1580278512586	86.5079253212898	0	0	0	0	
2709999999.99995	0	0	-76.5463050066619	-70.377318706451	0	0	0	0	
2711666666.66662	0	0	-77.5671928559574	-132.788705129885	0	0	0	0	
2713333333.33329	0	0	-72.810885780712	130.418903869052	0	0	0	0	
2714999999.99995	0	0	-72.5400888467113	51.0736743448513	0	0	0	0	
2716666666.66662	0	0	-69.4265101168101	37.7537631166411	0	0	0	0	
2718333333.33329	0	0	-67.313290607279	-9.12792071709839	0	0	0	0	
2719999999.99995	0	0	-67.0374014633914	-52.3807885659835	0	0	0	0	
2721666666.66662	0	0	-63.8239690110673	-85.9109633402781	0	0	0	0	
2723333333.33329	0	0	-63.3248544718839	-140.280458521921	0	0	0	0	
2724999999.99995	0	0	-61.745949286236	177.929867843925	0	0	0	0	
2726666666.66662	0	0	-61.0036284638407	133.874216876284	0	0	0	0	
2728333333.33328	0	0	-61.3708616046509	96.0348747772141	0	0	0	0	
2729999999.99995	0	0	-60.11880095636	47.1136706096906	0	0	0	0	
2731666666.66662	0	0	-59.7455613073838	-0.487209148848704	0	0	0	0	
2733333333.33328	0	0	-59.6262607100266	-51.3910812999657	0	0	0	0	
2734999999.99995	0	0	-60.7839262443062	-93.6717675678084	0	0	0	0	
2736666666.66662	0	0	-62.5005634057912	-130.622669599589	0	0	0	0	
2738333333.33328	0	0	-61.4221712494719	-163.852499641484	0	0	0	0	
2739999999.99995	0	0	-61.0715748944914	148.269100776774	0	0	0	0	
2741666666.66662	0	0	-62.3373047018517	118.880281101567	0	0	0	0	
2743333333.33328	0	0	-61.7713901472017	82.5509237248499	0	0	0	0	
2744999999.99995	0	0	-61.126295104328	46.371239091606	0	0	0	0	
2746666666.66662	0	0	-60.8127555726596	9.90931232662473	0	0	0	0	
2748333333.33328	0	0	-61.0734248960901	-33.3304959600448	0	0	0	0	
2749999999.99995	0	0	-59.257536405708	-69.3164714596879	0	0	0	0	
2751666666.66662	0	0	-58.7778277438409	-116.984724534678	0	0	0	0	
2753333333.33328	0	0	-58.457012169043	-158.125388205583	0	0	0	0	
2754999999.99995	0	0	-59.068042497882	154.931642163238	0	0	0	0	
2756666666.66662	0	0	-58.8156248117697	119.124568199526	0	0	0	0	
2758333333.33328	0	0	-57.618865182086	76.4855018455266	0	0	0	0	
2759999999.99995	0	0	-57.0999524688782	36.7399140824593	0	0	0	0	
2761666666.66662	0	0	-58.1151209881179	-17.3284545198535	0	0	0	0	
2763333333.33328	0	0	-58.3321209460448	-67.5917436820188	0	0	0	0	
2764999999.99995	0	0	-59.2882258180496	-109.968953067658	0	0	0	0	
2766666666.66661	0	0	-59.5638864609597	-150.733484052323	0	0	0	0	
2768333333.33328	0	0	-61.2654183506115	-177.171145236938	0	0	0	0	
2769999999.99995	0	0	-60.1961336374492	144.068084947521	0	0	0	0	
2771666666.66661	0	0	-59.58017612562	104.860476222053	0	0	0	0	
2773333333.33328	0	0	-61.2428542999179	56.1135219609164	0	0	0	0	
2774999999.99995	0	0	-61.2078788160068	11.3898137909377	0	0	0	0	
2776666666.66661	0	0	-61.7341681079424	-13.7468366409939	0	0	0	0	
2778333333.33328	0	0	-60.7795880814836	-52.2123045874901	0	0	0	0	
2779999999.99995	0	0	-60.769048049937	-95.0261155503488	0	0	0	0	
2781666666.66661	0	0	-59.8695747873354	-134.118866331984	0	0	0	0	
2783333333.33328	0	0	-59.3401512882153	-177.302976287539	0	0	0	0	
2784999999.99995	0	0	-59.313920919128	133.571278916829	0	0	0	0	
2786666666.66661	0	0	-58.0190956605096	94.19277268478	0	0	0	0	
2788333333.33328	0	0	-59.8771767315323	52.7755086786385	0	0	0	0	
2789999999.99995	0	0	-58.9909818801453	0.631440425004232	0	0	0	0	
2791666666.66661	0	0	-59.9495717417098	-40.0829762841575	0	0	0	0	
2793333333.33328	0	0	-60.8325190647434	-101.313826051841	0	0	0	0	
2794999999.99995	0	0	-62.2215573425373	-125.290496820209	0	0	0	0	
2796666666.66661	0	0	-61.9521086404471	-176.728171830912	0	0	0	0	
2798333333.33328	0	0	-61.9742407022877	136.834808605981	0	0	0	0	
2799999999.99994	0	0	-62.9274788066187	105.075867292708	0	0	0	0	
2801666666.66661	0	0	-63.9004973916488	76.1227094692598	0	0	0	0	
2803333333.33328	0	0	-66.1734240399554	50.5434358963561	0	0	0	0	
2804999999.99994	0	0	-65.1762391796699	-2.52990483507539	0	0	0	0	
2806666666.66661	0	0	-64.6103901855219	-44.4315201333868	0	0	0	0	
2808333333.33328	0	0	-67.9939598326372	-88.4527260891845	0	0	0	0	
2809999999.99994	0	0	-67.3064578088235	-136.410042581822	0	0	0	0	
2811666666.66661	0	0	-70.5640801863026	-148.876453770102	0	0	0	0	
2813333333.33328	0	0	-73.6697794014348	148.302523623633	0	0	0	0	
2814999999.99994	0	0	-69.068811558192	150.958835951557	0	0	0	0	
2816666666.66661	0	0	-67.7157021131143	94.9479351207683	0	0	0	0	
2818333333.33328	0	0	-72.2787308625476	92.0739419888915	0	0	0	0	
2819999999.99994	0	0	-69.7283248413879	68.6997036333864	0	0	0	0	
2821666666.66661	0	0	-69.2649987462237	17.3055704980003	0	0	0	0	
2823333333.33328	0	0	-69.1013664973056	-19.2173541847254	0	0	0	0	
2824999999.99994	0	0	-64.9774391736534	-35.785616164833	0	0	0	0	
2826666666.66661	0	0	-64.7415733984382	-87.8068064956989	0	0	0	0	
2828333333.33328	0	0	-63.1640038774972	-135.510546052531	0	0	0	0	
2829999999.99994	0	0	-62.6996766435924	-172.167160587123	0	0	0	0	
2831666666.66661	0	0	-62.5949202303804	163.900068134126	0	0	0	0	
2833333333.33327	0	0	-63.3190737964048	120.31430567944	0	0	0	0	
2834999999.99994	0	0	-64.060380641575	85.6996258582294	0	0	0	0	
2836666666.66661	0	0	-64.5464260716993	41.0070887044732	0	0	0	0	
2838333333.33327	0	0	-62.8270243143969	1.17136455810094	0	0	0	0	
2839999999.99994	0	0	-61.9318881173154	-36.1097026345751	0	0	0	0	
2841666666.66661	0	0	-60.5575481785902	-77.9744538359834	0	0	0	0	
2843333333.33327	0	0	-59.9596056214749	-126.000240830061	0	0	0	0	
2844999999.99994	0	0	-62.2446776354754	-163.168318513482	0	0	0	0	
2846666666.66661	0	0	-61.1999595872703	142.531604445967	0	0	0	0	
2848333333.33327	0	0	-62.4781108302799	117.542878612788	0	0	0	0	
2849999999.99994	0	0	-63.083209871759	76.8015069914369	0	0	0	0	
2851666666.66661	0	0	-63.0375690268562	57.7183291827853	0	0	0	0	
2853333333.33327	0	0	-61.0676854703339	13.6682792155052	0	0	0	0	
2854999999.99994	0	0	-59.0767636737201	-29.3129397339605	0	0	0	0	
2856666666.66661	0	0	-59.2503404809076	-74.2181938412047	0	0	0	0	
2858333333.33327	0	0	-58.9284771540352	-126.076877644886	0	0	0	0	
2859999999.99994	0	0	-59.9550019051725	-164.483810813766	0	0	0	0	
2861666666.66661	0	0	-60.6881148054152	147.460215451685	0	0	0	0	
2863333333.33327	0	0	-61.941858672399	118.993462255884	0	0	0	0	
2864999999.99994	0	0	-60.9451205129372	70.646479194997	0	0	0	0	
2866666666.6666	0	0	-63.0874610666391	20.3253330527176	0	0	0	0	
2868333333.33327	0	0	-64.9439359644029	-6.97209227654351	0	0	0	0	
2869999999.99994	0	0	-65.8670386026407	-58.6080862991381	0	0	0	0	
2871666666.6666	0	0	-68.5131684168589	-76.0172075095477	0	0	0	0	
2873333333.33327	0	0	-65.2405136726384	-86.9228315423921	0	0	0	0	
2874999999.99994	0	0	-64.5194140587519	-129.629395013385	0	0	0	0	
2876666666.6666	0	0	-63.9989559942972	-174.46919001994	0	0	0	0	
2878333333.33327	0	0	-62.8545805931361	146.744769635091	0	0	0	0	
2879999999.99994	0	0	-62.8032640344416	100.46724624238	0	0	0	0	
2881666666.6666	0	0	-64.2677732463067	57.7932194182386	0	0	0	0	
2883333333.33327	0	0	-64.2424507853141	17.2273927573205	0	0	0	0	
2884999999.99994	0	0	-63.4320411657912	-27.7612393140627	0	0	0	0	
2886666666.6666	0	0	-64.711642424682	-68.2511609754216	0	0	0	0	
2888333333.33327	0	0	-64.0787739986156	-110.429636717455	0	0	0	0	
2889999999.99994	0	0	-63.1808288319181	-154.57488570649	0	0	0	0	
2891666666.6666	0	0	-67.8069570380712	151.099799372082	0	0	0	0	
2893333333.33327	0	0	-65.2624339963878	128.446924789264	0	0	0	0	
2894999999.99994	0	0	-66.2625931304541	103.734166391822	0	0	0	0	
2896666666.6666	0	0	-65.7938268163233	47.3299721060691	0	0	0	0	
2898333333.33327	0	0	-70.7481100889523	0.798301777106059	0	0	0	0	
2899999999.99994	0	0	-66.8581407759224	-44.586044466744	0	0	0	0	
2901666666.6666	0	0	-66.6130638016751	-92.8776860260694	0	0	0	0	
2903333333.33327	0	0	-64.7255679637987	-145.657498257992	0	0	0	0	
2904999999.99993	0	0	-65.6953446764203	164.932307506758	0	0	0	0	
2906666666.6666	0	0	-68.8804333697309	95.4630338422536	0	0	0	0	
2908333333.33327	0	0	-75.5757679618096	24.4647482048037	0	0	0	0	
2909999999.99993	0	0	-71.3739474549722	-90.6110693136241	0	0	0	0	
2911666666.6666	0	0	-72.0565825515147	-170.809645676968	0	0	0	0	
2913333333.33327	0	0	-69.2123602863008	108.512239014793	0	0	0	0	
2914999999.99993	0	0	-74.6468105193654	53.1017383361166	0	0	0	0	
2916666666.6666	0	0	-71.1559598865248	-30.3472525074795	0	0	0	0	
2918333333.33327	0	0	-66.8922138969169	-75.4016055310127	0	0	0	0	
2919999999.99993	0	0	-68.9137253750569	-154.595572387615	0	0	0	0	
2921666666.6666	0	0	-71.4292611329821	-158.772729043797	0	0	0	0	
2923333333.33327	0	0	-72.6440999053354	164.708524501811	0	0	0	0	
2924999999.99993	0	0	-77.939959661924	107.311961888662	0	0	0	0	
2926666666.6666	0	0	-79.6736239898675	55.2595119129535	0	0	0	0	
2928333333.33327	0	0	-73.644088841184	35.5621834127013	0	0	0	0	
2929999999.99993	0	0	-72.9767462141769	-75.178408625607	0	0	0	0	
2931666666.6666	0	0	-71.4464007708263	-91.1610887906479	0	0	0	0	
2933333333.33327	0	0	-69.5223103549426	-126.688350857338	0	0	0	0	
2934999999.99993	0	0	-78.8748604806946	-131.617580493218	0	0	0	0	
2936666666.6666	0	0	-74.9090112799333	-152.596052032589	0	0	0	0	
2938333333.33326	0	0	-86.8390483149209	-163.482520251466	0	0	0	0	
2939999999.99993	0	0	-74.1811356356055	121.951341298251	0	0	0	0	
2941666666.6666	0	0	-72.5557170245749	40.8517870245373	0	0	0	0	
2943333333.33326	0	0	-68.7394105590274	24.6641036394302	0	0	0	0	
2944999999.99993	0	0	-79.6572128167657	-28.3453797319832	0	0	0	0	
2946666666.6666	0	0	-74.099157572536	-159.264888599509	0	0	0	0	
2948333333.33326	0	0	-80.2770442753152	-159.106631400524	0	0	0	0	
2949999999.99993	0	0	-76.6025555249317	8.1468419227707	0	0	0	0	
2951666666.6666	0	0	-73.8012741393904	-95.8762430306363	0	0	0	0	
2953333333.33326	0	0	-75.9672536261529	-136.1812658937	0	0	0	0	
2954999999.99993	0	0	-70.1836570732211	-166.929659073194	0	0	0	0	
2956666666.6666	0	0	-75.0970062264805	160.068566425582	0	0	0	0	
2958333333.33326	0	0	-70.2353329888726	78.3884660636619	0	0	0	0	
2959999999.99993	0	0	-74.7811309194845	130.812827750381	0	0	0	0	
2961666666.6666	0	0	-67.8496314443146	65.8848058045483	0	0	0	0	
2963333333.33326	0	0	-73.3461559551271	18.9782761413455	0	0	0	0	
2964999999.99993	0	0	-69.2447290237865	-19.5899999151425	0	0	0	0	
2966666666.6666	0	0	-72.2048461936801	-53.8786328442484	0	0	0	0	
2968333333.33326	0	0	-65.215681638834	-100.202622865759	0	0	0	0	
2969999999.99993	0	0	-62.265841726812	-141.218832421531	0	0	0	0	
2971666666.66659	0	0	-61.7349358598789	174.822767329399	0	0	0	0	
2973333333.33326	0	0	-61.7614048610641	123.8799510416	0	0	0	0	
2974999999.99993	0	0	-62.61112612221	78.8309837889379	0	0	0	0	
2976666666.66659	0	0	-62.754068201518	35.4076758234913	0	0	0	0	
2978333333.33326	0	0	-61.5786072979825	-3.60002374754923	0	0	0	0	
2979999999.99993	0	0	-62.1448857585231	-39.6631028940721	0	0	0	0	
2981666666.66659	0	0	-60.7603157875375	-76.0184443922961	0	0	0	0	
2983333333.33326	0	0	-61.5134383621404	-110.037434404318	0	0	0	0	
2984999999.99993	0	0	-59.3041218036106	-154.106997818426	0	0	0	0	
2986666666.66659	0	0	-59.9068277887197	167.968009286613	0	0	0	0	
2988333333.33326	0	0	-58.7486583972115	118.028015264433	0	0	0	0	
2989999999.99993	0	0	-58.0768682867974	68.3979187426607	0	0	0	0	
2991666666.66659	0	0	-57.7125352093489	20.8228619485003	0	0	0	0	
2993333333.33326	0	0	-57.6972746503457	-16.4687827751878	0	0	0	0	
2994999999.99993	0	0	-57.2511854351513	-58.6030805685463	0	0	0	0	
2996666666.66659	0	0	-58.6283168466317	-105.329027259294	0	0	0	0	
2998333333.33326	0	0	-57.8502973294359	-139.196162537819	0	0	0	0	
2999999999.99993	0	0	-58.2961548405708	168.881308716541	0	0	0	0	
