!Agilent N9923A: A.05.34
!Date: Friday, 25 March 2016 21:36:59
!Model: N9923A
!Serial: MY51491690
!GPS Latitude: 
!GPS Longitude: 
!GPS TimeStamp: 0001-01-01 00:00:00Z
!GPS Seconds Since Last Read: 0
!CHECKSUM:0835162354
!Correction: S11(ON U*)S21(ON U*)S12(ON U*)S22(ON U*)
!S2P File: Measurements:S11,S21,S12,S22:
# Hz S DB R 50
2400000000	-16.8002015557262	175.784748938906	-51.582371229821	138.845103343975	-75.9442540878771	151.324754140638	-18.9759713535322	2.26506262928042	
2400333333.33333	-16.8232370685499	174.722800552434	-52.0290867103142	129.104344968395	-76.6109744443219	93.5467803843204	-19.2173600264589	1.0272691440818	
2400666666.66667	-16.8402625594284	173.722019186168	-51.4391475843796	121.861544668991	-76.8548186741621	158.118611371167	-19.452318449805	-0.0429782905576142	
2401000000	-16.8757534748311	172.71236517501	-51.3996482154386	111.841787727052	-82.5648358482493	123.188077630295	-19.70873351699	-1.19337747058168	
2401333333.33333	-16.9310207164578	171.584681618856	-51.9968244648735	98.9045734382325	-79.91890213898	-156.491266966705	-20.0010997128599	-2.22918902282073	
2401666666.66667	-16.9533687439071	170.528894441608	-52.1992197915581	86.1810407233072	-74.2499987976212	132.884771909335	-20.3175538406011	-3.43939092616041	
2402000000	-17.0014591352195	169.403252391145	-51.9598821654287	75.0559239934534	-78.3391762439759	94.2932864960394	-20.6492386194119	-4.54769926034998	
2402333333.33333	-17.0299209960042	168.256328508242	-52.9725867737173	64.4255231369126	-84.1640217782933	61.4410394635239	-21.0061843049444	-5.62270045959087	
2402666666.66667	-17.1007239601356	167.029914574765	-52.6508972936235	55.8489838206584	-78.092931105499	-172.126446991077	-21.3748493400582	-6.6951520679874	
2403000000	-17.1242311941891	165.937450682307	-52.6630195981831	42.0609531402183	-81.761161990614	72.9520453870021	-21.7743550640821	-7.72434952106863	
2403333333.33333	-17.1756825355999	164.574754447444	-53.4763568750957	28.399558117152	-78.8092752518183	-17.2704786019303	-22.1971551932853	-8.63694433061951	
2403666666.66667	-17.2099807669595	163.28529662681	-52.7627356746858	18.3260506402666	-82.3116199048806	-145.724429712467	-22.6547636194367	-9.73219327585331	
2404000000	-17.2446823373617	162.128033934689	-53.0871173698316	10.3680727008254	-78.9497561798514	44.9279847992927	-23.1305937815913	-10.6212365015701	
2404333333.33334	-17.2532765688562	160.867966361223	-53.9841826966562	-4.73506425087421	-74.3092280729478	-22.3546362066775	-23.6759474995332	-11.4233171818631	
2404666666.66667	-17.2990470025717	159.66940437224	-53.7577149910534	-13.1062961000417	-74.8909665071426	-65.9820983359716	-24.2339400421284	-12.2853345073909	
2405000000	-17.3278215264716	158.294157098276	-54.5615220261705	-23.5620049220259	-79.5925609059893	-77.3295115781216	-24.8394902427156	-13.0250534644711	
2405333333.33334	-17.3507016916619	156.980379641717	-54.4814310783629	-33.4322454669557	-82.5565058249752	-97.6404268164005	-25.4494730683182	-13.5327744802201	
2405666666.66667	-17.3720180168236	155.750459400681	-55.419413673301	-40.3543050842265	-89.9880819420961	84.8459520673842	-26.1393015645763	-14.0132675113729	
2406000000	-17.3937459288561	154.376112792311	-55.603506636527	-52.084315147741	-78.2640399647543	-133.454588161048	-26.8614336648733	-14.3071793417748	
2406333333.33334	-17.4023599618931	152.999445282973	-55.3649305692176	-63.3447953333743	-75.3612903757359	-98.5501397278814	-27.653947063355	-14.2262571037889	
2406666666.66667	-17.4215462919853	151.718604199697	-55.3643386479646	-73.1075328761852	-76.0618589765381	-80.0669081053206	-28.5138413601402	-14.3540762944835	
2407000000	-17.439994108619	150.218280689144	-55.466954376064	-75.8937155809697	-75.3351424441845	-119.039416979011	-29.4017862337363	-13.5084964883978	
2407333333.33334	-17.4492454594885	148.975156989646	-55.633638930448	-87.5159590577947	-78.4080788744633	-165.960555411195	-30.4070916654189	-11.9094919124359	
2407666666.66667	-17.442175616147	147.732728556181	-56.1229317404312	-100.794607763579	-75.1778120529172	2.41399278804284	-31.4857329192133	-10.0807906696751	
2408000000	-17.4502823633872	146.325125759584	-56.1692030243336	-108.096077760096	-76.5381437342071	15.7520470235505	-32.6109200613769	-7.2579087610426	
2408333333.33334	-17.4231846267414	145.038431668935	-55.5737101317637	-117.967133341273	-76.6831566966893	-106.559190919156	-33.865408855814	-2.60525667199243	
2408666666.66667	-17.4144753876371	143.615881244345	-56.7820060566942	-125.373066626265	-74.4682157430609	-149.865927133492	-35.0038252724338	3.51652715926158	
2409000000	-17.405945893926	142.353562205944	-56.5415376937038	-141.748380718532	-91.0429225265535	81.9366971669844	-36.1730838999979	12.0563227117799	
2409333333.33334	-17.3791387278533	141.079881408058	-58.0126072665149	-145.012669671422	-75.8747140286722	-114.744193942355	-37.0052934931083	22.7519536029635	
2409666666.66667	-17.3716582057564	139.6781054488	-57.8238427248425	-166.605462313133	-85.0227549415609	104.354137355261	-37.4464167865505	34.908672296702	
2410000000	-17.3249430421926	138.370894007516	-58.243031370121	-175.585977856679	-87.0764876292984	13.8045221477282	-37.2286990503387	46.9760959446274	
2410333333.33334	-17.2964183404586	137.138435293822	-59.5188945980297	175.384297801712	-95.3667521754901	155.861867295401	-36.6564993651812	56.9591545809026	
2410666666.66667	-17.2671457284766	135.713856622731	-58.7864969759565	172.076132692056	-76.5249399868986	-153.357772988102	-35.9298482225738	65.3421462859184	
2411000000.00001	-17.2185194988314	134.585348436401	-60.312925500927	165.808603382395	-88.1696231494735	-151.259726237602	-34.9533803857077	71.0146598943762	
2411333333.33334	-17.1839904514359	133.255245424423	-61.9428560966362	142.609191296657	-78.4395454306462	-99.703358773198	-34.1903675812759	74.7060349184163	
2411666666.66667	-17.1332235520797	132.075053123107	-60.6064472037496	145.23913202981	-93.8470375344995	-54.058394897039	-33.2755829887568	77.1057537194419	
2412000000.00001	-17.0812929732862	130.797337867274	-60.8749283464259	137.676759167394	-77.6265078507289	-149.293725601266	-32.5331144875509	79.0976828190518	
2412333333.33334	-17.0292172673604	129.469641757611	-63.2565215081324	118.790506093464	-83.1611823432492	29.0625425729813	-31.9606329562029	80.074923365887	
2412666666.66667	-16.957284848773	128.261927725594	-63.7739823646906	114.844018407246	-82.5050687574101	147.191979901529	-31.2514174079965	80.9697695110617	
2413000000.00001	-16.8869061793763	126.997409841993	-64.1661218969577	115.379780403431	-71.2759061941319	6.39716956420077	-30.7014786649535	80.6209789642133	
2413333333.33334	-16.8108053031851	125.677087945461	-63.3709875516651	101.083397270052	-77.7756512676516	-6.37126729756708	-30.1947562316667	80.2599827344019	
2413666666.66667	-16.7304482421105	124.483452935728	-65.1547162351458	94.2611430266485	-83.0062557435442	-43.0522765231742	-29.7277902790995	79.339579364057	
2414000000.00001	-16.6545906340428	123.337825923576	-65.6883152713451	94.988659615445	-72.4589620975497	73.8898670392611	-29.3238342972803	78.1165050103163	
2414333333.33334	-16.5656318557574	122.190777306785	-64.2377374067231	81.6704751695013	-79.3280957038546	-173.026658512093	-28.9012662151585	76.7999614772071	
2414666666.66667	-16.4817538288291	121.101284486883	-62.3184468261549	86.8577070371205	-73.8026437913099	119.08763401319	-28.6179387624522	75.5437980192765	
2415000000.00001	-16.3966729937895	120.030161904951	-62.435041223994	91.9277713991061	-83.2608076810399	1.76503248428244	-28.3156844881494	73.9787210980435	
2415333333.33334	-16.3110092300396	118.948030724377	-64.4535084077491	77.3239633225954	-71.1050581911195	23.200134663137	-28.0187332031144	72.2422276955396	
2415666666.66667	-16.2208008871716	117.972177616662	-62.9275592779934	71.7436599895975	-84.3611291304286	165.550675699078	-27.7790405448337	70.3978940479821	
2416000000.00001	-16.131816997848	116.884132855076	-64.2084322107573	51.8343876451372	-93.8731704342603	74.9472304724388	-27.5462498699222	68.5752666169964	
2416333333.33334	-16.0428043859693	115.952247701302	-64.2296214352781	51.1885889857733	-95.9327533326673	-36.5185141043675	-27.3290683833688	66.5034721991704	
2416666666.66667	-15.9357402095445	114.916639027284	-63.3676579545723	41.0652694846817	-86.7350077687015	-35.5957691223992	-27.1496544397851	64.2988303689958	
2417000000.00001	-15.8464825025099	114.047175512647	-62.3581331766053	37.013708183306	-75.2594723183711	0.441358324391737	-26.9516368774309	62.1773471287334	
2417333333.33334	-15.7524861862944	113.098853404298	-62.4650295685232	33.0432393975836	-83.6423155721697	23.3484013859231	-26.8112529798816	59.9040221107021	
2417666666.66668	-15.6709324409478	112.202300524657	-63.0547496657888	10.8373936843489	-76.470177326395	-43.9664774954799	-26.645718893718	57.8049281113574	
2418000000.00001	-15.5622289555826	111.323203007684	-61.932266790613	13.7959026239474	-88.4718765349805	-118.043878722488	-26.4835906114154	55.4321886726707	
2418333333.33334	-15.477477577308	110.447431601541	-62.1413698073573	-7.10987425767679	-81.8046241961891	-170.025252654985	-26.3287748428549	52.9453892658775	
2418666666.66668	-15.3721023403455	109.582891381393	-62.9807130825204	-12.858524104623	-82.0345048048097	7.20989177201805	-26.2202055854047	50.3815768837734	
2419000000.00001	-15.2680371771097	108.760688565299	-61.9833765272845	-22.111055780031	-87.1258171037484	79.4210090005101	-26.0669274341633	48.0966027465261	
2419333333.33334	-15.1854305374358	107.953314380699	-61.2314711328709	-36.3710249097298	-79.3801035196263	-113.974931286226	-25.9960899095787	45.3175488866512	
2419666666.66668	-15.0865444178265	107.106578253849	-60.9399955185516	-48.4016401231659	-79.5719804734328	115.097336556051	-25.8753517851225	43.065313818678	
2420000000.00001	-14.9899023499294	106.36257816385	-62.2453089531251	-52.516346634821	-76.7521133231907	-97.3724517164123	-25.741288732441	40.7416869481568	
2420333333.33334	-14.8948668904612	105.533301796643	-62.3142013742514	-63.1447010957957	-83.2587714527582	23.8571283750006	-25.6122639279461	38.1801892923383	
2420666666.66668	-14.8189294284041	104.831345261062	-60.6249337362769	-71.906446960834	-90.5036508956113	94.973468245604	-25.508798739013	35.5172478922114	
2421000000.00001	-14.7239049312381	104.15581989998	-63.2058782877117	-76.4070669779579	-77.6240117139839	-42.3733870016021	-25.3780446578625	33.3240652649503	
2421333333.33334	-14.6490866748022	103.408963262006	-61.7670234037699	-80.6155439434138	-91.578632355364	-85.445784041825	-25.2480282511066	31.0291115748843	
2421666666.66668	-14.5585472054105	102.776212622661	-61.4171888452591	-110.727814234503	-75.408789361272	-115.644195040406	-25.1567891078187	28.5900541582447	
2422000000.00001	-14.4808636541813	102.108874316829	-60.9834097698049	-113.277792738683	-82.0230302169828	-86.1070691001828	-25.0271943943952	26.1293350915081	
2422333333.33334	-14.3945883009238	101.432760235385	-60.1236262179235	-123.406208343077	-76.0399718270712	68.8159056968797	-24.9145127786135	23.9284790374616	
2422666666.66668	-14.3259788576542	100.843343361468	-60.8653052954503	-134.754859805579	-77.8427621375315	31.3048200467647	-24.7884030851456	21.6459935198426	
2423000000.00001	-14.2602160880306	100.208550531791	-60.9755677573148	-146.901937571981	-91.1589273670555	-109.205090254016	-24.6498626922591	19.6149407689187	
2423333333.33334	-14.18464694232	99.5887627845154	-60.9321350352595	-155.060351257399	-77.3906879519425	2.50217944552666	-24.5517360572801	17.4677450800259	
2423666666.66668	-14.1220151400734	99.0002987366118	-60.7653867277381	-160.02748891678	-83.617143719265	-6.09014644290705	-24.4226571415849	15.3674912739748	
2424000000.00001	-14.0568070935684	98.5030362401016	-61.5091989273838	-179.781047505067	-74.6786297692813	-33.2061040928762	-24.297155551992	13.6048328738815	
2424333333.33334	-13.9932455526957	97.9271401797156	-63.3289101618192	172.512537457438	-75.0294066621875	-41.6650605593128	-24.1839299879527	11.533195252785	
2424666666.66668	-13.9358651541999	97.4474217759644	-63.2783258164812	171.115905798153	-80.2473476639333	156.999239198401	-24.0738865233314	9.6733252770389	
2425000000.00001	-13.8840069254801	96.9557460852194	-63.9515304805171	144.404543325178	-79.497830918478	-40.2376079389509	-23.9022361308838	8.0448646960976	
2425333333.33335	-13.8258641201699	96.4696947536406	-63.9689720657205	140.044002071656	-82.7378014773058	-8.04226280566407	-23.8118575739183	6.70421313757258	
2425666666.66668	-13.7792835463159	96.0421079542026	-64.5742835483483	130.435763019058	-83.5724939871145	17.6228369705388	-23.6980110137459	5.1331979633787	
2426000000.00001	-13.7311990374	95.5942534504639	-63.9835375954036	132.216700512178	-86.4960476771624	-16.8952342274973	-23.5792703778097	3.75188378995971	
2426333333.33335	-13.6801020995603	95.2163634849218	-63.3197058214337	101.968315637988	-76.8756298468133	17.8594333376301	-23.4821583602099	2.50269949921437	
2426666666.66668	-13.6388009871917	94.7857123923667	-66.6096684648428	94.0797891746332	-78.5358153229472	-78.385412824938	-23.3428855141193	1.25991603394258	
2427000000.00001	-13.5906205915833	94.3960469218766	-66.2196428282074	100.146362997082	-80.341068863155	-153.183893514748	-23.2165602761069	0.238866331886354	
2427333333.33335	-13.5497461213486	94.0562537768492	-67.8821336469387	56.3990662335122	-78.5359515650086	-73.6533562682502	-23.1279308772871	-0.8827765394978	
2427666666.66668	-13.5121190490952	93.6000217959095	-71.1517260077078	60.3260016576613	-80.3403420145749	-19.265135990039	-23.0123178598295	-1.64428733708842	
2428000000.00001	-13.4883140867246	93.2960086528462	-67.9952759998385	39.1972402842289	-75.1476644727489	-42.2944623764584	-22.9323266639137	-2.39965110528464	
2428333333.33335	-13.4451802319843	92.9520824887997	-72.4386412141543	59.0232711971677	-76.0967770722109	-74.0098956999672	-22.7831310645875	-3.06100981226261	
2428666666.66668	-13.4048126414148	92.6257350693019	-71.4265190677951	60.6356488789861	-76.5298536997227	15.6160361565602	-22.6752487355241	-3.86549358020269	
2429000000.00001	-13.3820295649274	92.3287079632637	-73.5149343192916	113.428246334952	-75.9397260344554	-27.1816964078453	-22.5761238623289	-4.41784044298867	
2429333333.33335	-13.3460021866	92.0078071341351	-80.2559648174926	83.4104336169426	-84.6857456357128	-136.943668438032	-22.4383180071037	-4.86133172720216	
2429666666.66668	-13.315350582636	91.7005703244937	-72.4829619687981	70.462899392077	-80.018278100914	-51.7542213657939	-22.2917329383463	-5.36750960646657	
2430000000.00001	-13.2896635310146	91.35000020081	-76.6520951856522	112.400378400484	-77.056792773243	-69.4415964748766	-22.1891742440829	-5.5712677413916	
2430333333.33335	-13.2643640956177	91.109171811572	-72.755651131172	85.774495955957	-79.4350026828394	-155.899089228367	-22.0596047383177	-6.05822331155127	
2430666666.66668	-13.2438465160693	90.849301996141	-68.3646048102856	98.2423008152004	-77.9378314609905	-147.235024550891	-21.9361004879207	-6.13854758840321	
2431000000.00001	-13.2087402218901	90.5980680941654	-67.7770321673846	85.7758532611989	-81.8662475278804	-84.0720403116348	-21.7873229953486	-6.56952946263207	
2431333333.33335	-13.1951273108181	90.3073933543773	-67.3208019166468	95.4790288932098	-79.4833302870811	-5.38136379219863	-21.6698166893733	-6.61768425063659	
2431666666.66668	-13.1691267256041	90.1451374732148	-69.6425072351069	74.4568461293762	-88.7938250455276	-0.113392839166202	-21.5146365398146	-6.88475534257877	
2432000000.00002	-13.156117090412	89.9774311821214	-64.60377927342	74.7510630363712	-79.920401177896	-47.8940576379463	-21.3689477901215	-7.02522149787289	
2432333333.33335	-13.1385598913583	89.7330940966043	-62.7422629793704	63.722813069605	-78.9518546746716	-6.87534288025226	-21.2248714001765	-7.16261136957124	
2432666666.66668	-13.1145999259133	89.5716184390713	-61.9491364416734	57.1611677827911	-75.2322256428459	7.9303385191364	-21.0698508922385	-7.17303283872764	
2433000000.00002	-13.1102748476193	89.313028586332	-61.7134719653395	41.6546345969281	-77.8399192795868	2.13273882913562	-20.9144463836389	-7.06310440821414	
2433333333.33335	-13.1018069470842	89.1425666921421	-61.3106244543885	39.0235037825124	-81.9211745606303	-64.9417457312867	-20.776827051669	-7.30596311861116	
2433666666.66668	-13.0856375890893	88.9903954638041	-61.3429003494523	23.740699241356	-81.6920556867553	11.6625741123334	-20.6221438579365	-7.24013993002678	
2434000000.00002	-13.0780088120511	88.7340354878993	-58.9763947012279	12.588625281012	-77.4447963844271	65.9251604366834	-20.4772779377521	-7.2291365388879	
2434333333.33335	-13.063845231901	88.499762135893	-61.4640171419318	-5.07408666891163	-75.7946068644274	130.217560586764	-20.3273935929526	-7.48696722310526	
2434666666.66668	-13.0463858822741	88.3195824611884	-58.2670084924189	-1.64143301860333	-75.1762258573361	-9.24732215802053	-20.1754263812832	-7.3992265887936	
2435000000.00002	-13.0457259543238	88.1123145650937	-58.8236822921611	-17.7652622207312	-77.3238414265928	-64.9521390816093	-20.0437097700014	-7.56076608706184	
2435333333.33335	-13.0479443152508	87.8523868031377	-58.7436215081359	-27.9010386621865	-77.6348418076004	40.8226163492417	-19.8849609100042	-7.52551997734496	
2435666666.66668	-13.0293258310043	87.5938112524294	-58.0463785161807	-33.2911047902336	-81.4773336847369	-38.978867452016	-19.7234038027858	-7.59882894165227	
2436000000.00002	-13.019830186349	87.3558087905411	-56.6726979990952	-39.6551167297772	-101.358059569	45.1583237078078	-19.6019549738105	-7.74331631491619	
2436333333.33335	-13.0244527963869	87.0695780925847	-56.1660781112056	-55.5521633672214	-83.109088470889	-179.914198608972	-19.4624096893185	-7.89302206958869	
2436666666.66668	-13.0213494496402	86.7949061137341	-56.0761733762051	-59.9581666058003	-85.2229038043539	164.239400291304	-19.333189898418	-8.042856718733	
2437000000.00002	-12.9983879936009	86.4841877689063	-54.7646673925596	-74.5537059381373	-76.4687523472633	129.79027207222	-19.2260317360385	-8.19375229156716	
2437333333.33335	-12.9987096900758	86.2284990296201	-54.8152385892069	-86.5059751613725	-78.2421023554302	-25.7106371577459	-19.1029424026955	-8.35435008119998	
2437666666.66668	-12.9980462695653	85.859965158784	-54.5902728519922	-99.3635013197597	-89.038615772375	14.2224573135418	-18.980047393402	-8.59415348402029	
2438000000.00002	-13.0009314792663	85.5969307349949	-54.2997280923424	-105.309420930132	-74.7054380648908	43.0592116315698	-18.8825864597523	-8.76273381654296	
2438333333.33335	-12.9836034787161	85.2594009085488	-53.5380784031708	-117.634950193398	-87.2166990546284	-82.941878566813	-18.7621563879735	-8.98322668594011	
2438666666.66669	-12.9942451320634	84.9563448532036	-53.0691780280151	-130.13388969074	-80.110033468568	-61.1353146072938	-18.6690443368522	-9.1437514734505	
2439000000.00002	-12.9808722550129	84.6211221612371	-52.8438405001694	-141.848915845302	-84.5775171841666	-137.740384645329	-18.5999383636117	-9.44242431900673	
2439333333.33335	-12.9941571212931	84.3142296015806	-52.5811093477931	-158.064463293208	-89.3279149803136	-153.086110375488	-18.5113163515041	-9.7299830566377	
2439666666.66669	-12.9946794735072	83.9735609629112	-52.7503810795786	-167.330364171704	-74.2888347732556	17.7394655377973	-18.4324035692567	-9.96639697113824	
2440000000.00002	-12.9840203307941	83.7319492468928	-52.3988557813213	-175.501908564127	-76.6751242104714	32.5995438456043	-18.3545044706079	-10.2349195125816	
2440333333.33335	-12.9931606040092	83.2932046351857	-52.4284629142184	171.724275051824	-75.8212846753982	143.399135979276	-18.3112696856487	-10.4334693526219	
2440666666.66669	-12.9972568204966	82.9006142478498	-52.0408310282059	155.533148679773	-86.3991843311401	-15.8067508545406	-18.2506933605063	-10.6036095350148	
2441000000.00002	-13.0141913390852	82.5620424654401	-52.287523562892	146.597324606316	-82.1978283420184	-105.659421205305	-18.2097250775261	-10.7912562155833	
2441333333.33335	-13.0105779466036	82.167149047506	-52.5148022211628	139.106324750511	-79.7051956785975	70.1533545456715	-18.1599978621623	-11.0071073962825	
2441666666.66669	-13.0483843433886	81.7887313191635	-52.5432137765943	122.73327473564	-82.7129121584006	-173.026050067143	-18.1257920666541	-11.3090196124919	
2442000000.00002	-13.0440348271271	81.4111558454419	-52.3414709120031	115.232592256299	-79.9957836135158	-76.8929450669391	-18.1084951683313	-11.6035760366451	
2442333333.33335	-13.0530745109756	81.2418595292705	-52.7643854034635	102.478829076059	-78.4722265236245	122.186456777303	-18.1088824743713	-11.8979194972643	
2442666666.66669	-13.0936642583896	80.7280549969186	-52.9135139208429	94.6417798529149	-82.1865672223768	-68.81292210995	-18.0994982237469	-12.079927915131	
2443000000.00002	-13.1012002578372	80.3410775158357	-53.0120843317886	87.3657968586934	-75.1857540483096	40.9115745771825	-18.1071889639531	-12.203054616188	
2443333333.33335	-13.1215850539712	79.9611279849145	-53.0566949756881	73.8867647753324	-85.7965741633076	59.3891062287174	-18.1129627492352	-12.3807276788845	
2443666666.66669	-13.1595325715896	79.5004210108562	-52.9487791878983	64.2346929839919	-77.1631593071974	119.394224098291	-18.1308587078084	-12.5370877555761	
2444000000.00002	-13.1669344887584	79.2035394836515	-53.1768182678754	56.2891453757322	-74.7995578285937	35.673554418766	-18.1492109017902	-12.7130252499503	
2444333333.33335	-13.2028725874973	78.8431041602478	-53.6519861182492	49.8516841130838	-76.3162760592711	52.9588863718423	-18.201451155133	-12.8553412101297	
2444666666.66669	-13.2336119309052	78.306283828587	-54.2309138511161	37.9805445992402	-75.481611124282	28.5348393288067	-18.2441610375534	-12.6939343673308	
2445000000.00002	-13.2455976740353	77.9963029164581	-53.4585416231338	23.4659428493625	-83.4703622329636	-84.6746078343113	-18.2892084464171	-12.8690946172387	
2445333333.33335	-13.2878246925648	77.484498259805	-53.5383092389352	20.3578069176855	-74.5133992038739	51.7622946132988	-18.3500662990917	-12.859130416542	
2445666666.66669	-13.3255616747046	77.0882478153509	-53.4431378816352	11.7075869176573	-74.608921145842	-52.7507673047213	-18.4116769892921	-12.751217211055	
2446000000.00002	-13.331620510786	76.6113106550042	-53.9128393292121	-0.045831913524834	-79.5345838050763	33.4610474196874	-18.4856853412428	-12.7110164626278	
2446333333.33336	-13.3641997073391	76.1637607062327	-53.3208596312719	-8.62775735832518	-78.1924664832707	25.9932031429979	-18.5819782986849	-12.6722577743082	
2446666666.66669	-13.4011688899301	75.7175189835922	-53.45301586873	-18.7770982860932	-77.4805363591028	-18.3628004532052	-18.6662874418287	-12.6218548741758	
2447000000.00002	-13.4277580925808	75.1676257699372	-53.8201431820901	-25.7016665421212	-85.0449376385295	5.50038178534662	-18.7466248976342	-12.412662902776	
2447333333.33336	-13.4700694010005	74.7116021866763	-53.6278714867917	-36.3416126574076	-77.5395119738925	12.9563014468159	-18.8370149151127	-12.2221676966227	
2447666666.66669	-13.5077277454061	74.1753214956563	-53.9280947949897	-42.1340415153588	-76.1096901439899	0.821673155162767	-18.9480633784131	-11.9972072899547	
2448000000.00002	-13.5469303647964	73.7597002515931	-53.8193825741617	-53.1001225088994	-74.7432094584264	-128.350956603397	-19.0648245144935	-11.6256307947038	
2448333333.33336	-13.5739148330432	73.2527272955284	-53.1804384689766	-63.6639209416643	-80.4103844110381	-177.999612892179	-19.1735496547387	-11.1473200327528	
2448666666.66669	-13.5988118931298	72.7675291469589	-53.7020724068115	-71.7206413444464	-79.8216914271765	-29.8988452786477	-19.3155459582434	-10.9149940410576	
2449000000.00002	-13.6520077087486	72.2286741478226	-53.4831796852444	-78.6653608837208	-75.5048079978165	112.419278111335	-19.4223807377712	-10.2940072715469	
2449333333.33336	-13.6903397454798	71.706804337747	-53.9478196676911	-87.5026237687343	-78.1748467782554	-129.868326098958	-19.5619077057046	-9.84680111700389	
2449666666.66669	-13.7163682227303	71.1446435287302	-53.4156257700366	-101.189424651563	-76.9979320863093	-97.4235375816616	-19.6669866225351	-9.0781639377065	
2450000000.00002	-13.7537007593835	70.6199692261861	-53.7620353907411	-107.945670806297	-87.6871227071631	-137.684510742308	-19.8159521907937	-8.41632830333596	
2450333333.33336	-13.7943282273247	70.1370181859594	-53.662579720976	-113.697071494317	-78.1282561755416	149.622495633593	-19.9784954501299	-7.77093577927577	
2450666666.66669	-13.8279210726441	69.542877347976	-53.1777097966872	-120.71038379138	-80.7017312464735	-100.081982747542	-20.1275563790799	-6.8520551183634	
2451000000.00002	-13.868453585735	69.0842419938074	-53.2346923812345	-130.271588640021	-81.187959389597	145.493358116598	-20.2407219499148	-5.90603859609003	
2451333333.33336	-13.8996685553487	68.4938894287114	-53.4090518042515	-140.209070941145	-86.8182009231224	-142.204798510168	-20.4117132485709	-4.86354511758124	
2451666666.66669	-13.9303303008559	67.9838284126005	-52.6401607270894	-149.425639915597	-78.2366796154456	98.6363118426037	-20.5356051442036	-3.62537645859597	
2452000000.00002	-13.9503929473715	67.4350837273639	-53.5473090768399	-158.679338352778	-84.5229614706148	178.022168191878	-20.6327574391844	-2.46236279182473	
2452333333.33336	-13.9803983103019	66.8768648582878	-52.8251610334973	-166.087113144795	-79.5325477702119	-165.083955983559	-20.7562338056614	-1.21672431719905	
2452666666.66669	-13.9990925529762	66.3010741958619	-52.9703602089118	-178.104798929101	-80.8587372472494	94.2186077874032	-20.8851680250103	0.0264803173444572	
2453000000.00003	-14.010753399883	65.8269871782927	-51.8296563860609	175.215562386088	-75.8791970145967	-165.005398352996	-20.9609262757172	1.30048673944777	
2453333333.33336	-14.0360967763276	65.1921333968335	-52.5549133773492	164.789234998624	-74.2352709985943	127.225530018887	-21.0561892368913	2.6487564875004	
2453666666.66669	-14.0480321913109	64.6431461596944	-52.4871808654893	154.719993230439	-77.7754406170163	178.381015568848	-21.1421942238726	4.19793228688816	
2454000000.00003	-14.0688934425591	64.0922030850288	-52.2206612032626	144.282218359018	-71.657398446404	172.489791182318	-21.186561536856	5.51657537296988	
2454333333.33336	-14.0807595851164	63.4663676245494	-52.3179935542224	130.851756468857	-79.8436369830271	8.30984280201221	-21.2646249805483	6.94225581350199	
2454666666.66669	-14.0938934819478	62.9828273237203	-52.5335173853232	118.160248862041	-77.1535900006756	130.191710798431	-21.3274090501978	8.59155919634482	
2455000000.00003	-14.0856386664509	62.3466296840988	-52.641957783407	113.153983595886	-82.6715262568022	58.8042376712107	-21.3782008029474	9.88863987998253	
2455333333.33336	-14.1007344441272	61.8609661693793	-52.8508360285452	103.554745892521	-72.0453868622377	57.7702808083244	-21.4066732657018	11.4614397061301	
2455666666.66669	-14.1055859123846	61.2017421222606	-53.0380369329752	94.1184124037082	-76.5619308026655	132.631776814	-21.4367718527829	12.7781955736195	
2456000000.00003	-14.1018956343172	60.5610237705304	-53.0864768615453	86.332260682703	-79.3510937131993	-32.0198838535844	-21.4580414508196	14.3005096294086	
2456333333.33336	-14.1042753388078	59.950308887966	-53.1612174152261	72.6314707218239	-82.1246984535452	-140.167121084456	-21.4748319901858	15.8511952574995	
2456666666.66669	-14.1019256252846	59.4150606774889	-53.6971617424733	61.42709848586	-72.3534378915614	178.055880455699	-21.4425140343771	17.0144851857195	
2457000000.00003	-14.084442563608	58.8932273838794	-54.0840393486218	49.8941782921644	-82.2028041666284	150.492767921209	-21.4178257430293	18.3534241132347	
2457333333.33336	-14.0667250440786	58.3107630782403	-54.6461678720161	43.3046816600905	-79.604775243469	62.1569727076821	-21.422265015592	19.8734961376827	
2457666666.66669	-14.0447131568544	57.6239586648731	-53.9138559311292	33.4934048149268	-77.9967157102042	-147.281934584411	-21.3723864167726	21.1712278900689	
2458000000.00003	-14.0333143585594	57.0444782155426	-55.706734619832	17.6014530540234	-76.7755285649031	89.3421289217812	-21.3243769764284	22.3515793564895	
2458333333.33336	-14.0097992255787	56.45238096527	-56.3800158720523	12.6837220695636	-82.9689397468654	62.9304941610045	-21.2650888308191	23.4781636575089	
2458666666.66669	-13.9936168962094	55.869763122463	-56.4309713608063	7.82179207872468	-76.9895482716221	-171.269824813108	-21.2140991571277	24.6717843077626	
2459000000.00003	-13.9645875540199	55.2768574141187	-58.1416702195216	-6.05198976058397	-79.4956037246646	130.353559376228	-21.1560802292956	25.6082027453805	
2459333333.33336	-13.9353224569723	54.6931617766577	-56.5131660381649	-13.4912320201092	-80.7649115024925	-14.0119556754316	-21.0665953657048	26.4167701124108	
2459666666.6667	-13.9112454842987	54.1916734581817	-58.2674885990004	-9.45477413468792	-75.533495334435	-162.306803948161	-21.0442975585968	27.5879642274939	
2460000000.00003	-13.8809221558623	53.5783656636703	-58.6457920439913	-23.7346421728045	-86.0075067629977	9.07239800951587	-20.9366878481971	28.0638126011103	
2460333333.33336	-13.8472658827618	52.9390948924586	-57.9405234226658	-29.2512032022341	-79.0057810876066	-53.5313870649592	-20.8423981669943	28.8905434881524	
2460666666.6667	-13.8102351673081	52.4253984469325	-59.6939210734217	-31.8575002472868	-75.8814126825684	-76.5178163723567	-20.7857788801156	29.5110177510415	
2461000000.00003	-13.7778417829664	51.8276774194939	-58.20994359858	-33.7715490517585	-76.0700792948795	24.6133660427235	-20.7142599990821	29.955340858717	
2461333333.33336	-13.7267233085878	51.2377973380531	-59.61825975481	-45.2097320328183	-78.8225068541016	-157.136114506411	-20.644019578332	30.5883865319119	
2461666666.6667	-13.6900601774676	50.6238512171068	-58.4747777696344	-44.3610974134915	-90.539938384037	-46.7705697931218	-20.5556038217222	30.822085380907	
2462000000.00003	-13.6429391971163	50.0875934591392	-59.3805626590278	-49.6952473019679	-76.4841845814751	-71.9225218706808	-20.5015085251618	31.2347582113106	
2462333333.33336	-13.5995678623709	49.5243464239313	-60.3014731870889	-54.9695932793058	-84.1089102631068	-95.4654720690749	-20.4607213012702	31.389796333641	
2462666666.6667	-13.5505840071274	48.9633348834337	-58.1441740566479	-65.0199576600337	-79.6883975706209	4.49720053774351	-20.4174991040129	31.4756934504199	
2463000000.00003	-13.4953681991284	48.3871658825808	-58.4940361784462	-66.4197500899059	-101.349124397829	175.283573599105	-20.3790522525816	31.7193405026683	
2463333333.33336	-13.4552899412071	47.8649337517469	-58.1195332915064	-79.1224459812577	-84.2854315643737	-65.5189141414809	-20.3603983113843	31.5484558068306	
2463666666.6667	-13.3990465392506	47.3039538022051	-58.9244535890373	-91.517135720374	-78.5620750311898	-57.8341975026966	-20.3405973599099	31.6081543804692	
2464000000.00003	-13.3476335572283	46.762926183117	-59.1542519943418	-100.771464567147	-79.9703782702336	-84.322155509728	-20.2913229588399	31.3165204451118	
2464333333.33336	-13.2993727083848	46.2259880180157	-58.6832677008455	-102.758585862611	-78.4882229668982	176.553311986169	-20.290122399799	31.2649966502693	
2464666666.6667	-13.2375003093138	45.696008579292	-57.7203273412482	-114.696804320109	-75.7797938525634	-69.8493377631769	-20.2930159982792	31.2404928686555	
2465000000.00003	-13.1809803855982	45.1726680544018	-58.0431730745712	-118.319211560763	-80.7542555781353	-134.941483868462	-20.3082060581619	31.0215840664065	
2465333333.33336	-13.1234882063773	44.6506271090883	-59.1326501023493	-136.284802578536	-82.5590547795687	-169.702247218708	-20.3054198898644	30.6882266141446	
2465666666.6667	-13.0744269633547	44.1780659683413	-58.6754100660021	-146.854369128707	-80.5716787925213	-152.956244721136	-20.3275005895794	30.4815877476888	
2466000000.00003	-13.018518986399	43.6712177839912	-58.3989895896868	-143.075586780396	-78.891101334459	4.77236162497612	-20.3559970607652	30.1915262913352	
2466333333.33336	-12.9610610557626	43.2046504257917	-58.9766093147854	-150.708296177287	-78.359248358954	-137.620224046339	-20.3618992465873	29.9066605147308	
2466666666.6667	-12.8977778818697	42.733555459516	-59.1339265084456	-164.675019020304	-82.8603182353064	-153.739719113454	-20.4495192767327	29.6373931457143	
2467000000.00003	-12.8486620429889	42.2580538633832	-58.9736119672007	-174.820211313677	-74.4147062021321	117.198242145464	-20.4562508444546	29.3327031845624	
2467333333.33337	-12.7881996471774	41.7925776093183	-60.255886120381	-173.852405934695	-85.395263666751	-31.0233797895787	-20.4961657279453	29.0063823871377	
2467666666.6667	-12.7348056096387	41.3490401277588	-59.439395339934	179.217870122382	-79.0892845182582	19.6000787852428	-20.5363435932141	28.6875677309181	
2468000000.00003	-12.6781170508544	40.8932894103488	-59.2914301777556	176.646068992197	-80.6629415029474	-156.369930727659	-20.5583122649005	28.2674827117157	
2468333333.33337	-12.6176829519281	40.4530454083404	-61.0906421742273	162.234080555091	-84.251499681666	-69.6144924870941	-20.6358753294169	27.7942836519692	
2468666666.6667	-12.5676226737322	40.0512095186115	-59.2590735802035	158.473661140144	-78.6663387940812	-13.4382786597343	-20.6707172932	27.3280773555599	
2469000000.00003	-12.5107666580571	39.6495713520307	-60.242058096496	139.364002197333	-80.1681877413245	-49.2444529611139	-20.7152978675147	26.847309343014	
2469333333.33337	-12.4528308600656	39.2543491356356	-60.5158251383783	138.004424671098	-80.355749175165	76.2202189749553	-20.7671716624972	26.3451136759364	
2469666666.6667	-12.3948816244189	38.8505082951707	-59.4096338927988	138.4366573333	-75.477399818037	-174.345365435526	-20.8108838084079	25.8265111876821	
2470000000.00003	-12.3445869727026	38.4516114200706	-59.1285580176779	136.763394171764	-84.9225035910706	-44.8815036787418	-20.8801207751195	25.2386578273021	
2470333333.33337	-12.2878047627904	38.0712841184947	-57.6505163604998	121.97944091629	-85.574316512033	168.926260701089	-20.9459046934429	24.6617329398963	
2470666666.6667	-12.224762713174	37.6759041538715	-59.5762352770053	115.017845024865	-84.2218912257853	138.536187200029	-20.9986928810614	24.086665267955	
2471000000.00003	-12.1766972617207	37.3252592761633	-59.2045298019342	105.275937161928	-72.1536996307059	172.801284282751	-21.0410545371713	23.3851299173972	
2471333333.33337	-12.1212666571626	36.9380334202914	-58.4635877085257	98.9382524155348	-77.683799656556	39.509539322167	-21.1340882063456	22.7408172270129	
2471666666.6667	-12.067238022281	36.5897913019334	-59.2588268438752	85.3405574385417	-82.8911121601147	-107.518599854113	-21.1822345168662	21.8674693524276	
2472000000.00003	-12.0105216983469	36.3155244802578	-58.7468937160768	67.2454135116981	-96.6850482374975	-23.2253537786148	-21.2432768870818	21.1330307125122	
2472333333.33337	-11.9506575433456	35.993612687708	-58.7295530179404	52.6550928819984	-77.2155146811932	150.249899576284	-21.3166206251229	20.3312354312186	
2472666666.6667	-11.900508846958	35.6628224367988	-58.1288812019791	50.6676776259943	-86.8238949398779	5.81026960767087	-21.3854388886473	19.4779958088059	
2473000000.00003	-11.8438744998852	35.3879190175926	-58.9246898040624	40.8886793792884	-94.3721511829919	-10.9467500848639	-21.4686581180482	18.6435839881302	
2473333333.33337	-11.7816349782024	35.1029409736108	-59.36260880973	37.6307002416235	-84.8034361691492	-112.82432017311	-21.5371394949638	17.7368786775812	
2473666666.6667	-11.7377045246873	34.8209424443997	-59.4136044302973	21.1879366135257	-80.983273877558	-74.7342499817681	-21.6061399623654	16.9556380600651	
2474000000.00004	-11.692973579643	34.5383821519221	-60.0568358581905	18.4741012614513	-80.9961275170505	174.140478328778	-21.6919626045113	16.0941362619152	
2474333333.33337	-11.6315686823576	34.2302993099851	-60.3944017969749	0.68592322158875	-76.8353239968661	-8.7166890034306	-21.7587637565992	14.9837872662665	
2474666666.6667	-11.582383327749	33.9891252798034	-60.4236683924162	-0.930189437234754	-81.3820961451953	-73.725514838554	-21.8018195717934	14.0870778009982	
2475000000.00004	-11.5334119318515	33.7213603240001	-59.9467179955124	-12.4997594171747	-75.5326290595988	-119.539848237772	-21.8437131409264	13.1413646963966	
2475333333.33337	-11.4853895541429	33.4440989768287	-61.3335979457695	-25.3944370964441	-79.1272388227993	-99.7148715824722	-21.886654180395	12.2271953139279	
2475666666.6667	-11.4368592532561	33.1693431507686	-60.1052289015631	-31.4145084770815	-86.0988430342045	-92.0079141127809	-21.9406508811732	11.1127805299739	
2476000000.00004	-11.3940916725607	32.8550216640256	-60.8894367798936	-48.8084816193641	-81.1745904503999	-173.736527936043	-21.9737747047807	10.1189653758492	
2476333333.33337	-11.34538591878	32.5881505567942	-60.5471897402548	-45.1253465827077	-73.0912626695736	-154.6294901728	-22.0149132031954	9.01524618267137	
2476666666.6667	-11.2997972688153	32.3339741539999	-63.5649296350322	-49.4108572262291	-86.3729668974122	-52.2743175458214	-22.0593152612565	7.83636835462524	
2477000000.00004	-11.2583448981336	32.0343677954219	-64.820668289238	-61.1290426117857	-80.6180138617288	-87.191162694104	-22.0701149520445	6.74553690246696	
2477333333.33337	-11.2073800359181	31.7327260159751	-62.9851106163032	-76.1560693472695	-80.4730571787553	-85.9584986278621	-22.0758477703875	5.72396386934447	
2477666666.6667	-11.1805455926097	31.480978764612	-63.9892231484294	-101.851375403154	-77.5750444424077	-31.231038639008	-22.0810134487844	4.49636816427106	
2478000000.00004	-11.1340968430769	31.1491835203017	-63.2662343167896	-104.102440012091	-78.393706897708	95.150936102551	-22.0590688567388	3.40941387088375	
2478333333.33337	-11.0898849821368	30.8669041779376	-69.1113020756308	-97.3413605547212	-84.3098262064933	-114.170245871981	-22.0754552670353	2.21533181859597	
2478666666.6667	-11.0498538805691	30.5721068269808	-68.6813150895572	-102.562706468746	-74.9275165734922	23.0794519980458	-22.0372933521355	0.954670178096828	
2479000000.00004	-11.0067671890287	30.3815793450513	-75.5869894211421	-154.348175192648	-73.0160087484553	83.0142180561106	-22.0301642139096	-0.17889835765767	
2479333333.33337	-10.9775420491656	30.0022058390876	-70.739377620837	-113.618271372074	-77.5062798455692	61.9409417913239	-22.0243291707982	-1.39229580946205	
2479666666.6667	-10.9453985440384	29.703534055778	-78.9180309375035	163.153759077072	-80.0759340537517	140.091903856942	-21.994168336652	-2.61563662277818	
2480000000.00004	-10.906704373762	29.4895754037129	-75.5767063311153	-101.456283608368	-78.789401479442	-11.7243385034478	-21.9381871926691	-3.96641134793685	
2480333333.33337	-10.8718240183537	29.1048564695997	-79.5316858616549	-62.4236141406467	-78.1584601672806	-3.58297254672382	-21.9129135125395	-5.07822098342785	
2480666666.66671	-10.8522847897062	28.7780275406591	-79.3036692104988	-1.37743517078804	-82.3765330061945	79.109869541892	-21.8716253434319	-6.45163351301553	
2481000000.00004	-10.8286158055906	28.4598216419682	-75.4594851382565	-99.5461720753564	-80.2034796630082	-112.058877982221	-21.8056779891316	-7.60381015680678	
2481333333.33337	-10.8000854191776	28.058324671442	-71.4905422163405	-39.8972007158488	-75.1995318312197	-9.81171980917382	-21.7500354670149	-8.76180325781067	
2481666666.66671	-10.7797881761953	27.777017028798	-66.3136748950556	-59.6477861207014	-83.2818303872732	55.2927064091455	-21.6823995980476	-10.0379545789771	
2482000000.00004	-10.7516553580849	27.4730316432238	-67.1232812492882	-51.6651893011562	-78.214568761936	75.5377368676513	-21.6115697875128	-11.1920952650424	
2482333333.33337	-10.7325933678137	27.0806519134131	-69.799222693654	-56.0959023922168	-79.91937473862	57.6404836260188	-21.5514924909592	-12.3517760304136	
2482666666.66671	-10.7158758008989	26.7104579073738	-65.4881694000662	-61.4424808137402	-84.7697706744591	-108.010018190842	-21.459272423085	-13.4212124439159	
2483000000.00004	-10.7056433840022	26.3437622905685	-63.259279851413	-77.0482084846318	-81.7729531932376	127.850280984908	-21.3889949158027	-14.5727365523051	
2483333333.33337	-10.6876631039275	25.9829766274146	-64.771076706386	-66.8816530825796	-85.1481835910242	7.05939092402906	-21.2974882244038	-15.832364187054	
2483666666.66671	-10.6753071197178	25.5927859622624	-60.3197048766317	-90.2515504260251	-95.093547686092	70.7786478951616	-21.2045362664625	-16.8508403474208	
2484000000.00004	-10.6557538911326	25.3448765277181	-64.5497440810923	-106.521801848807	-79.6398321307503	-110.723938478442	-21.1082048798376	-17.9808600029607	
2484333333.33337	-10.6501510224641	24.9278888720404	-61.3373325552049	-129.212093456469	-74.9877851580709	16.712800649066	-21.0172181881028	-18.9348695082163	
2484666666.66671	-10.6384590792456	24.5781895717119	-60.020437125309	-121.277143020466	-76.640114567805	-135.765955744413	-20.902560164202	-19.9127194197581	
2485000000.00004	-10.6284776198625	24.269213153744	-59.8844908722169	-131.441071671044	-71.2811635170833	-2.95772588953472	-20.8150659386718	-20.9842495239256	
2485333333.33337	-10.6206601783588	23.9433293108472	-59.7909759493106	-136.073504932143	-78.0026183983861	-97.0805858825196	-20.6976489627237	-21.85666394794	
2485666666.66671	-10.620954346218	23.5171919681877	-60.1486825885671	-144.652492568745	-75.501782704981	-116.622106573574	-20.5855543065939	-22.8139287252891	
2486000000.00004	-10.6167396314316	23.0530262711036	-59.0752046535296	-162.245344559742	-77.0322394451308	-14.3022838200098	-20.5015440530176	-23.8570483205506	
2486333333.33337	-10.6264807036717	22.8150309962588	-59.2988640642472	-168.95207468289	-83.3554714994119	-1.33058616177156	-20.3750591824297	-24.7418314990241	
2486666666.66671	-10.6227511128261	22.2863851596014	-59.4006125565229	178.46946051787	-74.5247026660113	-163.960781861331	-20.2658912948629	-25.5691820442068	
2487000000.00004	-10.6276440165205	21.8810530338537	-56.9527154276208	170.907663231744	-81.960721140001	146.629810732466	-20.1753465949802	-26.5633540474856	
2487333333.33337	-10.6267517986619	21.4960730650932	-57.7800170696922	158.549958483471	-87.0681943250827	74.7608083168168	-20.0815088901211	-27.4456872339366	
2487666666.66671	-10.6376109485444	21.0914893874518	-57.8598400216476	147.137900727505	-73.6410760761651	-0.9413818970894	-19.9776014482078	-28.3063600100759	
2488000000.00004	-10.6461584069214	20.5866289556381	-56.4742600527841	144.017756177276	-78.3980074712024	-148.465521072179	-19.8955144201234	-29.1252745806629	
2488333333.33338	-10.656406421599	20.2354262794344	-56.9789484657145	132.142991863007	-76.8302332520822	-62.1663833162408	-19.804273525485	-30.0712880997773	
2488666666.66671	-10.6611294896786	19.7922014266107	-56.4081152704319	126.735846069978	-75.0235664370142	148.493275805555	-19.7425682598716	-30.8524642797627	
2489000000.00004	-10.6908823481315	19.3035126259109	-56.6673090833092	111.861848035645	-90.6990488695674	-122.840150529714	-19.6451426468592	-31.5889175287748	
2489333333.33338	-10.6957507198601	18.8342536983931	-55.61918496679	102.377720897428	-79.3200451902079	118.72446402458	-19.5824642628741	-32.3328298087821	
2489666666.66671	-10.7159949721664	18.3996988057378	-55.6163459533154	95.0389211261183	-89.4381373618576	102.141480574722	-19.5070989903937	-33.0829948617758	
2490000000.00004	-10.7282969792252	17.9126840154994	-55.2374509571764	84.4071610161268	-85.2787051598422	71.3278486664981	-19.4282384349449	-33.7592882941735	
2490333333.33338	-10.7524585993708	17.4346053958248	-56.014262206524	67.8331088561574	-78.0785497635514	167.690705989172	-19.3814520928838	-34.4751318221813	
2490666666.66671	-10.7776099724024	16.9105758867314	-54.9632192882749	62.8609159133861	-73.641804254676	51.613312666877	-19.3341532528824	-35.0468611366725	
2491000000.00004	-10.8141100097191	16.3899282109596	-55.4354361595236	60.1716445214005	-71.7058293269748	18.0493359917351	-19.2803132284536	-35.594262133551	
2491333333.33338	-10.8409461652776	15.9058767978107	-54.600161958249	49.8832172244622	-72.5184430594106	4.73535282649005	-19.2453487478608	-36.2873168255645	
2491666666.66671	-10.8838852334711	15.4341969002187	-55.7369180699308	38.8311096389212	-79.7832610643004	-26.6071352427541	-19.1827575354475	-36.6895806539333	
2492000000.00004	-10.9037024308942	14.9024697623649	-55.2036572983976	34.5973414086531	-78.1057350196405	-44.4397044109863	-19.1589476372911	-37.1496509051349	
2492333333.33338	-10.9488355770812	14.3808642570732	-54.5639864038945	24.293732794808	-83.0163913449749	-62.0076523847788	-19.1182554044012	-37.5623004833772	
2492666666.66671	-10.9769311123678	13.8490051925994	-55.5228528378236	13.5188528330787	-80.6538235406822	118.277434791366	-19.1018177028414	-37.9939791109236	
2493000000.00004	-11.0170334052862	13.356145617853	-54.8671971406812	9.64278976253047	-86.876324473667	-99.3053108201328	-19.0776141528744	-38.4037940648186	
2493333333.33338	-11.0675696155692	12.7236867913157	-54.6662210417818	-0.576669503211489	-87.1725883619409	-77.8672864196263	-19.0518791676402	-38.666209822771	
2493666666.66671	-11.0970529827588	12.149068887374	-55.0932617834482	-9.23519090687206	-73.4494859149872	-31.9451418599481	-19.0303059979583	-39.0121664451396	
2494000000.00004	-11.1370623886271	11.6496292444096	-55.0829848695922	-19.3653071893602	-76.7322556777767	-93.0440247876008	-19.0235436207834	-39.2392024759546	
2494333333.33338	-11.1767332182815	11.098092458905	-55.1830802519132	-29.9231607790678	-90.7704641625285	20.3461254995458	-19.0149427385083	-39.4507011713221	
2494666666.66671	-11.2190407832356	10.4812099856309	-55.5078756487699	-38.7903766491967	-82.1556146412482	-82.8090761015204	-19.007281997782	-39.6442438497847	
2495000000.00005	-11.2602044824078	9.92482869198625	-55.3657339911786	-45.3961385470596	-82.755777267739	60.1493419668864	-18.9955131351024	-39.8938628144531	
2495333333.33338	-11.3075675467911	9.40303180517962	-55.1552212899234	-56.3116953120317	-81.1566615229434	-65.3729376758043	-18.9967124005876	-39.9435768647555	
2495666666.66671	-11.3547295987222	8.73788846546815	-55.013650469642	-61.2570266129508	-78.0124416158649	-62.7435878158074	-19.0188358067864	-40.2163151066957	
2496000000.00005	-11.3887359225258	8.18510195238146	-54.4731293974407	-71.2882406514167	-81.2897168218852	50.3034210048084	-19.0105085291127	-40.202153243131	
2496333333.33338	-11.4316749118535	7.54842004627883	-55.2891167235992	-81.9616792547204	-79.274617373508	-113.977726086117	-19.0154053882127	-40.3760240610803	
2496666666.66671	-11.4885409616781	6.91933194540445	-54.8882264384315	-80.9865876505042	-92.5228068498614	11.998678128497	-19.0569271755853	-40.4448014238286	
2497000000.00005	-11.517927575991	6.34061264454765	-55.3410652686278	-95.0138520944116	-87.0761044687075	-38.6197142158037	-19.0773604879034	-40.4947583712218	
2497333333.33338	-11.5609623493027	5.71557954428434	-55.8185055937196	-104.081520678429	-80.7120253637906	-95.2651255788016	-19.0931119600524	-40.5048004286346	
2497666666.66671	-11.6237575319327	5.11139512089849	-55.1311751512816	-109.558524004501	-86.3176332983749	-158.136969954324	-19.1332331239258	-40.5574321791197	
2498000000.00005	-11.6577869965712	4.45725861449741	-54.579455009097	-120.938751169495	-77.7011232791238	58.4915513609796	-19.1632688858817	-40.5139061064521	
2498333333.33338	-11.6960691632536	3.83932408568308	-54.9593737539157	-128.740154732497	-78.5644293971891	-53.1477713432392	-19.1881474024978	-40.5548376390763	
2498666666.66671	-11.7394233280666	3.18921248514066	-55.1119773742328	-139.203376169122	-81.2928087303488	93.9630224853148	-19.2389013567084	-40.522093004821	
2499000000.00005	-11.7836422270957	2.54172400625807	-54.9239856644258	-146.099450254532	-79.335369732313	124.671568428676	-19.3047459794289	-40.3081759389819	
2499333333.33338	-11.8181606862754	1.94854321827745	-55.6421958792418	-155.178265893178	-75.9288208527386	62.7117189447413	-19.3561844836515	-40.4696915589022	
2499666666.66671	-11.8662344630169	1.3071765905017	-55.3415817877734	-161.813566904849	-82.0965752826729	58.9551482871762	-19.4207753150142	-40.2063913213376	
2500000000.00005	-11.9087432246717	0.596041986558109	-54.8661349300085	-168.845583015299	-75.6508037871919	-21.5648263010196	-19.495217616904	-39.9467560775508	
2500333333.33338	-11.9452903784563	-0.0142595142655768	-55.172012457535	-172.934256718075	-79.5430637641046	-172.618258591967	-19.5502190793491	-39.7398077347028	
2500666666.66671	-11.9864467552225	-0.68528227301771	-54.5876869090213	172.616816084334	-84.2333597827748	110.036811329443	-19.6437846556981	-39.7148179642506	
2501000000.00005	-12.025206235835	-1.35397157810198	-55.2889179167702	167.915992329428	-86.9195914908243	98.8442376408128	-19.7341158921282	-39.4491072166273	
2501333333.33338	-12.0535404392004	-2.01902235710511	-54.6318769438755	164.689585460591	-78.2089950743092	-65.9276678642424	-19.8348563285697	-39.2002309992112	
2501666666.66672	-12.1022163406321	-2.71888498164382	-54.3448395378697	150.367001150528	-89.9800140363092	48.6944156022994	-19.921811756348	-38.7926782642177	
2502000000.00005	-12.1408743630433	-3.39164034558828	-53.8844615266439	140.509542032664	-78.478908740815	-122.119746790114	-20.0313017436858	-38.3647558376545	
2502333333.33338	-12.1800421505521	-4.12631204975635	-55.2649451124938	131.093159351202	-76.0104438642758	138.774956383996	-20.1382946001761	-37.9486094646718	
2502666666.66672	-12.2048476612896	-4.91848314805579	-55.0465460674628	128.913830770641	-82.4159964098703	-96.9980907752799	-20.2441130358196	-37.4634791603671	
2503000000.00005	-12.2487212671051	-5.59491677934691	-54.604607704828	120.663039086933	-80.4507036150753	104.756974773482	-20.3567513066226	-36.8076243292422	
2503333333.33338	-12.2713848259376	-6.42030287288906	-54.9147921313087	106.587612871685	-81.1440375465044	78.196846286503	-20.4869074102355	-36.399287197911	
2503666666.66672	-12.3019990012538	-7.18096349277847	-54.721778265622	98.7110137990038	-77.7519130045787	105.858582969683	-20.5793537205341	-35.6628256126441	
2504000000.00005	-12.3287139065263	-7.92519630485981	-54.0835673726728	91.8432364880967	-78.0404251146566	28.786661091624	-20.743421192626	-35.0702464597607	
2504333333.33338	-12.3635178852576	-8.65537259985861	-54.5268536193765	85.643449401295	-82.2431384630576	-152.623792705809	-20.891514821315	-34.2398611795074	
2504666666.66672	-12.3838247854473	-9.49024033630752	-54.7037468734746	71.4784964214871	-78.514803245306	19.8614833433796	-21.028670864516	-33.3127736227322	
2505000000.00005	-12.4095640809255	-10.2738049495523	-54.3651771778405	66.7355208567528	-77.7748749396624	110.897707108169	-21.1784970578876	-32.5115256769349	
2505333333.33338	-12.4303713211535	-11.0585558881394	-54.8881862099949	60.1831155870498	-81.2006706872991	102.662191306715	-21.3244319977095	-31.6327538507237	
2505666666.66672	-12.4545571581735	-11.8540271024105	-55.0201897051961	47.2634124388704	-95.0169199226555	77.9627449072787	-21.4724708526311	-30.7525643084193	
2506000000.00005	-12.4635399788029	-12.6305909704346	-55.5840834553517	43.6688494728657	-79.2072244626027	34.0445330145804	-21.6534897921447	-29.3279213861002	
2506333333.33338	-12.4833416843665	-13.4229066435251	-55.2178626532307	39.0060502864079	-82.5662073812503	166.911532309136	-21.7899782926402	-28.1452827504885	
2506666666.66672	-12.499741107704	-14.2393433664883	-54.9184543819291	20.1907413096457	-76.0895384510873	-149.960489186148	-21.9693226242372	-27.0042575026387	
2507000000.00005	-12.5155659206455	-15.032779084183	-55.5129378354791	17.2560031869691	-81.3832308561457	117.454216721954	-22.1397955885905	-25.5753248113135	
2507333333.33338	-12.5263088889689	-15.8663241662956	-55.548808092126	6.64807402032455	-87.0570138104756	-81.1050005546328	-22.3081876220849	-24.1171067491856	
2507666666.66672	-12.5395633302804	-16.6349556991108	-54.8836732205773	-0.587492746843844	-81.1572447111539	52.142423642031	-22.4438657733672	-22.3720046814163	
2508000000.00005	-12.5516458289815	-17.5263839318487	-55.5221378807842	-3.04611532807701	-84.0847745562914	-16.6587552245664	-22.595329547046	-20.5952544754548	
2508333333.33338	-12.5549132915061	-18.4122388633995	-56.2720825689089	-12.8728525282519	-89.3024460242803	-118.129547757477	-22.7291976647922	-18.7915926631167	
2508666666.66672	-12.5653762179186	-19.2468835455324	-55.9358971601539	-29.3233261776008	-82.8644167687791	57.1377644692794	-22.8429744696695	-16.8129394353329	
2509000000.00005	-12.57330271024	-20.0876229851873	-55.8803654329592	-35.0422768881869	-75.3497383022704	-30.5062709155448	-22.9912386322409	-14.561662160711	
2509333333.33339	-12.5777670852825	-20.9670149340641	-56.1192255902579	-35.9836592895325	-74.1942385637889	43.2654151739277	-23.0588973107898	-12.2532766621667	
2509666666.66672	-12.5817725411156	-21.8254187754563	-56.3252698380083	-47.2737740575626	-79.9617980025302	49.6636459370609	-23.1329730302974	-10.2336173915186	
2510000000.00005	-12.5829001828274	-22.7003257996874	-55.7791708613071	-61.3648007821112	-81.3601988537364	48.1131401204421	-23.224822198577	-7.96259921938462	
2510333333.33339	-12.5763108536069	-23.4715681623204	-56.4333083583286	-57.8269167537729	-82.1686182290492	-100.052889206696	-23.2559003513672	-5.50793124354017	
2510666666.66672	-12.5813662259657	-24.3493326809397	-55.4956489022561	-70.5292257224957	-75.9148189218429	-140.672063376948	-23.2504624168882	-3.01305618382907	
2511000000.00005	-12.5860427907677	-25.1550829957436	-54.9466721802009	-78.8400779567924	-82.0235160397006	136.528247645546	-23.2512343865781	-0.650794945056178	
2511333333.33339	-12.57964200641	-25.9834242889273	-55.5615503910966	-87.8854960494973	-78.979571650394	130.877754180551	-23.2535930741277	1.54239960902015	
2511666666.66672	-12.5719786916122	-26.7668689691265	-55.5290397298948	-98.1541836542251	-79.4876965223656	179.339527138908	-23.197626230735	3.87423809604106	
2512000000.00005	-12.5667481057636	-27.5394519155671	-56.4089608579238	-111.096732464674	-73.7309312766128	58.9148973257103	-23.1338942034537	6.25809091223017	
2512333333.33339	-12.5625314308321	-28.3912151789936	-56.275298566624	-111.145484346225	-73.5411983440413	68.7114972375939	-23.0475677470634	8.34252655202886	
2512666666.66672	-12.5559955443744	-29.1010116128452	-56.6323179988205	-122.272495528186	-85.167187057988	116.892634528464	-22.9432531957004	10.5044559186812	
2513000000.00005	-12.5501971450857	-29.8697067928708	-56.5731641229013	-132.800558385567	-78.2569539958602	-167.574094761079	-22.8223030573736	12.964893666509	
2513333333.33339	-12.5400517459778	-30.6473283306674	-56.7835071740962	-139.190658814379	-85.769761955162	105.714830468031	-22.6950527498174	14.7324204115714	
2513666666.66672	-12.5376235497762	-31.4115872258082	-55.9897154276377	-152.875283752075	-76.3785251604849	171.544835327742	-22.5277984446114	16.7352254230085	
2514000000.00005	-12.5270827180797	-32.1530813150574	-57.0143767065169	-154.003127077202	-89.9875032618146	58.0066657435516	-22.3370224666239	18.6424202657147	
2514333333.33339	-12.5180872153699	-32.9194033935281	-57.4367003845332	-164.11975324486	-96.8802229042954	-104.242094599932	-22.1518975670225	20.2145121454703	
2514666666.66672	-12.5102538517045	-33.6629291157436	-58.8641659333585	-168.548426855989	-76.6108912502856	152.037435118962	-21.9825351287175	21.8879727564298	
2515000000.00005	-12.5000452260951	-34.4090531151637	-57.5898597705038	-170.225457639009	-89.8055281458605	107.132688241458	-21.767147338735	23.2200702443694	
2515333333.33339	-12.4956621500458	-35.1278325865757	-59.0034996800778	179.969677796954	-76.3030479828827	107.291997298279	-21.5994430659009	24.5115797520176	
2515666666.66672	-12.49067300852	-35.8564429885784	-56.9939334522604	171.699410536568	-94.7899410212314	-77.1691630316386	-21.3843962248713	25.7427149979431	
2516000000.00006	-12.4802457592337	-36.5203639751246	-58.6378124192869	160.887116823719	-75.9003605142397	-174.57875460213	-21.2049599979081	26.70140319826	
2516333333.33339	-12.4713045577407	-37.1810307375391	-58.743050844174	158.018406003503	-76.1669966841579	103.242168688324	-20.9861658774724	27.5260008820787	
2516666666.66672	-12.4634948914234	-37.897648971828	-57.5590353728333	145.218010656042	-83.887133406764	-132.134509897002	-20.7956569571644	28.3379009858395	
2517000000.00006	-12.4578235461047	-38.5137510693278	-57.9582926859553	142.176007829019	-78.9452090138395	72.6303241482503	-20.6059821672061	28.9026951700671	
2517333333.33339	-12.4465700464229	-39.0723157762666	-57.2902327335829	134.508521980921	-75.0411597465015	155.81078283313	-20.3994917904445	29.5560881000211	
2517666666.66672	-12.4454845952607	-39.6995155390727	-58.0114035462749	119.743842604124	-77.5795437064961	-162.0094078169	-20.2186261445189	29.9634574057522	
2518000000.00006	-12.4422169157372	-40.2815833755029	-57.9644710991899	121.326981791001	-73.1400264266961	67.5457858404675	-20.0569719990503	30.2298543618397	
2518333333.33339	-12.4345763869148	-40.8683195572869	-57.1686241439458	112.367908563478	-71.9863179032969	39.9626375238988	-19.8936277768946	30.4832147656629	
2518666666.66672	-12.4327393466619	-41.4205917807648	-58.0717863159117	108.002181489664	-84.6524038851441	138.69321160226	-19.7377125704307	30.5057235981472	
2519000000.00006	-12.4275679249494	-41.9443744214478	-58.087818071697	94.348348937183	-78.2248752714745	-3.93948915487735	-19.6273038096604	30.7906487218132	
2519333333.33339	-12.430497067474	-42.4820907620965	-56.8219502099543	88.1366095713681	-78.8681270826373	-40.8330135898537	-19.4655448793654	30.7628662840335	
2519666666.66672	-12.4307469794504	-42.9541619676411	-59.7165532037326	75.0163420918429	-88.8680240525435	32.0673091630038	-19.3510698495338	30.7423124501924	
2520000000.00006	-12.4250519569311	-43.4222911475067	-59.1147369565529	66.8951248366117	-70.7801198380209	155.747420462544	-19.2474140366193	30.5082533572579	
2520333333.33339	-12.4276184977019	-43.8814564161255	-59.8560249179478	58.8538455760763	-85.7394091427769	-138.836356154631	-19.1641593919042	30.3829756047605	
2520666666.66672	-12.4348767850078	-44.3350390017707	-59.5258511942325	51.3119122224693	-77.0578028865824	64.0758915489969	-19.0905734471222	30.142819768015	
2521000000.00006	-12.4381523924887	-44.8424388775495	-60.2151325569463	46.1207422065123	-79.8952158876125	-143.866083279579	-19.0107393328637	29.9213940099389	
2521333333.33339	-12.4378735289633	-45.2645424596924	-59.4700906584873	32.3217251189996	-76.3213534871662	-132.142282862452	-18.9294316025851	29.6669778345926	
2521666666.66672	-12.4464306845688	-45.7023920021889	-60.8872008162461	34.1019811214797	-86.4999545600152	47.6763601328799	-18.8792468541936	29.2027565918993	
2522000000.00006	-12.4477603787746	-46.1017734131235	-61.4362476010558	33.6190455649773	-75.0215212289906	99.3128002422522	-18.8385937542128	28.9328873660439	
2522333333.33339	-12.4550342652541	-46.4385744488223	-60.7141228280175	20.312637301329	-82.0457930363741	-19.8132235957631	-18.7828689226568	28.4412598777207	
2522666666.66673	-12.462731505017	-46.8557594200692	-60.2801003432443	10.0387779869253	-77.1049054546516	-27.430571596063	-18.7725812059819	28.0618366021714	
2523000000.00006	-12.4684744157706	-47.1823192946533	-62.3331600529563	16.9214746957033	-78.8890754117749	-172.767230010086	-18.747954753531	27.7016627096316	
2523333333.33339	-12.4761811986972	-47.5350972182358	-62.8546041567763	-7.97407895215416	-77.6723222234071	-97.3134268075997	-18.7592352504062	27.2372979156286	
2523666666.66673	-12.489684184994	-47.9310747422691	-61.4489440863874	-1.8804923852132	-75.996605936922	115.727907045783	-18.7730949182197	26.8067097967043	
2524000000.00006	-12.5070264202725	-48.1838851306788	-61.3257834100294	-2.21233146579738	-76.7889449597449	175.12719146234	-18.7611808989291	26.3465375245236	
2524333333.33339	-12.5203758015201	-48.4425203095699	-61.2538285693901	-8.41139763728766	-100.931092422077	104.293063899414	-18.7815492077021	25.7381594521748	
2524666666.66673	-12.5298468153112	-48.7559132231407	-61.2474620525968	-9.45780349548784	-76.2929100599586	-90.7734548351776	-18.7877229064548	25.2432631230124	
2525000000.00006	-12.5423816506602	-49.0695913481567	-61.3430393956571	-25.4086729645892	-84.262498105414	-76.3970870135243	-18.8335780329914	24.7546746617875	
2525333333.33339	-12.5533134659946	-49.3082425042201	-60.6512038508372	-26.0949274246701	-85.4127563693771	137.343056223771	-18.8652475261402	24.1240901924541	
2525666666.66673	-12.5667181273885	-49.5695540915881	-59.7040763309783	-29.3297653678895	-88.0048131852804	-56.706968642131	-18.9052253263016	23.6936147061375	
2526000000.00006	-12.5876890878228	-49.8473569466868	-59.7510822525288	-39.0309137876047	-78.447508416198	-14.1318999722941	-18.9623138587969	23.0346099131315	
2526333333.33339	-12.6039877261356	-49.9668982660477	-59.4499447367205	-50.9593936553439	-81.4521071747451	-29.2866121357711	-19.0315896402416	22.4255703072307	
2526666666.66673	-12.6306211248038	-50.2928633014696	-58.1817011774802	-53.1222639818574	-72.8781236928571	-49.5624165346189	-19.0977288058625	21.8568371927248	
2527000000.00006	-12.6545072736706	-50.4898012373523	-58.2483274022009	-57.9055857733044	-72.4557755655459	-35.4038853892859	-19.1478848287217	21.2672325569592	
2527333333.33339	-12.6711715320151	-50.7165646116212	-59.3200556897491	-68.4595631371876	-81.1077108404709	-44.2224812790452	-19.2360754690928	20.6243425159981	
2527666666.66673	-12.6987192666624	-50.9206229873156	-57.7896307531204	-78.1435407549659	-74.4680704348204	-104.602721519815	-19.3042108565917	20.0750947410474	
2528000000.00006	-12.721066264846	-51.0830591129689	-58.1570036105724	-97.4605401102602	-88.710872810917	22.5030475890573	-19.3905186974609	19.4475770609556	
2528333333.33339	-12.7480290630235	-51.2853455234812	-58.5913937541274	-96.7753324606757	-81.6405048801543	36.6820268550382	-19.5064933669223	18.7267042192406	
2528666666.66673	-12.7768935702644	-51.4327554165914	-57.0851691805063	-105.595162133772	-72.7776493789135	123.074014099129	-19.5861718124067	18.1372434997618	
2529000000.00006	-12.8125673087574	-51.7221204315363	-59.1431918733658	-108.050037758079	-75.0963574203905	100.889174912309	-19.6727497903961	17.4244730746676	
2529333333.3334	-12.8246572802213	-51.8406242635298	-57.7568253560633	-120.281979412237	-91.5343808240659	101.538281028243	-19.7746274313255	16.7863659983552	
2529666666.66673	-12.8687596584034	-52.0743746363801	-58.0065506271053	-133.170493668508	-77.5562701489232	-164.844492400179	-19.8781708348315	16.0825124375253	
2530000000.00006	-12.8892702945937	-52.314170529719	-57.9617725294659	-138.271060713984	-85.806570061775	-125.911763707323	-19.9930147482224	15.3738644560574	
2530333333.3334	-12.9240962990407	-52.5282567251394	-57.8422409859406	-146.35915518486	-73.9547076532541	-146.501205493503	-20.0962218500896	14.7689777187451	
2530666666.66673	-12.9731546370786	-52.6845065120927	-58.5896937597693	-158.702120784531	-78.9619690719147	-82.2805931469306	-20.2082804205154	14.0415252632414	
2531000000.00006	-12.996919106507	-52.9050235801612	-58.4713800853913	-157.555426218401	-88.6291753338006	-63.9366969482914	-20.3232712195518	13.2800584668994	
2531333333.3334	-13.0366890430746	-53.1415788723033	-58.4754710904953	-167.915071041267	-89.4896589591818	75.3657474209652	-20.4300734032356	12.6596337690129	
2531666666.66673	-13.0805674264658	-53.3020054225798	-57.8447386497912	-168.011206990777	-86.3501893335376	92.2686007210144	-20.5505800190873	11.8626130632296	
2532000000.00006	-13.1219913777648	-53.4980943258685	-58.1206907367878	177.069510286744	-81.6402687606567	80.1854881754891	-20.6409710121121	11.2192342731783	
2532333333.3334	-13.1699596844892	-53.7329746701653	-57.5775912670944	175.41467018675	-81.7216018382271	118.328917586695	-20.7800756754666	10.4857733430444	
2532666666.66673	-13.2077666437949	-53.9641275204528	-57.6444948917403	162.348256937081	-84.0414747822539	-135.398988986975	-20.8720852651092	9.8380913790092	
2533000000.00006	-13.2657641332818	-54.1081218106192	-57.6727089199125	154.507638778525	-81.6137298063355	-135.265952924068	-20.9798756767985	9.05364316189296	
2533333333.3334	-13.3030169881394	-54.4030271878224	-57.9537564262495	150.332678511519	-77.568992049849	71.1556365726203	-21.0867600840574	8.06166428472901	
2533666666.66673	-13.3648084247889	-54.5601161831787	-57.7600754153616	138.546462299091	-93.4965562154174	128.401480801273	-21.2015665637046	7.26662310396157	
2534000000.00006	-13.4164353721982	-54.8133841421048	-57.4698435111665	129.639015019501	-75.7893896329591	39.913615339401	-21.26192206054	6.45127114802491	
2534333333.3334	-13.4646376650859	-55.0273537663866	-57.7414401282177	119.05933320736	-80.0919222537943	22.5362997615956	-21.3658169479572	5.57244886618493	
2534666666.66673	-13.5334094334404	-55.2433499494756	-57.0148402402266	111.521048353226	-78.0674028419892	166.860192743862	-21.4447996009203	4.66498250790455	
2535000000.00006	-13.5944704360648	-55.4226093054099	-56.8098190875043	105.144506000164	-74.4490919458087	169.553089630571	-21.5232183535458	3.62174742853849	
2535333333.3334	-13.6374628388468	-55.7548172931534	-56.9128272798986	96.0903131658281	-93.3488111594898	92.1172730437373	-21.595482559697	2.58761551255507	
2535666666.66673	-13.6982706950003	-55.8337761349126	-57.2375668864026	86.57411624868	-90.8841975254385	-110.251468644956	-21.6589115711904	1.57868033303686	
2536000000.00006	-13.7644487236881	-56.1248563919332	-56.4847718795269	80.8106115730581	-82.2162259899675	78.4715251727916	-21.7337268771687	0.5056831335069	
2536333333.3334	-13.8129298632469	-56.3008421455732	-56.8786806103672	73.3437695669732	-78.9323237997407	-139.099697572219	-21.7727728642949	-0.499691556682623	
2536666666.66673	-13.8750277357523	-56.5984809912689	-56.8601999910237	62.3776777903871	-75.5980949837798	11.4056787984714	-21.8205299249832	-1.62281520787955	
2537000000.00007	-13.9445176709057	-56.8148251732451	-57.7431756532023	56.5253144253207	-78.7684704363014	5.03707979972468	-21.8935589909833	-2.85408218792859	
2537333333.3334	-14.0080226783558	-57.0337391663001	-56.8461040447172	48.8349612171264	-80.1181517365586	29.6714825016026	-21.9255818371669	-4.16054683578438	
2537666666.66673	-14.0836252444176	-57.3479846299563	-57.2356570247087	42.9965315396063	-76.204412117948	107.272842340873	-21.9586342724865	-5.32173407783163	
2538000000.00007	-14.1489582323115	-57.5609899294201	-57.0837047852451	33.1405487745607	-81.7374635355412	-81.4950520871852	-21.9762545150065	-6.46479734277136	
2538333333.3334	-14.2010692853823	-57.7607318230908	-57.2983463239233	25.7510607473697	-87.5077006511654	176.905781488901	-21.9938927307067	-7.79987380519327	
2538666666.66673	-14.278850189788	-57.8891138531405	-56.4405980748627	6.98802066095755	-81.3915844613301	-32.0126711495351	-22.0051622833342	-9.07863004469201	
2539000000.00007	-14.3683639726737	-58.0823954325358	-58.5983965023739	8.61306216978916	-78.1665412866545	60.9065243543522	-22.0191323068716	-10.4107171509871	
2539333333.3334	-14.4657799590622	-58.4845474327533	-58.2073433547148	-3.42451030106461	-91.8289083774848	59.1417298279126	-22.0130545421838	-11.7430362008663	
2539666666.66673	-14.53998632309	-58.7177990759681	-57.6785047505517	-13.0903432120004	-74.2569382361495	-177.206462863704	-22.0118276699733	-13.0848778109437	
2540000000.00007	-14.6063269294593	-58.9240244528512	-58.5494016326238	-23.8821563138364	-75.7535506872484	170.878351018211	-21.998306618905	-14.4305661685151	
2540333333.3334	-14.6937032564271	-59.2254162458468	-58.6928517360731	-24.8042169775184	-75.4364241892161	79.292474139069	-21.9898250968576	-15.7048928678546	
2540666666.66673	-14.7848730388437	-59.4399188672506	-58.9405725324365	-32.4352998250999	-74.7823241637425	-46.8794464498387	-21.97229567463	-17.096084191475	
2541000000.00007	-14.8738912620561	-59.8275726840546	-57.4688697358557	-43.5174794061695	-80.484634756129	-162.826051842509	-21.9342350903001	-18.4660782925346	
2541333333.3334	-14.9363430484113	-60.1149766310209	-58.4920657584024	-40.9944515492419	-80.254940727685	-115.348514645314	-21.8923380086804	-19.7632251046924	
2541666666.66673	-15.0214753810603	-60.5028389055561	-57.4269359092548	-47.9376627854424	-81.5502697152077	-59.6725200779377	-21.8533197334868	-21.1454353614866	
2542000000.00007	-15.1329444817233	-60.8842723095814	-58.3461298988437	-64.0426808648313	-78.980063403063	-64.9001245716517	-21.8233625650164	-22.4961217480415	
2542333333.3334	-15.2140922648869	-61.1684312462873	-57.6396937655243	-64.5102338129077	-74.8326452208247	-96.056729433686	-21.7566923435453	-23.8538132276777	
2542666666.66673	-15.2991116379376	-61.5041456871082	-59.2479972358096	-73.7038100654972	-84.4138703096542	5.0739668445065	-21.709596531597	-25.1134263426377	
2543000000.00007	-15.3862336859151	-61.8502496054944	-57.2732154210723	-75.9202394140755	-76.4979397280283	-117.167969174194	-21.6311561615999	-26.4653425605154	
2543333333.3334	-15.4800618817973	-62.2822554227996	-58.8173965469563	-90.0586585025785	-75.70237850042	-76.0813534166009	-21.5748071653318	-27.7203802243486	
2543666666.66674	-15.584937021636	-62.6462302857259	-58.9119907254855	-94.7683322286899	-73.9611261627359	26.3737335925083	-21.5009550761083	-29.0325674269062	
2544000000.00007	-15.6659974990656	-63.0235811024396	-57.8383060128051	-101.340621284602	-75.1562670759595	-60.6562207282734	-21.4075979504151	-30.1891785382397	
2544333333.3334	-15.7712749675204	-63.3729199633124	-57.9709068830095	-111.272449239008	-86.1956663601279	-95.3029640033713	-21.3419319021638	-31.5772256009129	
2544666666.66674	-15.8856169075448	-63.8153842519377	-58.5489125653797	-108.290979803114	-79.385008342739	-64.5116682705373	-21.2618457893882	-32.8220706386828	
2545000000.00007	-15.9746654535433	-64.2625264019191	-58.7394428855498	-121.506617722729	-75.1394103305554	16.0095302005255	-21.1904302162486	-33.8828262189163	
2545333333.3334	-16.0938088817529	-64.596527140478	-58.3144494503725	-120.674772728833	-83.2525787560563	-125.169170122831	-21.1108633538384	-35.0681114213452	
2545666666.66674	-16.201294340764	-65.0707803536445	-59.0923844393119	-133.356993961197	-83.6397736932263	155.095493184323	-21.0394963333557	-36.380331487362	
2546000000.00007	-16.2958526379868	-65.5119112930048	-57.7513121606175	-142.741197667557	-76.3006247129797	-176.4378913377	-20.9700933102628	-37.5501453130676	
2546333333.3334	-16.3862975470941	-65.9446687793734	-58.2998446042914	-142.297593747189	-80.3069300269704	-13.7169732830546	-20.8853667519213	-38.7687976918861	
2546666666.66674	-16.4979465814734	-66.6289581852529	-57.7218219888046	-148.524872668531	-74.5803729223259	18.6112455148139	-20.8138819243641	-39.9277019582347	
2547000000.00007	-16.5968804334467	-67.073825560237	-57.057112505553	-160.406080917972	-75.471570433358	136.102387716905	-20.7737230579132	-41.0440839976997	
2547333333.3334	-16.7091019008604	-67.5632906814553	-57.0968797096044	-167.987929358882	-74.206635114693	-159.386903423388	-20.7256946932569	-42.1687982110959	
2547666666.66674	-16.8148223817271	-68.2383739583134	-55.7114724374908	-177.994160767538	-76.4019001963808	-15.2749077138703	-20.6949146118863	-43.2114579305725	
2548000000.00007	-16.9013086567404	-68.8095616702357	-56.2183505905274	178.299426297406	-84.9823040391362	-176.490390554868	-20.6300440057901	-44.1905940471937	
2548333333.3334	-16.9960792360091	-69.4529336058076	-56.6257424967738	162.961768196136	-82.6303786185748	171.408286547648	-20.6003087775218	-45.1485784315035	
2548666666.66674	-17.0814744619963	-70.0777936894527	-55.8382241212796	156.176101812036	-78.3229680791553	-102.355698494578	-20.5970532237082	-46.2206214391545	
2549000000.00007	-17.1686688949559	-70.7597251114028	-55.8642590258357	147.525160821302	-77.8965488982253	43.587707604977	-20.5554944275722	-47.1066867871672	
2549333333.3334	-17.2654299637269	-71.5849169649057	-55.8066045494127	141.315285783129	-83.9650799119609	119.861852866263	-20.5586641116297	-47.9512786737873	
2549666666.66674	-17.3549517914805	-72.2706764720962	-56.645125151831	126.990526400489	-77.0178403821542	65.3122971053281	-20.564774541465	-48.7937257278258	
2550000000.00007	-17.4354725054501	-73.0849248393822	-55.2761219253871	119.42006808171	-77.7920963376523	-61.9542421893889	-20.5705936376793	-49.5804786585158	
2550333333.33341	-17.5377081130288	-73.9465632217318	-55.4006234437347	105.919205949673	-86.0892084714452	-110.256210992435	-20.5696441913236	-50.3037308234264	
2550666666.66674	-17.6154953030058	-74.7348360351613	-54.5489332979536	100.471449887783	-81.7297163188374	84.4311441355353	-20.604578753534	-50.9283729971256	
2551000000.00007	-17.7023280228429	-75.7081833389467	-55.7344356833172	90.6098383236161	-77.176195249114	-102.858891741269	-20.6162008462159	-51.6059496582171	
2551333333.33341	-17.7669789614803	-76.561577730344	-55.9506354649405	87.2297508065215	-79.6176041058387	87.9550691879533	-20.649376836369	-52.0551023485411	
2551666666.66674	-17.887566008213	-77.4683862723736	-55.2741224436471	82.9094581352292	-79.6881116808494	166.164753563897	-20.6994374735378	-52.559755707529	
2552000000.00007	-17.9564442505337	-78.4170531402813	-55.4112706541815	76.3805923663399	-75.0877863117579	143.561578940562	-20.7471052666263	-53.1287149998593	
2552333333.33341	-18.0587160273161	-79.3683160773272	-55.481231390141	53.7859556705338	-76.5542142293696	-32.4566559333098	-20.8071515334702	-53.3708439220195	
2552666666.66674	-18.1298067240608	-80.3678757884276	-56.0598348811206	53.6318706129513	-81.366490250739	50.9592991014352	-20.8684565968583	-53.7206975964075	
2553000000.00007	-18.2160824896266	-81.4335516098022	-55.9029118038269	50.0633260444627	-83.1093805199849	-112.668527543755	-20.9402360787509	-53.8606562711101	
2553333333.33341	-18.2941694263987	-82.3608198887385	-55.7504500246066	31.3756722492175	-82.8059709301404	-11.7555061730086	-21.0428836930027	-54.0823716915844	
2553666666.66674	-18.3702867879767	-83.3607848232534	-54.9653869893598	27.1142324896385	-72.0184408829875	19.5302431742659	-21.1650163337011	-54.129182172087	
2554000000.00007	-18.4344244760569	-84.3083742907783	-55.0208802341694	22.8985608293134	-77.1102289499039	-109.736700698783	-21.2455194978962	-54.0547836920011	
2554333333.33341	-18.5013616666161	-85.3928353596519	-55.0658119934898	6.8007693524066	-82.6775558144496	-0.536566768957518	-21.3843302516735	-54.0074106892731	
2554666666.66674	-18.5719554964234	-86.4379262114787	-55.848184473073	7.82413081918743	-73.950978402974	-7.40756130853242	-21.499805286744	-53.7978297892302	
2555000000.00007	-18.6305706280597	-87.4639274998139	-55.0905865594791	-6.68968718747313	-74.8440524851593	35.1626564370028	-21.6607750697394	-53.2433519874177	
2555333333.33341	-18.6755439974961	-88.5321943777022	-55.3591437117152	-14.6691680920892	-79.0004833401778	-160.560929061413	-21.797184236612	-52.7910540395921	
2555666666.66674	-18.7264202820656	-89.5488203881622	-56.5677385022154	-18.2417841463677	-77.7002756630365	5.45880581133348	-21.9536830902574	-52.1418375302964	
2556000000.00007	-18.7754484768471	-90.6520030377644	-55.8321654495569	-27.987759359311	-82.7679958053438	-55.0479891494212	-22.1055288354232	-51.5565399062645	
2556333333.33341	-18.803194060809	-91.5884076768183	-55.308671344068	-39.5696061952683	-79.5764072980245	-8.89139267629118	-22.2435199664968	-50.2946772510249	
2556666666.66674	-18.8306492571188	-92.6799029641432	-56.4945469177731	-39.8682052335162	-80.5189487953839	-93.9261725218002	-22.3914106359535	-49.2368308168522	
2557000000.00007	-18.8772009080118	-93.6195544827229	-56.0319714509713	-62.0391907279498	-77.0242977876012	-70.1419946537722	-22.5391003431537	-48.037969473571	
2557333333.33341	-18.886447068825	-94.6770266538232	-58.0437645879355	-60.4215797437373	-76.1459079685599	25.4743925133827	-22.6746987089116	-46.3652787005116	
2557666666.66674	-18.8936182075166	-95.6989180153516	-56.9458096466302	-67.3404423355243	-73.4863940488215	-2.09008267446212	-22.7956566727361	-44.829620337885	
2558000000.00008	-18.9193588606702	-96.6209878637333	-57.746310223506	-81.7050703408063	-80.5993772793894	33.2707564230775	-22.8698172313123	-43.1786914500445	
2558333333.33341	-18.9057637159945	-97.5419862551876	-58.2831276949672	-80.7918124286468	-83.7521270025004	-0.850685291347728	-22.9669391505797	-41.2234330503508	
2558666666.66674	-18.9181840702166	-98.4937154082231	-58.0185420658581	-91.7136570649371	-79.4290891168118	-151.423611662399	-23.0172860805337	-39.2646808652548	
2559000000.00008	-18.9226577367892	-99.4076886471792	-58.1135671272716	-92.2758954544271	-79.5361836108527	-175.025013556184	-23.0622653668354	-37.1500317244436	
2559333333.33341	-18.8891835104467	-100.346278600149	-57.9422127927865	-101.47740640708	-80.7500423924552	-11.9461988861921	-23.0780189858215	-34.9983329421776	
2559666666.66674	-18.9069108123411	-101.314635436366	-57.8338475740814	-114.307933084869	-75.190269116534	59.6374248551532	-23.0742277796517	-32.9208266054088	
2560000000.00008	-18.8616228362441	-102.131041208834	-57.8774431475168	-110.482020184263	-76.0986127782227	130.006595763953	-23.027961049895	-30.7501823799971	
2560333333.33341	-18.8502103201424	-102.991438020091	-58.0053920960849	-129.082730901803	-82.0401461759546	-157.233210189885	-22.9621592238142	-28.4760703821007	
2560666666.66674	-18.8320016499338	-103.937064425091	-57.167717299295	-131.32241576429	-87.3998114493632	162.089255941146	-22.8318780201487	-26.5696971041123	
2561000000.00008	-18.7815411291771	-104.655188754168	-56.411643402802	-137.3154332397	-80.4199115793369	-75.1910820545683	-22.6991189211625	-24.5358576909824	
2561333333.33341	-18.7419496950811	-105.468655647332	-56.6282961671828	-143.127526060365	-80.2078680610264	-16.4798478145272	-22.5716134956564	-22.6670686336791	
2561666666.66674	-18.6976098394407	-106.330717558378	-55.9770024463434	-150.396029851563	-81.828702794471	61.7252211274898	-22.3994150597994	-20.8587509208219	
2562000000.00008	-18.6541750256362	-107.095701415866	-56.7532709433607	-158.475387727086	-82.2411864334524	-114.876730575733	-22.2152454355117	-19.1116140025852	
2562333333.33341	-18.5952132868257	-107.861149075666	-55.4814497827498	-166.271084309216	-81.5221331863488	56.9470527151106	-22.0385481751527	-17.442575603762	
2562666666.66674	-18.5221344975035	-108.637061151685	-55.9468405081439	-173.551262863	-78.0320566910388	83.0671640074999	-21.8097378064889	-16.054805882458	
2563000000.00008	-18.4642599676657	-109.324121549885	-56.4314534688287	171.492541393938	-93.2287574893706	-147.251575497679	-21.6295804137096	-14.6870653836834	
2563333333.33341	-18.4124539916902	-110.049811408382	-55.3382208062015	166.111118765464	-84.7583374907189	148.885199392672	-21.3923350129122	-13.5730556033092	
2563666666.66674	-18.3209748516744	-110.643004683914	-55.7960744524944	160.332964348222	-95.0045716139012	1.03804169663589	-21.1965572433359	-12.4087634710324	
2564000000.00008	-18.2781040346133	-111.258814234562	-56.0067678932123	147.410679612474	-74.7641669863269	-55.920862728541	-20.9958288445448	-11.4771787088404	
2564333333.33341	-18.2052381487666	-111.924386939686	-55.4965952995179	147.329571436375	-77.4018383544191	158.575596284835	-20.7833840345224	-10.6850851739801	
2564666666.66675	-18.119032463957	-112.600899188662	-55.4184682521697	131.589857250327	-83.8628850688087	-27.4321460128817	-20.5928810992688	-9.98701355926804	
2565000000.00008	-18.0626592640444	-113.22775068896	-56.2090096830391	126.565051424481	-81.2363788164049	61.0124151834407	-20.3936897365952	-9.28700001775979	
2565333333.33341	-17.9772983557293	-113.877339654668	-56.1065495717202	117.523775228973	-84.4391786673937	-32.4179158522207	-20.1927153311177	-8.85922794445593	
2565666666.66675	-17.9014710045348	-114.447599538204	-55.9522556014325	111.454571650024	-83.0593335479326	17.8294325146363	-20.024737573169	-8.44773651132774	
2566000000.00008	-17.8239032591356	-115.083262310965	-56.2302234804736	98.4251388897935	-73.4724567111959	106.373050252623	-19.8497874652832	-8.3348232753987	
2566333333.33341	-17.7461097816852	-115.631231121896	-55.8806662620101	95.1517519485987	-81.945983940584	-38.1443167327126	-19.7006187317192	-8.06227337210301	
2566666666.66675	-17.6895679658859	-116.211447726366	-55.9956872221566	86.4107987147799	-76.2556563044869	116.324124854401	-19.5483866026558	-7.75212841258017	
2567000000.00008	-17.6155861814524	-116.776546536964	-56.8855921410371	80.7533833051056	-77.7707453552001	172.773632265887	-19.4096839147136	-7.78321297754719	
2567333333.33341	-17.5307036324196	-117.423408156606	-55.0778253856859	72.9659724682657	-75.6245172540262	64.6123593300694	-19.2893945100387	-7.69729041686824	
2567666666.66675	-17.4597835959202	-117.975092034608	-55.3210036737749	66.1491627111329	-79.5627505927615	109.443289486715	-19.1725312857008	-7.54980774505919	
2568000000.00008	-17.3764395888068	-118.609240485299	-55.6069766459311	54.2808881953568	-83.3943232631058	90.8977317406243	-19.0585487771408	-7.56301864314535	
2568333333.33341	-17.2969462672382	-119.16445521138	-55.464449087683	47.755916238537	-83.5098558242022	107.51954634194	-18.9835789655873	-7.71331748939272	
2568666666.66675	-17.2263357812313	-119.692278085992	-55.3398583164974	43.2337933816353	-82.3413884775211	26.6008990379236	-18.9075001623509	-7.79172172112161	
2569000000.00008	-17.1504041863381	-120.318037700652	-54.4822758463096	28.6326754904709	-79.0158230516382	127.486775477395	-18.8327945326212	-8.11699902614929	
2569333333.33341	-17.0668958550784	-120.846312041902	-55.4624593729247	9.6176028226407	-76.0059766475192	-27.1941457511011	-18.7963913227808	-8.30766249579903	
2569666666.66675	-16.9909103116778	-121.377976709467	-55.2592319475758	7.41557452922449	-82.0649686793153	-123.396604591651	-18.7413076598147	-8.40175572760641	
2570000000.00008	-16.9325975488794	-121.993373966147	-54.2607384247079	0.0439398499185128	-73.7838855751705	-51.9344739730326	-18.7243587482481	-8.54483999715295	
2570333333.33341	-16.882774726301	-122.64616980859	-56.1980144545533	-9.81126163877438	-77.1654467923461	19.226901828553	-18.7215538479401	-8.64194739302737	
2570666666.66675	-16.8052555662558	-123.152068458114	-54.9006352396912	-18.8469595714725	-76.8604840615763	-94.0425144540905	-18.710128274653	-8.96221282663674	
2571000000.00008	-16.763593535736	-123.741338228508	-56.323442369808	-28.6822595448513	-88.2381842687577	2.62987264919671	-18.7295802138123	-9.16852750301005	
2571333333.33342	-16.7149047136948	-124.343392026132	-55.5799616032081	-40.8839166596486	-77.9882030386795	152.421343907717	-18.7667982346491	-9.29448105283722	
2571666666.66675	-16.6627697167387	-125.007923674851	-56.0116383823892	-47.3048568199312	-77.3948822055665	-145.60531964005	-18.8180939347186	-9.55047239696497	
2572000000.00008	-16.6099700753788	-125.533848854787	-55.1515165908125	-57.0080903634402	-77.3575449478927	-63.743456859508	-18.884294885058	-9.70415461159211	
2572333333.33342	-16.5657481752592	-126.093551456645	-55.3228453323205	-63.1289368466095	-83.0684922134655	-178.226241360364	-18.943216034508	-9.83878289662825	
2572666666.66675	-16.5258300526902	-126.640656155926	-56.3744772208924	-76.3362084855715	-79.1793147131297	125.426201073553	-19.0364855816289	-9.94548819176179	
2573000000.00008	-16.4915647292486	-127.36993909183	-55.7649699431499	-85.5679111160208	-82.2374562290517	85.5979034553585	-19.1321653140958	-9.86388940638656	
2573333333.33342	-16.4750451053359	-127.986291256204	-55.8665820245588	-88.1580761140494	-86.6601814921611	146.047301338548	-19.252907952881	-9.83465964964895	
2573666666.66675	-16.4416257879301	-128.447157743506	-55.5285986765659	-96.2066291490148	-77.5028677851612	-56.1744500709026	-19.3920536862305	-9.68827980977387	
2574000000.00008	-16.4127175960433	-129.156618455406	-56.3896310370807	-111.195254504883	-85.8388204896936	-142.283084229344	-19.5097490029285	-9.5228513344519	
2574333333.33342	-16.3720400776577	-129.756796462164	-55.8298446927944	-126.305748582853	-79.7349984390873	121.451724631142	-19.6383209890909	-9.32969816016613	
2574666666.66675	-16.3543987055215	-130.42896879974	-56.4998835592011	-126.670719017739	-78.5602452221375	98.6362348096018	-19.788008359764	-8.92416977196713	
2575000000.00008	-16.3499167837424	-131.014120665328	-56.6981840297593	-139.456421179093	-79.6981596975471	-30.8406651261656	-19.9863108934872	-8.46938495849804	
2575333333.33342	-16.3185729999027	-131.690992402918	-55.9474952007496	-149.526775671733	-93.7540709032039	-39.5932096707739	-20.1279846636456	-7.96593345613264	
2575666666.66675	-16.3423786607956	-132.311155529828	-56.7476817327253	-153.434097826919	-78.68958763484	161.580733717483	-20.2986058304741	-7.26881286226267	
2576000000.00008	-16.3123723471098	-132.935908211266	-57.3964558830852	-163.666932851091	-82.0591978833162	-51.4229563720397	-20.4789095548607	-6.42250946309702	
2576333333.33342	-16.3094143572411	-133.550623870019	-57.7929399689825	-173.053970796114	-84.0173236409241	74.9876554128945	-20.6343783266084	-5.62623749811479	
2576666666.66675	-16.3161790003392	-134.248931213382	-56.8287376833416	172.592241200341	-73.8770513115908	115.736034858593	-20.8151278216939	-4.69915138163993	
2577000000.00008	-16.3367530069843	-134.93582538109	-59.4678436314892	159.997610949991	-81.4723138948098	89.4681282332339	-21.0119469629191	-3.5493894652099	
2577333333.33342	-16.3558934624171	-135.489454447199	-59.8114002722449	158.691126493135	-96.0147923314124	139.085756657378	-21.1740861222273	-2.16471165222764	
2577666666.66675	-16.374808684062	-136.522975796089	-59.8620324880254	139.874696782775	-82.179355482723	138.036891036422	-21.325378306361	-1.0456998655447	
2578000000.00008	-16.3948490306364	-137.081917007256	-59.8055391654265	144.713310405026	-75.8069938506229	120.248295491524	-21.4886940026181	0.425540235226559	
2578333333.33342	-16.4290267482686	-137.736917306203	-59.6532119863704	123.904044864574	-82.4766244100885	4.56752731589097	-21.6382209886639	1.91196615973612	
2578666666.66675	-16.4641454299786	-138.417205546908	-59.8498147620568	132.147517278249	-81.8332198482287	16.4661701687356	-21.7333660401932	3.68879521583062	
2579000000.00009	-16.5262373405584	-139.095285989781	-61.3349862124294	124.750153365701	-89.3132973226759	-42.3509427566906	-21.8198788873619	5.29547459959077	
2579333333.33342	-16.5670295494837	-139.965078360958	-62.6241164472884	116.308308143262	-81.9409349998876	-0.307165476154031	-21.9372304275942	7.27124061926724	
2579666666.66675	-16.6153042547836	-140.654725191095	-65.9631263138357	116.905811192042	-78.0148343291774	152.969487297356	-21.9915762735823	8.88364750859028	
2580000000.00009	-16.6638172376639	-141.394046077784	-64.3135786320861	119.460546546964	-79.3924330925083	93.6648574344588	-22.0332266787273	10.7565250905269	
2580333333.33342	-16.7342509632193	-142.034910227786	-62.0676961667491	110.452151380799	-78.5033057895009	-89.7497667007959	-22.0566357810379	12.5455160437155	
2580666666.66675	-16.8160427367118	-142.818435844834	-64.6319972469087	88.7571870706643	-88.2344185481228	76.9291711243636	-22.0742655409868	14.4152321542504	
2581000000.00009	-16.8987117006289	-143.746699417546	-64.5058175160836	91.0870231927922	-83.0962169447697	-47.2365705863965	-22.0288764425235	15.9256221763909	
2581333333.33342	-16.945815772165	-144.465700256457	-64.1048402563136	86.3870511672825	-89.5960474108945	7.88182284646438	-21.9614984004949	17.7697369779974	
2581666666.66675	-17.0363809306826	-145.42999336948	-61.7961688603883	73.9823661795281	-92.6695459008101	-98.6748257677518	-21.9155097397385	19.3984974874881	
2582000000.00009	-17.1113786946702	-146.104012560993	-62.3752194928067	64.7364445801613	-76.252635549772	-40.1024019300292	-21.8522135214039	20.8738125366181	
2582333333.33342	-17.2048367546844	-146.865239442374	-63.4054635689116	57.3073950395101	-69.8398832711899	-132.428938322666	-21.7725596541993	21.9280072276284	
2582666666.66675	-17.2846435060085	-147.682728741791	-62.3220980853636	35.0844495993759	-85.9959756832959	14.51435265943	-21.6652377203078	23.2526976061895	
2583000000.00009	-17.3718023775178	-148.539069107023	-62.7828250986211	16.6395884568774	-81.2387289834534	119.44163758699	-21.543493026816	24.3479235733282	
2583333333.33342	-17.4746586399768	-149.323140559538	-64.5594465996561	10.1452178272261	-80.2508411616819	-17.4075527621697	-21.4411103081256	25.2402365484927	
2583666666.66675	-17.567716063462	-150.126201524658	-63.7638936808553	11.0181856767663	-81.1631726749154	2.97025950813253	-21.3003825416242	26.0973897815267	
2584000000.00009	-17.6964001165061	-150.914758463651	-62.8695979000235	-12.2961022561511	-78.8606870043472	129.991330752471	-21.1621381136427	26.6131460292861	
2584333333.33342	-17.8137134638466	-151.764198617463	-65.3483218107603	-17.6894749415791	-84.2216892590857	94.3905583417672	-21.0678687995176	27.3025159645451	
2584666666.66675	-17.9163630312136	-152.674724543008	-64.9286890116789	-1.19049297786673	-90.0436621560137	-156.084435422743	-20.9544892034049	27.6229792893941	
2585000000.00009	-18.0300574635726	-153.557114348652	-67.1195736745615	-31.9063169414896	-74.1079145362667	38.5496229681491	-20.8467524672993	27.7244594187214	
2585333333.33342	-18.1526421860709	-154.262469916546	-74.1653879994673	-25.5958120761233	-75.230618764574	127.854001830959	-20.7316316413597	27.8612502448459	
2585666666.66676	-18.2688697899631	-155.204119210129	-67.0029558140409	-56.9006183656042	-79.2111181313171	-108.327412604646	-20.6303641424843	27.8234071526491	
2586000000.00009	-18.3920047902509	-155.88103125817	-74.6157340685837	-20.7084674415227	-83.0279808718559	-48.2993285611288	-20.542155696055	27.8269313678663	
2586333333.33342	-18.5311637204365	-156.841614996236	-68.5341064595759	-53.7843751588525	-72.4303965211476	-174.199667792882	-20.4466121717986	27.5442549617282	
2586666666.66676	-18.6570201825835	-157.80228503216	-70.1595653354908	-40.1573398556821	-74.3790436355948	152.163014467334	-20.3809309535284	27.1456162154101	
2587000000.00009	-18.7849386608115	-158.706438009777	-68.2697819325314	-41.6716319133561	-77.3662438397051	63.9362564255935	-20.3366650804127	26.6992896208245	
2587333333.33342	-18.9032378170028	-159.537025903827	-69.2485744233746	-35.3082631592227	-80.9145554753288	-156.569689246853	-20.2566801057815	26.151198194156	
2587666666.66676	-19.043068861657	-160.54242820535	-65.8455357381828	-47.9842892712153	-80.8007796294025	105.133833981834	-20.2191132576284	25.5093860630797	
2588000000.00009	-19.1986068194078	-161.49837687894	-70.3063699808421	-50.5300357495313	-79.9487307686115	-107.533276705606	-20.1886177607621	24.9781841376383	
2588333333.33342	-19.3053154741735	-162.289876675665	-68.7994812687884	-49.2331842625912	-91.2610983755278	-159.985403590565	-20.1815165883894	24.0733554920752	
2588666666.66676	-19.4618279715549	-163.144321335203	-64.8815521241808	-59.1947647367039	-81.0056917359768	117.559895834855	-20.2079408864803	23.3360326344822	
2589000000.00009	-19.5844663030767	-164.173270828404	-67.5676009927629	-69.6138749506936	-82.8432025128264	-120.298387074029	-20.18343419726	22.1993784639129	
2589333333.33342	-19.7143566501679	-165.121788640283	-65.0045996775022	-78.7290663247086	-82.6080153041961	-127.101706052393	-20.2116239813569	21.3637814685135	
2589666666.66676	-19.849664198852	-166.093720848749	-65.2440659682235	-90.568144929271	-79.5131154469568	93.4986687458001	-20.2600117053904	20.2408077189208	
2590000000.00009	-19.9855844847592	-167.06366858678	-67.2754526949848	-74.464065159667	-89.1282834439778	172.968958120972	-20.3100894944185	19.2273866912285	
2590333333.33342	-20.1160777779614	-168.150566860855	-65.9432532883523	-83.821031123806	-90.5294019199497	-139.810980430562	-20.3723904975404	18.0539125793908	
2590666666.66676	-20.2326872826764	-169.247160196644	-62.5200328105138	-100.652823996267	-86.8342168303715	177.900389174624	-20.4421599269249	16.9269294706227	
2591000000.00009	-20.3483072380946	-170.251127444131	-66.4373131736904	-111.076482899487	-81.9269653384723	-16.4346363465955	-20.5293841989311	15.7913107028532	
2591333333.33342	-20.4813519125549	-171.351819097934	-64.8844362562243	-119.60309939332	-85.4328791178657	-49.9844715306504	-20.6508520520842	14.5181727587166	
2591666666.66676	-20.5965752124089	-172.64759907468	-64.5748627084322	-122.445816583097	-79.6972765268773	-156.617737585156	-20.7884798467002	13.2866031857519	
2592000000.00009	-20.707764101756	-173.763819829173	-64.5421887430209	-144.051125846211	-83.2506336211654	48.5249865988901	-20.908398682012	11.8056712354144	
2592333333.33343	-20.8060428485266	-175.024066670658	-65.295287410213	-159.92002863813	-88.982379274085	-150.046057986758	-21.0678288985402	10.4790553735743	
2592666666.66676	-20.8999195033144	-176.153892088311	-64.0614555395975	-153.088629675816	-86.9659766577425	8.32144330054668	-21.1906252406892	9.15843274096948	
2593000000.00009	-21.0113484803737	-177.402556782714	-64.2554447456228	-168.363431472544	-85.8895525432326	106.6892979367	-21.3790366531319	7.61003726933988	
2593333333.33343	-21.1136126811279	-178.763113631169	-62.0095124563463	-159.246383544046	-74.5026296465912	-127.397881899059	-21.5659265452233	6.40671543955131	
2593666666.66676	-21.1581311920936	179.919242559649	-62.3494567450248	167.449070888575	-75.7314058604877	-136.354887074306	-21.75284541036	4.81441900708824	
2594000000.00009	-21.2608936500826	178.412697723898	-64.1430460404446	-179.508909274373	-81.2643952928524	5.02559652923004	-21.9635288508856	3.25304169733205	
2594333333.33343	-21.3244982522118	177.090812831974	-65.233169975506	159.922584604495	-89.1422154306738	-25.3492024031991	-22.1751668645731	1.94410349625498	
2594666666.66676	-21.3560016750201	175.597335188173	-64.5142023017792	143.168034688294	-78.706370624718	-79.8560495045751	-22.423359072851	0.478337570303715	
2595000000.00009	-21.4074453598496	174.092125966466	-62.5233617190325	126.099084013402	-79.5210719423057	-82.7359326242215	-22.6570503055481	-1.16649768023249	
2595333333.33343	-21.4432780114387	172.396496309816	-61.5536576656832	129.498202786247	-75.6924346050144	75.3809276254132	-22.9200785231729	-2.612035558371	
2595666666.66676	-21.4797268388226	170.931911888421	-65.7375000212773	115.0133105986	-86.8405664026576	160.771739129663	-23.1894779368989	-4.40694736208775	
2596000000.00009	-21.4838152966483	169.350095770737	-65.2045081836789	102.849587650587	-73.8416715065102	30.975723578269	-23.4457419414111	-5.70903664046518	
2596333333.33343	-21.4829460599785	167.777029101931	-62.8138434009849	87.2300971284025	-84.9235398212568	-107.61366406919	-23.7793422126373	-7.07390196711462	
2596666666.66676	-21.4842041877243	166.140851483953	-66.0113389234357	87.5291719376119	-80.5532410844609	-161.774039456053	-24.0508735995692	-8.55427487450252	
2597000000.00009	-21.4451600067159	164.359847400188	-66.0063160550614	85.9807061098285	-79.8530122006268	-158.793048544412	-24.3669984312976	-10.1059501719122	
2597333333.33343	-21.4148644371247	162.702753678075	-63.8154327703435	83.3875196343092	-83.9929358051313	42.2843106650673	-24.7274733717411	-11.3914375731997	
2597666666.66676	-21.3505799086478	160.845168519195	-65.20925783966	58.4632896711106	-76.8977191332998	168.862241408568	-25.0582527198238	-12.7532586113776	
2598000000.00009	-21.3177863499523	159.293587528889	-68.5745740454246	49.0010396213865	-79.7661414894051	-168.22120551754	-25.4507115851361	-13.9078430879764	
2598333333.33343	-21.2458392414124	157.445104423683	-70.0535789185311	44.9149851413046	-75.0029711339747	16.2741885923828	-25.803885300008	-15.0428396688797	
2598666666.66676	-21.161147487046	155.805370774354	-68.931021523763	41.8074402405237	-81.2137609481738	-60.8540142264207	-26.2244432807551	-16.1007457392473	
2599000000.00009	-21.0758769434813	154.129595652389	-69.7590484935197	30.2379864903139	-77.0095113288238	-133.066647819873	-26.6388464645802	-16.7578854635282	
2599333333.33343	-20.9602225801154	152.344301436735	-68.4309285402638	34.8004065246316	-80.1248211446334	-131.595161726831	-27.0459627128571	-17.5721367546242	
2599666666.66676	-20.8726073343561	150.559356427026	-71.1735336156282	35.0491672543248	-83.453590495074	84.7255201012277	-27.457499814854	-18.0336309751893	
2600000000.0001	-20.7633472740345	148.949386561203	-66.3117623308465	19.9675269093405	-82.3180621146483	171.150329460348	-27.8842385420552	-18.1645219698955	
