!Agilent N9923A: A.05.34
!Date: Friday, 25 March 2016 21:37:44
!Model: N9923A
!Serial: MY51491690
!GPS Latitude: 
!GPS Longitude: 
!GPS TimeStamp: 0001-01-01 00:00:00Z
!GPS Seconds Since Last Read: 0
!CHECKSUM:2047873286
!Correction: S11(ON U*)S21(ON U*)S12(ON U*)S22(ON U*)
!S2P File: Measurements:S11,S21,S12,S22:
# Hz S DB R 50
2400000000	-16.7920538327333	175.729566397524	-53.140971193325	147.585894800457	-90.0829173692966	14.1026228755799	-18.969817898641	2.26037961032563	
2400333333.33333	-16.8252721841696	174.688013024891	-52.6227454866245	136.380780126399	-81.8608402819804	-7.7865461650671	-19.1961556262038	1.09601508745028	
2400666666.66667	-16.85376355195	173.631176907565	-53.3644441049783	126.582923639506	-77.7119834139192	-151.630539402354	-19.4602389093653	-0.0329294731363145	
2401000000	-16.8988575113937	172.720274303449	-52.5286103519732	108.594129180454	-74.2568263419063	159.670478329339	-19.7077169701877	-1.13405361903166	
2401333333.33333	-16.9280669145248	171.528366541369	-52.9281465425715	101.841120186984	-75.6845752971137	-159.731446459523	-19.9880676008651	-2.22823731932435	
2401666666.66667	-16.98038709907	170.423250280006	-53.203705478755	92.3344356267594	-85.7136832834484	-27.7251747361899	-20.2926031349563	-3.35888844156238	
2402000000	-17.0179123623434	169.329084557219	-52.8068161975838	77.7724051333617	-85.3634121485295	146.002636014197	-20.6380206987379	-4.47464861137381	
2402333333.33333	-17.0602135620036	168.169984456846	-53.0013930194839	68.1231394690849	-77.5531044283823	-27.866486416135	-20.9952389444509	-5.69469799354589	
2402666666.66667	-17.1075168879166	166.941608866831	-53.5757854998197	56.0041473878169	-83.6681124108821	-152.141881657465	-21.3817289725234	-6.70316589564816	
2403000000	-17.1542842335496	165.766796443144	-53.6121091551593	41.6330428332761	-74.9961497380828	149.453440395711	-21.7762718262917	-7.5959616190331	
2403333333.33333	-17.1936582071155	164.496135323502	-53.4391925298374	33.5567733791187	-87.0165726758411	-11.2554067514998	-22.2046411614902	-8.64545157216445	
2403666666.66667	-17.22520989016	163.227415417467	-53.5520745732486	25.5965795498602	-88.8837044104126	-42.2398982681894	-22.6784369082327	-9.67811630469582	
2404000000	-17.2280496221814	162.03196469702	-54.1342759105326	11.5866359540301	-83.5352011424871	104.433411444138	-23.1350597061848	-10.5961273536794	
2404333333.33334	-17.27289771063	160.905324027697	-55.0819231917547	0.610559976621588	-75.68336739319	-160.30674764531	-23.62971297854	-11.3539250132453	
2404666666.66667	-17.3178009759051	159.526194218606	-55.703381309317	-10.2472404558979	-88.7342465762213	30.103880421249	-24.1891915508213	-12.1295528565667	
2405000000	-17.3350493232811	158.293596954359	-54.2645701884217	-20.1316281219318	-85.9873370979115	142.155122511615	-24.7907969557265	-13.0097572795417	
2405333333.33334	-17.3597224844907	156.976030385439	-55.6224876882398	-35.4109818580102	-80.6222337559042	-118.376246925524	-25.4444070544937	-13.6134257856867	
2405666666.66667	-17.3905539238317	155.6465167735	-56.0104293199588	-37.2334056396834	-83.3250368736046	29.5871429845368	-26.1315247048538	-14.1122455254285	
2406000000	-17.4024805848429	154.406345709405	-55.5480064192529	-53.0403660037578	-78.8390738137524	103.818342682164	-26.8438000140426	-14.3323264741125	
2406333333.33334	-17.4291557570162	153.078378900137	-55.8361180211735	-60.3024167786007	-79.0708854637375	56.1392018252734	-27.6439836055509	-14.4765515950045	
2406666666.66667	-17.4444471039245	151.593191996256	-54.6509176687544	-68.1936679770717	-80.5853175064398	159.322635066359	-28.5103228644435	-13.885957523611	
2407000000	-17.4550205276539	150.346129412826	-56.2545632924337	-81.133078133573	-81.7729943786029	-167.474841206466	-29.4296917574485	-13.1936429129732	
2407333333.33334	-17.4577805074567	148.904004230518	-56.5186329889553	-93.4916155923997	-76.4109238434077	-151.617817286598	-30.4193673043257	-12.4405730530952	
2407666666.66667	-17.4561471783852	147.633159677735	-56.7931596771951	-99.0739061202302	-78.6510064634044	-113.915075590984	-31.5072936099813	-9.77137780045606	
2408000000	-17.4713804817928	146.303571225154	-56.9749155611855	-112.33946727721	-82.3922527238046	-161.24419119314	-32.6658759508749	-7.09792614611373	
2408333333.33334	-17.4460076045618	144.987812055088	-56.3775939237677	-118.819779595127	-83.0270906800462	-106.441024180079	-33.8724167456896	-2.60638804671077	
2408666666.66667	-17.4269833475494	143.653908244366	-57.233066504481	-129.882313179964	-76.9189858972912	72.0126963931796	-35.0783106115719	3.51146808673779	
2409000000	-17.4278323663569	142.347056743568	-57.3218829476905	-138.179868880463	-78.1848954306753	-88.0932780142417	-36.1185147771208	11.8330443546708	
2409333333.33334	-17.4062689955717	141.017950810062	-57.3727751096227	-156.898918095041	-79.9262149002055	-82.7392003223042	-37.0152757456861	22.4948333880441	
2409666666.66667	-17.3772693396746	139.704000707987	-58.5399125303965	-161.51797839439	-77.6323182859282	-69.5645331617417	-37.5084394568016	34.6024803463284	
2410000000	-17.343269276008	138.356239026367	-58.3833567838974	-166.941544289726	-88.7188213469707	150.004270329451	-37.2062636430343	45.9339421262008	
2410333333.33334	-17.3293562113833	137.127081532489	-58.1499984739098	178.091129293188	-74.9194998705109	113.047309813342	-36.7743101423008	56.9848052234889	
2410666666.66667	-17.2878207331539	135.891904497805	-60.1816408371009	172.10614927347	-83.2042541840852	149.842314362944	-36.0149340007285	65.3302820915679	
2411000000.00001	-17.2446991319482	134.594504237988	-59.8271648348581	174.087975621773	-77.1167783830604	-117.716141177486	-35.1042959561154	71.218690766084	
2411333333.33334	-17.2030406795918	133.342730791011	-60.3522796087977	145.98926265386	-86.130573443501	131.091354998122	-34.2391354964279	74.8138847023562	
2411666666.66667	-17.1456211089372	132.11480714629	-60.9371984232249	152.28299237396	-86.6546186489931	147.980131285291	-33.3376599366743	77.6744634769994	
2412000000.00001	-17.0981181091177	130.928185055861	-61.6514432194788	130.113972750828	-86.8297306095292	-89.9656957936251	-32.5449978893542	79.3241604587676	
2412333333.33334	-17.0362866481626	129.646143647881	-62.7271779783329	117.974872836818	-84.1797318221431	84.3954093332549	-31.8800614648729	80.2171585375713	
2412666666.66667	-16.9686785031834	128.278588524878	-60.5376978701347	119.263407977628	-77.9383444687603	-42.3680234397258	-31.2384740384696	80.7349615731036	
2413000000.00001	-16.8930638659113	127.099018843064	-61.6975438843152	118.928990504817	-77.4323489368677	-100.548472669889	-30.6904323121908	80.570619936467	
2413333333.33334	-16.8349910465121	125.835091620879	-61.240215450603	112.867368294446	-73.9644043573983	-86.6527310193521	-30.2348956977807	80.378922854499	
2413666666.66667	-16.7488630736614	124.646288689991	-62.3329619301188	89.7202811549744	-77.7705035246626	57.0522521369023	-29.7382048586869	79.3403081158039	
2414000000.00001	-16.6765609145686	123.491151402103	-62.7810497782805	90.0114501649521	-78.1502665443314	176.345413371053	-29.3121852354986	78.1168072052723	
2414333333.33334	-16.5850334030369	122.323037229521	-62.7078854648489	88.4969986048669	-83.8069100364986	-90.9243425145067	-29.0110229747458	76.884180065925	
2414666666.66667	-16.4921363540067	121.272338462902	-61.6410190991564	74.4720406224184	-78.1769950101987	65.2188065542676	-28.5949712253647	75.6222948307008	
2415000000.00001	-16.4086174144492	120.166250725117	-60.9410847484351	58.9671602083673	-90.4224683618289	-133.612909903262	-28.3430718586384	74.1746734908406	
2415333333.33334	-16.324313914679	119.170374519814	-61.0989498174813	51.2873988415327	-78.1353501759278	-66.1027084058738	-28.0801851394323	72.3677661428602	
2415666666.66667	-16.2300185454852	118.027726873639	-59.5347832856516	47.7140695458263	-86.2854335713292	-68.8876361377354	-27.8159738018693	70.60638653867	
2416000000.00001	-16.1306288442801	117.053420924778	-60.9037217297211	40.077328087679	-90.051410780154	151.972865537805	-27.5705285959544	68.745547291034	
2416333333.33334	-16.0408944007388	116.041678793438	-61.4847954139795	32.4174120705637	-78.4121658285521	1.81992453678618	-27.3715366982496	66.4706303776051	
2416666666.66667	-15.9488332189347	115.081343391656	-61.1596744658365	9.05595185753552	-82.2814282819838	-22.9676438459294	-27.1565913585085	64.5697847907136	
2417000000.00001	-15.8464054184717	114.177720776691	-60.2496252821068	10.5500365068043	-81.4532678775086	63.9488696082101	-27.0315379621733	62.5085692409855	
2417333333.33334	-15.7509331429529	113.250363582509	-60.8656780100452	3.28730992977637	-86.3405431231271	92.478034767647	-26.8288376930195	59.9178747188632	
2417666666.66668	-15.6674872668776	112.319589868481	-58.5314988008722	-15.6247695179507	-80.2475864860135	-94.4778932078207	-26.632378298645	57.7609434288296	
2418000000.00001	-15.5665775282576	111.448674641035	-60.8427893229412	-22.2483158478734	-74.1344312418634	34.7435459129028	-26.531601912489	55.3556426624989	
2418333333.33334	-15.4738921880727	110.527120389221	-59.503534019351	-23.6974288895013	-81.1764962111581	-114.051702604888	-26.3842276967534	53.0533227678714	
2418666666.66668	-15.3778017939141	109.711707733558	-60.8243159150947	-41.674141096847	-83.1284218873657	-0.98996157141407	-26.2127783966247	50.4218796311469	
2419000000.00001	-15.274441825463	108.805737735712	-58.4546183110444	-54.3847302451911	-90.8674904977103	-5.80153231620788	-26.1194323212998	48.0187190884203	
2419333333.33334	-15.1757507673113	108.044653566198	-58.2045738261544	-56.3448793872117	-74.8955360767512	-38.061748690292	-25.974928254734	45.5787348404874	
2419666666.66668	-15.0737443329285	107.187696538333	-59.0824543582746	-58.7729484977549	-98.5546044250628	47.0076277947087	-25.8624457387629	43.018574217171	
2420000000.00001	-14.9909597696043	106.389963967094	-58.9962546998866	-74.2465578376322	-78.284389978869	7.15305179133447	-25.7537960026035	40.7423229686335	
2420333333.33334	-14.8980470762223	105.65184718029	-59.643378939266	-88.5683773743157	-78.4911636183163	-92.5051219008709	-25.6311618370837	38.2345483965153	
2420666666.66668	-14.8082822286705	104.879900485071	-59.5695954741695	-88.5288006611005	-79.7977956505177	0.949379339551261	-25.5448130910051	35.7845665346008	
2421000000.00001	-14.7194577125937	104.145399414965	-58.9925059496922	-105.904768465515	-77.1228402241548	-60.7675685999685	-25.4086358422083	33.3523115605051	
2421333333.33334	-14.6329952919828	103.457011513817	-58.4629856908251	-115.848377601628	-96.3971206224931	29.5864791665797	-25.2955240977834	30.9065457500617	
2421666666.66668	-14.5533157462094	102.759503761418	-58.4855690525573	-133.930038512202	-84.6237269289171	178.15628031444	-25.1642243630499	28.5996491443368	
2422000000.00001	-14.4673826930004	102.115863029795	-60.4660707117349	-129.032680369766	-74.4624558512457	-178.40390748664	-25.0381646047393	26.2612481760295	
2422333333.33334	-14.3893733273792	101.432681929835	-59.2382559172088	-151.259824999712	-84.4670265444976	166.687576947046	-24.9266664086054	24.1405121370681	
2422666666.66668	-14.3206480958794	100.818792583764	-58.1597838720607	-158.466070024388	-78.2066228238457	-83.0683457756825	-24.7992584202304	21.8575196838163	
2423000000.00001	-14.2441204683043	100.157682863184	-58.9035458032767	-168.669401038018	-75.3635737290848	108.498478978763	-24.6649215165946	19.5926016307938	
2423333333.33334	-14.1741759744554	99.5604994330075	-58.3619825152321	175.659818389086	-81.6534227971689	-44.4197254102736	-24.5668154994704	17.5141237375689	
2423666666.66668	-14.1112442412141	98.9935574260314	-57.2379500440403	163.924810556994	-75.6300413165351	-130.974353536017	-24.4393823617076	15.2611542381038	
2424000000.00001	-14.047213278901	98.4746867416557	-60.2516367283917	154.660889791115	-81.4414210085086	-160.016266016082	-24.3003942198222	13.5046510240961	
2424333333.33334	-13.9800252039609	97.9230403001407	-59.0011407513754	140.320328841745	-87.7769162305146	-12.3886321399304	-24.2044657946226	11.5222057841442	
2424666666.66668	-13.9238350014753	97.3854283015875	-59.3493298833298	137.399946303382	-76.8143023809124	-176.117954696559	-24.0816448749387	9.85434932395136	
2425000000.00001	-13.866976060711	96.9495826947346	-59.6832680390787	118.280013528862	-75.1342846593302	145.101543763633	-23.939303761621	8.28436875566485	
2425333333.33335	-13.8168652082275	96.4631605738216	-61.0496485436458	101.281000660493	-76.336663520562	-65.6723586128659	-23.8314016381292	6.72146470495277	
2425666666.66668	-13.7695373631135	95.9636963626139	-60.8327363326037	104.094846343365	-83.3126409696091	151.105845704777	-23.7208612169334	5.1267766729386	
2426000000.00001	-13.7177256916946	95.5716877559127	-60.981580819325	98.0080047417837	-82.5751057752158	90.9910421770357	-23.5832422867537	3.7239773255618	
2426333333.33335	-13.6714320136736	95.1256810549958	-61.2017013635814	71.2917792997804	-89.7866407565132	15.2758247597094	-23.464039002098	2.55300294578835	
2426666666.66668	-13.6257526193567	94.7076472267194	-60.9795026468898	68.608125465579	-90.8614517911558	-155.317059442736	-23.351501256365	1.42130025951464	
2427000000.00001	-13.5864903708572	94.3749619104772	-61.9942983278414	63.4898421364512	-82.7075037024229	87.1518738798486	-23.24385043857	0.274412262110612	
2427333333.33335	-13.5455924446662	93.9842136176471	-63.6860970627113	51.0213207720314	-77.8309651555453	-1.98635442987196	-23.1269913144692	-0.692801454156578	
2427666666.66668	-13.5047770605021	93.5975140999828	-64.4968813569657	32.2761901221054	-85.0695543597986	-114.388434570959	-23.0124496245257	-1.63954335338593	
2428000000.00001	-13.4698544901925	93.2769695310991	-63.727650526558	26.2169311244875	-72.0139263852813	-56.1170549482423	-22.9203966155334	-2.42789236576683	
2428333333.33335	-13.4387541075475	92.9105249277171	-65.5231081174871	22.0022142243737	-74.3730843202846	40.1106123023812	-22.8113372077966	-3.16009243497057	
2428666666.66668	-13.4123139389963	92.6070139691615	-67.0169513987695	20.5562117017341	-83.2226052370227	-11.2860031781949	-22.6863823991814	-3.84163126686418	
2429000000.00001	-13.3713849999411	92.2916954939397	-69.4266544933808	-3.19789228775358	-80.3722204773625	-117.152185096348	-22.5719814292314	-4.27466396377763	
2429333333.33335	-13.3452615463574	91.9547843082161	-72.9722026446051	5.1490026108123	-81.8801318310818	-135.42081366251	-22.4518393268874	-4.77552145539819	
2429666666.66668	-13.308939303791	91.6172518589525	-69.6969982339617	-15.6179550305796	-82.4405361768523	114.090099551695	-22.3218212248494	-5.26173272351205	
2430000000.00001	-13.2847709240899	91.2862296477713	-70.7332132317034	18.2900599225123	-88.3546660645204	-119.895116066703	-22.1809743103946	-5.66890489347088	
2430333333.33335	-13.2685096740001	91.0819869520953	-88.7912761467541	-58.7987925839006	-77.7233687973477	-170.377700805254	-22.0653149267604	-5.80436236534417	
2430666666.66668	-13.2351481272955	90.7973442280406	-75.7579428224611	6.69422420437245	-94.3746782537236	123.73561623196	-21.9239289944281	-6.23621629576891	
2431000000.00001	-13.2065118252212	90.5940513521289	-70.7751691097524	43.4601879841909	-82.4430763090929	96.3535122568171	-21.7906030688118	-6.5364333510763	
2431333333.33335	-13.1855600147781	90.2736548008685	-70.7415931859621	65.6978228425198	-77.4762008931603	116.373433382811	-21.6436553273667	-6.77800487743457	
2431666666.66668	-13.1611077939302	90.1380352660115	-73.9404982999909	28.3306868297837	-83.3972091410209	-70.9604592357752	-21.4961140357715	-6.82152614260772	
2432000000.00002	-13.1580168055333	89.8654739154798	-66.3882480872306	15.6082052371399	-95.4309828944903	84.7429465901415	-21.3640227946305	-6.86708810854602	
2432333333.33335	-13.1390599011704	89.6590596647837	-68.6165000720625	12.7889605015133	-87.9584142157312	-122.997599404525	-21.211370325938	-7.076726549896	
2432666666.66668	-13.1273284057	89.481620370795	-66.1323190647386	19.8532992427313	-90.7199425549652	105.859871647564	-21.0584595778568	-7.19254277578345	
2433000000.00002	-13.1196344196195	89.3477950431761	-64.9349724439793	18.7894355369147	-77.6799254563509	-50.3734403802717	-20.9445022658824	-7.08542953879476	
2433333333.33335	-13.101857016108	89.0814994064083	-63.8110190704539	10.0054046935027	-81.4789616851863	161.998124695573	-20.7757067725431	-7.26032846010638	
2433666666.66668	-13.0965643974817	88.9065819298888	-66.2511631046173	-12.3778068218976	-75.8080945151135	50.7307710064959	-20.6172090284297	-7.31437832111426	
2434000000.00002	-13.0704910103029	88.6570139167516	-64.2810134053086	-0.114693612397726	-76.8288991223792	63.7299015483033	-20.481998731788	-7.32871632414256	
2434333333.33335	-13.0662555964625	88.5046884819954	-63.9347729446377	-17.7380304974131	-75.1026356939442	80.5380663892461	-20.3304388589044	-7.46676755127185	
2434666666.66668	-13.0640114867653	88.3185312078779	-62.295807165562	-14.0875500701415	-77.4263777818095	-150.885927971127	-20.1753069391877	-7.45736241374413	
2435000000.00002	-13.0469049962005	88.090752171907	-61.375503203991	-25.3792235616721	-76.6024675756556	51.3083977716011	-20.0533478249433	-7.49988147900546	
2435333333.33335	-13.052858679216	87.8291280852673	-61.5010397707242	-38.0249552400165	-75.0220146436256	-100.722395506346	-19.8804435750165	-7.5009384319578	
2435666666.66668	-13.0444604727274	87.5548730793466	-61.6479364459131	-39.8838397104672	-84.1258331411006	112.169815194086	-19.7416363083418	-7.65353871389749	
2436000000.00002	-13.0327528983146	87.3341132505522	-59.5670152749308	-50.3004221208547	-92.9418631982148	26.1388029477415	-19.6131392370083	-7.7367091110674	
2436333333.33335	-13.0306283794042	87.0973257415701	-58.0037015094066	-61.1891829042773	-79.1269169954905	86.894350285225	-19.4673031017905	-7.90071644392209	
2436666666.66668	-13.0268409076051	86.7761622314852	-58.0527525522262	-71.0856668641959	-88.9533131647628	-58.5156693981101	-19.345122345729	-8.0236917548599	
2437000000.00002	-13.0141589821615	86.5196231861947	-56.6236756159539	-79.3218243038034	-74.3704832654028	69.3863855096381	-19.215486521355	-8.20044098045459	
2437333333.33335	-12.9960231312567	86.2133120111228	-56.2854163880386	-84.2165505761369	-77.3816734812504	137.219409496111	-19.0959072131197	-8.32235480469096	
2437666666.66668	-13.0099242011101	85.9756236248972	-56.1596758922842	-98.0960490199047	-79.8945560679423	29.1506391500723	-18.9917286768695	-8.516749810176	
2438000000.00002	-13.0077178913271	85.6933961226453	-55.7811640854783	-112.748029764174	-76.4775620882329	-115.404368680425	-18.8771829387333	-8.68944882186151	
2438333333.33335	-13.0045028485572	85.2910909139686	-55.1744442774982	-125.517442097905	-93.3817347394902	-123.101511689958	-18.760809398636	-8.91103845544199	
2438666666.66669	-12.9902492042927	85.0497417413219	-53.9120032023849	-135.196955075909	-79.1286919797272	-17.4601887646782	-18.6754742677333	-9.22840992364577	
2439000000.00002	-12.9918660525623	84.7466846094744	-53.2603698883	-146.793897103614	-82.2631332475662	-8.84526115809845	-18.589625091343	-9.45822962459004	
2439333333.33335	-13.0072183786576	84.4000605797149	-53.3936967390138	-157.584602961609	-84.1467897850307	-175.567787193541	-18.510932297199	-9.71745535185276	
2439666666.66669	-13.0066363516761	84.0760837412408	-53.3566335896993	-169.840605183203	-86.1402773914045	89.8892148082696	-18.4238705634239	-9.85863673359244	
2440000000.00002	-12.9946145526145	83.7813681859632	-53.1925269702354	-179.929003380542	-79.4205984140262	27.4199537838481	-18.3882558974316	-9.99283435489393	
2440333333.33335	-13.0029044231099	83.2961714989023	-52.2216849826928	166.511736782889	-72.1096589734569	48.6843196766036	-18.3137020289285	-10.3830807978001	
2440666666.66669	-13.0006287906919	83.0814068325432	-52.5366311229445	155.697059241808	-85.0568815260124	-121.096662979015	-18.2425665801472	-10.5214108613758	
2441000000.00002	-13.0216833274352	82.669663008476	-52.6100624022024	141.592606273211	-85.0090812577505	67.0945227432495	-18.1848261903795	-10.8429633155166	
2441333333.33335	-13.028415292749	82.2944951349262	-52.7201241248292	137.396100319907	-75.2849559147115	123.503806113113	-18.1649900365073	-11.0844401509753	
2441666666.66669	-13.0258185790415	81.8189923379345	-52.5778234261119	123.278529208791	-74.8228200154802	145.143839346381	-18.123223618619	-11.3424895024311	
2442000000.00002	-13.0436766507148	81.4848104438552	-52.2338348745939	114.317238969694	-76.324159331466	74.7596921924947	-18.1150305489351	-11.5983769769822	
2442333333.33335	-13.0614142013433	81.2372568322387	-52.4110378274792	104.724477172569	-69.8341462728559	100.827332502221	-18.0797110234348	-11.76764820351	
2442666666.66669	-13.0788097555586	80.8188314369499	-52.485058304436	90.7990354706741	-77.7920436173821	96.258258362065	-18.0880950901024	-11.9745504470575	
2443000000.00002	-13.1033997639002	80.4400501799975	-51.683459140886	85.200550342935	-76.4595818121616	29.2477420954685	-18.0881199855724	-12.1596996378957	
2443333333.33335	-13.1241307374218	80.059631069452	-52.3451390889352	74.3004743925609	-72.5247113478488	75.080160252398	-18.1055359814572	-12.3131763571411	
2443666666.66669	-13.1416297792819	79.7234592454036	-52.2171153240027	63.650202136006	-72.602280183059	132.001700948573	-18.1425957009013	-12.4449668432604	
2444000000.00002	-13.1807142856407	79.2312941146004	-52.2933191246479	56.4153189313658	-77.4381437010101	75.2717926012335	-18.1638462567881	-12.6652245976976	
2444333333.33335	-13.196922123629	78.7800713890464	-52.2244190663153	45.0085347173551	-82.5159910155774	80.3715616578897	-18.1719800227536	-12.7728015028661	
2444666666.66669	-13.2239238446422	78.4607242777273	-51.659757351667	32.1230581361253	-81.8211010912881	78.3023042034224	-18.2333100717408	-12.9077028475496	
2445000000.00002	-13.2471146475925	78.0491981788421	-51.7397194933828	23.6795882152598	-80.5033762464368	113.478890517076	-18.2918900447303	-12.7831239070706	
2445333333.33335	-13.2876228526595	77.5205238824465	-52.3894074414797	11.692984314117	-85.4034882565374	-92.0262126764438	-18.3489461242631	-12.7660860211949	
2445666666.66669	-13.315426947334	77.0559073621843	-51.741977549346	8.28463485921683	-71.6775059850287	47.5392798691351	-18.4155464764901	-12.8433136763277	
2446000000.00002	-13.3462700024761	76.6738614510969	-52.2224138074529	-4.62279576586659	-81.0160749873684	7.61156472297113	-18.4923200011394	-12.763621639847	
2446333333.33336	-13.3728964215118	76.2303176108217	-51.5504300506894	-14.4054995772011	-86.7257313192279	-106.762743045158	-18.5563070226096	-12.6222947622103	
2446666666.66669	-13.4063944856992	75.7505318910123	-52.1155258797027	-21.5352054471596	-80.3702969855011	171.265119666947	-18.6391762370012	-12.6710334827365	
2447000000.00002	-13.4353767785879	75.2436379922102	-51.7947707781909	-34.728248795157	-79.103095227455	-167.591123025753	-18.7403438297321	-12.2700118909358	
2447333333.33336	-13.4622704830204	74.7582927208081	-52.278868252439	-38.8750640165893	-75.5506580063319	-70.4713057515693	-18.840574533701	-12.1980892082019	
2447666666.66669	-13.4902923604686	74.2434103746836	-52.0597490776424	-51.7201634108296	-84.2988194832306	-11.0670361443626	-18.9413278406341	-11.8590545084589	
2448000000.00002	-13.537269271875	73.6860782540712	-52.3034612803994	-57.873620541869	-76.3797558955179	-37.1801250616442	-19.0485025710189	-11.6425634962451	
2448333333.33336	-13.5703685990281	73.3088417095754	-51.8842417598785	-71.1895476377907	-81.1768385431331	29.160808042897	-19.1846442652737	-11.2697800007792	
2448666666.66669	-13.6066884715932	72.7328967644397	-52.3283289018584	-79.8754721773641	-87.6967262580158	-50.5809980060385	-19.302414883782	-10.7971750194764	
2449000000.00002	-13.6434534253791	72.2291952697685	-51.9524794931301	-90.9409258168824	-83.404295128565	-5.76765645416754	-19.4082489431174	-10.1774594123888	
2449333333.33336	-13.6769605830851	71.6417684848268	-52.0259916177149	-96.4685177339652	-83.5029705826418	-128.808512525452	-19.5587765751731	-9.7738001053991	
2449666666.66669	-13.7171303772359	71.2184294662214	-52.0793970072872	-107.415794228373	-84.9895150097918	-108.265466451072	-19.6695626974082	-9.17465731090718	
2450000000.00002	-13.7473257455503	70.6016495572483	-52.4916491150491	-114.781282251983	-82.2323579489151	-100.151371841927	-19.8172424974289	-8.42774798933429	
2450333333.33336	-13.7952628663875	70.1144580017635	-51.7952622266152	-121.627023234403	-73.1656222888173	-175.327737687512	-19.9553328366315	-7.73970976385517	
2450666666.66669	-13.8266292212725	69.5208425249846	-51.7683767426241	-131.793888206553	-79.5103356599095	162.957754313282	-20.125656402662	-6.87635926267835	
2451000000.00002	-13.8643187033017	69.0357133645158	-52.110950462967	-141.225966686392	-83.4474104618685	69.9174971207174	-20.2413359148764	-5.87734251313102	
2451333333.33336	-13.8975486414807	68.4537736692492	-52.0440359851084	-148.963236797615	-76.4908636953777	-23.3458688337209	-20.3962869228334	-4.92394239421773	
2451666666.66669	-13.9235865658028	67.9357209881602	-51.1564682029635	-153.873537604385	-73.9020777459702	173.425045278376	-20.520030582071	-3.68151436964043	
2452000000.00002	-13.949898954253	67.4384656770794	-51.8631227310609	-168.240421328573	-88.7424673396015	171.806760833285	-20.6485796908717	-2.5475347444078	
2452333333.33336	-13.9746136297622	66.8181357588438	-51.3021456431947	-175.3509525898	-76.4362842668867	-52.5484942054815	-20.7349270513379	-1.37475455420942	
2452666666.66669	-13.9987612018668	66.235819171197	-51.6775610962638	177.811381667565	-75.7539152437763	145.090102227307	-20.8598478873142	-0.00393217066255954	
2453000000.00003	-14.0188138339868	65.772957017432	-50.8108731717746	162.57874242991	-80.5908592032095	66.4260389387394	-20.9705524789946	1.20750969254919	
2453333333.33336	-14.0367248764477	65.141604446357	-51.4887107946967	158.017793450913	-72.7945336464018	126.334929279875	-21.0403434221687	2.77012082815473	
2453666666.66669	-14.0568832806066	64.6387492510711	-50.9749416742313	146.55694535882	-76.6877726711135	-174.964118293723	-21.1479040444527	3.99345377906489	
2454000000.00003	-14.0701513910471	64.0783376267509	-50.8040444825581	138.289387469736	-74.5872791453903	126.261647433408	-21.1902623553575	5.64862404239987	
2454333333.33336	-14.084813682061	63.5093757563784	-50.9700801670145	125.124957626293	-78.6289901545871	138.559227990377	-21.2874522000874	7.02384054878027	
2454666666.66669	-14.0858085266831	62.9200116612723	-50.8753840601158	114.533198945742	-87.0057862893499	72.3369800945408	-21.3211730437266	8.38907546099677	
2455000000.00003	-14.1043755545162	62.2969152003603	-51.2821421596934	105.337777445677	-80.907431265525	52.6639192376503	-21.3554578358907	10.0795608201785	
2455333333.33336	-14.1027452832701	61.8054863960863	-50.9275292191854	98.5736138735173	-81.7677040201577	-157.515355379289	-21.394380378525	11.48672875169	
2455666666.66669	-14.1081008108468	61.1418095932934	-50.9392112398177	86.3679566222052	-81.6070919421911	118.10633900113	-21.4237048702149	12.8191458070558	
2456000000.00003	-14.1110701521348	60.5518747095142	-51.2636448033882	75.7632428826806	-89.8706153814825	68.817203407006	-21.4327766311925	14.3064903711739	
2456333333.33336	-14.0989152293391	59.9569642136043	-51.987014116954	61.9135419332674	-76.3210032118326	29.2627471094244	-21.4489055649466	15.8612455480533	
2456666666.66669	-14.0998330669634	59.4264904173479	-51.3967392489987	51.343999558048	-78.5889239898775	150.808288754669	-21.4425603272082	17.0907411544261	
2457000000.00003	-14.0891567610936	58.7815932079854	-52.2237718838994	44.8883446151845	-74.8407372783728	124.434706389427	-21.3903562467449	18.4429480636463	
2457333333.33336	-14.0738514073325	58.2256977422834	-51.6699115030922	34.8527684048244	-81.9665592758234	-140.502814782981	-21.3970240130297	19.7207829369826	
2457666666.66669	-14.0625601961483	57.5771968541013	-52.8262775492479	25.8437728448101	-76.2230150177261	91.2235879185963	-21.3612747863622	21.084394402287	
2458000000.00003	-14.0430352264443	57.0195948120356	-52.4440478157754	16.1460463918473	-83.5618370636072	154.668694770843	-21.3248918830147	22.2998868025087	
2458333333.33336	-14.0076604616316	56.4396640335311	-53.4004415050396	5.82258873749897	-82.0101834343144	-178.85925638144	-21.2426869293004	23.3694648982425	
2458666666.66669	-14.004233624163	55.8676569996987	-54.3194916230169	-6.52496479914279	-79.224483133429	-86.7346897829633	-21.1982300751513	24.3987775064824	
2459000000.00003	-13.9717737678302	55.3464563120768	-54.4242382063973	-10.7746388714114	-81.5096678003018	-123.516568942183	-21.1461205578805	25.6143568999732	
2459333333.33336	-13.9454377863372	54.6651092287207	-54.4875928941209	-19.4305248175173	-80.8680244724118	61.1481590532126	-21.0850918257703	26.4188054174626	
2459666666.6667	-13.9155323164018	54.1633389102076	-54.7344495524204	-28.58026750991	-76.3542375756158	152.557055789576	-21.0176418809081	27.3561917806719	
2460000000.00003	-13.8794244175279	53.6361991956612	-56.2853611133005	-34.3084769453719	-77.5236283716897	-72.9439102639667	-20.9432865272887	28.0986444238697	
2460333333.33336	-13.8491826018656	52.9506793879957	-56.0655422527463	-45.6608198978035	-74.2646046700253	-158.597151807772	-20.8549536037614	28.8333428843882	
2460666666.6667	-13.8155301714662	52.4550795153123	-55.8229056993656	-51.5001951051778	-84.9272220596491	95.4578643306779	-20.7938060968502	29.4692279127525	
2461000000.00003	-13.7808579505297	51.8247357982294	-56.1462314267771	-61.7079186736332	-77.7348841216554	-28.141179316238	-20.697974539371	30.0758863852522	
2461333333.33336	-13.740172949929	51.2333866438555	-57.6541627924885	-58.7361186344916	-77.7036321353032	-126.960332733923	-20.6553180976446	30.5351950391238	
2461666666.6667	-13.6898328873887	50.7023528832209	-58.2073454970308	-74.2908890904857	-79.1658822195732	-29.0394118956123	-20.5748717872535	31.0202483490289	
2462000000.00003	-13.6433329514417	50.0970904313856	-56.9002034189527	-80.678739544658	-84.1450483018873	88.2086294605343	-20.5310569493755	31.1669692576949	
2462333333.33336	-13.6010104731049	49.5480053042817	-56.4969957637054	-84.3388278068561	-83.8527012729589	135.443756666991	-20.4398261468517	31.2844615176368	
2462666666.6667	-13.5512696354768	48.9443410269727	-57.224324971282	-87.3649626762325	-81.0233168606479	-72.7048043288885	-20.4383101930248	31.5901196007199	
2463000000.00003	-13.5044878283293	48.4026808814638	-55.687421810622	-94.3665370894023	-73.2305399576245	160.463327590864	-20.3619718552198	31.5762632313046	
2463333333.33336	-13.4537770708056	47.8195490076295	-56.2317985023271	-105.901331075807	-83.5577378130825	-36.3763677818354	-20.3629822916395	31.5776427519234	
2463666666.6667	-13.3985146556938	47.3173374932049	-57.5929801782874	-111.248887960384	-79.6010607883206	-152.480552686205	-20.3009581001551	31.4668087954487	
2464000000.00003	-13.3519144335911	46.7624790964895	-57.3132002964706	-115.606120101277	-81.6319580263685	173.273248508992	-20.3119355959522	31.5535934163692	
2464333333.33336	-13.2976121629905	46.2317411753364	-56.9526702566824	-124.097910554813	-74.1748283428256	176.419871249668	-20.2830246169117	31.3336676303711	
2464666666.6667	-13.2443718821277	45.7064093415396	-57.2638228794027	-130.780686992295	-80.2165103316034	-108.729263918235	-20.2746436044385	31.1608028121929	
2465000000.00003	-13.1825613467045	45.2008778096133	-58.0682224284115	-145.887053410227	-75.2513035998538	119.051561375736	-20.3031761347447	31.0145518802076	
2465333333.33336	-13.1293575796251	44.7022970563522	-58.6164971122678	-152.049779699624	-74.5701798787398	132.485056452163	-20.3208166634594	30.743707358515	
2465666666.6667	-13.073343833477	44.1674895812703	-58.3001949697739	-161.723777985373	-78.7415707339751	-154.405008596208	-20.3225217482866	30.6331109211619	
2466000000.00003	-13.0224930703102	43.6961890371	-57.9057948534652	-162.293858988309	-80.1121216065203	124.853951006496	-20.3456791781055	30.314485190415	
2466333333.33336	-12.9590228643696	43.2219907127012	-58.4220449454508	-173.359713224562	-77.4187261395802	159.17867862884	-20.3820631761013	29.9567015003016	
2466666666.6667	-12.90740500115	42.7571555848714	-59.4875786169132	-178.130504158384	-75.1579780883358	94.3335259352556	-20.4221554863122	29.7438600870676	
2467000000.00003	-12.8477219886608	42.2508055507711	-59.3352260841209	173.434125484685	-72.424682560425	114.29457985627	-20.4388491928686	29.431837107472	
2467333333.33337	-12.7918639287998	41.7695240535844	-60.4275299719152	163.842014039516	-80.1843556648592	163.614256096417	-20.4802080776014	29.0528361623761	
2467666666.6667	-12.7354747007785	41.3870928292527	-59.3757389049778	157.922520827427	-83.3750681948704	166.212504942633	-20.5122166953558	28.7654218660897	
2468000000.00003	-12.6793960869523	40.9516497781601	-60.3770288313703	155.542223555146	-81.1712543278938	64.2740121233478	-20.5799527448846	28.2960176843141	
2468333333.33337	-12.6188904708374	40.5193439121125	-59.893444424159	146.008200319828	-84.7516281533625	177.903992411498	-20.6163963600537	27.8729838500034	
2468666666.6667	-12.5598828646946	40.09899850722	-60.8946379985833	127.547621563483	-84.3426353638149	-75.1492737781813	-20.6717555781888	27.3806579556488	
2469000000.00003	-12.5061437783121	39.655693557785	-61.5735404927178	130.647563586072	-87.4021415322819	-44.8691642149282	-20.7000460973078	26.8833778392708	
2469333333.33337	-12.4529979331672	39.2983864634295	-60.5830561270537	131.680948476612	-86.0961546605128	6.00055384906085	-20.7637645332992	26.4812035291516	
2469666666.6667	-12.3970901417428	38.9232600928477	-60.7274035741614	122.694138945309	-76.0431272295257	71.6765014365163	-20.8009680189756	25.8526662850655	
2470000000.00003	-12.3380721209865	38.4828322298686	-60.6840461204322	114.55328916588	-81.9454767419786	-94.0559426698864	-20.8793351870659	25.3506142652762	
2470333333.33337	-12.2812817161794	38.0675944824332	-61.2086562943477	113.499471265354	-80.7171153606148	121.004251332487	-20.9199324696348	24.7515823434237	
2470666666.6667	-12.2282177177984	37.7015795621558	-60.568417900538	97.9886839211252	-78.3248773596688	77.6938584366717	-20.9866517877415	24.1874276444813	
2471000000.00003	-12.169584781321	37.3538535535761	-60.373506421376	89.2196317457031	-74.8142222891763	76.9533696378387	-21.0508464486263	23.4105280155933	
2471333333.33337	-12.1191219442885	37.0072310314424	-60.3154109034464	92.4799247720223	-80.0203864922562	-89.7435850317219	-21.1179205978574	22.7516653708251	
2471666666.6667	-12.0689500636081	36.646458498527	-61.1682231800908	74.4872669903338	-81.7462608445897	-38.8036894470936	-21.1847190985341	22.0390713286618	
2472000000.00003	-12.0043340133101	36.2948615383916	-60.3857207738381	62.0615310874258	-88.0254889948541	-115.914596678523	-21.254746395656	21.2010169961919	
2472333333.33337	-11.9489373903846	35.9915429899226	-59.8428246920344	62.3513107104164	-80.2954317025093	-19.5502065921139	-21.3188080467617	20.3868839011366	
2472666666.6667	-11.8948573317288	35.6673238236904	-60.1019231889022	46.4840897472006	-75.8474351893849	-156.355069515244	-21.4064485258062	19.4825820294514	
2473000000.00003	-11.8362900887184	35.4006907326491	-59.9658503223372	34.3990457695816	-76.1440846791626	38.8383820328329	-21.4868988055996	18.6633818994191	
2473333333.33337	-11.7835813899159	35.1275892909008	-59.3222449811419	37.9725497211999	-75.7432151526606	-93.5766330412595	-21.5436591889332	17.6842202284775	
2473666666.6667	-11.7316505247353	34.8104312731363	-59.372276160318	28.8150271099746	-79.64523988921	-86.6850713019732	-21.5974722066713	16.8970705787436	
2474000000.00004	-11.6735043854946	34.5377597351855	-60.2320153320927	15.6399414724	-77.04086589441	-37.6991759238369	-21.6789393057087	16.1520270086776	
2474333333.33337	-11.6246994682993	34.2862002638038	-59.1836346093731	9.63285410869828	-78.7946581162449	169.300538199298	-21.7582390488598	15.2362674823182	
2474666666.6667	-11.5767145475739	33.922671194296	-59.6222717083	1.05741208305334	-80.8781671136218	-15.3441093613927	-21.8150705794051	14.2136244419086	
2475000000.00004	-11.5290644082447	33.6863191301601	-61.0323663734179	-15.4473227095333	-82.6841127247227	-65.4406978493737	-21.8625003743675	13.2002071157818	
2475333333.33337	-11.480058654624	33.4665612761171	-60.9364470839453	-12.0200788565372	-76.247864746746	-66.0857958392011	-21.8985657255551	12.2281725068986	
2475666666.6667	-11.4330779636134	33.1244377718502	-60.8734625057521	-36.4987086796412	-90.5718796757021	-153.979950421791	-21.9662486074807	11.1479015318663	
2476000000.00004	-11.3915285385027	32.8272666137779	-60.3780829141919	-37.0554596238214	-72.2720083834802	13.4102258600724	-21.995185302614	10.1680123265249	
2476333333.33337	-11.3404680821239	32.6093963075602	-59.3976628553137	-49.3600955423742	-77.8318952889465	-21.0589171284741	-22.0178232970751	9.20923563096799	
2476666666.6667	-11.2963341274679	32.3087868856728	-63.1314455236283	-59.6802404884966	-76.2149608179585	166.130058671988	-22.0665564001229	7.91333144166957	
2477000000.00004	-11.2565096081663	31.994333243595	-62.7562512697959	-67.1814123097805	-75.4484701309273	-117.06289811873	-22.080538484426	6.8806164355945	
2477333333.33337	-11.2152586213491	31.7538629285139	-64.2250570921208	-69.6368464878462	-78.2356524078566	-115.62667214414	-22.0779126121381	5.71475516459266	
2477666666.6667	-11.1800800651155	31.413711874928	-62.3143857595951	-101.644090675592	-77.0511669221796	-6.68802784175419	-22.0769267035504	4.63043391185544	
2478000000.00004	-11.1319109827791	31.154884690493	-65.1056679665284	-96.1176092387276	-75.3861194864317	-35.0328025099919	-22.0856753308209	3.39696073630596	
2478333333.33337	-11.0906902920009	30.8740660014132	-66.9749404170504	-107.236714335521	-87.4952812266424	-6.13161354914801	-22.0827080916283	2.2376136333909	
2478666666.6667	-11.0525756430783	30.5643386321663	-66.1211198154471	-108.058792332723	-85.6446606083931	40.8979946969134	-22.052738806834	1.11524057658195	
2479000000.00004	-11.0133955908742	30.2438826625952	-70.8557105258153	-127.521630388854	-76.8068609014647	-63.8367547840243	-22.058110488622	-0.101913882367283	
2479333333.33337	-10.9766909249637	30.028833111818	-68.3091280489454	-124.804360988338	-77.2065700544519	115.622548352129	-22.0134365993799	-1.45656583058254	
2479666666.6667	-10.9444520590325	29.6991664937465	-69.5819988791797	-127.717714861239	-89.7857429563029	104.496249483651	-22.0056373736898	-2.61057974848795	
2480000000.00004	-10.9114926717282	29.3525794620187	-67.0063630045307	-108.383097018838	-88.7852553095333	-8.05588802320784	-21.9604390090658	-3.78255688952725	
2480333333.33337	-10.8760254105871	29.0763870701596	-77.5857626558034	-105.032292337659	-101.77933658363	164.715599064474	-21.9264784031985	-4.94426805751293	
2480666666.66671	-10.8521619498098	28.762309623987	-75.5438494616668	-73.4557818543668	-75.7119930916517	40.0759630651667	-21.8823092457859	-6.22340134082803	
2481000000.00004	-10.8271078685581	28.4891578722447	-77.7220665600289	-140.975098158869	-76.5720629692719	151.658274290354	-21.8000835391548	-7.5518390508352	
2481333333.33337	-10.7936833447223	28.1293656000171	-80.5259198488573	-119.364986287863	-79.6382212663043	-60.2153623824377	-21.7655202606201	-8.77325127778522	
2481666666.66671	-10.7772843747446	27.7579040080292	-70.5634232894396	-13.6235098961034	-74.5967253665107	-47.8516261118885	-21.6765696225241	-9.94158618119628	
2482000000.00004	-10.7597808517941	27.4581702250572	-75.4386028581798	-94.3475613953531	-84.2153312057834	-1.15129454577299	-21.6286130871487	-11.1623721864607	
2482333333.33337	-10.7326219075935	27.184065485441	-76.2496495253909	-40.7075239728897	-78.0365785148893	-142.921937849333	-21.540104712224	-12.314170790693	
2482666666.66671	-10.7158716389902	26.7399900746576	-67.6967462433204	-69.8571267957366	-84.5562696579232	161.34354151599	-21.4621103645507	-13.4932502352765	
2483000000.00004	-10.7013306301722	26.406313543344	-65.8224475094997	-95.4477789718726	-81.3537977774492	3.37124519659186	-21.3944785099878	-14.6101008116693	
2483333333.33337	-10.6815163963381	26.0191864477541	-67.0591083525545	-96.8322496244277	-77.3454055116572	-119.60227344905	-21.2912948942054	-15.6252372952739	
2483666666.66671	-10.6658347027292	25.6308209863014	-63.1179391741558	-105.699525901292	-81.9814079144932	-143.05589550872	-21.1910112906628	-16.8061896832762	
2484000000.00004	-10.6532133790994	25.3159919228456	-65.0222039255764	-110.741996492907	-85.0760086702518	41.1984539359169	-21.1239265151978	-17.8238781178598	
2484333333.33337	-10.6468817567753	25.0822732172953	-64.0158235775736	-113.787049406278	-85.5155737879073	-25.6801402885966	-21.0161680892129	-18.8598797494441	
2484666666.66671	-10.6304058323916	24.6134005685098	-63.0688266470305	-128.284316676171	-81.6378525318765	146.62585228979	-20.9139577618133	-19.8885347163862	
2485000000.00004	-10.6208833699055	24.2011083878728	-63.6162362658915	-143.226936080902	-83.0531350180091	30.9989861060418	-20.8173223856425	-20.8403993670251	
2485333333.33337	-10.6199648769958	23.8377804333789	-63.4809127477075	-137.330154387186	-75.4349107021793	-147.740972216685	-20.6984636029521	-21.8978788490311	
2485666666.66671	-10.619365451475	23.5074123113024	-60.1418453650459	-170.454236064321	-80.4557239705508	85.0659225437188	-20.5897983265089	-22.7888349080517	
2486000000.00004	-10.6148572088227	23.0926517532465	-60.5119055320214	-166.007657559153	-75.317666909848	-35.1478516502883	-20.4945707210618	-23.7173741734623	
2486333333.33337	-10.6052334587316	22.7276431163496	-62.4855847707589	176.681761412857	-82.6421241771824	3.6498090512953	-20.385473029094	-24.7028396637652	
2486666666.66671	-10.608431617235	22.3655852305352	-59.6614684599214	163.703587890012	-82.8365921441065	35.8551901654442	-20.2840081236024	-25.6994897113405	
2487000000.00004	-10.6127762036197	21.9155119176347	-59.5795177475911	163.017534002182	-78.0037926976476	-35.8830591121378	-20.1896981740876	-26.5221006159936	
2487333333.33337	-10.6223987544332	21.4793424801225	-59.8557102697573	152.414230806324	-87.8525516135447	144.071461567781	-20.0850761162372	-27.4164673682831	
2487666666.66671	-10.6322598695748	21.1020918861044	-59.046640515302	139.022959345992	-75.0785979964916	155.449008079171	-19.9871262440067	-28.2596588611352	
2488000000.00004	-10.6443744024041	20.6590382350778	-58.6280565572631	134.876388461055	-72.5022757095817	-119.235557793717	-19.891902197345	-29.1504415605861	
2488333333.33338	-10.6589790465518	20.2082133612716	-58.4221918471214	129.061069704493	-76.9148179148468	-99.1750427545909	-19.8201401514505	-30.0013098507452	
2488666666.66671	-10.6551269355267	19.7922632262507	-58.9975533103559	113.70319430167	-91.0534599837083	85.4155577134783	-19.7202407520078	-30.7475265418312	
2489000000.00004	-10.6771236108204	19.3423645701798	-57.880774590533	108.101753654022	-82.6251982082658	-108.729006867003	-19.6520294432377	-31.5304760675982	
2489333333.33338	-10.6914296693179	18.8678051376409	-59.0020887627978	102.248498137884	-79.0355946336085	-39.451399547306	-19.5726842498319	-32.2169430691952	
2489666666.66671	-10.7107177132364	18.3416199184628	-56.2447148890156	87.9675395689339	-84.2959661392578	29.8525799804575	-19.4987847183634	-33.0494089969779	
2490000000.00004	-10.731471323161	17.8449280306031	-57.2415113368503	82.2754672779438	-79.6300275821648	-35.7558377119369	-19.4482414345538	-33.7856403895457	
2490333333.33338	-10.7669402056187	17.4489404252476	-57.778517370444	80.5233158788684	-81.1456732942813	-150.052088254181	-19.3994308642794	-34.4798624588949	
2490666666.66671	-10.7795531200555	16.9042560466653	-57.5517231135075	61.1058350967525	-85.2865448691845	-177.337894153451	-19.3259881917262	-35.0177649363252	
2491000000.00004	-10.8138501717639	16.4226450847327	-56.8968361880627	54.667177715165	-76.3155733846273	-63.0116001664029	-19.290137101378	-35.5832800747889	
2491333333.33338	-10.8289190773519	15.8501607146078	-56.1171790490882	47.1608039546657	-77.9875301818618	-44.7009161321939	-19.2386315402569	-36.2517539199062	
2491666666.66671	-10.8767173432558	15.4370799132513	-56.3350566766538	37.9631676499595	-85.869362029102	40.2319577537953	-19.1814001220735	-36.7003766051197	
2492000000.00004	-10.907446091297	14.8649831046402	-56.5963955998278	30.9952801991217	-73.6968020392868	170.379532316587	-19.1662255620425	-37.133687393085	
2492333333.33338	-10.9443137370859	14.329620188043	-56.3492201313589	21.8986404807061	-80.2449950074979	-35.4143214914814	-19.1232188566997	-37.6431559762604	
2492666666.66671	-10.9796819637433	13.793580486082	-57.0090903790525	14.4772025750363	-81.9833993946625	50.4933598222474	-19.0792511302192	-38.0010683900643	
2493000000.00004	-11.0240839467788	13.2581069499511	-56.9052946777341	6.03096157841111	-77.0302565431675	59.6778554286046	-19.0610972328753	-38.3839609206647	
2493333333.33338	-11.0567057549447	12.7409461282698	-55.7250999739615	-1.92121788343711	-81.192908670524	84.3493457500671	-19.046938127813	-38.6266739971494	
2493666666.66671	-11.0948016332833	12.2440979702153	-56.2402503117127	-15.689367163549	-78.2032968592363	-12.2519587402034	-19.0461676396933	-38.9531080999337	
2494000000.00004	-11.1487346015129	11.5753428150104	-56.5377726075083	-12.1190135091875	-92.098572468537	49.9436679355793	-19.0093809201456	-39.13633420581	
2494333333.33338	-11.1753345522133	11.094615898887	-56.4675456922026	-27.0444812953041	-72.9978315977738	-24.8772863745995	-19.0201600752671	-39.5058167438548	
2494666666.66671	-11.2184294757974	10.4845053410151	-55.8875373244894	-34.0969960315406	-91.2682363420145	-164.685283407218	-19.0002447548147	-39.611241257557	
2495000000.00005	-11.2683498416899	9.92880967356301	-55.2450840982215	-47.4303984090191	-76.9405925529755	5.18397699560628	-18.9834974367986	-39.7854249557431	
2495333333.33338	-11.3090335369754	9.29343097311214	-55.558338111025	-53.2806096411106	-73.0804395077564	30.2341309339586	-19.0092181341714	-39.970921321924	
2495666666.66671	-11.3588536265799	8.78026699132417	-56.6080996253427	-62.6049598028981	-79.9067919403107	50.7791706128854	-18.9979944447875	-40.1076644734394	
2496000000.00005	-11.3914820378099	8.16375126804031	-56.1617243098048	-73.0434466402131	-85.2614661226171	0.300580395534431	-19.0130414150022	-40.1991340016151	
2496333333.33338	-11.4375406417336	7.56543141054961	-56.2152572396383	-78.7509993469284	-88.5588253321823	-93.6107219794317	-19.0274603436243	-40.372132831058	
2496666666.66671	-11.4795159962416	6.92247159269247	-55.7566206883305	-86.0592172115539	-77.7142492348011	-7.01503284624644	-19.0395155523156	-40.4760611850448	
2497000000.00005	-11.5253712707664	6.36527429108199	-55.4581421189537	-94.2226037627091	-75.8776271433905	-35.5062614908971	-19.0622331372997	-40.5042180729514	
2497333333.33338	-11.571112026721	5.75983101011171	-56.3654677872923	-105.147316926365	-78.8617600484266	62.0433240597941	-19.0950228079869	-40.5278290434159	
2497666666.66671	-11.6202516746455	5.11653223599089	-56.0231502523524	-116.833318359421	-82.9798522427328	88.5123269723032	-19.1066539618283	-40.58401400039	
2498000000.00005	-11.6545458850932	4.47452987047307	-55.8199494986421	-121.26464686681	-91.8530469323761	68.8124976451243	-19.1579474101092	-40.4927526810473	
2498333333.33338	-11.7008597472925	3.85182678953859	-56.0626235622525	-132.726668628205	-80.4543760078308	65.1963686970638	-19.1916120161102	-40.5331918812056	
2498666666.66671	-11.7455529770989	3.21288606268934	-55.8407943661938	-138.735383094187	-80.6441733635837	157.463731820414	-19.2436419540633	-40.4465403856439	
2499000000.00005	-11.7858986210919	2.64861786600881	-55.4352432870567	-151.305401368687	-80.671859889532	-173.351834692566	-19.2981144808891	-40.3971188322044	
2499333333.33338	-11.8341919545612	1.94051988783416	-56.2547359119263	-154.606809044186	-79.8289033844069	91.0749386569148	-19.3603011616856	-40.4011697802014	
2499666666.66671	-11.8760666135829	1.29224473206742	-56.0301013791704	-161.922461567591	-86.2170290434281	126.506301768069	-19.423443872718	-40.1712103826611	
2500000000.00005	-11.9227438448605	0.618569826582157	-55.5273670995599	-173.734749231418	-77.783428478513	146.617055982259	-19.4720709394139	-40.0183340760953	
2500333333.33338	-11.9439358979256	0.00997382457876009	-56.4325350980683	-177.733386885112	-74.9294299510623	135.432875200942	-19.5476638608739	-39.762892859837	
2500666666.66671	-11.9897852666694	-0.639893725197583	-55.8077368943692	167.813498750295	-96.7206411062188	-137.038714063516	-19.6267116335117	-39.7218763269335	
2501000000.00005	-12.0312055189329	-1.32966605184258	-55.0707473723004	168.415936526654	-85.0636033710489	131.475360748913	-19.7177824229998	-39.4398779632335	
2501333333.33338	-12.0575653338345	-2.0127739375406	-54.9232664350289	151.519347715005	-72.8139606798427	82.9537496095046	-19.828713278851	-39.163447801705	
2501666666.66672	-12.1041472951385	-2.5993149610521	-55.0937780570277	149.724029402199	-88.3978226212574	-152.690854633394	-19.9063233005328	-38.7147179951343	
2502000000.00005	-12.1369517723127	-3.37129791711217	-55.2855355380215	138.161276262173	-79.6557182514105	36.6753227880869	-20.0217357502741	-38.2336718437888	
2502333333.33338	-12.1736431195675	-4.0666383125823	-54.6681906742076	129.990379474228	-86.5005898619386	-115.084035031171	-20.1291883167524	-37.8829085736296	
2502666666.66672	-12.2134348790497	-4.85082860977177	-54.8673445547365	121.912031237303	-78.3891070523449	111.039104665103	-20.2430594840121	-37.5174751891528	
2503000000.00005	-12.242335008567	-5.59213396107613	-55.3253768920308	111.160908107413	-72.328915724531	82.5865804342972	-20.3523782324527	-36.8262382135412	
2503333333.33338	-12.2689429833208	-6.35712698573504	-54.9841652236645	103.43831191012	-82.103501194865	9.81778529886125	-20.4684424352372	-36.2458485176555	
2503666666.66672	-12.2927837448617	-7.11369457260064	-54.9010721682809	99.6016614254756	-78.3340200859321	100.529925986801	-20.6164533902259	-35.6500397068045	
2504000000.00005	-12.3302179086659	-7.82011189375425	-54.7511898545507	85.7600892386813	-80.7051312122101	8.88074334126767	-20.7251586039074	-35.0323042489139	
2504333333.33338	-12.3570088824872	-8.6158449977015	-54.8623446633636	86.0791978292685	-74.5514362981209	100.494620689132	-20.8933523758783	-34.2036249087834	
2504666666.66672	-12.3814969047349	-9.39566889656302	-54.9515226320104	71.3389803705512	-77.8712404766253	-59.1226391591469	-21.0263791661766	-33.5363041727683	
2505000000.00005	-12.3987523396472	-10.1153369215836	-55.4107779114971	63.3858911768962	-81.7592815728349	57.7220881122437	-21.150973873124	-32.4600745203353	
2505333333.33338	-12.4220396893674	-11.011930071117	-55.5521273760859	56.4748918122315	-76.5483215254594	-48.626187221332	-21.318787175254	-31.5684923438449	
2505666666.66672	-12.4499634412212	-11.8066749684721	-55.387680929115	43.478230780397	-76.1922334410451	129.471286678339	-21.4730451294224	-30.5808370455897	
2506000000.00005	-12.4587295436712	-12.5930473986362	-56.3877972774736	40.0947812076588	-85.762316350586	71.128895080691	-21.6243341037192	-29.3799430612713	
2506333333.33338	-12.4780115120302	-13.3790802878802	-55.5595442565801	31.8088796648253	-81.0832663985178	55.8391258498571	-21.7809849565213	-28.357926884942	
2506666666.66672	-12.4912227835234	-14.2051619220714	-56.133587263695	21.2587211387417	-78.2844726556191	61.9749397679978	-21.9651334293334	-26.9943313703862	
2507000000.00005	-12.5027653116348	-15.0227510634453	-55.4673409397794	16.2212138085475	-72.807724975511	-65.207736240115	-22.1232586597212	-25.6083483159063	
2507333333.33338	-12.5160668240694	-15.8314547105786	-56.1640060770964	2.9888260276489	-84.3147740188924	-15.7822681048009	-22.2910319272102	-24.1183183665122	
2507666666.66672	-12.531634322596	-16.5959147776255	-56.7340562464976	-2.83391830796238	-76.6234496854783	-151.236431855259	-22.4325739783827	-22.3749023520141	
2508000000.00005	-12.5367782877772	-17.498880007845	-55.9827923138747	-12.46597308424	-72.2935920136391	14.971122327073	-22.5925508357314	-20.5974872629024	
2508333333.33338	-12.5484456059422	-18.3587450193449	-54.8523777209804	-20.8536270507826	-74.3655738021514	141.324201783326	-22.7476654263396	-18.4591434122811	
2508666666.66672	-12.5557714737484	-19.240330678645	-55.8662041500762	-27.6115558188333	-97.7515103548603	40.9524143992178	-22.8656735588544	-16.8577758858385	
2509000000.00005	-12.573154471207	-20.0612357303643	-55.7043572789998	-31.1478212115745	-75.2075095121319	-68.0142101914462	-22.9644982377923	-14.7252073218893	
2509333333.33339	-12.5773231960276	-20.9482844645283	-56.9384439573258	-44.1335847670221	-78.1692180190837	-26.3240710742803	-23.0658490451347	-12.3410804770478	
2509666666.66672	-12.5750780141892	-21.8818598610791	-56.2447612293269	-52.656089836093	-75.6958011468427	-172.365360998311	-23.1552361511063	-9.99310124074402	
2510000000.00005	-12.5756937077599	-22.651999015878	-56.4197800579944	-62.1115947670598	-74.90106347271	-78.0689968766473	-23.1983926519937	-7.91865361854407	
2510333333.33339	-12.5755711699343	-23.4876969021983	-56.1891257234892	-71.9120525539081	-82.3985269929036	-135.931291820129	-23.2459181624753	-5.55087810740001	
2510666666.66672	-12.5752797597302	-24.369428038102	-56.7130424495304	-75.7087588723979	-79.2163464658884	-131.130144394416	-23.2586375170044	-3.12684909502204	
2511000000.00005	-12.5705097657613	-25.1642433118347	-56.1723081401894	-88.4972442413411	-89.8383757967646	8.7050971754548	-23.2501074404951	-0.81006139634177	
2511333333.33339	-12.5705567790971	-25.9631751704905	-56.3612658261742	-93.5424031768823	-76.1047454852983	-145.035370918963	-23.2162883080528	1.67584479490977	
2511666666.66672	-12.5643433091825	-26.782329552688	-56.0984074306223	-98.9785817987938	-78.2749052163503	-102.557279419336	-23.1967145351957	3.9555327435989	
2512000000.00005	-12.5563116140186	-27.6028057920055	-56.2388472214234	-117.706881241623	-84.9452230867196	121.232633973131	-23.1033480027239	6.34411702673405	
2512333333.33339	-12.5555167788067	-28.3985929623107	-57.3171977267734	-118.842457916691	-80.6351379809024	-127.81339146178	-23.0161366181535	8.28627487065403	
2512666666.66672	-12.554412279386	-29.1781468089654	-57.0292240736398	-135.707332211895	-80.0803454040349	80.0419093356927	-22.9342965363402	10.5974467825236	
2513000000.00005	-12.5470333946057	-29.9316394143378	-56.4577380688863	-139.30414675828	-78.66584464368	164.372227487969	-22.8204137107094	12.8052612413246	
2513333333.33339	-12.5403044108415	-30.7096384316378	-57.536841059744	-150.567142102365	-85.1842588566519	68.527189042009	-22.6765535615259	14.6515396915801	
2513666666.66672	-12.5300834360622	-31.4081732703395	-58.2191743740184	-155.840628160281	-90.2026511317364	-145.389493520157	-22.5168575935885	16.7534455191147	
2514000000.00005	-12.526049212251	-32.1664969146807	-57.7060941752342	-167.604961410801	-84.7180830809182	120.985968625127	-22.3567883070307	18.623902712911	
2514333333.33339	-12.5166493028087	-32.9310383338559	-58.0484371159489	-174.752123035351	-76.258979629096	109.493475738659	-22.1900336718849	20.4344666793944	
2514666666.66672	-12.5023341679916	-33.6877914343717	-59.8116265297502	177.910406083945	-77.7140202681169	-145.566985570721	-21.9886175479411	21.8539559896166	
2515000000.00005	-12.4950494530183	-34.4362270914854	-57.0407041814619	173.540184813487	-90.027828727204	167.342661691186	-21.7926431474754	23.3101244706472	
2515333333.33339	-12.4939186590943	-35.1663144254336	-58.6316371873313	170.797405901064	-76.8075798533833	155.075560990087	-21.5890466759278	24.3890939090487	
2515666666.66672	-12.4893063277236	-35.8847523477644	-58.7262210133407	156.816021344503	-76.7582607474478	163.335159834899	-21.3994352388051	25.810972607724	
2516000000.00006	-12.4754819576245	-36.6025993721409	-59.0400552032899	162.204880124411	-76.1735539847982	158.522825200207	-21.1939783924145	26.6736031712803	
2516333333.33339	-12.4684690111437	-37.23874890445	-59.2160033282672	155.811363186634	-80.1925056566783	-145.44194401829	-20.9762454850223	27.5026528267174	
2516666666.66672	-12.4565024441563	-37.9315962497982	-58.9793019576335	149.304329193192	-76.7612315717666	161.282094706396	-20.8187419021514	28.2077574639238	
2517000000.00006	-12.4494901690574	-38.5568228434924	-59.3609467270666	136.231078071229	-77.8766174234005	-152.756005000765	-20.6023273676813	28.9705960145784	
2517333333.33339	-12.4495864307491	-39.1755153253438	-58.3331635783919	130.592588325479	-88.856848793966	1.82444193219179	-20.4231835534057	29.4935321759402	
2517666666.66672	-12.442705322429	-39.8065508041286	-59.0929831351969	117.759955832031	-74.9648235837089	139.959727530748	-20.2606256913975	30.0933175949023	
2518000000.00006	-12.443513415169	-40.3920086901672	-58.0883974209877	113.012983162268	-77.5054094149646	99.8933440711323	-20.0645709606938	30.3201390128769	
2518333333.33339	-12.436192440571	-40.9201295506972	-58.8174302075068	102.390268910198	-79.6441646627591	126.54843879642	-19.9162588224899	30.5601554399243	
2518666666.66672	-12.421494139885	-41.4716086309362	-59.1729070718979	86.3016193797378	-81.1938481297564	106.357843052466	-19.7589047626906	30.7005858939534	
2519000000.00006	-12.4263716432705	-42.0061299235684	-59.4707134487784	92.4670844460642	-81.0288294872596	-143.215185399646	-19.6163818661148	30.8927828264144	
2519333333.33339	-12.4299476600779	-42.5639815813746	-60.6349260555452	75.9555488412479	-85.6566592145942	162.674437287826	-19.5029399164173	30.7658393455425	
2519666666.66672	-12.4307635192522	-43.0289799579531	-59.5546387897857	69.2132374924121	-76.7253861644088	-85.1601819197643	-19.3688483564029	30.8172468808744	
2520000000.00006	-12.4283029250233	-43.5205225257766	-60.8689368695703	69.4186971871876	-82.6023141448968	27.8156302385802	-19.254007998639	30.637128374594	
2520333333.33339	-12.4336259898726	-44.0213330642918	-60.349889123387	52.6346074080482	-83.0015219611805	174.397354166397	-19.1503477755996	30.4288382448233	
2520666666.66672	-12.4427364998012	-44.4375541960639	-62.4672414770058	49.6957774187552	-80.697344295634	-54.0599372064142	-19.1046430759308	30.2441522944791	
2521000000.00006	-12.4459474466521	-44.8883875394097	-62.5820187294205	35.97081668911	-75.5871780683432	-127.923422120672	-18.9944865469109	30.081163220816	
2521333333.33339	-12.4407654847526	-45.2784528293645	-61.4473982106525	28.8918542983216	-88.7127520864818	113.115675228305	-18.9234130971608	29.8005632052732	
2521666666.66672	-12.4459579196939	-45.6851030118049	-61.8973710771955	29.8678521398768	-76.2409815109003	113.495991045721	-18.8608658046084	29.2887730574727	
2522000000.00006	-12.4526945670483	-46.1082751455479	-61.5007418944176	28.212015212702	-77.4906481637749	-165.482364839671	-18.8473826562562	28.9703700709858	
2522333333.33339	-12.4561267557936	-46.5077078303699	-61.3139733847307	7.13032573408451	-86.8199735351654	13.8493065041622	-18.8037109383593	28.4696965861472	
2522666666.66673	-12.4633916550024	-46.9010501328559	-63.6609449535556	11.8078553499365	-76.4035186784125	-38.1802549580628	-18.7750895950035	28.215137868265	
2523000000.00006	-12.4767692953428	-47.276451609652	-63.9677804748049	13.0242241422951	-76.0535471084779	121.011746010618	-18.7676571379688	27.6835668229962	
2523333333.33339	-12.4796562856895	-47.5691989062754	-63.0685624285097	12.2172196039877	-88.6799232599568	-5.33544528037204	-18.7701898151275	27.284734276569	
2523666666.66673	-12.4959210190815	-47.8634599715496	-63.3503031028961	-7.71050749042218	-76.2226618360536	143.587369805471	-18.7479528500886	26.8742116745853	
2524000000.00006	-12.5123164752129	-48.1897335833929	-64.284124810656	-3.30607838658	-79.9365587058028	140.073881291382	-18.7705486854072	26.3517612278362	
2524333333.33339	-12.5134426975563	-48.5057553974842	-62.0097580461156	-12.2951816581947	-72.7961061900381	-25.5177277688215	-18.771274555623	25.8179073247399	
2524666666.66673	-12.5394793454319	-48.7942617640482	-62.6416782218176	-14.2340061618839	-74.1022367405634	76.6444991720034	-18.7950322191819	25.3566527217522	
2525000000.00006	-12.5492010512543	-49.0357107415176	-61.9611468979956	-8.2771525159259	-77.8845284329239	-64.9076509647586	-18.8225958592808	24.7947329343524	
2525333333.33339	-12.5673780985805	-49.311452945258	-61.1307581931941	-25.4732864486843	-83.596795512559	-60.9790140042232	-18.8658850037945	24.1771027095741	
2525666666.66673	-12.5848035055416	-49.5937369872818	-60.5392913343928	-31.8885154847758	-78.7949873386744	127.488223454829	-18.9005059893215	23.7624213733742	
2526000000.00006	-12.5963467976522	-49.7164078782081	-60.6298375239059	-39.8153327628602	-75.1493927793075	50.9993827379496	-18.9676424592668	23.121462305815	
2526333333.33339	-12.6216086657341	-50.0398765010201	-59.509076529948	-46.0501891668545	-87.3770940101741	70.4289794006631	-19.0375740228858	22.479496673598	
2526666666.66673	-12.6282884475199	-50.1827512778774	-58.8975852310531	-50.9334309338752	-76.8474922925475	-148.068527736966	-19.0938962513618	21.8743460930714	
2527000000.00006	-12.653081919081	-50.4182509956071	-58.7135932391021	-66.0178828813257	-80.3040012583038	87.3971999843489	-19.1716703363694	21.3709928592019	
2527333333.33339	-12.6855780378532	-50.6823106492666	-58.817368298199	-68.8588120323407	-80.5235293738716	36.6890048083827	-19.238931118172	20.7014445675479	
2527666666.66673	-12.6969100075857	-50.8474716831525	-57.5225268206863	-80.8193489679994	-79.3801964342708	54.1643338200393	-19.3106715042331	20.0448201635981	
2528000000.00006	-12.7245060221403	-51.0037367270934	-57.4230849762061	-87.5368286874618	-82.1607756243515	27.465721739417	-19.4043116274876	19.5489804371381	
2528333333.33339	-12.7610074542151	-51.2432197602072	-58.576213485961	-102.984227438726	-79.1474818129009	-113.663670547654	-19.4823929702399	18.8096851934205	
2528666666.66673	-12.7742811514437	-51.394034580812	-57.2207250882721	-117.052567969893	-74.6403026151033	-160.205688637691	-19.5862113946109	18.1230948149226	
2529000000.00006	-12.8028360086	-51.6226191410207	-58.0473430052936	-110.430239098073	-76.723908013352	175.213811546435	-19.6705717724032	17.6055534870822	
2529333333.3334	-12.8346093318215	-51.7126741313102	-58.0475461044231	-126.190221653638	-74.6267065552095	146.288381109871	-19.7970208136009	16.8101635413889	
2529666666.66673	-12.852919938756	-51.9305293230523	-58.1101300684036	-134.831392533274	-78.3375505486923	136.300987581237	-19.8951775346958	16.121139115281	
2530000000.00006	-12.8841390453674	-52.1683437069985	-57.8400198955962	-140.778670378318	-72.0616019134585	-123.480825375172	-20.0028345374561	15.4670973441984	
2530333333.3334	-12.9345771298707	-52.3890332827223	-58.0705044878292	-146.15430895743	-75.7132708409021	98.5415223026557	-20.1243001258576	14.9812632879318	
2530666666.66673	-12.9502501124263	-52.5781562281798	-58.4698304203164	-160.724857858649	-75.2682493128487	174.986685602267	-20.2213617757975	14.1683495045569	
2531000000.00006	-12.9928417269579	-52.7645754726643	-58.3210142926397	-177.365909284202	-83.4990015734101	163.989379381541	-20.3301334883293	13.5835473580007	
2531333333.3334	-13.0172137430694	-52.9987787632295	-59.7865483150762	-167.613779883732	-78.9096274648949	168.20925423102	-20.4381963759204	12.9235764842437	
2531666666.66673	-13.0737772855153	-53.1574649918568	-57.9321239166398	171.157539854951	-80.0249867260981	143.577385349397	-20.5463722965254	12.1364526477165	
2532000000.00006	-13.108994334571	-53.4150293231184	-59.2641994457735	166.715277672418	-80.7851915726192	167.583661108381	-20.6612617746043	11.400325140654	
2532333333.3334	-13.1537441799813	-53.6389672520784	-58.8782103235851	165.94830973329	-78.3682676976304	94.3150959374102	-20.7776880584761	10.6091779540554	
2532666666.66673	-13.204887539719	-53.870107934224	-58.5452206871878	149.752149488514	-84.0874543613065	32.5149974694562	-20.8747624288867	9.8608359587765	
2533000000.00006	-13.2552756964523	-54.0654469475509	-58.7728982822282	147.561123449296	-75.7064410651722	-160.424687786968	-20.9844389343607	9.11403014427101	
2533333333.3334	-13.3036189465607	-54.2385219179312	-59.5465959785882	137.07453809469	-81.5306991423178	-95.1072641184902	-21.063441310253	8.25993043789882	
2533666666.66673	-13.3468521772788	-54.4890866360911	-58.4610135279495	128.000408767557	-84.7694046498988	140.310218464832	-21.1676793138997	7.45105935760279	
2534000000.00006	-13.4013294820754	-54.7087848708652	-59.3331602251415	133.159592216196	-79.3508521776328	-144.02513002656	-21.2756001963678	6.65593865816213	
2534333333.3334	-13.4573758359348	-54.8877900302434	-58.738485243609	116.901719915217	-82.6148869025037	-130.3773952115	-21.3789455368728	5.49706315284663	
2534666666.66673	-13.5048702640369	-55.0898875306042	-59.006454277026	106.893858347468	-87.3028953873423	-140.961160253481	-21.4569350884953	4.72917444379496	
2535000000.00006	-13.5516815583774	-55.411698428444	-59.4674096356296	98.8481234585025	-73.0177489760185	-107.612990233287	-21.5299923578733	3.75486135423677	
2535333333.3334	-13.6313934951276	-55.5414295352465	-58.4491164896769	97.6197020026549	-84.1971877125471	147.865605117332	-21.5865774272437	2.66715827913607	
2535666666.66673	-13.6677926483199	-55.8437970071234	-58.445477193015	86.1625382721694	-79.6630816587275	-95.0099036993237	-21.6776419161008	1.73566687583625	
2536000000.00006	-13.7378316588753	-56.0656490898218	-59.3691680454844	76.7384807855836	-70.9740712068205	-78.6367366447775	-21.7482851380791	0.594885147855704	
2536333333.3334	-13.7900371584368	-56.2876206538404	-59.6280739631607	66.947941896136	-78.9165331471645	163.020976757854	-21.7782070054456	-0.570542519668103	
2536666666.66673	-13.8629452735578	-56.5773371381245	-58.5012812349544	57.6505102125678	-80.8069635679085	171.209729817276	-21.8453326757714	-1.70537229616088	
2537000000.00007	-13.9331569486332	-56.7984674948537	-59.2119068361593	50.3055485720912	-77.3853233721792	90.8498718623096	-21.8789544523225	-2.88717035197786	
2537333333.3334	-13.9941894545165	-57.0262132653193	-59.3571624156158	40.9255020377137	-80.0147890785707	-117.533552008755	-21.9223019788665	-4.0253222538197	
2537666666.66673	-14.0368591063204	-57.2471243877996	-58.4050180216107	33.1830056195707	-87.4363190398124	-105.154881237171	-21.9374426175725	-5.20775216897662	
2538000000.00007	-14.1216867572519	-57.4830294690722	-59.1002088000355	24.1979390510307	-81.3031187110201	149.889377531208	-21.9790912138304	-6.39472794123086	
2538333333.3334	-14.19319004576	-57.6756681409829	-58.6328383862934	17.9942734693642	-82.0060875537682	-44.7163549404492	-21.9917232214709	-7.79321711640209	
2538666666.66673	-14.2714487244102	-57.9734137836088	-58.4646908752773	19.3110690123705	-79.3404481831907	166.35521348744	-22.0031443640096	-9.06354481629364	
2539000000.00007	-14.3584100651759	-58.2068859281014	-60.7062603383367	10.8188929723833	-79.4372027523926	-51.8320837498998	-22.0193950337472	-10.3994892735716	
2539333333.3334	-14.4343314900652	-58.4476241205155	-59.2034052530739	0.679347366831648	-79.1296997513347	-51.2936982266849	-22.0240013795761	-11.814159899239	
2539666666.66673	-14.5178863900578	-58.7359129719888	-61.083707904608	-1.9246451729477	-75.434993567143	-39.4018307259545	-22.0216931727906	-13.0892858338308	
2540000000.00007	-14.5858732684333	-59.008812612445	-60.6601632206091	-15.0400894435637	-75.9331794633096	-53.0843580621792	-22.0110465361869	-14.4264064301724	
2540333333.3334	-14.6639231080523	-59.2819840129792	-62.39292163504	-23.2913609400946	-77.5815709948632	-54.3816511411305	-21.9901141624027	-15.8351711436145	
2540666666.66673	-14.7608829839927	-59.6072747470616	-59.4655009855542	-28.0750828675107	-81.297227572998	-9.46846723465996	-21.9530629640025	-17.1911120776556	
2541000000.00007	-14.8570656870785	-59.8965960107048	-59.9329196304598	-35.1576075328834	-76.6765539539155	-141.035794235484	-21.9417225228026	-18.5132438752796	
2541333333.3334	-14.9332953225306	-60.2049462202555	-60.5451933090043	-35.2795310022742	-76.9109983593261	113.43251428178	-21.8979110339391	-19.8791677972899	
2541666666.66673	-15.0309989481028	-60.6304654304672	-60.3943572807854	-40.0278292392972	-83.637272107783	133.77209655063	-21.8723737814875	-21.0912702716462	
2542000000.00007	-15.114624125943	-60.9916431764563	-61.5236405342928	-52.6450249140661	-81.5344265203543	105.493922414003	-21.810067564003	-22.3887252665111	
2542333333.3334	-15.2160189316748	-61.2086816349464	-60.5040218452953	-55.92247154189	-81.1278301593529	-26.9132870987139	-21.7604299326951	-23.6573021292773	
2542666666.66673	-15.283910700638	-61.6953094641395	-60.8458491502464	-57.3557418597252	-81.0647522233538	-83.3856666708337	-21.7023278175595	-25.0374126687218	
2543000000.00007	-15.3800249073444	-62.0402143702259	-61.0650597854487	-62.3086251531183	-81.3138482923872	99.7220593182195	-21.6606578288299	-26.3826260575398	
2543333333.3334	-15.4613788763476	-62.3605419826871	-60.1411494163656	-65.7858167339484	-91.0543258660766	-110.339582485198	-21.5799292610344	-27.6966457810744	
2543666666.66674	-15.5677320545299	-62.909140053247	-59.8352509797372	-79.5129666645708	-80.0252231952211	-69.4072544220028	-21.522523568182	-28.9897279222172	
2544000000.00007	-15.6674200358569	-63.147294115219	-59.4310933635818	-89.0315956123705	-79.8217849857331	138.268109832168	-21.4325253150366	-30.1965796601682	
2544333333.3334	-15.7744705126488	-63.4521732644256	-60.4066842907013	-89.2782940181116	-89.6281092109039	-121.788918858707	-21.3391941830723	-31.5132211310474	
2544666666.66674	-15.8870714444348	-63.8797634115555	-61.688076189362	-98.1014125196007	-80.5663161854741	-46.7382246015998	-21.2605295488921	-32.6692334305805	
2545000000.00007	-15.9811464727084	-64.3407885263843	-59.6521294366899	-96.7472483464419	-78.2042776740503	165.318292060847	-21.1791214112697	-33.8765785587084	
2545333333.3334	-16.0968858758735	-64.7854656227602	-59.088379468123	-106.803728609476	-77.6354366910405	-61.9115630494886	-21.0938247549496	-35.0996416728685	
2545666666.66674	-16.1820293410762	-65.1761207914239	-58.536425908521	-122.314027372733	-74.8091941775066	-119.720477863311	-21.031963554631	-36.3533823736654	
2546000000.00007	-16.3001347053959	-65.6560793983784	-58.3613661416341	-131.03162280981	-75.367025072004	-150.276738527471	-20.9567859895542	-37.5509336162147	
2546333333.3334	-16.4037232974773	-66.0764867875752	-58.2844447609121	-130.032196204406	-87.8823496712655	-174.129539374772	-20.8821350266975	-38.7484083174172	
2546666666.66674	-16.5093747651768	-66.621049146084	-57.1852841562255	-139.05792173023	-80.4254546488628	114.674197410858	-20.823753711823	-39.768473787439	
2547000000.00007	-16.6123521690945	-67.2165673935468	-57.9611200246922	-148.183811559906	-85.7791238316506	29.0378077239376	-20.7681648043113	-40.9268397659381	
2547333333.3334	-16.7223359331293	-67.6981259146617	-56.3700517245319	-158.340850437048	-82.2367153875242	-6.41672963553245	-20.7014444153661	-42.1207243601516	
2547666666.66674	-16.8092538695712	-68.3016296157891	-57.1337817365793	-168.30757218737	-98.30529410835	10.6549839202154	-20.671977165583	-43.1013439537532	
2548000000.00007	-16.9034695202994	-68.9098641561602	-56.3458836122872	-173.493438735713	-78.8602806279043	-169.985954430601	-20.6330893318157	-44.1319105262857	
2548333333.3334	-17.011950735077	-69.5502203778363	-56.962673546654	172.391055697778	-79.0229018515777	155.743974872736	-20.6028598113476	-45.3429801322773	
2548666666.66674	-17.1023892027959	-70.1915118692587	-56.6056159681146	160.931909142944	-75.8588187144027	-76.2900293644514	-20.5710791850626	-46.168385616453	
2549000000.00007	-17.1994136078676	-70.82313593316	-56.7818399743027	153.002304292927	-86.0317822659935	67.0096699470295	-20.563031378989	-47.0361282863337	
2549333333.3334	-17.2859091755724	-71.6555630775546	-56.0926008415755	137.231632778647	-77.0827295107808	-6.51915886831586	-20.5512145015295	-48.0358434508122	
2549666666.66674	-17.3915111580943	-72.300892628618	-56.3052418768065	136.77454742096	-76.3323609534245	-10.9362975786029	-20.5602538609052	-48.7558930104071	
2550000000.00007	-17.466376250294	-73.1848666284943	-55.8457466857161	126.002034041013	-75.7967676619834	0.173452996001858	-20.5596600919019	-49.5620597163066	
2550333333.33341	-17.5445238004462	-74.0131009529623	-55.4213887421044	115.595245321014	-74.3632344242626	94.5568379888784	-20.5673066427124	-50.278565060106	
2550666666.66674	-17.6345760591448	-74.7883960528921	-54.9825587892051	104.680669134002	-76.3736548968298	-11.6289018374319	-20.5658291699099	-51.0820866947016	
2551000000.00007	-17.7260237377487	-75.6710794562469	-56.2075387563543	100.91593480726	-92.5333873346674	135.325595565602	-20.6126350295773	-51.6651369342349	
2551333333.33341	-17.8105682431164	-76.5287696407874	-56.2290139231275	87.9745674840976	-73.1893337541887	-10.9698949283992	-20.6655813950127	-52.1621554103222	
2551666666.66674	-17.8895577328226	-77.4257024592477	-55.8977594296148	85.3500940356191	-80.2792371930866	-45.4261929634006	-20.664521827366	-52.6725223319768	
2552000000.00007	-17.9898281488054	-78.3656670686268	-55.8100150760901	71.061353066895	-82.6351211589933	-47.6070959910277	-20.7354777629395	-53.0802720006273	
2552333333.33341	-18.0636950921465	-79.430789281748	-55.9613488653782	64.9922005120557	-80.699809346727	112.685745991236	-20.8009571185312	-53.4423705075952	
2552666666.66674	-18.1619050432512	-80.2179874409803	-55.3857307476635	55.8240105632496	-83.7399002430697	93.9147473171355	-20.8838707242101	-53.7819440814738	
2553000000.00007	-18.2295813576922	-81.3260016165222	-55.3156893891968	47.4925151655778	-90.2331548017636	-138.776206479982	-20.9594580591447	-53.8520314693492	
2553333333.33341	-18.3104497613019	-82.2905917911451	-56.0274168126547	38.5639757037373	-79.1678074141793	161.624521141244	-21.0384970131622	-54.123272546736	
2553666666.66674	-18.3792216834439	-83.2813518266116	-55.5796784342766	32.5672114151431	-75.8281961286983	-34.9315711712805	-21.1337283527541	-54.1645837461793	
2554000000.00007	-18.4602027530368	-84.2381235899181	-56.0879457387795	26.420978644213	-82.0307733976904	105.659581444542	-21.2604800897589	-54.0929057270804	
2554333333.33341	-18.5151643032011	-85.3300627335254	-55.7129457862238	16.3338965644508	-75.5342010704183	-74.43717220669	-21.3648998077346	-53.9717459830858	
2554666666.66674	-18.5726293954324	-86.2971732569723	-56.0388975368174	-1.82074969252054	-96.3617841693812	49.5350491081458	-21.5128655524832	-53.6726377033445	
2555000000.00007	-18.6306151436117	-87.3075466605843	-56.6165226242911	-0.505858194892937	-80.7489314801033	174.3716144458	-21.6411476386073	-53.2696294967462	
2555333333.33341	-18.6853680175539	-88.3029257636614	-56.9167073205214	-10.2899818595997	-86.8240031158648	-13.4297375905134	-21.7954605862724	-52.8918224906985	
2555666666.66674	-18.7352067360017	-89.3854582334388	-56.6535106447646	-25.3994113400878	-91.1147324335878	-72.9262360573382	-21.9360200730843	-52.223917527323	
2556000000.00007	-18.7881902755882	-90.4120163878369	-55.9467857754513	-32.5442379081437	-74.1437462288731	-79.4594069065989	-22.0955895291244	-51.5379396363843	
2556333333.33341	-18.8319490678473	-91.3167325354012	-55.8423563450141	-39.3609777018925	-85.073345621839	171.460332345942	-22.2494517520205	-50.371492166102	
2556666666.66674	-18.8567755194305	-92.4191696540561	-56.5569734020496	-42.5636831983748	-81.6771494360138	-2.19289938821897	-22.3868385149674	-49.2738757720829	
2557000000.00007	-18.8811048182894	-93.3531034954523	-57.5417764726389	-54.4255701295543	-86.6597370466451	-43.4880658185268	-22.5371912738393	-48.1123820738837	
2557333333.33341	-18.8978390216784	-94.3654108325738	-58.575378073454	-60.0003802375818	-80.5420238791877	-111.032726898377	-22.6819873686141	-46.4233099133024	
2557666666.66674	-18.9064482913946	-95.4165667189837	-57.3452177902197	-76.8089297762836	-77.4761025066124	-50.673018677446	-22.7645500102141	-44.9163508083514	
2558000000.00008	-18.9260975761466	-96.3237615213075	-57.580804011089	-73.0517448259562	-78.7014156320847	-19.3073756031251	-22.8913756779385	-43.1069052123197	
2558333333.33341	-18.9191458916009	-97.3004876878118	-58.35341251223	-72.9357178372885	-83.6946325370319	-12.7305378836786	-22.9665306134076	-41.2804757918654	
2558666666.66674	-18.9289122672724	-98.2415195281493	-58.9910816648201	-80.5412691235286	-82.7124477574228	155.065808421747	-23.0045743891381	-39.2741529571433	
2559000000.00008	-18.9138383069027	-99.2041364939813	-59.2715865873898	-91.2177215063723	-79.5260181041955	14.1440103368811	-23.0872080273062	-37.2867469615106	
2559333333.33341	-18.8992410498055	-100.119727440474	-57.844769261325	-89.0332979394658	-79.2894895741841	-135.313956356884	-23.0733941854733	-35.2347616908188	
2559666666.66674	-18.8851223293149	-100.959462121825	-57.9700067010563	-112.403823212067	-79.8003407551137	160.950712115673	-23.0708039037259	-32.8695919133084	
2560000000.00008	-18.874006649727	-101.920209635986	-59.0284154199859	-118.440698466095	-85.657453207596	175.518846675906	-23.0199268076077	-30.8203190029927	
2560333333.33341	-18.8380092989806	-102.745957938425	-58.0077570934949	-122.51827973864	-87.7293712321046	103.246983480878	-22.938072719908	-28.583495316352	
2560666666.66674	-18.8167133017477	-103.568640122368	-59.391732381474	-122.775402295819	-86.9189073147852	-45.5435761731702	-22.8335902077067	-26.3747032822198	
2561000000.00008	-18.7725651964571	-104.425015563732	-58.3381276003669	-130.153167334415	-76.6998881176964	45.5823568029563	-22.7275112507698	-24.5788566807682	
2561333333.33341	-18.7301424915037	-105.29696325822	-57.6848105932702	-137.546241878646	-82.9219112416417	-144.009534734395	-22.5700331009362	-22.6841980958776	
2561666666.66674	-18.691898370839	-106.078015290238	-58.4499300059527	-147.737923656849	-74.6476079790014	157.310558018295	-22.3894319388962	-20.8883441528618	
2562000000.00008	-18.6431324819779	-106.904993640202	-58.0254481892778	-160.392227081705	-79.29493112743	70.3749294137001	-22.2284263145217	-19.0244698227243	
2562333333.33341	-18.5831829590937	-107.703454952776	-56.9844521186737	-165.879410273704	-78.2726672652715	-88.8232057864669	-22.0370444045813	-17.3824205154286	
2562666666.66674	-18.505391579455	-108.332509886893	-57.6064620598367	-175.396506446518	-77.2116966133504	17.8858176760645	-21.8202609009732	-16.0056048123894	
2563000000.00008	-18.456834996422	-109.09550160389	-57.1308310572311	176.081831401068	-76.3058446977055	111.422631158338	-21.5984446077443	-14.7704648602396	
2563333333.33341	-18.3846352274171	-109.746701739906	-56.8523446766094	173.860208148348	-73.4240749120462	151.301709937352	-21.4196723696839	-13.5699413464682	
2563666666.66674	-18.3108328568933	-110.414388821436	-56.2788394060257	166.261845108181	-70.9373840232287	-141.997200176818	-21.1742573156433	-12.514751820368	
2564000000.00008	-18.2514094050893	-111.106061529489	-56.1443941580556	149.599310093808	-87.5400850737405	29.2419284843456	-20.9818597867568	-11.4970862416577	
2564333333.33341	-18.1748766763919	-111.721246810497	-56.5171478128464	149.284129885458	-81.4335842577474	100.074948478889	-20.7717192558055	-10.7122890840692	
2564666666.66675	-18.0984245102617	-112.413680316868	-57.045145975607	137.412044255395	-86.6486543117563	135.761886447561	-20.5777642183858	-10.0823293467957	
2565000000.00008	-18.027981879723	-112.993105005316	-57.3945551737218	125.567536617332	-76.1408214447308	-169.651918540446	-20.3902419055065	-9.44879062302594	
2565333333.33341	-17.9495792960768	-113.649816574767	-56.6748312073592	124.845840281073	-76.2329763872457	135.369781013224	-20.1997366393396	-9.01392521393735	
2565666666.66675	-17.8684402315792	-114.285676229871	-56.6758502996922	107.744703808207	-77.5511716473802	103.746989790685	-20.0349569834955	-8.5755216567166	
2566000000.00008	-17.7958981869787	-114.981690183486	-56.8322483894204	108.750621769356	-80.2508437939463	-41.1493786910967	-19.8419881759384	-8.19186842751551	
2566333333.33341	-17.7210225100111	-115.556527138299	-55.5607871367219	102.099299676014	-72.3910163806567	178.460168999988	-19.6687578480141	-8.15540159192235	
2566666666.66675	-17.6413811783685	-116.109907663444	-56.0171052844276	88.292832459549	-76.624443373326	-5.71783608484618	-19.5437827402773	-7.71522169133796	
2567000000.00008	-17.5777738191508	-116.769752618901	-54.8242173794586	80.4670216196623	-78.3291812299515	123.16691290247	-19.4031250459406	-7.76865977777457	
2567333333.33341	-17.5042402872837	-117.391939391624	-56.2386418212273	73.0580295585874	-82.4260515586123	-23.3068723891036	-19.300933672812	-7.766780537905	
2567666666.66675	-17.4348660657477	-117.908449947979	-56.1621764176844	70.7404040651985	-85.3578689915145	37.9295504194956	-19.1769460399211	-7.66096324799002	
2568000000.00008	-17.3452150571466	-118.625904856453	-56.2684599127567	55.187943577235	-75.741966786735	131.94840236064	-19.0883567360215	-7.7085220248996	
2568333333.33341	-17.253659725626	-119.229170234919	-55.2130113942275	52.3067137273325	-75.3278562116476	90.3650818619649	-18.9911111101061	-7.76458884608884	
2568666666.66675	-17.1995154926524	-119.859069699389	-55.6820583951577	39.858194660158	-77.68842812171	-10.9258336206541	-18.9149821071537	-7.79308053633859	
2569000000.00008	-17.1214029346623	-120.348266484335	-55.5386710848586	30.2357108204198	-77.2515352910827	-64.4345257935808	-18.8356176909093	-8.04460701196748	
2569333333.33341	-17.0608365705144	-120.989560767487	-55.2317426529684	23.5837563871778	-73.8114400325334	46.5583178797497	-18.7993991550954	-8.18118729110719	
2569666666.66675	-16.9842139325929	-121.524304633501	-55.594699211983	10.9021630814633	-82.2439755956849	33.4364452159906	-18.7563482188562	-8.40394212264933	
2570000000.00008	-16.9070678322574	-122.117594596645	-54.7422474521666	2.35121638218909	-88.9880137116506	-16.7398500421726	-18.724563086545	-8.58592642492427	
2570333333.33341	-16.8443990393994	-122.805830999349	-55.7872181397112	-4.16697171576099	-80.0354644251208	-74.7144902514158	-18.7166931118332	-8.64858401218938	
2570666666.66675	-16.7929982092635	-123.27870164268	-55.808782011347	-16.9039931174775	-90.186647446117	165.913102646584	-18.7221307385066	-8.87444886925236	
2571000000.00008	-16.7369766169929	-123.933043478372	-56.4022033188394	-28.2842498456392	-71.8694860846629	173.254823480568	-18.7360772439899	-9.11463760064227	
2571333333.33342	-16.6815966437641	-124.501371899597	-56.5825029966185	-32.0198907149584	-76.2870290665338	76.9363297892225	-18.7544522307782	-9.17321339981633	
2571666666.66675	-16.6438558534864	-125.040939802584	-57.1000844236928	-42.9718507862733	-82.4750027162144	81.6480635461903	-18.7956429667176	-9.47613500641344	
2572000000.00008	-16.5986922451362	-125.706957350361	-55.7063246479327	-50.7096932754288	-81.0371827925836	-179.971431611473	-18.855407475053	-9.66339556001662	
2572333333.33342	-16.5394399685992	-126.240345221806	-55.9079735335806	-61.2748465547506	-83.4174413725531	-33.1176762480431	-18.9248133185695	-9.68137532276138	
2572666666.66675	-16.5250765968958	-126.85356309346	-56.101041567278	-74.3001866727273	-76.2184325984631	144.324188125979	-19.0178030948442	-9.83388938051775	
2573000000.00008	-16.4871889307788	-127.487488217011	-55.6273494793972	-76.7674418169321	-89.1370768310598	-33.8525781440595	-19.1228860394168	-9.72218147777108	
2573333333.33342	-16.4553367719272	-128.101343417531	-56.7170733228466	-89.9777733743151	-79.2588633465006	-148.497891372665	-19.2502408370086	-9.63435432841687	
2573666666.66675	-16.4294106621355	-128.799462296696	-56.776338074728	-100.996744895409	-79.6659595482245	115.784206904393	-19.3615156396133	-9.75645636760708	
2574000000.00008	-16.4013304851839	-129.428792607639	-56.5084578170438	-110.587236311007	-82.6253341271361	-177.268617360264	-19.4834794968456	-9.51644966430734	
2574333333.33342	-16.3757014567571	-129.974913713018	-56.7113231555052	-119.966435918792	-78.3559710061969	-86.4509855469403	-19.6325034940577	-9.20492766897655	
2574666666.66675	-16.3540986640529	-130.574289152596	-56.1903101940437	-127.914185622792	-80.1853850531398	169.004881314276	-19.769411245985	-8.96655982406348	
2575000000.00008	-16.3290617744109	-131.164714593382	-57.5030946490145	-145.170818777709	-75.3834523701117	169.209021185263	-19.9492128668881	-8.59475632847367	
2575333333.33342	-16.3221916457289	-131.876893257645	-57.8796120157871	-147.530891051634	-83.1908539224936	-139.607984951045	-20.106717580058	-7.91554231859702	
2575666666.66675	-16.3273362063004	-132.496874457176	-57.3609978809844	-156.885998221949	-84.6563912683615	159.295713959562	-20.3003230080123	-7.15581865941595	
2576000000.00008	-16.3078962895063	-133.092644084365	-57.9908122807453	-174.056106656905	-85.0723494369371	88.0820635223593	-20.4597821730555	-6.5270881239222	
2576333333.33342	-16.3284694880197	-133.712012704432	-58.0410025685063	-176.711427694337	-77.4191702108096	-78.9642685436939	-20.6419533778705	-5.57948381140784	
2576666666.66675	-16.3288283163627	-134.446723599141	-59.1430293500267	169.655242674945	-78.341122442674	1.95909434161923	-20.819643636671	-4.72576110716164	
2577000000.00008	-16.3365022073836	-135.102673727827	-58.6299364789479	159.66717818158	-85.037373452824	177.530601026825	-21.0022644344468	-3.50295608524214	
2577333333.33342	-16.3728898639715	-135.873435408325	-58.8561314850665	147.857344244357	-77.1871185580959	-38.777642904191	-21.166383459092	-2.21884191265227	
2577666666.66675	-16.3875126761213	-136.578530953637	-60.3219499531049	135.538870795364	-87.1219805864373	136.156189174449	-21.3145709425809	-0.973798530414532	
2578000000.00008	-16.4255918941299	-137.185718372276	-59.5920049846767	132.912299894115	-79.3401503334226	75.4124237848296	-21.4647067775071	0.53485249460916	
2578333333.33342	-16.4601680189766	-137.942282415414	-62.3282894196084	129.257397635177	-99.7056682988098	158.915765813847	-21.5942345192331	1.83693935942554	
2578666666.66675	-16.5013631505588	-138.712438628685	-64.0050913219209	113.794468389557	-76.5369989670502	31.9819189333158	-21.7313888930662	3.65515596392553	
2579000000.00009	-16.5303616256526	-139.321457363268	-64.059148231002	104.430050630058	-84.1063459101753	-2.59333674726634	-21.8453845825237	5.42595555172274	
2579333333.33342	-16.5842360067603	-139.965935102213	-64.0914790928761	107.902413482201	-77.4130465869025	67.6266925380079	-21.9355159838141	7.12529778514708	
2579666666.66675	-16.6306423800831	-140.71283265302	-65.3430942977304	105.492496304049	-79.8220521228574	116.746885549342	-21.9756877453818	9.05895063912005	
2580000000.00009	-16.6833507663469	-141.476486957014	-63.3592196707135	105.848487800158	-84.698751166824	-62.6293416571359	-22.0683249538225	10.827950285944	
2580333333.33342	-16.7822133526335	-142.083572160473	-66.8814379773333	91.4870266261779	-78.343032422441	162.08784662024	-22.0518946051844	12.5872068518142	
2580666666.66675	-16.8494411516328	-143.009054009567	-64.1847895523133	90.2404169241586	-85.6066574790711	157.742152488825	-22.0755700036568	14.6176682129529	
2581000000.00009	-16.9204131018212	-143.750477545761	-64.4279907067383	89.4663741333067	-83.4092170973281	108.234134002312	-21.9947548444142	16.1039702105181	
2581333333.33342	-16.9878984736737	-144.488324321371	-65.2234976443019	68.3381096905199	-79.9643303903439	103.954953595472	-21.9797348748486	17.8189864467168	
2581666666.66675	-17.056959146795	-145.369111890081	-65.1859811125717	69.9262636360643	-83.6097427261513	117.826566996238	-21.9210495068159	19.380879642684	
2582000000.00009	-17.1369754707341	-146.090140884972	-66.3597725488152	53.47842904272	-75.1053858653435	127.903303007185	-21.8202920784745	20.7493816984631	
2582333333.33342	-17.244806971335	-146.860005355262	-63.6144088680043	63.5773953114865	-77.0700903252471	172.029572470377	-21.7732589477064	22.1408658354392	
2582666666.66675	-17.3192297735155	-147.733322423033	-63.8663964555706	30.3416870631729	-77.7255073006107	115.194163324126	-21.6677849768591	23.3986297933693	
2583000000.00009	-17.4134567379822	-148.399120525249	-67.276903606641	26.1859177477425	-77.7809460617896	168.864685705834	-21.5318637180242	24.3536324778387	
2583333333.33342	-17.5109725233139	-149.205588900409	-64.013128270231	26.0325228182406	-91.9047954127958	87.6999280576202	-21.4097780105926	25.3331684654979	
2583666666.66675	-17.5982519271286	-150.129288981088	-63.9615339272469	10.7249776823006	-78.0422915864498	118.864913758691	-21.3120399353493	26.0808811623468	
2584000000.00009	-17.7083561748642	-150.836370836004	-66.7926419099505	-5.6405325264126	-87.1910556884867	84.1576097504603	-21.1886751084591	26.6635878903217	
2584333333.33342	-17.8354285461637	-151.674183994173	-70.635664812928	-9.6190989050191	-80.6141264630483	-72.5944342005037	-21.0668938415473	27.1683136398981	
2584666666.66675	-17.9396602098325	-152.57285786096	-65.9000517654108	-12.1504158923908	-76.2534421929812	-161.163456523494	-20.9367353981764	27.7230705514816	
2585000000.00009	-18.0200772964914	-153.398203846748	-65.5813797050617	-38.360397456499	-81.7937872419741	70.8589399592716	-20.8226890692105	27.8394651773674	
2585333333.33342	-18.1674328178422	-154.119610327843	-66.5081984787751	-20.3860705128869	-76.5958050535589	122.252996234731	-20.7397526609646	28.0617583849601	
2585666666.66676	-18.2613924575189	-154.898451560026	-68.6915890638244	-66.4148552814648	-82.9702519320209	90.8132864413541	-20.6246807640686	27.8582253498371	
2586000000.00009	-18.4074363252704	-155.841173137686	-71.4661872926007	-15.7470566413253	-79.3388585896695	74.4297772156814	-20.5400668588015	27.9559131517505	
2586333333.33342	-18.5460880791439	-156.685060273948	-68.0597672951069	-35.627193058543	-72.2025302863819	80.4585779090415	-20.4450528977977	27.5878582180504	
2586666666.66676	-18.6543190710054	-157.514850767217	-72.9072682535114	-79.2172975127563	-76.7237505149528	19.8800053751159	-20.3712280941217	27.0651643929935	
2587000000.00009	-18.7766934243765	-158.372815595585	-71.568319814205	-63.2232448126856	-78.2084072537296	-13.255403956724	-20.3251406947176	26.7314353538731	
2587333333.33342	-18.8960930687852	-159.284112863334	-72.6192156604156	-22.6268493490536	-81.7439236378585	-20.0050596548927	-20.2623607112151	26.2742692997947	
2587666666.66676	-19.0400908501923	-160.134689578037	-71.1493742672349	-36.7628116785334	-76.8688677471349	-175.630517061478	-20.221991423846	25.5874970976291	
2588000000.00009	-19.2004045076369	-161.00131334602	-71.3069034980087	-78.751898769049	-84.0122252948585	61.0576555805918	-20.1886238829873	24.8464442526503	
2588333333.33342	-19.3213453056669	-162.070981090595	-68.1677374430406	-44.1331389439518	-80.8724664075708	26.4681544117666	-20.1880817559529	24.2433059871823	
2588666666.66676	-19.4401840749839	-162.823034330341	-65.2770730137865	-57.322126907776	-78.0658299942306	131.252748086795	-20.1857710215928	23.3684114484393	
2589000000.00009	-19.5895830584626	-163.76742216212	-65.6159578680844	-73.6707569193009	-78.9184495106104	-145.532152513929	-20.1967794104572	22.3661422398621	
2589333333.33342	-19.7007246634537	-164.649434093152	-68.0761124521008	-65.8133873282115	-85.0065490489258	-152.650521369197	-20.2204986065476	21.3188821889418	
2589666666.66676	-19.8355096623473	-165.786983518234	-69.649241915899	-97.0381872744684	-79.713468481474	148.578880205232	-20.2531346601839	20.298341926393	
2590000000.00009	-19.9628157335531	-166.629573693414	-68.4035024535457	-100.574763133658	-80.6480765459431	-153.870629126947	-20.307431022613	19.3195003108876	
2590333333.33342	-20.1105019648432	-167.681629973739	-68.2747668727834	-107.426908168681	-76.0632901775017	-105.640829376694	-20.3674420195345	18.2098035863022	
2590666666.66676	-20.2186843349773	-168.735801903946	-68.6565418697141	-89.0682587681317	-89.2105078178436	173.706628413072	-20.4646234238481	17.0693206745085	
2591000000.00009	-20.3467093049937	-169.762267184671	-68.1415246786207	-105.002048859422	-76.2556837549535	137.440669351692	-20.5514296530568	15.7654633285197	
2591333333.33342	-20.4337538152147	-171.027987632105	-66.4016808650251	-137.637230408762	-80.0995401348347	28.5682015699327	-20.6507862897441	14.600447772343	
2591666666.66676	-20.5692106956329	-172.160697966931	-67.1729142420574	-119.898878159192	-80.609793834269	124.659425889388	-20.7845923088143	13.2194021935327	
2592000000.00009	-20.6705808183772	-173.317809515611	-68.2165416607451	-142.845161433886	-81.2417850648104	-128.607465716741	-20.8996822130326	11.7746238522966	
2592333333.33343	-20.7809074037195	-174.388071306382	-67.8271984122724	-146.735397300226	-75.2006451826782	-152.214326711717	-21.0489419839732	10.5911690704097	
2592666666.66676	-20.8572986817527	-175.763725674108	-66.2239476533424	-162.760472432422	-85.2876471364965	167.805834423245	-21.2258738027901	9.08118583988359	
2593000000.00009	-20.9889439393206	-177.05340582245	-67.1433841438972	-170.481865213541	-74.5360270129984	-121.463486036567	-21.3881142238514	7.83554767787159	
2593333333.33343	-21.0639382950627	-178.42752791613	-66.6866657156354	-177.377544500669	-86.5542822792242	-143.487094508885	-21.5751881352156	6.35758830587323	
2593666666.66676	-21.1416026288811	-179.928615192315	-65.6656774074881	162.599097397209	-76.4157705479815	-125.126938521197	-21.7735479479816	4.76511350085496	
2594000000.00009	-21.1968194231461	178.77556270144	-66.0020313086335	171.267856321458	-78.0525581103957	-165.821696322269	-21.979797651455	3.33134923898097	
2594333333.33343	-21.2570440220414	177.270317977705	-67.8289754842447	157.435199140958	-73.2911997608705	-82.9240369508977	-22.2083016915799	2.0398270726553	
2594666666.66676	-21.3345154892142	175.894824009699	-66.9403275129039	121.447214180316	-76.2033127131987	-110.210916571699	-22.4239704476606	0.510493561922709	
2595000000.00009	-21.3518766258608	174.279552315737	-65.9605645060689	129.150123468633	-78.2591375097169	4.33138521196177	-22.6485173530389	-1.02004490939327	
2595333333.33343	-21.3922119079524	172.765181280509	-72.8751985857633	132.781979858699	-79.257479638734	128.39020142081	-22.9083469652824	-2.58357834299088	
2595666666.66676	-21.4294523114296	171.078909442212	-65.2539897754008	96.3486884355661	-75.9383556800699	47.997551722213	-23.1593318474026	-4.15382584526908	
2596000000.00009	-21.4236067886521	169.537737000041	-63.2090112028259	106.625745585086	-74.4258433854853	-80.522355461839	-23.4572774570024	-5.60978619893608	
2596333333.33343	-21.4294814263059	167.771034845123	-66.2558549464229	81.4464607109558	-75.7115125553775	3.05305210971026	-23.7607893461767	-7.16345606588368	
2596666666.66676	-21.4041463464585	166.080012114365	-66.0130722491347	55.1835510640935	-77.0230453042829	162.632809867665	-24.0756927441283	-8.59322248424277	
2597000000.00009	-21.3913326335622	164.532795871788	-68.1978713414496	51.3714309049592	-76.2602006367467	20.2014583485393	-24.3976966751229	-9.97474162986385	
2597333333.33343	-21.3591263729734	162.749270291696	-66.2321130243111	51.9367833585408	-80.6570334002193	-57.9618785350947	-24.7183603744913	-11.3762615302584	
2597666666.66676	-21.3361693411484	161.157002909686	-66.3159045965168	31.9966692246694	-82.3105829123902	170.820545563347	-25.057061252135	-12.8900030627072	
2598000000.00009	-21.2506863910315	159.256773817448	-73.1925890031115	20.2378519409635	-76.2756537935508	-43.3158023238408	-25.4536420013794	-14.0314214916241	
2598333333.33343	-21.1922270291629	157.49004927578	-72.619257115441	-1.61605326893272	-83.0055853955426	-6.66848471367019	-25.8152951210794	-14.986689467822	
2598666666.66676	-21.1018687083876	155.782936244165	-71.6040492704039	-17.15955528566	-81.9518182461146	-80.1762114049627	-26.2233227244042	-16.0785619609367	
2599000000.00009	-21.0233753607032	154.002517852701	-71.3137168679131	-9.5541125534427	-96.760714941807	-44.5708329142349	-26.6259377579736	-16.7225225609485	
2599333333.33343	-20.9352591569466	152.24193206378	-86.5892163986152	-154.672752948485	-81.3650034004786	147.999695311263	-27.0311445249593	-17.964764486015	
2599666666.66676	-20.8185942182486	150.473738374131	-74.9167045497715	21.4608708364924	-70.7108325386124	87.277447098258	-27.4534250518338	-17.8291660299518	
2600000000.0001	-20.6990863090181	148.765450774213	-76.6229219399403	62.2479386834432	-83.753013176466	4.28652720892352	-27.9122482549099	-18.1778143830942	
