!Agilent N9923A: A.05.34
!Date: Friday, 25 March 2016 21:52:49
!Model: N9923A
!Serial: MY51491690
!GPS Latitude: 
!GPS Longitude: 
!GPS TimeStamp: 0001-01-01 00:00:00Z
!GPS Seconds Since Last Read: 0
!CHECKSUM:1936091876
!Correction: S11(ON U*)S21(ON U*)S12(ON U*)S22(ON U*)
!S2P File: Measurements:S11,S21,S12,S22:
# Hz S DB R 50
2400000000	-16.6206313396011	173.520753139036	-63.3313872821386	126.490805072348	-92.7849856407751	-82.7076168430251	-18.9151467738906	3.03557348580418	
2400333333.33333	-16.6558440467652	172.529386689562	-63.4238817383559	119.09977614894	-79.0242192948392	156.336674199773	-19.1338342509438	1.81952710527464	
2400666666.66667	-16.7167370760644	171.441820022476	-62.8807164639444	100.982045076296	-73.4328094020788	-40.8071564399182	-19.3727625544029	0.591972966017773	
2401000000	-16.7505042007287	170.398707857989	-63.4641543642511	95.8871247224369	-75.0526080124819	-65.7873912920625	-19.6377941823745	-0.402646232864696	
2401333333.33333	-16.8188405558143	169.105945549651	-63.7931164669249	79.4009937936099	-74.3570358141286	92.6669202203631	-19.9319997215127	-1.62383310544857	
2401666666.66667	-16.8577376735561	168.08310407575	-63.558774102266	67.4989324042078	-77.4472256717394	14.2346122622132	-20.2463315173858	-2.75082504079127	
2402000000	-16.9152371978696	166.790966833498	-64.4359594511526	47.3475345676712	-91.4388855799224	-135.746272650415	-20.5789598347935	-3.88363347150809	
2402333333.33333	-16.9824983032665	165.50475465314	-63.9846959339754	51.076504115841	-87.7274797465557	-19.0496462478741	-20.9107728518775	-4.76230842868716	
2402666666.66667	-17.0227223834349	164.383425097318	-66.2729842099213	39.951334889771	-82.5507393724381	-50.4083119402588	-21.3024655413842	-5.87926906741589	
2403000000	-17.1019903990663	163.206857249739	-63.5870675157303	32.1024410267791	-81.0700743167165	-168.172954263373	-21.6962629506308	-6.91049781257976	
2403333333.33333	-17.1468611263932	161.966138155342	-66.0307891739646	25.3671661719084	-81.3146289885167	-146.79033333527	-22.1403060691868	-7.98868224247832	
2403666666.66667	-17.2131969285147	160.748600536972	-66.3954749412262	-3.54442933530384	-75.2860307000424	82.1624864178705	-22.5876559686884	-8.97381147215077	
2404000000	-17.2387260623983	159.553382078241	-68.8610654439027	-1.07914586563097	-84.2527497908853	98.4514978091739	-23.0836011216745	-9.92806819781178	
2404333333.33334	-17.2833446888947	158.255681938115	-66.5792794746937	-18.9288181496062	-84.0238032430035	49.279279969249	-23.5946499325143	-10.7079345927187	
2404666666.66667	-17.333657120642	157.122226909714	-66.5402918644837	-6.29288990686483	-89.4951889565872	-107.889417875143	-24.1131390291574	-11.3900031188242	
2405000000	-17.3762055193352	155.830258085292	-67.1627078743023	-28.0687427024687	-90.5519517379284	140.442795249822	-24.7510792987823	-12.3867433725472	
2405333333.33334	-17.4345806709395	154.587634963967	-69.2176166322248	-32.0521013747297	-71.280637029825	-166.843271721936	-25.3466680862883	-12.8631971305892	
2405666666.66667	-17.4625591215447	153.285106852851	-66.4757271484507	-35.2786638450849	-80.4349513569361	-148.215510383415	-26.0520740146883	-13.3014788743605	
2406000000	-17.5027484381821	152.128765030055	-66.7930580396828	-40.0505876277856	-81.769714435203	107.37039369197	-26.764104300797	-13.7207142645761	
2406333333.33334	-17.5163158999802	150.884735099673	-66.8155754653068	-41.8454579125959	-78.1980462971579	59.6713125894774	-27.5346122495772	-13.738433070823	
2406666666.66667	-17.5561328036624	149.564780089682	-67.6262160033177	-75.0811605935799	-81.2237742253122	-98.0937863752005	-28.4541645055918	-13.5070166793245	
2407000000	-17.5881694164201	148.336277354119	-69.6675453389962	-63.337682186915	-82.6261009406202	160.037593779206	-29.3592484017486	-12.8938788288995	
2407333333.33334	-17.6075594419687	147.127803470973	-68.7874916983897	-68.7036728456994	-85.101647413073	105.93262241762	-30.3627243411811	-11.4774514185724	
2407666666.66667	-17.5956975203926	145.818010998899	-68.000330634474	-91.1110101784213	-83.3854436387987	-81.0288710255572	-31.4342408969506	-9.6470081633499	
2408000000	-17.6247315197866	144.705069204163	-67.8218298457646	-91.6002597093597	-84.7062749013303	132.741349489743	-32.6331214851538	-6.9627257818506	
2408333333.33334	-17.6319816518329	143.412835419345	-66.6372143512088	-83.2428074460225	-82.0998740870382	141.402024203029	-33.8358625972877	-2.50501076190613	
2408666666.66667	-17.6306630518804	142.297505371877	-67.1928770969985	-94.8504115461592	-82.3457793140139	79.2374104841734	-35.0730947995407	3.43774468203934	
2409000000	-17.6370215879066	141.021526498575	-66.5982427732863	-111.141399617098	-74.3058007240481	-124.743141883523	-36.162437058796	12.0589108776983	
2409333333.33334	-17.6352383229332	139.815987822952	-66.9395170323245	-118.211695886295	-75.768548542517	-176.820106485516	-36.9601221384455	22.3536855934605	
2409666666.66667	-17.614048157456	138.742197104494	-69.3112723860978	-132.825224413314	-76.2022510873171	18.9769122691181	-37.406326606813	34.282784644597	
2410000000	-17.6013518433221	137.40163421806	-71.6662709185506	-126.195217020374	-86.5246952059877	10.5178804075307	-37.3588669150732	46.4670906130696	
2410333333.33334	-17.5865549887488	136.240151269947	-71.3359457370621	-128.269998693318	-76.8392420703641	-120.39329818029	-36.8348985013264	57.1898445228876	
2410666666.66667	-17.5496252624586	135.191391414977	-68.0199003546775	-158.374214026178	-77.7134423350375	-61.1102175631549	-36.0140433801673	65.3383826746343	
2411000000.00001	-17.5172672524033	134.105126725144	-67.5053379590581	-167.042792874963	-72.0397607927322	128.270736197983	-35.2294586810748	72.2641509522573	
2411333333.33334	-17.4828361217443	132.932061804685	-66.361735988248	-167.079864702957	-82.2552736948968	-90.3932317738382	-34.2690358586844	76.2069102610186	
2411666666.66667	-17.4237770241802	131.804947491163	-67.0973990740783	-173.107926943421	-83.8049272330877	167.427295354543	-33.375284339858	79.0538168301877	
2412000000.00001	-17.3834649583576	130.720158001225	-67.0708844012295	170.838737807612	-81.2431676878876	140.910485628489	-32.6037198392555	79.9806057685425	
2412333333.33334	-17.3330326492971	129.490865365219	-68.0870543837539	147.362946618018	-80.487074257928	-134.750093404688	-32.0442944905122	81.3876908747194	
2412666666.66667	-17.2596623539861	128.416083600064	-65.7473139849168	156.354309778745	-81.4929032629098	-75.129474689897	-31.3621464968107	81.7376183524754	
2413000000.00001	-17.1932964541303	127.227534175598	-65.6876909337966	142.769074373909	-81.9602457269092	-5.30421016694577	-30.8384612928542	81.6591657547524	
2413333333.33334	-17.128727739427	126.078600068008	-65.0018432100698	130.32102152633	-74.3553709356139	-125.088341010257	-30.3189756680453	81.1624789719911	
2413666666.66667	-17.0444741607413	124.957049301022	-65.597051933807	135.438994596698	-72.5122999991	-24.2678989144124	-29.8295124614683	80.5646384738692	
2414000000.00001	-16.9501418725981	123.941557960118	-65.1767050339173	128.917173442151	-83.537274280818	-95.1498954694292	-29.4075265212706	79.6761157029992	
2414333333.33334	-16.8810779703302	122.891659331374	-64.9719345514395	97.1054878745841	-82.3696039582383	-58.4084298491641	-29.0839306477225	78.3671310232497	
2414666666.66667	-16.782423559344	121.827791747512	-66.6885634472657	74.9625000770044	-85.0355506972202	-170.999662670163	-28.7238794277161	76.8533452779571	
2415000000.00001	-16.6781770403812	120.830102239849	-64.2819085610503	66.3048593111296	-88.4279621881464	-29.0158937264864	-28.4114336955498	75.2687904326591	
2415333333.33334	-16.5974998900702	119.905495892028	-65.5169375980529	67.155466572962	-102.703279263005	95.2867869781954	-28.179712376065	73.4554808974108	
2415666666.66667	-16.4858007512152	118.892688013948	-65.7571149738686	56.2114674048199	-81.9315587856278	-148.997987490479	-27.908067225044	72.0140394550944	
2416000000.00001	-16.3902912179242	117.935171543475	-65.3326069996312	34.9462975073252	-84.6223585745139	-115.924226086007	-27.7158910368061	70.0582949510517	
2416333333.33334	-16.2863738257156	117.042641317494	-66.6537020208325	24.2016595650334	-89.7507106104425	-51.8282765630399	-27.504618885085	67.8790162003971	
2416666666.66667	-16.186194215879	116.118359091529	-67.4106238413151	0.545962609369976	-75.303802868164	-67.6662104619374	-27.2766537528683	65.8538219108907	
2417000000.00001	-16.0706946185362	115.215455735972	-63.665942266511	1.97084748287943	-74.0740104515461	-122.040402468052	-27.0660421972958	63.5680614072703	
2417333333.33334	-15.9767335528722	114.353307626185	-66.1879086222029	-13.7620154648604	-86.8546796313972	142.378237213262	-26.9652021405939	61.2284682314128	
2417666666.66668	-15.8822941335393	113.505178195485	-65.2819431148131	-32.1744691611763	-77.8247413691834	-117.567932190469	-26.780065442235	58.9554410750254	
2418000000.00001	-15.7690981049683	112.60068020154	-66.7302930531411	-50.4991319398688	-81.666418300921	-98.613613190176	-26.6384478689686	56.4767240043217	
2418333333.33334	-15.64476509693	111.750697091461	-67.146711473523	-35.7220756396335	-81.1908193273786	88.2697372092928	-26.5007995886763	54.0075342521894	
2418666666.66668	-15.5444118698371	110.929220085438	-66.1883989281666	-51.9415767863788	-78.203686517345	7.06388134472168	-26.3973415095719	51.7711484387583	
2419000000.00001	-15.4402563939417	110.038736486776	-66.9289366609128	-47.6675126731437	-78.6864506296865	22.7976492088289	-26.2610536802575	48.9606826814008	
2419333333.33334	-15.323610135546	109.22222121381	-67.999381266851	-78.2453496783105	-83.0493066957319	-126.807934134268	-26.1660734042005	46.5745142802242	
2419666666.66668	-15.2125038480348	108.455941285763	-69.6519822751679	-93.447588905717	-80.4537213087386	40.4900409814191	-26.0358084969469	44.146410981997	
2420000000.00001	-15.1103790015218	107.669715864337	-64.5248943818753	-76.150344064014	-76.0637237321393	-70.0923429551088	-25.9465929023867	41.3918871102235	
2420333333.33334	-15.0000687704575	106.91366115946	-66.3845531299905	-98.7992574418179	-91.2938645320289	-81.2615616970412	-25.7696988656837	39.0037386425983	
2420666666.66668	-14.8980393941887	106.159814769264	-67.5231048409019	-95.9818378780851	-79.5704273979762	-164.589882740689	-25.694034884029	36.5081525086741	
2421000000.00001	-14.7965103770521	105.464105431072	-69.0403812197621	-99.3111405885402	-82.5548542873723	31.5496732173522	-25.5677543124133	34.2238477497318	
2421333333.33334	-14.7024681534246	104.757544848577	-66.2171861472226	-121.645256799856	-81.239922218621	110.921587634467	-25.4326193969996	31.673482255793	
2421666666.66668	-14.6111183659753	104.022722798518	-67.7654308667081	-150.367758790903	-82.197155686167	-176.124743076496	-25.3139861232231	28.9910556131955	
2422000000.00001	-14.5086115806734	103.298596764352	-67.0094552467414	-155.938862933875	-87.8082770696766	172.626489639636	-25.2089517591101	26.7157669653785	
2422333333.33334	-14.4262515253208	102.641633471716	-67.255744121251	-152.349955839456	-79.2793877066659	47.8430924735835	-25.0357019016405	24.4131939819034	
2422666666.66668	-14.3288684863868	102.047229308095	-67.5497817111763	-176.059570988402	-78.3625308596493	-50.4732203167967	-24.9274285635679	22.1327569994846	
2423000000.00001	-14.2466973475243	101.382008304582	-65.4936827376818	-161.100057018044	-82.8201673717357	-150.967506610493	-24.7878883158359	19.9176612357847	
2423333333.33334	-14.166902372331	100.700187008999	-66.7613214117751	147.748990929867	-76.2997701288066	-157.215442290792	-24.6759967059529	17.6945847347518	
2423666666.66668	-14.0901830058243	100.089593256887	-66.633053580391	156.330070302795	-82.2300703046157	-34.4937034804275	-24.5689369542071	15.65253684482	
2424000000.00001	-14.0143153559652	99.4917206814908	-66.8615985710984	138.567799427892	-75.0567987255356	-86.6885239531028	-24.4481750354698	13.5753861418112	
2424333333.33334	-13.9351733353687	98.890937736265	-66.3489549900215	138.45922812397	-82.3374102991275	38.8915148039196	-24.280657739537	11.6578921070277	
2424666666.66668	-13.8662139494541	98.3511456583979	-66.4882367090695	116.429039989746	-82.7234937532433	-53.1481864731829	-24.1594978767144	9.89342894355719	
2425000000.00001	-13.8008210762402	97.7234039402873	-69.25251975657	100.813385163561	-74.2281095514437	-101.20173957569	-24.0437496898415	8.1748331165856	
2425333333.33335	-13.7206025436917	97.2286681898526	-66.5704879239947	97.2075511418741	-86.1263921194315	-61.5477985799509	-23.8910052584862	6.62788793848653	
2425666666.66668	-13.6649382673694	96.6752740431661	-65.5996615326561	106.515532730684	-87.1468292652943	131.665812281207	-23.78107846824	5.03731404057848	
2426000000.00001	-13.6097660423137	96.1214439323968	-67.5178933147753	86.2812903567865	-74.6639238796701	-44.6830791989357	-23.6644231402568	3.62888508897411	
2426333333.33335	-13.5462122903733	95.6678932708225	-66.3298901817922	82.4743239366274	-78.9418626458349	-34.0898607741786	-23.5378627061149	2.26828540128595	
2426666666.66668	-13.4918965782651	95.1777230283305	-66.0500588913362	44.1350611619536	-90.326960421197	141.605914582488	-23.4297076986656	1.18692334810157	
2427000000.00001	-13.447371873969	94.6470828105215	-67.5751628094621	33.2276568603506	-79.4509088698608	-46.4512474821833	-23.2751165628055	0.0383026462701276	
2427333333.33335	-13.3966133859449	94.2018751562339	-67.3093747714977	48.4345787021776	-96.5873446529988	117.487429085687	-23.185709610952	-0.96219545031344	
2427666666.66668	-13.35572501853	93.7050821989662	-68.2156527225113	18.3966303098198	-83.5714032479466	-48.4236918219352	-23.0919332148525	-1.85450075265951	
2428000000.00001	-13.3137982661455	93.253861290998	-68.0578304339155	22.7969773148476	-85.394805499409	8.12355645024141	-22.9608614838408	-2.73182508577714	
2428333333.33335	-13.2751140490966	92.8446749372897	-65.8710553673102	-14.7023910875257	-73.8691174491047	-59.7043621973576	-22.840846957152	-3.56845418182433	
2428666666.66668	-13.232960893291	92.3721281070174	-67.9279883750559	2.46620550800659	-81.9426475808964	42.5572900023209	-22.7220940907134	-4.0492709191434	
2429000000.00001	-13.2014705031982	91.9834175773519	-69.7900723452032	-42.6061795062379	-72.8562346145157	1.33106228362587	-22.6213112706504	-4.80100681218277	
2429333333.33335	-13.1767953789244	91.5848304601417	-68.4898490353452	-15.5992530749994	-87.291052054121	-6.6243622794704	-22.5108137561809	-5.26944517208647	
2429666666.66668	-13.1464520829019	91.2355981315457	-68.6708467742749	-27.0573445788461	-74.6382193196795	-16.400098811779	-22.3672795592768	-5.62335927845953	
2430000000.00001	-13.11824934869	90.838812452422	-74.7025432887601	-47.7790012777209	-83.2957434629682	-39.1177142154604	-22.2418443310267	-5.9825551293553	
2430333333.33335	-13.0930830932277	90.4048819843657	-79.8981696930819	-74.5861814616015	-77.3680572903467	-69.6826038622921	-22.1162359793905	-6.33357858977594	
2430666666.66668	-13.070487944951	90.0726843555939	-81.1020082178836	-90.8482949593497	-75.1836161511712	15.5082240525218	-21.9633864827855	-6.54145172441777	
2431000000.00001	-13.0452718613099	89.7793926780959	-73.9361679057648	-47.4556951368923	-85.6970581599626	-36.2898813909396	-21.8410737110329	-6.74973203471764	
2431333333.33335	-13.0321863776341	89.4965101048314	-71.1554041143904	-70.6012078557452	-86.9774226449895	-68.0156580986537	-21.6874956123694	-6.990783841442	
2431666666.66668	-13.0125645633913	89.2179202180769	-79.0137980863231	-11.7143486780351	-86.5823054582909	101.627293738969	-21.5509947309923	-7.16117948657857	
2432000000.00002	-13.005834288651	88.966557617591	-76.7518545994277	-73.6186334943754	-78.9342543987472	67.9086590136712	-21.3827749972461	-7.25570334566518	
2432333333.33335	-12.9937406818208	88.6648830310321	-75.8523950259315	-52.9295754618009	-75.2681211979717	-40.4397621447292	-21.2308279411818	-7.19028912688297	
2432666666.66668	-12.9785187059176	88.4705887485631	-79.0483500401978	-86.7620878319795	-79.652957615577	-9.38346740708782	-21.0706832108249	-7.34822018146577	
2433000000.00002	-12.9806133324151	88.1898966412734	-82.1765335970737	-65.9379792752045	-82.1675327404848	-68.4573062332176	-20.9269078656034	-7.27058964995043	
2433333333.33335	-12.9791105623247	87.9398647329738	-80.3260027979341	-135.398666800369	-74.4574286340563	87.4600824775589	-20.7700563601591	-7.25889693551681	
2433666666.66668	-12.9644754770525	87.682173702945	-72.0801884588233	-123.112663346005	-86.5046188597519	6.79748583403698	-20.6198229835992	-7.47441729020506	
2434000000.00002	-12.9564625456653	87.4530765460738	-75.2449465864132	-152.192021521951	-93.8692729528308	179.697107972606	-20.4641387550843	-7.50724646268251	
2434333333.33335	-12.9645532656402	87.2239416271456	-83.2854087853618	124.525298573037	-83.3335988595502	123.725975826178	-20.3233876872174	-7.4739733395162	
2434666666.66668	-12.9609054284369	87.029920037435	-72.3870486378847	-144.676438222383	-74.1042962362007	-111.52290416867	-20.1664694136668	-7.54618225517418	
2435000000.00002	-12.9665793115025	86.8974163991865	-70.9897091919276	-178.488201158351	-90.5429331290384	-104.457532804535	-20.0290304560216	-7.61078468815403	
2435333333.33335	-12.9592630580415	86.4870828139032	-74.0108528779737	145.334524370228	-78.3538049798144	-35.000594205493	-19.8635487954077	-7.57532901849148	
2435666666.66668	-12.9674373294551	86.2882760471596	-87.6790669209663	159.37502492052	-90.4938090343551	157.04068918025	-19.7149908600028	-7.84640898633926	
2436000000.00002	-12.977408610167	86.062383582292	-77.5886046355657	-91.9086662448454	-86.2500105723006	153.005222347089	-19.5700833520826	-7.88793342794011	
2436333333.33335	-12.9753838586386	85.7923977195712	-77.3179724399361	116.190516575076	-79.4260679638769	3.62588678468115	-19.4440039010471	-7.97526455344457	
2436666666.66668	-12.9888764636427	85.5391987788023	-81.6487692042704	76.5280400502521	-80.8742024380615	40.919611319485	-19.3138769218829	-8.09835145260586	
2437000000.00002	-12.9880499571283	85.3045946440727	-89.1612624680281	166.419852369841	-79.573722399557	132.666779307162	-19.1928132222068	-8.344924116763	
2437333333.33335	-12.9979663759953	85.0483532921778	-77.1607613134729	-179.203852863097	-80.8034683645055	-178.983001685787	-19.0555916274668	-8.54212374057676	
2437666666.66668	-12.9914691586759	84.7155594025141	-77.8002379176301	132.693989041142	-85.1582661332247	136.596499250181	-18.9456231468432	-8.66562735480978	
2438000000.00002	-13.00340238804	84.5367280778558	-77.1268783094034	94.0543309499204	-71.4997469952976	73.6444000679124	-18.8399710377514	-8.88741098114302	
2438333333.33335	-13.0138944246847	84.2035228104234	-80.5467426696704	-114.401955199727	-77.8269877539275	-66.2150593348545	-18.7212684484467	-8.97773772835564	
2438666666.66669	-13.0389073451779	84.03790386228	-79.0000760852771	-134.388819624656	-81.11818016358	117.574271234846	-18.6427003633614	-9.22234257048302	
2439000000.00002	-13.0407730645929	83.741366532847	-75.4339985714745	159.062187078505	-75.9648566627319	-153.326132624285	-18.5456310816226	-9.49584788494984	
2439333333.33335	-13.0348879346529	83.450619976329	-75.7244627410805	170.997640057494	-85.0573281345758	146.816548194775	-18.4762381539905	-9.81018182225229	
2439666666.66669	-13.0507817250481	83.1699692715959	-74.6843363659475	120.311407344715	-87.1117585550916	-1.022073980909	-18.3870839784018	-9.93713520876116	
2440000000.00002	-13.0725275855612	82.9164932583516	-71.2226156854337	171.03173237503	-85.5193541420041	118.810319844281	-18.3191289469615	-10.19358827518	
2440333333.33335	-13.0856185918827	82.6222243335397	-74.0253297500013	145.601728142808	-87.7005534854923	-67.2296700541338	-18.265461104137	-10.5539395935793	
2440666666.66669	-13.088792987734	82.3566787807382	-71.5502217461772	98.3486075552861	-79.8523554343863	175.456248589391	-18.2013309728839	-10.6064003544066	
2441000000.00002	-13.0969448382353	82.0547205634894	-71.262492893588	116.963515507028	-80.1238302002611	64.1218929903236	-18.1630977638083	-10.8073110928257	
2441333333.33335	-13.1215896194823	81.7196248987692	-69.7194587969607	126.692568710982	-77.0399456862589	138.129990980323	-18.116828625981	-10.9967189958978	
2441666666.66669	-13.1317346447159	81.3260335337251	-72.9580160432023	133.865019635882	-75.0370635770892	-122.152983717279	-18.0866379382508	-11.2554298237833	
2442000000.00002	-13.1620670049459	81.1293836128917	-72.485603144574	114.279953796128	-83.3247302606541	-60.2074932277864	-18.0674385936932	-11.6107143058686	
2442333333.33335	-13.1861169263767	80.8925520340609	-67.8693084974586	94.1252838633658	-74.1722425759384	44.8028851950811	-18.0508399702687	-11.7883595517208	
2442666666.66669	-13.2046526138201	80.6002463196778	-66.6880378475172	98.9027563323682	-80.108069346791	37.6763375728709	-18.0444786701791	-12.0005213249236	
2443000000.00002	-13.2310222566582	80.3163972328004	-67.2398121515616	75.2640160355716	-81.0591958116555	-97.5111133002208	-18.0355955777235	-12.1621491766871	
2443333333.33335	-13.2623648087878	79.9276990977496	-67.9287499732806	88.7144755155056	-79.2816270162551	81.6769934412976	-18.05010874501	-12.3468817470776	
2443666666.66669	-13.2848366980122	79.7535433906138	-69.4058779315786	59.5892734451006	-82.5717037362554	145.092134341859	-18.0558722347465	-12.5540009050059	
2444000000.00002	-13.3064197915543	79.3207479803337	-66.1730057314671	38.7650235347793	-80.419106329641	89.0826471147459	-18.0879225195835	-12.5419681391374	
2444333333.33335	-13.3429959115342	79.0257812652255	-67.2769630301184	46.3474639185681	-81.2491053259957	175.501831013229	-18.1323920104626	-12.6621365691834	
2444666666.66669	-13.3754327839219	78.6726428614424	-66.1721887304875	13.2033953639548	-80.7478434956421	104.183842704556	-18.1655395717694	-12.7241564239056	
2445000000.00002	-13.403443614908	78.3406872641129	-66.4847938524547	-0.14963165207978	-82.8933027656901	-144.884347103321	-18.2244495345813	-12.8289412393839	
2445333333.33335	-13.4292395595245	78.0086126393462	-68.4326542954696	9.68093090039339	-88.2761221729452	-99.851899467075	-18.2911771973532	-12.6664637256435	
2445666666.66669	-13.4539775854835	77.6764707353269	-68.9017235094314	-37.0586558618738	-86.9436503798883	-104.949044653885	-18.3424016449289	-12.7356629029732	
2446000000.00002	-13.4856406991404	77.1863809577826	-66.774142791336	-1.41118615251294	-86.2976348601192	-8.21874946298393	-18.4246857458888	-12.5920150536904	
2446333333.33336	-13.5067272963532	76.8757712491899	-67.6637795499315	-34.1386402320352	-74.4160950461785	-22.4399162166467	-18.4807725196437	-12.4444326546383	
2446666666.66669	-13.5449627992166	76.4011013652241	-65.7998111764178	-31.4511517523784	-81.0093920394374	179.795830450937	-18.5553301578334	-12.4621356290749	
2447000000.00002	-13.5575413361051	76.0593732038148	-66.7763159020528	-55.410609125071	-78.8758845599431	131.2777734131	-18.6482948246606	-12.303298599152	
2447333333.33336	-13.5833649996045	75.5041641208589	-67.8580812227375	-39.2157198567012	-79.362237175108	123.623565414899	-18.7424892519919	-12.0726405060137	
2447666666.66669	-13.6031985599769	75.2044769435189	-65.9486435140962	-48.9436278359701	-89.6914060544952	19.2972164236358	-18.8547882542159	-11.7638698175517	
2448000000.00002	-13.6469499862693	74.6732590734549	-67.9387806588262	-72.5655227637271	-82.4131813880405	-60.839668258431	-18.9674974034976	-11.4760537372676	
2448333333.33336	-13.6648548962419	74.2650612788788	-65.9172727278534	-76.9365934112114	-75.9607056196851	-169.203023031825	-19.0691154937419	-11.1572297209837	
2448666666.66669	-13.6991158516216	73.8279712796191	-68.6780534922992	-82.5578901673663	-75.0586747137552	61.9777989569339	-19.2052252545468	-10.7942826353633	
2449000000.00002	-13.7253167571819	73.3915398506928	-65.2474743185248	-105.839645521176	-88.5170849903656	-77.9049410702468	-19.3304267570568	-10.1986338032989	
2449333333.33336	-13.7521653984424	72.9122496451036	-64.741510046666	-103.157622199072	-82.4517982414427	-151.926920323736	-19.4374119003436	-9.76295050516576	
2449666666.66669	-13.7884485856478	72.4684067014219	-64.9902818342042	-126.910145975037	-77.4224507950573	105.07238694269	-19.556820315898	-9.10783645584775	
2450000000.00002	-13.8114879429775	71.8743919777553	-65.9717364227007	-144.546484500751	-78.4946312619772	-78.0504982801611	-19.7186762394077	-8.45197118134264	
2450333333.33336	-13.8408546290671	71.3689832173443	-64.1949212873964	-133.496953156165	-83.6030708879776	-8.55344266973696	-19.8738520906724	-7.73583005768761	
2450666666.66669	-13.8576462640701	70.8299605173916	-62.9588537144702	-141.013189498956	-78.4401718126528	34.2859509634505	-20.0219355072423	-6.99694431491818	
2451000000.00002	-13.8781228465944	70.3547425037659	-64.5630709680229	-160.555652871467	-79.8769582016946	-148.483085251588	-20.1627769078066	-5.9750568116544	
2451333333.33336	-13.9066788245792	69.7163348502061	-61.7922423605936	-170.792281920903	-81.3518601735744	-93.9671239523088	-20.3190452108866	-4.86830639753806	
2451666666.66669	-13.9244125855113	69.2578172618151	-63.3924902026182	177.196277399465	-74.8230914664164	142.239658554688	-20.4005898417669	-3.89449847885636	
2452000000.00002	-13.9422845845304	68.6474239954974	-62.8456039739598	176.658685919886	-80.1306993146201	140.613792642928	-20.5400603500277	-2.71158736771029	
2452333333.33336	-13.9598200552042	68.1321999724446	-62.4619191193862	171.084460604836	-78.029400295812	54.7621438218078	-20.6621699608353	-1.33601145896251	
2452666666.66669	-13.9720864987015	67.515601641357	-63.2477254829731	174.565642926902	-74.6539975414654	47.5684503971498	-20.7770434598007	-0.139723606212326	
2453000000.00003	-13.9783183697498	66.9556001218934	-62.6248005244274	152.623832929825	-83.6754108238834	-158.879575885917	-20.9008453470372	1.08490987036206	
2453333333.33336	-13.9941445031833	66.3339793107381	-61.9932613266073	147.3739223036	-83.231462308307	170.422621697379	-20.9830694910177	2.63609940959592	
2453666666.66669	-13.9929300972608	65.7139936419961	-62.1294427689603	140.372693997623	-77.7354119623779	36.5339167291677	-21.0697314423508	3.97949383479505	
2454000000.00003	-14.0116255637725	65.1216376025164	-61.1557419246729	120.471964569276	-87.0797765800205	118.453724534075	-21.1350901408059	5.41849828305961	
2454333333.33336	-14.0129432089482	64.410050180948	-61.4270416733728	119.266109170997	-80.0979709397739	-171.914608642726	-21.190710552458	6.88283191786354	
2454666666.66669	-14.0218335665455	63.7863043936744	-61.8298404547611	87.2845675247667	-94.735303649006	88.2932698172303	-21.2491290764247	8.31987464851428	
2455000000.00003	-14.0185454631307	63.1774802692	-60.0219796565805	90.0494978372107	-78.3373466357302	169.218524890642	-21.3002534222191	9.77606027641151	
2455333333.33336	-14.0190102901537	62.4685878331199	-62.2850502624573	89.8673590919591	-83.5422332766046	-110.404961087666	-21.3562498455528	11.3363317972599	
2455666666.66669	-14.0212270520463	61.8771483125852	-60.1937857916472	68.9978002055224	-83.6584076388833	-167.876076679967	-21.3679862627207	12.65577457945	
2456000000.00003	-14.0087533453835	61.1355840555442	-64.1934632359719	65.2200765700147	-79.704435061106	28.2203190647746	-21.4093120748019	14.2141976442251	
2456333333.33336	-14.0037351709889	60.4749559780718	-60.602270977765	49.7917777941716	-88.0295363615098	-27.8275492090469	-21.393385177577	15.4974857425449	
2456666666.66669	-13.9971830223318	59.8460059770402	-62.7593823898481	44.2397631797992	-80.4740516142707	-4.31946802221196	-21.3963250746927	17.0655307624848	
2457000000.00003	-13.9827055036224	59.1816133578997	-61.9112552154471	27.4418126493472	-80.8413777244136	51.692479457585	-21.3765441818089	18.4227799610929	
2457333333.33336	-13.9645182526767	58.4679060300894	-61.0522787618542	13.2330379347064	-84.7845565453485	-66.8568571610783	-21.370799808039	19.8260921424153	
2457666666.66669	-13.9616031777659	57.8062622477496	-62.2157820983487	5.29202855185326	-78.3237329517209	-117.477310755437	-21.3513715876089	21.157243097007	
2458000000.00003	-13.9386899504458	57.105184146958	-62.4196451267899	-2.13927963866629	-78.5489362437124	-152.638560618826	-21.2847203237547	22.2271389677564	
2458333333.33336	-13.9147390445183	56.3700296126555	-63.9372513639324	-4.49536396661769	-85.7847859660167	91.9232751220561	-21.2504647619226	23.5040047625079	
2458666666.66669	-13.8912489566172	55.7196837374752	-61.1986113864297	-22.5967514606189	-91.0344790920635	87.9939355230012	-21.1787420250618	24.6380848828587	
2459000000.00003	-13.8629020820375	55.1118174776781	-64.8998110615643	-28.9616573545888	-82.2589890099545	159.97170872923	-21.1262655915312	25.5771122208881	
2459333333.33336	-13.8452924028004	54.4642315695406	-63.3522140638343	-48.0222726012793	-76.5804856543897	-31.8518040543465	-21.0722855860662	26.5624553478062	
2459666666.6667	-13.8092780810427	53.7907410850095	-62.9970724370064	-41.2760221695882	-80.9310792664193	165.902874690876	-20.9908226526924	27.5739248150164	
2460000000.00003	-13.7849413811765	53.1130996233847	-61.2121532284599	-69.1727709012407	-81.8617300788933	-112.882570108293	-20.9357262726712	28.3052853421636	
2460333333.33336	-13.7524752234214	52.5087145023073	-62.9456101218204	-65.823853792176	-92.6754991365097	159.414456213445	-20.8484909748936	28.9540245715182	
2460666666.6667	-13.718625153079	51.8222112813474	-62.4574043697277	-66.9124349900124	-86.1942965748894	86.4816133086259	-20.7673293374959	29.7026410364918	
2461000000.00003	-13.6828909137789	51.2204589606133	-62.5083713117755	-90.2958972918001	-76.5755143387319	-83.7095560498283	-20.701627728966	30.1287408368993	
2461333333.33336	-13.6461942052467	50.5929068314012	-64.2787547264635	-86.9178461649403	-85.2734882573706	179.285293045854	-20.6172531000767	30.7187593906326	
2461666666.6667	-13.6081338631572	49.8830643015276	-64.6522227746814	-119.361324123075	-72.7726755892327	-99.8048649805908	-20.5510171400995	30.9823140791062	
2462000000.00003	-13.5691045973616	49.2780710494647	-63.4039543738118	-103.95024765884	-79.6969052584399	137.358318015216	-20.4934061250908	31.5661522559578	
2462333333.33336	-13.5241009039764	48.64785562257	-65.4587430090631	-112.546666782135	-75.7019511692451	-133.105830949928	-20.4441367333968	31.6945044821504	
2462666666.6667	-13.4838342849428	48.0701178098073	-67.6642318607129	-149.924875284717	-84.7169848890871	149.270307784426	-20.4084879005316	31.9086068025164	
2463000000.00003	-13.443717272601	47.4706310036602	-63.9319916120169	-135.10330164088	-73.975240512386	0.323355866476085	-20.3537030006482	32.00461164194	
2463333333.33336	-13.3949551705251	46.8645158068971	-65.2401975944309	-156.178087790324	-77.575327079459	177.602098328688	-20.3328564353309	31.9461706257978	
2463666666.6667	-13.3530404129104	46.3442723897437	-63.6671619411249	-148.269905502652	-86.4415824732823	139.076527219189	-20.3063057723451	31.9505220217205	
2464000000.00003	-13.2971794375149	45.7488062419628	-65.423842950442	-164.143450740165	-82.6872678813265	131.481220924465	-20.2932231116523	31.812285196216	
2464333333.33336	-13.264897369853	45.215599027636	-64.7798301561963	175.072853506666	-79.6370067660536	128.820710083394	-20.3030549089978	31.7869652673584	
2464666666.6667	-13.2104556160801	44.7041829465246	-64.7851377845677	173.079705939704	-89.6947621723819	117.18212966112	-20.3012893074683	31.6939767685678	
2465000000.00003	-13.1633655505104	44.1608926870188	-64.9145450731427	-170.185391242773	-81.2510891712699	-148.063958640287	-20.3115321290189	31.40445338584	
2465333333.33336	-13.1181996079738	43.640905582203	-66.5786331200616	156.878075539498	-92.9471877693346	139.121562747851	-20.3267794395383	31.246441114411	
2465666666.6667	-13.0681553545683	43.1622714739503	-65.7551463304072	151.433257782146	-85.8437226801291	-145.031806422119	-20.3305675858193	30.9993768491967	
2466000000.00003	-13.0232683460219	42.6806780004984	-70.3231274674176	150.087354474551	-84.3257448926925	162.67707489527	-20.3753756061878	30.7420424203671	
2466333333.33336	-12.9694999259668	42.210537433659	-67.6032156229228	143.50077324181	-76.9635130233408	-151.193400575798	-20.4134871479038	30.4818820106792	
2466666666.6667	-12.9183940035557	41.7605577992803	-70.5284653265039	129.748694099666	-81.5716321881072	-82.1491438034752	-20.4072430817599	30.3721714288925	
2467000000.00003	-12.8699983780127	41.3258433030723	-69.7790707747373	124.502502279531	-78.1275699036202	-36.3404478872144	-20.4706918747342	29.9352335831074	
2467333333.33337	-12.8196347074295	40.8799685542741	-69.230281938594	105.536253157889	-78.4214148715605	-110.459147554037	-20.4977659842304	29.5804367621744	
2467666666.6667	-12.7613850226139	40.4307562921902	-72.7225944767969	114.634184370013	-78.6296841784376	177.419689811601	-20.5574115144811	29.1691632638073	
2468000000.00003	-12.7173433678391	40.0638670086223	-68.1280683331656	127.930706860885	-82.720543049179	157.702217135618	-20.602362390767	28.9726168790108	
2468333333.33337	-12.6666240358547	39.6727002604988	-81.6185239033123	117.671794269473	-88.9443527251476	-110.434779671391	-20.6508930638593	28.4704267977922	
2468666666.6667	-12.6143027696424	39.2800989922901	-70.244109379765	101.368343976678	-78.6740842742187	-3.92163477923018	-20.7105239529802	28.0319262032075	
2469000000.00003	-12.5601368271167	38.9131914469962	-76.9836177317305	102.837580976095	-95.6164403500709	38.4539479483161	-20.7284263455274	27.6011368063952	
2469333333.33337	-12.5163562738565	38.5638171372344	-74.5970075049431	107.155562934335	-83.640913678478	-37.1897569030723	-20.7892548965297	26.9781412148986	
2469666666.6667	-12.4570718528725	38.2147161546658	-68.5841379067905	87.9902889380492	-79.8607477218713	-88.7960345343342	-20.8476041246241	26.4411563356472	
2470000000.00003	-12.4103209337973	37.8590833063817	-69.2346294080867	119.91138348207	-82.5803493769916	144.275551416097	-20.9249006305863	25.8981228281824	
2470333333.33337	-12.3621370156594	37.5473872030464	-73.0895224082703	129.448040279969	-81.1592152466798	-69.770641000591	-20.9785554037629	25.3404728495492	
2470666666.6667	-12.3160218201471	37.1723822997742	-69.2975537203217	103.03327704509	-76.4597800578633	167.222509722458	-21.043203291099	24.6559289816464	
2471000000.00003	-12.2608988364286	36.868881148932	-71.8186498286831	79.6014677453004	-81.7153730722868	-138.237735242269	-21.088840607217	23.9846891422058	
2471333333.33337	-12.2064861708507	36.5939206760153	-68.2414461627273	66.1258953365765	-84.8843765798433	-151.501383653702	-21.160670119476	23.3842864517473	
2471666666.6667	-12.1484994004775	36.2686378959187	-69.6023762510137	54.9171431817564	-81.5917206458776	101.478497002892	-21.2206995405377	22.6246292328782	
2472000000.00003	-12.0945472979663	35.99094765515	-66.1383427023397	61.4062797949312	-74.1287715776741	135.472104279285	-21.2767357946909	21.9479591795817	
2472333333.33337	-12.0396926071444	35.7117180250494	-69.3398868675999	45.32395161264	-77.1940702314437	161.555386040098	-21.3564396459406	20.9581458742685	
2472666666.6667	-11.9874920742616	35.4908137773028	-67.0219573058042	36.449026514949	-86.7783555794563	123.40304110798	-21.4458995548544	20.2265879474598	
2473000000.00003	-11.9340935183234	35.2392147656634	-68.6583022355131	36.8821129125479	-79.2912534707152	112.890273968936	-21.526820744891	19.3514537925358	
2473333333.33337	-11.8708192845891	34.9201017472615	-65.7406930082959	22.0884627024723	-73.3584599257269	-72.2777109048454	-21.6013245263142	18.4471668702339	
2473666666.6667	-11.8134901562442	34.6885080953624	-66.018085571344	11.7767487128603	-75.4641427199964	170.555703248128	-21.6732209888273	17.5065660894315	
2474000000.00004	-11.7635909557814	34.4737121125296	-64.4971301929705	5.66135668408166	-82.133283336958	48.5304568884822	-21.7425286469893	16.6869864424116	
2474333333.33337	-11.7109936056606	34.2071329230203	-64.8382032942742	-19.7513286728218	-80.5216453645051	68.9907382613379	-21.7841920424105	15.5128365551001	
2474666666.6667	-11.6615962866882	34.0016108727493	-63.6271246961377	-17.6871716613058	-74.2528698665587	-150.578708328057	-21.8541263443498	14.8053293360294	
2475000000.00004	-11.6082403164202	33.7472376725833	-63.1564485498721	-29.2320202139662	-70.4355945359621	-174.486817177829	-21.927463756957	13.6224470766869	
2475333333.33337	-11.5537881613747	33.5280010280406	-64.2264584263715	-46.8619254918149	-80.0382912232495	-13.7810171716318	-21.9734756150699	12.6392180444416	
2475666666.6667	-11.5030103364723	33.2859840525349	-63.6288461852893	-46.3294020272667	-80.837482308165	10.1443826185836	-22.0329074025183	11.5743397122382	
2476000000.00004	-11.4498033926879	33.0215300472329	-63.3854311601343	-47.9086673058722	-79.7263404245613	113.083401822487	-22.0750986606462	10.5231739770463	
2476333333.33337	-11.4047483228028	32.7975868419272	-63.6385738582094	-67.8419043081426	-81.28193520989	-36.0561877073161	-22.1092495295699	9.44896355650071	
2476666666.6667	-11.363677401207	32.5102081178948	-65.1291186929299	-74.1372337446405	-83.3545711490231	-122.347355464393	-22.1316077988007	8.34278229483998	
2477000000.00004	-11.3106839709689	32.2648598460988	-63.0297480890583	-72.0913211094529	-91.850783909494	173.761980878264	-22.1584742843971	7.28238327025458	
2477333333.33337	-11.2713710542133	31.9820103236437	-64.6727604353619	-98.0902768686622	-78.7709022281692	151.8583346712	-22.1804680640031	6.15047299390691	
2477666666.6667	-11.2261006508428	31.7336579080054	-63.6928185295258	-113.415625803942	-104.78579409893	-138.306595131359	-22.1830263157124	5.01353705597011	
2478000000.00004	-11.1749820299501	31.4899445356055	-64.849060045919	-109.511359903477	-84.6187086812987	-54.8206184667369	-22.2009237702412	3.77036629347344	
2478333333.33337	-11.132121819197	31.1945498570446	-66.8284920070595	-104.345275784552	-82.170098931824	-141.887145570929	-22.1751560475309	2.49361835095198	
2478666666.6667	-11.0826839488864	30.929059068645	-64.1826866241776	-144.073953822077	-80.3054140308351	162.523840995973	-22.1769234117012	1.21989358053952	
2479000000.00004	-11.03872163482	30.6638468454743	-65.8704121134276	-136.334893008747	-74.4589770024447	-31.2769874628738	-22.1532015844099	-0.0956202493685726	
2479333333.33337	-10.9932168341982	30.4338424316199	-67.5528577867513	-142.20123209525	-76.8836403851588	-115.420620427889	-22.1424919837156	-1.17003413842529	
2479666666.6667	-10.9599399334699	30.1262433509739	-66.7307363831609	-143.664075633708	-94.1957630136347	134.420426310944	-22.118430647102	-2.42577028566194	
2480000000.00004	-10.9146864193553	29.8856309612477	-71.8855165919297	-177.404830857034	-75.7494000180169	153.735903003022	-22.0740331019319	-3.60865870034738	
2480333333.33337	-10.8826459701654	29.556814270281	-69.2736153233798	154.540336011213	-81.3864183651158	54.9710480766766	-22.0135556998504	-4.90572588609339	
2480666666.66671	-10.8570580710784	29.2940557844088	-72.3046949589688	161.188588131745	-80.1497956387478	84.3491597809383	-21.9709008476611	-6.17631110622113	
2481000000.00004	-10.8219502549608	28.9130103226842	-70.5039191055878	179.572617488838	-79.8555272136628	-129.615040209783	-21.9097287570095	-7.37044982408578	
2481333333.33337	-10.7776703512106	28.5949396948713	-68.935285590072	155.817934132763	-78.2329940088443	-1.6509949994098	-21.8487147719474	-8.5233726946982	
2481666666.66671	-10.7668498375632	28.2661614609946	-67.5637374290628	146.934297608015	-73.868697108889	91.83400617826	-21.7776825254254	-9.8133914784988	
2482000000.00004	-10.7271939163949	27.9257574020075	-68.0540464925254	154.961635003626	-82.41964764301	-155.759214665069	-21.7146379311705	-11.0617799695018	
2482333333.33337	-10.7052225663558	27.6522399608933	-71.6247480292068	140.89240613357	-77.4345678065961	60.5601887731697	-21.620503016965	-12.2681163470661	
2482666666.66671	-10.6787094717307	27.2000289040137	-68.0224226488593	135.188853781142	-84.8499001088426	14.5260355304213	-21.549370299112	-13.3922620027016	
2483000000.00004	-10.6700630012037	26.826372544093	-68.5421040371805	125.871832496626	-78.3535664307568	-23.2629906305408	-21.4505978511483	-14.57749810368	
2483333333.33337	-10.6444852248418	26.4621867883042	-72.0997925798818	127.53499077623	-90.8783717026242	-32.4665253027036	-21.3769607098273	-15.7416578016892	
2483666666.66671	-10.6312744834183	26.0117731301024	-69.3676564106108	97.2596817876016	-77.9673423822817	171.888692015487	-21.286218952243	-16.8618720189594	
2484000000.00004	-10.6151409844356	25.6841404914675	-68.3133796088903	141.860236324897	-80.7476588136116	-94.3614982756786	-21.1731889731169	-17.9405034656582	
2484333333.33337	-10.5981554702619	25.3269599698394	-68.5688472916121	113.119363750872	-81.5478545274229	157.371971624158	-21.0873470223122	-18.9482894304864	
2484666666.66671	-10.5819543682189	24.9472306066187	-74.8000717143098	124.890316019784	-85.3173202845865	167.532147182831	-20.955221260268	-19.9870647892943	
2485000000.00004	-10.5771549063755	24.5839009506396	-71.2365013525958	115.311156356235	-73.5868148231264	178.124863721095	-20.857384461048	-21.0652809832001	
2485333333.33337	-10.5671784858929	24.1948966166854	-67.1051172333736	92.0557316213687	-79.2690300946493	-160.308335368365	-20.7507004838394	-21.9409780037189	
2485666666.66671	-10.5604166126737	23.7384721463453	-67.394955888082	120.394081983397	-78.7602504221951	-164.318296537864	-20.6429994664809	-22.9387780427248	
2486000000.00004	-10.5482720706909	23.2834743533934	-67.9766773903278	84.7809785973679	-88.2032337859319	106.911038032601	-20.5310424636824	-23.9365819907703	
2486333333.33337	-10.5647767825515	22.8568685836827	-69.1883862896467	93.4235855568059	-76.2016795390427	103.370048706939	-20.4207990365222	-24.8154534157354	
2486666666.66671	-10.5549290510857	22.5078857805616	-67.2866204225314	87.8451909139879	-79.5276845952166	3.48301710702876	-20.3210980994308	-25.7914904099196	
2487000000.00004	-10.5629969199484	22.0567161339546	-68.8641596830743	73.6045738425457	-90.0315300393073	28.8144729105879	-20.2045002038384	-26.7908650723819	
2487333333.33337	-10.5765469112409	21.6048415236301	-67.636064621388	98.3417524132279	-89.6984809205246	-63.5609593537029	-20.0943077184186	-27.6631191437591	
2487666666.66671	-10.5621892190588	21.1552042990129	-67.9689857714597	83.6314625870558	-83.3163770387839	125.647605345931	-20.0029767090329	-28.4571466695145	
2488000000.00004	-10.5801041449058	20.6694586348293	-63.2629293722692	70.099284642519	-78.7196534119421	136.894777733724	-19.9179306078725	-29.3561484154559	
2488333333.33338	-10.5995159802744	20.234746597583	-64.3734003288943	55.7596288858998	-74.3052157701686	59.8436800246457	-19.8376630021605	-30.1342426351921	
2488666666.66671	-10.6053654136639	19.7402442875061	-64.717983265141	34.0551816270001	-76.5630311651147	-60.4218737087103	-19.7268277707578	-31.0794746290844	
2489000000.00004	-10.6264316870573	19.2606493545052	-62.2909874278098	35.6433144684183	-74.3703046619774	25.2128220279911	-19.6551640992825	-31.7122880818654	
2489333333.33338	-10.6398742642525	18.7055491655621	-64.0663566369991	29.815117593018	-72.9768637205845	2.19306819923049	-19.5831530711356	-32.5169095696137	
2489666666.66671	-10.6572860050604	18.2576037201825	-64.7138415326272	22.0545269731632	-79.9169913322241	-67.527248658587	-19.5000623409301	-33.2153039053017	
2490000000.00004	-10.6897155206039	17.7068204682654	-63.7910593025367	4.88136825928833	-75.8516505090322	30.4616798693725	-19.4278527704947	-33.8606877200262	
2490333333.33338	-10.71368299983	17.2232658284988	-63.1588024034775	0.225696083395263	-82.7427762632645	157.079216489958	-19.376259298117	-34.6114303092477	
2490666666.66671	-10.7272319857602	16.6763909608195	-62.4291813231967	3.93648162383218	-77.2216802076845	83.5042243215908	-19.3294224311507	-35.1201778859696	
2491000000.00004	-10.7690372460159	16.2199809511731	-61.7085468296966	-18.8511853763989	-83.0232558724572	31.0653090825753	-19.2854975908955	-35.7981607195031	
2491333333.33338	-10.7991088048884	15.6235999601906	-61.1116987912606	-26.072901841576	-106.073440053712	-106.054162612777	-19.2395985294209	-36.3679589029694	
2491666666.66671	-10.8422148268258	15.1528677395269	-63.3667552758185	-30.1848596563405	-74.1008505464758	-2.25219132071004	-19.1872027246085	-36.9853982783354	
2492000000.00004	-10.8730856433692	14.5911087768673	-61.0284244311362	-38.628973792418	-81.0835056499683	-108.044565740525	-19.1516794077847	-37.2625377613296	
2492333333.33338	-10.9168879688959	14.0617229440699	-60.566579466266	-41.9317793145341	-85.1287375709662	-91.0159556205397	-19.1043798555861	-37.7450685765271	
2492666666.66671	-10.9420563052101	13.496031726229	-61.6639840059757	-58.8943770574471	-84.8709393659657	-30.5655351806097	-19.0669445708959	-38.0126492248402	
2493000000.00004	-10.9878558822258	12.954368441427	-60.2666377619864	-66.2994856784026	-81.7747194239695	157.147081399661	-19.023331179457	-38.3890951182266	
2493333333.33338	-11.0328075005893	12.3646812081093	-59.9047660316	-70.7893673132393	-74.0053499939921	-71.7096266661063	-19.0173325385728	-38.8647644335093	
2493666666.66671	-11.0719055952437	11.8022920791802	-60.3502930429979	-85.3250595470521	-81.8388444049603	-21.6381898368702	-19.0152650619293	-39.0111589445948	
2494000000.00004	-11.1226694774416	11.2349995156877	-60.6483480357504	-99.5121958371646	-85.6266434703015	-146.574812827506	-18.9784631617685	-39.3036724416709	
2494333333.33338	-11.1655687903844	10.7044368662305	-60.9641881788668	-99.3471795819175	-77.26906510754	59.5084907492533	-18.9827360956993	-39.5487897116546	
2494666666.66671	-11.2051375524597	10.0544043495309	-59.5980406488599	-113.608648062663	-74.2992116601982	83.4743195480297	-18.9552698805742	-39.7751809872362	
2495000000.00005	-11.2452246334682	9.56197247130488	-60.0695067471806	-117.174075383366	-79.3698417481804	-27.6335049219151	-18.9434819219082	-39.9347852682082	
2495333333.33338	-11.3035240791858	9.00618444646631	-59.9209004152156	-128.1222645547	-77.5454337554845	-49.4159154957708	-18.9585847085676	-40.0199818474255	
2495666666.66671	-11.3509039813291	8.31774316931409	-59.9543286691198	-138.546671034772	-83.2186534980383	111.256142451104	-18.9539915713404	-40.2263326670929	
2496000000.00005	-11.3925545421182	7.73712123435441	-60.5203807195048	-149.706379200761	-74.7146394932846	-151.057215867389	-18.9703714971098	-40.3006791299996	
2496333333.33338	-11.4436389891996	7.15440242521539	-58.5134165471386	-158.152221177104	-83.8582494483078	-121.198157014823	-18.9748301995826	-40.3442324391652	
2496666666.66671	-11.4925508472829	6.53536797722749	-59.3471293324797	-170.717939104652	-77.0753518397598	-73.6278929905148	-18.9841419809427	-40.441279645925	
2497000000.00005	-11.5339520485236	5.94914840518777	-59.6723531936948	179.070399542227	-77.285229236924	89.908985225751	-19.0026625301912	-40.4377490837949	
2497333333.33338	-11.5863536579463	5.33901184084817	-57.5021752881816	164.562977095676	-74.018257742587	130.126306388382	-19.0260929838927	-40.548667092002	
2497666666.66671	-11.6408253679234	4.72259192045239	-59.7672108277798	147.20013605477	-81.1835653421292	32.5930998940051	-19.0734279822562	-40.6530616970516	
2498000000.00005	-11.6857094540532	4.11610727148326	-58.7056048013782	142.757636873228	-84.0042486182459	22.5006404175158	-19.0967949816983	-40.4646906720148	
2498333333.33338	-11.7320714279583	3.52433603575916	-58.8044125221087	141.856891912462	-77.5178211307536	-128.575849878693	-19.1127407393497	-40.4682656358705	
2498666666.66671	-11.7815901483802	2.89055792040006	-57.9612696349114	128.329843689376	-84.4926410956724	-156.480250509057	-19.157731524255	-40.6314027642955	
2499000000.00005	-11.8208420107115	2.25095009165295	-58.6608282479278	126.291993035149	-93.7724378049023	153.076236289553	-19.2278958688044	-40.3888859363414	
2499333333.33338	-11.8639573040601	1.60942584973193	-58.6884619483176	124.485092371385	-75.8188105131684	43.7003695915407	-19.2707341213762	-40.3463298815227	
2499666666.66671	-11.9179463670121	0.976067466912392	-58.4139057673932	105.078541531483	-85.9186785006642	-58.1505765493082	-19.3346756178361	-40.1558622303265	
2500000000.00005	-11.9580252585572	0.354544831264437	-59.2276218621728	97.8519544841037	-80.6146315354864	108.413959531206	-19.3972046285219	-40.0838193945532	
2500333333.33338	-11.9962643356072	-0.253246230162646	-58.3893827386149	84.1328379495891	-78.4722370037402	79.0927187534695	-19.4699645915171	-39.914179157963	
2500666666.66671	-12.0428325175131	-0.914098156283562	-59.2158001117952	88.2126772965556	-77.1532033715525	49.5845722693464	-19.5639045641212	-39.6282215962204	
2501000000.00005	-12.0874605132816	-1.51824555225054	-60.5764493469061	66.7429932231753	-87.6417553945366	-75.5660480795296	-19.6447442363393	-39.3344438899448	
2501333333.33338	-12.1204772671385	-2.13252832806591	-58.8693778288012	63.5595085352225	-80.0720404023598	-9.75667646973853	-19.7342785381344	-39.1018825523166	
2501666666.66672	-12.1626829238699	-2.84399808232566	-57.4927635223272	58.4952836646955	-72.3853613701641	142.485869637154	-19.8057110704863	-38.7810894467503	
2502000000.00005	-12.2086119321532	-3.55509840928392	-57.892865600784	48.6286142682726	-82.2631151998712	12.3747909326027	-19.9106818899101	-38.3699039572543	
2502333333.33338	-12.2476663176206	-4.20687061840951	-59.3164788440565	34.7304703789317	-95.8897786940855	82.858480552382	-20.0233599266826	-37.8967702987917	
2502666666.66672	-12.2828128462444	-5.00706956486247	-58.769207166748	27.2357471970733	-83.3241075938991	-171.850824817516	-20.1331998490153	-37.5491771985816	
2503000000.00005	-12.3169804874046	-5.67839284613031	-59.1056145478325	27.1188263855005	-83.5666700209636	138.501573080445	-20.2560994821622	-36.8374967412208	
2503333333.33338	-12.3522317769892	-6.45277203631406	-57.6885856890771	12.5956439655878	-75.3505295576968	99.9064629988946	-20.3715002888202	-36.396870031763	
2503666666.66672	-12.3834776742889	-7.21325421035434	-58.3061759505134	8.63123465069353	-75.0524921658935	63.2991763552328	-20.5006298656694	-35.7219049391117	
2504000000.00005	-12.4177483640045	-7.89981299863574	-58.1541181505028	-5.16701425677723	-78.5740721237207	-92.4228900079798	-20.6287020612414	-34.9801006343117	
2504333333.33338	-12.4415870298719	-8.63767437509166	-57.6916879133269	-1.96734621964818	-87.3866350412759	-130.742121879666	-20.7718048759855	-34.1377839527711	
2504666666.66672	-12.4633944283753	-9.43763667541869	-57.1735011238782	-21.6055076928052	-87.8785112264935	-94.5277340276431	-20.9115748590422	-33.4504354710309	
2505000000.00005	-12.493956958452	-10.17339980537	-57.5908862553618	-33.5383848527091	-91.0581000449285	-1.54880649099742	-21.0624118571335	-32.7423744116085	
2505333333.33338	-12.5117194276686	-10.9413124773935	-58.0366222959191	-40.0287225515421	-82.0273950491506	-111.106543502957	-21.2061436399577	-31.9152261896307	
2505666666.66672	-12.535236484584	-11.6658835335799	-57.36089244052	-51.5566474491563	-79.9064632310667	130.444678539232	-21.3534343402358	-30.6784887754504	
2506000000.00005	-12.5540790105375	-12.4784943811182	-57.3038595731415	-49.9721179644416	-77.9533894921302	126.431420534659	-21.496910373086	-29.6752225978523	
2506333333.33338	-12.5662387203984	-13.3064969060833	-58.7824635059089	-69.6793023946488	-91.5973244143824	149.155250149949	-21.6931982142464	-28.5512741267242	
2506666666.66672	-12.5815010821133	-14.0570326992955	-56.8680999120636	-76.8171631302375	-79.1404387842054	136.388640044989	-21.8626230295736	-27.280111354697	
2507000000.00005	-12.5997420502624	-14.7641657137794	-57.4716477036494	-89.0422723930374	-92.3096318019166	-80.4228041398357	-22.0064221049107	-25.7211257694429	
2507333333.33338	-12.6058601363637	-15.6031089516952	-57.8341350142517	-97.902110191362	-81.3158398326473	96.9265441036311	-22.1796801865067	-24.3274315615181	
2507666666.66672	-12.6118772049219	-16.3071093378831	-58.0340131750955	-114.005526020188	-77.0188629510133	-161.22720340571	-22.3398047550927	-22.4939874476049	
2508000000.00005	-12.6304619128019	-17.2050215761358	-57.0670019338208	-121.170955600123	-78.7591709248189	-51.4673257956641	-22.5019885691775	-20.7996149082035	
2508333333.33338	-12.6298089908256	-18.0424875904074	-57.1346158632815	-131.385602737293	-91.4006516647486	-15.40717771933	-22.6120614580318	-19.0425611546543	
2508666666.66672	-12.6405762152405	-18.8655018312247	-57.2131515152994	-135.243422812509	-85.5049929915813	166.241877295499	-22.763412705152	-17.1300810536558	
2509000000.00005	-12.6386191118173	-19.6813645944565	-57.3720006960821	-152.972919046682	-75.8463299706874	-5.84428415467284	-22.8672828029484	-14.7848645835396	
2509333333.33339	-12.6397405535435	-20.5747537464706	-57.2687469045734	-154.899115228245	-86.9725909956777	125.539327392035	-22.982387734569	-12.7236604990125	
2509666666.66672	-12.6421740015362	-21.3857313716902	-58.0985578370789	-167.896052592616	-85.5055500542158	162.466169009753	-23.0476744596221	-10.6605558460646	
2510000000.00005	-12.6410746999518	-22.2118801122581	-57.2704121040787	-174.879377740255	-81.4571649978312	24.2919641574674	-23.1149567621765	-8.38243242056426	
2510333333.33339	-12.6348278983384	-23.0860719554492	-58.0179105439008	179.158128149323	-74.4956015099687	112.50734680913	-23.148487825672	-5.80792243855047	
2510666666.66672	-12.6349798781771	-23.8812904566675	-58.9781372851431	162.549818409442	-70.4230013536887	48.5299997964197	-23.1565435035582	-3.40196741747366	
2511000000.00005	-12.6267345643481	-24.6593369155602	-58.566457480479	155.577259824966	-96.6149633851786	-129.146145594598	-23.180094231494	-1.11910259598172	
2511333333.33339	-12.6210979923138	-25.5181141018763	-58.3567091873205	149.888392261414	-75.5404907938918	-135.511287102687	-23.1544178154259	1.38113759761031	
2511666666.66672	-12.6121890944502	-26.2913019399029	-59.1677262489707	137.828117755138	-81.5352525117114	116.30820331331	-23.1162177926244	3.55314331094493	
2512000000.00005	-12.6052149406012	-27.1240125095269	-57.5377738394595	131.076698740077	-87.5651873777366	154.400063544151	-23.0531117865371	6.03687734970393	
2512333333.33339	-12.5957147380071	-27.9098114008664	-59.0415010741801	128.110899175797	-81.5226030483251	139.533827675072	-22.9640865849462	8.20022165671478	
2512666666.66672	-12.582936063695	-28.6372323989822	-59.535644549427	125.00933289932	-78.4928645224293	148.37581978997	-22.8894322474815	10.1236957929115	
2513000000.00005	-12.5777108997558	-29.4186949108177	-59.1872657356683	105.08271685608	-80.2007337966805	119.077859585283	-22.7817045368565	12.4464963166442	
2513333333.33339	-12.5733972474112	-30.1949272366222	-61.1719411256962	97.3255600211431	-79.5865444874133	17.0842935441245	-22.6240679824701	14.5582333995552	
2513666666.66672	-12.5481384409114	-30.9440212765633	-60.4292240114167	88.6088642208142	-76.3473904074648	74.2636881984214	-22.4598711090399	16.5175574272689	
2514000000.00005	-12.5439715795762	-31.744163023877	-59.5977193305216	85.5210659233513	-76.6337283215842	34.817677811023	-22.345001330825	18.1951814325839	
2514333333.33339	-12.5309679206003	-32.4990087304773	-60.3318017424083	70.805472599752	-79.5396850023043	81.2313215908531	-22.1400321589246	19.7679242302652	
2514666666.66672	-12.5223116091395	-33.2373529342746	-62.0586367713838	73.4680463695506	-75.8706081851929	73.5585294278474	-21.9625888689982	21.4319466608975	
2515000000.00005	-12.5047286859579	-33.9637158159102	-62.3816502748913	52.4133319975127	-82.9472994414208	-116.748620659861	-21.7890556954816	22.9135372012391	
2515333333.33339	-12.5011382206597	-34.7405100950771	-62.3604168497998	58.0778542540737	-80.5740674033383	70.3241423768179	-21.5754428688272	24.2693213036485	
2515666666.66672	-12.4872175258123	-35.4600915819331	-60.9218349610262	42.3839868084025	-85.1306190336692	-49.7072961030051	-21.3832518965935	25.571621034627	
2516000000.00006	-12.4728356840236	-36.1787990210111	-61.9786058979777	26.4241306498228	-82.4787539737408	47.8216847526437	-21.2105715315747	26.6129135083548	
2516333333.33339	-12.4672660726325	-36.8748787456542	-61.6776668366226	35.9984787015255	-80.7531785826996	100.700957746561	-20.9967757635987	27.5948103876436	
2516666666.66672	-12.4564399875912	-37.5634460217086	-62.5561688633742	18.0702745089698	-92.3004952936703	-4.00386422870849	-20.8329695723114	28.2949324364384	
2517000000.00006	-12.4477612963247	-38.2640511387719	-63.1227702343882	20.8015824384283	-92.8289477240147	-75.778037657853	-20.6169903528001	29.1975351546462	
2517333333.33339	-12.4409739042071	-38.876166560864	-62.1064154577815	5.99158664143224	-87.774785760834	125.708045876443	-20.4266534838233	29.7528204771436	
2517666666.66672	-12.4291319585647	-39.5659439908103	-63.0903892389898	-1.10511084799148	-77.7509024789041	-177.178653584777	-20.265760705971	30.2337098358313	
2518000000.00006	-12.4285380890737	-40.1289535198059	-62.3546976401116	-0.911035424100436	-80.3967284561663	-127.605132145928	-20.0723113888539	30.5027684593163	
2518333333.33339	-12.4121280615238	-40.7103150291276	-61.7358993970849	-7.36293901152718	-80.2705077157253	-22.8569511590993	-19.9248303690513	30.7848175797581	
2518666666.66672	-12.4115444383718	-41.3489879007171	-62.6822327438887	-23.5324334096242	-86.3456197280921	-33.9849073714426	-19.7604220508052	30.8194205550543	
2519000000.00006	-12.4127969228079	-41.9034396672671	-62.8396596396065	-26.8261963107822	-79.9628258617821	-177.024016360099	-19.5882810949522	31.1688582199765	
2519333333.33339	-12.4052441801131	-42.4721603871974	-62.5058964218731	-31.4565511876522	-87.485134567625	146.670038306841	-19.4973602670203	31.1347716390283	
2519666666.66672	-12.4042682916893	-42.974367072562	-61.1365781134405	-37.6259491388333	-77.799807276774	88.1497598189037	-19.3574805739705	31.1865563159976	
2520000000.00006	-12.4046371034026	-43.5039567933505	-61.3643524646976	-53.6700891383857	-75.8801923233104	46.6073349691624	-19.2449124351431	30.8913346453173	
2520333333.33339	-12.4131205695637	-44.0386869145911	-60.1170877555713	-55.3634627631351	-75.8411934958383	-14.7315711045043	-19.1609850783114	30.9557125703035	
2520666666.66672	-12.4161528743925	-44.5017807335138	-60.0024029785335	-67.4027971036079	-80.5050110116198	-10.6784589895715	-19.0671236284373	30.6621606932019	
2521000000.00006	-12.4151389185732	-44.968968437776	-60.9112620730006	-71.3191505186818	-81.47222947716	90.8601436101448	-18.9937906268863	30.3626476331327	
2521333333.33339	-12.4167092038199	-45.4236803968036	-60.6923604756263	-84.9029457165467	-72.92577105986	-80.8705461595213	-18.9179952258673	30.0780773412645	
2521666666.66672	-12.4295843128048	-45.8642840737274	-60.42184785266	-92.1005904652305	-85.1076251807437	6.78915233523062	-18.8758553740553	29.7429564861364	
2522000000.00006	-12.4344229810398	-46.2721836841421	-59.896135144521	-107.296395684627	-90.3530728301095	44.9052829042861	-18.838311811586	29.533997535846	
2522333333.33339	-12.4301447345607	-46.6573087181291	-60.8607193877621	-120.437734264758	-79.319172016014	-114.544177888459	-18.7995170131748	29.0162653056552	
2522666666.66673	-12.4449203188763	-47.0907717124539	-59.0543156229668	-110.929807840741	-81.1601245587416	-135.467671932749	-18.7543917187614	28.6279889311922	
2523000000.00006	-12.4572971902969	-47.5022496779674	-58.4257957297214	-138.022194115911	-76.9078917857845	-75.7237240047966	-18.7375870992626	28.3130249106004	
2523333333.33339	-12.4668058622823	-47.8782997183817	-60.249344306178	-146.59000606677	-82.1152298366812	134.375898012551	-18.7316630475547	27.9031910004932	
2523666666.66673	-12.4765425253068	-48.1954635728481	-61.3599231147801	-154.120051661499	-89.8805328652027	-39.9571731412428	-18.7455925388074	27.2575105378671	
2524000000.00006	-12.5003576149967	-48.4516304189775	-60.5869240056342	-167.264055390642	-80.6767705728006	-106.75876011673	-18.7494376861465	26.9638071613537	
2524333333.33339	-12.5086899947091	-48.7808828598722	-61.3527977915911	-176.125424252303	-81.7916556039006	-173.81477073831	-18.7708593575769	26.3041693510888	
2524666666.66673	-12.5218555324607	-49.0618376880642	-61.8955039782567	169.162313041403	-78.6503998460848	-9.95469186501773	-18.794764084577	25.8477916890493	
2525000000.00006	-12.5434159827995	-49.3359452174582	-60.9451279722397	166.950842921822	-77.5246963035807	-11.0336089316339	-18.8099165795877	25.3716336103814	
2525333333.33339	-12.5552523996744	-49.6372125109739	-61.3981603747877	163.897988020674	-74.8790796867759	116.399822731177	-18.8665085961797	24.7668362296927	
2525666666.66673	-12.5788819153263	-49.8735437721229	-61.5381047136889	147.742416978038	-77.0432560712043	146.357221296419	-18.911089806196	24.2635550963132	
2526000000.00006	-12.5963161506631	-50.0831161202809	-61.7656648644801	136.700847583605	-85.8060290289495	-34.0629697122718	-18.9607188192584	23.7296200563682	
2526333333.33339	-12.6235828437845	-50.3023038615431	-63.2981802175414	121.343164924738	-77.0674513397916	-112.268103766637	-19.0139432536521	22.9993705299283	
2526666666.66673	-12.6413578100476	-50.5005044317479	-63.1192713398409	126.949279408701	-73.7160447965314	-129.813960163634	-19.082585412542	22.5171704182194	
2527000000.00006	-12.6543367257212	-50.7489326774806	-65.0563645461472	110.860512980817	-74.7496132946278	138.297886548596	-19.1662244914247	21.8529406756234	
2527333333.33339	-12.6832502645558	-50.9600892698305	-64.1480760721046	101.227475287168	-84.907381308398	-124.00812620709	-19.2570966214417	21.2720300042352	
2527666666.66673	-12.712020275491	-51.1284282953319	-63.5182660625822	93.7564279796094	-87.6749378980173	36.5301938325687	-19.3375668038533	20.7236760502964	
2528000000.00006	-12.7345378605246	-51.2620785160858	-64.1439695264591	89.7189605291922	-93.1874586071704	-79.0693876423584	-19.4266390378241	20.1182037676936	
2528333333.33339	-12.7658626472818	-51.5056710425222	-67.2851949752416	82.1409451937037	-74.899216774159	-167.536873550177	-19.5135265174883	19.4064393907008	
2528666666.66673	-12.7853788783717	-51.6296549857948	-64.3596625488481	60.4922935528994	-78.3392423248938	-163.963763221817	-19.6033005604608	18.9132726822976	
2529000000.00006	-12.8174701934037	-51.8406135767273	-69.8703776340517	58.3289027217345	-82.8279872433681	-132.484224531149	-19.6957185237739	18.1546197252446	
2529333333.3334	-12.8408640981628	-52.0248907772046	-71.4562633176465	44.4533951005964	-82.1505477492904	-112.69088354224	-19.8246884583109	17.4175036931465	
2529666666.66673	-12.8685983471125	-52.139312472883	-68.1848652369769	54.7764833280697	-93.3094918466604	-38.9573941596559	-19.91430161496	16.8478529371229	
2530000000.00006	-12.9072274025692	-52.3376473912932	-72.0733073440968	70.3196506845068	-79.00164538441	-140.439580337731	-20.0235678609845	16.1874874956271	
2530333333.3334	-12.9434488944005	-52.5955103741561	-66.8091145166791	51.05183860807	-85.0474142754053	-15.1325799271813	-20.1423793933539	15.4680204945078	
2530666666.66673	-12.9767272674086	-52.7989334519762	-68.3510560296398	39.3385178745378	-77.7617612217044	-16.6048937890573	-20.2441031128	15.0183320121309	
2531000000.00006	-13.0224189293954	-52.9344690478679	-67.6029850527509	36.2734228263711	-75.4787360761623	-102.030588356124	-20.3598431778404	14.2120367660937	
2531333333.3334	-13.0553300292457	-53.2006096183917	-67.4315947218007	21.0698653813279	-88.2032048760601	-89.3765667621384	-20.4703607065522	13.6145767944427	
2531666666.66673	-13.1073550806169	-53.3210908533304	-69.1850345990013	28.3195244371683	-79.3797614823567	0.210272613215955	-20.5807259449955	12.7416525323392	
2532000000.00006	-13.1513064912162	-53.4526281088298	-65.8075201164894	37.1881809835939	-79.5616422918016	-31.4183701124813	-20.6941774227139	12.0858823087095	
2532333333.3334	-13.1856484099132	-53.6844299559337	-67.4669660073533	29.9602024283159	-73.5393667587358	142.319486313404	-20.826548251675	11.2832488618708	
2532666666.66673	-13.2341893700105	-53.9002768767146	-63.8115847964239	9.40576812930845	-82.5534962323007	-72.304770451789	-20.9153572395993	10.5354086077529	
2533000000.00006	-13.2879311691304	-54.0952243744864	-64.4104666618358	6.02126267337976	-79.9262556375725	87.3719187858222	-21.0344153251076	9.78996274945104	
2533333333.3334	-13.3303689694334	-54.2307118265938	-64.1818811141101	2.87394547770033	-79.3359233442458	173.685334902532	-21.1302727884195	8.91984955071194	
2533666666.66673	-13.3888924021558	-54.4607756690506	-64.1558893644068	0.756715816177857	-78.563883011654	-130.091939652763	-21.2410320138273	8.10448621795408	
2534000000.00006	-13.4516546714054	-54.7034548053387	-64.1504011969996	-6.40960243422353	-85.4679983987007	-146.531489663581	-21.3363959636298	7.16142400281379	
2534333333.3334	-13.4918020829831	-54.8696621706911	-61.7797853998903	-20.7539371951956	-72.954398065665	-95.7147510557916	-21.4196044276033	6.36335043989248	
2534666666.66673	-13.5531295946144	-55.1442831821052	-64.1277366278669	-31.393715740727	-77.6178328478159	-159.65801262606	-21.5231952899645	5.28351088436344	
2535000000.00006	-13.6084984948647	-55.2875934441538	-64.7021972178957	-50.7687447748106	-76.1171040241772	174.940417822941	-21.5891955147685	4.32315193848863	
2535333333.3334	-13.6640737140071	-55.5876386453718	-66.0090379381693	-50.1776007675075	-75.055472685739	53.0006370817104	-21.6560719367913	3.27444359699468	
2535666666.66673	-13.7241438884246	-55.7715597016631	-62.9192518403117	-57.2752349565717	-99.4474892702116	-120.761271868832	-21.7483567137161	2.17087775534257	
2536000000.00006	-13.7828634623623	-55.9084904649189	-63.1605438709889	-72.9640289871391	-83.4694797999084	60.2468272377015	-21.8134364213843	1.01038377833454	
2536333333.3334	-13.8439901553619	-56.0994745970176	-62.9079555961923	-80.2285193799758	-92.4724535994391	-62.7881081320059	-21.8790661422449	-0.0166483280554302	
2536666666.66673	-13.9072208637574	-56.4506753090714	-65.1261895265183	-98.383834644605	-80.8464873668267	10.7428347070807	-21.9288645799866	-1.21465787641054	
2537000000.00007	-13.9695007785698	-56.6841499424304	-63.1330142748656	-107.801693418447	-75.0669402445274	-60.8119337148317	-21.9764301562814	-2.40453924133593	
2537333333.3334	-14.0498025851674	-56.814093751311	-64.3068442321148	-126.304165685322	-85.4242468010256	26.8426890310155	-22.0090486929451	-3.58746675584533	
2537666666.66673	-14.1240983474835	-57.1495250944414	-65.8812207024317	-133.073107891904	-78.5019325842611	-163.81614219534	-22.041594429255	-4.77157105323759	
2538000000.00007	-14.1869182077811	-57.2434905186548	-64.1744936207834	-140.26760927306	-77.6232798433574	-65.5117442970505	-22.0750861144292	-6.18343213379191	
2538333333.3334	-14.2569616957184	-57.5217665616142	-64.7164301861496	-135.030109619722	-82.1607205679333	57.2046723519275	-22.1028757920219	-7.4468766258804	
2538666666.66673	-14.3231583609834	-57.7626728447214	-62.7988209645991	-155.021880707245	-79.4563476713432	-130.913129322081	-22.1281878654012	-8.74616082462063	
2539000000.00007	-14.3990839682381	-57.9665581707705	-63.8067289084098	-158.065030160582	-79.4221850100117	-151.616708762591	-22.1319883625826	-10.1191715483326	
2539333333.3334	-14.495398695406	-58.1065338278178	-64.5199331449325	-158.966813039023	-78.2926766470814	-147.860275658398	-22.1301732833401	-11.3338793526002	
2539666666.66673	-14.563891230618	-58.4169083609003	-64.6584763990176	-166.710701201402	-86.6549889335513	142.494291573211	-22.0945974116255	-12.8877366375313	
2540000000.00007	-14.647286269944	-58.6064909897185	-66.8301427794274	-174.089684988914	-82.4545883570097	-51.3651274253471	-22.1160657791257	-14.030784837446	
2540333333.3334	-14.7298372995402	-58.9269496558914	-68.2385927575652	170.34647150043	-78.2566755567736	-17.1849733765333	-22.0986133011988	-15.5745904642137	
2540666666.66673	-14.8074799751624	-59.0745829366544	-66.9399352269005	155.281606136597	-79.1785378804204	-6.7145629620792	-22.0795565518913	-16.8396100448108	
2541000000.00007	-14.8995952047278	-59.3375597876661	-68.2023790814333	152.248264934422	-76.2684686626895	-118.357894911204	-22.0396637963719	-18.2596569460005	
2541333333.3334	-14.9842732097641	-59.6426648870763	-66.7122846576174	136.565542964571	-80.4295035596236	-44.8233406409775	-22.00101521933	-19.6004842010674	
2541666666.66673	-15.0505974940775	-60.0230559181166	-68.4646293609007	126.571170476245	-86.0536592046447	12.8331994360264	-21.9643542493009	-20.9627701022896	
2542000000.00007	-15.1602594622511	-60.2911069975418	-70.4093662792704	124.604284534486	-86.1781073752324	20.4911808407412	-21.9013624714377	-22.2385354688734	
2542333333.3334	-15.2424311734799	-60.7194999728417	-72.6613807448094	124.81007467461	-78.3271842722626	-69.8341951066557	-21.8460109881749	-23.6516968568265	
2542666666.66673	-15.3330288383064	-60.8880083093905	-67.3075015376544	94.6134981798178	-77.8110159225959	1.63680955940204	-21.7778769431559	-24.919693018446	
2543000000.00007	-15.4157453046862	-61.3533438700764	-71.9946216937909	60.1547652068253	-76.002654124199	-17.680050866352	-21.7113242699769	-26.260159376445	
2543333333.3334	-15.5029902568451	-61.5752398916419	-72.1787982839044	74.3521795094211	-76.3454901117836	0.761631514528497	-21.6568394889758	-27.5772307720381	
2543666666.66674	-15.6078675402027	-61.9405376502927	-70.4615090587818	72.1881266190878	-84.1168194820205	-144.11920838007	-21.5711658228522	-28.895922240598	
2544000000.00007	-15.6978939758646	-62.3436112594305	-69.035605370578	84.5250756004274	-79.5206286699318	150.660727185454	-21.4812112820057	-30.0874144834411	
2544333333.3334	-15.7935077384996	-62.6604540276757	-69.2409958286292	68.0288803421939	-75.1974229859482	42.5682086615784	-21.4068714096909	-31.3678072404633	
2544666666.66674	-15.9013050793581	-63.0541104709422	-70.8349497655654	70.0679539671379	-82.0801973393058	-178.269231312223	-21.333630277407	-32.6776893620007	
2545000000.00007	-16.0220809987782	-63.3938006380807	-67.7098649826747	38.1713847250068	-89.7461173029341	127.550033620792	-21.2501330392439	-33.867742320633	
2545333333.3334	-16.1057358865056	-63.8789170375904	-68.8730619692133	77.4395739292117	-98.7138949200869	19.7409658447204	-21.1516558764081	-35.1718472814964	
2545666666.66674	-16.2174051382506	-64.3102353056018	-68.4926431681846	55.2723631318136	-74.7288583979597	-47.2088699084374	-21.0689062751946	-36.3193862452586	
2546000000.00007	-16.3192974073854	-64.7215370873557	-71.5132264445501	54.050010507559	-81.0557083655453	-127.722357090388	-20.9952683510995	-37.5801251144768	
2546333333.3334	-16.4272542595108	-65.2142078582714	-68.153805449091	54.3547978797203	-81.2584394117995	27.4994471492606	-20.9327010213129	-38.6051754337053	
2546666666.66674	-16.5261049435284	-65.6770273233344	-69.7306125366608	50.5800792951929	-92.4190333597794	22.8842172494389	-20.8503635401132	-39.8763172079482	
2547000000.00007	-16.6356075527981	-66.2582987056918	-67.5620090357574	61.4892288105444	-75.7095828941213	120.624038482867	-20.7735165632197	-41.1190550007428	
2547333333.3334	-16.7170816366584	-66.8116174513242	-70.5298268749729	54.0049690911949	-75.690861613188	128.287567765384	-20.7378147951759	-42.1964979021442	
2547666666.66674	-16.8253699694324	-67.4231983506661	-68.8647414872355	11.6087135805546	-88.3778469940977	-73.094441253728	-20.6653207878804	-43.2221336612072	
2548000000.00007	-16.9166608788933	-67.981447178112	-67.3963599175772	10.6625056553787	-79.2468089403764	6.59107199734714	-20.6366671262862	-44.3586081291249	
2548333333.3334	-17.025859013439	-68.6473210703578	-67.4331936131651	-12.3366079653519	-72.9151258858255	-47.2114884714276	-20.5972916512491	-45.3224924962481	
2548666666.66674	-17.1229212396767	-69.352561772928	-66.4969740072486	-1.31882832884665	-73.6634115470303	-113.050811067804	-20.5711671318587	-46.2776894056915	
2549000000.00007	-17.2155911704925	-70.0592340868017	-68.8416133096221	-20.3347594014064	-78.5156882933826	32.3680445471657	-20.5526544833295	-47.2566776584082	
2549333333.3334	-17.3152199871309	-70.8609079974855	-68.2907678278702	-9.60463563087398	-83.4519636620635	-52.2696610791378	-20.5305038375509	-48.1166849001746	
2549666666.66674	-17.3955876737538	-71.6156262429207	-66.1029473158689	-0.250640723139882	-76.6491767018341	-1.78458692791649	-20.5434977364571	-48.9485162849227	
2550000000.00007	-17.4923772742321	-72.2823136391124	-65.9133788538376	-20.7748527825426	-77.7959329739283	-28.537901076022	-20.5374656235105	-49.7061402630502	
2550333333.33341	-17.5909133925141	-73.1278540394469	-68.3332847365548	-25.4958097560785	-82.4326047119505	-23.4126871422783	-20.5357250166116	-50.4338887278581	
2550666666.66674	-17.6682685049346	-74.0607435181713	-63.9188031997467	-49.8161729075613	-81.3924971903276	-64.0878655630382	-20.5592622309606	-51.1150410508388	
2551000000.00007	-17.7535079368963	-74.834955222922	-65.188224415477	-49.329774654345	-81.3902481746212	44.4164909588215	-20.5839562377337	-51.7764304959191	
2551333333.33341	-17.8491168846408	-75.9091272856865	-66.4160449951731	-50.8024271407069	-76.9674512940991	-69.4985157754634	-20.6062775452009	-52.2438776332005	
2551666666.66674	-17.9268778967772	-76.7136887622947	-67.4559927421355	-69.0512073986923	-73.4599173946814	-110.679609230212	-20.6445950167578	-52.8406554318997	
2552000000.00007	-18.0314539983423	-77.5602834514463	-65.3589929299852	-83.7721046439987	-82.7412915608095	2.22985307241649	-20.6967015057223	-53.1745953491819	
2552333333.33341	-18.1035518262979	-78.57106074685	-65.3996050971816	-77.3146323816865	-76.9357579270204	-14.1786116286714	-20.7403477072536	-53.5329385933664	
2552666666.66674	-18.1942081427915	-79.537204110211	-66.5352855678125	-82.3525015798925	-78.0260199892694	15.7413083940272	-20.8126507792214	-53.8830870644366	
2553000000.00007	-18.2709450709687	-80.4665175459803	-70.2075782581798	-96.7222682350369	-81.5361600109841	84.6262012515888	-20.9006538219985	-54.0544311208951	
2553333333.33341	-18.3414263381158	-81.4763991167282	-67.2157109031564	-126.272047650968	-86.5990661172842	12.6360988330673	-20.9791124689836	-54.3593660948344	
2553666666.66674	-18.4149140663686	-82.435248336335	-65.0985038373243	-125.356030384621	-76.6261086423646	-14.033762149344	-21.0710014652592	-54.3658879709032	
2554000000.00007	-18.4915931121547	-83.5950219330839	-66.2011272135537	-131.52710831464	-76.8777418295209	20.3445921531093	-21.1853334465071	-54.2832114639384	
2554333333.33341	-18.5383596759746	-84.5323185910668	-67.8753951310467	-122.479173315456	-87.5129738684663	-95.9826083483034	-21.3054910441485	-54.1289888451298	
2554666666.66674	-18.5958211651405	-85.5345310882639	-66.8232753526586	-131.356602073821	-84.8313244738593	-66.8179132703409	-21.4295886808819	-54.0213756041793	
2555000000.00007	-18.654382052454	-86.5663869392788	-64.6062378942734	-150.820450146903	-81.5641834847175	-54.9350117201136	-21.5611449494513	-53.5421056019019	
2555333333.33341	-18.7173183547119	-87.664112882298	-66.0535992483079	-166.612605352183	-80.0610793963661	-110.723271399664	-21.707237073198	-53.1323557975094	
2555666666.66674	-18.7484680255562	-88.6976051415138	-64.0405882686709	-176.020811517721	-83.8855835555084	-129.983505051831	-21.8626462929285	-52.4786436301807	
2556000000.00007	-18.779879403074	-89.7882470867625	-65.6423877392179	179.832817038606	-78.7660560902268	95.7893341429654	-22.0221291971357	-51.4825935889535	
2556333333.33341	-18.8111205340427	-90.9103411470407	-65.4386004333273	169.100325409398	-91.9720181079039	174.626122365372	-22.1722913942445	-50.7080240130061	
2556666666.66674	-18.8354950568255	-91.97002996987	-64.5012507994524	172.993216300735	-75.1360725018643	115.22548206465	-22.3005331195084	-49.615219305461	
2557000000.00007	-18.8748056479931	-93.026751866203	-64.4673404784044	146.061982036709	-78.5280588464661	170.10531019581	-22.4497196451755	-48.2676898002678	
2557333333.33341	-18.8878723092634	-94.0354283828432	-66.2635884324728	140.784033706626	-81.6179750278878	-106.910636733486	-22.5791775757157	-47.0475129328121	
2557666666.66674	-18.9142275844806	-95.0218032375654	-62.5498681180165	136.220692335532	-83.1918801073898	32.4184553246139	-22.6766229183602	-45.2630608229705	
2558000000.00008	-18.9125227630556	-96.120007149701	-63.0955278513917	121.840348997983	-76.6013567408671	47.1756343722837	-22.7748323813922	-43.7144072147077	
2558333333.33341	-18.903311535626	-97.1751427063783	-62.9964342229758	117.083069514405	-88.596185062577	-92.613679602364	-22.8863342495389	-41.6600534547676	
2558666666.66674	-18.8964412216176	-98.0829470694407	-63.507635145147	87.967997370063	-86.0834023194413	-68.3950149998539	-22.9389069310566	-39.9311418303147	
2559000000.00008	-18.9111266020818	-99.1057777301917	-64.5393591019123	108.677874350157	-77.9949510928226	-125.624246847901	-22.9770195319625	-37.6970804700597	
2559333333.33341	-18.8946568641045	-100.097683375202	-63.5082185760035	87.5682476706782	-89.1202070663405	28.2432113820828	-23.0166935374764	-35.6865847740217	
2559666666.66674	-18.8844338167629	-101.057886925423	-66.6362354023252	80.9733650829762	-78.2785971312008	85.5936336579859	-22.9934827971209	-33.3651957342867	
2560000000.00008	-18.8601333322214	-101.906128129448	-64.0940091641889	79.1990298556038	-90.3286621036365	-64.7137285405694	-22.9433650330886	-31.2595179982629	
2560333333.33341	-18.8277986016085	-102.934058749016	-64.8900975210608	65.203615267007	-78.0316491228264	5.41117289912978	-22.8731624421144	-29.1601807737096	
2560666666.66674	-18.8070447058152	-103.784644044392	-67.2592880163024	50.0737474989791	-73.8344472617097	-8.88556343156681	-22.7742004747918	-27.2083382986495	
2561000000.00008	-18.7843446349485	-104.635238543545	-62.8642737495085	22.460189084838	-80.8472711664458	158.496663309808	-22.6475241820715	-25.0267889803362	
2561333333.33341	-18.7392476165621	-105.656734585227	-65.1985588901034	24.5308829229523	-81.696183746703	40.2453492069687	-22.5282517066787	-23.2280532754163	
2561666666.66674	-18.6930910985892	-106.50204257901	-64.4519220185714	29.9324007497262	-76.4681499067209	109.066167795712	-22.3521307815927	-21.3334319462112	
2562000000.00008	-18.649238996347	-107.424147501647	-66.3868273200925	19.2057937176486	-83.387947550461	-22.6067473896287	-22.1946437809215	-19.5215387535601	
2562333333.33341	-18.6036551666071	-108.261926828429	-64.7328244404836	7.75884929528979	-90.9691658732606	-69.2864798273272	-21.9972670181794	-17.981543533736	
2562666666.66674	-18.5322395320225	-108.990221266329	-68.2970623684825	10.4158644261999	-78.5468962500335	-25.903003989443	-21.8067317486416	-16.4469994887186	
2563000000.00008	-18.4834924562655	-109.747000758379	-67.7611138674939	19.4547048279949	-85.5221454157382	132.817699980885	-21.5898100372299	-15.0494027977262	
2563333333.33341	-18.4264860600584	-110.578844198582	-67.0899787309797	3.8329776050516	-86.4964306235875	-94.5761672762179	-21.3832744524383	-13.751078345249	
2563666666.66674	-18.3728086482896	-111.346770814825	-66.0620829647062	-35.46861116223	-77.5300062128162	81.303748578662	-21.1768966970931	-12.5284760025755	
2564000000.00008	-18.2965925294677	-111.971843727075	-66.8335591632537	-43.3017121687443	-90.0970643095982	3.90863842360019	-20.9819024352674	-11.6934817251343	
2564333333.33341	-18.2359904382372	-112.721336081129	-69.8234891832839	-70.5237433601683	-81.261446905325	-24.0338935969155	-20.7620034191671	-10.912193099779	
2564666666.66675	-18.1673049224638	-113.434098430053	-67.5948545510671	-34.0398026006668	-82.5011107579425	-129.021254935432	-20.5614752894134	-10.0290956664659	
2565000000.00008	-18.0850842502203	-114.091595509128	-77.0418017371806	-45.5449898754039	-81.8991241194106	-2.36241567058557	-20.3506604849355	-9.50466030938399	
2565333333.33341	-18.0342039050412	-114.720107407868	-72.340907371528	-55.6649272662203	-76.6363686452828	5.56794806135858	-20.1616827379126	-8.92286940197186	
2565666666.66675	-17.9596656958455	-115.33181768854	-66.5847038582569	-91.4043333326766	-84.7077330781236	-20.0185378506842	-19.9911164500344	-8.45778526381597	
2566000000.00008	-17.9144998701502	-116.002090652357	-69.738691535038	-92.834290268643	-81.9623627685484	-17.5340305925496	-19.8205870174321	-8.16595487694141	
2566333333.33341	-17.8429458253502	-116.562708647521	-70.1836780103382	-97.9990677362049	-78.8577201132101	-36.0166733978566	-19.6558417372276	-7.95746934511157	
2566666666.66675	-17.7598146060848	-117.251964606283	-69.4468002026956	-111.108750593459	-81.3736535270455	-110.374628675723	-19.5058319914928	-7.72298009895711	
2567000000.00008	-17.7115433016552	-117.891074755623	-65.7435871630271	-106.041690928677	-78.5415323460277	42.3688191198466	-19.3728575896012	-7.70339566435748	
2567333333.33341	-17.6550222089635	-118.383782964184	-68.2090881361998	-87.581392981054	-75.9979811488942	72.0135533988973	-19.2459365937506	-7.54801150474904	
2567666666.66675	-17.5750750963728	-118.898480669872	-72.3380153431815	-100.882639623327	-77.7640190637568	38.329007646468	-19.1386472721006	-7.56039361144912	
2568000000.00008	-17.494830120165	-119.515018731701	-65.5839242814963	-109.484438684966	-82.5042677988702	111.047675894843	-19.0248385433971	-7.54597562758867	
2568333333.33341	-17.4223270324732	-119.965466268736	-66.3886388117756	-134.8369491693	-79.6596733246577	-124.487448171273	-18.9343069750741	-7.72407201701208	
2568666666.66675	-17.3518692640534	-120.6152742337	-67.4460536248758	-124.430414791296	-77.1263200037645	-78.5603502257675	-18.8598330940029	-7.7267420920517	
2569000000.00008	-17.2807593176485	-121.056560555293	-66.2249298657577	-140.749334788837	-82.2849859931748	39.3252109839142	-18.7880963663377	-7.74620714188111	
2569333333.33341	-17.2174442501312	-121.612603397304	-65.4292605612513	-154.002761625026	-78.7081587305129	43.3507069851367	-18.7179304316051	-8.01194011541446	
2569666666.66675	-17.157495131891	-122.160158650747	-65.9179217645203	-166.1872876626	-80.4558851408612	-51.3184632803468	-18.6864320685173	-8.10265466446965	
2570000000.00008	-17.0954119763319	-122.619940389546	-64.085992214236	-166.147532948195	-85.8054738158768	31.435004540882	-18.6698654597058	-8.36787451912216	
2570333333.33341	-17.0507714296539	-123.218802347772	-67.2112693903464	177.989057095846	-84.2338118392588	-178.915535708076	-18.6633183137266	-8.51754867298679	
2570666666.66675	-16.9705604747035	-123.710697356427	-64.8063379529612	155.774161339622	-76.8409531310499	0.251544006352066	-18.6618083997533	-8.55098534748321	
2571000000.00008	-16.9315714821797	-124.277478169777	-67.2690668828551	166.404791805007	-77.5059072066366	14.6429124035986	-18.6642601468919	-8.88519926400439	
2571333333.33342	-16.8749447950007	-124.721200723611	-66.3197502277487	162.099973729971	-79.4757260675162	-170.668708655896	-18.7163712095265	-9.11488088321384	
2571666666.66675	-16.8375814617529	-125.276870617409	-64.7177129884289	143.613823347593	-76.7205312702079	38.4442879433197	-18.7470732979964	-9.19181940704905	
2572000000.00008	-16.7971434166455	-125.718208514448	-65.2240037742734	134.995846519169	-79.6168384816846	-94.6131495160665	-18.7878153317567	-9.3593903137312	
2572333333.33342	-16.7619951965783	-126.296343575994	-65.810379713795	123.40704322346	-81.2098443433295	31.4005829480606	-18.8564647816498	-9.47921224494207	
2572666666.66675	-16.7252973889928	-126.857748260559	-67.2779946867736	131.536394213428	-79.1368918470504	115.498093227772	-18.975837692761	-9.45350726783019	
2573000000.00008	-16.6838156333826	-127.314954540972	-65.1418735760825	105.00213392947	-77.4774713161165	139.629971207759	-19.0651199180183	-9.43350654898985	
2573333333.33342	-16.650532590671	-127.823587898882	-64.4482835858994	95.1172234041151	-78.7455191272837	127.491244178035	-19.1681709754136	-9.45138114010957	
2573666666.66675	-16.6158897331415	-128.438500735574	-68.6274638866743	70.8296528175883	-76.7082497010476	175.308747751381	-19.2974250331765	-9.58042525131338	
2574000000.00008	-16.575875672171	-129.020657478282	-69.0767721221744	92.7922449869126	-78.0931704968916	178.172809730923	-19.4060583257135	-9.21742690476411	
2574333333.33342	-16.5516407415564	-129.489841561881	-68.9819934971079	71.7802479719875	-79.6342661758801	105.826709108586	-19.5609500030286	-8.93171709424483	
2574666666.66675	-16.5329526882087	-129.954925308702	-71.1926710468789	54.6700701300312	-76.8487881710546	-128.420413763063	-19.7068772304366	-8.57604066110704	
2575000000.00008	-16.4965739476071	-130.623056429732	-67.177317456079	50.7546867701823	-83.3428957843526	152.875294892636	-19.8895141722154	-8.22966851764255	
2575333333.33342	-16.5024911858207	-131.123685836491	-71.7638397427129	70.9111067564241	-73.8947033409853	155.205260200676	-20.0427683361088	-7.66719169771774	
2575666666.66675	-16.4737292501555	-131.674658379867	-68.7330440782846	34.1162586049711	-80.351714841025	63.6286903969271	-20.2127245193917	-6.94011240492481	
2576000000.00008	-16.4528197314651	-132.257467745174	-68.4846451060626	15.0779990776276	-78.2115440341194	134.544207119036	-20.3749973788702	-6.17861229926127	
2576333333.33342	-16.4719325654992	-132.767814718281	-66.6718912140155	46.275078009902	-88.9422671821916	18.6136118221304	-20.5545822397384	-5.35322345047357	
2576666666.66675	-16.4702403061912	-133.609078792549	-70.8170770041429	31.6485729769642	-80.4884734800592	47.585062554273	-20.7454320721034	-4.37613796455669	
2577000000.00008	-16.4798303189996	-134.104605067602	-67.2053944125485	7.46161361070021	-91.6363248324015	-6.24108639193721	-20.9204939177046	-3.34119259506288	
2577333333.33342	-16.4849912666975	-134.732310030184	-69.4631731776049	36.8240698880378	-82.3476240957644	163.645591288537	-21.0836284923525	-2.09150829928436	
2577666666.66675	-16.4963324717954	-135.345868493659	-71.0707386007118	14.3950032284973	-86.7063063427198	-91.4769523404079	-21.2519349379468	-0.679616687172323	
2578000000.00008	-16.5175027825444	-136.067296021014	-69.8276669242689	-17.4964505764161	-89.047599149766	-158.826556866072	-21.3804508277244	0.678567638903377	
2578333333.33342	-16.5531652443736	-136.563467309544	-69.6459191587405	-17.6255893064845	-77.7458081561247	122.354694957188	-21.5342131389201	2.07256880091089	
2578666666.66675	-16.5781316705869	-137.383382323472	-68.6050865152077	-32.4466323119575	-73.4994413932888	-160.378590155685	-21.6573806982194	3.74139682077865	
2579000000.00009	-16.633179770075	-137.957908929776	-66.5495455469584	-50.4688541035486	-70.484417745943	1.77734698881044	-21.7878721298463	5.72488653426083	
2579333333.33342	-16.6556572321247	-138.687705474068	-69.3745366480041	-59.9121875473943	-76.1078074439832	67.1133148878058	-21.8434816635803	7.32440621749096	
2579666666.66675	-16.7267955135469	-139.384400767981	-69.0518661766785	-61.4343648656163	-92.4083058255643	-176.112534710949	-21.9142535962886	9.29338955546474	
2580000000.00009	-16.7521617273991	-140.061337038523	-66.9413122454143	-80.8176388754349	-79.8671628962047	5.8334891510098	-21.9959462153645	11.1626804101132	
2580333333.33342	-16.81843626838	-140.864475937052	-66.5670055636219	-82.2696808034704	-80.8376781508166	130.023591720447	-22.0050872742499	12.7763500381072	
2580666666.66675	-16.8780407084463	-141.61324660359	-69.3292332580521	-101.074177022329	-73.2587781515218	-31.4511985125419	-22.0081181883549	14.6608015721046	
2581000000.00009	-16.9364904664338	-142.403588231415	-69.6995885246611	-79.4440942407239	-76.3518320494076	-83.1026017772381	-21.9486064989935	16.513624533079	
2581333333.33342	-16.9958365590698	-143.008339242913	-67.4797606415739	-110.3579636641	-79.8482643105081	-171.021714736899	-21.9300512029063	18.0916050096903	
2581666666.66675	-17.0660453675668	-143.861590711945	-67.0972336138203	-101.044787158352	-80.9561091505624	-158.712999771004	-21.8658765202455	19.4475118608059	
2582000000.00009	-17.1405584287094	-144.606202210532	-68.060842188081	-119.126178687023	-82.9102199303562	-130.97416645394	-21.7962265366084	20.9644574744605	
2582333333.33342	-17.2247695102854	-145.224692730352	-73.3202279287866	-131.857822656885	-79.0296987094319	154.51427488019	-21.7129139581358	22.3539787779404	
2582666666.66675	-17.3085675743375	-146.070248717805	-71.9077588620648	-136.136658200934	-78.3669496430587	-93.7854124861001	-21.6201088988379	23.6343993234082	
2583000000.00009	-17.3787961716835	-147.011709154377	-69.6275482136389	-142.757441814646	-77.0876840603322	8.65469108263738	-21.5348380440791	24.6600543283338	
2583333333.33342	-17.4730908697754	-147.717842358156	-69.2333219979647	-136.7845774608	-85.4086922979627	122.646863498062	-21.3831514274056	25.6780063043486	
2583666666.66675	-17.5547536703065	-148.501999350437	-68.5382216797219	-160.901612221961	-73.5913220578399	-172.144838047739	-21.2810820937695	26.3956273843937	
2584000000.00009	-17.6688028226952	-149.435880542803	-67.5859662501533	-162.723628133208	-81.0358063536519	12.1463609733097	-21.1569802693199	27.0042382388952	
2584333333.33342	-17.7562342810929	-150.197150106611	-71.6402466729464	-162.787370024451	-77.2031751950647	139.478815981045	-21.0446274162269	27.5496093953452	
2584666666.66675	-17.8628018896029	-151.112271392007	-70.7335835988406	159.128469536711	-79.5032150077294	74.6874499908102	-20.939350006559	27.9948192506711	
2585000000.00009	-17.9797586771589	-151.903648421615	-71.71710835839	-157.38560938406	-80.51485346847	170.840748234982	-20.8243672708945	28.2642281756969	
2585333333.33342	-18.0651451810372	-152.812058929905	-69.2098418836184	-156.436474465255	-87.3985085941128	91.1682328040885	-20.7270356772399	28.3922459939822	
2585666666.66676	-18.1980104337492	-153.748547554173	-72.4788479958168	-154.94884556775	-73.0166046200348	173.792579126672	-20.6089086916163	28.4811053889377	
2586000000.00009	-18.3032263471572	-154.616497280994	-71.0095529173528	-146.054141422004	-83.7101977084068	31.3268409584955	-20.5125134298723	28.3863321488948	
2586333333.33342	-18.4394632977237	-155.552105120903	-66.7225628841306	178.140111546701	-77.6285648540707	-102.934630719437	-20.4694777344768	28.2422562905488	
2586666666.66676	-18.5396045998035	-156.415691908124	-75.6403215178355	-175.472177253941	-78.554374531995	-91.931006919793	-20.3962586598434	27.8382822860637	
2587000000.00009	-18.6763912661159	-157.490345438564	-70.6830612613714	172.538013737906	-92.1859358014906	39.850465983123	-20.3275583670902	27.3075829975258	
2587333333.33342	-18.7869292772183	-158.369201341021	-72.3562623852275	172.578434952285	-75.6732921523645	166.0403399148	-20.2761281593462	26.9365992446824	
2587666666.66676	-18.9278840119826	-159.32822350153	-68.8430174166045	165.945715531197	-84.2938480780177	71.6287710301334	-20.2269004752461	26.1130509059957	
2588000000.00009	-19.0416510556129	-160.433369885315	-67.9584939836299	146.380752302087	-77.1217199573478	-172.135883950293	-20.2036943438784	25.5553257179055	
2588333333.33342	-19.1967814964266	-161.450182490039	-72.5039396025105	157.87218300355	-78.298963409905	149.813153788354	-20.1998571668629	24.8631492054329	
2588666666.66676	-19.3311053108239	-162.457377140046	-66.2817768775744	133.770418513121	-77.943184239036	113.443316792517	-20.1945398302117	24.0839267351195	
2589000000.00009	-19.4518066715327	-163.500592730943	-68.2826777961381	153.356504749183	-72.0106415287988	154.935235974674	-20.1886573207138	23.1347964201396	
2589333333.33342	-19.5876294507224	-164.638012177402	-65.0876663641962	109.850648599331	-84.7671982274413	-46.5572714778721	-20.224977005646	22.0825199645824	
2589666666.66676	-19.7317931437246	-165.681345394024	-67.9997312350796	114.129344769566	-81.648602023424	-81.1673968045573	-20.2439155550068	21.290789946368	
2590000000.00009	-19.8346630065699	-166.772444516735	-65.1764218204914	106.906197206529	-82.8874154921864	-60.7247563854239	-20.3151114521001	20.149547855578	
2590333333.33342	-19.9726058439005	-167.914691789348	-68.4580428596193	84.4614808477568	-78.2265503974622	56.5286905198683	-20.3756781844167	18.9579981645435	
2590666666.66676	-20.0875909293412	-169.194998701668	-63.7180867569159	83.4634016454058	-74.6953346843966	173.068395434987	-20.4490923386398	17.8049567768201	
2591000000.00009	-20.2240348147916	-170.421817739952	-63.2015737911253	62.589217861994	-81.2754083378074	-109.210938268048	-20.5407535486775	16.5815662809583	
2591333333.33342	-20.360373564851	-171.839090485773	-64.9025115663897	42.3764672974338	-78.4376358554896	-134.508888588522	-20.6236912999695	15.4859409761737	
2591666666.66676	-20.4814238861932	-173.044242378402	-64.0413719545658	48.9550959634919	-79.0969507328205	-108.437905418228	-20.7641417431499	14.2380893126135	
2592000000.00009	-20.5935500561947	-174.44973644726	-64.0868639073607	31.1126138577806	-77.7575355101341	-138.381735262926	-20.9017000095722	12.7146230478582	
2592333333.33343	-20.7147002512867	-175.597767068848	-63.4906099240818	27.7504618455023	-72.8476308659366	-168.912088422201	-21.0674757272212	11.414388882225	
2592666666.66676	-20.8237280766901	-177.143620305319	-62.579553485575	-1.00856498199289	-80.5689500338583	-19.3430433625487	-21.2092322812021	10.0206640468625	
2593000000.00009	-20.9446515706689	-178.672802479171	-62.1066626287275	3.13199708055812	-80.6637327655923	-3.55364754255285	-21.3938593300363	8.68598742125704	
2593333333.33343	-21.0147655043065	179.864987787478	-61.830313082419	-4.48758863133304	-80.8604135857459	-109.642071854434	-21.5859997668187	7.13523017185179	
2593666666.66676	-21.1165105120409	178.323904052852	-63.9540861257073	-14.0446124367856	-83.7130374653785	-72.5657826058131	-21.7574295583019	5.66620343454828	
2594000000.00009	-21.188400829337	176.637870746814	-62.6087179837596	-36.07752171815	-85.2702157060639	-177.05875913393	-21.9748870170109	4.16598643897913	
2594333333.33343	-21.2653915949307	175.161586896245	-64.6119629280854	-43.4475795611482	-91.2445470682563	89.8112357503358	-22.1954853312444	2.75724063764962	
2594666666.66676	-21.3254706749141	173.494740259221	-63.4927875046018	-49.204410049707	-74.3836252257541	-21.1482293808585	-22.428910505958	1.08425108849266	
2595000000.00009	-21.3903298451735	171.927908737444	-61.4300852001034	-48.9286241648669	-82.0522450266512	144.522405229407	-22.6668838004377	-0.554104536012298	
2595333333.33343	-21.4322570875909	170.247343691864	-63.0281585073799	-56.614175378861	-77.9956164664409	-63.5456494727953	-22.9301123903038	-1.97373287097676	
2595666666.66676	-21.4682345338866	168.526193266653	-65.0967228686527	-79.5967700822092	-79.8394148998282	-18.2730423708298	-23.2153435037741	-3.50754025640802	
2596000000.00009	-21.4928250273141	166.876446763176	-64.7077992528931	-86.2765676995415	-78.7444015762577	-35.2909866978556	-23.4865762569927	-5.12430454872036	
2596333333.33343	-21.5263685791902	165.12468693169	-61.9120934999076	-86.5674707412498	-87.5645541001828	-168.951607504506	-23.7690604450741	-6.61947392684152	
2596666666.66676	-21.5169908844555	163.341242774697	-63.0945003821529	-92.6733806236535	-80.1348021750559	-21.9897358579741	-24.0942199660644	-8.19702051805601	
2597000000.00009	-21.4991660573023	161.568600126682	-63.7689157628781	-100.885846850564	-74.5242331899988	-71.4006922963232	-24.4213994079653	-9.45094927267747	
2597333333.33343	-21.4852199769318	159.80662270824	-64.5233504381793	-118.739688815665	-72.7441676327361	-65.5537872222257	-24.7578356286323	-11.0055765474002	
2597666666.66676	-21.4456055890154	157.985843655046	-66.0942063937149	-132.786616564399	-78.7600516332362	42.1888334715375	-25.1130499590456	-12.3670026385655	
2598000000.00009	-21.4154323359998	156.133513180322	-63.7874319767553	-138.728004773646	-81.9070361649704	139.745791916671	-25.4905269031167	-13.7059362417657	
2598333333.33343	-21.3453979449163	154.363075239044	-65.8640092227049	-155.98038565238	-73.4399637447428	-162.787139147338	-25.885266026235	-14.9530070283823	
2598666666.66676	-21.2696066166159	152.598724336588	-69.5243904940904	-165.192017385394	-92.9330143654334	-97.1249497762568	-26.2797989620693	-15.9820307243519	
2599000000.00009	-21.2058565862283	150.916370685285	-64.6709341284115	-156.454803377077	-90.7808318258991	84.8165097458587	-26.679889994832	-16.969057797885	
2599333333.33343	-21.1103755824999	149.025735823494	-62.5525577518365	178.75034723655	-74.3949676787558	155.337644351043	-27.1000369625817	-17.6321692249397	
2599666666.66676	-21.006891935473	147.387431287966	-63.5469253517841	173.350226420629	-80.5074607185995	-102.139102023978	-27.5126574314484	-18.2008774852368	
2600000000.0001	-20.906593098403	145.727257797996	-64.1088632447042	140.983827419335	-85.3603445388387	-141.857540319547	-27.9882275240098	-18.0887425213339	
