!Agilent N9923A: A.05.34
!Date: Friday, 25 March 2016 21:40:45
!Model: N9923A
!Serial: MY51491690
!GPS Latitude: 
!GPS Longitude: 
!GPS TimeStamp: 0001-01-01 00:00:00Z
!GPS Seconds Since Last Read: 0
!CHECKSUM:0757978365
!Correction: S11(ON U*)S21(ON U*)S12(ON U*)S22(ON U*)
!S2P File: Measurements:S11,S21,S12,S22:
# Hz S DB R 50
2400000000	-16.7840466024277	175.64591395828	-51.8768264158481	141.659776638553	-79.500882664337	-91.8752096594515	-18.940052622378	2.39406455910593	
2400333333.33333	-16.8092807912115	174.671456315802	-52.3666789975702	134.601291676776	-81.6988619871631	145.469397820535	-19.1621757820709	1.20040351053344	
2400666666.66667	-16.8287087938171	173.766355147213	-52.3449090009742	122.234631447819	-81.1613457217696	98.8616989842788	-19.4360806216387	0.12410156396218	
2401000000	-16.8773528826974	172.613915706167	-51.7937337758814	111.068083797986	-92.062315565415	115.101540892119	-19.694786686632	-1.06121528034821	
2401333333.33333	-16.9179486230881	171.539291613063	-52.4612976912135	98.5393912022256	-92.2037213755048	116.405235187052	-19.9687283338468	-2.09280307707428	
2401666666.66667	-16.9656600823407	170.415582646203	-51.5879338505123	93.4686210721969	-75.711531907029	103.202389388506	-20.2730224130572	-3.20544754230447	
2402000000	-16.996592384996	169.302792299537	-52.0571626514827	77.5161447708282	-88.0959564255628	67.3297810983628	-20.6278658706836	-4.31200481561878	
2402333333.33333	-17.0217871741823	168.088592086351	-52.1260182158177	69.957026783813	-78.0019742105032	29.650412396648	-20.9658806085354	-5.43832596041563	
2402666666.66667	-17.0882592397834	166.875488542375	-52.6446156869206	59.3891320820044	-85.578845458809	84.7893233289211	-21.3465784406539	-6.40969631626504	
2403000000	-17.1214747550535	165.739223501088	-52.44076915019	44.1233908424317	-77.1860741460289	100.109253793435	-21.7539554213939	-7.53757661799265	
2403333333.33333	-17.1584999524007	164.46539398332	-52.3566853878005	36.5311392815569	-88.3735805670971	171.119143867711	-22.1831253710223	-8.49990853326789	
2403666666.66667	-17.2068105368375	163.189903556889	-52.3229182546293	29.7739069338896	-85.0507331790305	92.211445996488	-22.6602315179299	-9.4278611941352	
2404000000	-17.2251065772915	161.961452508248	-53.0494049157413	16.4262700416911	-85.4282014497047	-106.114346187137	-23.1251969369749	-10.4262030597671	
2404333333.33334	-17.2615741407526	160.709189181338	-53.5142118276353	5.94975522571609	-71.8786022219937	-25.8434964813351	-23.6266052534741	-11.1185242211498	
2404666666.66667	-17.2953955668368	159.392379114154	-53.3719179246764	-4.67040213635959	-76.6168930088148	59.1131847447985	-24.1812115562807	-11.9612560954803	
2405000000	-17.3127698088921	158.158443891244	-53.5025876948621	-15.5770713079354	-73.4379909308859	98.7269686484748	-24.7961495756728	-12.5499262932137	
2405333333.33334	-17.3317366124032	156.855454080669	-54.0220943396714	-25.6591156935305	-82.5446585530506	-108.265877004799	-25.4391288259954	-13.290189533064	
2405666666.66667	-17.3625296080941	155.474744195035	-53.772422915305	-28.7572817393466	-82.3291984446062	-20.6844776267483	-26.1055941060588	-13.8220709786001	
2406000000	-17.3982129244603	154.111469678693	-53.3957105656369	-38.0771614849277	-82.3832568590801	-79.6403766481368	-26.8191655936391	-13.9461868487203	
2406333333.33334	-17.4036659659475	152.870840761441	-54.0910636318604	-49.9070283775437	-77.3694621454094	-7.96506403788843	-27.5808460880269	-13.9626915482154	
2406666666.66667	-17.4269899412436	151.446215041219	-54.1471810662461	-61.840062431979	-93.5965019644659	13.8936682832537	-28.4571215248493	-13.5194983297707	
2407000000	-17.4405124964671	150.078032463542	-54.3539123259801	-63.3152455371118	-78.8938982528553	50.3332804611904	-29.3832531399543	-12.9800601824593	
2407333333.33334	-17.4493182562212	148.742539396435	-54.6047550296932	-76.9238524296931	-74.4691281224632	-97.6947840768787	-30.3871502551667	-12.0650037883997	
2407666666.66667	-17.4451529906221	147.415612687653	-54.5020565730144	-81.6572359621945	-81.3942258739012	-82.0417583363308	-31.4049481387777	-9.91974108294423	
2408000000	-17.4610026422781	146.14190789062	-55.2452960494262	-85.4926546837632	-80.0926358480577	-144.131568072487	-32.5967277610122	-6.89238722601905	
2408333333.33334	-17.4337367811779	144.757827938218	-54.928671376078	-102.5918764078	-75.7927362223478	115.399974706335	-33.794735463677	-1.88369674539812	
2408666666.66667	-17.4291624222718	143.388460636896	-55.3754326375042	-106.57608941407	-87.2759640225785	112.587315959418	-35.0555749792998	3.34391082468596	
2409000000	-17.41697353914	142.099340468348	-55.1353917095873	-120.576236665052	-83.4221104674253	-79.2570397348335	-36.1117933035219	11.8293659748025	
2409333333.33334	-17.3965948612272	140.762981142005	-55.7365387748366	-128.457872528227	-73.4603335906999	-138.865259343094	-36.9213561897703	22.9980952488917	
2409666666.66667	-17.3661436936429	139.474619785904	-55.3977543799129	-129.270769307315	-78.9066863994365	-129.172711339455	-37.4400213985924	34.6341159574802	
2410000000	-17.3494271030144	138.195632537754	-56.104818247603	-144.302265923211	-78.4103477707191	-90.080034694324	-37.1626674950105	46.2100034868302	
2410333333.33334	-17.3203996766113	136.974027456477	-56.6939587975251	-151.871504372771	-79.7566044448532	-39.2927168705364	-36.7609966088378	56.5510193758943	
2410666666.66667	-17.2840713116825	135.668427597772	-56.2698607163263	-163.894218938229	-80.3924727744464	-116.402153988652	-35.915219359884	64.778129370198	
2411000000.00001	-17.242064688695	134.389206634901	-56.2992168376098	-166.92977084591	-73.6864012659745	177.40668648775	-34.9917887173405	70.8437762605908	
2411333333.33334	-17.1973462403583	133.165173902553	-55.9885305244541	-177.750986844295	-77.9126383528816	-58.2346743796168	-34.2441676761823	75.0141332023296	
2411666666.66667	-17.1546287718176	131.932972544718	-56.9196567134629	176.174540915082	-80.0884782616462	-171.568501949133	-33.3914714376241	77.6149450940669	
2412000000.00001	-17.102645066795	130.632982966527	-55.9259296383816	169.958826323574	-82.4746920578233	-45.5238466610676	-32.5352017495832	79.1668170211407	
2412333333.33334	-17.0385812051118	129.437958121769	-56.2127131762782	160.382717143542	-79.2357279657333	149.679454944241	-31.8393359440265	80.3874014515616	
2412666666.66667	-16.9820068739293	128.112894051819	-56.8755138668787	150.839205373446	-78.7352096854752	-140.750125047183	-31.2998259543708	80.6920776328129	
2413000000.00001	-16.9202621264861	126.824320219842	-57.3356276540541	144.156004257275	-79.0435075161306	143.488700196919	-30.6358017527303	80.3391414939999	
2413333333.33334	-16.8318305056242	125.639601321934	-57.3131474855093	127.680680929017	-86.0657810046448	-42.447737986008	-30.2036641305157	80.1234802960255	
2413666666.66667	-16.7635719959164	124.46532628218	-56.8389978238393	127.627804818347	-74.4543840495269	43.861220763585	-29.7317504635266	79.2877234858221	
2414000000.00001	-16.6691430468293	123.319387052045	-55.6149147844029	115.646688764994	-78.5490366736221	-90.6870405639604	-29.3403475200942	78.4154435884354	
2414333333.33334	-16.5965407074729	122.154897865165	-55.6681156619434	104.091837817355	-93.5925653375352	116.614999457046	-28.9420711288606	76.9200019274606	
2414666666.66667	-16.5087242462058	121.017055705382	-56.67702880618	100.201840739151	-78.4835658917059	-109.03635855641	-28.6370448666758	75.9116493871038	
2415000000.00001	-16.4231573654888	119.96887316729	-55.9237194110768	87.5944061710725	-78.8931513328747	-21.3761247903137	-28.3521824323303	74.3081889016999	
2415333333.33334	-16.3399761121655	118.949428895056	-56.1144473909444	75.2156649945212	-73.8335477421143	26.5744629828138	-28.0275156415083	72.2427335015442	
2415666666.66667	-16.2422349639377	117.891798912851	-55.9681274975227	71.2690363768536	-75.5196367683385	83.3665833660298	-27.8239826591697	70.7133714312521	
2416000000.00001	-16.1443695640908	116.882594099075	-56.0338649865364	59.0257376057607	-74.2826887464321	-153.647894298713	-27.57084293522	68.5868445008375	
2416333333.33334	-16.0579400779674	115.827572813865	-56.3624633005019	52.1113937613218	-83.7559693587103	73.1812197009972	-27.3913534874014	66.8537063690896	
2416666666.66667	-15.9695254742687	114.920303860433	-55.5459694820816	37.0108284638747	-84.836752988522	-80.1531281873137	-27.2103702702615	64.6828170880738	
2417000000.00001	-15.8730475602717	113.95985259467	-55.9750899112127	30.1568297153045	-74.9338623057845	115.204842869479	-26.9780952708063	62.3325835927447	
2417333333.33334	-15.7727296360481	113.103449484003	-55.8685308835785	20.2201372650695	-80.2519294114816	-49.8620989425102	-26.8329718749473	60.2515366673821	
2417666666.66668	-15.6895198298842	112.207123074475	-55.739304860228	8.54109005948037	-73.2494366657909	-25.5473317010984	-26.6656971021986	58.2410681162131	
2418000000.00001	-15.5846493782251	111.288638220081	-55.9171146127488	0.085496825232355	-79.7916357643395	-14.7166386459439	-26.5047988062628	55.5564261217687	
2418333333.33334	-15.48638080352	110.455490065211	-55.9924644017907	-8.02567175792233	-78.6726295441822	-10.8515195287812	-26.3684530555226	52.9751591520544	
2418666666.66668	-15.3933940621556	109.577371234707	-56.602944084074	-22.8944613004832	-82.0249704369064	8.20212692671665	-26.264378306177	50.3842582162617	
2419000000.00001	-15.3035902810997	108.718251386894	-55.5589518578496	-30.9461284950097	-83.3759444386896	-87.0941738974367	-26.1474861077852	48.0417669474608	
2419333333.33334	-15.2087217744742	107.93088265347	-56.406969451162	-36.8619967965323	-83.8612240834314	-32.9488693818585	-26.0415414355561	45.5399645710622	
2419666666.66668	-15.1160468776476	107.18095801844	-56.1822881626092	-45.7798942005943	-82.3431914782477	122.508996815065	-25.8841162409667	42.9303608829096	
2420000000.00001	-15.0195051732765	106.362247005199	-57.2726505848581	-58.0037045626389	-77.8104395107696	-38.5417378377894	-25.7967628623052	40.6138767788204	
2420333333.33334	-14.9277897984065	105.600327747486	-57.4390947669977	-69.4851689455503	-92.1450493875878	-138.538019003039	-25.6764166607908	38.3249765978131	
2420666666.66668	-14.8423333776557	104.893587993324	-56.572590147302	-79.6697091871534	-79.5902241103397	-50.2423391902008	-25.5589287462521	35.9511182617365	
2421000000.00001	-14.7569911692333	104.204609028178	-57.5983887635507	-83.7136616542685	-76.8060549534932	-10.0521801555477	-25.425059580928	33.3521016570549	
2421333333.33334	-14.6672965350655	103.477603494579	-57.9670574217067	-94.7361887267758	-80.4345641815034	49.9397034582642	-25.3044227137794	30.9853257039789	
2421666666.66668	-14.5856395575431	102.838043290649	-57.5021866052254	-99.5234666384986	-74.8030535945377	-4.66845851926051	-25.2195535574266	28.5900428872158	
2422000000.00001	-14.5092474344663	102.213548021892	-57.4465933151744	-111.760635169344	-81.4216841325275	63.4357399647705	-25.0743426299966	26.0418484708419	
2422333333.33334	-14.4316314027331	101.503562413399	-57.1292127819947	-126.202378709979	-81.29716333102	-12.7437685748687	-24.9421627291282	24.041329477017	
2422666666.66668	-14.355856800241	100.942095399723	-58.6578719065035	-130.987446444257	-79.8505673025476	22.1094967148502	-24.8051753927016	21.8370421397675	
2423000000.00001	-14.2861522587409	100.356591292158	-58.7603865246721	-146.573002552334	-84.6898402173343	146.200311041782	-24.7069039930754	19.4564335231338	
2423333333.33334	-14.2187608723755	99.7469554978751	-58.0573903984134	-153.527151339341	-85.7542496777186	-64.0159713144967	-24.5599406382723	17.4018117836206	
2423666666.66668	-14.1406165913172	99.2631148897914	-57.4415520024576	-169.287664430022	-95.5214441949128	-136.582035920021	-24.4497420636897	15.2805673430035	
2424000000.00001	-14.0830794718554	98.6584432768453	-58.9037746829262	-176.475889440193	-83.561938380482	-101.283282424881	-24.3472657813529	13.4637177463275	
2424333333.33334	-14.0133834319832	98.134302834652	-58.7074085247281	171.206673083035	-75.318827758339	-98.1661299515311	-24.1997873378358	11.5225589359744	
2424666666.66668	-13.9589722398565	97.652557207732	-59.5775305837811	160.180460736248	-76.3992818900211	131.016191733332	-24.0874562115447	9.91928469059508	
2425000000.00001	-13.8956333688317	97.2390818314983	-61.1709357330636	161.770847697833	-80.3272811702639	109.776514807731	-23.968608514755	8.15325060114636	
2425333333.33335	-13.844483809089	96.7531558013205	-61.1374833312558	141.519925625281	-80.5706967686682	10.4214456859137	-23.8367148445775	6.49108056899085	
2425666666.66668	-13.7942542878878	96.3371989106361	-62.4244574276595	123.04717978553	-77.6713122557277	-77.1059965071074	-23.6877419183169	4.98439019091359	
2426000000.00001	-13.7431600777485	95.8494974851025	-60.6070928710024	108.525442888325	-83.9230961067532	-128.967256511247	-23.5854615233164	3.57121096196045	
2426333333.33335	-13.6791974158219	95.4227047390051	-61.8464260800198	111.380191809709	-81.1517365732069	-19.0193176395926	-23.4622590025855	2.4068712810067	
2426666666.66668	-13.6350541423342	95.0456482101771	-63.5073467017298	103.355315721665	-80.3870714718084	-19.7144738017638	-23.3545110317484	1.1544752713011	
2427000000.00001	-13.5976291941253	94.6674069325676	-63.3361342995739	81.3776379291591	-77.5751614055443	-145.71254455603	-23.2671303920032	-0.0713302944443962	
2427333333.33335	-13.5511313652759	94.3126165207195	-67.1810045195918	79.0269320986169	-79.8752444804003	-74.048040526952	-23.1219455799403	-0.989859890203685	
2427666666.66668	-13.5053830353295	93.8647310379137	-68.9781010913551	77.2918436489496	-78.7284648027617	-77.1064771505263	-23.0166871734854	-1.81976738050581	
2428000000.00001	-13.4708629208287	93.5214202167764	-72.5054140975356	68.7479528011308	-76.424288542619	-160.411220825239	-22.8965560126236	-2.482835773144	
2428333333.33335	-13.428381117504	93.1538061335111	-74.9719786622558	80.4285949449361	-71.5005351267049	-148.616087270226	-22.7848463269543	-3.39334489286068	
2428666666.66668	-13.3969967138567	92.8123178850481	-68.2539833939501	94.8741689208883	-79.1869083283923	85.2566746865287	-22.677786691625	-4.05808331708855	
2429000000.00001	-13.3572206529463	92.4733547929023	-75.8059927286564	63.5577918979394	-88.0490333825163	-95.676900436381	-22.5737534948115	-4.50933220308569	
2429333333.33335	-13.3300577243214	92.1855037856581	-70.1467619572942	65.9402156128503	-76.1852149532631	50.7660535931697	-22.4488045517761	-5.06245407578565	
2429666666.66668	-13.2992314841916	91.800656593097	-75.4357342158715	102.976220843542	-71.6720971689431	-5.53655863021099	-22.3005129691452	-5.34684990250544	
2430000000.00001	-13.2661344453743	91.5322021389454	-72.0014690540218	112.804558919439	-78.6896753744067	121.224022413668	-22.1819364942094	-5.79908875330214	
2430333333.33335	-13.241630438454	91.2240979869811	-66.828503900564	96.1900135085472	-79.396266173459	84.5564666300617	-22.0501903428068	-6.08425875661359	
2430666666.66668	-13.2196201022765	90.9053209011971	-67.514560328893	88.4437994145949	-75.7359759535309	41.9173935204379	-21.9091535086546	-6.52217019345821	
2431000000.00001	-13.186050190861	90.6532166038986	-65.1410702590959	92.7002749512476	-78.030160783413	60.5053299014615	-21.7824714401848	-6.82040667979627	
2431333333.33335	-13.151767243521	90.4137814674363	-63.5997579131023	77.0057021777059	-76.7580197913179	139.485008674898	-21.6554633800085	-6.81271309954973	
2431666666.66668	-13.1370997385383	90.2023789614723	-62.8797309116537	86.1985088806245	-80.0492985537073	-116.707221832581	-21.498781495737	-6.94926906711193	
2432000000.00002	-13.1147717815561	89.9368155674461	-62.4904460091662	77.2761738196003	-81.0083755857474	49.9027286912747	-21.3622298663232	-7.09430266329808	
2432333333.33335	-13.0980229667846	89.6601111712889	-62.4558768430578	48.8562651640086	-88.8470979280338	15.2107204683595	-21.2018635883586	-7.19751313143352	
2432666666.66668	-13.0782229474864	89.497603202626	-61.8560655989318	35.8304899443179	-90.1494142580848	-92.6345780157723	-21.0709739183824	-7.35212748562052	
2433000000.00002	-13.0734610980484	89.3036558700302	-60.7949285264615	50.4378358131301	-89.0808451714864	-131.870059193197	-20.9196361738278	-7.28070841391572	
2433333333.33335	-13.0569357906173	89.0832424487227	-60.5798577864455	32.4708382076977	-75.9762181126745	-0.507431721603505	-20.7862447811619	-7.26952892182199	
2433666666.66668	-13.0433651063258	88.8124814946293	-60.1723143092151	19.4636773940192	-89.7769065591773	145.986972046586	-20.6195633803773	-7.3943092803512	
2434000000.00002	-13.036453612719	88.6282193677335	-59.797301189179	18.6357787952587	-80.9747434987253	-4.36395417637315	-20.4670288175852	-7.3667141563523	
2434333333.33335	-13.0233465514638	88.3947816443041	-60.5053985962558	1.24676792098171	-73.1155434683998	68.5698831344476	-20.3063354774302	-7.51819476313652	
2434666666.66668	-13.0216606888008	88.0769829798219	-58.7007818609812	-3.10868877666928	-77.6858171418598	5.48511845859285	-20.1713640934821	-7.5672437833801	
2435000000.00002	-13.0046419321509	87.8152273929062	-58.3052738693656	-14.250375214235	-81.1667617028442	170.772156065983	-20.0141556534506	-7.55877430261511	
2435333333.33335	-13.0076128480376	87.560892195669	-57.5278660516156	-21.1096137761978	-78.8555767043758	-6.86695038068817	-19.8735258520077	-7.61173781197805	
2435666666.66668	-12.9991574743543	87.3636511179776	-57.9625119707744	-31.8860165252489	-74.4410161089228	37.4086478535587	-19.7254031357293	-7.73413523905286	
2436000000.00002	-12.9909843271238	87.0607385133195	-57.2422204855331	-40.6349793986554	-86.5555102053207	4.99637659276805	-19.5880382840356	-7.78256766484115	
2436333333.33335	-12.9785273897722	86.8695041194739	-57.0575784787626	-50.7739254692486	-75.8445036104701	128.680264116851	-19.4565926531446	-7.91223417930472	
2436666666.66668	-12.9931488934733	86.5192247598915	-56.3908976879354	-59.0185750482956	-74.5837013205269	130.914364834451	-19.3226404153611	-8.16041444591576	
2437000000.00002	-12.9884243684319	86.2259319660653	-55.9144217682215	-72.3181364092314	-81.6257346247043	-52.5280357255514	-19.1985536605946	-8.30062810600194	
2437333333.33335	-12.989726879426	85.9747919262753	-55.0004933683751	-77.9142423223377	-76.7524030110291	19.0407787518475	-19.0610616626318	-8.4858899818442	
2437666666.66668	-12.979500607647	85.6107837799531	-55.1596278369741	-96.3094479761529	-82.1719186173876	22.4496463833978	-18.9466345542086	-8.59894629030498	
2438000000.00002	-12.968842868045	85.3964053551499	-55.084211992833	-102.164802889541	-73.451968649825	-117.242945656321	-18.8501222230637	-8.89347931153923	
2438333333.33335	-12.9816033119016	85.0304887867736	-54.6810366314598	-110.675416466109	-79.0178970424054	-118.980233144778	-18.7537387708174	-9.08318339582518	
2438666666.66669	-12.994295381299	84.7154948376268	-54.3498511054904	-128.099152530159	-96.4956714117499	129.618963176598	-18.6596282543504	-9.26305461495236	
2439000000.00002	-12.983575211576	84.3201753149916	-53.9204351026051	-135.199728779617	-90.7804721149492	-68.6044376430789	-18.5675110046515	-9.45867510367487	
2439333333.33335	-12.9858060703838	84.0520840072566	-53.6853487379507	-147.994396670035	-82.7842564134615	80.5660181270264	-18.4827453393763	-9.70815073850758	
2439666666.66669	-12.9908863651943	83.7551392190108	-53.0273919028699	-157.680606809673	-103.700749616763	-48.0576917657876	-18.4013572175996	-9.87825666763106	
2440000000.00002	-13.0008985711234	83.418358398121	-53.2558187458691	-171.93720839564	-76.669120866199	-141.191409812492	-18.3371919742463	-10.2261124592554	
2440333333.33335	-13.0075689446746	83.0259693425834	-53.6579000324445	-177.848019626618	-75.0574726127381	-45.7008919365109	-18.2883417199945	-10.4393594558676	
2440666666.66669	-13.0126667632523	82.7633367901462	-52.7593808417852	174.780048876894	-79.4337646035571	97.6712507065033	-18.2069962122851	-10.7320549365506	
2441000000.00002	-13.0244527774967	82.3647193221573	-53.748144589354	159.689968820251	-74.3166422502211	100.66563650227	-18.1747428309522	-11.0169530366204	
2441333333.33335	-13.0291363392627	82.0499121746199	-53.6168057818859	150.623009581391	-81.3023563181917	-108.799207205112	-18.1477604390016	-11.2377636624875	
2441666666.66669	-13.0426136181031	81.5946141664329	-52.4708243924847	142.023104563419	-75.5361429584949	-47.4455308025311	-18.1046582647973	-11.434946004599	
2442000000.00002	-13.0534500222814	81.3059056978891	-53.2277703959971	130.257436130235	-83.1963087413565	-101.762697730655	-18.0954860875647	-11.5153081755113	
2442333333.33335	-13.0917563051324	80.9477731117566	-52.6444123778935	122.319815109734	-96.2211856979938	11.6414335022194	-18.0562502756352	-11.772350215909	
2442666666.66669	-13.1017606944172	80.6806835023064	-52.9167277127805	113.103413916022	-76.3472473343483	33.9948441118644	-18.0671686529167	-11.9870968468979	
2443000000.00002	-13.130269084731	80.1884628851626	-52.70546817605	103.268778223696	-77.3094221492159	77.3009745563844	-18.0711077269033	-12.1548505604436	
2443333333.33335	-13.1400562733637	79.9438915345861	-53.0144098670896	89.3619329350302	-74.1055027018821	76.8805173338551	-18.0847109078147	-12.3376020568132	
2443666666.66669	-13.1807639121481	79.6008022757101	-52.8391002831708	79.3810643373322	-79.5024061922084	-109.807608134754	-18.1007198617073	-12.5191900172529	
2444000000.00002	-13.2000742311143	79.1271479328435	-52.8644411090968	73.1242385816551	-78.0279798630735	23.9401586579015	-18.1469018419148	-12.7158978628214	
2444333333.33335	-13.2238091699227	78.71469973496	-52.8159454018544	62.9594287141683	-76.2025951858687	47.2690819325372	-18.1697429679383	-12.6867666216305	
2444666666.66669	-13.262005741855	78.3162438838098	-52.4335441316165	47.3668015902555	-83.1344345331959	53.7152630672146	-18.2235553689787	-12.6868128313976	
2445000000.00002	-13.2867394277195	77.9792849252779	-52.7148081544541	43.0509785054842	-82.0044100925791	135.465560749892	-18.2731997786099	-12.8253668805339	
2445333333.33335	-13.3241454796604	77.5157515657266	-53.1886735825884	31.8521232806233	-80.2245162234593	89.9403159322421	-18.3323615794418	-12.8411169507676	
2445666666.66669	-13.345452883593	77.1378932379778	-53.3299928714557	17.7870495490807	-81.2567890929461	85.6056423575123	-18.4055763369155	-12.7289656013513	
2446000000.00002	-13.377126270456	76.6263025414583	-52.9289132309059	11.244343836623	-80.7122901914844	36.2176857271492	-18.4666806554435	-12.8076591374357	
2446333333.33336	-13.410851046692	76.1918629267488	-52.714179534807	-2.48519600130583	-80.3350302687839	99.1260673982193	-18.538019467493	-12.6829545592557	
2446666666.66669	-13.4393505653383	75.7062140934053	-53.4068175284433	-10.2343583956789	-79.1737276059468	-74.4696419316548	-18.6040204767548	-12.3977045035861	
2447000000.00002	-13.4792417402748	75.3414464094531	-52.3900057625847	-23.402719057708	-81.9805148300092	-98.4094648852897	-18.6906268763174	-12.2991864477802	
2447333333.33336	-13.503793836278	74.8013581824073	-53.0028345321111	-34.3924674277531	-80.5664131487395	67.0008917065128	-18.8080653645062	-12.0714277336617	
2447666666.66669	-13.5388100659392	74.4393408723738	-53.050774355721	-44.7691970201451	-78.6211022585161	54.9010833553114	-18.9179222383657	-11.8627152319592	
2448000000.00002	-13.5671015374782	73.8459446371259	-53.4088482449085	-50.8261611953688	-79.7508933686141	4.3828433709501	-19.0290608170132	-11.4887372063783	
2448333333.33336	-13.6093865810923	73.4519038445327	-53.779554275284	-59.194506824366	-82.1072339244399	91.0306190948801	-19.1508505881932	-11.3477438217187	
2448666666.66669	-13.6372166693881	72.9560984567309	-53.7264030067781	-68.6342910827446	-75.890826927599	-105.051795912233	-19.2665828775097	-10.7911607922406	
2449000000.00002	-13.6717728940926	72.4617310161168	-53.7248013534685	-82.9100342524225	-76.968533899288	22.0261763644208	-19.3936009763513	-10.2551714700563	
2449333333.33336	-13.7161949198225	71.92540576893	-53.7907001266978	-90.4953066912413	-87.4963660562837	171.876237251791	-19.5078687267432	-9.73959486418458	
2449666666.66669	-13.7466144013095	71.4116696622819	-53.4499785511412	-97.1484748886849	-78.8361894381897	123.376540447834	-19.6576691167361	-9.13121866150102	
2450000000.00002	-13.7856902582312	70.9392604032365	-53.4370146437157	-104.686804049936	-84.6230718139833	-44.3790181304322	-19.796485756604	-8.44786717521034	
2450333333.33336	-13.8167476354303	70.4717648434714	-53.2058975617913	-117.668222589649	-114.731298087998	122.750453906826	-19.9347420298296	-7.77929715861508	
2450666666.66669	-13.8468759786549	69.8764844271926	-53.6259651659184	-123.725436123501	-80.7232122245444	-159.090259140686	-20.0668774429595	-6.90045734235421	
2451000000.00002	-13.8903972029356	69.3549390911395	-54.343976149273	-137.174381169851	-75.990016033111	121.138314785957	-20.207166392558	-5.88897030478801	
2451333333.33336	-13.9152264623263	68.8410885254627	-54.1238330284136	-143.052703180685	-77.4260480879035	-65.7702167867488	-20.3625755461822	-4.84539170148027	
2451666666.66669	-13.9384128495565	68.3360607834434	-54.4716420302275	-151.888302127428	-80.7083765317603	-142.831691294861	-20.4773997395766	-3.78104487978373	
2452000000.00002	-13.951531241426	67.8017834735385	-53.2968787544703	-162.144033514539	-73.3754182266529	109.074786636618	-20.5887112381207	-2.61607626515316	
2452333333.33336	-13.9847781762975	67.1832604509688	-53.5714111579682	-169.302420287214	-76.8603260679588	-96.0863702153625	-20.7323418313659	-1.24179463832463	
2452666666.66669	-14.0038034717297	66.6584351513113	-53.6784202054706	179.52521789872	-78.1085675649601	161.397791315323	-20.8266448032856	-0.109331501114623	
2453000000.00003	-14.0150607118947	66.191645538385	-53.4749251770696	169.303518125296	-80.1371537582782	-33.2165821241874	-20.9497369997566	1.34221168167253	
2453333333.33336	-14.0298409641504	65.5685226750313	-53.7989383360282	160.390615026796	-83.0749450592286	128.198519031793	-21.0105442417786	2.55244214642819	
2453666666.66669	-14.0506454159271	65.0036925959964	-53.2666053775484	154.098920241064	-80.0984109786401	156.164178408378	-21.0879880222689	3.99193246674399	
2454000000.00003	-14.0498190252725	64.4670040888345	-53.1637703993864	144.673438281464	-75.9001902898552	124.639353242687	-21.1965809446612	5.55852075664322	
2454333333.33336	-14.0636151302726	63.808407833402	-53.4734286549558	130.475247272025	-77.6420274797221	162.022642239174	-21.2581443988966	6.88758267502555	
2454666666.66669	-14.0771630677563	63.1792105703816	-54.162793323683	119.99457601162	-84.0123588594429	164.772702156993	-21.2939346528598	8.36838258123162	
2455000000.00003	-14.0764693497392	62.6383846503477	-53.3235839262794	111.550473589251	-90.7862503931165	92.5179370596509	-21.3331974823261	9.77771477417854	
2455333333.33336	-14.0847718329143	61.9784634133728	-54.9438248806687	99.7174670338777	-80.9989056182805	174.587829817929	-21.3875233783277	11.3393872855438	
2455666666.66669	-14.0851490043643	61.4145114703607	-53.4004842966075	94.1771042271038	-74.8307429791181	112.061360892833	-21.4137495881197	12.6916738382868	
2456000000.00003	-14.0815058121567	60.7936393664744	-54.0590963988236	80.2049942812092	-78.2882311526685	52.634655899093	-21.4265926357425	14.1054306017086	
2456333333.33336	-14.0774946515219	60.1162058632399	-54.4582207806763	65.9296064000925	-81.2627737208917	95.6683766947593	-21.4416269597747	15.6506020967005	
2456666666.66669	-14.0778861109587	59.5674512598363	-54.5951063822882	57.3673994545715	-85.1161523412611	3.87623869057041	-21.4162182679451	16.9562439548938	
2457000000.00003	-14.0600583855761	58.9212152222959	-55.3962574643505	47.8988867604147	-80.1452615278268	-71.6817195516014	-21.407147511698	18.3897524701329	
2457333333.33336	-14.0507304370185	58.3357404274366	-55.8557655939153	39.2477621119677	-75.0429877974099	42.764359027694	-21.3908058044668	19.6887685663148	
2457666666.66669	-14.0409529446731	57.7089215219621	-55.8387531063335	30.277390645167	-77.1758751892562	-154.405774449454	-21.3607004302132	20.9993168704004	
2458000000.00003	-14.0185929684413	57.1306704324167	-56.1017806774286	18.6978086256314	-79.368188604548	76.2544474368053	-21.3205877604415	22.3042733148189	
2458333333.33336	-13.9915366756181	56.519685957409	-57.3807822262437	8.531283605349	-84.7660604662474	-179.970353751421	-21.2566579176557	23.4443425458474	
2458666666.66669	-13.9731890395016	55.8654674165537	-56.8050470919253	-8.57933644699729	-76.1633614259547	14.1041743312507	-21.1713858637253	24.564205908794	
2459000000.00003	-13.9415414179134	55.2714455383538	-56.9769295052432	-9.78136377786652	-76.1157935651905	111.683553865221	-21.1547805003479	25.5362636657138	
2459333333.33336	-13.9209443511319	54.6862012587131	-57.9162672638817	-18.9031608142349	-81.0220440030115	-145.543313973951	-21.0685801784764	26.4947759373958	
2459666666.6667	-13.8856736363502	54.126211985499	-58.1755143977912	-18.4220714053277	-77.0677878640004	85.2680892644568	-21.0115050579628	27.4845733931733	
2460000000.00003	-13.8592284940597	53.4647071479438	-59.1347954288567	-35.8476995354779	-74.5602491903775	123.610355994069	-20.9114379776865	28.2048776802337	
2460333333.33336	-13.8304836803323	52.8855929646465	-59.7678221148776	-43.4554147566186	-85.0535133060159	-120.912365007136	-20.8403214653647	28.9106151901968	
2460666666.6667	-13.79287826882	52.3375901867286	-58.9707886939804	-49.978558680286	-74.4257508696738	142.104151212103	-20.7797548302178	29.6488802674875	
2461000000.00003	-13.7524588885748	51.7014484141903	-60.8882809178881	-49.0340693037627	-85.1575316289062	-127.588304877177	-20.6878867113619	30.0316112488174	
2461333333.33336	-13.711615534881	51.1538186897796	-58.7503343525594	-59.8043808572608	-82.6105912088967	-44.41074206846	-20.6130173721745	30.4548318401423	
2461666666.6667	-13.6712116977635	50.5212218272513	-60.4562986671548	-58.6762185560184	-83.4839052779832	76.7358201266567	-20.5448443712085	30.8832584818493	
2462000000.00003	-13.6336600379804	49.8821846647422	-60.433642860013	-68.0976333047492	-85.1776954224448	35.9955252715333	-20.5041407036712	31.2403537848158	
2462333333.33336	-13.5852024145157	49.3643208369062	-61.157879386037	-79.1953678915796	-76.453861513923	165.739713845883	-20.4691835965062	31.3591918629	
2462666666.6667	-13.5360914833615	48.7880062763155	-62.0353224435978	-88.6179648723705	-75.5770802484708	-64.7401309257593	-20.4109868182124	31.4636533651548	
2463000000.00003	-13.4956909248838	48.2065622878504	-59.9547741561695	-77.2701219235725	-76.5065190067457	-143.317996217534	-20.365258189018	31.5866814775012	
2463333333.33336	-13.4401225055968	47.6772599587742	-59.8066891773189	-90.3974640264107	-76.3926184878325	-107.629057165025	-20.3419925850456	31.5938847633397	
2463666666.6667	-13.3840738068983	47.1192747367673	-60.2542588651732	-94.1864609568525	-85.3229202292154	17.8133524179277	-20.3174306639359	31.5793082954212	
2464000000.00003	-13.330025257723	46.524614435796	-59.9658387614719	-103.612177344084	-74.7791783797141	-160.856561509304	-20.312508031329	31.4330024864003	
2464333333.33336	-13.2911686649757	46.0307963414962	-59.4802559911557	-107.649625055976	-74.0920875730621	-65.5256687022744	-20.2889292962661	31.1635485786955	
2464666666.6667	-13.2354242991401	45.4745029923728	-58.9474452548442	-116.920958632091	-78.1608415127878	43.629889459332	-20.3096071340918	31.1665564748699	
2465000000.00003	-13.1779835355105	44.9909714108606	-60.2786833176045	-124.428953497436	-73.9339564095047	-160.152975365852	-20.3090130864562	31.0735101118277	
2465333333.33336	-13.1283061896269	44.4679725051918	-59.5396973505209	-131.717464553864	-84.1772303743617	-143.841851205975	-20.3194301382972	30.9207031888227	
2465666666.6667	-13.0769038029202	43.9816313690784	-60.1143722133228	-142.03826822391	-85.8132306418082	-71.035180947221	-20.3501800901688	30.6098166848979	
2466000000.00003	-13.0146803842246	43.471140658411	-58.9980822663111	-147.561847225794	-92.2479729577616	154.98102132459	-20.3727811223103	30.3441335600344	
2466333333.33336	-12.96864962573	42.9799263599504	-58.1196012119497	-163.978705404496	-75.7561143731632	-50.737690199764	-20.3858550209494	30.1184464755223	
2466666666.6667	-12.9099349008731	42.5709033038135	-59.3664145082201	-166.536896438565	-80.544999509357	-177.064369839758	-20.42526658225	29.7453638104532	
2467000000.00003	-12.8563070548067	42.0911449167235	-58.887624918101	-177.498295609169	-74.088774877723	113.484655274032	-20.4503392058162	29.4642447895249	
2467333333.33337	-12.7991144321912	41.6364366141955	-59.6451330149318	-177.960782443005	-82.2274696260226	138.267805777653	-20.4894652262631	29.1272919479252	
2467666666.6667	-12.7416414494449	41.2310107626595	-59.3614568543893	165.085856375161	-76.0633214301345	-160.823194548633	-20.5410363735364	28.8888161668658	
2468000000.00003	-12.6883603124867	40.7651623700386	-58.8727491702439	162.356790567852	-74.8459390905973	-169.37339208952	-20.6069302617348	28.3210748106814	
2468333333.33337	-12.6329800492097	40.3523155234142	-60.2154599909327	150.998368487067	-74.518170391633	174.612243244495	-20.6238867406274	27.9450332869861	
2468666666.6667	-12.5769640099405	39.9425236861577	-59.0433996880578	142.423146962624	-78.5882071482535	140.017641173604	-20.6744384106244	27.4431694041426	
2469000000.00003	-12.5224397303478	39.512019782911	-60.4973320792365	131.895210373014	-77.2514600451337	132.647177738939	-20.723050036523	27.0615926748438	
2469333333.33337	-12.4694818313293	39.1065551215127	-59.4111844893297	122.419415829791	-75.3590686367975	-97.8088370781108	-20.7671665052465	26.5592833734809	
2469666666.6667	-12.4186158450595	38.7690647459298	-60.5647836310132	108.598437046222	-80.4880456162462	106.754728245422	-20.8147598572347	25.9758875048349	
2470000000.00003	-12.3546921159902	38.3758522177812	-60.0887061369235	106.260243000032	-95.9007617499069	50.8430019810981	-20.8927908555525	25.418699603043	
2470333333.33337	-12.3030773393252	38.0343207820828	-59.4898060276537	102.626266807675	-81.1539813838559	68.6508935116605	-20.9651964540496	24.7090503277896	
2470666666.6667	-12.2475869067249	37.6483964609761	-60.9079901543931	94.7045365334287	-76.0597817755387	167.97306823847	-20.9995293380401	24.0607002868734	
2471000000.00003	-12.1900966139049	37.3111456923249	-60.4347304824812	90.0205446672823	-76.8363211842832	-125.255127197455	-21.0660000550572	23.5862424261684	
2471333333.33337	-12.1374741426534	36.9437178789821	-59.1367207547994	68.4376135262198	-79.1498723405764	-157.363883889714	-21.1426047708237	22.8808589550747	
2471666666.6667	-12.089743162546	36.6279874625805	-59.4194777883145	58.8176622318783	-79.0819243747916	-151.112000391598	-21.1823213777138	22.1592119388142	
2472000000.00003	-12.0284661149179	36.2961275175291	-59.7157068639773	41.291235989806	-81.9757732405697	-101.608371574951	-21.2599671177771	21.3527505277454	
2472333333.33337	-11.9773456297801	35.9653439450687	-60.3353521569841	36.3128006282187	-84.3107141412341	49.2852742744163	-21.3535141831821	20.5255846732561	
2472666666.6667	-11.9172812490053	35.6726302912082	-60.155532954851	32.6154301717323	-89.0366910453246	36.673239814153	-21.4018928141552	19.6594832642092	
2473000000.00003	-11.8615707635265	35.3939036160832	-60.3721946766667	25.8096614703321	-78.1192416128727	51.8402106957163	-21.4767084620246	18.8071265609178	
2473333333.33337	-11.8045133100287	35.1065173537855	-59.6523805231645	9.96970602439644	-78.8794660834924	145.284846238334	-21.5441457817968	18.0006403363814	
2473666666.6667	-11.7485230625131	34.8509025271389	-60.9754339978956	3.31357430101755	-84.6994817039255	-79.9695063097458	-21.6328808850468	17.0482944642759	
2474000000.00004	-11.7014600435701	34.5288554575462	-60.0747297109428	-4.51156755437732	-96.2124515427291	90.2976768479805	-21.7074861487983	16.0054203225149	
2474333333.33337	-11.6464179937915	34.2950893839251	-62.5742678416944	-15.8993251122689	-87.9158041628667	-6.5661950823475	-21.7773927444802	15.1449758484379	
2474666666.6667	-11.5984081933559	34.0448046690278	-61.6968842993358	-13.6246459387784	-85.1892271892382	-92.5804729511077	-21.8304181538984	14.0998110234555	
2475000000.00004	-11.5454811361704	33.7370633059279	-60.6847273155616	-25.1171467340438	-82.0065966542877	-100.086335335716	-21.8737187400035	13.3077976103883	
2475333333.33337	-11.496668785203	33.504172340218	-60.9326326076794	-44.9303028236349	-77.4184954236607	-8.78534427883655	-21.9243234554595	12.3446943154362	
2475666666.6667	-11.4481713434432	33.198578750871	-60.1722512416239	-41.8499586481616	-81.0941471413387	-34.9891604153377	-21.9680048039334	11.2480511369829	
2476000000.00004	-11.397324891566	32.9859357046371	-61.6461315488601	-60.4456086982979	-76.4100994440023	-95.9423640820107	-22.022372630932	10.2114198413288	
2476333333.33337	-11.3567175426518	32.7230751866405	-61.8272053207043	-71.8036652451551	-89.8466424861019	-162.465175667428	-22.028039186146	9.14288925782063	
2476666666.6667	-11.312552922765	32.4027393481034	-61.7032589619919	-88.8265316169039	-72.6542389528599	-112.499920507586	-22.0772505806455	7.94860950126048	
2477000000.00004	-11.2678085139332	32.1002607219476	-62.003242136565	-111.714680349946	-78.2735275262388	-91.9629475200776	-22.097788258061	6.92210799136561	
2477333333.33337	-11.2228840537049	31.8219077629416	-60.009946393896	-105.148388396418	-77.4293865388273	-103.597075510638	-22.1128088850018	5.83985659469416	
2477666666.6667	-11.1830253892811	31.5271449375004	-62.1718292949995	-120.249881713415	-84.2282891361288	-80.7360958959416	-22.1193674623403	4.47929512406199	
2478000000.00004	-11.1443068858381	31.2412682153013	-62.8779893293245	-129.96861855857	-79.0492567407374	165.538061937363	-22.1228724996525	3.44261691365453	
2478333333.33337	-11.097137656334	30.9478460814784	-64.8389219646477	-156.636361262029	-92.1980491889528	73.4442886076332	-22.1098244683433	2.09695496062619	
2478666666.6667	-11.0546867787443	30.6801058518875	-68.5001905614837	-160.593767970934	-75.3938784781946	146.108671993465	-22.1034909566717	0.948512561000604	
2479000000.00004	-11.0151870600815	30.4478030692129	-63.681529387436	174.708519306584	-80.4044924340101	-64.7141260542476	-22.0846478281143	-0.221662200323921	
2479333333.33337	-10.985147328844	30.0817449764682	-65.045470110135	162.435069120125	-74.3819588634239	-60.4228155849857	-22.0534999838082	-1.51198958197885	
2479666666.6667	-10.9452810010821	29.7972734541866	-65.0797738388313	154.659042127363	-81.9071533018323	-164.490807960553	-22.0230484526125	-2.74597451261188	
2480000000.00004	-10.9051002378462	29.5099911874924	-65.4273872345396	143.366364514484	-80.5304128649078	-24.1469401628725	-21.9886677525046	-3.90454553711176	
2480333333.33337	-10.8678181538467	29.1970689108836	-70.5117829701715	103.741992578094	-79.1205051177361	-9.62946172569808	-21.9416668666689	-5.11730287190127	
2480666666.66671	-10.8402237483697	28.8902619414398	-70.2227635437892	91.2776540268505	-85.4761551003155	45.2055749612177	-21.8988714874475	-6.37489287176129	
2481000000.00004	-10.8176988233214	28.5679320204663	-69.9088788198327	100.719756533628	-83.7816908873262	73.1107057122818	-21.8435499364211	-7.56335171947223	
2481333333.33337	-10.7858128438646	28.2326562690771	-70.843169820924	57.8003831937605	-84.6073675379058	-98.8414360949187	-21.7826957362386	-8.79242546367873	
2481666666.66671	-10.7797248523501	27.8743312252534	-73.1435363355891	68.515856746173	-82.5031142805365	110.567048387762	-21.7071318475442	-10.0095238865902	
2482000000.00004	-10.7463961688928	27.5417610087668	-69.9854900254496	23.5695283440181	-87.3340994345874	-7.29314509939325	-21.6407715371019	-11.2829948182203	
2482333333.33337	-10.7285774100279	27.2535316161643	-77.0754675419736	-6.16577402071903	-78.5304913034542	-82.0902211116597	-21.5743218183044	-12.517290332894	
2482666666.66671	-10.7104905675574	26.8315663718296	-70.065478595997	-26.4509981556512	-78.0098067161396	-98.6804729126575	-21.5086486260281	-13.4884692304379	
2483000000.00004	-10.6860434087204	26.4909007377944	-72.046802072686	-22.1750139761648	-85.0861712954933	-132.184457134116	-21.4170881365943	-14.6169470487787	
2483333333.33337	-10.6738068141005	26.065580230628	-68.228540431093	-47.4713850175781	-77.5462397382211	-20.2763928729759	-21.3449404912447	-15.7662402361573	
2483666666.66671	-10.6598140144059	25.6634615494244	-67.8322670506783	-33.5878440753171	-76.954359789707	5.74488654249311	-21.2303536127319	-16.9921819975083	
2484000000.00004	-10.6459637528722	25.3234250077051	-66.2786304824392	-61.7218924314463	-74.5056828073266	-45.0617357302584	-21.1325561454014	-18.0363483991654	
2484333333.33337	-10.6330674153653	25.05173726396	-63.89623389304	-84.5915959202711	-79.437525593641	130.312408520622	-21.0526819664799	-18.9574611143047	
2484666666.66671	-10.6290965214402	24.6356624960557	-63.0267765714014	-95.2016345671999	-74.824474100098	163.290237043283	-20.9279111961413	-19.9910612282033	
2485000000.00004	-10.6196683252663	24.2425453113971	-62.7413187889802	-99.4372025357554	-78.0258181792482	-34.5292421354784	-20.8181405706188	-20.9735640056596	
2485333333.33337	-10.6072927770435	23.9049229110125	-63.3378680090542	-108.149837395906	-75.5911453690991	-99.9147692410731	-20.7225245042281	-21.9521436509569	
2485666666.66671	-10.6120251902213	23.5178072406157	-61.9334120774102	-130.3762468766	-75.0620641493282	45.8456167978937	-20.6094213914511	-22.9239659582257	
2486000000.00004	-10.5963823283332	23.1421827605922	-62.3693538419966	-141.542648757404	-84.3280696604142	-23.1601619427901	-20.5019585068465	-23.9113379016377	
2486333333.33337	-10.5958564635414	22.7090503276423	-63.6752897177796	-146.811849849857	-74.4241893128894	-60.4945015449722	-20.391847415526	-24.8778066818335	
2486666666.66671	-10.6144925243641	22.3557665539575	-61.1314274033771	-154.435843316737	-81.5978302728261	-152.037666925952	-20.2794017128047	-25.7520822191705	
2487000000.00004	-10.6133653165254	21.8863216831677	-62.4236688716634	170.283268661914	-78.8159264245155	-30.8892648225067	-20.1863788559066	-26.6902370873667	
2487333333.33337	-10.6272985060411	21.4838533698845	-59.8557165638793	178.030174273172	-76.9987805528359	49.0501070104146	-20.0795145498906	-27.5696706851231	
2487666666.66671	-10.6171201967191	21.0861929447253	-62.8925378450425	157.531442695723	-74.9662810072359	28.2732368256331	-19.9840580267976	-28.4834828742952	
2488000000.00004	-10.6319309843503	20.588125595367	-61.4957420872084	151.63765828574	-79.1112424449853	11.3968765981505	-19.9139491954882	-29.3024072439483	
2488333333.33338	-10.6553073946633	20.2249385632544	-60.6979357614812	140.014775183865	-77.0236089488621	84.4265553630245	-19.8185903505524	-30.0506564328141	
2488666666.66671	-10.6554803248066	19.7834398477621	-58.9947473706698	125.193728780911	-82.659922422241	-45.0136749689848	-19.724245793921	-31.0207531769511	
2489000000.00004	-10.6723400485644	19.264579155014	-60.2164502503883	119.050652836487	-79.5166312161483	105.606923749383	-19.6539811443761	-31.6854559540742	
2489333333.33338	-10.7016232599494	18.8264835411754	-59.6028959817949	110.98291416079	-75.2809556855722	68.5747266151855	-19.5727182321776	-32.464506121785	
2489666666.66671	-10.7178238473146	18.4306344767389	-59.0653311554069	93.8733894834809	-83.2362193832705	54.6415950853706	-19.4931622543067	-33.2105152366119	
2490000000.00004	-10.7330724142781	17.8423343481613	-59.3861207593218	89.344506960216	-79.9757986634308	125.813205345485	-19.4400492293573	-33.8542920872398	
2490333333.33338	-10.7546751247928	17.3499853472035	-58.1933084835242	79.882543008681	-78.2842892370309	68.1737671362717	-19.3829892370961	-34.5055467799983	
2490666666.66671	-10.7816212609027	16.8407765078614	-58.8627305349488	70.9802315178079	-83.8611007483191	5.21623935135549	-19.3235989982265	-35.1734522562521	
2491000000.00004	-10.8072862990762	16.358983591827	-59.949833133624	61.7985898487526	-90.5936605896892	90.6051999591878	-19.2973940468158	-35.74937760314	
2491333333.33338	-10.8513397494414	15.9256926261696	-59.1431318513428	51.4911802879259	-80.9231914934353	22.8880755398606	-19.2384872389666	-36.3527679874134	
2491666666.66671	-10.8757861988912	15.4413951027767	-58.8005940839282	48.9684893255459	-81.5203829756024	80.570678816394	-19.1799044694545	-36.8059607955155	
2492000000.00004	-10.9123225357374	14.8899127909606	-58.7048665255369	26.5500565184071	-80.6330844636423	119.835255321433	-19.1587900753844	-37.2390005853143	
2492333333.33338	-10.9504295682615	14.3099312542768	-58.0541676550214	25.7777088268696	-75.1232006404196	108.653268461278	-19.1066240043229	-37.6454441373035	
2492666666.66671	-10.9683588899736	13.8396461128417	-58.5699741966346	23.0125419217057	-78.3023830320027	111.705535335439	-19.0865566359133	-38.0994876440563	
2493000000.00004	-11.016550948442	13.3142723835009	-59.5289116104464	13.072083720889	-83.9066780567983	102.821546707742	-19.0689204580332	-38.3257996399836	
2493333333.33338	-11.0494263767102	12.7051903462499	-59.5286093231153	4.89150421829773	-84.0470440906523	-74.7467878623103	-19.0448830193786	-38.8578924988667	
2493666666.66671	-11.0948569718092	12.1506179412962	-58.6142930516559	-3.28510056869706	-77.8156302071303	-68.6599567262969	-19.0152179899599	-39.094927361804	
2494000000.00004	-11.1477199395876	11.5784444304587	-58.5468349679712	-14.2794855932169	-82.3197250532349	14.1730022752342	-19.0231552977935	-39.3316091553585	
2494333333.33338	-11.1836796761334	10.96739994191	-57.3820437332385	-29.2394408060045	-74.3325500023954	-62.8936888402246	-19.0097086160037	-39.6039971840665	
2494666666.66671	-11.2169351961136	10.4999622332283	-57.8716545353758	-32.7919344963255	-77.1941211012266	125.256014184887	-18.9956007911958	-39.6933177578011	
2495000000.00005	-11.2630214835041	9.90987755347883	-58.3385157194602	-41.926525527969	-76.8355226345872	-63.8617827741826	-18.9909536384746	-39.9434952776711	
2495333333.33338	-11.3064073111741	9.3587240628055	-58.8965558482336	-40.8146892750865	-79.3492686436934	30.4327502260325	-19.000825399272	-40.0944858404944	
2495666666.66671	-11.3500369332234	8.69681414146584	-57.8413800315327	-53.0062892137633	-81.9063569346604	-114.948682074666	-18.9952887063123	-40.2475442079389	
2496000000.00005	-11.3932219100731	8.14218975884817	-57.3487605599531	-61.6632722201503	-76.0600752258461	-144.439139125861	-19.0038231468216	-40.2347289139645	
2496333333.33338	-11.4386488852311	7.531153223712	-57.7295620843432	-76.3973054469609	-92.0761954354247	-33.1332035873848	-19.0240083669822	-40.3304001611964	
2496666666.66671	-11.4948463280694	6.90316041117907	-57.0009126444456	-84.1306909783026	-74.7755688859069	70.5534393478762	-19.0288597691646	-40.5224444842762	
2497000000.00005	-11.5360882004937	6.38535153153884	-57.4062839594464	-91.7296991565072	-83.1686500940597	-87.6552521600808	-19.0550805887207	-40.4675540673663	
2497333333.33338	-11.5774841944528	5.74148695026865	-58.0361044597212	-101.71227605929	-88.2354711503064	104.489511436204	-19.0763183790961	-40.488593345778	
2497666666.66671	-11.6076933185116	5.08280889194421	-57.2528119122843	-112.887492007705	-81.8595349052809	-118.340259962516	-19.1144625108899	-40.5444099498186	
2498000000.00005	-11.669724857759	4.45929111922546	-56.8071290518921	-128.267960397981	-81.9553422383157	71.2908549020061	-19.1421035613881	-40.3983337079214	
2498333333.33338	-11.7028808664071	3.87959994573922	-57.3342470909577	-128.809362028945	-83.028358925939	-122.94800238631	-19.1576015385169	-40.4417638079272	
2498666666.66671	-11.7535339935987	3.24447817453185	-56.601152983501	-143.593888401246	-79.2548153694406	135.360857592024	-19.2228082600953	-40.3575671199703	
2499000000.00005	-11.7957073885561	2.57700593833674	-56.9928003373369	-156.373074696321	-75.2917793787355	-75.4864678224294	-19.2876982277228	-40.3516936220486	
2499333333.33338	-11.8259535602708	1.97986732023459	-56.2229254471345	-162.054388121195	-74.3670904654917	48.924312838552	-19.3241978953684	-40.3165947193284	
2499666666.66671	-11.8852372063451	1.37389281590044	-55.9533635950285	-171.818928423958	-81.9409662598191	24.4010721935872	-19.3878568894976	-40.1210512646669	
2500000000.00005	-11.9263838521354	0.699942951625736	-56.3648015733108	179.380138398864	-79.2226156429797	-80.6453043014662	-19.4565465681202	-39.8774983095149	
2500333333.33338	-11.9584077963671	-0.0146320821762961	-57.0617926852953	176.037184699184	-84.017095781242	-86.0910174530566	-19.5562821963767	-39.929890014241	
2500666666.66671	-12.0026450324038	-0.615381006856133	-56.1351562189439	168.049641699068	-77.8315651445941	130.110554916779	-19.6083847514783	-39.5770877000909	
2501000000.00005	-12.0370787329712	-1.32073744495962	-55.6888697957329	154.792758238492	-74.4127651825689	43.8853003395886	-19.7032956033092	-39.5073872661617	
2501333333.33338	-12.0659464187309	-1.93376221994341	-56.000416541448	148.220551165703	-93.8862743113685	36.2864676526745	-19.7831331823049	-39.035775698602	
2501666666.66672	-12.1047112158034	-2.61287422877929	-55.6604752949274	135.299962761669	-73.3290086999993	142.724429297065	-19.8789838695938	-38.9494077788932	
2502000000.00005	-12.1454097961139	-3.32503542135774	-55.7048543117966	129.17156417809	-77.2391688532426	21.8031780659308	-20.0025352005325	-38.388713243957	
2502333333.33338	-12.1851799167041	-4.09786018936616	-55.8933328502091	113.389378318383	-78.2063710228764	137.789168383762	-20.0892225589427	-37.9195139691635	
2502666666.66672	-12.2144132640105	-4.81892758307413	-55.7433840879833	112.548175527842	-80.2241823670997	-20.0289539320553	-20.223360694615	-37.4352184571148	
2503000000.00005	-12.2554606443611	-5.55343999025457	-55.0270261402834	101.557905776111	-74.5674780409068	-27.7891461923677	-20.3289490128223	-36.9475235674663	
2503333333.33338	-12.2848536368619	-6.28164311909707	-55.2672327828614	92.0775534140976	-101.762092467533	111.650010719218	-20.453690466946	-36.3686632042178	
2503666666.66672	-12.316550112964	-7.11826842952105	-55.2038101407766	83.7502872917391	-85.284388551526	-167.510403820401	-20.5862858877042	-35.5977872989233	
2504000000.00005	-12.3395117645544	-7.83342567970249	-56.5227325640981	68.7369626033641	-73.0312908631179	31.5380689341557	-20.7025853818992	-35.0248125038103	
2504333333.33338	-12.3678293290842	-8.58244489756917	-56.359380997944	62.7267759545443	-77.6940953090415	99.584449331053	-20.8616550258523	-34.1208319722212	
2504666666.66672	-12.3885966379342	-9.37419796972594	-56.7765031469089	55.1944278396709	-82.5879497937925	26.0291001662067	-20.9821677647847	-33.5124318530739	
2505000000.00005	-12.4138480818065	-10.1198004568405	-57.2155553620238	43.1675510904881	-82.5599570448043	-46.2129887191322	-21.1286356237656	-32.5982771770226	
2505333333.33338	-12.4379896486437	-10.9578047297066	-57.3305053130605	36.5427629628906	-78.9622335274654	62.1097191988489	-21.2764090686721	-31.6419291163322	
2505666666.66672	-12.4531422853922	-11.7404620745159	-56.3371464264367	21.2650077282113	-83.2760050455294	70.7225081443435	-21.4420465771696	-30.5548625028994	
2506000000.00005	-12.4682483797349	-12.5670682948975	-57.2120666076133	8.50500020879521	-74.2225238095743	-40.2329520183129	-21.5890109394719	-29.3976330286879	
2506333333.33338	-12.4839950839759	-13.3480365014481	-57.1038112281149	-4.56877268288879	-84.2938979386526	107.094713275586	-21.7769012304604	-28.2853766859796	
2506666666.66672	-12.5001473055271	-14.1595762655292	-57.7505748672282	-10.56697614492	-71.2130880667974	19.1788365326288	-21.9288524723384	-26.8297986928428	
2507000000.00005	-12.5143237868277	-14.9277712461355	-57.7245823790668	-16.0730492562709	-84.2369409007467	-169.272306739353	-22.108186994172	-25.4642939152632	
2507333333.33338	-12.5269324786315	-15.7429491915444	-58.1528441847907	-17.3139794373605	-82.1751236480093	158.357734282228	-22.2515061320974	-23.933248351045	
2507666666.66672	-12.5397911635693	-16.5753979904328	-58.1807206609542	-33.8919035068324	-77.9229002755372	-59.6389098186429	-22.4386683497722	-22.4033080334273	
2508000000.00005	-12.5489746558893	-17.3915312378646	-58.0223813607034	-42.174623598475	-76.959038355779	94.8225770488185	-22.564334802911	-20.5615123410911	
2508333333.33338	-12.5583062964566	-18.2663265855759	-57.9526014961706	-49.2746904571293	-87.1982165994421	-139.105947867174	-22.703385807708	-18.6704543173687	
2508666666.66672	-12.5643909398968	-19.1488652747943	-58.7708671272384	-54.1905775225884	-73.9077050069488	177.301957466112	-22.8450667911391	-16.7531754447404	
2509000000.00005	-12.5704993198332	-20.0502094175712	-59.7370125089516	-71.0991165022179	-77.5904821960427	-48.3505164405694	-22.9226754458957	-14.5729737339656	
2509333333.33339	-12.5741642446676	-20.8795345977389	-59.4941491598452	-72.1062494209286	-75.2253711074919	-88.4728441561667	-23.030899622144	-12.5813313562407	
2509666666.66672	-12.5783095084807	-21.8027354366374	-59.3271189448241	-84.8638925429891	-79.6160578921684	85.945199658462	-23.0753411325973	-10.2642937726049	
2510000000.00005	-12.5761645330981	-22.5604649233569	-59.6757124503446	-89.6048582206808	-76.1237480283377	13.6125682036044	-23.1586557064491	-8.09354470200077	
2510333333.33339	-12.5773054301127	-23.4702778858589	-60.4933335425913	-98.5426728310995	-84.7161301744723	-146.368319587267	-23.2198623366006	-5.60171503807805	
2510666666.66672	-12.5738219983891	-24.2889186715845	-60.1447896439406	-111.012163968261	-76.4166365974404	-126.152336966702	-23.2360069851223	-3.22744042729777	
2511000000.00005	-12.5752435957481	-25.1121291860303	-59.8946021798955	-114.304874158584	-75.8985068828497	-31.5944992780816	-23.240443183456	-0.885265712425283	
2511333333.33339	-12.5757916343535	-25.9667446076385	-60.1110421174689	-128.119973181941	-81.3927917469416	164.998365259699	-23.2051271308477	1.6923463621038	
2511666666.66672	-12.5723185378249	-26.7784504092041	-60.1482346769084	-130.35746080744	-82.6943140712473	61.3143034233717	-23.1434452161611	3.66399731021976	
2512000000.00005	-12.5623478971987	-27.5593244044138	-61.7404286665638	-139.871167533288	-82.5178745297704	-73.1374470570226	-23.0591071698605	6.23993561538191	
2512333333.33339	-12.5643484264719	-28.3369632597605	-60.9191927723323	-165.5792476696	-85.588451948445	-164.413469200882	-22.9868765154938	8.44015691139753	
2512666666.66672	-12.5596658609994	-29.1567974171828	-60.8695528343688	-161.886285934565	-71.0668515421024	59.5812171296079	-22.9066062910402	10.5222476349834	
2513000000.00005	-12.5455335263748	-29.9431870259057	-60.8422868574232	-163.188852084731	-76.1441325650454	114.686117338853	-22.8047281505956	12.7881442999754	
2513333333.33339	-12.5429165700068	-30.6673889760785	-62.6126196087812	-169.737943346385	-76.1664734158428	47.9335373950054	-22.6619912543739	14.6726591838151	
2513666666.66672	-12.5326698807149	-31.408446062862	-61.7281939900957	-175.731390171881	-83.053560481065	138.269941251336	-22.4984184163408	16.5849403545259	
2514000000.00005	-12.5279968695239	-32.1968998443023	-62.3400646302368	175.007007472505	-75.9708720480357	-161.946328871844	-22.3362567557309	18.4895408466015	
2514333333.33339	-12.5198850077826	-32.9356628396752	-64.0230517711361	157.919825992986	-76.3314464789068	46.8970766933361	-22.1366098420035	20.0843023914962	
2514666666.66672	-12.513235842797	-33.7042468727063	-63.6848836483531	161.444102395516	-91.321713895282	174.52941391463	-21.9534722842032	21.8728951157832	
2515000000.00005	-12.5031691435503	-34.459960608373	-63.3492636471099	145.77508110499	-72.8857745341766	143.563912711422	-21.7601230649309	23.2425919640608	
2515333333.33339	-12.4988153141241	-35.1409399110235	-63.1014264270667	155.389716230505	-80.3515195819611	149.849483917083	-21.5830349418007	24.449135238135	
2515666666.66672	-12.4859432376986	-35.9121365052524	-62.2107925117803	147.799161673748	-79.6462188156248	-126.031982783277	-21.3660859782511	25.8232133001355	
2516000000.00006	-12.4749359076274	-36.5462203498915	-62.616314403956	143.948074370262	-92.2602820100719	165.952804861702	-21.191879024743	26.7928027362967	
2516333333.33339	-12.4654773549887	-37.2474185672036	-65.1127464273741	140.118317235176	-86.1308982589301	-52.7239541644121	-20.96555372147	27.6323277719981	
2516666666.66672	-12.4648515798985	-37.9041250339417	-64.8067529354476	142.20561153646	-76.5651746222184	-63.326668898828	-20.7885242437294	28.3739563233847	
2517000000.00006	-12.4580435115685	-38.5287789169967	-63.9240842714398	105.73531066422	-79.6710797882882	-111.405507624836	-20.5859291723768	29.0664467606944	
2517333333.33339	-12.449211219634	-39.1184344975709	-61.407807803205	118.091357980754	-83.2459885617701	91.5627981616125	-20.4024692162781	29.636551884224	
2517666666.66672	-12.4523191530532	-39.7377233371658	-63.7097379800547	95.9952318133194	-88.759883945708	84.1639083529673	-20.2142109175065	30.1352092880132	
2518000000.00006	-12.4468829972888	-40.3320187122743	-63.5074626741326	102.05351694108	-97.2293565513154	-177.555356342095	-20.0389296244493	30.3330797090931	
2518333333.33339	-12.4391667472878	-40.9546702967001	-64.1855120644361	92.0007805746457	-80.8940987014215	68.8148414835201	-19.8949884659775	30.6369454330427	
2518666666.66672	-12.4348704857256	-41.4652391108048	-63.9486675399868	79.9825910178769	-77.5114348068233	72.6089833947533	-19.7396109350738	30.753243682018	
2519000000.00006	-12.4382096374975	-41.9920761391507	-61.2111915043385	67.2136583816916	-84.0787874706531	129.269644704004	-19.6016771595384	30.894969897388	
2519333333.33339	-12.4386602291579	-42.563778570733	-62.1172320587466	61.1019375481825	-77.9925460422784	46.1006023024077	-19.477681574494	30.7990583704922	
2519666666.66672	-12.4357146177722	-43.0020626259613	-63.822382091361	49.3465694184971	-83.0650742280682	68.0148405804556	-19.3580648857994	30.95086224366	
2520000000.00006	-12.4287011903003	-43.4971214026869	-62.6226672540517	25.3703079645024	-79.0360353408617	100.8854303738	-19.2397173389438	30.6952971658946	
2520333333.33339	-12.4423858552778	-43.9615997241492	-64.3643097795501	31.0297001200793	-86.9267099148689	-167.936391067602	-19.1518931828844	30.5116966108874	
2520666666.66672	-12.4398829572119	-44.4282973710364	-64.8766744269749	19.5688045835457	-84.0169099060325	-136.871592477391	-19.0640499262584	30.3207516042074	
2521000000.00006	-12.4462034581836	-44.8550836900935	-63.300032656335	1.84164117755605	-83.6038955079813	-142.282736184548	-19.004003362718	30.1077391156378	
2521333333.33339	-12.4507416886951	-45.2705475900183	-67.6662418092361	-21.3356161773384	-82.1899665529031	-50.7878844280472	-18.9287016147516	29.7242340356407	
2521666666.66672	-12.4390232698936	-45.701336255407	-66.9064741955584	-21.9690424347779	-73.0496603438382	-132.11008367591	-18.8659465549355	29.4354375847849	
2522000000.00006	-12.457191092315	-46.098312322896	-68.3173659514298	-23.9165364813677	-80.0566133857365	-102.924405589212	-18.830798995673	29.1307854643479	
2522333333.33339	-12.4658295985043	-46.5485959640283	-68.8872574049591	-65.4361080298971	-76.3528362300634	-159.719959778333	-18.7931242284722	28.7446714847309	
2522666666.66673	-12.4691189097027	-46.8810937412934	-73.9195760706681	-64.532884372177	-92.7200252754808	25.1339333216172	-18.7694634566781	28.1983764397656	
2523000000.00006	-12.4816359377117	-47.2070443054202	-71.7931175185344	-34.9052445678615	-76.418680094611	-171.785633958377	-18.7403161153507	27.8555742769263	
2523333333.33339	-12.4916952548166	-47.5263630863054	-69.8016431966485	-47.2095082308969	-77.6874094021035	-39.2469109991242	-18.736523707962	27.3130662712777	
2523666666.66673	-12.5058335000959	-47.8563618069295	-76.536378858179	-47.9667815492729	-75.4028639567324	-170.486824827105	-18.7315246445778	27.0033555864992	
2524000000.00006	-12.5085484478672	-48.1730612100438	-78.0366411613089	-11.3613896039846	-80.1776011583669	90.3255091973134	-18.7550715731309	26.4980412752881	
2524333333.33339	-12.5231946825704	-48.4659726054691	-70.3784999350781	-36.34392508875	-78.971052470788	-176.34178667176	-18.7691911253739	26.0429629592437	
2524666666.66673	-12.5403097979537	-48.7791084250629	-68.7386628171406	-19.2593640850786	-82.0296496951334	-114.396921168101	-18.8063195659105	25.4314892582592	
2525000000.00006	-12.555438282525	-49.0120155079522	-69.3158613235243	-24.3033129791612	-95.4400518040438	161.199012034515	-18.8146323134933	24.9170789498604	
2525333333.33339	-12.5634903787494	-49.2876833105512	-67.2806041793889	-40.2068211892263	-75.4791262975648	-79.6232952264186	-18.8647740641398	24.5257072817216	
2525666666.66673	-12.5901251518595	-49.4881176346466	-68.351010730778	-38.9203330920278	-86.8681977285813	115.597745315058	-18.9028909632562	23.8632832384202	
2526000000.00006	-12.6066913097296	-49.7418436998539	-67.1927024876201	-31.1560021899189	-77.839270264834	-58.9133283442296	-18.9703269381678	23.1946176152802	
2526333333.33339	-12.6230876732407	-49.9780182731534	-65.9021588960385	-45.5425959537789	-74.9318548739679	-102.018010201765	-19.0146936951326	22.5895033169155	
2526666666.66673	-12.6322772225032	-50.1227178210983	-66.5055226521235	-61.5107152106959	-78.7230177956077	-99.1250401839333	-19.0842282921355	21.9986641354923	
2527000000.00006	-12.659776442065	-50.4212043693598	-63.2398345314161	-71.6292289281696	-78.2164840252196	111.038505922703	-19.1550489577741	21.443876654637	
2527333333.33339	-12.6806382952302	-50.5893351798687	-63.6255339639714	-80.8778716514294	-74.4646747785545	139.470829919174	-19.2317334411805	20.8781560059702	
2527666666.66673	-12.7039580639173	-50.8086876390711	-61.6632330717104	-90.1452648955274	-81.5215177203672	-51.3021762371356	-19.313265808861	20.2177403978343	
2528000000.00006	-12.7282290856387	-50.9239906745043	-64.6011388168795	-89.493906397484	-77.4259994957472	-97.7378523165468	-19.4000526016604	19.5663933358584	
2528333333.33339	-12.761322958999	-51.1367333880443	-63.0347258297012	-108.044670549659	-78.8892611908222	129.841081742817	-19.4809726396227	19.0563210134787	
2528666666.66673	-12.7660538343265	-51.3224697842545	-61.0893197153455	-111.887972495732	-76.8033010975475	-139.971241159863	-19.5885194762353	18.3370438138249	
2529000000.00006	-12.799097171396	-51.5157213186588	-63.4184729422068	-125.206314291234	-74.2252367689948	121.847694570834	-19.6896780740291	17.6955034076761	
2529333333.3334	-12.8252509175857	-51.7083962687581	-62.8005212014684	-122.570209516614	-81.8616370060564	-3.91288851666916	-19.7972822809849	17.0072604812391	
2529666666.66673	-12.8597393887641	-51.9193220402444	-62.425353284748	-148.192946838177	-79.9480731198167	-132.919408603374	-19.8915937489153	16.2680563691384	
2530000000.00006	-12.8779111471633	-52.1068369165878	-65.2496618024755	-149.875415394615	-80.0997413680993	140.941111186276	-20.0002783015788	15.63195339875	
2530333333.3334	-12.9178092955739	-52.2664501010421	-61.8636193715574	-163.282039080696	-93.238275567404	-146.425411448912	-20.1051284111159	15.0158235771616	
2530666666.66673	-12.9495919657259	-52.5029334074803	-64.3576161557592	-166.175897701629	-91.2541790051979	30.0908854146442	-20.2135398198976	14.3359536267638	
2531000000.00006	-12.988690528177	-52.7193505374354	-63.1366474188785	177.557190687801	-73.5728211528584	-155.610263752693	-20.3296386961101	13.6514347186263	
2531333333.3334	-13.0188868090626	-52.9438797541804	-62.5598241673972	171.114829938217	-81.8979081711475	-135.372873545199	-20.455870481165	13.0337838110664	
2531666666.66673	-13.0749958983641	-53.1015285808159	-62.193283341991	166.491201511686	-86.4285733718861	50.1275997612701	-20.5615361236535	12.3000512606357	
2532000000.00006	-13.1028865160273	-53.3211201005123	-61.3690211065022	171.115830663392	-81.9192365550579	-78.4783501529987	-20.6777815433317	11.4894178374776	
2532333333.3334	-13.1553085167206	-53.570647891281	-63.8205087568595	143.235154623798	-72.6084171521208	45.7589096880136	-20.7791527385151	10.7672431044244	
2532666666.66673	-13.1905606675324	-53.8125018341257	-64.2024727633322	137.227323195089	-73.675856212164	-129.505528999979	-20.8941955904217	9.90832459962683	
2533000000.00006	-13.2382508074035	-53.9561013695065	-62.5540071280569	138.395722251504	-80.4464754804264	76.8355839466136	-20.9865057466031	9.16862543543042	
2533333333.3334	-13.2876210153366	-54.2115060762964	-62.6118695636875	125.628379187324	-79.4721279888204	-114.265986212872	-21.0941918575294	8.34312474525578	
2533666666.66673	-13.3337970727996	-54.4683920368861	-64.3369506909041	126.07758177084	-74.7570252623424	-129.676421504629	-21.2018132260798	7.59125023711389	
2534000000.00006	-13.3889435791715	-54.6778656279409	-64.5260712693606	99.9204283153113	-77.2991900818077	-88.4086446940486	-21.2906198328718	6.66880947651387	
2534333333.3334	-13.4396227212865	-54.8832937049175	-63.856191998552	94.8312542212999	-75.3826348857557	-54.4843665930389	-21.3865701939143	5.76326223821952	
2534666666.66673	-13.4986241022344	-55.2063960689163	-63.3979491687136	96.4391125326142	-79.1948381507306	149.277532691259	-21.451949272859	4.77701372539538	
2535000000.00006	-13.5555608464597	-55.3324608967409	-63.7763492400502	63.7241623981818	-76.4270243743147	37.3748971429249	-21.5343983072199	3.71343738050145	
2535333333.3334	-13.6260889615301	-55.5471435745574	-62.229107369232	76.529384224197	-97.7281432861305	152.193083275165	-21.6038012147341	2.91781325117196	
2535666666.66673	-13.6666666003856	-55.9041624353718	-62.553684713754	58.9046017362129	-85.2871526787577	-33.7222540622447	-21.7043840929363	1.76672855432757	
2536000000.00006	-13.7289814569342	-56.0993716326613	-61.6690672041043	52.1405181664571	-77.2143077010755	-158.306076446783	-21.7533789737195	0.713419490514373	
2536333333.3334	-13.7931442121158	-56.4247022687351	-62.2693543189151	48.9016260850745	-79.5566286907105	64.8354256593939	-21.8148866266502	-0.477490276553337	
2536666666.66673	-13.858290949124	-56.5665336936531	-60.8423809593301	35.3794493465236	-80.1260060911611	-51.1794118262812	-21.8643573705037	-1.7082338225497	
2537000000.00007	-13.9141508288149	-56.8153996711421	-61.5342481933518	25.3791099578871	-83.4818569028761	169.928113093677	-21.9158837650634	-2.88147540163914	
2537333333.3334	-13.989724824445	-57.0517246034344	-63.6897160262258	20.5949790354341	-80.8486001010904	-49.6859468926713	-21.9469513351349	-4.03336317009535	
2537666666.66673	-14.0443754284389	-57.3551227408032	-62.7226839565562	0.180564877113461	-91.5455797319124	-108.884802291538	-21.9806520198033	-5.19144849398119	
2538000000.00007	-14.1307047990753	-57.6110739886492	-64.9724517592406	-10.2296007314527	-83.1829051633136	-156.028242311016	-22.0256876272313	-6.26603477593577	
2538333333.3334	-14.1917689891951	-57.8024422111597	-62.6035483417107	-9.64679308130198	-76.5505981641221	-107.746295417544	-22.0267971656217	-7.78719712599417	
2538666666.66673	-14.2815433312842	-58.0843552719436	-65.1966580356654	-22.9476361554509	-92.3849787865593	13.7420411019366	-22.0360613279346	-8.90243820868525	
2539000000.00007	-14.354296281489	-58.2826580108849	-65.2862810012551	-26.6868860173922	-75.152290356929	-23.8512152993098	-22.0426763994692	-10.3160777120876	
2539333333.3334	-14.4309205760025	-58.4908878596216	-68.289815386085	-45.7823336222311	-78.3830221870517	22.4650654312276	-22.0444654478398	-11.6827275162264	
2539666666.66673	-14.5301979262464	-58.8702165650871	-68.6455046874187	-51.0340528067971	-79.1812520969333	-145.893321274526	-22.0336950380386	-12.9487296194498	
2540000000.00007	-14.5998696792086	-59.1112431935663	-69.8539167681278	-66.672835215617	-83.5884588894274	-72.7838692220166	-22.021729160032	-14.2597506053462	
2540333333.3334	-14.689620335427	-59.4149766437075	-68.2725730137051	-57.1898235000364	-79.4848298670431	-145.277774487555	-21.9963186179013	-15.6515965990653	
2540666666.66673	-14.7767221494741	-59.63705626609	-67.8221981084676	-47.7936834179126	-77.5803639414199	103.219345099248	-21.9724892733616	-17.1499961865406	
2541000000.00007	-14.8658422528015	-60.0022935139725	-70.3856399500857	-66.4250987279317	-91.5400829149214	-176.748421050525	-21.9587214770548	-18.3595505568762	
2541333333.3334	-14.9419120126696	-60.3374858309105	-68.2100746894823	-86.3525943091137	-77.2266027463135	-16.7506444677223	-21.9279310693034	-19.897215329328	
2541666666.66673	-15.0227753261981	-60.6740147420741	-72.400433439231	-61.7687909553163	-73.1658841289277	-94.3688471248113	-21.8812274984762	-21.1535150961363	
2542000000.00007	-15.1239501754997	-61.0823401460106	-76.1109894258815	-45.9489564446003	-83.5617724210434	-111.050389432191	-21.8416715663002	-22.3736480463862	
2542333333.3334	-15.2243607742255	-61.3331820623056	-68.2275515169578	-80.8283709667894	-78.2976036244507	157.786324435318	-21.7961480107269	-23.841149703017	
2542666666.66673	-15.3044420451573	-61.7387360231004	-70.4533318405383	-46.4215473329594	-77.3843345576111	49.2167991363867	-21.7166720464105	-25.0984344297772	
2543000000.00007	-15.3918105909661	-62.0656753884332	-67.3720756829677	-75.7245797157277	-77.0365530727051	-24.6874492652248	-21.6670238227801	-26.4695949536457	
2543333333.3334	-15.4953624512002	-62.4624789014549	-67.366282052297	-84.1960650256667	-77.6443698153291	93.8701691818785	-21.5931799730906	-27.6804881771512	
2543666666.66674	-15.5896515962867	-62.8049292054884	-65.9435312200575	-101.291182951784	-72.5786349652544	-17.5871052365845	-21.5213463790073	-29.021534629794	
2544000000.00007	-15.6812584808663	-63.1745487485388	-67.6264800431643	-100.502625407596	-80.0260022787805	-143.719567005592	-21.440562828067	-30.2054078024421	
2544333333.3334	-15.7916666887907	-63.604297227668	-71.9337334286964	-105.236640676279	-80.0057381484295	-48.6926460054336	-21.3615798683978	-31.3894132068367	
2544666666.66674	-15.9012307396852	-63.9755024030235	-66.2657997302876	-108.453438348391	-78.3262147892293	-162.078722736269	-21.2720958523534	-32.7754622763101	
2545000000.00007	-15.9994421251465	-64.4278107055065	-65.1040440339054	-110.844387628043	-82.5229903984716	-101.313551267435	-21.211656241248	-34.0245227424985	
2545333333.3334	-16.1117083779345	-64.8260240497729	-68.4679786683474	-103.888583119756	-77.08331340295	176.660087414784	-21.1417976638326	-35.1291534574039	
2545666666.66674	-16.2228616957732	-65.1435284954869	-65.7110954637105	-121.866489907496	-78.3941331754227	-4.29752859409745	-21.0661402152823	-36.3867130342435	
2546000000.00007	-16.3239600201854	-65.6989614605283	-64.9346174097313	-143.053748835315	-90.0982127263168	34.8111901834352	-20.975598179588	-37.5453218473924	
2546333333.3334	-16.445133951067	-66.0714878504391	-64.4945467259879	-112.728141738075	-81.1498130337836	92.6666044120198	-20.8903447174557	-38.7718433192554	
2546666666.66674	-16.5269371221205	-66.595553294378	-64.8240400772555	-134.844364710202	-75.8269319064138	-86.172266138905	-20.8301674942692	-39.8832655713336	
2547000000.00007	-16.6512769765444	-67.0903872479619	-64.8150199684458	-142.781666079978	-82.4413160276301	19.5810285914448	-20.7846991985851	-41.057535743712	
2547333333.3334	-16.7490378735084	-67.6871569964257	-61.3409354378845	-168.021941010858	-78.7221686361632	-158.151379299301	-20.7320869734111	-42.1706234796993	
2547666666.66674	-16.847858313172	-68.1885727210836	-59.749627871058	-169.337218553541	-102.292052803057	24.911017615851	-20.6856572667244	-43.2211165548929	
2548000000.00007	-16.9445261496184	-68.8820766234917	-61.6808544738212	-179.631060185449	-82.7521175824135	-102.232821726084	-20.6489569680566	-44.1463064892392	
2548333333.3334	-17.0374795568765	-69.4346174633748	-61.1123714276576	163.738421525219	-74.9770428440967	161.506639381604	-20.606869095894	-45.2182611410145	
2548666666.66674	-17.1418684029658	-70.0956551937568	-59.8060822761091	158.02401362249	-91.2321814842683	-61.9904875126902	-20.5911361566525	-46.2015119023972	
2549000000.00007	-17.2373390254462	-70.7855870352458	-60.2105000598643	154.060351803048	-73.3459937809454	-65.7695221540918	-20.5719712866377	-47.1438779674277	
2549333333.3334	-17.3241831146906	-71.4860967998377	-60.0696572015039	141.562675976109	-82.6393887136157	104.411876158604	-20.5570054296548	-47.9998258518907	
2549666666.66674	-17.429874898315	-72.149527467154	-59.3980386714138	126.108030103193	-78.8844848280534	155.88383255342	-20.5560311843855	-48.852494519882	
2550000000.00007	-17.5086965698544	-72.9799002080391	-60.0116505251141	113.101037181833	-73.8608131593808	-81.5665957781885	-20.5570761884661	-49.6034328765824	
2550333333.33341	-17.6057577573314	-73.8286520951086	-60.446307400708	105.437288291947	-80.0393048032805	65.8416862442696	-20.5836091905296	-50.3880639095275	
2550666666.66674	-17.6756609091556	-74.5673971587136	-59.6209740738457	103.993355622537	-73.9289560284295	11.6957592073702	-20.592563510753	-51.0159125366571	
2551000000.00007	-17.7654433998175	-75.4364520234153	-59.1194221438453	94.1293300733927	-77.2725297261328	42.3075055816959	-20.6146500110753	-51.6324222970033	
2551333333.33341	-17.8400871662091	-76.2711933650608	-60.5479349458323	89.2739429850162	-77.0097668123963	-43.4153323030416	-20.6490346800884	-52.2088025206339	
2551666666.66674	-17.9322977879855	-77.1650717896686	-59.0649407507822	76.2444290627945	-90.297305861841	150.693847301472	-20.6894237776195	-52.6471813371492	
2552000000.00007	-18.0277926559714	-78.052771381038	-60.5465727759296	55.7750940370779	-85.6417973648055	-156.81265896992	-20.7240528025726	-53.0875092108167	
2552333333.33341	-18.1032479887476	-78.9010918831274	-59.999921559072	57.725417625155	-75.8925665395985	159.250932380808	-20.7759962336431	-53.485604596955	
2552666666.66674	-18.1786017612349	-79.8513928325558	-59.6904321493286	49.9668358331741	-79.2676973950173	19.7848391666452	-20.8459466667059	-53.6875002045636	
2553000000.00007	-18.2529128017797	-80.8127746250165	-61.7082929658049	27.1589421980061	-79.796821562842	-117.648063889405	-20.9401353963481	-53.8797656467209	
2553333333.33341	-18.3390238910642	-81.7513194473397	-59.63562571954	40.2750403580465	-81.4157927911064	5.26052982451064	-21.0307257167806	-54.0750691551914	
2553666666.66674	-18.4090648499835	-82.7038652140247	-61.717945595275	23.7402383016088	-82.2256976495315	166.939367482477	-21.144047729221	-54.2534170732438	
2554000000.00007	-18.4804084048247	-83.7553556141856	-59.3584656545433	11.1099521057957	-79.9436161292411	42.6117971946601	-21.2328651984959	-54.1011066515358	
2554333333.33341	-18.5291671967024	-84.6671576445317	-60.4659060251284	6.31546024538369	-80.5918784022319	49.8528036568386	-21.3683567956279	-54.0210976925965	
2554666666.66674	-18.5909742516439	-85.7508122807807	-59.7578133328616	2.51792991417846	-72.606255755124	128.61470573633	-21.4957976472004	-53.7059008800867	
2555000000.00007	-18.6480941690877	-86.7661458477376	-60.2073836191221	-15.3771541916995	-85.1926416571528	-105.04381205893	-21.6363786893328	-53.3045062840394	
2555333333.33341	-18.688135407306	-87.722153878574	-58.5510636474136	-24.0750760912161	-84.4536972909729	-12.4125426567471	-21.7816075477908	-52.8430521152931	
2555666666.66674	-18.7434268807729	-88.819955119801	-59.0354423361592	-35.6863783767778	-88.4042159170114	42.5952509403446	-21.9200066080851	-52.1949404805574	
2556000000.00007	-18.7683728066883	-89.8641410080843	-60.3378608645095	-32.3850491409332	-74.877486355103	45.937383124629	-22.0548990958463	-51.2616894848491	
2556333333.33341	-18.8129049945062	-90.884046083374	-59.6371005281823	-52.1791350690525	-89.1486735228603	-140.18518587496	-22.2086705167783	-50.3399747279939	
2556666666.66674	-18.8276464421814	-91.9069882791622	-60.7157035402162	-56.7504126651847	-88.3480559659753	120.526078546135	-22.3494559754992	-49.2075335453824	
2557000000.00007	-18.842207676097	-92.9228388506424	-60.5025774589776	-79.3862838628716	-81.2888978515808	-57.4900031683459	-22.496995331232	-47.9137374785576	
2557333333.33341	-18.8591825977587	-93.9070414410764	-60.9874536414603	-71.255657433166	-74.962491577549	-136.657971908906	-22.6412180088993	-46.5851629257834	
2557666666.66674	-18.8694937782421	-94.9482368812045	-61.5611851222788	-88.6166831585223	-73.0680258820912	-26.0099159136337	-22.7551740807372	-45.0311626039772	
2558000000.00008	-18.8804539792923	-95.885350715521	-60.0088910207431	-97.1171770155626	-84.5526620362999	-7.45003517090099	-22.845695889054	-43.1144841867202	
2558333333.33341	-18.8750629030393	-96.9606438934799	-61.2308222070055	-103.766638971616	-85.7723201991986	146.140194626188	-22.9481487493958	-41.479300383413	
2558666666.66674	-18.8726507222727	-97.8277899688433	-62.1776554029717	-102.545580676544	-79.1604485051981	-74.8097365415575	-23.0137518740504	-39.3863489012691	
2559000000.00008	-18.8693205179088	-98.8176277309163	-63.6296389610597	-106.102375964012	-79.3162623363029	90.4225751411972	-23.0240444381354	-37.3230678943398	
2559333333.33341	-18.8499055397016	-99.802495866592	-62.0289964650933	-123.426819899619	-87.2446163962724	-38.4453879252129	-23.0471906486321	-35.2842117314232	
2559666666.66674	-18.8277557648684	-100.75098344501	-62.4953520819446	-127.839783883013	-82.4488094906484	95.4951279573387	-23.0299865303154	-32.942956952928	
2560000000.00008	-18.8191682718074	-101.579643480064	-61.915029226787	-127.547493470563	-78.4012430047252	38.9316529456213	-23.0010416379023	-30.954142612206	
2560333333.33341	-18.7810771678817	-102.499897231528	-63.9458288009204	-141.396044436829	-93.8386700232499	-122.985285983438	-22.9065566049488	-28.77838175308	
2560666666.66674	-18.7587257379739	-103.364503453241	-63.0810107899731	-134.619113931647	-79.3142897445372	-139.660054196868	-22.824019314585	-26.6670630345783	
2561000000.00008	-18.7093713896709	-104.300716440288	-62.8706649555527	-152.253280240684	-75.2335854195882	35.529198261445	-22.6746423687969	-24.5262668232895	
2561333333.33341	-18.6702716413689	-105.197158287395	-62.1501623891115	-154.990502191927	-86.1526888946439	174.350020387225	-22.5431597463465	-22.6242503586897	
2561666666.66674	-18.6263988115112	-106.116013803227	-59.7257499720628	-159.267514751268	-94.4063194894908	14.7088015209728	-22.3830217545935	-20.8509679917533	
2562000000.00008	-18.5694376043577	-106.846337968631	-59.6740314868268	-170.956574163476	-82.2545710676366	-170.132004858689	-22.194859598239	-19.1604806255325	
2562333333.33341	-18.512297835495	-107.770238786682	-59.9931728277094	-171.956369020389	-78.8826838271824	60.9532363940389	-21.9919682127934	-17.6025484857975	
2562666666.66674	-18.452158361468	-108.490163739193	-60.1282524410124	179.868864532436	-81.9275782205723	173.280272842662	-21.8112430939891	-16.0139239877268	
2563000000.00008	-18.392654914005	-109.242821405879	-60.0223147075341	168.901443330877	-84.1460558016314	51.8408081025737	-21.5838857960435	-14.7852519164823	
2563333333.33341	-18.3433454777464	-109.982351282712	-58.3274656124275	164.444989943605	-88.1540202810577	-68.5682792288236	-21.3821855909988	-13.4735835714069	
2563666666.66674	-18.2687848794949	-110.669641344305	-59.3083165881894	151.719617994663	-77.3504369229478	-56.9697706940332	-21.1708056694853	-12.4524357370034	
2564000000.00008	-18.1894957292506	-111.457598729629	-58.4697046639052	137.981488095939	-87.0906314336211	-26.9719176110942	-20.9534010702684	-11.4004764751246	
2564333333.33341	-18.1274525713667	-112.113641470458	-58.1773233735922	131.055537530247	-88.7939895444545	-32.1621318082349	-20.7577699931264	-10.5497661891229	
2564666666.66675	-18.0596562320594	-112.804089909944	-57.7177787893984	123.497593233595	-89.991284056927	-66.641994992732	-20.5654054969309	-9.88735245504865	
2565000000.00008	-17.9844473273714	-113.482362212593	-58.9979241604053	118.246212517319	-79.0585165629908	-8.63613488290335	-20.3574360309999	-9.34257271868122	
2565333333.33341	-17.9101277592473	-114.148314796332	-58.4217897306756	105.485773068877	-77.1985858698849	160.914329558081	-20.1844689678897	-8.83527987113221	
2565666666.66675	-17.8441490295998	-114.768824810323	-58.5838258139778	93.8107858495871	-77.7746057707404	-98.0903520739901	-19.981649954109	-8.55841333918707	
2566000000.00008	-17.7744987649013	-115.376583065571	-58.3972727942282	89.4838591272234	-72.7509148461787	53.3757150175748	-19.8427934786563	-8.20491785384729	
2566333333.33341	-17.7098412873027	-116.018095916618	-57.720047985109	76.5306530946662	-96.4784708762191	113.544720368692	-19.6724361619257	-7.96245712248071	
2566666666.66675	-17.6273794754883	-116.70443280835	-58.3736835654708	67.696279084241	-75.7440645232995	-6.5365386242708	-19.525957017573	-7.62014400543608	
2567000000.00008	-17.5684444898425	-117.302441088718	-58.3272810268229	57.4093241975754	-78.350942538546	-157.675893306373	-19.3789100682842	-7.60890080094899	
2567333333.33341	-17.4995128962755	-117.95169225752	-56.70903889277	55.5412288549682	-82.1388206905472	170.491419390018	-19.2788958027608	-7.70715716868733	
2567666666.66675	-17.4282440757921	-118.474849018644	-57.4232703386099	49.1957943769467	-77.5880094403993	17.8703844777323	-19.1398019806994	-7.58907732682866	
2568000000.00008	-17.3556061907567	-119.169922903373	-56.1754789677768	43.5017190866226	-98.7255518082414	97.1445855301141	-19.0538263848664	-7.58608091262809	
2568333333.33341	-17.2820026250841	-119.758870400645	-58.9867541450444	28.3009584091351	-81.9506570415547	-143.929249180843	-18.9534933664124	-7.70347529709333	
2568666666.66675	-17.2120673110254	-120.21130994024	-57.2987812901988	20.3068858269448	-77.2152180674621	-29.4789031439298	-18.8781054115589	-7.84574226926221	
2569000000.00008	-17.1381544731648	-120.821494895363	-57.4402315175443	7.85879017970181	-84.5759399106479	16.3619389984537	-18.800919259341	-8.01436336693011	
2569333333.33341	-17.0721611249041	-121.464881129663	-57.0400382172198	-6.25466537328625	-87.1375202282096	-126.040418631724	-18.7553989497884	-7.98337721990345	
2569666666.66675	-17.003144861735	-121.990357801239	-58.4020301323039	-13.7489716082196	-83.597209551204	107.792813970957	-18.7424147134634	-8.34029953265385	
2570000000.00008	-16.9386440916788	-122.520586049489	-57.6594413537167	-21.6208442084199	-79.9009577111931	138.715651670058	-18.7021173918994	-8.63038134378423	
2570333333.33341	-16.888008932303	-123.155565698572	-56.8132391511766	-34.6056029399035	-81.3401114021625	-60.9988423930571	-18.6857485251142	-8.61574542827361	
2570666666.66675	-16.8335154815963	-123.664195949701	-57.3544207563198	-52.1325494980488	-84.7040571326983	-23.438783719508	-18.6858533485047	-8.94446362502	
2571000000.00008	-16.7852382343737	-124.32607717528	-57.7955783499924	-58.6331033180229	-71.4609326455908	-75.4742576954926	-18.7158455665585	-9.06314037106439	
2571333333.33342	-16.7344740135957	-124.87007943139	-57.1012309732118	-67.686613096794	-90.2947226858014	-141.481262677566	-18.7397556142336	-9.13079047181207	
2571666666.66675	-16.6994068559975	-125.460418080559	-57.7637130389413	-76.4530562702807	-85.6261992019358	-97.5483005532555	-18.7718925212932	-9.46277842296078	
2572000000.00008	-16.6513321843753	-126.004177339663	-57.3550630103634	-84.246218215357	-80.9404213727648	-88.9447467309295	-18.8349119148792	-9.5773684147137	
2572333333.33342	-16.6173133427902	-126.605221749264	-57.997185854909	-95.692311428075	-81.1166513281392	153.606576376548	-18.9125353922329	-9.68123676035176	
2572666666.66675	-16.5809803887001	-127.104781735999	-57.6046575628358	-110.58605450356	-95.386225190326	-30.8452628198906	-18.9984963771422	-9.77390934141395	
2573000000.00008	-16.559180117364	-127.731590328623	-57.1396034968914	-118.819674246339	-85.6137843840926	81.7308524768544	-19.0948882070673	-9.74955426366894	
2573333333.33342	-16.5335809138911	-128.208878184633	-57.5642707661812	-121.593220855451	-84.7085652069117	149.165792150326	-19.2162045862642	-9.68878258140948	
2573666666.66675	-16.4887888484728	-128.947208819508	-57.6828431529784	-142.504330182208	-79.9439631669665	108.746291660355	-19.3409053930623	-9.70715640934152	
2574000000.00008	-16.4753944766174	-129.439395822626	-57.1295409879558	-143.222368299072	-76.331368384572	-35.8179541463797	-19.4821143627157	-9.45251253073286	
2574333333.33342	-16.4402842771862	-129.916571836875	-57.3539872592231	-150.704568523663	-75.8049524755235	170.042359450055	-19.6068401496805	-9.19516221442395	
2574666666.66675	-16.4273405416616	-130.647819996376	-57.0493629693526	-168.11887343256	-89.1170026943764	-111.909268118465	-19.7542317206947	-8.70287459203312	
2575000000.00008	-16.4082194977758	-131.178385174618	-58.7308294842168	-178.873312978169	-88.5653451314309	-149.307068369941	-19.9208386213208	-8.17239068659875	
2575333333.33342	-16.4005626124046	-131.738301595428	-56.9540864372986	168.718481609327	-80.9851519200464	-120.276226629295	-20.0768510407851	-7.86720185864407	
2575666666.66675	-16.3836299386042	-132.362851573084	-57.7582782455636	159.155624714233	-76.3035819472952	19.2390072142969	-20.2517384823896	-6.97459880311282	
2576000000.00008	-16.3846786407845	-132.916401937861	-57.8400458171153	149.566865725446	-79.6953609724831	171.200550040554	-20.4437746194525	-6.26079751599236	
2576333333.33342	-16.3883128688037	-133.55926759428	-58.203989762106	134.238557393955	-90.2388488943679	-33.66702073254	-20.6094639749704	-5.4985391841958	
2576666666.66675	-16.384251060024	-134.273403108696	-59.3472576056696	130.071020847849	-77.2354917732941	90.5588586078263	-20.7918442439938	-4.437410998882	
2577000000.00008	-16.3980168612579	-134.83512162177	-58.053172689642	118.286882406206	-78.0936331982951	-95.2780226734656	-20.9575969219542	-3.36584897747529	
2577333333.33342	-16.4242505367049	-135.560654279945	-58.6774659824395	113.379565497249	-87.3689180894754	58.0300983744866	-21.1239734579185	-1.97582390920974	
2577666666.66675	-16.4531935570291	-136.242684081962	-58.8514315534888	96.6649114742872	-81.1657222293968	-131.563388430691	-21.2637432387336	-0.882314735228499	
2578000000.00008	-16.46881134244	-136.853566073662	-59.6811528579352	80.6408219629648	-92.4182696692575	-44.1749541011713	-21.4092763070753	0.698074456998666	
2578333333.33342	-16.4945462661687	-137.431629685469	-61.0971591438252	71.6085683224915	-91.4818242647046	109.041116273781	-21.5344228583796	2.20342727922045	
2578666666.66675	-16.5341459544386	-138.139740915845	-59.5561336625471	60.3767704394478	-77.4827323391273	93.6848403220079	-21.669605412224	3.65745886406624	
2579000000.00009	-16.575745355921	-138.805851236576	-61.5259317774686	54.9541689749734	-93.6660181770861	113.561592776564	-21.801747036956	5.47820266322322	
2579333333.33342	-16.6332025599465	-139.511432500622	-62.3845758198208	36.9953289790322	-86.6033039801272	170.675705935954	-21.8844610708278	7.17710998464514	
2579666666.66675	-16.6735408850631	-140.220817321902	-63.5106390472058	28.6081135323916	-80.2666372760296	18.4621203218199	-21.9237987777858	9.13671141363338	
2580000000.00009	-16.7384006550013	-140.916723869355	-63.2729955183823	19.7533861275995	-74.5251344466939	66.1745162038791	-21.9910888659883	10.9214394799795	
2580333333.33342	-16.794312787952	-141.63762690505	-62.314836309463	25.840649703409	-82.1975837082417	-84.5572858996845	-22.0260075621386	12.6500043309332	
2580666666.66675	-16.87102487366	-142.397009765198	-69.5514056593839	8.63824049532798	-83.1116993617863	158.513701164085	-22.0264085002858	14.4535234542052	
2581000000.00009	-16.9262413970826	-143.13100281264	-63.2855925424624	3.23738233782843	-91.9677179522772	-101.414269788324	-21.9946756797782	16.1853115628851	
2581333333.33342	-16.9994132212246	-143.866531424385	-63.0354873727146	-23.4653153126786	-75.7321692651249	139.648161116903	-21.9467717123296	17.988951448935	
2581666666.66675	-17.0700841084207	-144.627388230329	-61.9425458485442	-23.5502346632053	-89.1925666349064	-63.0529328372051	-21.8860453139985	19.2291185950205	
2582000000.00009	-17.1472520936921	-145.512597026867	-65.1332552094246	-28.5304137679542	-79.3691234209335	-62.7048928966683	-21.7984685651481	20.7775904174073	
2582333333.33342	-17.2578540602296	-146.100575870012	-64.2620099800077	-38.2049349557327	-80.6047222225311	156.685014602989	-21.7200910901302	22.2468099647977	
2582666666.66675	-17.3019134541683	-146.92566867461	-64.5742046870833	-31.7604678536651	-82.4142523037872	5.34772474130786	-21.6302196656615	23.3413046636622	
2583000000.00009	-17.3837140705469	-147.789903153717	-62.6918638448927	-66.311191050087	-74.146424277789	-35.7458097701618	-21.511612465392	24.35563436844	
2583333333.33342	-17.4826167823089	-148.454385691458	-66.9255790015847	-60.8549599666155	-81.59960074911	-143.443698465466	-21.4152805288698	25.352445458359	
2583666666.66675	-17.5754084446459	-149.167878073343	-63.7803802485079	-91.1735418261195	-79.9375882722695	158.035171764039	-21.2860627197396	26.0750132858273	
2584000000.00009	-17.6904810151392	-150.035763190025	-63.0157192387347	-84.5998309188587	-85.1242007296219	72.1907370836642	-21.1698716710094	26.8976001626666	
2584333333.33342	-17.7674981881484	-150.818285130406	-65.6413353833182	-100.533983125228	-77.0697828215763	-77.8603647051431	-21.0481704315726	27.2439200094038	
2584666666.66675	-17.892014200457	-151.625320997553	-62.0988767160799	-104.622050934701	-81.5000698450454	40.2175831725269	-20.9368713040858	27.6891700478153	
2585000000.00009	-17.9998886864162	-152.498168956282	-64.2369412365032	-115.596257542508	-80.2781528399748	-38.8871292568994	-20.8231059497323	27.9702722226899	
2585333333.33342	-18.1208671930021	-153.308191365171	-66.5425491322666	-106.94351905276	-77.7804363374487	-15.7673641858644	-20.6815733101396	28.0452252030583	
2585666666.66676	-18.2256534313627	-154.241364617656	-65.5237231104697	-126.38179269473	-72.119281679553	-119.865486435563	-20.6122994194362	28.0342067871197	
2586000000.00009	-18.3289335937091	-155.032695407418	-64.5910353080024	-151.703032304427	-73.5747478301006	168.710988504902	-20.5119484696928	27.9874483850142	
2586333333.33342	-18.4429451360274	-155.95761819843	-63.6802904595268	-165.446903026691	-81.5043599648857	-119.421159446932	-20.4389026100641	27.4913055105412	
2586666666.66676	-18.5826841084491	-156.888042543442	-70.1490514708869	-175.164319113633	-89.3796693166015	-108.151811015808	-20.368863882461	27.3650781163725	
2587000000.00009	-18.7064452785804	-157.716840848719	-67.9309232211284	-139.672134552708	-87.0725652344269	95.4953270313752	-20.2871842044382	26.9816539890274	
2587333333.33342	-18.8360265278813	-158.592716378353	-70.9050882718686	175.07642634978	-76.5621969591181	48.2117737081465	-20.2551430417496	26.4127223611262	
2587666666.66676	-18.9552953770095	-159.641882787041	-70.1403888092202	-162.413464497879	-84.9509109847445	90.1970653652448	-20.2156893421683	25.7573408335303	
2588000000.00009	-19.0812052394531	-160.586763611129	-68.1608237183126	164.878803415167	-77.1337737722616	5.18921819423375	-20.186712707074	25.222815068223	
2588333333.33342	-19.2167360793521	-161.532735445259	-67.1172869008156	157.583915511198	-78.5517247466633	69.3465085389573	-20.1606953798643	24.1815969682108	
2588666666.66676	-19.3529752173604	-162.473882721448	-67.9891624942339	141.771075656571	-73.346638056865	-127.803569489507	-20.1643270247598	23.3721695717897	
2589000000.00009	-19.4764699123582	-163.386940678892	-70.7240730500385	133.7494127921	-80.6445874187106	163.142158865084	-20.1806683524031	22.6255918085318	
2589333333.33342	-19.5979198228351	-164.397338909451	-71.45587724697	120.172941976697	-79.1409008246401	156.099332094788	-20.1940792174866	21.5785572732132	
2589666666.66676	-19.7456090849279	-165.463507734554	-66.5833740470717	118.737032946731	-78.1380036026247	151.780774561787	-20.226685452249	20.5678420882028	
2590000000.00009	-19.8535795141929	-166.557497549634	-67.0506191879611	104.627839193148	-80.292679999645	4.82165659794563	-20.2940936144139	19.4520480623407	
2590333333.33342	-19.9700946891965	-167.642085422291	-67.6191976436377	72.6168937318725	-76.9471846154589	-139.712255785574	-20.3546748278784	18.2444794584616	
2590666666.66676	-20.0912799125359	-168.659551471023	-75.3997574263234	117.94276736392	-75.2304855754941	141.648170465829	-20.43968486002	17.1505968158128	
2591000000.00009	-20.2228451550504	-169.828278375701	-74.1178856459861	72.9906122864508	-76.5519288618601	-168.610070015554	-20.5231539540373	15.8547162211051	
2591333333.33342	-20.3262072502648	-171.089961534379	-69.592231026979	53.0521133258646	-78.1600581303958	128.584558640032	-20.6382516120369	14.7305405926351	
2591666666.66676	-20.4482149815137	-172.309104151933	-70.3865383343262	64.0342935943007	-75.9614827728673	-51.5473809089765	-20.7527429605408	13.3439234848519	
2592000000.00009	-20.570510874735	-173.669844162424	-69.27944810012	53.0205717293073	-80.2259600707164	-41.3442413399558	-20.9032749655441	11.9443140278062	
2592333333.33343	-20.6706294264822	-174.993609500886	-72.0300702560797	-7.17498588118446	-82.2675340465335	166.430684614187	-21.0531407322842	10.6799676794826	
2592666666.66676	-20.783585121373	-176.20264770116	-72.1819828844236	9.41048450569787	-83.8740490884842	-80.6865814144344	-21.2046209192773	9.18048220512478	
2593000000.00009	-20.857039513041	-177.51913588952	-75.9374559469998	5.58965948990499	-77.3491800993874	-65.7942702853625	-21.3770290111047	8.02604916716694	
2593333333.33343	-20.9590264518966	-179.066206486363	-75.1675500286214	51.4409424772537	-86.1299114085797	124.514498299721	-21.5526718810933	6.45006365324305	
2593666666.66676	-21.0368954013045	179.523472606544	-70.4615174041201	8.8964942113488	-76.4435560113499	-142.696042341845	-21.7579073516386	5.06291936197237	
2594000000.00009	-21.1112878202848	177.933314374486	-77.5226585252127	20.5849061004893	-82.9841195871374	85.7635212523492	-21.9677103613339	3.59072645682458	
2594333333.33343	-21.1876963534585	176.507710568963	-72.5994820714602	38.8716555330027	-76.8125035138833	-51.8860994168767	-22.1949720658808	2.09457239393909	
2594666666.66676	-21.2317577277439	174.890590796769	-90.6060990976691	-0.347174882128093	-86.99274263044	-164.031081086783	-22.4429742261147	0.593592425245492	
2595000000.00009	-21.2684762435913	173.371591931701	-74.802612851025	11.4773342654036	-85.0144282880686	-90.5367012039679	-22.6579887159848	-0.96492091292762	
2595333333.33343	-21.3306479267115	171.844573495662	-81.520921791085	171.714466513898	-77.3101041593909	-107.558557700493	-22.9121486563123	-2.33192254174291	
2595666666.66676	-21.3396833999102	170.192796777116	-81.3305105704119	-54.9171469552369	-79.8800782006813	-10.3850557954634	-23.1951643082831	-3.80144076856039	
2596000000.00009	-21.3580281473129	168.408862431751	-69.6785823129339	-3.06983287844413	-73.3072417105924	160.86604272262	-23.4749898551896	-5.35095496038362	
2596333333.33343	-21.3701542926477	166.705544022188	-68.0692067835844	-9.83972895018061	-79.4495114873455	165.114033313543	-23.7635247744965	-6.95016718672204	
2596666666.66676	-21.3852926445787	165.058614999135	-66.7567327640912	-20.0642230502986	-76.4170077506242	-87.3819660638402	-24.0741830281065	-8.46364552932702	
2597000000.00009	-21.3494060392435	163.359906948797	-67.1525367433306	-7.24185705850517	-86.7874026399335	-124.238054694919	-24.3938573970613	-9.699239259799	
2597333333.33343	-21.3279097658826	161.702406589054	-65.6979192724496	-35.442418443193	-75.3155451598173	-130.931027356286	-24.7189020777512	-11.1946717255086	
2597666666.66676	-21.2750255333993	159.75542992498	-67.279282940648	-35.4640607290172	-90.6321808048647	-35.6398305886021	-25.0848234530813	-12.6853257833583	
2598000000.00009	-21.2440951276533	158.002198918913	-67.4183806289111	-52.283089644311	-77.32128781821	-93.9211000551161	-25.463446251873	-13.8187846679755	
2598333333.33343	-21.1754176854679	156.212630245684	-69.4117911078263	-76.1454907794812	-74.8399674360791	-149.56429253339	-25.8232415904077	-15.0022670019913	
2598666666.66676	-21.1035473139875	154.54531563425	-67.3868890717936	-111.347377229985	-75.4544806905118	170.054288062643	-26.2232937649287	-16.0408999547785	
2599000000.00009	-21.0433368639187	152.820626228115	-65.7749152378365	-100.08392304251	-83.4291152830848	-139.10004174724	-26.6098461975427	-16.8611219148758	
2599333333.33343	-20.922544924686	151.001689869645	-66.8482162129357	-136.312026812611	-78.2580976987666	125.752124235306	-27.0315681310212	-17.3650689941006	
2599666666.66676	-20.82337392081	149.349257719802	-66.0557842325498	-133.963309972685	-87.4394909628522	-82.5142589009989	-27.4312401111218	-17.8991195232423	
2600000000.0001	-20.7188999902486	147.716333542409	-67.7929461999176	-165.610335304299	-76.2804478737275	92.7688563068263	-27.8832590334704	-17.9731126771164	
