!Agilent N9923A: A.05.34
!Date: Friday, 25 March 2016 21:52:10
!Model: N9923A
!Serial: MY51491690
!GPS Latitude: 
!GPS Longitude: 
!GPS TimeStamp: 0001-01-01 00:00:00Z
!GPS Seconds Since Last Read: 0
!CHECKSUM:0301640952
!Correction: S11(ON U*)S21(ON U*)S12(ON U*)S22(ON U*)
!S2P File: Measurements:S11,S21,S12,S22:
# Hz S DB R 50
2400000000	-16.6181238415721	173.783189241922	-66.2504449396019	127.291253153486	-76.0093463809882	146.711731907207	-18.9103402377555	2.97774756170832	
2400333333.33333	-16.6619014880912	172.724549439682	-68.347133312612	132.686273774598	-82.7418621010937	-0.552293116589135	-19.1289284819558	1.73504172799518	
2400666666.66667	-16.6864949985102	171.683854904631	-69.5911411279125	123.780007504743	-80.5699570821267	20.0982316637618	-19.3918491906667	0.749435465451334	
2401000000	-16.7398626835151	170.593547526757	-68.3939047326743	97.3704479346016	-76.8509897153188	164.799153237355	-19.6464796799861	-0.453268064467615	
2401333333.33333	-16.7994082709958	169.323532655307	-69.1220030965798	84.4223166448895	-78.4855672062405	0.564263760896959	-19.9323927705972	-1.54378008686757	
2401666666.66667	-16.8486224007566	168.175771713553	-72.0182439736119	73.0382607061003	-86.3824218950513	-49.2537294793647	-20.2449379110442	-2.63169520817578	
2402000000	-16.9014416370584	167.006487186744	-69.6180746653775	83.7391553195319	-85.1320751485986	-46.1966464402301	-20.5649818088785	-3.80553714521118	
2402333333.33333	-16.9792704012424	165.88027265597	-69.7039041137986	57.5789365432121	-76.5348553356603	-174.690196003595	-20.9354708013274	-4.87052271108277	
2402666666.66667	-17.0235002901683	164.542462011291	-78.6052879917386	15.4938825719605	-96.2660249054667	7.06777900891898	-21.2889118299782	-5.92239827069138	
2403000000	-17.0771424144721	163.465635616515	-80.7320144084235	1.43556120244725	-78.0553596849776	-93.3212951894493	-21.7008325473754	-6.93804356642802	
2403333333.33333	-17.116596695635	162.142539823291	-67.5706673999354	-12.6551677460339	-82.6400004510578	-157.045956084661	-22.1386120781001	-7.97982335565313	
2403666666.66667	-17.1622842417688	160.892501545031	-72.0075064380971	-24.4624665299563	-90.6402182786941	73.8752149770186	-22.578537822775	-8.93268646894182	
2404000000	-17.2109552477244	159.72740553671	-75.1407445724833	-35.4756061664958	-80.3482791392918	-2.60502357450864	-23.0766078396837	-9.89659942860171	
2404333333.33334	-17.2784556842509	158.398205543623	-74.6261456079151	-58.4543345417071	-81.6342885411939	111.033595118626	-23.6089099083296	-10.7695184812732	
2404666666.66667	-17.3153912901265	157.218877796432	-74.9957339081927	-67.574742691448	-89.0717324921592	-44.4937864284345	-24.137594111853	-11.7204306806621	
2405000000	-17.3554088344579	155.890802591334	-72.9052672974933	-102.770789080861	-81.1228994961916	53.4685665427932	-24.7149860905927	-12.261683931755	
2405333333.33334	-17.4036306287631	154.756854232045	-77.8623278671099	-53.6231241172485	-77.2478792384966	-178.143850206271	-25.3465147141402	-12.9549533857524	
2405666666.66667	-17.4373680138803	153.413665739476	-80.0976492746569	-122.680484807009	-84.2931959146591	-109.645612031042	-26.0481196255205	-13.4090151053452	
2406000000	-17.4784365052267	152.089131244666	-72.605232942156	-90.6344043703162	-79.8621347430556	168.5083370821	-26.780985081354	-13.6043236665739	
2406333333.33334	-17.498650410179	150.894829607303	-72.1599717994375	-121.710732138048	-79.0411960076596	-14.5604105228916	-27.5394783416397	-13.6369327340369	
2406666666.66667	-17.5330555379276	149.516050096048	-83.0928968713341	-126.866313524452	-91.5321084958025	-78.7215944004928	-28.4636404942149	-13.6245198452387	
2407000000	-17.5631176197503	148.405764091072	-74.3481793638666	-83.7422009492364	-83.7698118196534	-78.936547147692	-29.4027527889278	-12.9922873214854	
2407333333.33334	-17.5703961231238	147.169303248169	-74.3903709969066	-97.9414663876066	-81.8518591206669	130.209064294391	-30.390180822445	-11.7921983465274	
2407666666.66667	-17.5817562081908	145.801325772916	-78.5606036638956	-155.382001073901	-91.3683948295855	147.247413710746	-31.4739338135783	-9.89819294069617	
2408000000	-17.5976143267527	144.587292132889	-84.9071446513967	-29.3773877391399	-78.3938646315658	-13.6674395369595	-32.6326417356376	-6.84501437239256	
2408333333.33334	-17.6009028748096	143.356794043609	-70.6512119117967	-120.057749176063	-73.6784227977192	152.797995952292	-33.8302005753392	-2.46953814751639	
2408666666.66667	-17.604380153299	142.113346910033	-79.1744204957342	-98.4041346885066	-88.1776928333651	161.713122542713	-35.0567576547756	3.37984870571173	
2409000000	-17.6009651125634	140.9981518806	-73.0211690781903	-158.799942143154	-78.6874940600701	-44.2778212891296	-36.1323192988839	12.124650994402	
2409333333.33334	-17.5918247546533	139.707972834763	-84.8111346038471	-148.483823332461	-88.2209528215772	-105.360042477331	-37.064766998652	22.734701573033	
2409666666.66667	-17.5810050254535	138.560038401163	-77.3126613890304	163.668529760437	-89.1561091034398	80.0894745391905	-37.5555060490674	34.5752013722868	
2410000000	-17.5713948320847	137.340389477999	-89.9263490190743	-156.662000817886	-74.9788394958375	-125.457878745048	-37.2419413694671	46.5495831166699	
2410333333.33334	-17.552459843946	136.188256997932	-82.2853621089637	-174.519241810832	-86.8413280441734	-82.9160155980773	-36.7754134926946	58.0419370033361	
2410666666.66667	-17.5199944989328	134.952471498965	-73.4665877744661	134.468651034375	-78.0606107491529	58.2989108630453	-36.1104035508904	65.4711180341019	
2411000000.00001	-17.4838314214514	133.918579441218	-77.5606923026076	125.673297016028	-82.7642882358071	84.6866896831335	-35.1046819696593	71.5765168041399	
2411333333.33334	-17.4436248548308	132.735240649235	-79.8769801266708	135.746497447449	-79.8335764496727	13.6230385621989	-34.2405785504174	75.5553917992225	
2411666666.66667	-17.4020010122274	131.560825201352	-81.3093756084797	112.54673246893	-90.7480903278811	-22.8005959540489	-33.4713693518915	78.5094054630701	
2412000000.00001	-17.3529576305023	130.53557336822	-82.7720025442795	-50.1999354777004	-80.5358622681583	-148.827085385349	-32.6054029111773	80.7509346522365	
2412333333.33334	-17.3035315486468	129.292991190397	-77.5158976171034	101.706780960531	-81.4101796147793	-79.6952067485656	-31.9702490533579	81.0176984822262	
2412666666.66667	-17.2365385790106	128.168692733152	-75.7952916758596	135.730510150484	-73.971088233236	-52.5658598589221	-31.4015249164783	81.692610214488	
2413000000.00001	-17.1700311684844	127.036642535679	-71.3741039271657	108.921095724616	-76.8915476001691	46.4886180870336	-30.8187240673709	81.9339438534827	
2413333333.33334	-17.0806803503131	125.840685550525	-71.1162642087401	76.2460963582075	-83.9257529796887	122.55711008369	-30.3171105482985	81.3656980161685	
2413666666.66667	-17.0184624235157	124.74110364237	-72.5527778746738	109.649078416778	-81.8912544360026	-112.764178396301	-29.8359643546834	80.475357841905	
2414000000.00001	-16.9384704826216	123.668276606724	-68.8345893508647	85.4916386449715	-89.1629698402595	-106.833031684103	-29.427678754049	79.2947639630525	
2414333333.33334	-16.8514863669961	122.652184546056	-69.100583706393	68.7418103942143	-77.7011126859307	-79.7108019477684	-29.0794067281503	78.1892991587899	
2414666666.66667	-16.7508509594424	121.638285787602	-68.0436305396911	39.1079184546662	-80.3791121592152	-92.9692916020465	-28.745744147722	76.7698048196935	
2415000000.00001	-16.6707950247175	120.625522675102	-67.1263946970732	18.3508241148987	-77.4074209454378	-79.1067100392338	-28.4528576158171	75.3910849981439	
2415333333.33334	-16.578213536097	119.653989795452	-66.2287833355623	17.5520756393711	-81.9454830431693	17.2745775977134	-28.1672136845734	73.8128560139953	
2415666666.66667	-16.4792148635232	118.643482953456	-66.1928277581816	2.45290215821466	-88.9354633193429	42.5732902021736	-27.9471887494648	71.7911545613794	
2416000000.00001	-16.3820333104991	117.719637739715	-64.618463467374	11.7491633350222	-86.6750144851823	173.869233558227	-27.7061632151271	69.9259795443168	
2416333333.33334	-16.2943748713755	116.774583825999	-66.1255895437615	-20.1277563627129	-85.6848111752719	66.4849098249982	-27.4691677478009	67.8605368355198	
2416666666.66667	-16.1749425427698	115.901338903432	-68.499475136738	-29.2591640335662	-88.9198681590136	-58.507955731034	-27.2664887571655	65.516033766374	
2417000000.00001	-16.076926607155	115.03029806833	-65.9113665271117	-41.8232952781369	-75.0927378777403	-76.2240361317386	-27.1104689140135	63.5372274783378	
2417333333.33334	-15.9797147115999	114.192893783697	-66.7630521554295	-43.8533729573858	-86.9756409028066	5.85457805970941	-26.9370101943675	61.163914067021	
2417666666.66668	-15.8680466933878	113.212609495974	-67.8475554753078	-49.3455774578822	-76.8784798418098	-61.9185199649592	-26.8032184787944	58.9568157650478	
2418000000.00001	-15.7648129933511	112.48295856441	-64.6167592998831	-59.0482347790904	-73.8885548405126	-55.5934809364751	-26.6880109327045	56.3879218515891	
2418333333.33334	-15.6583691829445	111.598999120071	-65.4572561489505	-82.1878976801758	-79.6821979719218	57.7256310051234	-26.5302849475299	53.757677963056	
2418666666.66668	-15.5470712651813	110.767402834525	-63.5938935327972	-98.245650846382	-78.8505140108349	-21.3058348271333	-26.3824505694823	51.2163824239389	
2419000000.00001	-15.4338157923347	109.927720508327	-65.0979010985131	-96.1114589296022	-77.099113096455	-104.82628024357	-26.2637645491213	48.8291131973025	
2419333333.33334	-15.3360193940592	109.135995330876	-66.5816572136972	-120.738487039759	-76.0238623737973	-50.2005248546817	-26.1586314175636	46.4694058611276	
2419666666.66668	-15.2251955652088	108.329108565664	-65.6065228020807	-136.955660268258	-83.6411680303264	-76.9750766730739	-26.0411538301012	44.0481913920732	
2420000000.00001	-15.1177015009831	107.52344589196	-65.2598788144811	-140.109198009545	-84.4879899021045	-12.9877993995324	-25.9195046338279	41.331596689926	
2420333333.33334	-15.0233370654502	106.812498484532	-68.3696287597446	-151.113163266654	-81.7732133670208	27.2645314025527	-25.8246992882246	39.0713213590649	
2420666666.66668	-14.9173354750778	106.108938122198	-66.8153103961796	-167.317565099322	-82.6252930941598	53.6269920607498	-25.6963142175667	36.2828034979277	
2421000000.00001	-14.8192846775594	105.375915664512	-66.5512714451562	-160.699121387438	-83.3886020277343	-33.7434146204369	-25.5514027493274	34.0213976037154	
2421333333.33334	-14.7224635630696	104.593803918544	-66.5791027990428	-166.227467596548	-87.7346793684874	-96.7691148300802	-25.4565600227831	31.5374429311803	
2421666666.66668	-14.6280473164804	104.001004113298	-64.4694386393107	165.548743508531	-80.6698676056509	23.0272526863123	-25.3326162877282	29.0970701400957	
2422000000.00001	-14.5343876912018	103.311494623431	-65.0690733770005	160.158797128808	-84.8352167811305	128.007372197534	-25.1879343563034	26.8268497472638	
2422333333.33334	-14.4514411263014	102.654009527115	-67.3684099224056	156.143764253618	-87.2613682432587	22.0992926488131	-25.0633769405177	24.4659300864937	
2422666666.66668	-14.3575406565933	101.962303303406	-65.1046555906526	148.015782477243	-81.0086514442651	91.8240325895455	-24.9210843046064	22.1226998265414	
2423000000.00001	-14.2719477392269	101.352069127158	-65.3683462145328	138.548571071118	-82.8926259762018	17.3844281224921	-24.7881642625325	19.9663265680985	
2423333333.33334	-14.1893302783361	100.762281579961	-64.7072175477025	111.483465709139	-74.4125581153342	-158.259995047078	-24.662307809687	17.8620960326888	
2423666666.66668	-14.107393473008	100.158789875737	-64.8615895207943	86.3168275908102	-92.1070506463535	-121.533832583591	-24.5308130061121	15.6843972981117	
2424000000.00001	-14.0367951673845	99.525907907203	-64.7341924360371	101.99281350777	-76.0147228222511	28.9957960654373	-24.4160791914525	13.5422539798212	
2424333333.33334	-13.9603063599345	98.9907288609115	-64.3246855815893	88.7356457853741	-76.9692647840595	-21.0890455207322	-24.2977540472795	11.8472022354615	
2424666666.66668	-13.8822710303099	98.3943752181472	-67.6351222904731	84.2983528734035	-81.066876425597	18.50199415914	-24.1602663698876	9.83698303506196	
2425000000.00001	-13.8170700949847	97.8490721468829	-62.9911641251476	70.7528891293251	-83.1513037482315	-67.4874487471537	-24.0057680728976	8.38865535606909	
2425333333.33335	-13.7533776991575	97.3468022541212	-63.4524641434698	65.5876312355203	-88.5093638776542	91.5613866611964	-23.9054328324961	6.43817202029177	
2425666666.66668	-13.685561170093	96.7789628919245	-64.5242148734606	42.8767977293253	-78.4475208018024	8.29820995034998	-23.7628940346326	5.05768482317468	
2426000000.00001	-13.6254600447492	96.2801828383229	-63.030520208152	45.1312381707662	-85.5748881605199	55.7591652873378	-23.6451295614615	3.55199670336826	
2426333333.33335	-13.5632607649396	95.763528499059	-64.6561738674299	36.4233401245194	-73.7041180220878	41.257321533002	-23.5252391067626	2.21395757437173	
2426666666.66668	-13.5163422436409	95.2623203684586	-65.2848594031324	8.48655143145388	-83.9741119074405	178.584731963117	-23.4026334794648	0.917642819702386	
2427000000.00001	-13.4661041360242	94.7885226599376	-65.4940765740353	9.5368179224257	-74.7728073188731	-82.7982363625109	-23.2983910769076	-0.153113934452643	
2427333333.33335	-13.4155934385701	94.2993267245191	-63.0300680913368	3.72972089525495	-79.774786846899	-12.4470274963562	-23.1759881119048	-1.15320689853105	
2427666666.66668	-13.367582059352	93.8520794935324	-63.6563050274433	-18.1127152854252	-98.5007867982817	-63.340674468318	-23.0583748645097	-1.98814518528267	
2428000000.00001	-13.3248611302016	93.421046444159	-65.7326831317777	-32.0526679135574	-74.4057383777213	48.9082433943437	-22.956819883899	-2.91557191062925	
2428333333.33335	-13.2890033850059	92.9728036212641	-67.2659414464801	-47.4409085781059	-88.4320098996503	169.782161204145	-22.8505272673232	-3.68796531792826	
2428666666.66668	-13.2427769607986	92.5543195829932	-70.9944310547162	-42.6334833798781	-76.8101008324902	-35.5438757978528	-22.7152195641385	-4.29059172612522	
2429000000.00001	-13.216145347903	92.1287763765614	-67.2255801810661	-51.9880924449139	-78.4256181899676	-9.40712012489579	-22.6192082844936	-4.79575664102386	
2429333333.33335	-13.1797333769225	91.7200498640052	-68.8501963991556	-71.814397195809	-82.3753120955189	-36.7756847061441	-22.4799795299482	-5.38900913497879	
2429666666.66668	-13.1512311766543	91.3503070649329	-71.6460692754751	-71.1274402369118	-75.1752908083304	-27.9431909251055	-22.3739274036728	-5.84461157232859	
2430000000.00001	-13.1171687691253	90.8951002277513	-71.8281683543235	-67.0343765330943	-81.6283475622045	-14.8269370955079	-22.2386472707942	-6.19093518477507	
2430333333.33335	-13.0924038560251	90.5648754049077	-72.1303680871478	-117.629779461482	-74.6798380839922	-14.1120275464189	-22.1155452999463	-6.29541545425433	
2430666666.66668	-13.0703929595985	90.1748252481183	-78.8215720806968	-91.2366083210407	-78.4514814989213	-26.1113793201376	-21.967756859732	-6.52960746388603	
2431000000.00001	-13.04239494019	89.8706740650432	-73.822602441073	-96.5272081965884	-81.4643279827411	64.53494800206	-21.8380150571048	-6.86354255809762	
2431333333.33335	-13.0323725917327	89.5571182938325	-70.9823010243489	-101.308444297046	-80.329041146147	-8.16898221941948	-21.6898258094477	-6.93519029266817	
2431666666.66668	-13.0146147935858	89.3440314927695	-76.2465636460922	-74.6735308842762	-82.4355029880718	-46.3543894923024	-21.5416177765474	-7.1364299530994	
2432000000.00002	-13.0055753119233	89.0455809457073	-69.1081130303353	-114.665655439212	-89.6590917482495	75.1886633253587	-21.3887519858256	-7.1265577574068	
2432333333.33335	-12.9847272537372	88.725770745168	-70.1927178923179	-93.0006508882418	-77.6347728035583	-154.081030955182	-21.2464081714268	-7.25666047257983	
2432666666.66668	-12.9787305538898	88.5343328136473	-68.8103102753569	-97.5868315908353	-78.9909853170649	-24.237127265968	-21.0765639681897	-7.31318293995712	
2433000000.00002	-12.9747479675998	88.2748457466487	-71.4149151415259	-101.137164608426	-80.1170490046027	-167.46211746215	-20.9333338496487	-7.28114269471676	
2433333333.33335	-12.9643421896618	87.959978975169	-68.1593096331589	-114.948368077018	-83.9821669209158	-107.718035234441	-20.7804610146716	-7.26465546118425	
2433666666.66668	-12.9629980593188	87.7727040081986	-73.201246871994	-129.468280402089	-79.5399666210068	15.8330335380258	-20.6153302945056	-7.35522260045133	
2434000000.00002	-12.958276957749	87.5421352773051	-71.4060728563306	-174.872855247008	-92.5406975947056	-136.002496332949	-20.4586352657368	-7.37819307214908	
2434333333.33335	-12.9480775687498	87.3539122033364	-68.1303557902035	-150.251910157777	-79.2961165638676	172.262538778043	-20.2992435012915	-7.46477829979091	
2434666666.66668	-12.9490143874971	87.0410764682285	-66.5930448284413	-178.543910211879	-80.9923266404105	-42.5034890987503	-20.1573675604602	-7.48553295828699	
2435000000.00002	-12.9561280077326	86.8042895701361	-67.4382733549103	161.52236540372	-82.2485938541842	-106.584536008769	-20.0035099428065	-7.49094781961892	
2435333333.33335	-12.9549173989095	86.4927857061567	-70.3914320675001	164.879745307503	-79.3478804038924	115.955259705953	-19.8674207246954	-7.66698560799698	
2435666666.66668	-12.9487847896022	86.2778327877258	-69.8941530799221	153.963611178216	-76.8629341454569	14.2514140797217	-19.702275440363	-7.71455237803479	
2436000000.00002	-12.9516785919875	85.9947969700365	-70.1045465651064	134.891453853685	-79.6045230576293	-110.228439644629	-19.5783167648907	-7.86176752343055	
2436333333.33335	-12.9538752460924	85.793982795184	-69.3880046356604	141.002733228531	-89.5251238844622	-20.9102318573973	-19.4462275360477	-8.06983520771048	
2436666666.66668	-12.9674661112351	85.49375028085	-68.5967470840717	131.26571960479	-82.7616822736445	123.619962328653	-19.2905446486518	-8.03676640119757	
2437000000.00002	-12.9731124733188	85.2854220123645	-70.3502117459695	117.151621002786	-74.6358995671309	63.1457017337206	-19.1879119144432	-8.30854130497643	
2437333333.33335	-12.9791687678367	85.0309104358656	-70.2696944013428	127.280113319138	-76.6421217945859	20.9144674928657	-19.0619644314702	-8.50157793263441	
2437666666.66668	-12.9916519366677	84.7986542060894	-71.6275294390048	94.4972987098036	-88.7802159404283	91.8007466933427	-18.9454266345768	-8.7386866428607	
2438000000.00002	-12.9886988135934	84.4747077850524	-71.2866372893093	95.0240062740563	-71.2484552125058	47.8308217339841	-18.8406878108796	-8.87802764648752	
2438333333.33335	-13.0025538343665	84.176039193372	-67.7734104716471	99.1544723131979	-75.6566130649674	118.070037132836	-18.7316736548022	-9.05065048269032	
2438666666.66669	-13.0176352201196	83.9021600470895	-70.7421816273968	74.6462887439227	-81.4056910463372	177.129928546753	-18.6348272997878	-9.2656672747621	
2439000000.00002	-13.0204619492789	83.5866378996516	-68.99126174843	99.0062467802674	-82.2757114897295	60.547165034501	-18.5497752037393	-9.48313976024794	
2439333333.33335	-13.0341392707606	83.3949844962998	-72.8531304905317	89.7993798937419	-83.9147511170297	-131.103424210569	-18.4742204946389	-9.66626101409774	
2439666666.66669	-13.0354193681555	83.0338017195019	-76.1558513737713	28.8441797928483	-82.917907623296	77.3127225902673	-18.3876952781682	-9.93836044570589	
2440000000.00002	-13.059274614152	82.819403764186	-75.487213080074	85.575676584856	-79.249948220759	124.561254498221	-18.317863129414	-10.1956838448142	
2440333333.33335	-13.0748812140138	82.4761774104512	-74.6798214166687	91.5968663513593	-84.3757450747018	-28.120027899545	-18.2557291475671	-10.4725183363542	
2440666666.66669	-13.0921330144705	82.2089255132936	-68.4336359232153	64.8124119448163	-81.3692836338306	-13.110502851456	-18.2093075074632	-10.6029676402262	
2441000000.00002	-13.1031959417053	81.8304215535255	-74.7422922171953	35.9500696202137	-72.6040711674245	-70.0027974128545	-18.1647829656481	-10.9704324765716	
2441333333.33335	-13.113703076236	81.5841459079905	-70.749350849457	44.2738772646055	-79.2900623056429	-7.83588246798272	-18.1022035924213	-11.0141634439877	
2441666666.66669	-13.1420485392765	81.3111958253812	-75.1166069926252	59.6709135127542	-86.4566183728577	-44.4314814668568	-18.0869842464883	-11.3107666915961	
2442000000.00002	-13.1491606372892	80.9595078781298	-73.2392493008365	66.206783257058	-79.8329562591994	-73.2547614896185	-18.064083744038	-11.5821002982339	
2442333333.33335	-13.1520553167457	80.6877981785238	-72.2511489877753	51.584665922266	-78.934508055988	58.8513915886453	-18.0483945202379	-11.7933628898605	
2442666666.66669	-13.2048991276643	80.4304888791776	-70.2197141688234	48.775685052209	-81.649111080993	-48.7918695530109	-18.0389238083715	-11.8544012270854	
2443000000.00002	-13.2486221458292	80.0953629481352	-72.8688942466099	68.5584194306359	-80.0986238122477	33.3382872136148	-18.0373594135959	-12.0981331870506	
2443333333.33335	-13.270424971146	79.7315347751833	-72.9230780946128	22.697580607564	-81.9151790538933	-47.6018150831108	-18.0635864200255	-12.2259860293673	
2443666666.66669	-13.2859171683935	79.4475130583226	-69.8403021916735	20.8080888402659	-88.6962170083458	-26.2392013421886	-18.0882927324385	-12.3123242918603	
2444000000.00002	-13.3191836916631	79.2487847519134	-68.6524839495591	45.9476508419589	-88.9990338386281	-7.34535565327451	-18.09476068221	-12.5254521691657	
2444333333.33335	-13.3420465506449	78.8550255886988	-69.8535214529043	7.59304176491174	-82.8578657201699	107.219696648583	-18.1311817340912	-12.5235961214881	
2444666666.66669	-13.3714792085333	78.5341619952753	-66.2656794065355	-2.93285635838061	-92.102410844792	-3.86622629471771	-18.1647607411685	-12.6727456555453	
2445000000.00002	-13.3961623640198	78.2219169623044	-69.7190197530398	-1.57779507653063	-79.7004955701847	-58.025951990697	-18.2303297545337	-12.6888384281774	
2445333333.33335	-13.4263763453157	77.8958848155489	-67.3892098432234	-28.7974710184271	-78.1137551667147	-16.5879692030683	-18.2904811408836	-12.6559077244725	
2445666666.66669	-13.4596287819507	77.5373749975664	-66.9859055398807	-31.7464183087603	-71.1967896457886	28.8953116305458	-18.350995115712	-12.6596765953837	
2446000000.00002	-13.4910415631602	77.0566024787649	-68.2284936119784	-17.8377312593934	-78.2169525780155	95.987601913778	-18.406860947227	-12.655665556958	
2446333333.33336	-13.5365024492111	76.6752885489652	-70.7447978239245	-50.7263439943306	-83.0075533060971	-70.7384292108802	-18.4779359376068	-12.4865342025528	
2446666666.66669	-13.5417070982722	76.3650316183446	-67.8151696727196	-72.1479797808885	-83.237070462947	-95.0279547269351	-18.5802490475161	-12.289980698676	
2447000000.00002	-13.571944601814	75.9221449275645	-68.2441591583329	-55.0582979927934	-73.8857274438646	94.631117521796	-18.6643020471609	-12.1408676005094	
2447333333.33336	-13.5977292557862	75.6048189635659	-67.9738503129524	-67.6655490168772	-80.8035557398745	146.134486079751	-18.7436024592479	-12.0185772659847	
2447666666.66669	-13.6194386381095	75.1029316006729	-66.741220616978	-75.2494574928918	-77.5552416231001	-18.2290351405545	-18.8634315385158	-11.8012766980137	
2448000000.00002	-13.6552701674474	74.6589359038876	-67.8342768146422	-71.0095638559788	-79.9454121705555	-5.76990644796057	-18.9681006106616	-11.5094213957628	
2448333333.33336	-13.6847188028911	74.2755233300378	-65.4750693549107	-96.7919184228626	-83.7097293969904	-47.982564541335	-19.0846388476342	-11.1064735053803	
2448666666.66669	-13.6920386723947	73.9090583615738	-64.2109787413442	-102.07183965846	-86.3323013256265	157.222933981427	-19.1970381159261	-10.8324019067181	
2449000000.00002	-13.7420484363094	73.3592415118996	-66.3808607640847	-126.525240469621	-79.7830747318033	-79.1358711380981	-19.3339768763503	-10.1696383023167	
2449333333.33336	-13.7660765014489	72.960534916524	-64.7418265259516	-126.742996936359	-76.5859051621082	-121.331440486433	-19.4499729100674	-9.74084902898992	
2449666666.66669	-13.7979211840683	72.4729488823972	-65.8603686539928	-137.233535638112	-83.0393544552414	107.700226786686	-19.5739732774719	-9.11185882272162	
2450000000.00002	-13.8207163923588	71.8937984120616	-64.3640142811334	-146.445052544809	-92.8419927712627	165.387878649451	-19.7267826382903	-8.50237652332301	
2450333333.33336	-13.8490730642123	71.3985878922284	-63.2971065999541	-150.3484068834	-83.0015226527301	-114.525858814013	-19.8728977749546	-7.81949057923178	
2450666666.66669	-13.876824103797	70.8800200793673	-63.8697373807429	-136.841725166442	-70.7007251106077	120.631040052428	-20.0154052785717	-6.81971737472306	
2451000000.00002	-13.8985098962609	70.3155716311736	-61.5909995647163	-173.371325314922	-79.580723449611	160.091248929401	-20.1602730830978	-5.89208790151403	
2451333333.33336	-13.9263573068874	69.9051477996649	-64.1078802594533	-174.747630140487	-76.4641284713686	-165.904024184123	-20.3049950542133	-4.97275922201993	
2451666666.66669	-13.9220679691617	69.3867461471427	-65.8842452477832	-174.979029239786	-82.416548483918	-61.9628202105525	-20.4315830456197	-3.72232345110833	
2452000000.00002	-13.9586717710835	68.716043918828	-63.5508869280044	168.543876902154	-78.5556170880969	90.1363007919666	-20.5737760734456	-2.54663835764548	
2452333333.33336	-13.977620590628	68.1238707049569	-63.4705398581513	161.79099406574	-78.7089210894572	-155.081881349564	-20.6886140630377	-1.56074104924345	
2452666666.66669	-13.9733685443032	67.6287591133166	-63.1122860022321	154.039807506254	-81.0379067069808	176.927717256309	-20.7784050677317	-0.0989331497673067	
2453000000.00003	-13.9884878052714	66.9442917241843	-61.1311250572195	143.22690347318	-74.7504820864048	147.819684223881	-20.89912890511	1.1292886202541	
2453333333.33336	-13.9908167468462	66.3737233738758	-61.4238642607369	140.735828667889	-75.8177891019448	-103.747195607405	-20.9868487459444	2.59855101653712	
2453666666.66669	-14.0053755843503	65.7404713427335	-60.6973419914777	128.41070422172	-80.7416416464953	111.659634683464	-21.0722793526949	4.00615023450667	
2454000000.00003	-14.0158212672226	65.1529557876463	-61.2534619077818	106.743570628454	-84.8734939220387	-87.679177879038	-21.1378104104444	5.44716694554645	
2454333333.33336	-14.0225537630327	64.5532675265395	-61.3861327948781	106.094226531796	-87.6057451652821	-155.893979950551	-21.1961942144917	7.05293844871377	
2454666666.66669	-14.024138210147	63.8407383493079	-60.6389550363989	96.8508185649026	-78.2108022672623	100.602659173133	-21.2713333857111	8.43683183610496	
2455000000.00003	-14.0203201566225	63.2288453585593	-60.7305529601239	71.1886565817171	-81.1507339876771	162.872669460813	-21.3322482769997	9.98380383856549	
2455333333.33336	-14.0185188304001	62.6568194917374	-60.9344992300097	75.9360387430544	-82.9130410620548	68.5834366107775	-21.3446597384095	11.3137865321264	
2455666666.66669	-14.0187384608449	61.8959757492739	-59.9263921196966	58.6079994662124	-81.1705870383535	-18.3895433334244	-21.3997359322893	12.7192149819575	
2456000000.00003	-14.0062520077537	61.2809042600695	-62.1973681976496	49.3460718095141	-82.6826976679181	-98.0155179797134	-21.3967006729379	14.2158161683427	
2456333333.33336	-14.0064245375884	60.5581711392604	-60.4349885885125	40.3949736994837	-82.5437755533962	108.084774039532	-21.3998055342431	15.7863679036718	
2456666666.66669	-13.9988355234229	59.9445155828894	-60.4415160100655	30.4065703935824	-77.5079905351485	137.931303218227	-21.3956582383913	16.965989970584	
2457000000.00003	-13.9772483533913	59.2075499928396	-61.7944199276661	11.9873013105646	-72.1343792449746	-148.232689624006	-21.3953904909124	18.3366650495729	
2457333333.33336	-13.9659119287161	58.57512914216	-63.1509233892661	11.2184007270636	-82.5792111094876	143.853332443279	-21.3704657607376	19.7295988342719	
2457666666.66669	-13.9500211841621	57.9241238278659	-63.276112817798	5.37856045401541	-77.9208447736824	-115.692164747115	-21.3362954263302	21.2168233533723	
2458000000.00003	-13.9338952435387	57.2569395811272	-61.7474615741667	-12.9618307008256	-79.5099770133274	21.6172552138291	-21.2680038135447	22.2757825964206	
2458333333.33336	-13.9115369439908	56.4987687959128	-63.3355473921342	-25.1931164944844	-77.0114140885025	89.1075311180529	-21.2351106120277	23.4756762856686	
2458666666.66669	-13.8866171851647	55.828641769414	-62.4293189918706	-37.783860502118	-86.4198050881461	172.444535293701	-21.1845165523201	24.6696660450818	
2459000000.00003	-13.8624810899031	55.180835389721	-62.1423382116839	-53.8700717750755	-94.0221094797971	-65.3417871877363	-21.149342535871	25.7125347945332	
2459333333.33336	-13.835122846702	54.5396798300289	-63.109010383899	-60.2975053131237	-76.1510759275604	133.801725158811	-21.062339943491	26.7500552429837	
2459666666.6667	-13.8099047733578	53.8986652342658	-63.5432267315911	-64.6890956538546	-82.3771837398733	128.584244656268	-21.0033501854374	27.5787509864126	
2460000000.00003	-13.7744891728346	53.2349503451546	-63.0876917292829	-61.7882212754621	-87.3481463391594	52.1089622266911	-20.9250828415375	28.5484131685946	
2460333333.33336	-13.7410972459793	52.5225193325891	-62.6425867092296	-74.5918256160239	-88.1871068253814	-103.371709934256	-20.8568149653831	29.1119335312571	
2460666666.6667	-13.7142512041534	51.9347215522356	-62.8062248661043	-84.5235301605174	-78.7463581657885	-132.373071793012	-20.7730556352341	29.6735451212159	
2461000000.00003	-13.6827731579837	51.3078107227766	-64.3042803791475	-113.613018778781	-73.8695633570197	173.059671009585	-20.7034932534104	30.3300089420018	
2461333333.33336	-13.6316995425442	50.5987429735574	-66.7154750544445	-103.169647460187	-98.2446002116923	30.3561979104551	-20.6168934721232	30.8221674121096	
2461666666.6667	-13.5983744133462	49.9725812310639	-64.5531487349986	-119.342856368825	-74.1271858481599	167.497136089764	-20.5436188173496	31.101531592732	
2462000000.00003	-13.5575623720168	49.3225289739496	-64.555770127022	-124.356159725841	-77.9039549526121	-133.878678504006	-20.5047585716291	31.5690488657422	
2462333333.33336	-13.5140168672254	48.7396176525695	-65.4876200765077	-132.675914701987	-82.5000887508878	125.303131233444	-20.4622383173334	31.7404232138845	
2462666666.6667	-13.471099205753	48.0784647951294	-67.1067082483793	-146.254407290669	-91.0860644183325	-35.4889120635563	-20.4070255358523	31.889224342707	
2463000000.00003	-13.4302496182546	47.4784829399453	-64.8397486234106	-144.601530523734	-79.7736536878158	-100.162545094003	-20.357771467161	31.9628812506769	
2463333333.33336	-13.3817903118059	46.8727121282809	-65.4041651590604	-161.600143506684	-82.1207176732094	33.7517773909015	-20.3585855143098	31.8906677930732	
2463666666.6667	-13.3286870653032	46.3509524051703	-63.74603711049	-161.513273904912	-72.8389420844404	178.829248818861	-20.3380995538578	31.9536769177124	
2464000000.00003	-13.2921450407915	45.7514858138295	-65.1442425256584	-178.276596606626	-79.7068716692257	-135.543553021375	-20.3104858125603	31.8056619041116	
2464333333.33336	-13.2399518154181	45.2389026621534	-64.9121122546635	177.040216748796	-78.8162873545048	164.898524543957	-20.3135540299849	31.7589975518708	
2464666666.6667	-13.1982419630221	44.6396266681463	-66.0972458119156	162.668031727956	-80.293889787918	-176.378708235226	-20.3073406169602	31.4982217014768	
2465000000.00003	-13.1501421578776	44.0978614957295	-67.6610507773102	168.365651229785	-83.1232048524152	138.182968904083	-20.312943935601	31.402632385206	
2465333333.33336	-13.1067480568414	43.6058290376738	-66.7617008016089	157.324566332333	-89.9333977466079	-22.2074805340204	-20.3232685488572	31.1988627097229	
2465666666.6667	-13.0560130133434	43.0942426491858	-70.1443879386732	138.958463921607	-81.8265625211756	85.0866418796133	-20.3284021949879	31.053365356632	
2466000000.00003	-13.0045425045234	42.6675049870055	-73.8042057712386	112.134975597022	-81.9498618759948	42.891541284023	-20.3528112321718	30.7984350439313	
2466333333.33336	-12.9593418570472	42.1230320902813	-74.307965875491	92.9539673927567	-78.2606095215565	33.1435854549686	-20.4331555859499	30.541608261766	
2466666666.6667	-12.9125461100991	41.7447358914988	-77.7332652831358	91.5545352463517	-83.7078374689203	163.76005352689	-20.425514298878	30.2768499045029	
2467000000.00003	-12.8636888698976	41.238751776302	-72.3728070144314	158.820197738531	-79.2096937275792	172.737340002818	-20.4660017908067	29.9301202145386	
2467333333.33337	-12.8051388193624	40.8473803870875	-74.9373397466133	107.194271035603	-85.2262883704786	2.91329492166556	-20.5096358665679	29.5512656043121	
2467666666.6667	-12.75336602217	40.4048412549459	-80.1150518601208	161.109805917187	-83.6853693305336	-27.7070246163016	-20.552706050547	29.2480013413278	
2468000000.00003	-12.7110884766541	40.0099878823588	-78.3010534010321	149.909744188932	-80.2470398729365	-62.9273040993648	-20.602712469792	28.8188705389973	
2468333333.33337	-12.6600336047729	39.5876799892447	-70.7807889235843	178.099243145967	-82.1214905243137	97.3796021230108	-20.6411823008646	28.4341470026744	
2468666666.6667	-12.6073466886336	39.1869017297931	-72.3167638449496	-178.220462566617	-79.7089628776915	-83.1112576316908	-20.7051824882383	28.003920966541	
2469000000.00003	-12.56096238858	38.8121038108573	-76.1872723832731	151.758377543418	-76.7107334838732	105.435079949388	-20.7342495595051	27.4440661193728	
2469333333.33337	-12.5105613199274	38.4842109459813	-70.3363121167581	170.760378047917	-80.5092974832627	151.037823704563	-20.8052393348542	27.0550645902893	
2469666666.6667	-12.4576046130958	38.0950928351919	-68.3522372443464	170.375252929157	-83.3607977292508	-156.454638266564	-20.844372867082	26.5841981962768	
2470000000.00003	-12.4084179800563	37.7908372009308	-65.4778109850563	142.270672114228	-80.0985407614732	27.4551529389705	-20.9076994345889	25.8121123511611	
2470333333.33337	-12.3568320402289	37.449149078692	-66.2234889481021	142.779335558012	-82.7304264599948	-117.284654613524	-20.9735951036941	25.3330880789557	
2470666666.6667	-12.3055583465971	37.1078080605504	-65.0613730053302	106.037401703318	-76.7534933085457	149.350643895136	-21.0332300685271	24.6805802929315	
2471000000.00003	-12.261161233857	36.7420137794866	-64.239105568825	117.219761366508	-77.6620425738226	-18.6092913043309	-21.073488686468	24.0441099337647	
2471333333.33337	-12.1997610983086	36.4435825646372	-63.3890069637997	92.9919029364013	-82.2122069088598	-51.429386769243	-21.1585904044307	23.3855436681079	
2471666666.6667	-12.1572011538932	36.1431942844997	-63.961224042574	79.4087758040629	-80.2513481992533	49.929369735753	-21.2314780051013	22.5767614104116	
2472000000.00003	-12.1022842323517	35.8379242629224	-63.5471213729611	77.1649337985125	-77.7150551386287	38.728259746734	-21.2900772987626	21.6878963786637	
2472333333.33337	-12.0438823879466	35.6187216890193	-63.9302886712769	64.0549946194854	-88.9728447911751	-138.550900551515	-21.3633644481557	20.93445743123	
2472666666.6667	-11.9948957326178	35.3517653402719	-62.2714578891188	50.8507332433761	-86.2819191881962	-28.3985493946937	-21.4445200232849	20.1311339859913	
2473000000.00003	-11.9372944038842	35.1242688437426	-62.4832852765078	43.4784515468703	-76.0518386549504	-64.3459474365495	-21.5329595793461	19.3518963220966	
2473333333.33337	-11.8765473255167	34.8778365729826	-63.0413604385547	26.4860867882408	-81.2436167268689	92.4534138389532	-21.5975935880235	18.4215533505084	
2473666666.6667	-11.8233549630929	34.629308134513	-63.140362559441	18.9584906147696	-94.0956333078622	132.450333721344	-21.6587351506627	17.5659613304852	
2474000000.00004	-11.7726658624422	34.3925125508208	-63.5604484758759	26.644829706946	-82.6381499632746	51.150916432588	-21.7494860729732	16.5407362233309	
2474333333.33337	-11.7189100545006	34.182893265032	-61.7861658712129	12.2938616592985	-76.9591562437752	9.22273149243909	-21.8219870485137	15.6083701344039	
2474666666.6667	-11.6662264372977	33.9687320317745	-62.6289724177927	-12.5842653168211	-74.2640870652223	15.4389509129771	-21.8643978052256	14.6575094248083	
2475000000.00004	-11.6167558796773	33.6663303606998	-62.3144841186058	-22.2841422647171	-78.3304100171114	162.896402853314	-21.9234941170174	13.6861079126173	
2475333333.33337	-11.5707953701182	33.4758426074131	-63.2946078016981	-24.5519818485237	-84.3811779263172	-129.467967085282	-21.9687204629657	12.740462774124	
2475666666.6667	-11.5134710834804	33.2489040587656	-60.9211342782699	-34.6024544952322	-94.8429201760014	-11.7178108855619	-22.038552011285	11.6491675929354	
2476000000.00004	-11.4641306519998	32.9898334084345	-61.983852334865	-42.1683316070402	-76.2924333569569	-107.98949830242	-22.0495747204858	10.5754951023942	
2476333333.33337	-11.4232689558903	32.7420203677531	-60.9149829619385	-44.3884636086436	-84.7519963977612	176.08948648503	-22.1069172264934	9.64951211743363	
2476666666.6667	-11.3751990191306	32.4525733997543	-61.0044026550345	-67.4650826403142	-82.8876995496561	-158.401741030813	-22.1318199425953	8.32689151767642	
2477000000.00004	-11.3227351969918	32.2495526241375	-61.711213238083	-79.3882986631795	-75.7856175731055	-176.384603942833	-22.1701423384559	7.27685163817517	
2477333333.33337	-11.2753804630577	31.9994226755235	-61.5747832787619	-89.7714690783924	-76.9229614064976	-65.6603353975822	-22.170052495237	6.03865832112286	
2477666666.6667	-11.2264199528742	31.7001636282312	-61.7992301291565	-104.223258393342	-82.1649302101551	-146.012225670859	-22.1639454911361	4.8740846359082	
2478000000.00004	-11.1874609234629	31.4563249003828	-64.7664247902134	-106.535391811425	-86.7859789912261	80.9270879683371	-22.179240973201	3.73483520269776	
2478333333.33337	-11.1353606935125	31.2459469216937	-64.1868276620323	-115.135496363631	-85.7437795808895	-28.2886074147658	-22.193996095532	2.50974035165287	
2478666666.6667	-11.0930729441239	30.9875401636815	-63.4770100349369	-139.908340505422	-92.9803242266618	-158.170211763355	-22.1607459909516	1.30088223135067	
2479000000.00004	-11.0433134764772	30.7531939628342	-62.9516829963032	-131.709961143083	-80.9923656680316	-175.961320460062	-22.1560777674003	-0.00996644688046371	
2479333333.33337	-11.0086030753714	30.4048340010923	-64.8137503390782	-141.427057147031	-78.2900605387802	-15.7917506905818	-22.1208641745592	-1.29255409596369	
2479666666.6667	-10.9656518461597	30.1932907534456	-65.6180157660602	-154.901259721058	-85.926712768362	142.336964479129	-22.0934289891118	-2.42498182770413	
2480000000.00004	-10.9319682169431	29.8824227008446	-67.3003908710722	176.984713105967	-84.1266784882814	-130.478822739135	-22.0534731960433	-3.6718410509297	
2480333333.33337	-10.8949412580381	29.6103086529136	-65.6910054501159	-176.844796477511	-90.1833418687697	-46.6581721437036	-21.9931112790323	-4.93599452836052	
2480666666.66671	-10.8551726750228	29.3522633660654	-65.1051100356418	-167.809015186532	-78.8178805021933	28.1535920842963	-21.9622609013347	-6.38449155113003	
2481000000.00004	-10.8235719569916	29.016835030234	-68.1715854581067	-165.794056592687	-88.323280386287	114.756874513099	-21.9015139241169	-7.46887169547735	
2481333333.33337	-10.7867853133972	28.6884713167929	-68.4451444368112	171.504734212529	-83.7525071128236	48.3719462051483	-21.8742318541212	-8.66641908910276	
2481666666.66671	-10.7564458821486	28.2806989233251	-70.7672478022426	-169.659700905897	-75.2717199995035	-115.912244021467	-21.7757857115259	-9.88800828697439	
2482000000.00004	-10.7326176692399	28.0268285397063	-68.1055124058895	178.015362014505	-86.7978816158991	-112.760122381662	-21.7084284835432	-11.1575974019274	
2482333333.33337	-10.7107546857623	27.6259339705038	-69.407012536729	151.596613401718	-80.5926309953839	155.124735692302	-21.6385399627917	-12.3268901339559	
2482666666.66671	-10.6827518410981	27.3406314368234	-72.1796921109161	152.311826018438	-83.1772729218515	-146.718788472184	-21.5534185117217	-13.4281405912575	
2483000000.00004	-10.6640860206207	26.9342342814596	-69.2735960273044	129.010860806571	-74.7628215003408	0.0759942066647611	-21.4744496502436	-14.6233073247498	
2483333333.33337	-10.6398841745748	26.5758907208611	-71.3187982687457	138.196028197634	-82.3243693210943	172.339902209282	-21.3752140154632	-15.7602221798961	
2483666666.66671	-10.6316077116286	26.2388197617008	-69.9303926374148	128.8380910382	-90.7767339229094	-163.930098868721	-21.2831969190893	-16.8506364253801	
2484000000.00004	-10.6084207946782	25.8231851078098	-68.288702272481	135.652601341879	-78.9950501120091	-65.217446493283	-21.1743239655557	-17.9770917089593	
2484333333.33337	-10.5984423329854	25.4623609388223	-67.9874685862908	119.773248734844	-102.67408328211	142.231023243792	-21.0746537472989	-18.8841788931328	
2484666666.66671	-10.5823649999561	24.9938451141429	-66.503150301847	120.873160227673	-79.6633562059537	-16.2533932318528	-20.9826074994195	-19.9939569063781	
2485000000.00004	-10.5715436897531	24.608585001196	-69.2559299428852	121.313087948673	-77.4979253230024	-113.692582137355	-20.8496327849119	-20.873331733712	
2485333333.33337	-10.5612141202432	24.2608266744744	-68.6912661437063	116.221145203161	-85.8565259925484	-133.278866977852	-20.7557347901107	-22.0437800950771	
2485666666.66671	-10.5517922437744	23.8532061538193	-66.2253423079504	100.947767656864	-80.7342187212806	-55.2819068131574	-20.6446204765346	-22.9591773353724	
2486000000.00004	-10.5494277657743	23.4128575129994	-66.1860147630649	100.129464754418	-81.266212853914	-29.5003847420713	-20.5233663402325	-23.8962742748864	
2486333333.33337	-10.5430282525202	23.0213466126269	-67.4923930864894	91.7258236086918	-77.8149967269551	-46.2967545392023	-20.4073885206727	-24.9117985057745	
2486666666.66671	-10.5451299449814	22.5158152762947	-66.073825040651	87.3884768933306	-79.6236973026769	22.4975000223732	-20.3178997365894	-25.8408984950969	
2487000000.00004	-10.5411168285956	22.1436796381878	-65.3258478045498	93.3282039285039	-89.4985784911714	68.3810421441886	-20.2086486366747	-26.7177053902677	
2487333333.33337	-10.5526570050417	21.6551851842226	-64.926022876409	86.984157435618	-81.4593880211049	-34.527305556144	-20.0970178003318	-27.6858887051633	
2487666666.66671	-10.5640570796566	21.1550967831053	-64.0766552286339	66.3633806228261	-75.4956678694256	20.0540894443749	-20.0068571235112	-28.4855697494862	
2488000000.00004	-10.5725634397574	20.7337118102202	-63.8126914957722	66.7488667527692	-79.7439620443691	66.861292889427	-19.9218329962083	-29.3351079313854	
2488333333.33338	-10.5906629892742	20.2588405214006	-65.3336260442993	63.7599981463928	-76.733370195134	99.9019306812207	-19.8222193256045	-30.1884698659812	
2488666666.66671	-10.5941441866689	19.7826431853568	-61.7541528258549	42.127534812169	-71.9013320492409	-33.2163320902131	-19.7394635008721	-30.9722926701734	
2489000000.00004	-10.6134602980181	19.2975068610028	-62.5382030507684	41.8489509206323	-78.7374452970488	5.01681773989648	-19.6672885481611	-31.7427011007488	
2489333333.33338	-10.6207719456721	18.7314982895423	-62.1155336969803	39.0425647274276	-81.344505577642	63.0404913264186	-19.5743595443728	-32.5312270743496	
2489666666.66671	-10.6415899765689	18.2489772537699	-60.8469590933449	25.7668543432019	-70.7678478673852	-5.71777954216923	-19.496986995531	-33.2891552916646	
2490000000.00004	-10.6631116259295	17.7296656894436	-64.5707783582019	12.8151432010344	-88.8038289882091	58.157103073978	-19.4370335143415	-33.9386723856894	
2490333333.33338	-10.6966612820374	17.1734668567201	-62.7237157467347	13.8716846607224	-82.0729117605445	-53.5872618975765	-19.3857414029937	-34.6450501586192	
2490666666.66671	-10.7194409041949	16.6937683593766	-61.9562141045898	2.66026066198439	-82.3017030165417	25.2663604495421	-19.334240585983	-35.1896537500383	
2491000000.00004	-10.7489165467021	16.1388710710517	-60.792425711937	-5.30275780625932	-88.7944178508748	-154.804157006027	-19.2768518140653	-35.7790263575132	
2491333333.33338	-10.7868447078367	15.6259848769026	-60.439986186805	-24.5012129083188	-72.026501900303	7.25675620932534	-19.2305414615294	-36.2941618484282	
2491666666.66671	-10.8237796729152	15.0824368513644	-60.3147341718798	-21.757295456921	-90.6407962821991	-179.251076935514	-19.1796778186194	-36.8863259503104	
2492000000.00004	-10.8553745124183	14.5354012589989	-62.2888172046955	-30.640892366935	-79.3700374194856	-89.4368734272691	-19.1206631196793	-37.2797137412172	
2492333333.33338	-10.889314968946	13.9558965509345	-59.6666652498805	-48.8227671195169	-86.6253565138746	84.8210532813844	-19.1059910823316	-37.6693278391938	
2492666666.66671	-10.93333624841	13.3994710287598	-60.0295888631071	-52.2495213212496	-78.8614820627731	43.4533639303138	-19.074804924531	-38.1662729283952	
2493000000.00004	-10.9854241388432	12.8583921844883	-59.5005805710415	-55.719080310085	-78.9666204837909	-38.1852025129808	-19.0475910995862	-38.4585390208366	
2493333333.33338	-11.0175740612225	12.3050892139685	-60.9401026315508	-65.3941185806751	-80.2498857563292	-160.014510460375	-19.0120008493789	-38.7688909832695	
2493666666.66671	-11.0743200780672	11.7136008166897	-58.4422570239209	-74.6937395668264	-74.4634227566987	-34.0177748776868	-18.9973990632825	-39.0711575838364	
2494000000.00004	-11.1127586402924	11.1387296773656	-59.4051525138027	-90.8302746379466	-82.1139967405918	-49.2193840489462	-18.9847131091633	-39.3514461540465	
2494333333.33338	-11.1489241523854	10.5757827225069	-58.9708567126183	-95.8630942467008	-76.3821561620043	-33.0497414463286	-18.9807358611408	-39.4576869407686	
2494666666.66671	-11.1997617385293	9.98743171904214	-60.2122797293255	-112.469275830542	-82.5164500767748	96.3416588676418	-18.9572755522182	-39.682008842327	
2495000000.00005	-11.2495383313761	9.42511967711016	-58.0322702827077	-117.419268518652	-82.9880392103313	151.357435409053	-18.9533833865212	-39.91551254835	
2495333333.33338	-11.3038707894711	8.75733310772327	-58.8909353005758	-130.271400582541	-75.5357368931617	20.1338286753336	-18.9677164075707	-40.153857593317	
2495666666.66671	-11.3565830424393	8.21429174460285	-58.0825522152035	-140.569614026288	-82.8164443470629	-75.7999637914143	-18.9706024580472	-40.2182264656683	
2496000000.00005	-11.3950699191261	7.57932177608631	-58.0259401428928	-144.326832801897	-80.4485717736944	-81.5794692814398	-18.9513581922072	-40.322786454647	
2496333333.33338	-11.4469497423073	6.98202481162572	-57.6895572281549	-152.883304318056	-83.5619383209993	-152.066993183147	-18.992185563472	-40.3603260597387	
2496666666.66671	-11.4868005340725	6.36240330701126	-57.4194335802547	-159.714375054342	-82.5951810673423	67.350301475279	-18.9944794687309	-40.3414640154375	
2497000000.00005	-11.5422417083015	5.79492656294413	-57.5762800219502	-173.043997444439	-79.7683441156873	3.39296862433841	-19.0010119974037	-40.5616888374346	
2497333333.33338	-11.5879523403135	5.21229605246922	-57.4365258188416	170.534910276589	-90.7369842605542	-70.5896353462208	-19.0365076306108	-40.5316414006935	
2497666666.66671	-11.6442107330984	4.56637216030997	-57.6523924440851	169.715200701225	-71.4229516418689	164.482003656511	-19.0690746018628	-40.4115217776214	
2498000000.00005	-11.7002484109312	3.9208460416982	-57.4777662586674	153.739174787207	-81.5259751775051	-136.29998776668	-19.0919653910181	-40.4425444718259	
2498333333.33338	-11.7373476265807	3.29707673570801	-56.9187878310595	154.453276843742	-81.0629031307749	1.08606733990752	-19.1111110630518	-40.483142641669	
2498666666.66671	-11.7853975170046	2.7539972626336	-57.6673237844013	141.866198729377	-75.0636057180773	83.4508305099555	-19.1665078107135	-40.4628896316825	
2499000000.00005	-11.834121642295	2.18448138309223	-56.9132348834627	132.027841051975	-95.9982480702718	-121.873391346078	-19.2110830260222	-40.4950403524553	
2499333333.33338	-11.8864986336887	1.48800522217071	-56.6781509849371	115.301238313569	-97.6222271889622	-45.4875225987156	-19.2856338982526	-40.2127539034404	
2499666666.66671	-11.9297852908315	0.906106435684666	-56.9623571133554	108.561027480211	-79.3897818442643	94.1611514752702	-19.3453224513171	-40.1110951400778	
2500000000.00005	-11.9735420140878	0.272770262327474	-56.835468030917	105.404551614888	-72.3533314420753	102.513413398865	-19.3883727918815	-40.0663142282544	
2500333333.33338	-12.0077576209601	-0.365416792725537	-57.925348778214	89.9176891795994	-77.5356584165605	123.634324395514	-19.4802071936306	-39.8902141156675	
2500666666.66671	-12.0569579793353	-0.943394156732789	-58.2069686802753	91.0762340579581	-80.5995991075508	86.8907979949041	-19.5467020764912	-39.6106417481096	
2501000000.00005	-12.1021883897264	-1.70540031695851	-56.6096321532073	81.4155054891534	-76.7028598102949	110.589760690009	-19.6241747186753	-39.4925820835318	
2501333333.33338	-12.1372189471689	-2.32080196025435	-57.0112985889422	73.0540576519384	-69.8103383792247	-3.16705905286321	-19.7260888238214	-39.0417268907439	
2501666666.66672	-12.177724688266	-2.91278370381778	-56.2830501940399	68.3283613477724	-74.6798362041312	59.7430789698792	-19.8085383553108	-38.7647086675728	
2502000000.00005	-12.2249786667465	-3.60075491706423	-56.8735142274718	50.8320838856818	-86.2012081133421	40.7495596573605	-19.9286406378567	-38.4509715618153	
2502333333.33338	-12.2623690978182	-4.34246818350735	-57.1554422713755	46.8086639423346	-84.9041036790779	-161.846338633946	-20.040594788875	-38.012217340292	
2502666666.66672	-12.3072365766501	-5.03927960273045	-56.6433750607465	35.616711572095	-75.344154755021	-33.4566518646317	-20.1299426279405	-37.4826932625633	
2503000000.00005	-12.3372998097993	-5.72181206940787	-58.1931214768895	27.2970182516172	-74.4565122950469	16.2672170870681	-20.2603518064137	-36.8426113202536	
2503333333.33338	-12.3697778473127	-6.43324344816602	-56.3422895685984	17.9539492438467	-76.6688939028965	-2.61294825778531	-20.3696746665244	-36.367680772978	
2503666666.66672	-12.4051921914359	-7.14230560676216	-55.2992224207281	11.1677024156527	-88.8513510299414	-99.9193608303694	-20.5147466534496	-35.4652159205887	
2504000000.00005	-12.4300496239943	-7.93606273751123	-56.8521891168547	-0.671912194456856	-77.1750476904022	110.946064354512	-20.6360533074948	-34.9977738855064	
2504333333.33338	-12.4589510189735	-8.66580017844449	-55.6463248439565	-4.86212240609579	-85.2338859654158	-63.6119360016337	-20.7528589359259	-34.4086983217916	
2504666666.66672	-12.4837779220126	-9.41036020086429	-56.1077191667485	-10.7974168255744	-85.6580345950776	18.2991462389654	-20.8893555158682	-33.5639457542683	
2505000000.00005	-12.5091349881595	-10.1095984768851	-56.2643278560378	-27.7404174945059	-77.9232151463202	-36.7620142139059	-21.0517984828417	-32.5684471837647	
2505333333.33338	-12.5334337824851	-10.8882508322021	-56.0322846643965	-34.8905281669068	-82.1332938030255	-27.5177149543001	-21.2074462851037	-31.6537590223144	
2505666666.66672	-12.5528466039526	-11.6813708130635	-56.5031678130654	-46.8142647098398	-85.4628920649068	42.192824919652	-21.3833428733217	-30.5413667059575	
2506000000.00005	-12.5682928489592	-12.402470437676	-56.2682569715926	-59.393972393799	-79.2160511327262	19.6174067129466	-21.5033183601342	-29.5172422490562	
2506333333.33338	-12.590823305247	-13.1161885067356	-56.2223966408884	-68.2570962134485	-74.6399063254452	-18.1186906143968	-21.6797438599457	-28.2128852555612	
2506666666.66672	-12.5956108925461	-13.9014681070892	-56.6344880739254	-83.6334837116364	-78.8426485174885	132.800505513347	-21.8557548487242	-26.9861414552459	
2507000000.00005	-12.6072141275113	-14.7064550587113	-57.5296085288506	-89.3769706366831	-81.7642999197124	-6.18929624475586	-22.0171932914355	-25.7303603187822	
2507333333.33338	-12.6200273954381	-15.4509316289877	-56.6447374626729	-97.4483597001394	-94.2180708183486	-30.9962056047905	-22.17025320149	-24.2888684067359	
2507666666.66672	-12.6230873189584	-16.2218786694016	-56.4924088279478	-106.918683749615	-77.7034874853369	54.2631064124688	-22.3464613008004	-22.5773049596041	
2508000000.00005	-12.6385611075848	-17.056729977337	-56.0716965980461	-118.809163352697	-78.0136918065508	-179.557179427795	-22.4990052799603	-20.7654072319767	
2508333333.33338	-12.6419483997597	-17.8428836091222	-56.9587257125937	-129.000533547215	-86.1644828802136	97.4162304126504	-22.6238674664578	-19.0081619301386	
2508666666.66672	-12.6450645635439	-18.7257439583445	-55.9152913998989	-139.111703291317	-78.6661772686066	72.4023693808171	-22.7571121776347	-17.0122610708905	
2509000000.00005	-12.6477744359718	-19.5708137014063	-56.3703846598466	-140.80562235301	-81.8351568982541	148.874380254933	-22.8699317706693	-14.782333286648	
2509333333.33339	-12.6468018498954	-20.4265291638186	-57.3805689888574	-154.668091543829	-75.3645868841501	170.56160863588	-22.9763398457407	-12.663818683757	
2509666666.66672	-12.6508825801614	-21.2176554437872	-57.2095169135572	-159.63054224738	-77.6841995087038	-166.61721790675	-23.053328822075	-10.4662897829715	
2510000000.00005	-12.6350619080277	-22.0529484827786	-58.5989223626701	-167.965909570395	-87.5423871517241	-139.817445204653	-23.1022311619843	-8.38015339945318	
2510333333.33339	-12.6380147177151	-22.8910329823261	-57.4029651731728	175.888135025687	-81.6552114212212	-126.366549377519	-23.1537935395053	-5.84984335179836	
2510666666.66672	-12.634792322969	-23.7165496202526	-57.3212613822253	172.590061234751	-76.2124187628191	-153.983777662472	-23.1735526716273	-3.57652813288405	
2511000000.00005	-12.6224916115172	-24.5502236231194	-57.9813743459303	160.995764743176	-90.0238438762339	116.451426410852	-23.1872683617514	-1.21179498389799	
2511333333.33339	-12.6155009263399	-25.336448040592	-57.6970836086353	151.204570070268	-76.9964648717307	88.9258740328012	-23.1644021718757	1.16316736752206	
2511666666.66672	-12.6101702407742	-26.1693707465299	-58.9729229992265	149.075163435251	-80.7410625714268	-5.43668539342627	-23.1199324769537	3.62630659101719	
2512000000.00005	-12.5986995674193	-26.9378355103994	-58.4852164193978	140.897867875693	-75.3466587575505	124.490696405634	-23.0637996539422	5.8055919078533	
2512333333.33339	-12.5939999650339	-27.7557737966201	-60.3230222469759	129.814265206153	-80.5756559450808	-164.603217719892	-22.9744330924874	8.14722805349533	
2512666666.66672	-12.5752396966834	-28.5247491078711	-59.0359821131606	123.689485392542	-76.9863864752075	117.309227667706	-22.8548671173882	10.3544797994698	
2513000000.00005	-12.5734995723359	-29.3005572041091	-60.0044336298448	110.986182481498	-79.4185036830969	-32.8352552361751	-22.7556371225094	12.5785583029077	
2513333333.33339	-12.5623127547864	-30.0461784046722	-60.2650774274453	107.175542247558	-76.0905948733829	118.156142621681	-22.6390577050693	14.4441625068249	
2513666666.66672	-12.5498998401957	-30.8344894727342	-58.8845811260557	106.76458425437	-93.4792247446144	138.292305660547	-22.4743026494467	16.2679392230911	
2514000000.00005	-12.5304659753382	-31.6110000041396	-60.3951687155495	87.1413675815858	-81.8912322648505	46.8663178707841	-22.3319714748598	18.3599256351257	
2514333333.33339	-12.524115535144	-32.3524424475326	-61.7403759261775	85.6120289774175	-87.7825611031973	14.6720665507665	-22.1496127614248	19.8662270786725	
2514666666.66672	-12.5097879590686	-33.1608869923218	-61.62818987214	76.7086998172181	-76.0274653496194	115.620576978871	-21.9574010440731	21.617726628198	
2515000000.00005	-12.4995419637318	-33.937172847909	-60.7460653876861	71.7532437287207	-80.9176906687786	-110.122740208008	-21.7716588072226	23.0929139304554	
2515333333.33339	-12.4781240418383	-34.6747323178307	-60.1915993256867	66.7519046316112	-74.9763595185779	-160.493790945868	-21.5915241687967	24.3781046389986	
2515666666.66672	-12.4671734772711	-35.4153180490256	-61.9166568131722	57.5604012816197	-76.8603837151609	53.0320071526793	-21.3898784469584	25.7181531203556	
2516000000.00006	-12.4637028833188	-36.1558765090672	-62.6911406335573	58.7897672258636	-78.7883650882879	36.9010795240027	-21.1929143362642	26.5537820811269	
2516333333.33339	-12.4481952992375	-36.8748582236957	-59.9457860317632	53.886359854666	-90.1181774523294	58.3497050091589	-21.0016665750547	27.5595093857093	
2516666666.66672	-12.4412583662673	-37.5557517253256	-62.8714333078664	44.1304013443818	-76.4672089150401	-90.5959037851088	-20.8062432819937	28.4824327259023	
2517000000.00006	-12.4305053465763	-38.2378883282897	-60.1159333058509	32.1547978913609	-81.5707253902243	-153.62336025114	-20.613821546663	29.1292746203605	
2517333333.33339	-12.4242808723699	-38.8652111375316	-61.1172640735899	22.1796435123276	-75.6005190701645	114.010070003236	-20.4172328123223	29.7250026982118	
2517666666.66672	-12.4161983079854	-39.5310768877766	-61.0459481127518	24.3024378464651	-88.0451153451288	9.94469750912573	-20.2479564571337	30.1978019100708	
2518000000.00006	-12.4061456639116	-40.1409638127758	-60.8748695331271	8.26327468478924	-77.7647762919177	45.6889644789459	-20.0797735473685	30.5786679403437	
2518333333.33339	-12.4006648754416	-40.7669753188476	-60.7591608355622	-2.52513065254353	-97.3560395006159	-4.70211324805629	-19.8937081316061	30.8165933325321	
2518666666.66672	-12.3950697142124	-41.3410514867241	-59.6031658443878	-11.7152134315821	-72.8085778606736	162.649908960748	-19.739334140616	30.9346585951953	
2519000000.00006	-12.3908589952151	-41.9455084575454	-60.0686723313343	-14.8549481344973	-82.147852619474	23.9793948371853	-19.6392033259841	31.1748434562876	
2519333333.33339	-12.3911961249585	-42.5325778843765	-60.0131308758886	-24.3578741369531	-79.0938623800266	-141.615700549418	-19.4988478874765	31.156474820525	
2519666666.66672	-12.3944608458614	-43.0547109790189	-59.8016562451403	-38.769563273094	-74.1666059108162	117.003478336354	-19.3573521778344	31.1870658610777	
2520000000.00006	-12.388997311515	-43.6235355075667	-58.9441551214155	-45.9341105289305	-74.4119578341271	153.226071665316	-19.2603527664289	30.9670356619143	
2520333333.33339	-12.3877089804256	-44.0626924432696	-59.6767111532942	-47.4358287318567	-78.7549420835223	51.4372071356216	-19.1362833916841	30.762530998245	
2520666666.66672	-12.4010945934841	-44.6162617205901	-59.1129914461694	-58.4839912137203	-73.6855484921117	-151.172174506458	-19.0901705434501	30.5944648475774	
2521000000.00006	-12.4048668693942	-45.0769364406536	-58.6636072602737	-71.7318561677962	-91.9307384466502	-59.4275222969671	-19.0092135450488	30.4681990309548	
2521333333.33339	-12.4126283989774	-45.4752574608937	-59.2912177890265	-74.6471488640561	-81.6814005457695	-156.491776781485	-18.928110909213	30.1098018286512	
2521666666.66672	-12.4089018321601	-45.978018368201	-58.3513024074907	-90.2833899398832	-75.4691248909268	-152.419531290041	-18.8610920985038	29.6686304506059	
2522000000.00006	-12.4212321637636	-46.3688822644326	-58.565831483523	-103.184917974437	-79.6964933833271	133.219781573381	-18.829387853735	29.4119864815904	
2522333333.33339	-12.4271667332054	-46.8504855162071	-58.557850639082	-111.351798168964	-77.7359864548865	-153.392023554394	-18.800569928529	29.1810292035561	
2522666666.66673	-12.4339131904357	-47.2389638453491	-58.5329791761861	-118.314241149955	-80.4283847073996	76.0343172816152	-18.763733132612	28.7218228818103	
2523000000.00006	-12.4469175469065	-47.6220174686142	-59.0693741992516	-132.920252448924	-82.0385978024006	126.463111552034	-18.7489173896495	28.222796803013	
2523333333.33339	-12.4566182391414	-47.9640577395488	-58.6554812800729	-139.79530139859	-80.923468960537	-176.57701590648	-18.7537522848214	27.8398798347893	
2523666666.66673	-12.4680844841112	-48.2890722166214	-59.0425248433943	-148.229177974611	-78.9460607191111	-109.224887090776	-18.7495535353012	27.2966475549291	
2524000000.00006	-12.4971420989475	-48.6146169493337	-59.67062569224	-158.902630118074	-75.6912517785469	-121.31342485017	-18.7510783650208	26.8260767807791	
2524333333.33339	-12.5031914658775	-48.9437583809631	-60.2610657443095	-162.382031481282	-78.4650453970489	-100.270585992421	-18.7655919437402	26.3514565647553	
2524666666.66673	-12.5156266997847	-49.2178660217546	-58.9381136299048	-176.654187178532	-83.5509543090041	-26.4151289744371	-18.8041798565735	25.8598173047992	
2525000000.00006	-12.5359981646535	-49.5371579154374	-60.9035943870812	171.550698089174	-85.1685618080867	148.464053911318	-18.8233838355531	25.3534344524378	
2525333333.33339	-12.5549589240383	-49.7628368623442	-60.5548157484806	165.421008057281	-84.2910122717658	111.940380459949	-18.877896117505	24.7129937823123	
2525666666.66673	-12.5841109859251	-50.0241864638704	-61.4321100673608	139.835632478694	-75.0970086647839	-159.000909668395	-18.9274075859016	24.1742773406257	
2526000000.00006	-12.5887014999148	-50.2947081582867	-63.832075778261	139.334542465646	-85.7596121315589	-32.034799054454	-18.970726850815	23.7119205396021	
2526333333.33339	-12.6238251746737	-50.4710590854766	-62.244037284169	138.57370372895	-82.9202491547916	158.659350905919	-19.0156321781292	23.0841087620428	
2526666666.66673	-12.6434280565775	-50.6634993694183	-63.5656419627141	135.711838761894	-78.1916461607682	171.046494043987	-19.1038952721343	22.4637423409121	
2527000000.00006	-12.6671837358143	-50.8735165133211	-62.7945154447602	106.982617012062	-79.0871602576625	108.61063559534	-19.1723354397246	21.9205150156824	
2527333333.33339	-12.6874731548635	-51.0938680583225	-64.8188102363851	96.2526280257609	-82.3630875718119	78.8362676786145	-19.2541850552799	21.3275262311458	
2527666666.66673	-12.7097362390576	-51.1905606168415	-62.6990746846954	107.082540706008	-86.7688325408933	147.113976747418	-19.3300866439578	20.7023634047435	
2528000000.00006	-12.7464238489024	-51.4762451129874	-64.9530496712951	111.922567485531	-84.9494293364759	-148.759658755135	-19.426870339328	20.1282851654546	
2528333333.33339	-12.7764240703545	-51.6161848669382	-67.9850056298447	79.8470554209984	-78.7928133906683	-126.568425433789	-19.5086925207917	19.4701346600516	
2528666666.66673	-12.7983957818787	-51.7497690743342	-69.0468353450785	102.152472772918	-93.5137479636193	24.4664105314546	-19.6259278853269	18.8499537849266	
2529000000.00006	-12.8293732458291	-51.9273975671669	-68.6437717307326	62.7041535466326	-79.9090765758499	54.9927197700983	-19.6983698244474	18.1785634432015	
2529333333.3334	-12.8515588079541	-52.1564553769792	-69.6092009938481	72.2952818859432	-78.2955781558514	157.173392844126	-19.8041064120894	17.5245325718782	
2529666666.66673	-12.8956333024977	-52.2436825357611	-68.8130890451783	93.3993220351008	-84.8201084173875	99.7393276028236	-19.9077253746056	16.8755010710281	
2530000000.00006	-12.9250656610964	-52.4321688514656	-69.4242703166457	69.9478865112683	-80.7475749821617	-100.84971871786	-20.0266592472611	16.1714310886629	
2530333333.3334	-12.9663003625954	-52.6152671210366	-67.0388678587251	71.6545738113592	-82.72502168037	-78.0313973072778	-20.1331779288702	15.5899047372276	
2530666666.66673	-12.9959106598577	-52.8785335226135	-67.1812382209401	79.683547684928	-87.2476196391113	11.5828814275509	-20.2344916878379	14.8634910873418	
2531000000.00006	-13.0355067943994	-53.0101667135988	-65.7844794205299	60.4651999480735	-88.1935818320548	-162.278033999565	-20.3430869688546	14.2124473859443	
2531333333.3334	-13.0779147578927	-53.2038962067193	-66.5363779250399	86.5781962365243	-81.2938296513217	84.3416384291964	-20.4654413831223	13.3689202854644	
2531666666.66673	-13.1178028844526	-53.3619698105194	-67.0316028559535	46.5442834612352	-83.8688735882497	163.813776840362	-20.5688225073014	12.8199141764778	
2532000000.00006	-13.1645501305792	-53.4969167983213	-66.1425087792121	42.3252850198199	-73.7005591311475	-93.8816031592596	-20.7036708136527	11.9485142162365	
2532333333.3334	-13.2103792376286	-53.6962895461519	-65.3417423592653	57.8532765835134	-78.9372110640926	174.840970808639	-20.8140033013594	11.1730001398715	
2532666666.66673	-13.2594830756671	-53.866053772144	-64.9736014775261	49.7563657081841	-84.1316926346275	21.9898428051671	-20.9219683293313	10.4172432721614	
2533000000.00006	-13.3038206794301	-54.0592161223984	-61.4950120614236	22.6256724051751	-79.715331430371	177.295044272685	-21.0266797772926	9.70244306658847	
2533333333.3334	-13.3429328131784	-54.247382776295	-62.081471585361	2.21902154868258	-79.1794174091967	-61.0677008433273	-21.1405547587867	8.8479893642915	
2533666666.66673	-13.4012970000441	-54.3856809542577	-63.4565115686036	16.7855084707184	-84.7537647925784	-136.546410920496	-21.2385042136756	7.99927193656531	
2534000000.00006	-13.4619695123325	-54.6767025399212	-62.1400372797289	-6.02754693427171	-77.3868789567878	12.5402694700125	-21.3338131444684	7.16360347703078	
2534333333.3334	-13.5067040663259	-54.8375325632193	-62.2485846236208	-2.94865531948164	-84.1115182501591	-144.261964481227	-21.4198398301407	6.13647842083701	
2534666666.66673	-13.5649661121947	-55.0163299005844	-61.3398638529634	-8.01425772812854	-83.4125894089499	-31.8611703768781	-21.5092728777167	5.32017865104822	
2535000000.00006	-13.6185795283456	-55.2354843294022	-61.3004566892229	-31.5393105026857	-77.8795085807739	-143.016755881264	-21.6096300481483	4.25260944113705	
2535333333.3334	-13.6790019663788	-55.459310557349	-60.7910778700623	-37.1037457387886	-75.529381796167	67.3420557028205	-21.6629088585031	3.31784824074237	
2535666666.66673	-13.7373762724134	-55.6709195170986	-61.194490373547	-46.6203616866819	-76.5146187433337	-15.1586877539227	-21.7362189079322	2.13476477088355	
2536000000.00006	-13.7908447613348	-55.8720046619779	-61.5441537691829	-58.3770221655287	-83.2701948210443	-127.709863571971	-21.8254377374896	1.13563372710281	
2536333333.3334	-13.8536598084126	-56.0335373728319	-61.9362716142	-65.3456669877298	-76.7416982943633	-53.7770179039489	-21.8966259122486	-0.171630174291062	
2536666666.66673	-13.9096874614562	-56.3083192928554	-61.5019141803784	-81.8372074345947	-76.1321579156829	153.874122402597	-21.9269823183618	-1.23939057857252	
2537000000.00007	-13.9784655797919	-56.4884925326635	-61.4214506341398	-85.3347248105452	-88.4725600915338	86.1262767299481	-21.9788224975682	-2.49306432861926	
2537333333.3334	-14.0453675498867	-56.6229411043488	-61.831712587827	-100.223275223019	-80.2860831892135	-126.222131660207	-22.028522357056	-3.68645410434968	
2537666666.66673	-14.126370385977	-56.927892926121	-62.4457765173677	-108.518310074206	-76.3164223173892	-55.5283409120592	-22.0449867849387	-5.00474029359158	
2538000000.00007	-14.1851498137793	-57.1275318183387	-63.3122259671061	-108.481700091347	-74.8907039053697	-118.18696378158	-22.0791487011357	-6.12757037636837	
2538333333.3334	-14.2427366565319	-57.3099931876688	-63.0419212046246	-117.108705464709	-72.0599757502483	-41.6628970081722	-22.1133844617983	-7.53138466195193	
2538666666.66673	-14.3216430867933	-57.572520758594	-64.0352235212985	-131.134599165745	-78.2687352862399	-39.9516446618275	-22.1265162676924	-8.66062909405791	
2539000000.00007	-14.399434696569	-57.6483067988148	-63.8423460360058	-156.485206063719	-79.7671863094572	-151.760851283589	-22.1217296383637	-10.0378245633424	
2539333333.3334	-14.4788133254368	-57.987142431176	-62.566850798245	-137.901839935993	-77.8729313731669	156.222810307153	-22.1288896653167	-11.4681720303268	
2539666666.66673	-14.5588794272752	-58.1990063465484	-62.8058457408953	-158.734187559191	-82.4621014457204	-170.098380284931	-22.1245130912049	-12.7509310523893	
2540000000.00007	-14.6357706868209	-58.4269117503601	-64.1676639094222	-170.794391180983	-81.5344787977889	178.510886166791	-22.1060713039088	-14.1140905732368	
2540333333.3334	-14.7223868630819	-58.7665263916012	-64.6400256223832	-177.543831065782	-81.5475041901727	126.72054423885	-22.1050718129351	-15.5506330907881	
2540666666.66673	-14.8030857851686	-58.8912904510442	-64.9434899373748	167.194261542188	-79.1536715966555	147.986197281771	-22.0634398244429	-16.9440084557697	
2541000000.00007	-14.8826169697952	-59.2741033708401	-66.1840218634925	170.705826673587	-92.7383065219358	37.2705981839405	-22.0362849404779	-18.323784405174	
2541333333.3334	-14.9573471853741	-59.5242075122408	-66.0440014634943	154.860462693548	-81.9124218504274	-168.982830034461	-22.0197698900323	-19.5356973235459	
2541666666.66673	-15.0350136724854	-59.8805089874387	-67.0724012904527	152.604248785416	-74.1151975669954	-148.965131662347	-21.9522198973554	-20.9357305599341	
2542000000.00007	-15.1339083878589	-60.1042447057677	-68.6309955275391	168.750373081431	-85.1663181218931	68.8113081282646	-21.8981296691219	-22.2583342198387	
2542333333.3334	-15.2235318038392	-60.5846199307898	-65.420100158996	146.675138284977	-76.4843245990206	-67.3114728718576	-21.8558018594909	-23.6310857612715	
2542666666.66673	-15.3016036348412	-60.8404702076911	-65.2202393945758	152.506953965054	-91.1808120238435	-17.2281429171417	-21.7928724658125	-25.0304482625588	
2543000000.00007	-15.3929986417206	-61.2625472051009	-65.1113766140245	131.924543516806	-77.8649301903624	-84.3830313420923	-21.7221171370801	-26.2071780547231	
2543333333.3334	-15.4809202518253	-61.4762872614698	-65.5177327433565	129.176280541862	-74.2613453648531	-45.058575162137	-21.6376722769961	-27.5970517481546	
2543666666.66674	-15.5848134790219	-61.8743197516922	-67.7216035807018	126.517424862492	-81.1238088918459	-110.687797901465	-21.5524268146038	-28.9422324219892	
2544000000.00007	-15.668351332567	-62.2406297521954	-66.2094670705518	99.6508721921584	-78.7571758084545	-52.94843928338	-21.4962214266975	-29.9803962814908	
2544333333.3334	-15.7838570169335	-62.6238705337579	-69.2726708181765	117.547011500567	-103.325876435656	-48.8863973815412	-21.4185540946962	-31.397883385096	
2544666666.66674	-15.8709317480045	-63.0565549493692	-65.9747254570736	116.091872995094	-77.1014166139317	4.99633225639974	-21.3150875457416	-32.5964874002211	
2545000000.00007	-15.9762404670798	-63.4442929488973	-64.4087379092108	106.163383688046	-78.3663599573254	-88.0306170933188	-21.2232851022946	-33.8867348194095	
2545333333.3334	-16.0828249821618	-63.841649778277	-64.4972236846899	92.3900645505218	-82.302363134835	-102.946954697165	-21.1532265628673	-35.2552634131183	
2545666666.66674	-16.1880354876036	-64.2421626840615	-67.7381520285452	80.8076944033245	-78.9752105889921	111.299728050799	-21.0740963830966	-36.3097877333506	
2546000000.00007	-16.2956079394228	-64.8121085570664	-64.5049615426231	69.2599737239057	-83.1658515021064	-15.0449546607829	-20.9834283330265	-37.5973698042013	
2546333333.3334	-16.3908081009472	-65.2287402565387	-62.9799554308874	75.857770051093	-73.6579339239452	70.4138574379796	-20.918526579319	-38.7809206154222	
2546666666.66674	-16.504676408908	-65.738317053341	-64.6692130616	64.5544601835726	-77.8845148698887	-173.373031048614	-20.8433616260234	-39.9897080728561	
2547000000.00007	-16.5938848386507	-66.3844627836162	-64.189665965403	42.2103798211315	-72.7522236094652	-128.50374936237	-20.7863653627484	-41.011658716245	
2547333333.3334	-16.7006190806471	-66.9631337213766	-63.3979973693469	45.0896485383531	-80.8610441035933	-123.206276936083	-20.7289220140975	-42.1306888310002	
2547666666.66674	-16.7943317932734	-67.4472870173493	-63.2506773290651	40.3356928261406	-79.9350559280485	-150.869407791373	-20.6715744500404	-43.1603125017025	
2548000000.00007	-16.9005244488056	-68.1980987710922	-63.9568786273066	40.2292662412515	-74.3006918717162	-152.28364989865	-20.6238709358681	-44.2640635012849	
2548333333.3334	-17.0055450795509	-68.8172673480151	-62.1716109285593	23.1116056103791	-92.2064442330244	35.6020691961497	-20.5976596423744	-45.3450437441673	
2548666666.66674	-17.0980144771307	-69.5733076434616	-62.9946125142586	15.0171255556458	-73.7736461449016	119.806585088595	-20.5704124267731	-46.2930070488604	
2549000000.00007	-17.1943683284561	-70.2407526474644	-61.8642602393151	13.0154492554194	-83.0144279745787	108.771406400877	-20.5509596943953	-47.1699940137591	
2549333333.3334	-17.2930527248361	-71.0594470408596	-61.8662207966187	-1.58900603494986	-86.1920654278425	-108.360113160418	-20.5404590115015	-48.3207723341568	
2549666666.66674	-17.3937227920493	-71.7562946942369	-61.9467451548753	-11.0109443958452	-76.3512354765724	-112.30991585354	-20.5262420605172	-48.9323822380197	
2550000000.00007	-17.4768904281197	-72.5627138369124	-61.4396126530144	-21.960551538813	-91.4478182837563	-160.377311226488	-20.5232296257742	-49.7924962178444	
2550333333.33341	-17.5692911535877	-73.4210829092099	-63.0647935547571	-25.2542953994757	-79.5009284169156	151.192125803456	-20.5630609412874	-50.495909741204	
2550666666.66674	-17.6544229248456	-74.4119534274155	-62.9895557483159	-39.7940567872272	-74.0361700604813	96.4430317335311	-20.5747904769484	-51.0855191558475	
2551000000.00007	-17.7292809962111	-75.2108367305758	-61.2347870556435	-45.0205671706357	-76.7358426319261	-55.2861798530999	-20.5932060268529	-51.7325378603895	
2551333333.33341	-17.8385929754001	-76.1884479069346	-62.0182730925434	-44.8563797676599	-77.6628027943752	48.5939111347038	-20.6195543394271	-52.3534218122891	
2551666666.66674	-17.9230522159529	-76.9426216642751	-62.1796309894585	-70.3483092699776	-82.3426068591547	148.267828204394	-20.6490602287544	-52.6877615857416	
2552000000.00007	-18.01779543466	-77.9166963912999	-62.2875992026433	-71.9857962216693	-81.1653675659519	-88.2107547008251	-20.6802618497633	-53.1477079892857	
2552333333.33341	-18.1120348934543	-78.8785978313096	-62.3297456581325	-82.1003802500964	-87.203256772329	-144.403793088894	-20.7630479626913	-53.5544995413157	
2552666666.66674	-18.1958456728266	-79.9002041318631	-62.1404500054292	-97.3648565334964	-82.3277453365129	38.3095394965939	-20.8220578219133	-53.7674084959773	
2553000000.00007	-18.2591765100664	-80.8101297118743	-61.2698236459995	-94.1457390691985	-87.4795889267368	-53.648985318501	-20.9054771857171	-53.9693217260383	
2553333333.33341	-18.3391152216514	-81.8613250710505	-62.9422143979118	-114.066229600902	-75.9521255432852	-27.2965455346753	-20.9748164607956	-54.1508399357494	
2553666666.66674	-18.4270528189213	-82.8024561287482	-62.0745615154184	-127.123995863073	-81.9724785068642	-77.5152637712831	-21.0735294663501	-54.2932596473813	
2554000000.00007	-18.495277914544	-83.8525363933087	-64.0024658366055	-110.292290691907	-72.0849877597862	-107.982124576784	-21.191300629716	-54.2302173325433	
2554333333.33341	-18.5471854680516	-84.9281790460184	-62.8315091832167	-138.971202551353	-87.1346104961931	-59.3981829995273	-21.2973610583099	-54.1917537713254	
2554666666.66674	-18.6171290107635	-85.9171409092493	-62.3504662863459	-154.112499365451	-81.4127161930194	-41.2224691771621	-21.4250123951068	-54.0183706419438	
2555000000.00007	-18.6670893808804	-86.9056045927399	-63.1615706087794	-155.481444262885	-81.7081361347096	-127.944218819756	-21.5636359507552	-53.5597585770238	
2555333333.33341	-18.7146439807535	-87.927974433426	-61.1976549626486	-166.049630047399	-75.1794012234477	-157.335908575132	-21.7228288242946	-53.0959899960534	
2555666666.66674	-18.7780746226984	-89.1169169490351	-62.5873848599032	-174.837792581064	-89.7066357080591	-87.1984555648705	-21.8592432137011	-52.5205120305349	
2556000000.00007	-18.8133138021555	-90.0509973330761	-62.3843532863531	177.432649126859	-77.1608955694216	-53.7453089340228	-21.9893495930366	-51.4642940590539	
2556333333.33341	-18.8401354702748	-91.2044043851868	-62.0388570785747	165.043290770739	-74.6924794980493	-85.9983945828219	-22.1501234423665	-50.8299282884559	
2556666666.66674	-18.8598196944232	-92.1496314146898	-62.3961560054343	160.679516803367	-74.6445997501535	30.5949383640701	-22.3148330629961	-49.611149828001	
2557000000.00007	-18.8996194613623	-93.1023126948933	-60.9747881641669	156.772028413356	-76.1729740315176	-66.2045991704545	-22.4348394483201	-48.3662370676307	
2557333333.33341	-18.9228924765774	-94.2302686732612	-61.476765711071	138.550568735408	-82.290067296126	78.7851217734407	-22.5830641559977	-47.0032805339877	
2557666666.66674	-18.9414224290449	-95.2873407300066	-62.9775640554291	141.219850286003	-77.2275133840677	114.804936033057	-22.692662886155	-45.3032036440656	
2558000000.00008	-18.943088753189	-96.3659059298581	-63.4187237821607	132.654935737465	-74.5238833856412	12.5520853452608	-22.7913724282298	-43.7040003927496	
2558333333.33341	-18.9444428602949	-97.3244594563805	-63.457901440056	109.964906778563	-77.243417897213	-75.5116370764785	-22.8975047650491	-41.836738188165	
2558666666.66674	-18.9509853608001	-98.3520593634005	-63.1992641378879	114.250812354321	-78.9422615642093	-164.70988560989	-22.9347638253142	-39.9015147715884	
2559000000.00008	-18.9496996404967	-99.2474294934898	-61.5484637108251	106.565747677393	-87.0400924067939	-68.1208210486992	-22.9768406892679	-37.7446054415111	
2559333333.33341	-18.9317648584808	-100.240049409371	-61.1400349444956	92.322959214033	-82.2125629101251	29.0089465368756	-23.0146554663005	-35.7122871309278	
2559666666.66674	-18.9207576169378	-101.170260942999	-60.8737205646424	79.4164355547551	-78.3047735793075	5.48136005492255	-22.9824627178674	-33.3603317484139	
2560000000.00008	-18.9051763780631	-102.12174374964	-61.7166611640607	85.0020109682559	-73.435395162145	-169.98367337679	-22.9395042170732	-31.3355316861254	
2560333333.33341	-18.8735576193074	-102.967628280146	-64.0179316083066	68.3360922896509	-83.8807364494902	31.6783068015902	-22.8925600953833	-29.0977726681503	
2560666666.66674	-18.8426026419303	-103.926428582172	-63.0282858704094	40.3756929904272	-80.1536696578146	153.941412906515	-22.7758424534078	-27.0396153769051	
2561000000.00008	-18.8128305393876	-104.852166598484	-63.8533607964321	62.3346311359149	-78.6119465325259	-172.554692226935	-22.657489929828	-24.9375896373875	
2561333333.33341	-18.7824941091826	-105.594293190718	-62.211307527161	48.3147078746616	-86.9333947943894	44.352611763061	-22.5312052349271	-23.1641345724955	
2561666666.66674	-18.7408855439641	-106.536075609807	-63.2437893708883	25.0921383952931	-73.8640165435933	50.8053427283103	-22.349039809868	-21.1387673368917	
2562000000.00008	-18.6831921659627	-107.300108199534	-61.6640232622193	12.9276179984281	-82.8081334082774	13.2505864475305	-22.1851926789949	-19.4856924853604	
2562333333.33341	-18.6262027099941	-108.307199267717	-63.1065641659182	18.5760749426935	-85.2386386067404	-89.0970403585224	-21.9977500462272	-17.7865600412436	
2562666666.66674	-18.5775989283704	-108.903480133386	-63.1299809918978	13.1472539091185	-105.146241551874	132.230857913637	-21.7985627264966	-16.2147027833974	
2563000000.00008	-18.5137591090561	-109.746595176057	-64.8850747082816	10.8845225882887	-83.2929241380852	-92.1087609138196	-21.594241608209	-14.9110736512011	
2563333333.33341	-18.4605437442648	-110.445910571522	-66.0291407687817	-8.94587191060796	-92.6123728569494	173.736498088701	-21.3820842354379	-13.7334187597618	
2563666666.66674	-18.3976821456416	-111.130563212327	-66.5891977410329	-33.4127985175689	-74.7728773728238	63.0280014380662	-21.1716661876944	-12.6151492209678	
2564000000.00008	-18.3149773433217	-111.848925902973	-64.9239214643917	-22.1739120502576	-81.5191995311233	89.2157770557274	-20.97781945833	-11.6351789444561	
2564333333.33341	-18.252627657688	-112.513064433266	-64.2131269645015	-36.4732084949788	-76.1579323718536	-80.9309009282868	-20.7594094244328	-10.7994483559763	
2564666666.66675	-18.1827086352234	-113.158499153257	-68.923444310752	-37.7233136850481	-76.4782472237315	3.21283610516467	-20.5616301550026	-10.0252444397869	
2565000000.00008	-18.1264473489211	-113.869417885232	-70.2188156930735	-38.5837235762125	-76.5561113714673	-141.575224456448	-20.3537218599357	-9.42575524225632	
2565333333.33341	-18.0555663113825	-114.572141921819	-64.5684823993566	-66.3780164193317	-86.353775873925	-155.645029053005	-20.1817064709592	-8.87702617473272	
2565666666.66675	-17.9975379050245	-115.146755744393	-65.8364315808039	-73.099698186504	-83.3461849313747	-46.5124441339533	-19.9862796641044	-8.48788344203882	
2566000000.00008	-17.9265523117574	-115.687187551252	-65.3853717752047	-64.2767765420505	-78.1305954799588	55.753426865731	-19.7965304844701	-8.09376008207803	
2566333333.33341	-17.8623158563138	-116.347319153793	-67.2695909976543	-76.2876617236149	-73.0934884825101	168.348912359042	-19.6453197363879	-7.95610740394838	
2566666666.66675	-17.7895271667872	-116.948675470937	-65.5573881209528	-92.3573702393897	-86.4742499382586	-89.5409824121854	-19.5135605058935	-7.73351733267311	
2567000000.00008	-17.7208797680671	-117.519044514629	-66.9350814527085	-71.2241885870376	-78.1790491511264	-156.611586069429	-19.3646799014499	-7.61958712066363	
2567333333.33341	-17.6509244973587	-118.095935951669	-70.3635691656292	-107.755382214462	-81.486354105478	108.645422488161	-19.2499832617574	-7.64119367374735	
2567666666.66675	-17.5767212106792	-118.702694700619	-71.1094162077464	-90.4645000212193	-96.9836418635426	-60.3175407047439	-19.1264042096619	-7.55568139830701	
2568000000.00008	-17.504280067901	-119.281957491666	-70.183963147631	-106.587534905835	-69.9647937988171	161.521656949113	-19.0360907493189	-7.53072545863112	
2568333333.33341	-17.4251171493842	-119.749693999828	-66.1743011054409	-118.043182301623	-77.98548489085	-38.9323288829932	-18.9382639653495	-7.66994384891642	
2568666666.66675	-17.3547022706299	-120.311290475796	-67.1011360582875	-124.17875659828	-76.8619164732035	-78.6555947456724	-18.8556231987635	-7.62870311472721	
2569000000.00008	-17.2818062752135	-120.936246289997	-63.8650759178587	-145.486938132149	-70.9466739493475	-41.9576053851853	-18.7814436797019	-7.92777120505954	
2569333333.33341	-17.2069537076108	-121.357751348045	-65.0984299113414	-131.50580405247	-72.6621056640256	-125.493906073096	-18.7539812788621	-8.01480071301507	
2569666666.66675	-17.1680162472565	-121.905205954585	-66.7743840030337	-165.479993341137	-80.4847013717399	-52.8078689567026	-18.7055985000879	-8.29212664911813	
2570000000.00008	-17.0770055104717	-122.379311758142	-64.8009983645254	-158.827335030738	-82.3318202379688	174.681709704493	-18.6645158179929	-8.37319628039955	
2570333333.33341	-17.0187120186045	-122.949192742291	-63.6783331996361	-168.25303109019	-80.4354044112462	140.743593366017	-18.6563182905966	-8.62893779866561	
2570666666.66675	-16.9640627204704	-123.450130435372	-65.1322460720127	-176.793757378309	-77.8553616322029	-175.745745241747	-18.6489417649882	-8.70499283064936	
2571000000.00008	-16.912297679918	-124.008056779206	-65.5912188876665	-170.53672294326	-86.9200979187024	118.738692686333	-18.6787979173173	-8.89848239430951	
2571333333.33342	-16.8749362826643	-124.640688435174	-62.6155856122074	172.640548256845	-80.3973642183866	121.26509889599	-18.714937324676	-8.95500528738534	
2571666666.66675	-16.8285074381852	-125.003519320347	-64.5377282058137	137.216969691723	-76.446777545966	21.68210558162	-18.7438625029909	-9.13025420866148	
2572000000.00008	-16.7725632087047	-125.54793828979	-63.1330573965295	151.187791063459	-81.8708732328415	151.059023135094	-18.7943994884912	-9.25842072222374	
2572333333.33342	-16.7237812079636	-126.104942876155	-63.6123661517321	126.006910498179	-79.2231908818723	16.804575591288	-18.8742327492345	-9.47866230884393	
2572666666.66675	-16.6882640193682	-126.628117939343	-63.7724448601665	124.228502349486	-76.2211774361769	146.428213076214	-18.9715088921406	-9.47482500222202	
2573000000.00008	-16.6525462559666	-127.12295868405	-67.1306293750246	119.427985343037	-83.0931110932266	123.398659528408	-19.0643834445642	-9.46130620074456	
2573333333.33342	-16.6135196137836	-127.641684310281	-67.368305573768	130.608125018441	-84.7054388611351	-57.7597276866885	-19.1914280776404	-9.46277605647075	
2573666666.66675	-16.5895981829845	-128.341742514703	-71.4128985358703	114.142350060604	-85.8030902156672	-61.5162728578211	-19.2797213080279	-9.43159309897521	
2574000000.00008	-16.5558746892232	-128.683082755609	-68.6679731070718	98.3366727830346	-73.0359539529506	36.6982112461168	-19.4276780025035	-9.11386459466504	
2574333333.33342	-16.5154391454087	-129.28291796042	-69.0341736340515	78.6605666381916	-85.0983222134043	-169.218752787259	-19.5568611611093	-8.87060812509121	
2574666666.66675	-16.4906819129045	-129.952645911114	-68.6035311439029	82.644329300577	-72.557727601033	-148.086874123374	-19.7239351250825	-8.5135714010817	
2575000000.00008	-16.4796604481252	-130.549468303934	-69.2630250839637	84.4449067900661	-75.3784456895312	-159.716914189879	-19.8762199803251	-8.14804025090098	
2575333333.33342	-16.4449241098894	-131.13176846746	-69.2148239104693	80.52178157242	-83.8760223959232	178.589589877938	-20.0387774867256	-7.55553971390333	
2575666666.66675	-16.4458451561284	-131.679770324802	-69.7286033596523	58.5090437317347	-74.989606682519	54.5390296739693	-20.2115477736742	-6.85769239015906	
2576000000.00008	-16.4404679645328	-132.364740928041	-67.3488205704182	67.3172782184506	-69.8807290898825	-143.822141312755	-20.3686786774166	-6.33271101843363	
2576333333.33342	-16.4258873321475	-132.912520312651	-66.2698147958677	60.7816773670916	-77.8008318438182	164.298188434549	-20.5564485064142	-5.32273153513512	
2576666666.66675	-16.4237298937844	-133.55912291951	-67.5735619591847	52.4910852599448	-84.8868332989906	-127.051572933607	-20.7374275577561	-4.36410641751452	
2577000000.00008	-16.4450569565051	-134.122377595027	-66.3000945330563	15.5106623285695	-78.2226965459564	-106.186621499638	-20.9136717939041	-3.40271301448179	
2577333333.33342	-16.4560625951864	-134.737083441116	-67.6448321373617	40.7478937674567	-77.9943442064794	148.933501441022	-21.0952449640197	-1.99306645828441	
2577666666.66675	-16.4664815945655	-135.433841388827	-66.0046176748375	28.8076253030932	-90.6771722743288	81.7563249829058	-21.2331761587408	-0.815206758897801	
2578000000.00008	-16.489069173275	-136.153064574186	-66.702815226187	18.3008388976953	-73.636172775057	117.765682674245	-21.3831708958889	0.638374302069506	
2578333333.33342	-16.5160106672071	-136.786049802578	-68.8449701305386	24.2820081457317	-76.1959302138571	-173.832787316662	-21.5438796907951	2.0827869871451	
2578666666.66675	-16.5424420927951	-137.443169927804	-66.8570522357475	-35.8391845063436	-85.6496883175117	-2.73319227590642	-21.6469923628713	3.85666832464649	
2579000000.00009	-16.6122059156669	-138.096752960039	-67.3452507987625	-11.115117364373	-78.5494553633166	-142.536154397722	-21.804613427344	5.59035772940268	
2579333333.33342	-16.6290146769949	-138.878031612562	-66.0681071660951	-26.6547952572225	-82.2079920544705	-23.9386219563757	-21.911685821766	7.34362978844707	
2579666666.66675	-16.6968717380164	-139.599984202448	-64.7323279635151	-28.930445589841	-80.9834912887693	7.10715084578053	-21.9347502356	9.14070552629308	
2580000000.00009	-16.741083170178	-140.244914546	-67.4292470030294	-47.2366213826008	-79.294357730025	-133.553058854052	-21.9915427856437	10.9655259807649	
2580333333.33342	-16.7973190397519	-141.008004832325	-65.6203327177549	-42.4085137191076	-91.0251456555057	-34.9367570863804	-22.0189190558645	12.9514190126955	
2580666666.66675	-16.8709174471892	-141.829678558114	-65.1080192979532	-70.9931450347616	-73.0428876530555	13.5387235684754	-21.9836647668784	14.5973658193821	
2581000000.00009	-16.9236118513218	-142.58690988552	-65.2014723565789	-88.0698277533917	-82.3873322477671	-42.2668071716631	-21.9762169575692	16.2840325055006	
2581333333.33342	-16.9871160574454	-143.305748646429	-68.8014295749509	-81.9914807167524	-76.901518999459	-39.4521705982847	-21.936306624566	18.0684330648993	
2581666666.66675	-17.0519522190766	-144.023569004678	-66.4209322964203	-73.3656731961744	-85.2382206469982	-0.0873561880070291	-21.8852475011377	19.5069148928498	
2582000000.00009	-17.1323639429374	-144.899972638848	-64.5741169795656	-99.3369839640701	-85.1644600654255	163.408548088432	-21.8033277391029	21.1772839272031	
2582333333.33342	-17.1980336103653	-145.655831861572	-67.6264851606084	-92.767565256601	-74.2084631253467	0.0262800030805595	-21.7260370024445	22.3871390205981	
2582666666.66675	-17.2926253908835	-146.388363230588	-67.2108469980883	-108.138378144202	-79.5911035034356	-177.532520261248	-21.6284680626953	23.614112562569	
2583000000.00009	-17.3752968228498	-147.354400919445	-69.6464520552745	-93.7390771379082	-79.5725090488991	-173.570561139628	-21.5131968145987	24.6331115433134	
2583333333.33342	-17.4796905876723	-148.08295767806	-68.0576893326088	-121.173806250811	-78.3687270090965	163.774588930239	-21.3869804746935	25.610370919044	
2583666666.66675	-17.5761162942807	-148.721393876577	-68.7680919057528	-149.407265625241	-84.9820043942286	120.06959549278	-21.2589686221781	26.3783405060235	
2584000000.00009	-17.6601918181104	-149.626032873612	-71.4942191035081	-137.706433054507	-86.5226115938322	1.09222389726474	-21.1727817434671	27.2465262970354	
2584333333.33342	-17.7801896399159	-150.579377703287	-68.9016104925047	-158.457763965398	-86.1900883841727	-146.758528999139	-21.0790312925402	27.5642954385621	
2584666666.66675	-17.8762347409991	-151.489992633675	-65.9188074278853	-139.57418885432	-91.1246831774768	-99.5547015411252	-20.9260518347581	28.0329031456501	
2585000000.00009	-17.9925455343385	-152.234205884109	-68.6797233274897	-137.969578228512	-78.9351650351817	123.230162614356	-20.8289078110448	28.2252794801884	
2585333333.33342	-18.0952038888279	-153.067241657849	-70.8829245501317	-148.923240913854	-76.1987597162924	106.340522352535	-20.7085864444834	28.4583367110926	
2585666666.66676	-18.2185780429558	-154.084954474528	-65.7002910795875	-165.394648732987	-84.0971020724347	104.871238863062	-20.6057882782951	28.4350785380477	
2586000000.00009	-18.3190814349227	-154.858772291452	-69.1394925203299	173.267265718006	-76.2950548091795	-102.345054219364	-20.5234673389666	28.1911426355304	
2586333333.33342	-18.4495537365513	-155.954005495789	-65.7085831074165	-168.833292440908	-78.0811549237344	143.088760748526	-20.4498597439324	27.9189644041492	
2586666666.66676	-18.5839538897499	-156.799414267216	-68.8268096804627	-169.790627711698	-79.4807897476283	-57.7327833231856	-20.3857261564883	27.7618512153268	
2587000000.00009	-18.7081326611614	-157.730770420484	-71.1398619346486	167.300584064731	-93.1318396442226	35.5128001708321	-20.3172325587933	27.3505249870804	
2587333333.33342	-18.8548155354435	-158.678966388356	-69.4684118798936	156.19330645168	-81.2678737125566	-58.688119220607	-20.2644888944704	26.8716561162801	
2587666666.66676	-18.9639238634778	-159.71119119104	-66.9981827108233	171.163799814102	-77.4999070599389	-111.219671666661	-20.225468167535	26.2315222487061	
2588000000.00009	-19.1017056525647	-160.644468729435	-72.6453001912402	169.03909127146	-81.1790160180157	2.05573423213917	-20.209960706673	25.6743165515515	
2588333333.33342	-19.2367662558401	-161.694471633722	-65.2658229244639	154.492884630063	-84.4495383029906	-36.917446047008	-20.1931913542247	24.7924088218362	
2588666666.66676	-19.3741272298106	-162.576995441096	-68.7748277135066	131.510178025526	-80.4454759602562	-82.1889235121576	-20.1802431242034	24.0450461021006	
2589000000.00009	-19.5065108072294	-163.684758604331	-65.8812348176117	128.518996524058	-81.227980425934	63.7654518519186	-20.1775581363294	23.1266159292226	
2589333333.33342	-19.6338990123921	-164.758395626851	-67.2457354388722	132.265114552461	-75.9737055139706	64.6457497559854	-20.2130524710973	22.1419943294521	
2589666666.66676	-19.7559896658415	-165.834458831135	-65.3023760135367	117.798646934198	-79.1161767353312	-111.908892046908	-20.2573086189876	21.2185731964685	
2590000000.00009	-19.8875653538591	-166.913772580376	-65.3015097038859	96.5015159014527	-75.3956383923651	128.510792000218	-20.318603644773	20.1690194222228	
2590333333.33342	-20.0269807090046	-168.245243835342	-62.4742557365053	89.8145253865374	-83.4336143113724	87.458770376312	-20.3697953304554	18.930869287202	
2590666666.66676	-20.157480269985	-169.188205816666	-63.6718740036232	82.754628904082	-76.4499784422904	42.7250447832057	-20.4524736104761	17.7904670890244	
2591000000.00009	-20.2919076225958	-170.531310922241	-62.6428107125395	69.4365950953555	-88.6527153114154	50.3209506466773	-20.5373318261124	16.6330719946631	
2591333333.33342	-20.3966943702521	-171.679260923948	-65.0408181342949	49.2759652113411	-80.8760357723198	-19.0969107357149	-20.6572384500825	15.3900247914139	
2591666666.66676	-20.5360349842298	-173.075679702309	-65.698277858297	47.4021028384417	-78.2134033102055	24.6295306095409	-20.77868408258	14.0714361505241	
2592000000.00009	-20.6420012336273	-174.342346164295	-64.8690044741037	33.2811025993765	-76.8932625796003	43.3900462684488	-20.8948091824403	12.7173431554989	
2592333333.33343	-20.7608747211957	-175.722240421381	-63.9199556079304	24.1622298722478	-75.4335564195463	-49.5403091895156	-21.0589232739509	11.2443020933349	
2592666666.66676	-20.8619918037368	-177.07322910931	-64.8818046643171	12.8951818441096	-90.9006019959928	-141.270461386319	-21.2106145653743	9.95950727392561	
2593000000.00009	-20.9656914067727	-178.459116157259	-62.9723477297583	6.83175729357122	-86.2317669974701	-135.210723798433	-21.3933434872665	8.40542270166023	
2593333333.33343	-21.0818001715182	-179.981314540906	-64.1365693452961	-5.37029809518639	-83.4865439726943	146.064623057727	-21.573983461727	7.14128802398708	
2593666666.66676	-21.1633713095642	178.479595447208	-63.098249260847	-5.87868726775091	-77.6197347794003	81.8442709700353	-21.7744629350062	5.58614193179246	
2594000000.00009	-21.2443409067456	176.999176025032	-64.5912856495174	-22.4552696211958	-84.7803575387102	-49.0434355787812	-21.9880210179483	4.24429003699975	
2594333333.33343	-21.3381909800857	175.432439429835	-63.4074888159542	-26.3241291679769	-80.5645989884515	-167.901442311718	-22.2029754197323	2.51399731250923	
2594666666.66676	-21.3768304347086	173.729247188065	-63.121346968971	-44.3486739974727	-78.9839716250333	168.024047369943	-22.4391026331146	1.12171496414163	
2595000000.00009	-21.4251454008925	172.090883560102	-63.4087064391001	-44.0381369767981	-87.8453255859307	31.055813075953	-22.6879954208825	-0.563073001406615	
2595333333.33343	-21.4858218373944	170.53194965095	-62.6599313624927	-58.6564114752659	-78.7382767543328	88.0470387271952	-22.9390043190936	-2.02935283504929	
2595666666.66676	-21.492455714224	168.840763365542	-64.063575325882	-73.4340935445412	-82.5461562731693	82.0050734800039	-23.2239965578731	-3.65565878181039	
2596000000.00009	-21.525043903661	167.102492778352	-65.2980250844206	-83.3993845078355	-76.3758080824917	-123.382044964653	-23.482236731031	-5.21890849865286	
2596333333.33343	-21.5373956244273	165.341305938316	-63.8052648978921	-100.023964282825	-88.0471418488494	-122.557573236759	-23.781806704029	-6.49488813369284	
2596666666.66676	-21.5232208972962	163.599872049242	-65.5568782122162	-89.3764164421151	-88.2954535197126	-116.533872352832	-24.0936462653457	-8.09790630281758	
2597000000.00009	-21.5354127676688	161.914370213642	-64.3818947932348	-103.013718317399	-74.2794138778764	148.143962699686	-24.4308841451636	-9.70792366758127	
2597333333.33343	-21.5135730988008	160.087370487722	-64.6010983211238	-120.071456585703	-83.9978849174203	164.909205916398	-24.7730902722045	-11.1312305215551	
2597666666.66676	-21.4753965174988	158.366211132547	-65.5213458844597	-131.508915460023	-79.5274627750391	165.015705512282	-25.0981898214776	-12.5211083314515	
2598000000.00009	-21.4053379441191	156.606769773187	-66.1599397243938	-135.257492336254	-74.1789229091525	-132.541564355923	-25.5259178362664	-13.7668611795393	
2598333333.33343	-21.3795399717135	154.841422605542	-66.8991640969677	-140.945592281851	-83.1259021641676	67.7562259943667	-25.901222746101	-14.9785032867489	
2598666666.66676	-21.3101729971022	152.979138429583	-64.018328620137	-158.585726875129	-94.7638199861414	-4.63494678476019	-26.2857540028856	-15.9810125203578	
2599000000.00009	-21.2250461800684	151.268239462038	-66.4143985353978	168.584117989089	-91.5244059326688	33.245126957191	-26.6753912843573	-16.8801324918623	
2599333333.33343	-21.1280774708418	149.484177136145	-68.6902089854307	176.469630522299	-80.2406175426131	-154.386109111885	-27.1066276594129	-17.6451112910364	
2599666666.66676	-21.0274698017882	147.778728596336	-67.8151506952605	165.980891647192	-71.2163196613859	-62.2639833887443	-27.5264962097575	-17.9689435726557	
2600000000.0001	-20.9130715767726	146.066958676215	-74.0066468568086	160.268294169565	-78.6229675529769	152.073032136435	-27.9433075676518	-18.273077093222	
