!Agilent N9923A: A.05.34
!Date: Friday, 25 March 2016 21:55:48
!Model: N9923A
!Serial: MY51491690
!GPS Latitude: 
!GPS Longitude: 
!GPS TimeStamp: 0001-01-01 00:00:00Z
!GPS Seconds Since Last Read: 0
!CHECKSUM:1023260051
!Correction: S11(ON U*)S21(ON U*)S12(ON U*)S22(ON U*)
!S2P File: Measurements:S11,S21,S12,S22:
# Hz S DB R 50
2400000000	-16.6355641291779	173.092466416165	-87.5424435263029	-0.22628714161892	-80.1659789929752	-168.259567407788	-18.9167312719388	2.96500091537778	
2400333333.33333	-16.6707312021912	172.012897398384	-77.743465700884	-164.828210818239	-81.3429194415264	177.341370761695	-19.1343344767267	1.91402480631234	
2400666666.66667	-16.7136125588413	170.985913667035	-75.6220687039359	-134.732677287516	-75.8608757055903	-95.7780906185155	-19.3749644927538	0.701511296064582	
2401000000	-16.7828462617742	169.985021871929	-80.8466481287194	169.323993071723	-87.9868365279771	129.598299184637	-19.6505401156252	-0.402446796253502	
2401333333.33333	-16.8325031240164	168.705038223681	-81.8813834814072	-107.985073945735	-83.8287186042516	93.8623543647382	-19.9164396349001	-1.58239015752611	
2401666666.66667	-16.879082930684	167.471460499738	-91.5502759059075	-139.430334625034	-74.9467616910468	-4.8269471246823	-20.2433622873861	-2.66546245862885	
2402000000	-16.9369354462517	166.482077176384	-80.6582973402079	-134.103224048593	-78.1919051924074	-87.0999731439309	-20.5697234693694	-3.78783665416438	
2402333333.33333	-16.9889980862067	165.238053722933	-83.900198153823	-126.505763009185	-75.4955658196038	157.470893605256	-20.9247863470386	-4.74498254020144	
2402666666.66667	-17.0581346344736	164.10966297118	-74.8037424474527	-146.860815276287	-79.3090090058553	-102.025785569749	-21.3023740339308	-5.91902309052962	
2403000000	-17.1300435334742	163.01669448211	-76.1235484586104	175.670794876498	-90.349733598041	-131.344366785822	-21.7074088408227	-6.85580685628777	
2403333333.33333	-17.1600530135327	161.691807729258	-79.2939944902787	-161.53495510249	-76.9701913901045	-122.785722825216	-22.1242853896665	-7.96764315905133	
2403666666.66667	-17.2271656649693	160.491283298412	-74.2619753079014	-134.236044292132	-86.3438190429766	-26.3558307742204	-22.5612064007664	-8.7991180024695	
2404000000	-17.2758475481842	159.254568390908	-73.628250993811	-127.395717244255	-72.1642110342668	178.209712361418	-23.0501593831866	-9.85770697115166	
2404333333.33334	-17.3357493713514	158.045729547129	-74.384620505057	-121.456462784781	-82.8701189124998	-22.7032042509005	-23.586182737209	-10.6198300448924	
2404666666.66667	-17.3741881663336	156.873315854511	-71.588950080345	-125.382970452045	-83.0883636013392	-75.7617053955233	-24.1229332826995	-11.4327286537107	
2405000000	-17.4062866133966	155.682338969956	-71.7542082440484	-165.402211806915	-78.3971802233514	109.811203162729	-24.7047136772048	-12.1426800821438	
2405333333.33334	-17.4796565642868	154.424981121334	-69.7843984822675	-165.23494149365	-80.2674248412701	159.414492726335	-25.3376884318648	-12.8623727978404	
2405666666.66667	-17.48915568153	153.300692671381	-66.6453021461598	165.412841426945	-80.1035715113145	-3.51439573990725	-26.0278249134081	-13.4207236338225	
2406000000	-17.5380287640638	152.086939905742	-71.5289054538533	-164.5323420849	-82.6924533745887	-52.3107452172398	-26.7758199089687	-13.7147510159115	
2406333333.33334	-17.5651975970651	150.865753796175	-76.97822309948	171.878765608037	-80.730214048365	-108.417487959879	-27.5412522951856	-13.7519536898575	
2406666666.66667	-17.6092521245953	149.511723619051	-70.5513930439833	126.34296166753	-77.1817894645741	-174.892908463585	-28.3844805073082	-13.2958570258414	
2407000000	-17.6343864312315	148.44326154308	-72.0704935930814	154.041889581137	-78.5641053760508	140.007165929351	-29.378290448611	-12.5981895441247	
2407333333.33334	-17.6548064927152	147.137315063548	-75.0013352041771	123.883105262707	-73.8875757178457	-95.7429207384186	-30.3238067435589	-11.5710462603187	
2407666666.66667	-17.6708299206883	145.932367861491	-76.2673031282865	105.519971058288	-85.4677334970194	-110.670490111996	-31.436844049396	-9.70436319371471	
2408000000	-17.6708791044861	144.777884644775	-72.7059163197526	91.1303147748076	-84.3898650069095	-139.804260072614	-32.5693314637012	-6.88895087440371	
2408333333.33334	-17.6806066965358	143.613586689113	-69.2561499008234	84.686126839325	-73.6953329807684	113.375745135273	-33.7717080572281	-2.48767318358969	
2408666666.66667	-17.6719395602155	142.317884010674	-68.6648239617549	53.5961057232023	-75.7512441584664	117.855026629856	-34.9978159765538	3.3731913699519	
2409000000	-17.6819013139216	141.295867768334	-70.0072619837321	72.320133016458	-88.317060642661	18.646059979117	-36.1613922301144	11.8732128917041	
2409333333.33334	-17.6698829900646	140.007832217146	-68.6199790973516	64.9080560038475	-74.3692643807766	-122.285811958573	-37.0462926359611	22.2665932054796	
2409666666.66667	-17.6541912123874	138.904551204018	-66.9602986338721	51.0179948975148	-81.9601536548683	-9.83517431743952	-37.5237858694976	34.2229377341326	
2410000000	-17.631177137838	137.658341469542	-67.8937019716357	13.2501263666244	-80.5649844369576	-128.641874847245	-37.41021332611	46.3218083778598	
2410333333.33334	-17.6279827435731	136.610152048064	-65.7920739313426	16.0570314946451	-80.7891111857191	-113.791878856156	-36.8518602628976	57.1849707744838	
2410666666.66667	-17.5851294301117	135.388483098775	-66.6168487438131	16.9027573716422	-88.5286624930777	-106.890484193354	-35.9523993568345	65.6643396210564	
2411000000.00001	-17.556924736952	134.242371707393	-67.1057399485183	17.4941580562668	-79.819684270583	-143.048755105746	-35.1349747034534	71.4790407133688	
2411333333.33334	-17.5176250721087	133.225383014896	-68.4557512249503	-6.75468371184491	-74.0098676723192	-57.0828289491411	-34.3395422534216	75.7462274209556	
2411666666.66667	-17.4669666558034	132.096865826258	-67.0401556378807	8.27662995171972	-79.8659566499284	119.176390699449	-33.496179255316	79.0194468537848	
2412000000.00001	-17.4164111366364	130.979410688216	-73.0133542950514	-1.7454860948851	-90.4615445976221	160.136367328822	-32.7052176650208	80.4210599866979	
2412333333.33334	-17.3613407202543	129.791306867269	-68.1525112275705	-25.5532542951159	-77.1948648908149	-150.96631758666	-32.0118775984764	81.6446829376329	
2412666666.66667	-17.2905449204864	128.583382132115	-68.6003237814358	-31.8457901541627	-91.3336801101477	-80.9420750517787	-31.3841369862833	82.0167328373806	
2413000000.00001	-17.2260075365334	127.474529426787	-64.6476171817054	-65.5870881561738	-78.3265718969601	-64.2046905543619	-30.8415920171738	81.5871198203712	
2413333333.33334	-17.1472638567278	126.294806717892	-68.7542551010283	-56.4493381671687	-79.7198344919165	86.1969284877707	-30.3772610555239	81.5106508381506	
2413666666.66667	-17.0656266199147	125.268558033088	-70.2041822187506	-69.3589780867511	-79.127153586929	-98.0677652956157	-29.8586069152198	80.6386592590696	
2414000000.00001	-16.9832147037733	124.141037375034	-66.3178371206542	-77.583900112801	-76.1164248537942	175.028081189578	-29.4649997716303	79.6967644573686	
2414333333.33334	-16.8898388906723	123.117561567019	-67.0706324013346	-106.855653943318	-80.0294972347471	-1.75770445020542	-29.1412904262422	78.5357101483252	
2414666666.66667	-16.797329675321	122.083826457157	-69.5517415119236	-105.652664402718	-84.1217477241537	81.9427226139345	-28.7498094497875	77.131677446417	
2415000000.00001	-16.7033299666091	121.102210884084	-70.6800167919157	-107.675124020271	-80.1322796816728	-178.476470285618	-28.4102059838765	75.582069020781	
2415333333.33334	-16.6045983782429	120.055050944549	-71.1111411377857	-107.399473116501	-77.0275918086449	-91.8197150272442	-28.1503563713673	73.7843272095197	
2415666666.66667	-16.5038814895972	119.071636484886	-73.1223325153153	-99.8137103643423	-75.7572840167957	-100.286047942132	-27.9562433196604	72.0185548768856	
2416000000.00001	-16.4042007132671	118.111523451546	-68.2001899631339	-117.137799818062	-79.9119545746258	-128.942955572392	-27.7164793910462	70.0389534234115	
2416333333.33334	-16.3072332103206	117.234492719946	-68.8414647604932	-150.496042982163	-91.4973400348388	5.13920308116531	-27.4934201833239	68.0897757646045	
2416666666.66667	-16.1948125869992	116.265031707304	-71.1625263961052	-144.391182437724	-81.3004719303833	170.417660641025	-27.307908891298	66.0353711699182	
2417000000.00001	-16.0844219875868	115.325948561449	-72.2533244178118	-121.547272501232	-81.5581214087274	-127.805284872193	-27.1658009992549	63.649002099947	
2417333333.33334	-15.9769295027221	114.482730776331	-71.133071637538	-152.93767922084	-76.9288538203503	-12.0221799755512	-26.9715196904071	61.4153090063156	
2417666666.66668	-15.8753891638077	113.537492327397	-71.6562061491656	-170.797600231558	-82.4234780383281	-135.551738988908	-26.8078482067399	59.2590977100868	
2418000000.00001	-15.7714179454677	112.737824933723	-69.9978208340917	-167.249180934705	-74.0600558568646	146.273777623888	-26.6636341808196	56.6629681856725	
2418333333.33334	-15.6562001365915	111.909598096472	-76.8033529208586	159.78805140586	-78.9953677289236	-36.5221141388626	-26.5376608739421	54.0868627590289	
2418666666.66668	-15.5514258264926	111.065424152426	-73.6431873769243	155.366042438777	-83.1550259878137	76.0707808436753	-26.4142860200911	51.7223577636429	
2419000000.00001	-15.4338830584082	110.235735554936	-70.4162013029169	151.367019086157	-87.1320414180086	66.5163503933262	-26.3110928300864	49.238520128976	
2419333333.33334	-15.3178220727061	109.301873025815	-74.8488603880567	143.934663051542	-81.5380472928346	106.810859371739	-26.1608582737251	46.466923233666	
2419666666.66668	-15.2108876296105	108.582176515234	-74.5582552627914	124.240153722258	-79.8565204812855	24.4415960910204	-26.0513107072163	44.0548117970788	
2420000000.00001	-15.1083325989493	107.817454910084	-70.5199140950983	171.387114355623	-75.136847324871	-68.2768773778182	-25.9378906124886	41.3190516161778	
2420333333.33334	-15.0031825405384	106.991060054946	-74.0484213610571	125.726537521692	-84.3153531027224	138.435006544309	-25.8193821762812	39.1099757806838	
2420666666.66668	-14.8941924500739	106.257004343331	-75.2795799144413	132.690679926178	-74.3819636494704	-93.7778336606938	-25.7133777001245	36.6014222238922	
2421000000.00001	-14.7931024219751	105.535194301908	-68.7169060180071	102.893840201472	-94.8390307369719	-6.77748750568602	-25.590560123639	34.2279691823069	
2421333333.33334	-14.6934627597196	104.769106297095	-70.6748940652339	150.055469045286	-83.0302543480475	33.8700400781594	-25.4456633464436	31.6756896432015	
2421666666.66668	-14.6115630515047	104.041299805468	-69.4814687528044	120.416644909767	-87.1090302600944	-90.7617426628177	-25.3362466167612	29.1779231401107	
2422000000.00001	-14.5060234845173	103.369452353463	-69.6954608185826	122.211367985546	-75.0696220792718	55.988958069108	-25.202253489727	26.9065295476621	
2422333333.33334	-14.411799965431	102.644554897203	-69.1169851457572	109.175483685635	-76.6992814048111	-3.92758920861609	-25.0810525155568	24.5581687297983	
2422666666.66668	-14.3225746612989	102.00473648279	-74.5517092276016	97.51684384177	-81.9096638622283	-40.2806572994416	-24.9625931820675	22.1740525447396	
2423000000.00001	-14.2379522661789	101.351239760463	-66.7402978795021	79.0972734394725	-78.7615378774807	-162.128807408203	-24.8109364704096	20.0436729400851	
2423333333.33334	-14.1518750967804	100.754180850038	-68.6014646597919	82.4785648092853	-78.5889966195514	77.6439202210308	-24.7044710351951	17.7639948196535	
2423666666.66668	-14.0720710592451	100.098335521539	-68.0938931161963	77.1626434771728	-87.1611817189567	63.1664426220553	-24.5694446345406	15.7212256362441	
2424000000.00001	-13.9993907974805	99.4619315527397	-66.7614562282381	58.3163733438432	-91.4761285482433	157.491248053327	-24.441355250164	13.7751286989885	
2424333333.33334	-13.9221834371461	98.8480449879305	-71.1607368978351	46.7077162077821	-86.3911749843266	-83.1632020279827	-24.2982552141846	11.8129131420053	
2424666666.66668	-13.8528638777257	98.2804280557663	-70.8580276607263	25.9273861038899	-78.7577335490217	-12.6982803579377	-24.1848425677551	9.90778025035052	
2425000000.00001	-13.7811437052514	97.7060511542301	-67.2662991362973	40.8574667913267	-86.1285538609586	-92.7006827410938	-24.0612532946012	8.30150291143081	
2425333333.33335	-13.7141506763486	97.1820400563764	-69.7181704384003	3.223296024712	-82.5744557840471	19.9198701590081	-23.9163283432348	6.59589596423413	
2425666666.66668	-13.6529402550506	96.6731105185145	-66.8149090145834	11.1969073436707	-80.6101304732696	-47.6640248440432	-23.8239310734758	5.10404243555588	
2426000000.00001	-13.5909029437897	96.1437355249259	-69.8223475916904	24.5757049748813	-77.9731573789064	-93.9188974125668	-23.6697118829722	3.65861060898511	
2426333333.33335	-13.5349427495364	95.6140073059814	-68.6540909013931	7.67400446598186	-76.654801492661	112.696598630576	-23.5684839749477	2.31175380072346	
2426666666.66668	-13.4821430402617	95.0505278255312	-68.2424027147312	-19.7343142662795	-86.0264295142696	73.3186670903158	-23.446117402639	1.10396835300411	
2427000000.00001	-13.4383769859344	94.5598034623335	-69.9703278717034	-28.3782356058267	-93.6058173665251	-100.199425157078	-23.3187717182855	0.0022060474389871	
2427333333.33335	-13.3925021726773	94.0931227417102	-69.7175312869634	-37.5944330580385	-93.7247690934463	-95.1287865280434	-23.1949714981643	-1.05489094199863	
2427666666.66668	-13.3471166891074	93.6844512084797	-65.7440302127032	-58.6725580623824	-74.8664248022028	40.4917170137476	-23.0860346163681	-1.98880304933523	
2428000000.00001	-13.3017670437618	93.2132599617107	-71.3917621192989	-54.3379964991884	-105.925591693026	-122.277108679824	-22.9690817882527	-2.73353127047068	
2428333333.33335	-13.2646394685103	92.7747425345603	-68.236827148953	-74.5917293461681	-84.0076300017678	112.869457326096	-22.839131775006	-3.48636947897654	
2428666666.66668	-13.2278877184868	92.3002913578802	-68.350398095863	-46.5463750196019	-84.0100627099814	86.646359879919	-22.7325191827682	-4.18015344892571	
2429000000.00001	-13.1976078422486	91.8856605085806	-71.3027721351251	-73.1504321119283	-76.2818065960468	-116.754037392834	-22.6163276441715	-4.60498466940579	
2429333333.33335	-13.162943914747	91.4744824689294	-71.1302616337697	-97.6886417966996	-77.8109912574551	20.6791292939788	-22.4909226025813	-5.23967243676434	
2429666666.66668	-13.1346126036296	91.0287944359074	-69.9971978543292	-90.9174499819055	-90.5069758637064	-49.4140826587438	-22.3677543695241	-5.53770523031338	
2430000000.00001	-13.1095367139455	90.6806784653029	-69.8549908450489	-99.7428587104041	-77.5421487417595	-136.567195445039	-22.2319635425198	-5.96979396710849	
2430333333.33335	-13.0861163949332	90.3868865875964	-68.5026575305021	-110.758021997022	-96.6972908803007	132.358749027255	-22.0914760846484	-6.2141026708852	
2430666666.66668	-13.0569092712132	89.974538152185	-71.3184489909649	-125.334153232789	-79.7328856952191	-13.4957147861561	-21.9622285050408	-6.64017821304011	
2431000000.00001	-13.0377369083422	89.6238895844648	-68.2900662754807	-136.764783525257	-95.013859943248	65.8645113001197	-21.8246637883479	-6.71382137664281	
2431333333.33335	-13.0267946880051	89.2505631961225	-70.4148467447959	-122.81339662196	-81.2676317969651	74.9810978955405	-21.6949224443415	-7.02523700628615	
2431666666.66668	-13.0118626715219	89.096922016814	-69.7794352978379	-148.650582977175	-99.2787972274329	8.58075119747408	-21.5339262041828	-7.07071446854436	
2432000000.00002	-13.0005444311341	88.7734518535557	-69.0712172607888	177.31643707115	-82.8047424073769	-162.839876510288	-21.3801550398051	-7.24074349823596	
2432333333.33335	-12.9883660738603	88.5249961967708	-70.8022214636136	-163.657569089689	-83.3878713262301	36.9523929794132	-21.2288448081665	-7.29588082498216	
2432666666.66668	-12.9768970184894	88.2541899444296	-72.6457740545544	-152.554455182017	-83.1910028580159	31.0312799620959	-21.1005553464697	-7.37938873605823	
2433000000.00002	-12.9773744658269	88.0207555365938	-70.2079414156517	155.034392884783	-79.0356253565281	90.1176699153112	-20.9623400017082	-7.41509003876638	
2433333333.33335	-12.9689994096633	87.8292057359394	-68.2169195063247	159.712460097166	-78.8465902576448	47.3189977803928	-20.7804805736373	-7.42959776382378	
2433666666.66668	-12.9681167584934	87.5580591316266	-70.3725721509643	175.597324074331	-81.542183844015	22.3673151677263	-20.6399510937857	-7.47616585771505	
2434000000.00002	-12.966928495912	87.3341951086688	-72.5065483929598	114.272435678508	-80.3088632029953	-30.0227566753834	-20.4726922414279	-7.47302691329771	
2434333333.33335	-12.9647326617498	87.1138235742234	-70.3269814224237	152.069060573234	-73.9439331138047	-34.161401522482	-20.3184114001729	-7.50227182464592	
2434666666.66668	-12.9685937217622	86.8644695913846	-67.3171451983201	102.441862333623	-77.679443007095	1.21934562297636	-20.1784910747916	-7.59707709154368	
2435000000.00002	-12.9602667623985	86.6191241935888	-69.2094765068784	99.7039773032532	-86.5266133639632	150.443668354793	-20.0177411632667	-7.6639193000345	
2435333333.33335	-12.9714382453221	86.3600014595321	-68.2942487198174	92.452410291016	-74.3626025956048	-53.7607388278123	-19.8836002438	-7.79520742021563	
2435666666.66668	-12.9691493990925	86.1817176007518	-71.9094282223686	88.2648548214116	-80.0813163531987	-6.39078591582577	-19.7320490841116	-7.70312271135022	
2436000000.00002	-12.9673677507845	85.8963102253435	-69.2596486456496	64.0848874634702	-78.2054563007862	124.458683516044	-19.5916053451228	-7.86574414819682	
2436333333.33335	-12.9824198486084	85.6413699786449	-69.9781463282151	46.6419040642627	-83.6032772940977	-133.086871070531	-19.4575844279523	-7.9624050260687	
2436666666.66668	-12.9859720454197	85.4602975719351	-69.4403383166596	46.096511431672	-87.1056776497239	2.31917493670158	-19.3299740986774	-8.17529440584185	
2437000000.00002	-12.9909024817871	85.2279994762653	-67.9189307524279	45.0953572873547	-85.6309937529149	60.1063366368585	-19.1909843264755	-8.29798759736047	
2437333333.33335	-13.0014319452633	84.9873743324971	-68.9738412548634	13.8850514802583	-84.3949932292381	107.284273254703	-19.0745007411335	-8.42600019406246	
2437666666.66668	-13.0116650895765	84.7412419240807	-75.7242870516811	27.5716096614226	-78.1464446132255	123.362369245741	-18.9466481308807	-8.54198229391292	
2438000000.00002	-13.0141421333052	84.5139369101073	-71.9352738513724	-17.3404401195971	-85.4681682569887	21.051555629399	-18.8442144921368	-8.78457546376464	
2438333333.33335	-13.0269339128699	84.1959442871293	-77.1311116866179	20.8420447405527	-88.0513529303373	-152.451601085194	-18.7323262983518	-8.92771608461178	
2438666666.66669	-13.0375195045868	83.9603317366091	-72.7721282518082	-43.4158615432837	-77.9942374121865	-16.3725921932052	-18.6365567312225	-9.23277505224541	
2439000000.00002	-13.0408795339825	83.6622896094726	-76.0520427232635	-42.8707845797604	-77.4594470180835	-17.8577690747837	-18.5590033698111	-9.43247105807181	
2439333333.33335	-13.0480351006298	83.3727287503967	-71.2364098611581	-61.1565034761895	-77.8999027713196	95.366232050159	-18.4628954487266	-9.74406692588103	
2439666666.66669	-13.0659469834296	83.150993518309	-76.8099300915549	-53.7993082492544	-76.7462353182416	-113.592514647237	-18.3855877767794	-9.83782014217325	
2440000000.00002	-13.092024633306	82.8912755590896	-82.3795138289437	-63.1847723778147	-85.0598994133794	50.5212136173114	-18.3092655315042	-10.1197752673333	
2440333333.33335	-13.0909790797266	82.5839177840481	-91.5941664987877	-116.170266525081	-80.913633058808	-93.1814171174978	-18.2443601551581	-10.4096196469669	
2440666666.66669	-13.0976271652302	82.4125822650044	-73.7037001699175	-150.404671585185	-85.5446297362034	18.3203725029877	-18.1979725858958	-10.5843654234573	
2441000000.00002	-13.1256148640282	82.0066877095999	-77.3522858522331	-166.191601051866	-80.8126190217725	-7.23178994997502	-18.1446397644746	-10.9814176306515	
2441333333.33335	-13.1228061754592	81.7614077995709	-77.2166412717736	159.70749616948	-96.3860141334411	-43.9189921316478	-18.1018164612764	-11.112476111017	
2441666666.66669	-13.137546415213	81.3762075833029	-77.175461626432	137.442948144785	-81.0192355567995	4.89568292548608	-18.0603932169835	-11.3958466988852	
2442000000.00002	-13.1609282711103	81.1852566002148	-78.9619802615394	-168.753375073999	-79.7435380452828	152.059835557609	-18.0619079198687	-11.5184380978003	
2442333333.33335	-13.2001748216515	80.8225044409769	-72.8791731463029	146.99178970921	-95.3747124272853	-72.9777929280236	-18.0383395295704	-11.7604458925791	
2442666666.66669	-13.2123211188406	80.6320532990398	-76.0355498033057	99.5749020280647	-76.7638560057936	131.400289821758	-18.0297916364908	-11.942493631744	
2443000000.00002	-13.2421517113364	80.2525326706394	-75.5243847662554	69.1706342438925	-74.7808431523883	128.144742183866	-18.0495369580139	-12.1720755537123	
2443333333.33335	-13.255702882392	79.9962712281056	-71.0319980531132	55.1714115308035	-89.6918146904748	45.6936320933591	-18.0419612383612	-12.2299392213094	
2443666666.66669	-13.2974047246323	79.8079470063508	-81.1204343255579	53.3329369634566	-73.3861537160249	119.842999455702	-18.0655777726462	-12.449130514345	
2444000000.00002	-13.318407185148	79.399218381452	-88.6384557006987	-126.727991364095	-77.9520544622008	59.337201389911	-18.0868028929426	-12.5709685733997	
2444333333.33335	-13.3524143158564	79.0306706337271	-71.2828043059617	16.4495468594303	-88.4982656059533	164.158939462164	-18.1248040511228	-12.5557792675026	
2444666666.66669	-13.3799774714079	78.7002746105908	-76.8851931564364	60.2496717017378	-82.3049569458572	60.8180775887238	-18.1665742310111	-12.7289372630417	
2445000000.00002	-13.4068023004072	78.2871910985135	-74.3971106296526	4.04599276064343	-73.5079287641056	-169.731018290396	-18.215458494269	-12.8038878629916	
2445333333.33335	-13.4306155402948	78.0137160982805	-75.3618427998377	-5.94521036311324	-82.052613326573	56.9700050633996	-18.2713015257034	-12.7620314413696	
2445666666.66669	-13.4562504711756	77.7048029992846	-73.6728287440431	-89.3837672671105	-90.1944187522915	-37.1528854717736	-18.3328462278756	-12.5847440539835	
2446000000.00002	-13.4922873939679	77.3063798326006	-72.1016247602464	-72.5721499183905	-87.5310577999572	102.664903923624	-18.390552188593	-12.5453866558527	
2446333333.33336	-13.5088925403869	76.8836449656437	-78.1528571825955	-24.2529182222251	-79.7657796936821	89.8430857098423	-18.4872212534739	-12.5401778753582	
2446666666.66669	-13.5372340014312	76.3987173707737	-76.2182133393785	-16.1003447353756	-82.3910487056615	-31.8987966184944	-18.5641436401168	-12.3481053136	
2447000000.00002	-13.5723230972177	76.0337791459461	-83.0807710469537	-127.684387995312	-83.978884582527	-155.602312740896	-18.6358582048913	-12.247618018357	
2447333333.33336	-13.6056138352655	75.6644415954986	-72.8901477098643	-108.101661715641	-80.977397757941	86.0799325282757	-18.7402289946039	-12.0654379450712	
2447666666.66669	-13.6219953766101	75.3003773983623	-74.8153810442124	-132.077887980231	-78.459000766355	175.415570047053	-18.8535205209479	-11.8202237284736	
2448000000.00002	-13.6359827196847	74.7866591026125	-71.9702692307765	-171.255017047441	-84.9181974546723	115.063625065512	-18.9674172475126	-11.4123090974476	
2448333333.33336	-13.6638157320672	74.3862417115799	-75.786373794356	-161.359386258771	-72.0710374035423	132.775686704393	-19.0692763643147	-11.164156123705	
2448666666.66669	-13.7099338696199	73.932473957117	-72.0045191395301	-128.993595373352	-73.0029891221989	3.89691812915713	-19.2061933725998	-10.7872709359079	
2449000000.00002	-13.7286019780811	73.4311460162722	-79.3233786308191	148.309372960086	-81.2233707817197	-76.3525437238753	-19.3103998203123	-10.1958239872434	
2449333333.33336	-13.7700675741564	72.9743720388868	-80.8440712032478	169.078876577568	-80.8314428311292	-73.4095127992357	-19.4394843217582	-9.78627628011193	
2449666666.66669	-13.7856204833877	72.4237367348982	-74.2842826617918	-160.983990742183	-86.5762142273617	-48.0422169396746	-19.5767239980307	-9.0023021803987	
2450000000.00002	-13.8069385828622	71.918042250733	-83.1643434438338	135.185193490517	-87.5435856333196	-69.3214337299397	-19.7195644634511	-8.50380211248466	
2450333333.33336	-13.8511130575664	71.4134588861725	-87.028354112207	169.811726667417	-85.692825398619	-14.0170415948504	-19.8507853139817	-7.77123431338705	
2450666666.66669	-13.8682355120824	70.902944564113	-73.0544770003476	167.226222665106	-77.1210156967212	110.54577177172	-19.9925830556818	-6.97121705119535	
2451000000.00002	-13.8906590904296	70.3631302913729	-92.4689146928582	-37.5530408036491	-88.3837597274672	62.4280866488245	-20.1398100453611	-5.88673756084199	
2451333333.33336	-13.9065267692683	69.7894597402115	-76.8844265488783	-167.10966114464	-76.2918287015821	94.8453315955287	-20.2995377710305	-4.95860201726348	
2451666666.66669	-13.9155020994594	69.3193276886405	-82.08152560083	178.829265660531	-77.6761007526007	-64.3385075206663	-20.420061430619	-3.89972689676665	
2452000000.00002	-13.9411565036123	68.7141910765935	-78.8681004795205	131.494170328876	-80.0832375392413	-179.141392732175	-20.5315079813734	-2.72014456590008	
2452333333.33336	-13.9545252191751	68.0729715804459	-71.6007090808143	-134.199220499735	-85.6060970744929	-135.662021052608	-20.6561974710725	-1.52067012249835	
2452666666.66669	-13.9614757100027	67.5899927060064	-79.0801071399264	-153.925244840654	-86.9893745352499	-78.9343036894107	-20.7669833532893	-0.119518888726144	
2453000000.00003	-13.9855359635909	66.9615960864418	-72.6163029687398	-156.107687179009	-83.5947268328465	90.7717740515291	-20.8926817596456	1.2311773778058	
2453333333.33336	-13.9785049858548	66.332170570325	-75.1050598100528	-127.68540206082	-84.1751987260571	140.694825253079	-20.9495029482396	2.58139040907038	
2453666666.66669	-14.0001485491716	65.851994576249	-73.3760202579848	-158.989034982977	-78.1496290409507	119.646132564664	-21.0535721156116	3.96085195951221	
2454000000.00003	-14.0057044820935	65.1218859992437	-69.3065223540048	153.543338030592	-74.8381599897549	-145.762228960934	-21.124239468915	5.45555722730937	
2454333333.33336	-14.0079941764663	64.5222105349231	-65.7516702714778	150.948869973067	-82.1084606638633	107.119702839923	-21.2271009007303	6.81103564484993	
2454666666.66669	-14.0152127752934	63.8812603409324	-69.7152584705959	146.405679773844	-75.592176201627	-152.251898277664	-21.2560084288721	8.42112925534753	
2455000000.00003	-14.0132727584636	63.1954257539386	-69.5956530108593	141.311241220087	-92.8359619053565	123.076048263037	-21.3155303681536	9.92742368660915	
2455333333.33336	-14.0254261236158	62.5928195196435	-69.8317149025072	130.918650395454	-73.6285111681945	-154.095361626412	-21.344982389488	11.2972793885922	
2455666666.66669	-14.0110458453924	61.8668281416746	-69.4629330061034	125.306901714043	-81.9847721399369	-77.6762567816483	-21.3683863673649	12.7162631581002	
2456000000.00003	-14.0087289723009	61.2236941523675	-69.8323961021737	102.303257949026	-77.8929714992742	143.334287488831	-21.3747891094044	14.2442801052387	
2456333333.33336	-13.9977908974912	60.5133420238729	-66.5251037887359	78.4888809830114	-80.8361284617716	-178.910480070078	-21.4034719202809	15.6317148177505	
2456666666.66669	-14.0033079748084	59.8101050977062	-68.3935690740058	80.0210824750235	-74.6537799913838	-102.15396120234	-21.3849538161565	16.9854755854473	
2457000000.00003	-13.9770431079443	59.1685683017891	-68.139834903441	64.7692666937108	-79.2249213939386	-120.161651542801	-21.386279576421	18.4210485147427	
2457333333.33336	-13.9699818683031	58.4679572736602	-70.4059020376458	62.8891167293985	-82.0499518313309	-115.266398225424	-21.3548755246623	19.8002862430368	
2457666666.66669	-13.9547354193781	57.7629560352084	-69.4427904128239	49.5729331560328	-90.6811259382999	54.7911652016439	-21.3322010279995	21.0592682730502	
2458000000.00003	-13.9301666373839	57.1132548575496	-69.846407590415	38.9124417870096	-81.8207067939647	-24.2997163026191	-21.2770029457864	22.2510141428106	
2458333333.33336	-13.905968544058	56.4293836426783	-64.9039019992364	34.2661339507629	-86.3586490864852	-68.4746082482259	-21.2390240032824	23.3643328481846	
2458666666.66669	-13.8879144105049	55.8006765904173	-67.6557755100559	20.413677253558	-88.1416607121436	123.795082412342	-21.1981456152305	24.5033381012701	
2459000000.00003	-13.8618558965282	55.0410898876787	-65.518456131709	16.234609878992	-73.6332017925477	153.703484936862	-21.1370504431205	25.8114656477952	
2459333333.33336	-13.8371292055815	54.408292860015	-64.5914487922144	-11.5594589084319	-71.3224133937647	144.295303008435	-21.0726969784353	26.5885172513077	
2459666666.6667	-13.8191997619164	53.7670207145728	-66.3165239493301	-1.64405086424413	-75.4330869385367	-161.914553972009	-20.9958293165322	27.5141190217579	
2460000000.00003	-13.7782321421955	53.0995597564786	-65.1914902592947	-13.0017021204681	-75.7923189161481	179.68503934685	-20.9334893569662	28.2131515451403	
2460333333.33336	-13.7503767029389	52.4607337821473	-66.1401147599057	-31.80142544443	-83.4499351724948	-173.501089890547	-20.8117020312399	28.9297489669909	
2460666666.6667	-13.7210314022743	51.8211533985055	-69.5150807803772	-38.100553839354	-80.274287528666	-70.3185301056858	-20.7846825274283	29.5720167176514	
2461000000.00003	-13.6813634074162	51.162128602162	-65.4957630876467	-59.4433004239859	-87.5401566422146	138.118486601135	-20.7087003075696	30.1921666902871	
2461333333.33336	-13.6449938024352	50.5079671949006	-65.0087293614087	-70.2342981107892	-75.4171713645733	-23.2584623374134	-20.6074944723225	30.7182312978961	
2461666666.6667	-13.5988529682248	49.829157083542	-66.4838437410016	-63.336867350764	-77.9350147754125	83.2590380983002	-20.5636860258227	31.0051573109831	
2462000000.00003	-13.5684406630178	49.1971394206172	-66.2153325431148	-87.2849764614225	-82.892971492738	75.7590226903353	-20.5128025523302	31.633700795757	
2462333333.33336	-13.5284622942101	48.6283319049824	-65.2684785679118	-91.8088230597385	-76.5310664853193	-118.945563827988	-20.4704403372367	31.6808784117399	
2462666666.6667	-13.4867078040546	48.0086213858038	-68.0378736512734	-96.0226155327531	-80.5460043328401	137.470421040346	-20.4261636006544	31.8312618236328	
2463000000.00003	-13.431685307864	47.4072101134363	-66.9102115466193	-123.788664182144	-88.939703494746	-25.6430510235183	-20.378273530104	32.0508103584801	
2463333333.33336	-13.3898491560159	46.7809494607786	-66.5592911321247	-118.866691228944	-79.4017907074428	-99.363102548348	-20.359866306894	32.0553267970152	
2463666666.6667	-13.3484277231423	46.2147533524422	-68.2463242564188	-147.495387092446	-82.044188911997	-16.7819213535189	-20.3320648929781	31.9743965192387	
2464000000.00003	-13.2983885015688	45.6584246165838	-65.7022899315078	-146.485922800279	-74.1764738923245	-160.514837531822	-20.3104048493037	31.8659187233274	
2464333333.33336	-13.261084435379	45.1711648421819	-66.2007101970486	-159.028526154734	-79.7035139078683	156.370828601317	-20.3023103057096	31.8620621582297	
2464666666.6667	-13.206300186387	44.5767494889943	-65.9161617720499	-155.744236700722	-78.6856850432134	-158.728103916355	-20.3243040540647	31.7562571620945	
2465000000.00003	-13.1590588066599	44.0662876241759	-66.6906197876245	-178.201484741277	-79.2196012520029	121.617256205753	-20.3290069992229	31.4475339505249	
2465333333.33336	-13.1110025252462	43.5877603805716	-68.5200728874725	166.336990464056	-95.1469401447715	-161.176668817088	-20.3252707320445	31.2787270722264	
2465666666.6667	-13.0705506625912	43.0546254028399	-70.6578481301486	159.455895691723	-80.676686540598	-24.0913647206861	-20.3510857455473	31.0631968268052	
2466000000.00003	-13.0133982546597	42.5845817519375	-70.2976835402695	163.851962033517	-94.8332218012547	42.9688826298352	-20.3829040225402	30.8332875454269	
2466333333.33336	-12.9637749075059	42.1326601544788	-69.9402638825936	142.271605876022	-87.6094661437514	-160.677823960743	-20.418738997627	30.5409817594044	
2466666666.6667	-12.9174787868772	41.6652778452586	-73.2873079149262	163.749786614812	-76.9263189092219	-76.1453336343284	-20.4295352465915	30.4762593507529	
2467000000.00003	-12.8703769142705	41.172013708353	-73.1108693859502	133.598115842075	-74.4147737166872	-174.73084756522	-20.4723207167419	30.0797311804801	
2467333333.33337	-12.8187698373876	40.781076087352	-71.2192422616311	134.509353573216	-84.9883692521931	-117.182038026254	-20.4945398589568	29.7117392546697	
2467666666.6667	-12.769288762903	40.3689715046331	-78.33046370756	176.843165003048	-71.1284247928345	125.318406410647	-20.5390647113229	29.3475709841014	
2468000000.00003	-12.7221945469356	39.9626555426587	-91.1365971107411	177.76326532727	-78.0390351074211	-77.0173324347604	-20.5949137710651	28.9880433458062	
2468333333.33337	-12.670688487709	39.5846782735476	-89.7308603316721	8.86635867262059	-75.4810471876761	103.401746000934	-20.6380204115213	28.4040218498892	
2468666666.6667	-12.6204627294845	39.1914889657927	-84.093596172854	114.251064632441	-86.2316249593911	-110.891610265051	-20.6898649820686	27.9914654415629	
2469000000.00003	-12.5628889347004	38.8194102105553	-75.1620163082712	174.254613974194	-89.8181511302869	128.406894590532	-20.7262462489139	27.5498560422026	
2469333333.33337	-12.5174462240478	38.4500286011688	-78.6692882793526	103.366021542098	-79.1423043380941	100.650952283363	-20.7861510648282	27.1601879440013	
2469666666.6667	-12.4659464333257	38.1151949349706	-72.4284146174103	157.600659773039	-76.2869200849471	-6.87427494433916	-20.8593030977109	26.5434059205644	
2470000000.00003	-12.4169666772731	37.7511998113817	-74.0643115815911	169.716703635281	-76.2426426431839	116.314117471496	-20.9061758762904	25.9306778732732	
2470333333.33337	-12.3648354568343	37.4309184029729	-84.6404245182704	-151.413410694354	-79.0508360447334	-122.642139710759	-20.9678704548721	25.402238272384	
2470666666.6667	-12.3145173316785	37.134813072125	-69.9149507411365	111.030527209795	-79.625145921704	-110.917147639534	-21.0361251156412	24.7880264280317	
2471000000.00003	-12.2632313357919	36.8009367252635	-69.9158856869702	118.655134776559	-86.0870722246459	-66.1216443582496	-21.0926908227371	24.1336813378275	
2471333333.33337	-12.2123898173787	36.4792854204541	-71.3614010084245	105.683650927493	-77.8089842955992	-121.448574033939	-21.1615666423968	23.3671797217345	
2471666666.6667	-12.1647208112338	36.1922025824252	-68.9957673661858	118.406882285415	-83.6936710432683	-62.8294775245008	-21.2359277528337	22.6055056377715	
2472000000.00003	-12.1131478940848	35.8873487517553	-68.9720202671643	102.265710036191	-95.8644957570369	136.157614341994	-21.3068898044711	21.9145210732327	
2472333333.33337	-12.0516644517529	35.6308527267525	-69.1943304398044	81.0009920465487	-85.4693393755028	9.42492688520291	-21.3789655043126	21.117168204922	
2472666666.6667	-11.9949456736778	35.4027837788338	-69.0322241034833	44.707361608126	-86.0862207229747	-173.032684040777	-21.4668220413615	20.2225120878997	
2473000000.00003	-11.9339000345612	35.1306122647297	-69.5529995589573	53.0604925600569	-84.6724561077937	-94.1306589399997	-21.5468401171566	19.4062538932117	
2473333333.33337	-11.8826939869317	34.8600844581092	-67.7821545734568	49.4092129940781	-80.0531433185864	-118.99369578203	-21.6139267709536	18.4094988266153	
2473666666.6667	-11.8261986639678	34.6206926465623	-67.5031209811411	29.4286959424482	-74.4107692818105	158.680568937879	-21.6628404225719	17.5689108846024	
2474000000.00004	-11.7705654593226	34.4275979716496	-66.3222281474332	22.9223836811842	-74.5656234422879	-121.197448947863	-21.777697395928	16.6232038063474	
2474333333.33337	-11.7199481962896	34.1509931683441	-68.1756286680319	29.2746707670431	-81.8297682374744	136.538812427194	-21.8244383451255	15.6780872362391	
2474666666.6667	-11.6697753313425	33.8968297800151	-65.9819262995231	28.5166596807268	-79.0458283993197	-52.8552526065142	-21.8771359506713	14.8104150882466	
2475000000.00004	-11.6148039788749	33.6560249063404	-67.3768056222709	-3.9826368115229	-78.3224196962155	-45.5258535678859	-21.9557072266987	13.7612842176945	
2475333333.33337	-11.5653363501449	33.4283035046665	-64.8842067091523	-8.9937345372527	-82.4662869735313	-110.391980124508	-22.0061906758446	12.8204791871648	
2475666666.6667	-11.5098438338206	33.190286423618	-64.8785708575777	-23.6379872193416	-74.8736638077061	-129.712232405662	-22.0436435494176	11.7440734955701	
2476000000.00004	-11.4651586293654	32.9267735673751	-65.9111179180951	-28.9103097351965	-74.4820076719257	-44.1801870183481	-22.102629551752	10.7068174666272	
2476333333.33337	-11.4113350210775	32.7001958107141	-65.5762002954179	-37.3549725742839	-80.4786722031395	-119.655761641947	-22.1146761016042	9.61726394199256	
2476666666.6667	-11.3633826320604	32.4226754655901	-66.6914828440316	-51.3228948667612	-78.2959634460038	-88.5184698294247	-22.156926485236	8.62567444434107	
2477000000.00004	-11.3195055259999	32.1930236015152	-66.3876929106736	-70.808013771826	-76.0980873377794	-103.865946961274	-22.1763066249078	7.44983127470501	
2477333333.33337	-11.2767808584638	31.9357100620101	-65.7464157872113	-68.5919645970719	-78.9814232409909	-103.647778602803	-22.2085396926581	6.20424520631108	
2477666666.6667	-11.2259938016809	31.6647293598396	-66.2033834445058	-72.5191890437223	-84.5376613227765	19.3261059897478	-22.1816663563776	5.03216942381813	
2478000000.00004	-11.1842389704062	31.3854349761165	-65.4349194792864	-92.2449474953141	-82.8887920328979	179.774956788032	-22.2086130466944	4.00493591472461	
2478333333.33337	-11.1380183967777	31.1385813612594	-69.9246077937229	-77.0909073654984	-80.8454713127624	160.845750234917	-22.2039935126349	2.70406544584412	
2478666666.6667	-11.0880677114326	30.8999673871233	-68.437898048014	-97.7871511687871	-80.0978703081856	64.4098611901187	-22.1823899636462	1.51345352322949	
2479000000.00004	-11.0451613699909	30.6682220048659	-71.7959584326144	-126.765250683723	-83.1190433911518	-29.3444185133973	-22.1483749988005	0.0724952887962377	
2479333333.33337	-11.0069948920823	30.4024167690948	-68.6062057944458	-101.616900906148	-78.4111305799473	78.0485484292693	-22.1365178445809	-1.15232414664216	
2479666666.6667	-10.9654264141621	30.1168577882944	-66.9378768887964	-117.065755789643	-83.7642886425794	-119.950740135677	-22.1073494249333	-2.2733300644902	
2480000000.00004	-10.9276257252584	29.8730294261608	-68.9470831918544	-122.939753562159	-84.3172206002824	43.9064549794292	-22.0452372719178	-3.61938493437571	
2480333333.33337	-10.8957171320911	29.545120401782	-69.3211450106541	-126.271145567707	-80.86577371189	23.2794853122789	-22.0173600430052	-4.82147597223929	
2480666666.66671	-10.8566601177929	29.2830503644486	-71.9877264723306	-134.129739312976	-76.8156018501562	-10.7123666026298	-21.9736742804824	-6.02724710614054	
2481000000.00004	-10.8208608037366	28.9630369973445	-70.8319548754751	-132.88332367705	-76.7846437896111	149.352180047825	-21.920623852213	-7.43728730514638	
2481333333.33337	-10.7922481204148	28.6175854426244	-66.3843687888678	-144.143235774426	-80.5863590053794	-151.375674541316	-21.8446809292312	-8.55539951222832	
2481666666.66671	-10.7542360591507	28.2281753554847	-69.2604849918697	-162.711490049132	-77.3945834040521	-159.874162313887	-21.7900843682973	-9.89110203830214	
2482000000.00004	-10.7354042116982	27.9132408678916	-68.9353488817785	-156.339684858632	-83.7081280637964	-118.368651804575	-21.7021529092762	-11.0304729025202	
2482333333.33337	-10.7085817893121	27.634821951998	-67.334099486799	-173.025564893314	-89.3096124796326	-73.9595043118656	-21.6341145509149	-12.2019398043542	
2482666666.66671	-10.6864406370064	27.2681718460454	-68.1673382754633	-178.840496111592	-87.3052685416877	99.2202474260865	-21.551116954282	-13.4751852200767	
2483000000.00004	-10.6649188047906	26.8894318263837	-66.8513020486575	161.059175084883	-78.2648973515119	-136.910415018194	-21.4711556271342	-14.6224599895722	
2483333333.33337	-10.6459646653726	26.5033334851317	-65.9933140865234	151.587866633338	-85.2930422588958	-80.5758919881802	-21.3737847107366	-15.6511798528465	
2483666666.66671	-10.6297530723949	26.1899492401725	-67.235365391018	156.881168363494	-74.2554469965212	-105.171079343607	-21.287542648602	-16.8745593902974	
2484000000.00004	-10.6065717249	25.7663227433989	-65.0556978898597	148.474010065201	-86.7031343640424	-109.791682005125	-21.2028740687522	-17.8763366132572	
2484333333.33337	-10.59280361452	25.3290663893624	-65.9640282294936	134.811510249843	-75.9633856378534	15.6610317926444	-21.1110503759054	-18.8863435570416	
2484666666.66671	-10.5797866341359	24.9682088415525	-66.6345824469262	130.275742803222	-88.2453877976402	-103.125182420442	-20.9841099477395	-19.9340931886944	
2485000000.00004	-10.5680573673726	24.6438584189506	-64.7216238492508	122.917353266852	-87.8154327852458	-40.8127690944312	-20.8737070715967	-20.9669266689259	
2485333333.33337	-10.5606326641671	24.1713986882149	-66.0330066316447	98.7727648455447	-75.8835846761877	7.33142189648626	-20.7725884379616	-21.9854709883344	
2485666666.66671	-10.5544075929311	23.7830267382724	-65.8010818869385	105.00069485564	-86.0594252271284	-144.845550670739	-20.6571901397041	-23.0288301800283	
2486000000.00004	-10.5548318298691	23.3310402729366	-63.3086647202002	97.301386476904	-85.4592531667883	-128.081594655567	-20.5404349129622	-23.8018020428566	
2486333333.33337	-10.5538324456846	22.963550149238	-66.7991687637152	71.4621107695149	-95.3567330537712	33.5227389686588	-20.4319674016317	-24.8737783072226	
2486666666.66671	-10.5506659847791	22.5024258812643	-63.6250319091209	68.7050027163243	-79.1743237940886	80.8261832241848	-20.3177207921165	-25.8043752781956	
2487000000.00004	-10.5593130371688	22.0824640307307	-64.695581478469	75.5886999358401	-78.806251774294	102.648377836795	-20.2147679682207	-26.6211907544716	
2487333333.33337	-10.5612532995518	21.6483289093856	-64.3392828851293	67.1112277072719	-81.4893515735566	-83.0460201342153	-20.1173694094905	-27.5159644739952	
2487666666.66671	-10.5644893672962	21.1642629432192	-63.4121892867144	71.0702039057541	-75.7606772562223	43.8418165305883	-20.0174403697653	-28.4570489194838	
2488000000.00004	-10.56365169588	20.6680004644649	-65.5742124409811	48.4518645365714	-79.8938874308842	-103.721395097954	-19.9231487811088	-29.3579760517426	
2488333333.33338	-10.5845959478625	20.1893705556837	-64.1109535246037	33.3893122670365	-73.1445049290802	78.5722484110968	-19.8331666000555	-30.1773107786451	
2488666666.66671	-10.596945420652	19.7210328879514	-63.7684529921801	19.2990388084046	-78.1301420891377	113.387702920332	-19.7450929937569	-31.0017306861473	
2489000000.00004	-10.6139847435277	19.1635267813745	-62.4332315796919	17.9623351784149	-75.6768509917497	1.73358425294057	-19.6571764786119	-31.6808583714045	
2489333333.33338	-10.6369855664591	18.6903749523872	-63.9051836629642	7.41277997324475	-83.4910235624452	18.0493043066005	-19.581701253133	-32.4924804384754	
2489666666.66671	-10.649205833367	18.2110873410167	-63.4363428269561	6.47062885069335	-85.7740822063898	97.9631159763241	-19.5015168938369	-33.233262714891	
2490000000.00004	-10.6708035792319	17.684803674757	-62.0475039606228	-13.2741536337569	-85.9064658064122	1.56086697263761	-19.4584576821735	-33.9370518350032	
2490333333.33338	-10.7060857624583	17.1900376501119	-65.6438647421273	-10.4817950576782	-84.6437678455687	13.5965556974947	-19.3808959569981	-34.6439833462538	
2490666666.66671	-10.7254466170354	16.6282973824841	-63.6285877496382	-21.5847031519501	-76.0207961026748	-28.9831804195394	-19.3358506498987	-35.168158101326	
2491000000.00004	-10.7663141620585	16.1091997256519	-62.1533373809068	-22.1341791510431	-83.4454701002494	-120.853192423301	-19.2812686085425	-35.7824619083925	
2491333333.33338	-10.7945947838677	15.5628833058837	-63.0755645744567	-34.2937011236429	-81.7839026991994	79.7778351404622	-19.2343528686053	-36.4196811007133	
2491666666.66671	-10.8378519487415	15.1056538993931	-65.7728302260262	-43.8399469740639	-85.4483887610031	150.649019350927	-19.1776016300619	-36.7641101367597	
2492000000.00004	-10.8622778669004	14.5341055451726	-60.620772759976	-55.43323679251	-88.510244603669	-32.5082346469476	-19.1406013616254	-37.2688757985246	
2492333333.33338	-10.9071858906372	13.9788005479084	-63.0312254838443	-61.1041148818374	-77.3490177341078	-117.718546944901	-19.104643790521	-37.6617204463632	
2492666666.66671	-10.9481532416301	13.4257886252435	-63.8281062084101	-61.5987220786023	-108.156511178224	44.112786647339	-19.0694723610229	-38.11096937147	
2493000000.00004	-10.981383430837	12.887440847855	-62.4207129535515	-79.4660002236987	-83.1708409855462	81.2214625057485	-19.0388092040912	-38.4994403154183	
2493333333.33338	-11.0336805549338	12.3240986019739	-62.9256048183488	-80.5823224506908	-80.5091877638613	-86.8969055666499	-19.023077245728	-38.6901143636739	
2493666666.66671	-11.0613657194136	11.7450920072888	-63.0442115576504	-97.712810900634	-74.5052467099096	26.7045816592701	-18.9924093012986	-39.0950983964402	
2494000000.00004	-11.1138644421734	11.1846787260186	-63.6855287641017	-105.38846018876	-75.0701898567401	-25.1793805709817	-18.9862858174623	-39.2274847082733	
2494333333.33338	-11.156249158402	10.5833332318946	-61.1141964498746	-119.520937039516	-84.0285939578457	179.122198859657	-18.9680060352448	-39.4409475898757	
2494666666.66671	-11.198700175363	10.0252799163186	-65.8286152025616	-125.835205275789	-72.9237010492193	43.5157342122416	-18.962295223251	-39.7504759939324	
2495000000.00005	-11.2500986185451	9.44524964429712	-63.1028716936063	-137.738026523882	-86.2221906798472	178.490876000505	-18.9471144255225	-39.8052838803114	
2495333333.33338	-11.3035388482457	8.92379665991197	-62.3057924508156	-150.099163890106	-89.1501479144843	25.7743302693511	-18.9441537629204	-40.0563704481365	
2495666666.66671	-11.3500821983549	8.19976880613446	-63.2369627960053	-159.349297079806	-85.0962605117779	-87.2031733274245	-18.9608658464466	-40.2382465675403	
2496000000.00005	-11.3884251792478	7.71461377103696	-64.0435612251925	-169.425309522631	-82.9061482002911	-22.7523385912512	-18.937321801925	-40.2531830243196	
2496333333.33338	-11.436192117545	7.0517706559979	-63.5637009531689	-173.86180938376	-70.2724155976731	9.84478523745507	-18.9712309333106	-40.3119813581996	
2496666666.66671	-11.4988232066076	6.46222171513731	-63.6261242810542	-178.933087863414	-77.366084578728	-71.294687440703	-18.9929473784967	-40.4259698686527	
2497000000.00005	-11.5412598264541	5.87399079748959	-63.0380165697838	170.137229774703	-84.9071077292911	164.695223202497	-18.991392295843	-40.4608654226943	
2497333333.33338	-11.5886633640762	5.28847913963883	-62.3963559671036	155.430130778475	-84.5488145343709	-137.716686796991	-19.016033381247	-40.4180535784646	
2497666666.66671	-11.6275835469226	4.62526424015614	-61.357066806334	152.971523869348	-76.9225662175554	-29.5334752904124	-19.0657514728977	-40.4322894196872	
2498000000.00005	-11.684265306329	4.05197915226735	-62.7226064104643	130.646953263622	-79.0422256534734	-17.7935014851532	-19.072957373271	-40.6055399524826	
2498333333.33338	-11.7308724699384	3.42557720023035	-63.1891115211171	131.227021901445	-89.3390444078211	-64.2341577645231	-19.1328314189482	-40.4733957944442	
2498666666.66671	-11.7800605487848	2.801283480862	-64.1032416666336	121.65261301967	-89.5425066982974	87.14437295913	-19.1593008691681	-40.3134596474717	
2499000000.00005	-11.8266815209499	2.21494372728433	-64.6424632955604	109.489045566999	-85.5422884395381	-101.900576567607	-19.2104038763989	-40.3481530927665	
2499333333.33338	-11.86636009915	1.60866247068188	-64.5330470173376	109.745709708503	-81.2820796694322	106.072729537217	-19.261625302238	-40.3306714041548	
2499666666.66671	-11.9214081125285	0.954899569266417	-65.7282293857958	95.237005093561	-81.4923916326414	32.4200257823803	-19.3434456157561	-40.1431404234682	
2500000000.00005	-11.9650355345556	0.294599901383972	-62.0127027009178	96.4729098510903	-76.5126237642232	35.6575159453848	-19.3873578314466	-39.978931363421	
2500333333.33338	-12.0061726828586	-0.295118438187297	-63.8862474056731	78.6169424388522	-85.9045072068958	144.35488904645	-19.4589413282133	-39.8040649147898	
2500666666.66671	-12.0520361016745	-1.01946383356025	-63.8469331179971	75.1832136930555	-81.2305201316079	82.0067906749212	-19.5404319901902	-39.6540379999883	
2501000000.00005	-12.0938445482226	-1.60146170012278	-63.360396233437	62.3590105543682	-78.4278274849599	139.811112372703	-19.6254426470487	-39.3921856372984	
2501333333.33338	-12.1263383047461	-2.29475942389807	-63.8111130429734	70.101578877011	-88.6780577605477	-154.043946927779	-19.7272980473438	-39.1786443913593	
2501666666.66672	-12.1716003880081	-2.98435364537768	-64.7780778964618	57.2014184861232	-83.2664842729685	-14.1109365899363	-19.8131248215603	-38.856975769165	
2502000000.00005	-12.2195106941569	-3.63953424548987	-65.2874393939187	42.3664643747714	-76.9953326377147	49.6809548776227	-19.9166841433888	-38.3202946346062	
2502333333.33338	-12.2516039015634	-4.28076970224509	-65.2580423633164	42.3180545580051	-88.2481029363886	-116.128820137665	-20.0195531045629	-37.9416211235205	
2502666666.66672	-12.2893129330147	-5.07053410386955	-64.8400839562138	45.7327478302129	-76.4912904766043	35.886846245318	-20.1433271711771	-37.4586617116409	
2503000000.00005	-12.3272016185863	-5.75641228450081	-67.6264557124608	22.3360410659361	-81.1777835311607	117.712910905223	-20.2544617130557	-36.8427516877677	
2503333333.33338	-12.3682530433021	-6.50456058409996	-65.5028606120968	21.6665853665285	-76.3984711293078	-49.0734482650429	-20.3575898666313	-36.3691336934084	
2503666666.66672	-12.3950022502162	-7.23285627032982	-65.8926408399534	14.8318411026373	-89.82943304165	108.023043452162	-20.4754270609826	-35.5814021879963	
2504000000.00005	-12.4213552277961	-7.94194832451557	-66.8483554073979	22.523767912918	-81.4097043807308	-14.2570197732686	-20.612380963828	-34.9855549215617	
2504333333.33338	-12.4532406267963	-8.7033683472882	-64.131466455802	11.4677602942185	-76.0095302782463	76.5386602970817	-20.7734197058816	-34.2560017187981	
2504666666.66672	-12.4724261319243	-9.44417331087508	-63.9250245081234	7.50017011208019	-79.6262574047957	-164.374398906052	-20.894832319863	-33.3183579720491	
2505000000.00005	-12.5001401842728	-10.2659528520749	-64.8140877040496	-16.0453974889938	-83.7888672163675	125.800891491243	-21.0429475773951	-32.5424232721887	
2505333333.33338	-12.5242476427619	-10.9953048306936	-65.2497674984491	-3.7823210822018	-81.600305640376	-161.690607629734	-21.1819673952332	-31.7075053612517	
2505666666.66672	-12.5380878955919	-11.7896843556235	-62.6358412061965	-31.2120810467987	-82.0550452931946	140.752394031487	-21.3608969177678	-30.6700116553107	
2506000000.00005	-12.5624309081737	-12.5310474397906	-62.9570179420157	-43.3015255469234	-84.214414797215	24.0094804205178	-21.5228605896117	-29.5101155352426	
2506333333.33338	-12.5758433550766	-13.3217973639858	-62.8168588134822	-56.9764498399089	-82.4274966596513	43.3084210540625	-21.6706141306717	-28.346302715071	
2506666666.66672	-12.5936409982239	-14.0687559485359	-61.8201263563198	-54.6294839487676	-89.3908918842028	-39.1428064557859	-21.8408084116994	-27.1798752146619	
2507000000.00005	-12.6005477563299	-14.8617126944694	-63.0741948686784	-67.6747828302049	-78.0127990393592	87.6160705058231	-21.9858945352816	-25.7783694053374	
2507333333.33338	-12.6148068723599	-15.6074503869691	-62.5569520957886	-82.6536293587179	-80.2787038130846	-70.7750988865339	-22.1684395910876	-24.2515541477769	
2507666666.66672	-12.6221109858716	-16.3921096717937	-63.4104155447167	-82.4118579733239	-76.3016199176153	-19.0362382165079	-22.3346334004407	-22.6170209297106	
2508000000.00005	-12.6368849659453	-17.2519862332935	-64.3629313066125	-104.107192810223	-86.9894598097242	-62.7297662872152	-22.491952197128	-20.8182657783186	
2508333333.33338	-12.6408056736959	-18.0925952800333	-62.8558343089317	-112.409504846516	-83.8734129316536	86.9666317048008	-22.6204223291507	-18.9360072578707	
2508666666.66672	-12.6441976017487	-18.8921182663672	-63.6707114892598	-119.080640706277	-77.080029274037	-122.812163657779	-22.767691987878	-17.1779599872519	
2509000000.00005	-12.6478695970714	-19.7356298924336	-65.3115035218246	-120.139957006799	-93.3590541842899	-142.648979345675	-22.8678063599377	-14.9574678828277	
2509333333.33339	-12.651402892339	-20.5581171341596	-63.7717376986097	-141.230929947886	-84.1947334074665	140.41468692276	-22.9608960684313	-12.933744942344	
2509666666.66672	-12.6515330011992	-21.3797951774077	-61.885917776977	-145.813102081638	-75.6990246267061	67.7169442348002	-23.0562772793058	-10.4861314159281	
2510000000.00005	-12.64472744421	-22.2542516388129	-62.1757870507912	-157.641298785978	-79.3593753510485	134.729543215599	-23.1282115201872	-8.39502467176026	
2510333333.33339	-12.6462449413672	-23.0118961067079	-63.6310657071003	-166.39395356394	-78.3383055506251	128.085905455349	-23.1570210766218	-6.21933659805782	
2510666666.66672	-12.638350287459	-23.8589856659748	-63.6376453967756	-173.056164021078	-83.1607876471311	134.474917786781	-23.1662317360394	-3.58871158791156	
2511000000.00005	-12.6331219813762	-24.7002213056851	-66.2490856015522	165.814988375951	-74.7085511001051	166.683799652771	-23.2026613314445	-1.24934850099933	
2511333333.33339	-12.6318427183574	-25.485674275694	-63.7854375637614	174.200654105112	-81.9344470293345	133.567882899708	-23.1633137338913	1.16761426468179	
2511666666.66672	-12.6248280143735	-26.2893248401179	-65.2107712616897	159.524661763127	-83.9754568431989	-113.549294218758	-23.1319739803071	3.56580989945224	
2512000000.00005	-12.6125279613508	-27.0609058110879	-67.246772327289	153.437995787909	-83.1168400952067	155.549405059398	-23.0560594038448	5.74215871609419	
2512333333.33339	-12.6026042800486	-27.8801760355084	-66.3740922247411	137.770147938304	-81.9945031767286	-166.679163490971	-22.9840266922159	7.91970977229762	
2512666666.66672	-12.5929659902031	-28.5890724378048	-63.122165921261	144.525655462659	-80.009098402021	85.5499475536827	-22.8838749118155	10.1991060701779	
2513000000.00005	-12.5784330069603	-29.3663558137059	-63.2477255953752	129.478577999476	-86.7462853074984	100.245663015184	-22.7710949333013	12.5976125213691	
2513333333.33339	-12.5690763738079	-30.1661644748667	-66.2123681355427	109.120767605051	-79.0093167849856	150.034789244156	-22.6353963504399	14.3779144723702	
2513666666.66672	-12.5601427726038	-30.8992373111851	-65.6029697870738	107.637792367886	-76.4814344826884	61.2770356749288	-22.4907594812331	16.3010688959243	
2514000000.00005	-12.5487600379793	-31.680693669915	-66.2048017687204	116.237827493289	-85.4512335878274	52.7201392488877	-22.3127329831541	18.3281803267094	
2514333333.33339	-12.5361192753068	-32.4389848219476	-64.5408594425241	84.3667317901764	-85.3402870614362	12.8422647977178	-22.1564179664044	20.0155610980685	
2514666666.66672	-12.5198724636053	-33.2109532843396	-66.2123472830913	83.4663891183946	-101.843232243044	170.22236401893	-21.9458583938005	21.5766423662873	
2515000000.00005	-12.512797006221	-33.9250918607406	-67.4297895855743	77.9888522211291	-76.231901060481	78.7656299393212	-21.7842235421739	22.9276177613537	
2515333333.33339	-12.4990922852707	-34.6820879874671	-66.351722672962	64.3880167087978	-81.4210790000148	150.678778426061	-21.5775852330312	24.2981663981855	
2515666666.66672	-12.4853114951509	-35.434653115277	-65.3225919821647	67.1755968148228	-79.5937920500741	-41.9491621499389	-21.3859265779518	25.7358086368937	
2516000000.00006	-12.4723173557578	-36.1505700698858	-67.4098024671467	31.8159564725834	-83.9446239529453	125.392947255317	-21.1787909392417	26.6464466573829	
2516333333.33339	-12.459536688292	-36.8804128928256	-67.4631602091336	56.0046368253015	-84.2382980797327	160.187020282779	-20.9920968482197	27.6549753364452	
2516666666.66672	-12.4561753461834	-37.5100839416633	-64.5390326515127	49.1388126688474	-79.4216798579976	-122.922213864699	-20.8084101151427	28.3174732648781	
2517000000.00006	-12.440878294644	-38.1613882942207	-71.759137869359	13.9905035623964	-84.8027374216547	174.572562985723	-20.6096263014067	29.1085922840319	
2517333333.33339	-12.4395049151989	-38.8513066307923	-66.6864002104006	7.47799400022105	-74.3452402129229	24.1481131250242	-20.4274050916118	29.7687342462417	
2517666666.66672	-12.419996142482	-39.5307379938969	-69.9217698357178	-5.33997303156064	-79.2287384717051	88.5326979374885	-20.2239864681473	30.2176853405023	
2518000000.00006	-12.4164084950858	-40.1486814516614	-75.0367347276815	-30.1293163474377	-86.9695211080616	-122.284606726185	-20.0732943294059	30.5175584148112	
2518333333.33339	-12.4107159917902	-40.7309569246134	-70.3376287730787	2.70370939955213	-80.7444955695295	173.151564942937	-19.8965810342871	30.8478702405728	
2518666666.66672	-12.4047816453468	-41.3056481196804	-68.6321288790435	-13.1256950904082	-85.8656046401803	162.868480549173	-19.7571398419726	31.0703794597926	
2519000000.00006	-12.4041260455801	-41.894193761069	-67.3245285806178	-37.2949022116848	-89.9625783096209	-32.3589829923077	-19.6233137814751	31.0527122466711	
2519333333.33339	-12.3936121594663	-42.4228940541614	-69.2517317097879	-51.3659748454607	-78.6531156370036	119.373664481719	-19.482130807148	31.0729071683885	
2519666666.66672	-12.3928768419415	-42.9668177034936	-69.4308066689597	-18.5448488492338	-76.691244599197	77.1279855440008	-19.3557563539584	31.2639510971027	
2520000000.00006	-12.3939553939789	-43.5083600252583	-69.1006383972209	-40.0440067447181	-82.212802372078	-112.159312841104	-19.2784182154019	31.0070618073355	
2520333333.33339	-12.3979519308987	-44.0609376501125	-67.0178047733937	-35.4627951247924	-79.8504314622199	99.4250327264561	-19.1536950279038	30.9055088561302	
2520666666.66672	-12.4000820823069	-44.5163565719987	-69.4641299968698	-36.2965117506597	-79.0835677379052	46.9519941747971	-19.0682699871077	30.7416169591061	
2521000000.00006	-12.4106192235475	-45.0241201694044	-68.4612368187182	-62.0588225644457	-75.2800389341438	121.21496514659	-19.0050055888445	30.4911561765389	
2521333333.33339	-12.4085046265746	-45.4306465277351	-73.691695517498	-83.2163823821314	-78.5955892718834	137.211831373986	-18.9213894880978	30.1406107542378	
2521666666.66672	-12.4099072359677	-45.8942486434274	-75.4024932203117	-84.9428790091349	-79.2835061661669	-115.243184781078	-18.8681488936902	29.7504360231499	
2522000000.00006	-12.421397270532	-46.3927699439871	-71.5762196211286	-77.8705282128976	-74.1604442502026	148.884498830976	-18.8405438592633	29.4923313451121	
2522333333.33339	-12.4342393901358	-46.7751019363049	-72.4629759247404	-102.459808337498	-83.9978313871967	-35.9264961360151	-18.8051486048172	29.0999187570498	
2522666666.66673	-12.4311247669821	-47.1702685077787	-71.7620094096931	-109.592680474754	-81.1455643457568	-6.9624938737497	-18.7680429441503	28.6581785048951	
2523000000.00006	-12.4485683195692	-47.5261165697809	-68.4491341596222	-109.05171359614	-79.9057957192632	151.040517304081	-18.753787238294	28.3051188543939	
2523333333.33339	-12.4610339729127	-47.9103702075614	-71.8271551147357	-128.702872440308	-82.7725831063953	-103.088497299638	-18.7420815711936	27.8979363201008	
2523666666.66673	-12.4737438396505	-48.2047840388175	-69.4933441397608	-114.257620093406	-82.3462591930428	110.769990231035	-18.742127073215	27.4395048453774	
2524000000.00006	-12.4876651026141	-48.5795424462547	-71.1900491226593	-138.695666179417	-73.5900450028405	102.339138339229	-18.7578270746802	27.0974375961111	
2524333333.33339	-12.4973776103167	-48.8471256050247	-68.7357118271813	-160.500233961115	-78.1267827725108	-57.2534593809988	-18.7929523532846	26.3999699295806	
2524666666.66673	-12.5155289991016	-49.1961591186077	-71.9748127485221	-155.161249994736	-78.2744887627541	108.689182588036	-18.8062361572472	25.957380268251	
2525000000.00006	-12.5351131292397	-49.4977971977266	-69.7338041418175	-179.702214969404	-81.4960873639874	175.587520111523	-18.8316446519358	25.397988854566	
2525333333.33339	-12.5484994977038	-49.6893612123712	-68.5902633002335	-140.353236420844	-80.7888863060869	91.2530365581426	-18.8522581861747	24.8740342514503	
2525666666.66673	-12.5702383549304	-49.8928464232585	-77.6470372952679	-149.164275541853	-87.3023352330362	79.8630397406205	-18.923570494496	24.4429378897863	
2526000000.00006	-12.5911595768366	-50.2153932790064	-70.949534580202	179.193838195544	-88.0467256530213	-143.433565806488	-18.9514542378246	23.7970641858975	
2526333333.33339	-12.6057535879806	-50.3895362287417	-75.2292109411076	-176.880652947555	-80.2845823591737	86.8475755166808	-19.0276955347877	23.2425006870244	
2526666666.66673	-12.633421404948	-50.6093309434697	-73.8524152427751	175.877893073848	-76.746990222763	-146.671313548748	-19.07814649757	22.6294372759343	
2527000000.00006	-12.6486201190175	-50.8387473967261	-78.3270807818763	152.503833599761	-81.1131721915256	-132.259283587339	-19.1707505004529	21.9472694143701	
2527333333.33339	-12.6764197902864	-51.0183177974526	-75.2747057109279	137.357215993877	-74.0529562000064	-126.56968627812	-19.2316162494156	21.4661643176482	
2527666666.66673	-12.6964357968948	-51.2414861141928	-74.8183237401438	110.869320971965	-78.3887798140064	98.2244191843331	-19.3184635683003	20.7863777582215	
2528000000.00006	-12.7320335026074	-51.3984891515629	-71.4378252249296	162.09347220735	-83.7480393453122	-178.926993970744	-19.4032509365925	20.2602234184963	
2528333333.33339	-12.7548713543645	-51.5935439523436	-81.4916247896629	-142.675317327867	-84.4798143781485	-123.858723109898	-19.5070609338815	19.5477445948918	
2528666666.66673	-12.7792823074373	-51.7140279840135	-78.0116163657555	-152.882415334351	-79.3798466002172	116.922027786214	-19.5978760616213	18.9681559565033	
2529000000.00006	-12.8123339188628	-51.8913819134256	-70.3334576665061	148.668367034813	-79.0654437342926	-98.9700923302211	-19.6985260495809	18.310199927354	
2529333333.3334	-12.8333533379744	-52.1014212743947	-76.2325540038807	165.053016225774	-78.2930221224391	-32.9911740815488	-19.8160805279302	17.5488486346174	
2529666666.66673	-12.8666576342866	-52.2882553496671	-75.6924524751318	-178.523089442746	-80.953003339766	120.040233120545	-19.8868501368843	17.0063123024253	
2530000000.00006	-12.9074633789644	-52.455544365315	-79.0356770719149	90.0916645999748	-77.7606123214575	92.7390424684784	-20.0140725859147	16.2608287799758	
2530333333.3334	-12.9377401569952	-52.6427559414605	-79.9936419610033	132.53714456848	-76.8883470097273	-56.6874560083316	-20.1630161732128	15.65203819416	
2530666666.66673	-12.9683887854697	-52.8977112846147	-73.4397579089243	82.3086435789178	-77.7386629276634	-139.362088950076	-20.2523420257233	14.9451118234867	
2531000000.00006	-13.013607078142	-53.0080051140841	-73.8372756116435	121.851918452683	-86.6996787228658	126.915688711881	-20.3607295610546	14.2210561954827	
2531333333.3334	-13.045882859493	-53.3045058221749	-74.390557234427	71.6986279748248	-80.5933381282381	107.612008362411	-20.4540820950325	13.6015683861605	
2531666666.66673	-13.1031704838687	-53.4102350297716	-69.9555898979254	150.174557253028	-81.3405507278777	-166.163805872114	-20.5803044628632	12.8014820290966	
2532000000.00006	-13.140106853384	-53.6315924867242	-71.6354737914334	101.721302961369	-76.5605609342103	175.545229863955	-20.7010469122451	11.9862824193573	
2532333333.3334	-13.1882167584808	-53.7503854157769	-74.5905820026727	68.6572707123105	-74.8173184815501	-106.582755946379	-20.8097547775914	11.3086532319372	
2532666666.66673	-13.2345076560501	-54.0671641506354	-69.8956619136902	37.6989165876022	-86.9548060274192	6.5539081799	-20.930268459831	10.5075534443699	
2533000000.00006	-13.2832815347498	-54.2129674038403	-76.8277119882787	19.7076921972579	-81.3769502853046	-102.413608933554	-21.0137138261248	9.70598311283834	
2533333333.3334	-13.3280157346601	-54.2976501990024	-75.6508450883775	70.461964313716	-77.9303641234771	-69.2402999892271	-21.1405668992188	8.95587724967601	
2533666666.66673	-13.3898003862928	-54.5956535506112	-71.295560476734	3.3335923126812	-83.8667696892255	-130.812460212303	-21.2430828548736	8.09172575864233	
2534000000.00006	-13.4373748867732	-54.8806155566684	-73.3853694734141	43.3990339580126	-82.9972615038411	-159.463364666267	-21.3411521556706	7.21180796913731	
2534333333.3334	-13.5029458989937	-55.0021136856252	-70.1138988870223	-21.2407374871287	-76.7505578418716	-117.084044578674	-21.4292077271691	6.40558820678271	
2534666666.66673	-13.5465513943562	-55.2934502968088	-71.0200943161582	20.4773445675376	-76.7567080221557	-45.9991448982312	-21.5175803405965	5.46743362923395	
2535000000.00006	-13.6052715662518	-55.4670054106326	-72.2364255913945	12.6885389478572	-87.7881584448572	-35.4064131604958	-21.603277698493	4.35608209055529	
2535333333.3334	-13.6671969190461	-55.7310686715153	-70.9250603148537	-16.9496970699332	-77.2675344905952	138.397703427034	-21.654424908952	3.37562977486245	
2535666666.66673	-13.7303816949877	-55.9054442282576	-71.2319150377462	-0.8899536786447	-74.5270841253822	-176.718329903866	-21.7363684041911	2.25488531036137	
2536000000.00006	-13.785558298676	-56.0605620323557	-73.2347362495894	-30.3797665402918	-73.6208644822905	-97.4659232503158	-21.8132100230132	1.28241984303422	
2536333333.3334	-13.853472687285	-56.2384214657182	-74.5143691704164	12.6675021663126	-74.383778662843	-2.49580400882017	-21.875779027029	0.0492956837259813	
2536666666.66673	-13.9111428619501	-56.5652902454145	-73.8255027530903	-60.3790123439782	-75.3517029729249	-63.9117776535916	-21.9363543422174	-1.06848943790929	
2537000000.00007	-13.9762146529085	-56.7765572490652	-73.6271733980848	-20.30626842796	-91.0898720545557	117.848165637449	-21.9797458326693	-2.29140007706433	
2537333333.3334	-14.0547737204987	-57.0660570351598	-77.2312014374658	-78.3831287394792	-81.4912383022909	-162.689945920758	-22.0161575774726	-3.50640413782875	
2537666666.66673	-14.1249431857906	-57.277009578168	-72.6824712660159	-30.1260194223206	-87.1911176101252	-71.2646555851545	-22.0544168578362	-4.75701103799676	
2538000000.00007	-14.1866783961031	-57.3796861799181	-71.2941261984115	-65.0573522580803	-83.5120899112066	-145.502262765313	-22.076053185487	-5.89584040155582	
2538333333.3334	-14.2541888614955	-57.6183007742324	-72.6637928078369	-47.2229754095065	-77.7034053899081	-31.8088308540175	-22.1099217669969	-7.34402556983926	
2538666666.66673	-14.3249115423526	-57.916446619222	-72.8384087091958	-88.6243054060845	-77.0549662195514	113.234707623604	-22.1138281910818	-8.64526506658216	
2539000000.00007	-14.4116002223101	-58.0054925149607	-72.8862248324598	-86.3588126660792	-85.3615039356112	-141.052618727089	-22.1211982546225	-10.0539002150356	
2539333333.3334	-14.4870544207401	-58.1819702890181	-68.4486660078194	-111.61160260534	-73.9620429880619	-134.37243234268	-22.131148005956	-11.3209598970361	
2539666666.66673	-14.5788257059625	-58.4493718232924	-70.0101878329387	-88.2788436100736	-78.5976579339818	26.1130164306273	-22.1212244828017	-12.7865449660668	
2540000000.00007	-14.6488793402675	-58.7706917207462	-71.4253136140856	-66.7016285761079	-79.5580669013581	116.031082525945	-22.1069547159849	-14.1341923478619	
2540333333.3334	-14.7351009997381	-58.9692702480217	-75.3874890704983	-71.3879141076176	-88.9868079535889	107.334432491937	-22.094853712822	-15.4537359959499	
2540666666.66673	-14.8301726466823	-59.146716010092	-70.1096029603407	-127.379993926522	-78.3377574401321	45.5745329428396	-22.0706288728667	-16.8608892483737	
2541000000.00007	-14.9138818983123	-59.4535162715512	-70.9214056061846	-110.371024187537	-86.8174444187824	37.3106469817014	-22.0437874747426	-18.2178038387859	
2541333333.3334	-14.9822237713147	-59.7514627876126	-73.2283623703234	-152.42961122679	-81.9990759640714	129.795812219984	-22.0054724063297	-19.6011079584974	
2541666666.66673	-15.0637044678047	-60.0188499197388	-71.6522598960475	-103.732959823403	-86.0639582364058	-130.101326387153	-21.9466649971205	-20.932405977748	
2542000000.00007	-15.1737653489508	-60.2812209705777	-72.4498346149577	-156.61916925427	-73.8034149134933	-72.8985915906086	-21.9062518236661	-22.387176298386	
2542333333.3334	-15.25712743714	-60.7152383692458	-75.8678376226949	-141.464919396602	-77.9878910247396	-30.6357893459085	-21.856089147076	-23.5924235267736	
2542666666.66673	-15.3306957482461	-60.9422515568834	-71.792768501382	172.11345258597	-85.081120092484	-109.297109334707	-21.8057650350921	-24.8851951842518	
2543000000.00007	-15.421194231742	-61.2949906412225	-81.3027434301091	111.653750391351	-75.6164460026856	-66.1854504884043	-21.7249077871589	-26.3953720445149	
2543333333.3334	-15.5063178540447	-61.5966113221121	-77.0169546948019	146.540126500475	-76.9961541576903	45.7105854279662	-21.6575786718576	-27.595332934436	
2543666666.66674	-15.6091050096348	-61.9304817334422	-77.5846375156639	-170.746991697281	-84.8709026026587	172.786778873875	-21.5847658216162	-28.8311341887688	
2544000000.00007	-15.6964370334488	-62.2865490650056	-79.4355898422342	172.239663689291	-77.2724022508509	-74.3555040366726	-21.502161817554	-30.1779636348567	
2544333333.3334	-15.7966557211429	-62.6480804893248	-79.2448452015429	144.217974352187	-81.5992846761486	-148.169394197909	-21.4213664973974	-31.4302821915906	
2544666666.66674	-15.9076680353472	-63.016136686279	-72.4735495172783	150.059267186423	-74.355633855293	2.9266728023826	-21.318472794258	-32.6968840982343	
2545000000.00007	-16.0019574646492	-63.3205443343756	-72.9395354012411	138.427920080363	-77.4387054287173	-12.364295169729	-21.2431707319656	-33.868489829179	
2545333333.3334	-16.1090821252879	-63.7617810716513	-74.9105633379328	121.98870633106	-78.2570437360903	-7.13614444052898	-21.1545393199747	-35.1552245479105	
2545666666.66674	-16.2117640743698	-64.2185865680181	-67.5366165485468	81.3549813521648	-86.450960248847	-75.7905633568683	-21.0870245608698	-36.3233943377379	
2546000000.00007	-16.3303153507074	-64.6551699150608	-71.7688704586434	106.885313332753	-97.0275751037084	140.896812089463	-20.9977836631213	-37.5708795232581	
2546333333.3334	-16.4150920469638	-65.1561712240725	-72.1866407987441	100.352080863204	-83.9280443876242	-99.0131818882252	-20.9210406011728	-38.6869291120443	
2546666666.66674	-16.5201947131942	-65.6663610889165	-81.836681985819	85.8149079902066	-81.7970354169386	-41.6160277472666	-20.8545244129816	-39.9010252061255	
2547000000.00007	-16.6205636076231	-66.2179871551216	-79.3645290438483	161.760489540838	-77.8050604269865	-144.198192687286	-20.7895521260394	-41.0330250117787	
2547333333.3334	-16.7241158856397	-66.7140710368606	-67.2178617007448	78.2168172052382	-81.5708788551911	-15.899487318278	-20.7165462619122	-42.0988846095844	
2547666666.66674	-16.8300309870099	-67.371671990919	-75.7530098853272	70.899975545611	-75.613034273372	44.3436667749428	-20.6766986359541	-43.2608823103802	
2548000000.00007	-16.930636276979	-67.9232162291038	-70.6524072920415	27.2410550942764	-79.1197280976954	-50.8832173621948	-20.6336451367872	-44.2610274614192	
2548333333.3334	-17.0219866023228	-68.616663508811	-68.7970470134268	40.5810181407169	-78.1111706297048	-15.2605174938226	-20.6069910380796	-45.3373168967101	
2548666666.66674	-17.1215510431527	-69.2939547556466	-73.28889354813	20.0085919535978	-74.393849419015	-33.8137237853638	-20.5791014335922	-46.3573702435548	
2549000000.00007	-17.2108860900841	-69.967367045396	-70.6461906613881	30.2298330222767	-78.4425091777949	58.9223776788415	-20.5396780835755	-47.2774836852165	
2549333333.3334	-17.3032205450712	-70.7342502426118	-75.7962218734234	41.0200567032442	-81.964432005184	148.66850372641	-20.5440008997196	-48.1692382696539	
2549666666.66674	-17.39304139286	-71.5278308120794	-72.5306856065168	36.6342411790733	-76.1039929378776	-84.5780413726924	-20.5297563973888	-48.8279029408002	
2550000000.00007	-17.4796809059026	-72.3180684041756	-73.3086607622429	37.2422871821179	-75.4706582447574	-36.6618496147214	-20.5392837644012	-49.6927783566822	
2550333333.33341	-17.5682644755162	-73.1905557534075	-72.4698924516563	-2.84028448136749	-88.52248546806	-18.1757146581944	-20.5354407023528	-50.4659150747913	
2550666666.66674	-17.6651327342655	-74.0501087825654	-71.3930238690228	14.5563029920788	-80.2508538347241	-22.5952352498761	-20.572029308655	-51.1217609536376	
2551000000.00007	-17.7421313336742	-74.8441095203115	-74.1072150828727	-12.352304365454	-82.7615663103955	-51.1292446659561	-20.5878221758222	-51.7798975920792	
2551333333.33341	-17.828919782048	-75.740763319411	-73.4179341271396	-12.3284633422697	-79.2142657893443	99.4193026804663	-20.6012710744492	-52.2590439238772	
2551666666.66674	-17.9076547473304	-76.5981042487068	-80.8958186241802	136.904701418491	-77.840306083624	75.4458843371288	-20.6532190841721	-52.7080734188311	
2552000000.00007	-18.0192091901308	-77.6503332649018	-75.0866765240015	0.70810856928744	-76.9701419463879	-140.665219836207	-20.6958355394112	-53.2042697555655	
2552333333.33341	-18.0918048423775	-78.5325135461849	-74.3101763801504	-13.9507957847261	-76.3511805138122	12.342718073314	-20.7373815821446	-53.549716580382	
2552666666.66674	-18.1771732572927	-79.509090439988	-72.2336320822999	-67.780052805285	-82.4187173668665	-18.7866736593088	-20.7965765641397	-53.7604470395448	
2553000000.00007	-18.246880068858	-80.4498177524368	-81.0983721588607	-22.6131064207049	-77.5591705422793	130.06135517944	-20.8838253090091	-54.0692919370253	
2553333333.33341	-18.3180009988073	-81.4433795926863	-73.5424974467302	-52.4363754812365	-79.2619341529343	-27.7308882361526	-20.9518659824578	-54.2504584584567	
2553666666.66674	-18.3937995079402	-82.4772475421978	-75.9548547805538	-54.6093817524477	-82.9026819987699	-119.847584892853	-21.0708391563523	-54.3206301400141	
2554000000.00007	-18.4705122007447	-83.3520446091795	-71.790850644463	4.06626902394474	-75.3002912128532	-156.801805919938	-21.1748557304983	-54.2559129027017	
2554333333.33341	-18.5244853023088	-84.5815167800007	-78.2728862958944	18.1373204995183	-74.0151667445869	22.1098501989247	-21.3145308714669	-54.1123354027938	
2554666666.66674	-18.5821270499035	-85.4363216058596	-75.4904051471531	-5.09782484553583	-83.0916369505326	73.4180155995513	-21.414206042269	-54.0228746853605	
2555000000.00007	-18.6322512470266	-86.6615968152523	-77.7315500577505	-83.7037656760625	-80.0932620096847	128.610580149382	-21.5458692051726	-53.6426920942159	
2555333333.33341	-18.6833202961594	-87.7668373231103	-74.5036355857396	-95.9833805574028	-85.5558556421708	-40.0755698822866	-21.7037516074185	-53.0840116731047	
2555666666.66674	-18.7191152214834	-88.7674910636175	-81.8184449417414	-76.8580320279085	-82.8992647160008	-81.675465568427	-21.8327323469941	-52.5492431298662	
2556000000.00007	-18.7698717054175	-89.8046897975361	-79.3300668158522	-95.9729710236953	-86.2078605837766	19.5936314293736	-21.9859143416575	-51.7437938840087	
2556333333.33341	-18.806173865144	-90.7998784429225	-84.8816661399397	166.646369817442	-73.7655900120982	-51.3955200903962	-22.1402076166012	-50.726133242051	
2556666666.66674	-18.8276493778882	-91.8700772410186	-76.5868655794514	-108.536828260396	-79.0966989844195	-53.4703036405449	-22.2855773966033	-49.6658416886498	
2557000000.00007	-18.8546256872853	-93.0159958836205	-72.8596216464599	-130.038457615003	-77.0631166632704	7.68004003154332	-22.418324239655	-48.4272085805115	
2557333333.33341	-18.8703597269192	-94.0206426348052	-71.4169950656174	-118.003616319848	-79.9409468149553	-33.6237663586551	-22.5372968644089	-47.0082589678577	
2557666666.66674	-18.8751039065107	-95.0789169731597	-75.4417426505684	-114.861471283302	-77.1270857206188	120.552264045735	-22.7099247015324	-45.4137723308523	
2558000000.00008	-18.8838403083456	-96.2150541190617	-76.4982638939108	-45.9493214605635	-80.2111084145691	2.32926222020235	-22.8082807412053	-43.6226511964906	
2558333333.33341	-18.8871511956151	-97.1376169228076	-78.9098444146517	-158.986266733932	-82.488555617468	149.711955417077	-22.878005454897	-41.9482056761743	
2558666666.66674	-18.8941635419033	-98.2107192212973	-73.3538609351042	-171.236536437327	-79.4225881414983	4.31168033128582	-22.9348115479343	-39.980407279374	
2559000000.00008	-18.8870415554106	-99.2647989928375	-77.3651831144353	96.867854497548	-79.2039509348928	170.912004672898	-22.9937173690927	-37.6942240635777	
2559333333.33341	-18.8670482176077	-100.215890002399	-75.1907622997106	-171.150072815269	-88.1752303828124	111.822232877312	-23.0216740659389	-35.8359160774723	
2559666666.66674	-18.8618747809439	-101.241771135746	-71.9956402558728	-175.100052310656	-87.6952347748087	-7.73655938126951	-22.9679830935527	-33.4991718428373	
2560000000.00008	-18.84887176068	-102.147676610539	-70.0537271201217	148.340507738871	-96.2492419865187	-167.415575186235	-22.9460701089809	-31.4169412914994	
2560333333.33341	-18.8087306170551	-103.14091781567	-80.7755727039374	144.830520578102	-81.6109026083174	176.168894191495	-22.8587865238114	-29.1918280543311	
2560666666.66674	-18.7870520825083	-104.054116883898	-73.9947865992977	143.859441879916	-75.2761917917413	3.21256926919456	-22.7921786423888	-27.1007136552481	
2561000000.00008	-18.7534062111871	-104.942275002937	-76.9984065872009	158.542393819212	-79.8489407513163	-34.7883062149621	-22.6319929745116	-25.1699586309609	
2561333333.33341	-18.7158812933637	-105.816733225217	-81.8206596224167	-155.262227200272	-80.7609185636566	85.0422500792541	-22.524906503289	-23.0628235239665	
2561666666.66674	-18.6697248749388	-106.727572410849	-73.6051731203606	110.809640454573	-87.1449380150504	-5.69634787431616	-22.3699923688164	-21.3748891535038	
2562000000.00008	-18.6320192017133	-107.553286982507	-71.5502752934186	132.584247283398	-76.0284283366146	-129.133660641922	-22.2024301104276	-19.5707724400021	
2562333333.33341	-18.5719617788418	-108.441605075197	-76.223120112776	112.579364303741	-80.9867357572885	21.7318399288486	-21.9804449645172	-18.0074935783315	
2562666666.66674	-18.5194463856833	-109.270530285135	-74.2086438680758	43.8441107494326	-78.319471760032	-112.287732118565	-21.8052132660155	-16.3507626227608	
2563000000.00008	-18.4755829127554	-110.037033820479	-69.3534181028168	108.062208690054	-86.8472011669086	-80.3816710217273	-21.5858236972144	-15.1868516114976	
2563333333.33341	-18.4030332520176	-110.817238323711	-70.1644793497224	110.158102373643	-85.5474705216417	137.512385922333	-21.384190961341	-13.8203592569956	
2563666666.66674	-18.3440237109791	-111.550822375606	-75.509111127822	89.8558837793009	-72.9189440850641	40.877698204461	-21.1766743101698	-12.7932018500545	
2564000000.00008	-18.2942406524469	-112.229388053438	-70.9908070056581	89.3682833683862	-76.7947251353022	94.5995065173085	-20.97618137676	-11.6998451095367	
2564333333.33341	-18.2151987087625	-112.963645718514	-85.7266185700606	-74.4258945523476	-77.217485533847	-92.7149025200871	-20.7624962755303	-10.9107560359867	
2564666666.66675	-18.1541145665253	-113.695109662278	-72.8213005813456	67.1057482216822	-92.5817703933173	-97.919948188832	-20.5633488707798	-10.0755259476293	
2565000000.00008	-18.0957794511078	-114.315949970326	-77.8455326651215	38.3707430703938	-87.1613243404616	-57.1574953368099	-20.3677875826922	-9.4443764601703	
2565333333.33341	-18.0300399556969	-115.035101886671	-71.1895466306752	65.7868132586411	-84.6518278376978	-45.6973518500959	-20.1788584718015	-9.06224458448612	
2565666666.66675	-17.9729495968885	-115.666288880012	-74.0125070688202	72.3933257009573	-76.9743593458666	22.7555500653216	-19.9911604227086	-8.5600198304206	
2566000000.00008	-17.900234721102	-116.338033145253	-70.3068638072184	-4.11089069330004	-82.7079918791451	26.5896570302296	-19.8349131178182	-8.20972982864219	
2566333333.33341	-17.8414159118942	-116.960805235934	-80.1055374506992	-21.5973700501725	-109.332935025011	-32.8258886162133	-19.6652917894816	-7.89337613832757	
2566666666.66675	-17.7791731199257	-117.522981057758	-79.521997347455	-20.8788397906329	-78.3664800917916	38.0494900429286	-19.5200024051913	-7.67750197035337	
2567000000.00008	-17.7059336971317	-118.086424270738	-72.6160154356244	2.73009218917246	-79.4760619271848	-32.2923143014325	-19.3726813392136	-7.53621318941656	
2567333333.33341	-17.6574574011611	-118.697046095703	-70.0239650672844	-28.347733130802	-89.4921610391282	79.8869841585777	-19.2574622301508	-7.48360351193733	
2567666666.66675	-17.5829472853048	-119.177115978886	-79.0902796378706	-9.58688094472965	-82.3317071811817	44.808282961036	-19.123452896934	-7.59809084689247	
2568000000.00008	-17.5141085881523	-119.768666190574	-71.7820906145202	-59.2231856733038	-80.2009116104955	9.53512600802315	-19.0264406806918	-7.49934390346751	
2568333333.33341	-17.4413856091274	-120.276574553961	-73.7867488485168	-83.3967488741612	-75.49965994893	-1.09946923367043	-18.9349046701376	-7.62870355204382	
2568666666.66675	-17.3783312139168	-120.873259578716	-76.9686881636473	-91.4114397671826	-82.6705663651326	-69.431506272792	-18.8516920745665	-7.81270937222981	
2569000000.00008	-17.308062075537	-121.360522589986	-75.4615799779646	-97.830744716544	-91.9233007490401	-62.1194589151201	-18.7749971945666	-7.81998966258709	
2569333333.33341	-17.2477001948422	-121.81821112101	-78.4939852455523	-111.445112249264	-72.8924181201284	127.018403738874	-18.7288769552218	-7.90433179245176	
2569666666.66675	-17.1869698050556	-122.381239003703	-74.7130189513763	-163.323191738048	-76.8785070226682	172.782857330443	-18.6860669544642	-8.12289523759029	
2570000000.00008	-17.1095926842586	-122.822957780197	-71.5772391911812	-86.647142755013	-83.5508310885267	-31.0637928297269	-18.6690449076561	-8.3524831815967	
2570333333.33341	-17.0684953937205	-123.347267168527	-72.628907880935	-151.497160083402	-76.4639883770896	-162.076969669588	-18.6423710873374	-8.49494121254955	
2570666666.66675	-17.000231833188	-123.948038339971	-73.9256495307438	147.493993679062	-81.7475987410161	-16.9679320290427	-18.632992934546	-8.66015865850937	
2571000000.00008	-16.9512345859269	-124.349992028621	-72.6890558484343	-171.715360630957	-74.7620026233124	-27.8231730097254	-18.6513114067966	-8.86794940354002	
2571333333.33342	-16.9153281233491	-124.819315130848	-75.9370890125194	-166.96477855613	-79.2750716521083	148.239050296105	-18.6946287257526	-8.98522673224758	
2571666666.66675	-16.8684650839768	-125.344159431428	-70.7954365410457	130.759541953484	-79.2757827980364	145.888113645617	-18.7336307286321	-9.24049321715133	
2572000000.00008	-16.816704949428	-125.831446218982	-72.6158357893499	161.448304383749	-74.6631300807721	88.1486228169015	-18.7955916186322	-9.26223656330687	
2572333333.33342	-16.7796071776033	-126.503050446528	-71.6865649960198	121.203138467118	-79.7886832610175	-173.740104632756	-18.8514906976917	-9.44526092550915	
2572666666.66675	-16.7486883492803	-126.788703633191	-72.6583689229508	127.025298297689	-73.6800977904547	86.1858236056377	-18.9521387622991	-9.47084787656074	
2573000000.00008	-16.7063760673411	-127.330941093869	-76.7120286413929	107.265426396664	-78.0985134126073	91.6792876338971	-19.0509477904977	-9.52605328769717	
2573333333.33342	-16.6754776581101	-127.951377884295	-80.376530221305	142.894875856145	-79.8026269514259	151.81120960936	-19.1567611998048	-9.575851308806	
2573666666.66675	-16.642836819873	-128.442143696323	-77.6288206544208	17.1403469636338	-77.7032426980747	148.598612594724	-19.294258262823	-9.43966373034723	
2574000000.00008	-16.6088223745604	-128.941071642502	-76.9946932994427	140.092119217791	-75.0835362095639	99.4458292805862	-19.4092810169058	-9.25665062844225	
2574333333.33342	-16.5797433866364	-129.493830041246	-80.2595840008186	21.3077754017724	-76.9372169564018	130.525381001737	-19.5381139697703	-9.03448490798162	
2574666666.66675	-16.5521316953587	-130.022768123295	-88.3414930508675	-51.197419502165	-82.2203408837299	170.682846946397	-19.7183818315885	-8.55234705605682	
2575000000.00008	-16.5219736592001	-130.462795006735	-79.6628335648994	-39.5275114548887	-82.3399462134175	-173.165908596342	-19.8620328226148	-8.07913270539356	
2575333333.33342	-16.5159743547206	-131.015835773238	-82.0250791961538	-72.7908452355588	-81.9184390633917	83.6479589704854	-20.0298125146404	-7.71980256121511	
2575666666.66675	-16.4921741489852	-131.614134565808	-78.0661779574446	-140.372712763841	-79.6269332956553	30.4298039149071	-20.2028043868776	-6.87662997389771	
2576000000.00008	-16.4901551092962	-132.085674907273	-87.495223496099	19.9075366600793	-78.4644092093879	-93.1415233998452	-20.39102004576	-6.36901823573495	
2576333333.33342	-16.4716479715118	-132.732721731374	-75.1287407932581	-104.574879711489	-82.8475853440101	-25.9850864934648	-20.5427952064941	-5.29814453453515	
2576666666.66675	-16.4734354231309	-133.364243816672	-83.8550790620475	17.0476089278061	-75.8717077619549	-166.196821106011	-20.7292950172052	-4.39798184054551	
2577000000.00008	-16.4932303803499	-133.90549342885	-82.6366245537993	63.2749924844552	-82.9372312213217	86.8293885990333	-20.9151810605508	-3.48034701049928	
2577333333.33342	-16.5037077405573	-134.526470933678	-77.6574092026025	-145.18340763335	-76.263614208087	2.95843738936346	-21.071998731591	-1.98703299659321	
2577666666.66675	-16.5088584891859	-135.155570608852	-77.2287581694907	166.769049484198	-77.5336115914553	92.2457389552182	-21.2447832773488	-0.763070939730883	
2578000000.00008	-16.5471535946036	-135.780048029992	-73.530204213282	-147.205292111103	-89.1473893863504	-152.382370219669	-21.4037771345496	0.554610432738822	
2578333333.33342	-16.5555361892008	-136.421874339702	-82.497501887008	156.69097927108	-74.6422648719226	17.7403000246537	-21.5414009064306	2.04712076388915	
2578666666.66675	-16.5814564314392	-137.105880750639	-82.0527958632729	-90.3083785357043	-72.4526971685558	36.9721009688365	-21.6669887379095	3.68488351606065	
2579000000.00009	-16.6115314136709	-137.77256722669	-75.0861057173509	-177.371515280303	-80.447583102597	-114.440902105372	-21.7913037008963	5.49118379114562	
2579333333.33342	-16.658908552363	-138.407345384525	-73.040922614333	109.546962747947	-70.8650300126895	44.4846010738505	-21.8612114309117	7.35381065702141	
2579666666.66675	-16.6980940548063	-139.134282605443	-81.0698784001475	-146.521561300736	-79.5750271999395	117.971473578188	-21.9279232030127	9.20268865247241	
2580000000.00009	-16.7316447001053	-139.815267430017	-74.968021186796	-150.616819690458	-75.9535066188724	-172.509893468776	-21.9694618066746	10.9984588443277	
2580333333.33342	-16.798703258991	-140.581229634084	-75.7424060212603	131.697897643171	-83.4705797300125	62.738685349	-22.0000139942839	12.8060358867221	
2580666666.66675	-16.8722976888647	-141.272794691544	-85.2422407380425	-10.3061216531979	-81.8223431862741	-152.792206065684	-21.9925581748992	14.4439990490794	
2581000000.00009	-16.9148819263312	-142.046974965881	-76.3649705785848	165.197193678288	-82.1035489218573	127.074922323327	-21.9831798623823	16.4524216611441	
2581333333.33342	-16.9771231773479	-142.902006748973	-86.3814172767889	-105.868817811836	-79.3181791453335	105.30480315605	-21.9348466603041	17.9637460444786	
2581666666.66675	-17.0296761658044	-143.537384751829	-73.597973607164	170.967379079967	-75.2791374266645	60.371873402502	-21.8562553377268	19.4971500258113	
2582000000.00009	-17.0983356257321	-144.451745219128	-91.5795803329711	-176.254795617229	-82.0004012017534	92.016481760466	-21.8108122665809	21.0522714584782	
2582333333.33342	-17.2037531510907	-145.175768040069	-73.6005622360198	121.671667302636	-82.380557599652	79.2543431795137	-21.7317565048244	22.6307586844372	
2582666666.66675	-17.2666678356322	-145.955397556257	-76.6871472475915	118.110347761043	-83.0875812076331	-78.8834274307254	-21.6342099928135	23.6429082948541	
2583000000.00009	-17.3503509455833	-146.73686869814	-85.0271406221898	-140.132539594897	-86.2098084579453	125.077514502375	-21.5176109529615	24.8045198928017	
2583333333.33342	-17.4283982520357	-147.503013580148	-73.9424909416902	147.351629776553	-76.8536605583752	170.441986216371	-21.4081777150355	25.6070288146027	
2583666666.66675	-17.5443769353463	-148.336971535292	-78.9939128388008	81.8020346357216	-76.4488148654032	-100.969059401859	-21.2932031991107	26.6130915511694	
2584000000.00009	-17.610003178367	-149.205760976087	-77.31487620086	79.883601472908	-79.9281631568374	-28.6456139327274	-21.1790363864904	27.1488043202355	
2584333333.33342	-17.7163198194019	-150.042498565001	-74.2830596709943	83.1635384272983	-74.6013180435079	124.036783373958	-21.0523047006495	27.7940619112111	
2584666666.66675	-17.8107757267923	-150.963989703687	-73.4068471963665	45.3577453097177	-76.9359353021295	-72.4046836024138	-20.9366980976719	28.0426514060808	
2585000000.00009	-17.8999898092374	-151.796419382779	-85.4126095473559	98.6243327300989	-84.026884762468	-31.3187960996847	-20.8128864414182	28.3721559213439	
2585333333.33342	-18.0454339565416	-152.627410467444	-86.2080868613186	4.44592839974133	-83.467574847475	-155.029722976362	-20.7212897699728	28.431043971702	
2585666666.66676	-18.1676201267636	-153.599372146194	-78.6580001984837	-62.2152524544281	-79.0360759129712	-171.659593786124	-20.63586103096	28.6239447912971	
2586000000.00009	-18.2679157185149	-154.594871669867	-72.8759312663394	-10.2798981005032	-78.6882980381018	-122.128270090835	-20.5326464621468	28.3076189685377	
2586333333.33342	-18.3887530585146	-155.545105575117	-69.0713959558907	25.2924039856442	-82.7676583589873	-176.769632825209	-20.4377398453237	28.1939471330835	
2586666666.66676	-18.4990023271252	-156.462365592827	-71.0445642112367	4.76021022045569	-82.0766251033682	-17.4714293129659	-20.3496325037286	27.9126565281426	
2587000000.00009	-18.6196353266225	-157.328446867814	-73.6666416896194	-10.7436147194417	-86.8171987171758	-107.304495303147	-20.3113219182322	27.5017781610516	
2587333333.33342	-18.7452556124734	-158.387940284069	-73.8925702480876	-15.2559772036213	-82.6891350066071	-156.114427272398	-20.2840821957221	26.8696780775508	
2587666666.66676	-18.874614581587	-159.486031597879	-72.536739960682	-32.3502030453335	-83.5678429857145	-113.303301644078	-20.2289118897292	26.390605052696	
2588000000.00009	-19.0029445419806	-160.468180324506	-73.8889283115791	-41.413209994999	-79.4942655582813	-141.807546533701	-20.2075817392969	25.6288309050128	
2588333333.33342	-19.1474755386587	-161.425234489278	-70.8790436840916	-56.7006219151565	-81.1475013154186	-163.520577367981	-20.1913224069669	24.8044071119819	
2588666666.66676	-19.2718122994272	-162.505475863757	-69.5576050385815	-82.9007520747129	-74.7999654394453	-94.9120347117767	-20.1909812724054	24.0623571258717	
2589000000.00009	-19.3979830846209	-163.546971311604	-68.3607115513838	-76.6035821588021	-76.1900203234406	-71.6138080571659	-20.2112111959326	23.1025332942561	
2589333333.33342	-19.5345664797026	-164.664357946424	-73.3369554357589	-100.3392399831	-75.2368850370743	-125.106127242858	-20.2619744589845	22.25607100827	
2589666666.66676	-19.6626113651967	-165.768709994449	-72.6360595812071	-66.309091463715	-76.5535428363905	-86.5813646348955	-20.2554465336586	21.2121478725246	
2590000000.00009	-19.7926786695135	-166.929038442656	-82.1055133116086	-165.473081393863	-74.6325810103946	69.388848099587	-20.3138060748368	20.1783755713306	
2590333333.33342	-19.9205585942024	-168.25939845687	-86.1478328190986	4.96786739439715	-73.2124697520931	159.525537302575	-20.383511922478	19.1731465049431	
2590666666.66676	-20.0459813312563	-169.427864660578	-85.1405983730559	163.905850274801	-83.5528178184606	-19.8244176746924	-20.4552210166423	17.9080842250096	
2591000000.00009	-20.1942304776269	-170.683621197598	-74.9491068605985	-132.467078249326	-81.5602108734198	-57.4173830139074	-20.5487652375754	16.7637429588818	
2591333333.33342	-20.2985306547563	-171.970565443993	-78.9165770553419	-92.7156763580742	-78.091989550354	176.233212677959	-20.6465413605803	15.5749287908019	
2591666666.66676	-20.4395167425129	-173.365891468207	-86.7186306896879	-128.079799989576	-84.7739385152343	44.997574277671	-20.7620944456611	14.2054680667449	
2592000000.00009	-20.5423178933191	-174.702453479807	-73.0904152729121	-104.41192144558	-80.859160154909	99.5876975065113	-20.9151898598434	12.8602114550617	
2592333333.33343	-20.6675968599654	-176.097727469344	-75.8590587704159	-99.5876475423506	-79.0174568730453	8.50996786596725	-21.0473294598815	11.483264224473	
2592666666.66676	-20.7720891559925	-177.540826617289	-86.3232609591545	-43.3518738531651	-86.966700938162	-163.101095850479	-21.2263545635396	10.1457211264836	
2593000000.00009	-20.8904139264266	-179.030433636132	-74.2623211908081	-163.508261711875	-80.2134165819022	-38.4400670514551	-21.3769836886757	8.83750348599991	
2593333333.33343	-21.0001718815838	179.312624214134	-75.4572412317428	-146.860726602925	-75.8837611345206	-175.505366926676	-21.5809651781676	7.1945416136753	
2593666666.66676	-21.0770610960546	177.941020123775	-74.4266225158107	-161.156269928561	-77.6075631280146	-138.958573294456	-21.7654744099461	5.84441190790156	
2594000000.00009	-21.1684533881976	176.378821383128	-83.2555411123566	71.8929330294575	-97.9598461631536	11.3695076715683	-21.9825440856349	4.35612114071046	
2594333333.33343	-21.2477655294676	174.735745444795	-81.2242555359495	-18.3077334458238	-80.4060634386834	-49.6275629782315	-22.2095052533373	2.87942491212718	
2594666666.66676	-21.3151733137574	172.973111803713	-81.151829573873	10.9773362536383	-75.2443228096829	-81.359599467557	-22.4201061691681	1.23596236808982	
2595000000.00009	-21.3660382215186	171.433177331404	-74.2984330975976	111.83095315158	-89.0963244223555	126.478562885614	-22.6809095787142	-0.265580630138574	
2595333333.33343	-21.4196982179924	169.673386365596	-81.4124944285862	-63.4258431291062	-90.6328948650405	-139.690061388448	-22.9346304528108	-1.70847037661741	
2595666666.66676	-21.4667750949072	167.943800634917	-81.8070101382212	-87.5271676766609	-81.0559911970093	-162.021882062894	-23.195243466385	-3.1742630291666	
2596000000.00009	-21.4838807271425	166.326761846495	-88.8238838325416	-19.5112182426067	-79.3892987388531	-59.5931701580048	-23.477776693303	-4.88631445254245	
2596333333.33343	-21.4865384340718	164.545839178371	-77.5403589957912	-5.27331977470706	-85.9717490510302	-152.480451575899	-23.7607351318618	-6.32204462590176	
2596666666.66676	-21.4960697922767	162.745919963904	-83.9722914470924	-72.492318853858	-84.5235890420703	-145.746537838744	-24.0615341107798	-8.02557660017665	
2597000000.00009	-21.5165493534573	160.976276254867	-76.1517821193194	-101.381868488417	-82.6624809960136	-101.569986672974	-24.4017111275665	-9.31705876647803	
2597333333.33343	-21.4720395931171	159.157408369578	-77.0955182443298	-136.464464291662	-86.9660756973415	-23.806462122368	-24.7387421741309	-10.9003366580623	
2597666666.66676	-21.4529392988431	157.357256092644	-85.1336758335286	-21.6794667470913	-75.6027613174644	-101.612541651832	-25.1075379795272	-12.2564447382021	
2598000000.00009	-21.399958573113	155.569720852639	-95.3103441340317	73.7154567044194	-78.2794200211177	-168.04890227789	-25.4771390152809	-13.4839998643852	
2598333333.33343	-21.366057497371	153.857493488194	-75.9038595741499	-127.36146681313	-78.0431365434019	-119.594813967092	-25.8389985652101	-14.7892077105179	
2598666666.66676	-21.2850438487923	152.071154975359	-71.3353107380852	160.286728637536	-78.7296467258659	-123.588301859783	-26.2567379285143	-15.9593199221385	
2599000000.00009	-21.227059835005	150.335374016227	-79.5437798960201	122.78889981555	-76.2435378516174	-164.399094765632	-26.6652582124322	-16.9905957162815	
2599333333.33343	-21.1301352525868	148.576978480744	-82.0601014540977	129.30128499058	-85.3367728718823	-67.450905636893	-27.0897423336934	-17.6492944259585	
2599666666.66676	-21.0361955598489	147.004863387146	-72.0984830689493	175.16259788983	-81.1288499438342	98.1719695592194	-27.5325662631414	-18.1880457676055	
2600000000.0001	-20.9326550430631	145.15533103965	-72.2179838480832	99.3077717848962	-80.2618589278241	85.4893024980428	-27.9469510337016	-18.6564471010428	
