!Agilent N9923A: A.05.34
!Date: Friday, 25 March 2016 21:50:47
!Model: N9923A
!Serial: MY51491690
!GPS Latitude: 
!GPS Longitude: 
!GPS TimeStamp: 0001-01-01 00:00:00Z
!GPS Seconds Since Last Read: 0
!CHECKSUM:1667681529
!Correction: S11(ON U*)S21(ON U*)S12(ON U*)S22(ON U*)
!S2P File: Measurements:S11,S21,S12,S22:
# Hz S DB R 50
2400000000	-16.6521073863777	174.27871827372	-60.7882954147504	135.54443650689	-81.9761895251084	52.9038375039286	-18.9084578934031	2.83875447288068	
2400333333.33333	-16.6743371949808	173.244012514765	-62.296864652327	128.12414533125	-92.8656909554447	-28.128020654526	-19.1427898135402	1.7620682366544	
2400666666.66667	-16.7149622339913	172.140815777093	-61.6080627512832	116.4099486764	-83.7902323713518	-35.1262667959117	-19.3726688660437	0.615917482804615	
2401000000	-16.7442538690438	171.039762450848	-64.6227455005831	109.045971792754	-76.5646611639668	128.61002221812	-19.6514794839498	-0.536133105921409	
2401333333.33333	-16.7998477852028	169.772496893557	-62.5114644060496	87.1267130622761	-77.5625634378282	-15.8386463015674	-19.9309830851053	-1.68659843764389	
2401666666.66667	-16.8600749457183	168.636409070482	-62.3065150951314	87.4113226095023	-78.4709414003785	95.8317139034512	-20.238683428173	-2.78427135233813	
2402000000	-16.9013852289201	167.525116837412	-63.0104700975074	68.2147911522792	-84.0492916796958	161.335544793765	-20.5746493389025	-3.91001523028601	
2402333333.33333	-16.9743931845917	166.316121539384	-63.3250590726512	47.4704747033279	-77.7167252358716	138.133783535683	-20.9166247945207	-4.93116870902201	
2402666666.66667	-17.022175933764	164.998334714787	-62.2809331504875	46.838241630583	-90.1394998965723	-26.1516404430511	-21.3063655267308	-6.05606449390506	
2403000000	-17.0741829311418	163.936952933598	-62.295292032804	33.4688381352127	-83.1287506225365	43.5584485132608	-21.7252032574704	-6.94933928184135	
2403333333.33333	-17.1107598975472	162.559490119391	-62.7437707512807	13.3829000924253	-79.4553596949309	-103.176087930312	-22.1627028556881	-8.05715336228883	
2403666666.66667	-17.1415462145935	161.271907831827	-64.3263084891735	25.7801446504851	-94.2125592008804	122.329951655847	-22.6016024900143	-8.98850497925479	
2404000000	-17.2045671118695	160.138260580305	-65.2313770263978	4.58503834098551	-73.3007467627628	26.5810383449066	-23.0884378412901	-10.1004140966428	
2404333333.33334	-17.233398543419	158.863854884343	-65.6346960102545	15.0802812783551	-77.9179969283704	3.17937185696247	-23.6088176483221	-10.739443785553	
2404666666.66667	-17.2980534662027	157.642942796159	-66.6101360128117	-20.6333774890112	-79.0842106426531	-157.49669546871	-24.1450025590988	-11.6384659154468	
2405000000	-17.3315209217552	156.355996940176	-64.3279787894925	-12.1620548761097	-76.7864281860722	-135.117623203579	-24.7286372297279	-12.1652124994614	
2405333333.33334	-17.3698082491755	155.042089048368	-64.0829522341259	-19.0806942850898	-86.7767180284659	-49.8402789003334	-25.3446685481694	-12.8889807317739	
2405666666.66667	-17.39633157376	153.918460975066	-63.3715923006189	-36.6746731934304	-78.3667305052523	131.278579667669	-26.061747098786	-13.6855404266324	
2406000000	-17.4426472866186	152.575909840302	-63.389121683964	-50.3402782907782	-97.4018889374681	30.9176694332131	-26.7566283076342	-13.7528336337039	
2406333333.33334	-17.4752953443022	151.210812178077	-66.0004689222229	-65.9260877225233	-80.0531242771582	32.9853412471148	-27.5538670705537	-13.7126016469321	
2406666666.66667	-17.4959493219815	149.84912798751	-64.8061768360608	-84.5051520530921	-75.2398274020313	9.30932183799346	-28.4191570351617	-13.67751904081	
2407000000	-17.5147849437027	148.578530184327	-66.5600330516729	-60.6302814002407	-74.5926877110126	7.24915798770312	-29.3132832966047	-12.8922040601785	
2407333333.33334	-17.534854460974	147.490431200129	-67.6767470972671	-86.5727870470078	-82.9264122502161	-112.009457276196	-30.3241080972818	-11.5391120140446	
2407666666.66667	-17.5472381274947	146.117254141474	-64.9759327840326	-72.9479148021096	-79.6890449661207	-49.5289889828639	-31.3996052398159	-9.77076862645981	
2408000000	-17.545971759874	144.858183097014	-67.0881536066833	-83.8386363828895	-75.4888847501245	-112.087934127552	-32.572450141533	-6.70892302095418	
2408333333.33334	-17.5458851227211	143.574892992036	-63.7520909917577	-87.4497588320963	-101.618459678795	-95.3039490011412	-33.8008776855896	-2.5476616448309	
2408666666.66667	-17.5516947842958	142.321274311608	-65.0770447598502	-100.270777348783	-74.2777982438727	-118.316822129986	-35.0421146332682	3.69751674839308	
2409000000	-17.5441139482969	141.075915795126	-66.0446227413212	-125.270525025686	-82.247665969715	-172.212586703328	-36.1746101285768	12.1272338443137	
2409333333.33334	-17.5401607270217	139.920158463918	-65.6241091797534	-115.518191350356	-72.0680874728612	-133.568961281681	-37.0311575396434	22.4734288947031	
2409666666.66667	-17.5351216813151	138.606596248785	-66.8411546760929	-136.186761699519	-81.0447674879824	-44.9992026240451	-37.4097044353411	34.8588135791468	
2410000000	-17.5046477253444	137.397801046661	-65.5020071611493	-121.211130677898	-84.7579811876389	-47.5550773523303	-37.3375736759786	46.845209477266	
2410333333.33334	-17.5045125597074	136.324256538556	-63.2608660341972	-133.747886351647	-86.281806911	-57.1780410324217	-36.9056656170944	57.2870010286927	
2410666666.66667	-17.4615542888152	135.067196082461	-65.406895775089	-148.016861997655	-78.5355756867317	-68.5524681854263	-35.9439419355254	65.1593943657375	
2411000000.00001	-17.4273678834904	133.939410470399	-62.9859081874515	-145.915929195462	-79.2927286792055	144.824106048418	-35.1626219718024	71.3237610349281	
2411333333.33334	-17.3933393118951	132.718507209754	-64.5303339281459	-162.582294181875	-87.8011413090249	-128.377447345565	-34.2301345780658	75.635637824759	
2411666666.66667	-17.3399995483904	131.555862278228	-65.2882092946569	-174.184437785431	-88.5999051362698	104.89376672742	-33.379141407665	78.1954296213517	
2412000000.00001	-17.312842910037	130.444429741659	-65.5098106396754	166.101318235922	-85.5907509668658	-135.879366975532	-32.6570646831109	79.8009029751493	
2412333333.33334	-17.2485114650587	129.179487891456	-66.5640135735979	166.765677098624	-81.4593728848045	152.511680681478	-31.9669638600263	81.2727263291606	
2412666666.66667	-17.1947281830219	128.10275735984	-65.5920547166188	147.703847794031	-89.0892178389533	176.946990957378	-31.352626691499	81.3647908328232	
2413000000.00001	-17.1142423117982	126.924783382989	-64.199491744738	150.069755438057	-80.2432252414157	7.61752825356814	-30.7754593989024	81.5732410524271	
2413333333.33334	-17.0486267739161	125.741058192129	-63.9171682922894	135.181444625639	-82.8599249335679	128.5926363338	-30.2930495724409	81.2339863433535	
2413666666.66667	-16.9744747302327	124.670823434025	-63.5866127510488	134.97447938816	-84.3029215381242	-147.062355879072	-29.8706726694271	80.5330757497523	
2414000000.00001	-16.8792539437063	123.541737940623	-65.6325610772651	121.728811208205	-85.6330196453281	56.6644975069243	-29.4150347352328	79.3715549205678	
2414333333.33334	-16.8047978444335	122.48836526897	-63.6461102387514	107.103097929014	-87.5391009267566	115.999102667219	-29.0239585909712	77.9752772797707	
2414666666.66667	-16.722966147067	121.533972854736	-63.6706516953103	103.800371880326	-95.7699813661027	-128.359234149157	-28.7478732546078	76.8846188750372	
2415000000.00001	-16.6247670666075	120.489127186288	-62.4746144949701	80.4886473201516	-77.2924538475639	-134.421054961895	-28.4412885053858	74.9311235327938	
2415333333.33334	-16.5444449311249	119.420079087451	-64.8007220238832	57.7259139655837	-77.8109991412205	-42.1665130834431	-28.1377755642535	73.5648863024408	
2415666666.66667	-16.4508195139947	118.457234315517	-63.8510649314267	45.3523253425776	-78.4555481057473	67.5881816218218	-27.9319779639665	71.7312808341397	
2416000000.00001	-16.3537464565052	117.517967795685	-63.8787400155825	50.4130006792039	-81.6694074063423	128.928912643469	-27.6922909753686	69.5992239845176	
2416333333.33334	-16.2471459272061	116.650362663097	-63.7868650968954	44.1415938668997	-79.8632810743692	-103.414412946291	-27.4823274650859	67.5888024207161	
2416666666.66667	-16.1585818790787	115.673637427762	-64.3668596769768	24.1471446818209	-77.213668284777	30.7940503753082	-27.2670359449925	65.4706323528216	
2417000000.00001	-16.0478868033092	114.7689362427	-62.6578101074706	7.65566344047062	-79.1761858708013	-47.2194190409359	-27.1169503521217	63.4939238005106	
2417333333.33334	-15.9480153954262	113.914526077825	-63.6058570826209	4.8811225773399	-78.2310088892467	37.4583145242823	-26.959794355619	61.0413012828583	
2417666666.66668	-15.8487052533863	113.096347349489	-61.5203385875989	0.529774806770617	-86.7860209167218	137.947873294258	-26.7926399200619	58.6026533272368	
2418000000.00001	-15.7589694765489	112.271984444329	-62.6811130518518	-19.8695567494704	-83.8955955174646	166.671465312346	-26.638696974006	56.1007100139641	
2418333333.33334	-15.6417373078957	111.470392744007	-64.8142311025416	-25.7379630457847	-74.9481281805767	-80.9354499566165	-26.5222165881583	53.8822818767899	
2418666666.66668	-15.53512346517	110.562417688924	-63.7450072002024	-39.7076575147131	-101.693564304007	-156.821754991743	-26.3904568199123	51.2968792312978	
2419000000.00001	-15.4287164324446	109.775136172448	-65.8213229782826	-75.6384656432636	-82.8744933644597	-111.54761001937	-26.2341565365931	48.6569725936987	
2419333333.33334	-15.3302822689516	108.970857696881	-64.6761368873715	-47.8616640080632	-87.1590281899472	-145.30306422109	-26.1454349447937	46.2121390098396	
2419666666.66668	-15.2273164319759	108.269810509789	-64.3285257098737	-86.6943259226587	-81.1786775182329	60.491451387864	-26.0044506727171	43.8396249738997	
2420000000.00001	-15.1241652071199	107.427769301768	-65.3275556310652	-92.0524598241275	-77.9259653942607	19.7036804140399	-25.9382865225311	41.2951469899229	
2420333333.33334	-15.0146770947928	106.687310341308	-64.805374056602	-97.3916972094087	-85.9661555318451	-107.935901891675	-25.8218768929178	38.6204116906456	
2420666666.66668	-14.9278545959563	105.980764910355	-66.7540713459132	-115.381562436485	-85.4519366405477	156.939143861535	-25.68844306694	36.1598904782513	
2421000000.00001	-14.8263870208786	105.260692666101	-66.9392547900991	-118.743483861331	-92.4825785393417	-69.5204524537761	-25.5519426311874	33.8981737894484	
2421333333.33334	-14.7232096358774	104.607808383062	-66.5689132146304	-128.859376102004	-82.6751500138618	-97.4828988126273	-25.4357003921425	31.4091171966793	
2421666666.66668	-14.6433329739324	103.91019993562	-68.9045459531137	-118.293061036744	-83.2159319286386	-69.7977124081353	-25.3077384995627	28.9781360715899	
2422000000.00001	-14.5481934103668	103.232725600915	-70.909785996077	-136.430062198048	-78.1257982172323	-145.407933244319	-25.2118048521915	26.7836921689795	
2422333333.33334	-14.4510107566859	102.607191841281	-68.2004524090062	-166.174504469834	-75.9549417596839	-15.5128672727654	-25.0580954195717	24.2872563995387	
2422666666.66668	-14.3667240991032	101.97565422464	-67.4346344333842	-166.981190154921	-79.7340395477064	-133.942357874532	-24.9219901705799	21.9875396222335	
2423000000.00001	-14.2877951202365	101.332895148094	-70.291503391644	175.066560908313	-75.1576511219619	-78.4673412351585	-24.8271992338512	19.8406968946669	
2423333333.33334	-14.2121622695078	100.705611530928	-71.5842820926202	-143.091765335171	-72.7452515805341	-102.0595021442	-24.6852418134127	17.6804614219302	
2423666666.66668	-14.1250813685928	100.110593639521	-68.3595744473193	143.039992650059	-81.2308036309629	122.424610827784	-24.555214822504	15.6618083988109	
2424000000.00001	-14.0495039445585	99.5793479530183	-72.7339454599961	131.727999827671	-87.8291185415611	-76.2045619534247	-24.4250426551991	13.5593789609084	
2424333333.33334	-13.9774733131584	98.9984557447246	-70.9352963146881	142.335210228337	-79.2598330192058	162.143346223268	-24.2709719975613	11.7361985846338	
2424666666.66668	-13.9093394126381	98.4833444273343	-76.4013079726748	118.903463387287	-87.0461650446029	107.486434560906	-24.1565973003834	10.000732125479	
2425000000.00001	-13.8275138075432	97.9441746859163	-72.2018442611501	121.968190994304	-74.2706716229969	16.110651347207	-24.0328376548103	8.22237220350952	
2425333333.33335	-13.7624173287782	97.4271584800631	-71.0570932203309	60.091645837296	-87.3436587057966	74.8136243488433	-23.8830618877059	6.64565130957755	
2425666666.66668	-13.7063764739187	96.8837752439473	-72.2652779051722	53.5703474715132	-78.3144124566139	-38.9820637601168	-23.7708214317622	5.12142034828468	
2426000000.00001	-13.6465143886167	96.3393696507705	-71.2940732514941	27.7299882744761	-79.6460059853143	-73.9080355144859	-23.6379206727462	3.57677814560829	
2426333333.33335	-13.5887685866195	95.8934116578798	-67.9939236996656	8.76870600809668	-77.7528256106001	-28.43140332683	-23.511083400752	2.37077806505236	
2426666666.66668	-13.531221311412	95.4140742251031	-67.7921703206889	-6.1483603030977	-76.5156223101456	69.5229705822306	-23.3912170752825	0.888229452323075	
2427000000.00001	-13.4814699499624	94.868784463618	-68.4907097801296	-23.3008825943842	-82.8274769924655	-178.823600605501	-23.2681459525892	-0.130401525262187	
2427333333.33335	-13.428416827049	94.4639021772524	-75.695038309969	-27.7841782838518	-79.4162604328415	3.15506603476023	-23.1535289226397	-1.12358406231292	
2427666666.66668	-13.3851963869262	93.9701095271811	-73.7951391912799	-77.4091983768895	-76.4608082692924	-108.022594764237	-23.0480550268139	-2.15623960715178	
2428000000.00001	-13.337064926438	93.518081418791	-75.278127269964	-69.9596717595066	-78.0871442785243	148.846469944537	-22.9326006085681	-2.67064128924644	
2428333333.33335	-13.2962332925462	93.1022805102111	-68.0224831943299	-82.5696323024852	-79.0538443385773	-142.67199447617	-22.8380626935664	-3.60413950659149	
2428666666.66668	-13.261927371406	92.6972276280671	-74.7875319920413	-177.74762983451	-82.6271967940685	-171.217412500574	-22.7028223827014	-4.20633157406015	
2429000000.00001	-13.2304643133459	92.2924317505028	-69.746617952008	-141.225557516002	-84.5327099367083	168.234877408556	-22.5911303729723	-4.834078165872	
2429333333.33335	-13.1905858169414	91.9112202837386	-73.9499571185417	-175.746899247767	-78.3134177696425	-21.3976058904683	-22.4903858990729	-5.22124081957267	
2429666666.66668	-13.1604944726269	91.5667559659002	-72.1380409066318	161.183414938716	-83.3179033516866	113.683401802866	-22.3682744120936	-5.74515112040074	
2430000000.00001	-13.1322626723553	91.165564649423	-70.4693498181622	138.200061334362	-80.5145867933739	-32.7615454471573	-22.2094931346159	-6.009081973772	
2430333333.33335	-13.1129946927663	90.7839562628158	-69.2532638422633	157.809469445216	-81.8734876444051	-93.7210697764085	-22.0984983121545	-6.3391715765393	
2430666666.66668	-13.086337547651	90.4093865481036	-69.2010814999315	153.875522952004	-75.9091711383884	-171.304659526407	-21.9758449094018	-6.61975456126685	
2431000000.00001	-13.0542312850675	90.06718943659	-72.7216008018523	122.597810773246	-76.9602590177976	-159.210974031783	-21.8255554925227	-6.8063697510086	
2431333333.33335	-13.0308755078254	89.7506267463574	-75.1286784616157	112.982573302726	-72.9058218474109	44.6765766291802	-21.6923380039991	-7.03807240133997	
2431666666.66668	-13.0144441066379	89.5069800380607	-67.1914911283785	103.176777438517	-80.2086732954673	-11.8699262334208	-21.5460705345568	-7.08187307304939	
2432000000.00002	-13.0012346576193	89.230606421406	-69.23738222361	87.2102829223167	-76.7509852499445	-61.9775248217386	-21.3914831859718	-7.27490668534308	
2432333333.33335	-12.9878840663125	88.992380048791	-67.0797496090776	86.7147445011551	-84.3465231030274	-149.74384680177	-21.2293587952608	-7.41375009220503	
2432666666.66668	-12.9798192953948	88.7459959306176	-74.3740451465576	72.2656374940405	-90.2711739388307	137.448631619658	-21.0753777260202	-7.29594162429164	
2433000000.00002	-12.9737064522146	88.4972218921601	-68.7351743845271	53.9706232449735	-74.4986835820841	12.6411044868519	-20.9353304513214	-7.33619972615771	
2433333333.33335	-12.9720662994082	88.1848343778989	-66.8080064509749	71.9973402843894	-87.4759042163124	-162.409017362714	-20.7927873264581	-7.46265010401122	
2433666666.66668	-12.9559537812009	87.9851793572231	-73.2800133949044	58.6615828871715	-85.9703984943309	-164.696486415247	-20.6297745406819	-7.35077902935171	
2434000000.00002	-12.9571787928078	87.7387446111914	-68.6581860208342	43.8945325992158	-79.2864991606029	-176.156251322154	-20.4708319934803	-7.38262226328341	
2434333333.33335	-12.9511451250554	87.4764209435805	-71.2573441559314	11.9586699256658	-78.1174214664707	152.949709192511	-20.3152170640001	-7.46061974249892	
2434666666.66668	-12.9427491971209	87.2369043438133	-70.9948192793719	8.00493273649281	-83.6741584708062	-165.079313311774	-20.1586555785761	-7.51982326150357	
2435000000.00002	-12.9564075144942	86.926941046607	-72.5975105988084	32.5155553925399	-84.6143655845711	-22.8098434554281	-20.0102933576709	-7.62143901081533	
2435333333.33335	-12.9486060915521	86.7149073845396	-71.83249088747	5.26003750296878	-74.3615269448764	-86.7157099341866	-19.8676680483878	-7.71808886965032	
2435666666.66668	-12.9479340273455	86.4772233714545	-73.8921787887816	5.19113924492178	-85.3794911417381	93.2502923389239	-19.7228172542906	-7.73833204671438	
2436000000.00002	-12.9496857815227	86.2380983014463	-71.7361595839875	7.29122355658079	-79.0040494614446	155.495370710119	-19.5708639983057	-7.80984867354452	
2436333333.33335	-12.9522085586435	85.9758276715636	-73.5724849513272	-14.8124969785576	-85.1998908412074	166.956272708177	-19.4289461209703	-7.97417609875336	
2436666666.66668	-12.9600609658308	85.6592007009902	-74.0964351783671	-14.8887976236066	-79.6459554616128	5.74899671345632	-19.3120434071434	-8.22931243580015	
2437000000.00002	-12.9664213528586	85.3595025122654	-71.0890808456478	-53.1437340989241	-83.0847599347985	73.2269037429402	-19.1778140929556	-8.28425392906434	
2437333333.33335	-12.9602431819892	85.1010138113015	-71.0775646943855	-26.4731743651125	-73.7602584651752	-49.1720762520442	-19.0628280995115	-8.49453387658438	
2437666666.66668	-12.9838952248617	84.9456556102592	-67.170364075515	-48.9903134650227	-76.6398707703901	-25.0832192415655	-18.9430005681832	-8.71821410499621	
2438000000.00002	-12.9850244629734	84.6179955102887	-64.6001493598143	-81.4202860950778	-77.8150867869691	19.770400580009	-18.8252058067638	-8.87553497114265	
2438333333.33335	-12.9948158458289	84.3230894891699	-66.3438035670099	-84.2712912102697	-79.1246275224019	-7.35160570202883	-18.7293054329348	-9.02641091284961	
2438666666.66669	-13.0030278134571	84.0382225091258	-65.9643287415649	-96.6880587924338	-93.5131266632864	-84.3092870208992	-18.6357361828979	-9.25459231657524	
2439000000.00002	-12.9949143215195	83.7943765019051	-64.7886992732715	-121.757960373126	-89.2210218715774	-76.7859782184903	-18.5529473530813	-9.46890339942928	
2439333333.33335	-13.0219418983134	83.4822300078035	-66.4894912125218	-120.77645287113	-81.1028294110891	-145.519179526055	-18.4548956725772	-9.8169717427475	
2439666666.66669	-13.0285712630323	83.2052552214234	-65.9744715026835	-108.087666367848	-77.4498598141773	78.7172206935786	-18.3923259099394	-9.93520904483906	
2440000000.00002	-13.0353339656465	82.9321132472797	-66.9258647972474	-132.465876164787	-84.3936768591801	127.614285599228	-18.317652061915	-10.1586606106536	
2440333333.33335	-13.0444158979905	82.6150958441524	-63.7068981204383	-158.614586421065	-79.4143268318917	77.609400683504	-18.2368464417335	-10.5163575832991	
2440666666.66669	-13.0590745828838	82.3044499156201	-67.5011195769051	-162.966806719478	-81.2585556049534	143.109613145836	-18.2093384803972	-10.6272097038169	
2441000000.00002	-13.0660309307262	82.020908316898	-68.7738136685618	179.902127367803	-83.7690778259985	79.017110843347	-18.1480135947035	-10.8394319313664	
2441333333.33335	-13.0882456586409	81.6434160796926	-63.8437830049466	-178.227053275334	-78.0838956650816	86.1784262106922	-18.1151212197473	-11.1131677589056	
2441666666.66669	-13.1382954817017	81.3123954816729	-64.9063182753065	172.019752890602	-79.7865984772332	-44.3743897389539	-18.0762286743685	-11.3479662307082	
2442000000.00002	-13.1339409459113	81.0383172042346	-62.4157413687977	164.32284214408	-88.168589006859	11.0908748751102	-18.0795448012022	-11.6643683545732	
2442333333.33335	-13.1589432362017	80.8503359803931	-61.774828881486	144.567572311337	-77.1406845202155	137.582747062051	-18.0409597711711	-11.8337129640502	
2442666666.66669	-13.1697383610787	80.4120022117174	-64.0340563675359	149.245224522578	-80.2113653907678	164.341824118239	-18.0451602141468	-12.0075047894579	
2443000000.00002	-13.1970537401813	80.1662583525443	-64.269887833622	125.400981819797	-80.3764519877077	146.010762866662	-18.0416672022529	-12.1312681136084	
2443333333.33335	-13.2301204917642	79.8377776021243	-62.839814671361	112.904709750939	-76.9780155712347	94.9112835560748	-18.0650313995033	-12.3854839097973	
2443666666.66669	-13.2614343781126	79.4254649396076	-62.8928155450902	108.899960504052	-83.756135186773	121.36526113013	-18.0893003121413	-12.3701769560256	
2444000000.00002	-13.2928785199376	79.1908472147862	-62.8238986640016	93.8284781896347	-91.1139014913446	177.753411078983	-18.1083547016521	-12.6136474814933	
2444333333.33335	-13.323480055623	78.9459402547022	-62.871983989595	81.5035919983257	-78.1316731766593	20.4402321679597	-18.1291297008854	-12.6877581520174	
2444666666.66669	-13.3573184766848	78.5122071459144	-61.8694507744426	70.5167507451367	-84.7063797625276	-174.764145397966	-18.1732218263956	-12.7944748654438	
2445000000.00002	-13.3876196422662	78.1437497446638	-63.1418172138681	61.6963317351007	-80.957342590232	83.113490427452	-18.2328963167951	-12.7262514062531	
2445333333.33335	-13.4020645993513	77.8200040634388	-62.5007178235435	45.754689664047	-71.1147597913775	111.464089083327	-18.3091321803036	-12.7737564359604	
2445666666.66669	-13.44990773951	77.4494593739947	-64.9898010460988	27.870213925146	-88.6904468283709	-106.289521374261	-18.3468503246592	-12.6867502859302	
2446000000.00002	-13.4612232081516	77.1164134716617	-63.555536947581	25.3301155847192	-83.1468889321873	-116.728119763284	-18.4081171097988	-12.6306269504478	
2446333333.33336	-13.4885780223691	76.6410868737348	-63.8457352181735	2.52000607935853	-79.2361334263294	170.54677691977	-18.4836514246993	-12.3804464124777	
2446666666.66669	-13.523174618535	76.2393336053002	-61.7388194653806	6.31837649287613	-82.7519671622265	-19.8993510816771	-18.581105127618	-12.3874822093151	
2447000000.00002	-13.5560649125628	75.8450890060403	-62.0246505299938	3.12974806265695	-72.8787072823737	137.239212116664	-18.6469356199823	-12.1394510034904	
2447333333.33336	-13.5862498953888	75.4158392787915	-62.965551170664	-33.2537207938948	-89.1284224235191	73.7224249019524	-18.7461880565582	-11.9522141265148	
2447666666.66669	-13.6281035885755	75.0315897967561	-63.5751412631917	-31.8792179957589	-72.8984604994398	92.9251275967812	-18.8599728725149	-11.6683787622031	
2448000000.00002	-13.6543030675231	74.6857182212231	-63.136746184508	-42.2857909986209	-101.324815302709	163.77330187938	-18.9655042367009	-11.4172172621241	
2448333333.33336	-13.6756887065524	74.2069811747431	-63.3832720340845	-46.7290626911336	-76.5438705320586	-174.666312786913	-19.0889959469285	-11.1047548409619	
2448666666.66669	-13.7039411151263	73.786263483526	-63.1184574390323	-69.4375932882214	-78.7602185468443	52.7771860689074	-19.2086909064752	-10.7392627250173	
2449000000.00002	-13.7422537718019	73.2691292493164	-64.0687558314462	-85.5083554951239	-81.8911392852685	-38.569863417226	-19.3350878191618	-10.2216860256334	
2449333333.33336	-13.7713539997199	72.808769399336	-64.8330559270969	-85.3714520485154	-87.8833673890645	83.9794122884543	-19.4503686564404	-9.77448776892397	
2449666666.66669	-13.7947297420825	72.326217877154	-62.33275956355	-101.885916701184	-75.964146130973	121.06956739218	-19.5698350690044	-9.03497927107138	
2450000000.00002	-13.8142398237083	71.780203552323	-61.7078826464106	-112.814444023538	-80.8922650077685	155.811868364104	-19.7139633556752	-8.49016560398168	
2450333333.33336	-13.854729990604	71.3312007634688	-63.0275851341947	-118.473773968341	-77.5510362469381	159.783363969924	-19.8709771754226	-7.85266846242033	
2450666666.66669	-13.8739530354817	70.7917723030298	-64.9513936821884	-146.601065692684	-74.777702272488	167.107283957782	-20.0249137675476	-6.97242223424488	
2451000000.00002	-13.9053726582778	70.3562078401867	-62.3419719975429	-143.415024367367	-79.9265064037232	120.724846224554	-20.1540212972028	-5.91308611562372	
2451333333.33336	-13.9220637846674	69.7808569736833	-61.8048499449559	-150.481427583719	-76.9425399130652	74.6861004405218	-20.3104998912822	-4.86634364440691	
2451666666.66669	-13.9479454201325	69.2524175377839	-61.933791768632	-154.914835240836	-78.8504729780459	91.0684038563686	-20.4470211732491	-3.76254658705571	
2452000000.00002	-13.9555656244439	68.630016993906	-62.379347736766	-169.115032623213	-79.1992547566495	-159.316176333357	-20.5506561656272	-2.56890052286831	
2452333333.33336	-13.9703361389503	68.1529023980522	-62.2398848391677	-177.699341298336	-75.7936567266393	148.822184158282	-20.687549826191	-1.45115267158684	
2452666666.66669	-13.9906100156191	67.5276793493497	-60.2398770746352	175.74564300533	-79.1667622246371	111.887133780924	-20.7847139799497	-0.129754861922219	
2453000000.00003	-14.0055837621274	66.9855500439956	-60.3495250838378	155.378011290959	-83.5438290073099	66.6900793126075	-20.9138259047535	1.089937957563	
2453333333.33336	-13.9966256391455	66.4839578271241	-60.1412315805089	153.049977114223	-76.5360972720317	-29.7004949869152	-20.970117414891	2.60880216435387	
2453666666.66669	-14.0230652529209	65.8307655893061	-60.3494618314888	138.877525337151	-78.9686378439316	-48.3268137206382	-21.0407468528235	4.0183397771334	
2454000000.00003	-14.0246082436827	65.2137181088897	-62.3812800241554	127.730448299221	-79.788618373101	-116.271329370735	-21.1441635704865	5.40341044741877	
2454333333.33336	-14.0291070439197	64.6561571141009	-61.3207712809079	114.089142480305	-81.4838781121019	-146.516342119977	-21.1930974025648	6.74386527870502	
2454666666.66669	-14.0350065569038	63.9287012579502	-60.3640585913849	97.3914574625519	-81.4697289197005	-44.3365385573933	-21.2629743228256	8.40627183638766	
2455000000.00003	-14.0274968404521	63.2713864477166	-61.9686685753484	83.6253640332741	-74.3847205679048	-40.6765742695016	-21.3004033209565	9.82109893213042	
2455333333.33336	-14.0341992266831	62.6368798949318	-62.4118549568131	80.608154822425	-76.6977591580375	170.942088801967	-21.3477588933183	11.2945018967826	
2455666666.66669	-14.0319282765404	62.0750707664062	-62.6744091418019	58.2650620578455	-77.6968348843484	154.357422514876	-21.3801192114441	12.6492080311741	
2456000000.00003	-14.0251466233907	61.3191858220923	-63.8185785751573	56.9393575590618	-83.9115467967263	42.2148487988461	-21.402824744752	14.2910808791022	
2456333333.33336	-14.0067854328026	60.7549926137617	-61.0299714576478	40.6556634856393	-85.4120054518055	-150.33917125105	-21.4165984190554	15.6596849421361	
2456666666.66669	-14.0048183931575	59.9849171521751	-62.4302847824696	16.8200046382724	-76.7239466623509	164.265500038329	-21.4028076346017	17.0639897917997	
2457000000.00003	-13.9938351892077	59.3598235779403	-63.2090492734347	32.9468387992379	-79.7571049159305	55.2952654574812	-21.3821753294372	18.3121984967288	
2457333333.33336	-13.976139492389	58.7471224479788	-62.5494360626093	10.6529290194068	-86.7791340898175	-52.8742987995741	-21.387024322221	19.768611142111	
2457666666.66669	-13.9630028377323	58.0559844377471	-62.4299482474079	-0.99888653099015	-83.7063334039396	-133.069658515382	-21.3234918357856	20.9731990008205	
2458000000.00003	-13.935648220657	57.3942784077149	-63.216057310765	-24.1824379596584	-75.54799027322	112.689140346316	-21.2905941889793	22.1816240584746	
2458333333.33336	-13.915432943056	56.6757943267012	-65.774463047775	-27.3475111887956	-80.1693223385487	73.6128574421997	-21.2398284766204	23.4487042621336	
2458666666.66669	-13.8863852827819	56.0246287734941	-64.3501742063198	-43.421394366957	-83.7878010519456	39.4353712457439	-21.1632926751928	24.6167161542748	
2459000000.00003	-13.8647381966481	55.3510329758453	-63.1957749550873	-44.2754960939931	-82.5731306707547	172.8443563889	-21.1185084271514	25.6077026587632	
2459333333.33336	-13.8357460235368	54.7098818103821	-64.2589399949132	-61.8241730058876	-80.2889242179458	96.2875454095838	-21.055145588373	26.6739232194615	
2459666666.6667	-13.8086572391001	54.0290540401991	-63.7823221951859	-58.5896980463532	-83.6794462183842	158.249779737593	-21.0105625572323	27.5964866655051	
2460000000.00003	-13.7763161746839	53.4414111002841	-64.2431717791382	-76.2263114719027	-88.9306314936637	93.813810882105	-20.9163548751764	28.3154172905091	
2460333333.33336	-13.7495067118301	52.7337791213949	-62.9955203901247	-76.717414315074	-87.5563271617652	-137.52369976143	-20.8559151409003	29.0565425537903	
2460666666.6667	-13.714278910903	52.0928492635656	-63.3887328105645	-104.285916228828	-82.7493190263162	-140.604735443721	-20.7541062869578	29.8001568631097	
2461000000.00003	-13.673985693331	51.4504616235918	-65.8398901743511	-121.159962227657	-86.0544673050496	-164.437493727102	-20.6999460600076	30.3003951531286	
2461333333.33336	-13.6364306016542	50.8166324915757	-65.1490438867903	-113.095898656926	-87.0634480929412	113.117002528393	-20.6137713965174	30.768676616191	
2461666666.6667	-13.6005384683288	50.1830304054315	-65.0632606641338	-136.09304634895	-87.7404451851994	158.533610919922	-20.5468108758051	31.0755748948475	
2462000000.00003	-13.5517462112773	49.5272151621617	-64.7121546540378	-127.447609607061	-83.9656193899185	81.895267506794	-20.4938067707025	31.4548777010586	
2462333333.33336	-13.5064113536562	48.8679131855618	-65.7782345747797	-135.854274061939	-74.2219008142281	-109.157227219267	-20.4607086646226	31.6377957894701	
2462666666.6667	-13.4573424055823	48.2463229080383	-64.9117504796085	-151.45067956366	-77.4708021819658	106.264224287343	-20.3985085221581	31.8561792560427	
2463000000.00003	-13.4253882008174	47.6877315653887	-64.7419276069157	-155.317052255609	-80.7180867171778	-113.289190351467	-20.3456092071019	31.7410132909551	
2463333333.33336	-13.3745044596783	47.0833924805456	-66.3447918525375	-163.03383136248	-75.8300393642571	164.416498671382	-20.321456156957	31.8131943041352	
2463666666.6667	-13.3336161198354	46.504144534191	-68.0026869503276	-173.670023869759	-83.2901677751326	139.943078016668	-20.3297732124905	31.9011094287435	
2464000000.00003	-13.2869944225334	45.9319601731706	-65.1934013673518	164.204531767354	-74.9128301269232	-114.843414728537	-20.3112358854349	31.687417276328	
2464333333.33336	-13.2422096000351	45.3778423171353	-66.4290749594852	-177.421788074957	-81.1569700683296	-167.535917853105	-20.2961326054348	31.4662783986497	
2464666666.6667	-13.1875664380595	44.8203046187323	-66.1881894730011	136.411500651624	-87.3452323956801	0.697861048276488	-20.2915884829482	31.4481005083498	
2465000000.00003	-13.1447036564156	44.3019038846771	-66.0797996149973	147.629430480134	-80.1323288768745	-120.72709755614	-20.3073602157963	31.2888184003884	
2465333333.33336	-13.0978340568745	43.8100584657121	-65.668871373739	128.347579966638	-88.3629204281368	28.8635801640501	-20.3075505984451	31.2060568906484	
2465666666.6667	-13.0462340297223	43.2951439553554	-68.9388942102731	133.623556365448	-75.3614872808371	-119.075321250222	-20.3427004539062	30.9473535070531	
2466000000.00003	-12.9916743360816	42.7946837762683	-70.5269101804988	88.3239196957234	-90.90979968363	131.127392380519	-20.389870480792	30.7098560117045	
2466333333.33336	-12.9448454024325	42.3350782048903	-72.6426284649821	91.8518598372427	-76.9043129150073	18.7159565767569	-20.4086416581138	30.4429398783941	
2466666666.6667	-12.8938957330519	41.8532116779707	-73.8870469436463	48.5448352204166	-78.5835706978191	72.5056475852302	-20.4177387750206	30.0601836957073	
2467000000.00003	-12.8450464709656	41.421223526292	-73.6119537857436	89.927517795315	-78.8620524462916	-179.50592353474	-20.4672843445805	29.8146069001658	
2467333333.33337	-12.7992143640626	40.9786271476283	-74.8314888142209	65.4726541485539	-87.6835068794804	21.8324633716582	-20.4996055972299	29.5565052549949	
2467666666.6667	-12.7436828381615	40.5302469505639	-91.535840869111	99.373196655277	-80.4301112254262	72.534232048799	-20.5503485386258	29.1200369101303	
2468000000.00003	-12.6930207470862	40.0976962090319	-75.1971638673099	-9.9907590330124	-81.1831265792838	-14.7801167789058	-20.6041524996896	28.7387704572901	
2468333333.33337	-12.6409538780428	39.7321581392209	-80.5893885677635	-137.287277211915	-76.0933854015642	-105.580051452237	-20.6361113812758	28.3214553464072	
2468666666.6667	-12.5966601174294	39.3399307357942	-71.9950604053338	179.916219883193	-75.5633033979657	-19.2020491099927	-20.6927832192739	27.913254500333	
2469000000.00003	-12.5456718569334	38.8939113999829	-81.116935736013	-87.4743104763777	-92.3687921801304	43.4738321929904	-20.7409027662162	27.5122324775052	
2469333333.33337	-12.4976560505182	38.5530270368117	-78.8726536169738	-127.110433348373	-77.3650795831991	171.630711346828	-20.7915840902402	27.0201563335314	
2469666666.6667	-12.446490829073	38.2016687434545	-74.3157878152938	148.197016656511	-79.6743914954277	139.78019267768	-20.8678457254942	26.4463637153611	
2470000000.00003	-12.39529289255	37.8252539837022	-74.7426957545545	102.697232467686	-84.0523146604889	-65.1350721439479	-20.8943053271286	25.8392434931728	
2470333333.33337	-12.3407975112859	37.5117229629367	-71.3604607726488	100.447584646689	-79.2076149289831	-80.687501816733	-20.9704523817717	25.2187264429993	
2470666666.6667	-12.2924710371087	37.1766187362893	-70.3893352374368	126.037406318911	-88.7547211687608	138.782779456559	-21.0158303454426	24.6555761931749	
2471000000.00003	-12.2386564803619	36.8294687678253	-67.4647573507061	93.8910291729361	-85.7339637515705	-101.350914882068	-21.0926575891721	24.0104540844739	
2471333333.33337	-12.1942674787394	36.5437464653021	-70.6614330195399	84.4577455223854	-80.2679027159027	-111.227108103751	-21.1811559640407	23.2777474191991	
2471666666.6667	-12.1370289617724	36.2556066370113	-65.7507015084657	61.3332562323125	-83.3702360263369	-179.660574424484	-21.2257002991909	22.5720815906752	
2472000000.00003	-12.0832055318188	35.9589933495631	-64.186303245324	47.9852106211291	-84.15720759312	43.1021815806753	-21.3127308725104	21.778835671637	
2472333333.33337	-12.031898480456	35.6450883455305	-66.3709787041976	57.241745908809	-77.4443483713522	34.8109881292307	-21.360350663074	21.0403116228368	
2472666666.6667	-11.9731344437032	35.4185476461456	-66.9212064339714	55.1345097655382	-78.1595103544865	-79.5541988826836	-21.4312880016414	19.9549423306845	
2473000000.00003	-11.9238287324763	35.1670300526933	-63.4952330806458	31.6496545393996	-77.670759945559	-138.708843196508	-21.5405041849673	19.2819277820501	
2473333333.33337	-11.8702550350377	34.8672519301434	-65.7681899243845	1.87768133554011	-75.5467588496512	-150.140899871453	-21.5963929451876	18.3393385323105	
2473666666.6667	-11.8172245999595	34.658829922207	-65.5630668337383	-12.3869663748775	-74.7330923980196	132.706985884722	-21.6845206601395	17.3908704072154	
2474000000.00004	-11.7654773486227	34.4398688463302	-63.5201684175111	-13.9803626331163	-83.4503370596738	41.1648292181744	-21.7409796335089	16.4853460760057	
2474333333.33337	-11.7091486649559	34.1521581695727	-64.8083225089711	-16.1616245379334	-82.7226210591265	-10.4724081644438	-21.7894146213851	15.5791425719468	
2474666666.6667	-11.6558332227423	33.9827185978056	-62.9473513065373	-39.9374327802608	-76.3569930318002	-91.4868900230839	-21.8534799337014	14.5459493940382	
2475000000.00004	-11.6053706275344	33.6814906612212	-64.8045044397925	-50.6323732357249	-82.1980740157228	-131.930031833058	-21.9282050155854	13.6590299371673	
2475333333.33337	-11.560985474833	33.4563973114456	-62.0812312888058	-39.8758027412786	-84.0198314547829	-146.505980476854	-21.9728284541248	12.5096973773507	
2475666666.6667	-11.5082678693579	33.2175316841856	-61.5894228807688	-50.1804147167582	-86.8026529934821	60.2719835395232	-22.0281378341924	11.525102128706	
2476000000.00004	-11.4600039919347	32.9702131417458	-61.9766517985368	-65.2517504366134	-80.3260320223795	-163.152968976394	-22.0646033861874	10.3829820590218	
2476333333.33337	-11.4178125442912	32.7371470910441	-61.736736835065	-71.9314558193948	-85.5830567310812	-137.938901590571	-22.0935356990248	9.37621425047756	
2476666666.6667	-11.3648583898185	32.4735231144248	-62.816248736908	-94.8074612133502	-77.292392611369	-89.146923897178	-22.1360917764159	8.32241025085718	
2477000000.00004	-11.315564649562	32.2746519601563	-61.747362225779	-94.8879904179291	-80.7672217180844	-49.7615980979309	-22.1660741748613	7.06127851166871	
2477333333.33337	-11.2737476903871	32.0201616119197	-61.998879485058	-105.026458912008	-81.4312616617119	10.7848545899077	-22.185331737538	6.04782575782445	
2477666666.6667	-11.225337313321	31.7162840676868	-61.1606838759309	-116.015424446259	-81.9537729724624	93.9463519510422	-22.1656189849235	4.88714037766939	
2478000000.00004	-11.1885284605459	31.4912411819418	-62.5141948271296	-144.927376427144	-73.8648714747697	-151.217105606749	-22.1698137867006	3.61473640586911	
2478333333.33337	-11.1403763588042	31.2094089459297	-63.5472942595587	-153.726940835295	-91.1320191978798	22.0075329453827	-22.1791927998657	2.50831117817863	
2478666666.6667	-11.0972607147821	30.9684520009221	-62.4707374910431	-156.504626666228	-83.0551931936234	-52.5330436907611	-22.1709163804695	1.38654998892576	
2479000000.00004	-11.0484337832006	30.7204231308693	-61.6508215050623	-171.104424933718	-75.8683309949749	145.914243275529	-22.1596256383816	0.0465871867243355	
2479333333.33337	-11.0069428503422	30.454345225169	-65.6520910990391	169.646912007524	-82.4149721359781	-137.749951973897	-22.1095880339367	-1.15878610230178	
2479666666.6667	-10.9714551197972	30.2408060257427	-62.8054004235146	167.670329434565	-81.4183797021546	-175.285123621138	-22.0827515047838	-2.47213439017747	
2480000000.00004	-10.9306623994637	29.9255183592745	-63.4900310733866	158.8496067234	-86.8663268590958	-23.2804624202163	-22.0532381565623	-3.74020094610016	
2480333333.33337	-10.8921507809513	29.638494271071	-64.4375377981444	142.549911557506	-84.6052855358439	1.42771824429465	-21.9976837083801	-4.86806757886919	
2480666666.66671	-10.8645691607502	29.3182166414733	-65.489428216598	127.399139871682	-80.9336079750079	173.998388625259	-21.9535665688725	-6.19236197571872	
2481000000.00004	-10.8316306184922	29.0252513506936	-65.2052759358504	127.258067596511	-80.0829038716909	162.779579271332	-21.8945601058245	-7.53092399348323	
2481333333.33337	-10.7949510947078	28.7511143329841	-66.0685649901232	104.81029623228	-81.3370317167917	4.14527947565448	-21.8521171149477	-8.66833476575343	
2481666666.66671	-10.7619840604909	28.4094460556299	-65.5079861954329	111.703480417755	-76.1524659794761	-22.2301745247395	-21.776604990773	-9.864210770784	
2482000000.00004	-10.7394378566743	28.0375592389051	-66.2717387237419	82.5910819572924	-77.8114033374765	20.7314895944249	-21.6964003410549	-11.0341657205566	
2482333333.33337	-10.7155582405036	27.6739577053311	-71.1435277439751	74.3989683506164	-81.3098934244692	-35.6314168265849	-21.6229806733424	-12.2280730912176	
2482666666.66671	-10.6860884094519	27.3313120035805	-66.6216070071527	68.7831182155584	-77.0613959380063	56.7188830808023	-21.5432463225402	-13.438601452217	
2483000000.00004	-10.6711034555332	27.0005400832135	-67.0400688000472	63.2844206468401	-74.1722995131748	110.72792408355	-21.453825343173	-14.608895678036	
2483333333.33337	-10.6463993327949	26.6493064234162	-68.523929943835	59.6094402061243	-74.9226890854938	-66.2964057735149	-21.3738843011661	-15.6650929136733	
2483666666.66671	-10.6292713741557	26.2839572788938	-65.3483581295663	41.5208515487534	-85.3205569697109	121.648054193651	-21.2750933214536	-16.8368203506793	
2484000000.00004	-10.6128553733946	25.930426749204	-68.6736424711719	27.170154063759	-79.8633316810112	-101.048262783261	-21.174345719825	-17.9158431253687	
2484333333.33337	-10.591892114548	25.5595709565248	-67.2198902145666	22.9747598003107	-83.2990434422018	-36.9130978325659	-21.0684075224875	-18.9432015806593	
2484666666.66671	-10.5774306666307	25.0790295850092	-66.8806114610576	23.879125556677	-79.9074698408238	-36.424648708342	-20.9691829549217	-20.0265664815653	
2485000000.00004	-10.5653547157487	24.7589172297639	-74.4524184969438	-19.4810778524366	-83.4939922989835	-113.791772323983	-20.8530096025034	-21.0020481400729	
2485333333.33337	-10.5594504358585	24.3752658500482	-71.19785741646	6.26168754868384	-80.7754221141861	-84.7365567708804	-20.7331494159156	-22.0977776537426	
2485666666.66671	-10.5548137971109	23.9331239501408	-70.2603825776533	-41.491957430139	-75.6254536615643	-6.10130090648908	-20.6328583839754	-23.1382661755321	
2486000000.00004	-10.5471745737553	23.4927269598038	-69.0133962306986	-27.16527422161	-76.8283357651354	-106.324800913309	-20.5213538458402	-23.9607401830475	
2486333333.33337	-10.552551619028	23.0552663290699	-75.7142788329284	-45.1806106310381	-76.1676032998889	-79.8157256798889	-20.4151548893523	-24.884849578325	
2486666666.66671	-10.5482142446811	22.6684397905336	-70.0618997333041	-67.7944637988193	-82.4280694423466	-116.537776811956	-20.3142330596438	-25.8204124049522	
2487000000.00004	-10.548590489428	22.2326614428175	-76.502268804201	-96.2201537733999	-90.2628567030993	-47.2233447446486	-20.1973749740303	-26.7949440146108	
2487333333.33337	-10.5529949721457	21.7327850215627	-77.7137738690718	10.9290769885377	-81.7226230157637	-93.1264122037817	-20.1186419384856	-27.6297237616828	
2487666666.66671	-10.5571060050444	21.349881839389	-89.9853870742574	51.708879123021	-82.7621580391	-1.88984693643437	-20.0089129264843	-28.4380263969108	
2488000000.00004	-10.568356757067	20.8207170956705	-78.5760521524506	-30.3796479548733	-75.6240479565545	-169.764333146392	-19.9026080588128	-29.4117844259407	
2488333333.33338	-10.5818822224996	20.3456714449842	-81.2617161663851	-33.4828650439207	-75.9366331517672	64.8376208903029	-19.8191960466259	-30.1863192290354	
2488666666.66671	-10.584099275327	19.8710529514031	-72.9946199957157	133.3250033337	-76.8122071980183	-63.2624317172735	-19.7390078216255	-31.0671967185689	
2489000000.00004	-10.6048771676741	19.3356127135506	-77.0518551387946	120.716948924912	-83.8487933684648	-53.6125122602635	-19.6480744332273	-31.7940378315903	
2489333333.33338	-10.6203804531589	18.899865493792	-75.9553229614868	64.9138291632425	-73.0013815337556	96.6341998472204	-19.5706141185215	-32.4828878423758	
2489666666.66671	-10.6466294005593	18.4029387177504	-82.7899133901374	16.335381404662	-81.3023134227249	58.0096292690361	-19.5057809176294	-33.2769679953825	
2490000000.00004	-10.6595028570701	17.7563859854339	-72.457987886481	14.5989628555969	-77.5365874395255	-70.8005101353676	-19.4448715291142	-34.0016971245515	
2490333333.33338	-10.6935315818045	17.3389617617979	-71.305343874464	27.425177029336	-89.0012461463661	-65.7298785426631	-19.3840063467693	-34.5338752160373	
2490666666.66671	-10.714761282884	16.7676151917634	-68.9757114742041	31.5936036951715	-74.0079932408664	151.157699864918	-19.3355692881387	-35.223666844327	
2491000000.00004	-10.7396419051013	16.2178440882487	-71.4314078817908	9.27650397827854	-83.952386884348	-13.0052049490715	-19.2828948378223	-35.7860196455237	
2491333333.33338	-10.7855083824011	15.6832932146296	-71.9806249420048	-4.23707482647825	-79.1408840878607	-89.765963566248	-19.2302187955501	-36.3146503336963	
2491666666.66671	-10.8235880112734	15.1771424706162	-66.9051143929043	-12.8229920722649	-78.7954639452033	28.8846958982566	-19.1747641105958	-36.8314641699275	
2492000000.00004	-10.8543991052273	14.6504965970201	-66.030892895662	-39.4252410006116	-78.7308774517244	-174.631147513524	-19.1364345737734	-37.290520925635	
2492333333.33338	-10.8952967257112	14.0665166665861	-66.3313728872034	-21.9958784985274	-72.9273254677141	86.7565650051725	-19.1168721642828	-37.6448590956359	
2492666666.66671	-10.9275794786577	13.5627084157059	-65.6948100631201	-42.019989435828	-76.7061825727602	-97.591703615247	-19.0741915882696	-38.1250647785142	
2493000000.00004	-10.9699953850548	13.0056657961139	-67.598030048097	-46.2868445588685	-80.1596629775464	-106.161249141868	-19.042746415966	-38.4520171389081	
2493333333.33338	-10.9974894543065	12.3894188789444	-63.6617011517911	-67.4059689489303	-74.0997702433497	-132.199592120892	-19.0266064515155	-38.6995267306722	
2493666666.66671	-11.0516710262665	11.852221927969	-66.6251199036553	-59.9611661871668	-80.4782883923117	-43.6484388536935	-18.9935534979269	-39.0268369733525	
2494000000.00004	-11.1115575620161	11.2035123380206	-66.7405561446048	-73.1017231001731	-87.6875766343576	-41.3534707049795	-18.9937094704828	-39.3991900880726	
2494333333.33338	-11.1456368012168	10.6504647730698	-64.5009338000794	-87.6751674877625	-77.0529322714138	-143.575966371056	-18.9875615148803	-39.5053769557697	
2494666666.66671	-11.194771069999	10.0547344569949	-65.4252638551665	-98.1097503094467	-81.7629724511809	-15.6693938859092	-18.9569424206971	-39.7790047173497	
2495000000.00005	-11.2430658889995	9.49100098747043	-65.2997189691453	-100.255101707324	-82.3273249360787	74.1165417412155	-18.9345753835543	-39.8863595092341	
2495333333.33338	-11.2887177404222	8.83889137041326	-64.2205545657723	-120.424605201202	-76.7408376929791	55.5540954048387	-18.9580440886335	-40.067363199941	
2495666666.66671	-11.337844296264	8.26716613165867	-61.8124282743716	-125.52885759164	-82.7652716409717	150.179403999652	-18.9646350259513	-40.168800204814	
2496000000.00005	-11.3875900282701	7.71461956079921	-64.1985739940095	-153.162442083389	-76.9817321586507	95.9634471363112	-18.9485492225069	-40.3176803867737	
2496333333.33338	-11.4347300074476	7.08853076806399	-64.7502950075551	-135.987821872939	-76.6633071606813	33.9972707276188	-18.9651008763645	-40.3593388616102	
2496666666.66671	-11.4811789997518	6.45069553993828	-64.4760251494149	-165.819116050056	-79.9226528788641	140.756165809294	-18.974831427321	-40.4262779348617	
2497000000.00005	-11.537170885276	5.85109119691836	-63.2206296457388	-165.135043930784	-73.3512753250586	-26.2299211763584	-19.0130423657259	-40.4694436976803	
2497333333.33338	-11.578214172859	5.28858906759561	-61.943110977008	-178.228129442403	-80.0426106850949	123.326093400745	-19.0097513266119	-40.5394191301296	
2497666666.66671	-11.6377888161277	4.67136303381065	-61.2577868961997	169.158510070497	-80.5060686062732	6.57653372342618	-19.0585017787151	-40.5534746476759	
2498000000.00005	-11.6880423148175	4.0309564062413	-62.808693536191	157.895799797047	-74.6609112401211	66.3645511549049	-19.0935347402368	-40.4300000535778	
2498333333.33338	-11.7337921375049	3.39420890983561	-60.8079017593066	158.647921544546	-82.4766879959929	93.6343210631106	-19.1314606436732	-40.5344265776014	
2498666666.66671	-11.7764901381763	2.80002548269011	-60.8633868435438	150.424506848338	-85.1605049696585	-139.353577365771	-19.1711439189499	-40.4090790497102	
2499000000.00005	-11.81880635419	2.27087450958215	-60.9609867981275	132.339466128948	-91.6490391278537	60.5859216230753	-19.2219083368647	-40.3486210466791	
2499333333.33338	-11.8706322796987	1.5676496993848	-60.0464874313096	120.148111768089	-90.6839485020751	117.498855187544	-19.2676601395984	-40.4419635408406	
2499666666.66671	-11.9175894443577	0.980755722699625	-60.116962504688	114.003843880283	-82.3831593587211	-58.5198959395551	-19.341511594067	-40.1994741352144	
2500000000.00005	-11.9696528950913	0.312637910105048	-58.6037976756001	122.745898332178	-77.6800012478246	90.4141806885264	-19.4119909709785	-40.0890725072973	
2500333333.33338	-12.0068743166922	-0.292319328006808	-59.8043729591465	88.4581909497213	-78.4249692329243	26.4706815037177	-19.4914843983824	-39.9189670180622	
2500666666.66671	-12.0582842047131	-0.916889314895554	-59.0235800240355	86.4309482229546	-75.5589432797936	97.1821214168875	-19.5516602353803	-39.6077518787426	
2501000000.00005	-12.0960128519168	-1.59147712166992	-59.3159737838749	77.4373283552742	-81.2591241427875	51.8390890809684	-19.6386545373917	-39.539290957928	
2501333333.33338	-12.1251756755731	-2.26177549662078	-59.2592041414776	69.1670091111791	-74.1081501176534	78.6646460837511	-19.728297961014	-39.0879288437598	
2501666666.66672	-12.1762999098668	-2.87747533111817	-58.8607827378941	63.1801193947729	-81.5516750806234	-99.8531995154928	-19.8267984501388	-38.8003355807826	
2502000000.00005	-12.2080618766493	-3.56373411725913	-59.1787687151388	48.8342528915246	-77.5887484569074	-146.264191524824	-19.9419511005716	-38.4488819919108	
2502333333.33338	-12.2492802462731	-4.23625131111155	-58.0820161956421	40.7989405995407	-78.7492136227774	169.76369057363	-20.0283649615429	-37.9804625589211	
2502666666.66672	-12.2866862880258	-4.98222484691727	-58.6540731758162	27.5272889979025	-85.7436200275576	53.5053945125094	-20.1461412094262	-37.3881534199784	
2503000000.00005	-12.3277847613822	-5.66478821964138	-58.2670087585549	27.8360351778461	-74.4451268695539	123.975322063055	-20.2745918139314	-36.7712610361874	
2503333333.33338	-12.3536164788819	-6.36556396446522	-58.4611582495035	7.33608319110858	-79.2277404731629	-42.1014891857073	-20.3619273028832	-36.2088756372199	
2503666666.66672	-12.3990778327972	-7.12858010049472	-57.3291875283782	-2.61463378905737	-86.3876783787914	94.3850541272553	-20.4874352257154	-35.4698340449766	
2504000000.00005	-12.4232176219593	-7.81949443811408	-57.7112687259567	-10.2345047756171	-75.3388360293373	27.3681572913956	-20.6459680115887	-34.9534187152358	
2504333333.33338	-12.4466229646824	-8.56882261021917	-57.142146886493	-21.2381701857917	-74.1208054641925	10.4896723775652	-20.7664896259637	-34.2614454200631	
2504666666.66672	-12.4764218150503	-9.28604160820785	-58.215355090328	-29.9675180026601	-76.6817660848833	174.632323876738	-20.9107678334037	-33.469532477903	
2505000000.00005	-12.4969646174997	-10.0101906826352	-58.4059827455035	-39.4348761868398	-82.2203697640477	51.6180638521663	-21.0629783888246	-32.5632877212044	
2505333333.33338	-12.5142933425546	-10.8416598995001	-57.4726144008262	-46.6711492246726	-81.0848404165883	0.582716393173583	-21.2066745796542	-31.5722906312389	
2505666666.66672	-12.5373117011559	-11.5848263165003	-58.1197215303062	-57.2768467522422	-77.6366580755127	81.7036970115747	-21.3636529937224	-30.5837462318144	
2506000000.00005	-12.5561798096632	-12.3234087934592	-57.6146650053811	-66.4620788008443	-76.7213841718845	129.57749042115	-21.5309689481007	-29.4309997744991	
2506333333.33338	-12.5705284511051	-13.0982640335895	-57.1503313622292	-83.763122421814	-75.5218635589142	-146.771575995347	-21.6711274467085	-28.2166532653214	
2506666666.66672	-12.5843786943858	-13.85796841429	-58.9355376913364	-97.1918903585293	-84.1018125900379	87.7946344589749	-21.8437336471395	-27.0845781799991	
2507000000.00005	-12.5973314124951	-14.6245033983184	-58.8391795779985	-92.6148336096913	-102.846853117632	12.4423750955729	-22.0141502651465	-25.6447225530123	
2507333333.33338	-12.606017459405	-15.3864810663774	-57.7019983593068	-108.665476253586	-100.732748120847	-160.28362487377	-22.1835727121413	-24.1889999628576	
2507666666.66672	-12.6106740990174	-16.1519622238931	-57.0569938544171	-115.874584934218	-82.2267356100455	7.0913366118523	-22.3245699700303	-22.4832064598098	
2508000000.00005	-12.624393256623	-17.0164454658885	-57.2279063423225	-127.151393406532	-83.0830744605406	126.029375431366	-22.4969987441732	-20.7652307624972	
2508333333.33338	-12.6325151600217	-17.8309516816328	-58.6965911830686	-129.862116449019	-78.3368877465286	154.549204909897	-22.6296143457758	-18.8885272121719	
2508666666.66672	-12.6342935843463	-18.6528242012075	-57.7769491329781	-142.66038812824	-76.1714841995473	-44.763297398069	-22.7742001250133	-16.9254893627097	
2509000000.00005	-12.6404860377281	-19.4781560961362	-58.1671476958285	-151.052340732781	-88.079100467423	53.435405177995	-22.8652806615076	-14.8295684533388	
2509333333.33339	-12.6405008757791	-20.339797891063	-59.900210672476	-166.958823594597	-88.8782472872568	120.410486523836	-22.9539011265421	-12.622753682203	
2509666666.66672	-12.6291863961094	-21.1727106476638	-58.6779514695176	-171.473715479783	-75.9202080221818	-107.578691877868	-23.0491977523244	-10.3659034926208	
2510000000.00005	-12.625439818806	-21.9960206664087	-59.1450340971558	-178.354332637938	-79.4617693041449	-65.0988933209736	-23.1042810516364	-8.44533678100594	
2510333333.33339	-12.6245198096922	-22.8264635094214	-58.0625433278312	169.203526779848	-80.2189495757396	179.087524287687	-23.1604314916579	-5.95350895960934	
2510666666.66672	-12.622744195252	-23.667147131866	-59.2358918722729	165.437051675541	-79.2961754608434	-68.6716282398479	-23.2060651290459	-3.43980374749103	
2511000000.00005	-12.6111349830662	-24.4574160014254	-58.8594030574537	156.499139308378	-79.2846685607303	124.592118643352	-23.1942561464426	-1.21039483517308	
2511333333.33339	-12.6146303014535	-25.2983438403308	-59.100072057912	148.643907725712	-80.5218302500584	-115.167914943077	-23.1796856208898	1.27454467624821	
2511666666.66672	-12.6008732301586	-26.0700627629072	-58.7704675264307	133.698041121711	-74.8996801503213	126.520945018207	-23.1145195856267	3.57848132932216	
2512000000.00005	-12.592448225728	-26.9373543630233	-59.9779497619484	133.475299909675	-83.9480462663589	57.869682559858	-23.0529015131543	5.83607007319309	
2512333333.33339	-12.577191544713	-27.7110784525913	-59.3973575289072	117.256427121666	-89.1107264643004	-159.676976450821	-22.9678434227424	7.91905576708389	
2512666666.66672	-12.5711333812352	-28.5105256564396	-58.635584283891	118.141165056528	-80.5141265256899	-111.073961462658	-22.8799326861136	10.2448981162658	
2513000000.00005	-12.5520721447119	-29.2636507917986	-60.0549298540329	103.852705985402	-79.502211654698	-119.672496240968	-22.7751140834359	12.5548891500181	
2513333333.33339	-12.5479402116107	-30.050617980119	-59.3548791955621	97.3163679283978	-81.4511632074909	136.202631192854	-22.6230161771959	14.452290984754	
2513666666.66672	-12.5311564590149	-30.8002526271317	-60.7746684424138	97.4219027745263	-71.3974748825863	44.9762272768702	-22.4743288971252	16.331014754832	
2514000000.00005	-12.5239628385853	-31.5969870977143	-59.6944600208477	93.3350582042373	-78.1673107874807	15.6830958966522	-22.3313695713416	18.5228081394099	
2514333333.33339	-12.5128094880207	-32.3538302034174	-60.4664580336156	80.8232486609865	-83.4316857019888	-15.3372770657415	-22.1648232201348	20.155315789211	
2514666666.66672	-12.4978676514796	-33.1311371409341	-61.1826483043525	60.8214881027003	-79.8904108600124	38.5535526142366	-21.9543810732337	21.5387634115037	
2515000000.00005	-12.4831159478726	-33.8669431428713	-59.4367767537068	60.5671524197761	-83.0078992104144	93.1183088762266	-21.7678559714856	23.2021984046655	
2515333333.33339	-12.4791868925522	-34.6542345926401	-58.9303391309494	55.1125327680533	-72.1806874672352	26.6489990946738	-21.5730547382934	24.3673169789478	
2515666666.66672	-12.467888848531	-35.3566351647245	-60.2600794162562	57.2335643875842	-77.6753578020111	106.965358471333	-21.3802973470877	25.6093284146375	
2516000000.00006	-12.4557707022486	-36.0835641028161	-60.8414235544251	28.5727876987741	-73.3070631552488	34.1013103645158	-21.1652881476545	26.512281470796	
2516333333.33339	-12.443880620912	-36.8110758801996	-60.273624743963	32.6224872313507	-81.1276149740084	-7.9824557676293	-20.9748253522302	27.5468069030201	
2516666666.66672	-12.4372673685573	-37.4664174207292	-60.8538408173282	15.4713298886765	-85.3229553821515	-8.2260657531639	-20.8142752955966	28.4558358549727	
2517000000.00006	-12.4209300361383	-38.1819241974726	-61.247152531481	10.2324514760909	-89.9209620345745	67.7373728019315	-20.5993273624075	29.0366460625072	
2517333333.33339	-12.4180065755732	-38.8232816932095	-58.8902535575782	-0.13352458171055	-76.1900135462153	44.1405892612947	-20.4182946065612	29.7297287485058	
2517666666.66672	-12.4112757135023	-39.4662732180468	-61.3529142529058	0.526257437288508	-78.349395802302	114.058688636699	-20.2367615288893	30.1065060433113	
2518000000.00006	-12.4034143673686	-40.1046423765009	-59.1200566931954	-10.5487427464805	-82.3467143105547	23.7899056672933	-20.0710215674585	30.5238175297925	
2518333333.33339	-12.3955093176577	-40.7167606342043	-61.3444252498221	-22.5429380089242	-78.5848810156409	-154.183206483723	-19.908645137294	30.7455315876561	
2518666666.66672	-12.3964818847172	-41.2749456733923	-59.5649728972485	-28.552279487677	-79.6613410566105	-150.454567419606	-19.7494095695723	30.8366031423542	
2519000000.00006	-12.3925734808288	-41.9206757903452	-59.716842449287	-36.0598505625457	-84.6223836852133	-55.1327143915384	-19.5844524790376	30.9475142085675	
2519333333.33339	-12.3930483749279	-42.4517383643957	-60.3954373667389	-47.9533591433069	-75.7570788457053	-5.80076666018951	-19.4896574668867	31.1793008945084	
2519666666.66672	-12.3953052925912	-43.0171259623249	-59.4310543905831	-52.3566649014271	-80.7773924531103	-64.3875601244922	-19.3596814630598	30.9495243069888	
2520000000.00006	-12.3949511619906	-43.4721192115619	-59.7211081172888	-51.5275048412003	-79.711872788573	120.902133579558	-19.2530381480555	30.9509629570558	
2520333333.33339	-12.3941461771399	-44.0140099203023	-57.9180034550923	-79.2380185044412	-78.5695861398857	-60.6558127236771	-19.1599315217259	30.7278573874708	
2520666666.66672	-12.3999330115559	-44.5329654674415	-57.5452873698295	-85.0273805379946	-103.802185813141	-118.794810924251	-19.0632047373734	30.4620861117442	
2521000000.00006	-12.3976318458542	-44.9814746723429	-57.9737900749064	-95.4524841433267	-78.3207501903861	159.67161319296	-19.0010200009871	30.3942207162909	
2521333333.33339	-12.4040999221052	-45.4313171598348	-57.9021620765614	-92.0608240337776	-77.6548020729838	-156.460083233394	-18.9270907682081	29.9556848840267	
2521666666.66672	-12.4066329916497	-45.8674702568656	-58.0289279302049	-100.671386579065	-76.9014789771692	63.8191228001019	-18.8606372142554	29.7110557865493	
2522000000.00006	-12.4167799270269	-46.288508159723	-57.6887933552585	-115.197236096404	-75.3067171017518	17.1321305627245	-18.8362797698989	29.4226307882991	
2522333333.33339	-12.4327108774633	-46.7629469957449	-57.2429617772702	-124.516197666168	-97.3862259612899	171.80988801597	-18.79675500366	29.0184772415653	
2522666666.66673	-12.4311482271777	-47.0837835259305	-57.8370543750449	-134.480162357894	-81.5154005553998	179.707064890915	-18.762007961715	28.555140993518	
2523000000.00006	-12.4429589611575	-47.4822164364422	-58.610838502721	-136.891679269079	-88.5825588177871	-112.743351273981	-18.7664108163902	28.1783458528623	
2523333333.33339	-12.4591204118914	-47.7797940202872	-57.9798833361934	-151.324024674056	-82.8418315062171	73.0172117906767	-18.7481222266823	27.7714423379884	
2523666666.66673	-12.4853690638143	-48.2201586842371	-58.7397156969851	-151.619467554505	-74.7147580326464	-174.806988677665	-18.7428789244452	27.3344181107179	
2524000000.00006	-12.4823077007911	-48.521777780654	-59.5203993470735	-175.284648085606	-74.9651334641807	-179.037017031325	-18.7718281676377	26.8022713976977	
2524333333.33339	-12.5032559860142	-48.8359172963812	-58.3729810166386	-179.081025483214	-84.8212342680643	96.9039512360004	-18.798008802886	26.2600036535409	
2524666666.66673	-12.5194157482456	-49.1369094891497	-57.719874683123	171.911021557952	-76.8561067098541	-102.316364547735	-18.8166131628651	25.8722783261178	
2525000000.00006	-12.5388713909721	-49.3547827605856	-58.9496608207497	153.880303986635	-81.0671954557663	178.149251119106	-18.8254540956219	25.3184703979308	
2525333333.33339	-12.5563191576744	-49.6755980502729	-58.635994381398	150.330473798951	-87.5503960929809	-123.33777808581	-18.8708446898299	24.7633838027707	
2525666666.66673	-12.5772155242964	-49.8859767003015	-59.7100828675548	139.878806465709	-74.64019530001	-150.868142069081	-18.904888190583	24.2005807770462	
2526000000.00006	-12.599778872413	-50.0521226068006	-62.5217282249681	140.488351363883	-77.8573428018948	142.799247026314	-18.9551861561003	23.5363707607734	
2526333333.33339	-12.6113068997336	-50.3062403253016	-60.5900354550756	120.025301696965	-74.8198527545479	-160.646456514324	-19.0209595930107	23.0159948941939	
2526666666.66673	-12.6354432758479	-50.5260779558648	-60.7184225756763	120.909326690488	-77.5485295570709	-119.841062345599	-19.0909189903986	22.4888085055227	
2527000000.00006	-12.6587470727283	-50.7140314621303	-60.6399209268065	112.204688288339	-89.8998555612581	-139.189567917516	-19.1671596957244	21.7511110856326	
2527333333.33339	-12.6934477540988	-50.9859425536311	-62.2106730629957	100.489903741168	-80.2272540631719	69.2459724306575	-19.2411793503563	21.2516910507175	
2527666666.66673	-12.7028526281221	-51.1020266541109	-61.8550451660027	96.8167586016747	-81.6353495156559	-124.210623758263	-19.3333509436311	20.6325416704643	
2528000000.00006	-12.7401422063399	-51.284829719577	-61.2715735154797	95.0990959434866	-86.4948551240102	7.00673651924745	-19.4105524661156	20.0709495577964	
2528333333.33339	-12.7708572879993	-51.4821845421591	-61.5716287336974	76.1559602977993	-82.644172561222	-168.548523954214	-19.5077633714506	19.4346679611233	
2528666666.66673	-12.7969276288522	-51.6304313364099	-62.7241823157665	71.9114974149976	-84.0872555411265	148.09534024222	-19.59595020967	18.7660199253577	
2529000000.00006	-12.8268414260371	-51.7911922383589	-62.1722354215828	56.365911053283	-76.517023592965	-165.801831318543	-19.6831124145977	18.1555891130462	
2529333333.3334	-12.8580865030592	-52.0096259533024	-63.6598823228145	61.058061206529	-83.5786951734447	-87.4340729150713	-19.8190566003397	17.3778197687843	
2529666666.66673	-12.8877758755847	-52.1768072837148	-61.9968428221203	59.3774794828639	-85.5387300462577	-15.4295500862185	-19.913516353702	16.8369446417105	
2530000000.00006	-12.9115661939268	-52.3214261142135	-64.2546300976164	48.1581897056735	-82.2078464356923	38.0286684869058	-20.028048310109	16.1129603582573	
2530333333.3334	-12.9574358070902	-52.5791315202696	-63.5478387431002	44.339280591698	-87.2289175491328	-25.2125903021268	-20.1420173260242	15.4148112008631	
2530666666.66673	-12.9947321513723	-52.7413673797481	-63.8538776566522	38.8866894940112	-93.7560760485672	-117.933090014237	-20.2386782786036	14.7665796979257	
2531000000.00006	-13.0229270796158	-52.8885986944364	-63.0975559220397	27.4247407003827	-78.5742180685541	-81.8849150242453	-20.3572109835435	14.1006778366653	
2531333333.3334	-13.0666833987518	-53.0477943666762	-62.6470040953134	14.2851732856096	-78.4690517076843	-160.041157021011	-20.4675102516678	13.4519410813927	
2531666666.66673	-13.1000376994257	-53.0613941741392	-62.0263372990266	22.8615076581544	-79.117796478818	-138.300213903545	-20.5785088116011	12.6265453753584	
2532000000.00006	-13.1486214309633	-53.4596332894637	-62.4366354528593	7.3373981236793	-79.5998756452529	49.6661506555232	-20.6975509755988	11.9486561958085	
2532333333.3334	-13.1882047777313	-53.6596987466677	-63.0621530069779	0.0180581738829435	-78.3296235878741	65.889264246677	-20.7993368222625	11.1268436110701	
2532666666.66673	-13.2297080852624	-53.7935213724265	-63.6503538894941	-9.31416001079806	-78.7881387736234	160.839062596306	-20.9284346147709	10.3721032879474	
2533000000.00006	-13.2948664972292	-53.9562151697946	-60.7982169817622	-9.30010448145977	-74.8067146785918	19.1788617764885	-21.02538431493	9.65625691134011	
2533333333.3334	-13.3436249644193	-54.0843139851147	-60.1633098638848	-19.150861363845	-77.2470568067107	-62.3455963016275	-21.1318325862567	8.88262111928582	
2533666666.66673	-13.4022877971473	-54.3108295936476	-61.5895756670493	-27.5431674219644	-74.9335135584138	-25.273624694145	-21.2358474343576	8.02532579674879	
2534000000.00006	-13.4506920870253	-54.606992283065	-59.4796507856825	-31.7714668562914	-77.1374166627144	-114.619399910457	-21.3146086462489	7.06175727109048	
2534333333.3334	-13.4945146667318	-54.7988942368385	-60.8302614991007	-51.2885054380882	-77.9182308723001	135.850222702982	-21.4179509836733	6.17222556522926	
2534666666.66673	-13.5613944609088	-54.8938070521878	-60.2360956783266	-57.9260939606075	-84.4669876995767	151.190639861191	-21.4965830700798	5.16871655350424	
2535000000.00006	-13.6067359272181	-55.1669826779765	-59.9846836589405	-60.7693279105962	-75.8298766793759	-89.2195597704532	-21.5894810049284	4.16037970386234	
2535333333.3334	-13.6625068366073	-55.381355762871	-59.7335055405993	-68.746950819529	-83.904325374821	-7.19935864493718	-21.6633738919176	3.21145310785476	
2535666666.66673	-13.7265074703491	-55.5009906915514	-60.2952313245359	-74.5152717451561	-73.3687586186425	-24.3524308399595	-21.724263135502	2.13052623710415	
2536000000.00006	-13.7812280388197	-55.7288792645581	-61.2696157978225	-80.2776899979142	-78.6333930901412	-21.6232788457159	-21.8055006332212	1.20643629495531	
2536333333.3334	-13.8318188484924	-55.9457449670233	-58.5830893402869	-99.0055361642179	-81.57347341219	66.1961484429557	-21.873644491002	-0.0629555540889537	
2536666666.66673	-13.905993968033	-56.1582096905802	-60.7365337525503	-102.387464938777	-78.3832900278579	-134.845151961271	-21.9308462823592	-1.16651783248474	
2537000000.00007	-13.9554240242716	-56.311231129286	-60.5719610377286	-115.173607925648	-74.4606454066418	-114.161892128755	-21.9734714136246	-2.39216194823304	
2537333333.3334	-14.0351184143909	-56.5766535356024	-60.3861068677985	-126.555357696204	-83.3080150448858	-96.798951256272	-22.0134329420489	-3.6950546211097	
2537666666.66673	-14.0830842583527	-56.8424116685375	-61.5290579206991	-134.00126418133	-80.6556451846561	-47.8972620051207	-22.044258580895	-4.85281404509923	
2538000000.00007	-14.1649374846009	-57.0493027478666	-60.9978287407427	-143.251951174701	-83.7102523256981	142.525921073788	-22.0653669644803	-6.15942383462474	
2538333333.3334	-14.230583281213	-57.2998713958352	-61.1295526043506	-138.684885951212	-87.2052324762455	-122.856616877197	-22.0913808357871	-7.50606735692425	
2538666666.66673	-14.3036619522888	-57.4635955010595	-61.844523031153	-147.897446920338	-80.1210247725514	118.355999842909	-22.1058497068125	-8.89444375686337	
2539000000.00007	-14.3797252125776	-57.728579463306	-61.5251861220705	-166.073103092485	-80.656183243345	-139.000123706467	-22.1060484818271	-10.2444544549679	
2539333333.3334	-14.4521504585428	-57.9124765578198	-61.8645540842795	-166.948065031421	-74.5889106869016	-119.493123912384	-22.0951084642775	-11.4431356644024	
2539666666.66673	-14.5416561528573	-58.1366774847831	-61.0244159468655	177.304955732662	-76.0071317783739	-6.17575519141706	-22.1051716506603	-12.7852566601463	
2540000000.00007	-14.6125236205859	-58.4739802458703	-61.7784075029108	172.666407641522	-78.7327850954936	-151.402891101518	-22.0934931098788	-14.1615122449302	
2540333333.3334	-14.6972246047731	-58.6457942125284	-63.1111639889906	163.272731965889	-79.8516805843006	66.3125182814616	-22.0801224888386	-15.517551071866	
2540666666.66673	-14.7935722047629	-58.991738922703	-62.6001145539747	149.22067487822	-85.2357375926412	68.730755210975	-22.0557662984925	-16.9336732340607	
2541000000.00007	-14.8746191640899	-59.2252738057951	-64.1936905846645	148.39696935488	-75.8820765372894	77.6244340311732	-22.0372541525925	-18.3208259195733	
2541333333.3334	-14.9415680320216	-59.5398569026505	-64.4770647879786	139.807444791337	-81.3268498834456	-115.101641153967	-21.9848913692998	-19.8216204867331	
2541666666.66673	-15.0467536886933	-59.8769836306445	-64.9669203236722	115.107718124634	-75.848429023717	-46.2285819386784	-21.9546136857007	-21.1051388753418	
2542000000.00007	-15.1267591297777	-60.1881011868237	-63.317771995286	117.031166994769	-87.399922029549	-90.9054677532483	-21.8916748355719	-22.4628705538357	
2542333333.3334	-15.2176404459422	-60.4689462100803	-62.877974423548	110.595459122383	-83.7351429797642	-69.3387071779921	-21.8709905181646	-23.6635893099854	
2542666666.66673	-15.2862021021136	-60.9113580548282	-61.8672865657713	111.332576098582	-80.8687266311115	89.3157674540017	-21.773340819989	-25.0385190402162	
2543000000.00007	-15.3803626062244	-61.2152978200565	-64.8808655225237	111.166041493145	-74.1472188232216	-128.30834355434	-21.7228080701221	-26.3259149109027	
2543333333.3334	-15.4616246688994	-61.6288431649388	-63.7053066196486	93.582985536861	-86.8384369752663	-39.8983756641352	-21.640522053341	-27.5931454219761	
2543666666.66674	-15.5542021760415	-62.0690242383441	-63.2433715139826	79.4627150972452	-87.1229856454213	-7.57231424907223	-21.5669108016811	-28.9468208772282	
2544000000.00007	-15.6561176593605	-62.3959198501956	-62.9469714924509	99.1223518689601	-78.1980925499494	-11.4715274162557	-21.4839926333149	-30.1828474665336	
2544333333.3334	-15.7584718330714	-62.7264800235479	-63.8475795014845	81.3873852367476	-76.9479491615316	-0.230921315611677	-21.3989171619757	-31.470664049351	
2544666666.66674	-15.8673958387463	-63.1201520437978	-63.0704346925383	69.9724496875472	-71.7302543440014	-158.733684914035	-21.3202941667934	-32.6502503726438	
2545000000.00007	-15.9579337107841	-63.5355871349395	-63.4229679479324	67.1375240747077	-89.3460369087978	-70.4882184092742	-21.2232568824001	-33.9361589337569	
2545333333.3334	-16.0778735451244	-63.883437480124	-62.0957182877483	68.2606694711549	-78.9555454321703	-42.2200586899686	-21.1544073903042	-35.0810960753143	
2545666666.66674	-16.1782195804128	-64.400818551309	-62.7627357696525	38.5809927316181	-83.0685423572146	-89.1511387525467	-21.0596992886858	-36.346811137624	
2546000000.00007	-16.2915949961051	-64.9020382014093	-61.3094542885091	40.1481997545967	-77.2895826931575	145.421979573	-20.9849420574874	-37.5369063175119	
2546333333.3334	-16.3834944625021	-65.2748818085491	-60.845647587652	29.8091870475543	-81.2867512292652	-148.708558902136	-20.9188895540031	-38.7265348712716	
2546666666.66674	-16.4986370352448	-65.7957625744508	-60.1484180048986	31.8317931545121	-83.2124499408786	-97.5622910502161	-20.8419167979802	-39.9048662288251	
2547000000.00007	-16.595807969558	-66.3520324193648	-59.9712082843776	21.1934533625212	-83.0104464440115	128.893065668953	-20.7736788506901	-41.0727192237433	
2547333333.3334	-16.7085533756117	-66.997287245441	-61.4881247956998	21.4479656718854	-81.4175408241113	134.183753503892	-20.7122165525775	-42.1053535758761	
2547666666.66674	-16.7984922887565	-67.5501397685898	-62.2366814945111	5.76752123303951	-91.2807902102552	110.065507903442	-20.6771995225372	-43.2486000905725	
2548000000.00007	-16.8881389109129	-68.1427898277576	-59.294205638866	4.36680879274949	-86.7040772691468	-135.514989270749	-20.6298166793269	-44.2575636820569	
2548333333.3334	-16.991554281323	-68.7644767936477	-61.0142246682822	-13.486860349317	-85.5082158181943	31.3438960218908	-20.5880132414018	-45.3881643191264	
2548666666.66674	-17.0965559030382	-69.5126106689225	-60.0944600398529	-21.0864939830342	-82.7915125790056	-9.88100604253498	-20.5661547185694	-46.3825857341746	
2549000000.00007	-17.1977076487794	-70.1627887998507	-58.7864126669708	-23.1481847991782	-79.4647861829747	3.53573294046535	-20.5468105081192	-47.2224013397567	
2549333333.3334	-17.293481267655	-70.9095675440769	-59.994136640077	-39.1232594768288	-75.7504349175693	71.3518807230734	-20.5379402684455	-48.1002804809075	
2549666666.66674	-17.395201676018	-71.6813670447302	-60.3718209547504	-42.317104269328	-74.3762354836041	4.55908822828108	-20.5208592365225	-48.8986134644416	
2550000000.00007	-17.4749651839142	-72.5596770710084	-61.1388580585499	-53.7064470581559	-76.5125993725279	-5.66099570502588	-20.542717509887	-49.673033181215	
2550333333.33341	-17.580309172181	-73.4401962622929	-60.3471727351119	-54.1124494739181	-80.9923900201523	59.1918384791031	-20.5309251314292	-50.4948266571906	
2550666666.66674	-17.642897330472	-74.2088891741387	-60.4562863204489	-72.59858939492	-83.7077724228923	59.2124695371451	-20.5588403392784	-51.1240487091507	
2551000000.00007	-17.7480128761784	-75.0730621220829	-59.3462657318341	-88.0550741542117	-79.5156416723378	-16.2991074736989	-20.5977716664275	-51.8181441948885	
2551333333.33341	-17.8230373784431	-75.9952426498916	-58.5219257711146	-90.3462212131635	-89.956342111949	121.388845557326	-20.610671386586	-52.207167620845	
2551666666.66674	-17.9026419077514	-76.7951762409416	-59.159265859296	-104.565274228581	-84.2667391921691	-113.181514350427	-20.6323248470903	-52.7751615114179	
2552000000.00007	-18.0160020420264	-77.7953295631755	-59.9396415314245	-109.322985010573	-86.9971669221288	-89.9231903591349	-20.695732847432	-53.1657905208295	
2552333333.33341	-18.091352373161	-78.6774412272817	-58.8533483871018	-121.075496551423	-77.097403866137	21.3142123251542	-20.7503324154198	-53.441617916156	
2552666666.66674	-18.1885653198346	-79.6240453202459	-60.7244153773854	-141.334265977527	-75.2075665189545	-109.747517341814	-20.8140998275778	-53.8433396442215	
2553000000.00007	-18.2634213311593	-80.6698452993241	-59.2316845870897	-134.711289934098	-79.4236651252193	101.112247807329	-20.8894816012787	-54.0750154051174	
2553333333.33341	-18.3389690983773	-81.5947442717639	-59.3472865070812	-154.624350346776	-86.9379009808825	-3.99209553695977	-20.9757375677703	-54.2726314911536	
2553666666.66674	-18.4229641441186	-82.6857685304325	-59.5737131344304	-164.181863904309	-83.7303104819139	-52.4586040575913	-21.0891032360934	-54.2769972930069	
2554000000.00007	-18.4766359613722	-83.647375675801	-59.1762407708985	-163.392961301399	-83.5256844166472	6.47143928613341	-21.1849639994922	-54.3584857119713	
2554333333.33341	-18.5529871665609	-84.6590552265297	-60.6355497818074	-176.46860223445	-78.9026938061086	31.0478801636435	-21.297580816328	-54.1853029430431	
2554666666.66674	-18.6029325807996	-85.7080395614981	-59.082588808801	172.582376292504	-79.146979729026	20.77394181965	-21.4419260196549	-53.8519690310109	
2555000000.00007	-18.6520866577363	-86.7058099755856	-59.7222785116915	168.800144920699	-77.0057954008227	88.4596299265055	-21.5720618339656	-53.4953309459339	
2555333333.33341	-18.7079140978009	-87.7905768790988	-60.7553215563898	157.218228324183	-76.8734570238653	-38.6406014281923	-21.7037467268551	-53.0073600335339	
2555666666.66674	-18.7617818536819	-88.7920487475403	-59.2911866795767	144.530955222872	-74.9466574689331	6.15146391307029	-21.8538259610886	-52.4006662306292	
2556000000.00007	-18.7926898566141	-89.8672094147921	-60.2346457860976	138.144742259775	-73.5340354842282	-35.3389807578193	-22.0164847843713	-51.6415922284582	
2556333333.33341	-18.8286020052564	-90.9076477880328	-60.2853719770674	136.033871395594	-76.2529705911415	-166.632759894258	-22.1564484798108	-50.6856815553227	
2556666666.66674	-18.8676331321592	-91.9344253771367	-60.663143398408	133.693829528498	-84.5866273730777	26.8477977962081	-22.3174706797115	-49.5104590937086	
2557000000.00007	-18.8871174694163	-92.9737344421547	-59.6199857407406	123.982037886493	-92.0207278506278	141.442952177371	-22.4333890365413	-48.2335474568207	
2557333333.33341	-18.9079009346323	-94.0422782746869	-61.4973611022846	104.816734862245	-89.1468422181484	-41.1647505831553	-22.5825693972081	-46.7950176255575	
2557666666.66674	-18.9118138632328	-95.0502711124238	-59.8914688103161	102.117246557346	-77.1908360448469	121.47057417071	-22.7047749578183	-45.13867054593	
2558000000.00008	-18.9367068238557	-96.1344041146474	-60.4854182493404	97.093374951744	-89.5191975950067	-105.82415617776	-22.7937843029164	-43.461995236388	
2558333333.33341	-18.9354688907671	-97.0324489000465	-59.2372650066899	87.1196529012062	-81.1384860268125	2.30866530246832	-22.8516632828308	-41.7260375771131	
2558666666.66674	-18.9231457295128	-98.055249016447	-60.4253303536763	84.3244639934551	-72.6656237558371	116.200260937905	-22.9335900265892	-39.5942358518295	
2559000000.00008	-18.9235714527617	-99.02657277798	-60.4154447383548	74.3355321034337	-73.4982567553073	40.2088292617058	-22.9833800692159	-37.5467164521171	
2559333333.33341	-18.9099785701607	-99.9799264609375	-59.7630345474545	61.4769079997121	-76.548268145663	80.8142783648227	-22.9824642012388	-35.7242015003404	
2559666666.66674	-18.8971728294746	-100.962649178219	-60.8386791118767	40.7027199622868	-78.3698878702017	104.038777264653	-22.9776877723628	-33.2997021345965	
2560000000.00008	-18.8730892396819	-101.887935991325	-58.4572354425426	43.2083226251745	-78.8946406704166	79.1047480180351	-22.9205564461114	-31.3183629265812	
2560333333.33341	-18.8604223970916	-102.747986106782	-60.1340492011338	30.8822871516198	-79.7317867298261	8.08653491766118	-22.8561448168654	-29.1180210906111	
2560666666.66674	-18.8294184972261	-103.565153277799	-59.1598814809408	18.790655032787	-80.7031793253836	81.2886451001506	-22.7759045571731	-26.9703048362117	
2561000000.00008	-18.790576556164	-104.582306252177	-62.2574338054644	19.2760912995195	-77.233291633226	-115.707914611422	-22.6577555318347	-25.017376288592	
2561333333.33341	-18.7608161943447	-105.317692944844	-61.7300299819892	10.9081746629899	-81.8888728438901	56.6642116027837	-22.5194126855278	-22.9610761385258	
2561666666.66674	-18.7056098434391	-106.192370618222	-61.1047154302971	4.56666421282126	-76.3666640349844	131.53393205783	-22.3539464448049	-21.2620703173734	
2562000000.00008	-18.6575774600687	-106.979340108715	-61.4116425899787	-14.7409486781814	-77.6269341412639	46.9392582144561	-22.1592992115615	-19.4474137896615	
2562333333.33341	-18.6118340582976	-107.822519701109	-61.6483952749112	-19.293066482671	-75.5975211018187	80.0616289364554	-21.9980240881916	-17.7942428269024	
2562666666.66674	-18.5533044410709	-108.662307503968	-62.4906840971348	-22.9095385203772	-76.5820517022482	54.0879407313214	-21.7937922528131	-16.2553454012981	
2563000000.00008	-18.4853398153697	-109.375818030044	-64.3479690031007	-34.6833988614339	-99.7441753017769	-38.7524455639747	-21.5861021237876	-15.0554630572401	
2563333333.33341	-18.427203510414	-110.233900111593	-64.0193264571079	-44.1703601034081	-80.1346381049392	-56.8877740338961	-21.3839165377106	-13.7687516759751	
2563666666.66674	-18.3678753058308	-110.950469420304	-62.994662004756	-66.1984997383297	-73.6581150743325	-36.9761045641098	-21.167331247801	-12.7005526988242	
2564000000.00008	-18.2846683338437	-111.616444612685	-62.7212518345822	-56.7949285990612	-80.0600513827194	-25.5132220682528	-20.9659023043469	-11.6075516904804	
2564333333.33341	-18.2208945897754	-112.33054383741	-62.9353609517455	-76.0537886216713	-80.4296239635383	-61.6748198003046	-20.7712667442568	-10.903160111417	
2564666666.66675	-18.158098838289	-113.033324023651	-65.2877801964089	-71.72473248706	-81.9992325907457	67.5000505768355	-20.5566112249732	-10.1272877726297	
2565000000.00008	-18.0804038879975	-113.666476468238	-64.3505980996873	-103.327622527569	-80.6939762228992	-116.036255515734	-20.3526084189678	-9.38708700176716	
2565333333.33341	-18.0208474299142	-114.271564844704	-67.1039472166088	-82.2720327399338	-73.9065589677597	24.446809426248	-20.1571880068569	-8.90400879483573	
2565666666.66675	-17.9638689607746	-114.948995649517	-66.669596772142	-97.8419370816427	-90.0051786727872	-84.1520643563402	-20.0058915126672	-8.60320831224529	
2566000000.00008	-17.8809758563064	-115.556344150079	-65.6801083638907	-98.0790453347564	-76.7661921473188	-41.6032420527923	-19.8093528962286	-8.17427687776979	
2566333333.33341	-17.8224714831733	-116.168488788258	-64.1265026048184	-115.290360059775	-102.210249409766	-109.061169338704	-19.6478571825623	-7.8713727679383	
2566666666.66675	-17.7380567896822	-116.787990024439	-65.0297318794611	-127.987546542583	-76.1019618500884	-10.03176455667	-19.5249026023975	-7.73981814537119	
2567000000.00008	-17.6824900961543	-117.437931164041	-69.3133099192181	-135.04517713485	-84.4577445390828	-59.0810581103415	-19.3704068436014	-7.57920472987925	
2567333333.33341	-17.6154930278722	-117.99396631862	-66.683055920075	-148.881833989604	-77.2543827346534	0.396538389940797	-19.251472205283	-7.51172102745963	
2567666666.66675	-17.5466124280701	-118.552357160249	-64.3365172138728	-137.011150542246	-87.7517667235676	88.5493771551635	-19.1292906129804	-7.65929743506504	
2568000000.00008	-17.465819600817	-119.135124205916	-64.9897336836121	-148.967073680848	-76.6361809807425	20.5973881729562	-19.019604248808	-7.51267216885951	
2568333333.33341	-17.3875578391406	-119.751149266985	-65.1161004678598	-153.968385000678	-77.8913755280107	-148.118764368392	-18.9325418206307	-7.61042994560533	
2568666666.66675	-17.3199898835983	-120.29949722106	-63.7275804005288	-152.505611001766	-81.4685880464731	-158.764315786255	-18.8684400528023	-7.81139169801087	
2569000000.00008	-17.2602395930962	-120.839140279018	-67.7421420881178	-167.673140652192	-85.8765810696093	122.283233862217	-18.7855422945242	-7.96533439747432	
2569333333.33341	-17.1790568432381	-121.33610522454	-65.7412890272632	-179.774989228398	-90.3249660935131	-62.7121661416702	-18.7211020438227	-8.01968558974306	
2569666666.66675	-17.1109689023364	-121.892998907758	-65.6494778937043	171.242314163853	-83.0026779327287	-0.509597789553715	-18.6969658363024	-8.13194121630846	
2570000000.00008	-17.0645851068851	-122.313495059653	-62.2253243099813	171.390708589365	-80.6061383236094	-109.217842492103	-18.6665057880095	-8.38445857876719	
2570333333.33341	-17.0034930416703	-122.964658690047	-65.0150451488253	159.596484659255	-83.3090328145179	112.69146427243	-18.6433449975389	-8.66252352957504	
2570666666.66675	-16.9500448989255	-123.484653326165	-60.6448028825537	155.61805029753	-74.3681064045832	97.3384460994083	-18.6323397384543	-8.75426716413759	
2571000000.00008	-16.8897693691	-123.926696579669	-63.0885313666578	139.022505283878	-84.6818719495857	-47.3425586454731	-18.6654627624819	-8.92933045477681	
2571333333.33342	-16.8344646103905	-124.576670465789	-63.1592448119702	136.680496562461	-74.2286755358006	31.5728085361912	-18.7104477862239	-9.07709885902028	
2571666666.66675	-16.7931011420984	-125.085259482808	-62.1201220632615	123.101864849344	-98.0826277833953	35.2870321539996	-18.7401861566432	-9.20656656685669	
2572000000.00008	-16.7531432967284	-125.595076880424	-63.2801018818618	105.897527871196	-77.531164415083	54.6314577732274	-18.7951974950861	-9.41122235013382	
2572333333.33342	-16.7068900243868	-126.106701928103	-66.1835174230777	87.9640736719532	-73.250727157482	158.927784386693	-18.8879134072467	-9.47079454458544	
2572666666.66675	-16.6737508193748	-126.708278553635	-64.3056348134892	93.1208225163816	-74.1599066891156	-48.6845146548148	-18.9536044610091	-9.63222692435654	
2573000000.00008	-16.6361885874998	-127.197582966554	-66.4978318481143	95.8319649228116	-79.002162893649	112.567466501649	-19.0389623675567	-9.58749277854054	
2573333333.33342	-16.6043166496238	-127.745326580742	-65.2875450323993	72.5328404009286	-80.2216355071826	-81.3265771982632	-19.176140193198	-9.52850781949298	
2573666666.66675	-16.5731216791891	-128.310497856506	-66.2545061463201	78.5609372599146	-81.7010124197691	75.016929362672	-19.2919520049394	-9.38635569441712	
2574000000.00008	-16.5433917726882	-128.878521919223	-66.7021013256553	65.6508045861581	-84.7399174937032	33.0448768620405	-19.4224826559561	-9.24289383973059	
2574333333.33342	-16.5119613508608	-129.435415243652	-69.1900341105041	48.0852332175581	-79.9164192400869	89.9955138624294	-19.5680736597311	-8.8289075889245	
2574666666.66675	-16.4899562092638	-129.838763786802	-66.5496552292199	45.9966833160185	-78.1091750385938	148.218469531609	-19.7182099865511	-8.56677476980383	
2575000000.00008	-16.4598867518967	-130.586115157656	-69.1189090609341	47.8182824438728	-84.401271506343	135.130680924094	-19.8675331508575	-8.24600475260559	
2575333333.33342	-16.4536132459151	-131.044235667262	-69.3879559999812	40.771323760184	-80.5360976166797	55.3187025129224	-20.0327486550478	-7.61505455438688	
2575666666.66675	-16.4372686398381	-131.61919376699	-68.0467495863603	35.4721108672963	-77.8593378634383	62.9536681951373	-20.2291033637978	-6.90694320331237	
2576000000.00008	-16.4330916730226	-132.349740780298	-67.9659443527877	48.5382926238038	-79.9262957774086	142.558462972961	-20.3747305764007	-6.20697370553627	
2576333333.33342	-16.432232811429	-132.872417423876	-66.9835815517742	41.0601551476634	-86.0218948063029	-106.31587192138	-20.562559570196	-5.36713147870035	
2576666666.66675	-16.4431178034774	-133.585246049375	-69.0635748316542	31.7014162233757	-89.0737706797344	89.1038283808562	-20.7537536430996	-4.33514167388602	
2577000000.00008	-16.4360580423797	-134.12831155835	-66.8630872312666	17.4819989389984	-77.6926569825776	41.103127379953	-20.8997129364907	-3.32888496436283	
2577333333.33342	-16.4575243244047	-134.865002052444	-67.1869928122672	-0.824235528430724	-89.3083949976752	14.067091613648	-21.0880898672238	-2.21038705766108	
2577666666.66675	-16.4686235861766	-135.424806666848	-74.4260642802933	2.95232670384541	-104.903323345995	-17.4818833661253	-21.256376724776	-0.780478540367798	
2578000000.00008	-16.4966338045736	-136.130179491172	-65.3000766406515	1.51577026178631	-83.3557011060238	171.738040735656	-21.4064488820738	0.534032991778749	
2578333333.33342	-16.520512987495	-136.673750640198	-69.0383842213298	-6.19503383498354	-82.5554837647533	-150.265135577327	-21.5534623621816	2.23004925707078	
2578666666.66675	-16.5507251080967	-137.458971741032	-66.2018334487667	-19.5838659191535	-79.7526839432533	159.949186841175	-21.6913650377272	3.78445932505657	
2579000000.00009	-16.6034630140944	-138.071547236981	-65.2147710979057	-7.48819108934801	-76.6362194024505	115.893694250248	-21.7691693803065	5.40031075869367	
2579333333.33342	-16.6282331417277	-138.856731633806	-67.5657358420773	-23.5312960800414	-79.2618009299875	-156.420359835589	-21.8441599777851	7.18842708043618	
2579666666.66675	-16.7005866161998	-139.593282758525	-66.920251202067	-26.8365277454635	-89.8398583419446	171.881896191447	-21.9401840134236	9.03044901360523	
2580000000.00009	-16.7489400080471	-140.275435817508	-67.1828566203215	-42.6838545956015	-86.9485543719186	-86.6538461402789	-22.0105578790387	11.1285632205001	
2580333333.33342	-16.7899194755002	-141.076518542045	-65.0026022445523	-59.4321952085734	-78.6840230358259	126.584995874731	-21.9966951282112	12.8392430351151	
2580666666.66675	-16.8750406019269	-141.788290970356	-66.8428125012242	-36.606660649426	-78.4957938560992	-96.2118643145471	-22.0172584788315	14.6396499328779	
2581000000.00009	-16.9220137376147	-142.602205772453	-67.7509415062596	-83.8215817624787	-77.5661884214384	-124.543211329438	-21.9997125481175	16.4924123608585	
2581333333.33342	-16.9960743424087	-143.204950660613	-66.4079834476253	-77.5827739498915	-78.8569766709468	-69.0134724546093	-21.9249654968874	17.9005574111675	
2581666666.66675	-17.0421701976275	-143.988203093722	-64.6167397691192	-89.4834655684497	-89.3128645665244	178.29299357809	-21.8656029300016	19.5487675058934	
2582000000.00009	-17.1403909539865	-144.918486186558	-65.365666389906	-93.008536894593	-78.0978995511411	75.7714154029527	-21.8223646408441	21.1439927839929	
2582333333.33342	-17.2134970510506	-145.658157321589	-66.6370559486185	-109.675929415223	-81.5199894890556	31.3031847190384	-21.7241496355002	22.2546998219742	
2582666666.66675	-17.3079111201333	-146.346696819915	-67.3540416229243	-101.008591442612	-76.1941239301871	144.118372528612	-21.6225149675795	23.5915910131383	
2583000000.00009	-17.3741215730362	-147.120676090684	-65.1759351416211	-103.068556588335	-74.9730742884124	-126.616121497481	-21.51455920342	24.5954850073046	
2583333333.33342	-17.4709780500132	-147.929142997007	-64.7949705030567	-119.062125168251	-81.1519688501404	130.520291614077	-21.4077187275186	25.8291258494973	
2583666666.66675	-17.5859790349193	-148.761414533312	-66.2904433061597	-132.436348492947	-78.2739405795378	-142.784209920917	-21.2779265463672	26.4183180930283	
2584000000.00009	-17.6798401435462	-149.70118619714	-64.4207631369713	-111.012637223897	-82.9986629435601	134.606610313781	-21.141437019807	27.1279219880044	
2584333333.33342	-17.7484699209672	-150.422636890367	-64.9399893964948	-144.647749469906	-72.4553076725476	161.651136724149	-21.0391628004122	27.5986529227214	
2584666666.66675	-17.8720229850862	-151.34774715588	-67.2062343554844	-125.73164241203	-87.026656473039	-71.1141715352712	-20.9034078420647	27.9746388965993	
2585000000.00009	-17.9659421305608	-152.201202009367	-62.6214961969349	-156.058417078932	-77.651475020534	100.069607281157	-20.8119562987271	28.2031344412128	
2585333333.33342	-18.0999087007573	-153.010273733515	-64.0814713218391	-167.547213421129	-77.3576005858574	-157.23116676308	-20.7252890888284	28.2885286823598	
2585666666.66676	-18.2217999916171	-153.885538290396	-67.3694837836253	-164.118257352077	-79.5559805590155	140.016000014347	-20.5933152998012	28.3163131433388	
2586000000.00009	-18.3412820603518	-154.794986621782	-63.2147178021938	-156.733973031186	-73.2010760049846	153.745638988021	-20.5250463190885	28.2278406727643	
2586333333.33342	-18.4705652804386	-155.723608867858	-63.7555396139999	-165.00364611278	-77.9689324408786	-59.5127435753155	-20.4349662945811	28.0181232087421	
2586666666.66676	-18.5754012850192	-156.663015444076	-63.9176660718924	-175.22672784614	-75.9124446404618	-150.773966894692	-20.3732798123311	27.6492049996292	
2587000000.00009	-18.7084329452685	-157.551799549024	-62.80768722245	175.086382367959	-80.1671178934831	-96.9255858072776	-20.2976751234748	27.17190642873	
2587333333.33342	-18.8504204273909	-158.542299492636	-63.052263553355	151.60421675548	-80.5890189322157	164.043457216272	-20.256906495068	26.6236562295838	
2587666666.66676	-18.9624197751	-159.453409234956	-64.3758849576217	142.733468064795	-76.2560443000511	147.954851096646	-20.1971432326749	26.2218961772476	
2588000000.00009	-19.0961860204399	-160.434344456751	-64.5131023455122	135.986386742775	-77.2166042464017	-3.21578641256987	-20.1847746369627	25.528701329046	
2588333333.33342	-19.2332262999747	-161.350909491124	-62.9627641463159	124.074180068058	-81.3689500301577	176.274050303611	-20.184432769316	24.7846072888102	
2588666666.66676	-19.3718869144593	-162.608190812545	-63.9039570903199	110.978918599687	-83.7909793098783	11.9489802327331	-20.171181194358	23.8135945959987	
2589000000.00009	-19.4852281892983	-163.563019219999	-62.8179667678772	110.742307933803	-78.2902733541359	12.9401249880399	-20.1649042642549	22.8523388509401	
2589333333.33342	-19.6229665378596	-164.534317303969	-62.3891984906407	116.684610024005	-83.0910446714388	159.740443927865	-20.2215820575545	22.1798121314841	
2589666666.66676	-19.7602040799952	-165.558442259922	-62.755972471611	95.6262402590679	-78.8467578847274	102.583343245621	-20.2529800765345	21.0493854728024	
2590000000.00009	-19.8785447649213	-166.619527576738	-62.1098037871924	101.292260747591	-76.4471303812203	-178.752992151955	-20.3054535741985	19.919205728921	
2590333333.33342	-19.9989628089215	-167.871623068743	-62.7320829942335	78.6857503893806	-73.0356100662464	-47.9572507428177	-20.3613676323104	18.9389508643508	
2590666666.66676	-20.122865824852	-168.980219891532	-62.3861458126201	78.2446108771926	-74.7638501849745	51.3099082870483	-20.442262151232	17.6969616638609	
2591000000.00009	-20.266213026782	-170.317407196929	-61.5292095603577	59.7507088067302	-74.1797708642141	102.207570520396	-20.538996857903	16.4201413332206	
2591333333.33342	-20.3738670288747	-171.40810846381	-62.4215575033665	49.0909125846796	-81.4243673471498	144.643760849412	-20.629130451221	15.2243535560628	
2591666666.66676	-20.5160779539865	-172.6785508506	-61.6384805793208	51.3152946584247	-79.186772039157	153.949743716917	-20.767362059726	13.9282306524819	
2592000000.00009	-20.6362482145904	-174.060600837682	-61.7700161129743	28.771751659618	-84.7421699475657	-145.44431247024	-20.9112179280689	12.6670376634354	
2592333333.33343	-20.7203737812859	-175.285672501491	-60.9628559908905	20.3449626511924	-77.5477915897493	-58.0943111552712	-21.0590050306308	11.2790928539105	
2592666666.66676	-20.8366345404828	-176.639964493675	-60.1441218016096	15.8311791257585	-76.9436820742384	-128.611023133033	-21.2163046595752	9.94220383157665	
2593000000.00009	-20.9586601891159	-178.148510219326	-60.9583398430254	-0.224189407345455	-91.2092946395439	81.2324509689891	-21.3845024250554	8.48047937558064	
2593333333.33343	-21.0603954205503	-179.636149817963	-61.8801373452993	4.71175882595531	-76.2885092051428	3.25913263215017	-21.5645177801022	7.13114877700182	
2593666666.66676	-21.134232222036	178.877083659778	-60.7123375224097	-3.83359575925934	-84.6721440764797	-73.7667299180544	-21.7657741072952	5.56305439134512	
2594000000.00009	-21.2250174432669	177.315031025561	-60.8283134537072	-18.1462099732572	-77.9951952471487	-149.752573418303	-21.9758340969723	4.15049333352027	
2594333333.33343	-21.299636518048	175.707455758174	-60.4329070434741	-23.0665348547157	-85.6366848862493	-30.2887307623233	-22.209633669155	2.53421239863767	
2594666666.66676	-21.3508062330324	174.183753436623	-62.3811051788822	-32.5771611647221	-75.547571861611	-107.655107952966	-22.4289464960019	1.0395856159212	
2595000000.00009	-21.4161075323229	172.484931276814	-61.8740883971533	-40.3166340812162	-75.2767497040884	-81.5406306213301	-22.6870531068352	-0.55747241515662	
2595333333.33343	-21.4521820109713	170.885465516471	-60.3571596364391	-56.488492441439	-74.9923130631102	101.872301000648	-22.9226877944693	-2.07068842850478	
2595666666.66676	-21.4750167012211	169.227275422458	-61.9357557042672	-58.5975121618885	-86.1170445695889	-20.6683493600574	-23.2006420344041	-3.52918705409177	
2596000000.00009	-21.5313849753111	167.535748246718	-62.3500192813275	-60.6862016778071	-91.0351826888227	46.2280148981591	-23.484067295399	-5.10189767561409	
2596333333.33343	-21.5352294356614	165.780154049941	-62.0600881081783	-63.0557332705362	-77.2442372603489	-17.4102213588538	-23.7605502593441	-6.56715423665356	
2596666666.66676	-21.5075950952274	164.027519852926	-60.5991698262823	-78.3851419667859	-79.8868940599129	-59.0404839294372	-24.0909302104732	-8.11169508945035	
2597000000.00009	-21.5137692660141	162.34079909056	-62.39900579972	-97.102095383139	-83.0035190327699	-146.60748789747	-24.3964916717142	-9.51568231171863	
2597333333.33343	-21.4821332981529	160.437347861267	-60.8223310516262	-102.510764543872	-80.4053199893368	-138.850601306349	-24.7205347453105	-10.9685897493616	
2597666666.66676	-21.4471682899384	158.703427524247	-61.5566228592399	-113.231080507287	-78.1036855824256	118.671264796176	-25.115195894624	-12.3106560184245	
2598000000.00009	-21.3972894198269	156.887603841608	-62.3877347219258	-117.238001268499	-95.4790089130527	163.276647827147	-25.4786308487815	-13.7089273495383	
2598333333.33343	-21.3425574326682	155.095126733269	-60.9321713996942	-120.707222260708	-81.4965042450427	-44.2990441769501	-25.8395013201507	-14.9145552867506	
2598666666.66676	-21.2630608783709	153.312077190859	-61.6854258944241	-137.125248883707	-84.6218325474486	-62.5516016415359	-26.2511142334184	-15.9855081284179	
2599000000.00009	-21.1773975683908	151.545893263666	-61.8624997659536	-126.889912939083	-75.9499989406781	-164.892208123661	-26.6450863481561	-17.0315385955627	
2599333333.33343	-21.0926644054871	149.839650945714	-61.7995934361899	-151.695765403983	-77.5424884433813	-109.933622100861	-27.0786277394825	-17.5723194853435	
2599666666.66676	-20.9913909294124	148.189879691441	-64.2381937730461	-145.827617048495	-74.9144548632648	-136.218266217001	-27.4835253924767	-18.1358485551125	
2600000000.0001	-20.8918771115141	146.432833094392	-63.6560225346507	-178.626626757317	-78.3255021457873	160.850222071491	-27.9154339526127	-18.3372231868839	
