!Agilent N9923A: A.05.34
!Date: Friday, 25 March 2016 21:36:23
!Model: N9923A
!Serial: MY51491690
!GPS Latitude: 
!GPS Longitude: 
!GPS TimeStamp: 0001-01-01 00:00:00Z
!GPS Seconds Since Last Read: 0
!CHECKSUM:0106810742
!Correction: S11(ON U*)S21(ON U*)S12(ON U*)S22(ON U*)
!S2P File: Measurements:S11,S21,S12,S22:
# Hz S DB R 50
2400000000	-16.771491041029	175.879663873564	-52.2733083412968	141.746807215745	-73.2844917496168	138.994241718227	-18.9838184942848	2.11989991250444	
2400333333.33333	-16.8060793092246	175.022035616307	-52.0144088495233	129.26441774252	-86.7710904883005	-66.2130282521901	-19.1982061715534	0.961059017872478	
2400666666.66667	-16.8143003659282	173.98854992443	-52.0250593954997	114.509414029068	-76.173358409887	160.341890015812	-19.4491276118022	-0.177830650077109	
2401000000	-16.8438979928029	172.857194579643	-51.6559709823869	105.840651403797	-77.5867652854061	-65.6753681728698	-19.7159730073468	-1.22943113221757	
2401333333.33333	-16.8556505419507	171.928330401832	-51.9962347960774	91.7965963757942	-81.1137999378603	109.759106483566	-19.9987756162186	-2.31889897439474	
2401666666.66667	-16.9309766720895	170.503504296029	-51.6055495897665	82.6582658432266	-79.9103982047361	76.8506239985085	-20.3154647961287	-3.58286604200053	
2402000000	-16.967065661632	169.553405233049	-52.1907590719808	74.3721847746989	-79.6766592635959	84.9127346931832	-20.6462845393772	-4.69456231312194	
2402333333.33333	-16.9997359037132	168.301139632278	-52.4722775794581	62.48438087221	-83.7220567838389	170.273079623958	-21.0025581176957	-5.72999648444048	
2402666666.66667	-17.0392360572539	167.014171381544	-52.0454754721522	49.0804085218596	-91.4325907232618	-105.839905331722	-21.3839318983162	-6.74260563721972	
2403000000	-17.0787052732289	165.821335823219	-52.5312945687517	41.3176584877113	-80.5646828719964	123.278453692221	-21.7919639895761	-7.87985179907718	
2403333333.33333	-17.1199956536113	164.635113094953	-52.8752039147113	30.391419748307	-85.3291381819906	96.1058066765284	-22.2301894851166	-8.93223032272909	
2403666666.66667	-17.1534495871016	163.400930958273	-53.4164094080975	15.4673300845307	-82.8489131709136	-161.005051442568	-22.6861312675876	-9.88255060039185	
2404000000	-17.1910764934284	162.057851777077	-52.9093320881379	3.80438375377133	-87.4795436999259	-4.50912159468289	-23.164300214663	-10.6687468727052	
2404333333.33334	-17.2233969734596	160.776673256176	-53.0395410417532	-7.97536611877016	-78.9917264755163	36.7721146509335	-23.6767650756748	-11.7588565133504	
2404666666.66667	-17.2721327372941	159.512011408911	-53.8505520889774	-11.6401510131558	-78.4434999030369	-64.9262575881024	-24.2511453900935	-12.3197461766617	
2405000000	-17.2972481259818	158.182989248368	-53.8727656284237	-19.4547263398807	-97.143783750432	-15.6249334891945	-24.8545459921118	-13.2892077227702	
2405333333.33334	-17.307623729226	156.828535140803	-53.835091065664	-32.8436522729777	-76.3844902541273	149.506038940613	-25.4754512631255	-13.6325406717057	
2405666666.66667	-17.3307629182462	155.585648404776	-54.0860064042427	-39.1440045330571	-76.7878533860578	-121.385321785245	-26.1747184813873	-14.2249845442669	
2406000000	-17.3405031349016	154.187091635699	-54.2250519368593	-49.8025787249662	-84.1535119606176	36.2041509865751	-26.9065611089469	-14.5557374139794	
2406333333.33334	-17.3548991776355	152.809085102295	-54.5714930251237	-61.6946862251174	-89.1122134626521	86.7799338497548	-27.6605825499855	-14.4411840806129	
2406666666.66667	-17.3721357824368	151.380270732497	-54.432118065215	-72.2851334387473	-80.4531458085233	41.8654275512774	-28.5577639970002	-14.0057263819898	
2407000000	-17.3896394662112	150.087621650978	-54.6206525515542	-79.2863391597452	-75.1437843477285	-44.6395025573985	-29.437496764004	-13.1633520137367	
2407333333.33334	-17.3896656080946	148.789311876333	-54.7777527381603	-85.7951329091775	-81.0877912550275	135.555742798623	-30.4483138829339	-11.7797763119681	
2407666666.66667	-17.4156671693492	147.384818832995	-55.3634213248449	-100.779109881855	-78.4056650019521	-123.711640816883	-31.5856109164376	-10.2254218047137	
2408000000	-17.4031767592352	146.019899566859	-55.1708761739076	-108.380839030511	-82.2933937134397	-163.237217383125	-32.7083058739326	-6.82738808605845	
2408333333.33334	-17.3827750438345	144.705392778053	-55.6937074385419	-118.986044639091	-78.9248007247034	-119.137390332526	-33.9353605564295	-2.39161311411387	
2408666666.66667	-17.3800775928306	143.380549847236	-55.4558486845685	-123.6715039186	-81.2360881178607	-125.842129728426	-35.1243591314863	3.31658908747565	
2409000000	-17.363992117226	142.006193624734	-56.473388945162	-139.545499333438	-76.8375175467223	-140.962567119369	-36.1485930742162	12.4954016162993	
2409333333.33334	-17.3518948777078	140.644054213828	-56.1320118051034	-145.369833224003	-78.7095812265406	-111.956393958992	-36.9897858382881	22.608136086454	
2409666666.66667	-17.3204106031139	139.24044436791	-56.8584709113897	-163.075851298177	-81.6010330579239	170.7373948842	-37.327456270429	34.7424903205946	
2410000000	-17.2979041332425	138.022700453429	-56.5059841685338	-170.559319832194	-76.2279175361182	-175.847046185699	-37.2242118267922	47.220936799047	
2410333333.33334	-17.2720641263152	136.752041158502	-57.0313307821891	-178.144707082989	-79.0592987251852	-26.9628031639032	-36.5721889166416	56.9146920646861	
2410666666.66667	-17.2379795096301	135.39855925241	-57.6114494475305	167.195938020045	-78.9241031095078	-158.815259234989	-35.9095682844818	64.4433765221413	
2411000000.00001	-17.2073229867775	134.138305277071	-58.0027519194871	157.372560638167	-78.5354988247604	-89.5150475106626	-34.9685519116368	70.6784885683799	
2411333333.33334	-17.165033789257	132.901854584198	-57.1199377644107	155.308419400864	-76.111256369033	-176.128707860264	-34.1235437240775	75.3054578316161	
2411666666.66667	-17.1101030347128	131.760989840508	-58.7212690789117	147.960549241254	-76.9639015909415	-133.188876185798	-33.2514387286755	76.9267430506745	
2412000000.00001	-17.0613263521915	130.442002337416	-59.3988424762299	135.066226572254	-89.0645661091449	130.125876227141	-32.5529125316006	78.9781890138719	
2412333333.33334	-17.0024722534963	129.145314787041	-59.8078209975679	123.58984707251	-87.5679351958902	110.865969104539	-31.7979500962363	80.0054179448206	
2412666666.66667	-16.938029345662	127.937536068015	-58.7029833986406	114.39222962371	-98.9968088545945	131.375821111172	-31.2339251436089	80.1583416436973	
2413000000.00001	-16.8778188208412	126.68395455395	-59.9799473096088	110.442579244209	-80.7867140253	168.987082053636	-30.6485495174125	80.184532688549	
2413333333.33334	-16.796895102574	125.374516595061	-61.8056634122387	105.734080469239	-80.8295840860909	-67.7186068799024	-30.1474661241314	79.593913107832	
2413666666.66667	-16.7209788283382	124.221930280414	-62.2966985716182	92.2932482629771	-76.1212292314625	53.5548309473637	-29.6935527939397	79.1823171203507	
2414000000.00001	-16.6452838182615	123.091777132001	-62.6448597076098	99.3655528680682	-79.0065204338706	76.542337054661	-29.3298692209241	78.1483480993277	
2414333333.33334	-16.5640679236578	122.005790067331	-61.7223343729398	78.1521792888268	-79.260682746566	161.429190582424	-28.9352943790071	76.8667184575008	
2414666666.66667	-16.4876349929156	120.828617821166	-61.756135119643	75.0677145507115	-76.2661503881831	-147.961777672349	-28.5854681913182	75.7336869291979	
2415000000.00001	-16.3919428522447	119.794885697447	-62.2486370217233	72.9174533008359	-77.6350939180634	-96.190672735506	-28.3013359328359	73.9651908435593	
2415333333.33334	-16.3204886454516	118.727372104491	-61.8490961722288	58.2309513676078	-77.458194871499	-62.5691395658428	-28.0362303711721	72.1113345917745	
2415666666.66667	-16.2199408526837	117.710188926618	-62.7248056448607	46.0674754662172	-80.1399863129399	110.801124266507	-27.767730288633	70.5623177931557	
2416000000.00001	-16.1349059901613	116.708149002224	-61.5485090328967	41.6825494217884	-76.224842766615	-15.1601555046876	-27.524274041361	68.6711279226653	
2416333333.33334	-16.0420826671458	115.7046882113	-61.6396466863885	43.5959966321773	-92.1377707935286	179.179180657944	-27.3215818958046	66.6860648711298	
2416666666.66667	-15.9622803365389	114.766069711577	-61.7941371191504	27.1524282786842	-84.1053570493298	-85.5327508685115	-27.1319176024625	64.593583102068	
2417000000.00001	-15.8570667671528	113.864264716057	-59.3048248500815	21.3709637690227	-94.3112323606241	-65.3986805113573	-26.9684013770724	62.1822360679359	
2417333333.33334	-15.7659837486695	112.936453660717	-61.3826048493315	20.0382365944533	-83.8046385092804	-15.8589455436436	-26.7582724387494	59.9298228827361	
2417666666.66668	-15.6820439275877	112.06691225855	-61.0250412002157	13.9660502244845	-84.1626824942392	-145.80447119136	-26.6255546232006	57.7796587517038	
2418000000.00001	-15.5900371958371	111.173549091386	-60.974432746398	-11.1776428171858	-85.3792874920277	-124.319596041149	-26.4804729566088	55.3858147138932	
2418333333.33334	-15.4914637840931	110.288438975364	-60.9579043802429	-18.1866665790979	-79.4653710992194	-79.5395919040561	-26.3316140496526	52.9194177638493	
2418666666.66668	-15.3864690767623	109.482042812331	-60.5290016447535	-18.7723550150618	-93.7320773248529	-124.039671278053	-26.1914228689124	50.4971187107661	
2419000000.00001	-15.2968237951409	108.691404750214	-60.7811008978709	-28.4508875837048	-78.9991687361257	-74.6428225873045	-26.0672306994445	48.0055161518935	
2419333333.33334	-15.1976913827906	107.855756513596	-60.5986932013167	-38.8732436884258	-89.9192805126036	-11.4785419411021	-25.9752436704111	45.451143432382	
2419666666.66668	-15.1161291835775	107.073660929401	-60.8484080975131	-45.6292285968989	-81.3552532056527	-60.2020670209932	-25.8538422205096	43.2787220258744	
2420000000.00001	-15.0194763013271	106.274800561194	-60.7717140474223	-64.4335173130226	-79.8223461664006	6.93428661256033	-25.7441186353174	40.5549795614722	
2420333333.33334	-14.9299323398127	105.590633753788	-61.4885698690526	-64.614298889585	-82.5345005702775	54.1440172278601	-25.6096062462629	38.1317382522308	
2420666666.66668	-14.839682449855	104.848838523478	-60.6141052429533	-73.1278790945064	-81.7214686775424	23.2578450226314	-25.4897800019792	35.7146068206951	
2421000000.00001	-14.7523331641635	104.122034176358	-61.8041916132986	-82.6476716995593	-85.2675517475265	-141.137838177176	-25.3871638405225	33.4346430931003	
2421333333.33334	-14.6713829996456	103.447977958863	-60.8352362198359	-90.0428060285668	-79.823005696135	-112.187472768224	-25.2793350469718	31.0196188504144	
2421666666.66668	-14.5929751624104	102.765706889915	-60.2059862474178	-110.705936331016	-89.2959603623385	-163.464744067443	-25.1378151994011	28.6047877365177	
2422000000.00001	-14.5065651191501	102.108765706985	-59.792799013663	-113.005644406303	-85.0513561762531	-58.882900242249	-25.0344458860734	26.4041356555803	
2422333333.33334	-14.4279728881773	101.450435809143	-60.1067628911193	-112.591032900586	-87.0261617958592	-89.3629274522878	-24.9148381563917	24.0002578345318	
2422666666.66668	-14.3524806158881	100.857089768341	-60.6505792060858	-128.526534298717	-77.840710792665	-168.707103396973	-24.7500387910727	21.7658106394422	
2423000000.00001	-14.2826438088146	100.263681777807	-59.6698584114586	-127.258893601823	-78.4425835650925	-150.843332020471	-24.6433020305009	19.5433972454141	
2423333333.33334	-14.2179103830822	99.6502387677404	-61.2074474603348	-142.178033264947	-84.802945588855	44.7310480192821	-24.4999361484441	17.4904242352404	
2423666666.66668	-14.1524091166958	99.1062569093155	-59.9429838626358	-165.450611575312	-75.1765177767233	-145.631162516142	-24.4138271728106	15.4681048728107	
2424000000.00001	-14.0825088150846	98.5475043008986	-60.7147057403767	-170.910875273483	-84.1468854531568	-24.2167948028397	-24.2770020880758	13.327870619797	
2424333333.33334	-14.0213215015365	98.0792623003339	-60.9784101293166	177.415240801503	-76.0350215158211	-78.5764981247974	-24.1723256122355	11.5892063912175	
2424666666.66668	-13.9555700471328	97.5676965965421	-61.5560544816958	163.999725017557	-94.9969505762117	67.3990506278586	-24.039918831167	9.83664502357252	
2425000000.00001	-13.9068908734962	97.1118469096402	-62.1261320197415	163.147622769527	-80.9814628794816	13.1964529374346	-23.8946219565644	8.11445376587374	
2425333333.33335	-13.842306930377	96.6554104661701	-61.9426720016702	158.668273613858	-78.7730277278221	-27.5696207774056	-23.8038544581162	6.53050704903208	
2425666666.66668	-13.7968732557575	96.1810877749421	-60.6865641350464	150.454183250824	-80.9331913593203	110.71248240147	-23.6801692617239	5.08047217824723	
2426000000.00001	-13.7508736642399	95.7642564222151	-61.7985671992774	136.331844789472	-75.0841155722665	6.33540012940847	-23.5567431578509	3.56056127805266	
2426333333.33335	-13.7039467303721	95.3268626581561	-61.2558839345378	129.760579308274	-71.6993556787887	-4.26820687142223	-23.4640876034645	2.19720814963826	
2426666666.66668	-13.6561691626649	94.9255445086587	-61.9777909264894	104.726614915151	-82.6485520990792	-5.27287407009617	-23.3276865023578	1.22944880592108	
2427000000.00001	-13.6102587571083	94.6193227534285	-61.9037063153217	109.855778777812	-77.9240300444734	124.72703269235	-23.2311453850087	0.109001090699273	
2427333333.33335	-13.5756143821571	94.1885796771628	-63.6777591731118	102.69571703846	-78.8476717786985	48.9159703839198	-23.1131804333427	-0.948379064095047	
2427666666.66668	-13.5376860067638	93.8446985793236	-63.5853050909078	95.091294779542	-73.7063264039127	-25.1099936141935	-23.0191217513628	-1.79761838513558	
2428000000.00001	-13.4965424270183	93.4931066282256	-63.7048050822569	87.2021236838419	-76.8933523842139	53.8532589000792	-22.8982193288338	-2.56300189665272	
2428333333.33335	-13.4555884412834	93.2129355600302	-66.5309703098829	87.1309410416757	-76.9890342238086	147.081415787044	-22.7991713458257	-3.26281145347039	
2428666666.66668	-13.4088951029292	92.8753069757954	-65.0737061594517	94.3480391520784	-93.5371178975491	19.4378883738239	-22.6698000004819	-3.90172430056905	
2429000000.00001	-13.3774835645659	92.5259770222446	-67.994001592616	96.4015418289661	-78.0088863598654	-28.0801243977976	-22.5579632686141	-4.49428875216172	
2429333333.33335	-13.3509801488608	92.2526085345664	-65.5989124398996	70.1923022382661	-78.7030548696382	97.2741013085796	-22.4332819225795	-4.79895592821832	
2429666666.66668	-13.30817974937	91.9582962202598	-63.9772166054944	80.5873977718931	-88.6431701847082	31.1356077090475	-22.3206628701769	-5.18201995078756	
2430000000.00001	-13.2895097268629	91.5940579274666	-64.3778127511171	84.0434936499727	-77.6046668213274	37.9265758051147	-22.1870819434807	-5.65462498823197	
2430333333.33335	-13.2604272823016	91.4342074107163	-63.4765855708661	67.3695403296357	-83.5694104599132	165.095799309808	-22.0541320492218	-5.91154732547682	
2430666666.66668	-13.2272723519696	91.0280418949957	-63.2493547587593	52.3182529387159	-79.2359760975225	81.2306980937566	-21.9274629063752	-6.1384996831578	
2431000000.00001	-13.2042985564991	90.7691519763329	-64.5154752143639	56.3385804225931	-85.3639802007219	49.9591981719184	-21.8075386002474	-6.35874332932181	
2431333333.33335	-13.1822618817814	90.4568885037864	-63.1381570365828	57.4907969197066	-76.6423978880844	45.2526028938263	-21.6676850157083	-6.61166522378089	
2431666666.66668	-13.1510643528866	90.3131018255446	-63.3276771977567	36.8563335658575	-99.5488304688424	-136.908860237966	-21.525336362867	-6.90525573587587	
2432000000.00002	-13.141641741847	90.0731769907524	-62.9456662337778	31.4841582778822	-93.0612966808476	133.61194592275	-21.3531276762044	-6.83533498378632	
2432333333.33335	-13.1203092998645	89.8405306050072	-63.6740596782547	34.9061460636416	-78.0381910102209	-52.9383178590352	-21.2155479641697	-6.94144581536742	
2432666666.66668	-13.1045363810936	89.6702538897007	-61.60113691087	18.6382363904958	-75.9321971098471	50.0681764193431	-21.0589232156041	-7.02242870034625	
2433000000.00002	-13.0952650700026	89.4662969798549	-61.0608044004871	13.7319525315514	-80.9446302192053	-148.899935370702	-20.9186482115846	-7.01150261743896	
2433333333.33335	-13.0764286657319	89.2064404965521	-60.8127235950656	4.48510442115287	-78.1382789366965	-25.6666030431692	-20.7719578243511	-7.13165968987589	
2433666666.66668	-13.0592303058273	89.0250492174027	-60.2242791496569	-6.12202456328477	-84.0247017435134	-103.051197195895	-20.6223670683887	-7.19170697476489	
2434000000.00002	-13.0476358800588	88.8118395075577	-60.4675793230052	4.50542944539531	-77.3824434262909	-13.1052808954514	-20.4715658198441	-7.29273741900218	
2434333333.33335	-13.0435156757634	88.56141477064	-62.4389483561021	-18.038240609275	-77.8698158732971	-90.6799428757058	-20.320764969596	-7.2826150130331	
2434666666.66668	-13.0299263495623	88.3294810478169	-60.6534898017697	-16.6217885373064	-77.2327346040176	-29.1192454645701	-20.1648578704108	-7.4356658732474	
2435000000.00002	-13.0108504673044	88.0030607545127	-60.5043387562398	-22.832901990262	-79.6123862111129	-72.2061897544905	-20.0188625791834	-7.61339589025027	
2435333333.33335	-13.0041692337727	87.8431162855182	-60.3624120866895	-26.8849378954337	-80.2456094522765	-57.6358067665035	-19.8643757947243	-7.51892821320919	
2435666666.66668	-13.0071771839246	87.5312533269	-59.1995258873347	-38.2606893067522	-89.138355347462	88.3470731395124	-19.7363697302751	-7.62140129803287	
2436000000.00002	-12.9852477034315	87.2615457846509	-59.3210826745386	-49.2024927560061	-79.4486445273353	-141.203664219812	-19.5908100650378	-7.77998209468721	
2436333333.33335	-12.984537516484	86.9464234958102	-57.6638365648798	-62.5266672277219	-76.0167937783151	113.401247749442	-19.4561182689483	-7.91803074926468	
2436666666.66668	-12.984482350211	86.75139153148	-58.4360736428719	-62.4735190092789	-78.2024778485258	-59.1751978967948	-19.3355727695854	-8.04781822851451	
2437000000.00002	-12.9817228446867	86.4158807861058	-55.9166425734086	-77.0655797893123	-90.8210656944909	29.9528782674154	-19.1997105559686	-8.23721206672675	
2437333333.33335	-12.9819459235166	86.1798702718161	-55.9389079272599	-87.6717162069851	-80.1247398884205	-109.717903016259	-19.0937467143872	-8.36472340072322	
2437666666.66668	-12.9675882884973	85.8213740034729	-55.0353938091936	-98.9870950605455	-88.0321481814964	-176.992661310905	-18.9907285712516	-8.62641531835664	
2438000000.00002	-12.9691387542396	85.4996159981834	-54.1936914036864	-108.338592442746	-78.4179962756768	-133.21694734391	-18.8703902311514	-8.8437607743353	
2438333333.33335	-12.9819140471991	85.1803584918172	-54.9940955889505	-119.548788241326	-82.8926157794778	27.838557075869	-18.7660272033259	-9.02389378351867	
2438666666.66669	-12.9827823812969	84.7951514318516	-53.6105542527916	-134.061934638654	-91.8494915624019	-86.8839716142185	-18.6775529452683	-9.26940837671672	
2439000000.00002	-12.9705566065495	84.4545482998622	-53.147199394492	-143.981446740484	-74.9871649646296	-120.572393987059	-18.5948602406413	-9.50427466718582	
2439333333.33335	-12.9787608900673	84.1273359816054	-53.1061666548564	-156.26602598362	-82.0856947479893	137.532024279447	-18.5141512278741	-9.72478285208845	
2439666666.66669	-12.9899579234958	83.7926369985987	-52.6899396777894	-165.850901433411	-81.472545594041	78.500963599401	-18.4258971940312	-9.93343884567931	
2440000000.00002	-12.9813865498312	83.4252278520001	-52.979977636445	-177.886527181959	-78.1392336599976	-133.604256990501	-18.3718655822142	-10.1072226477482	
2440333333.33335	-12.9900280919295	83.1222797078161	-52.4784778264283	168.619381024612	-79.8785902467188	33.1711264510929	-18.3138714661016	-10.3956415215135	
2440666666.66669	-13.0058124917638	82.7724753153185	-53.2539827087754	160.192791840268	-99.8773507613044	-123.267425814504	-18.2592971187189	-10.6992017260898	
2441000000.00002	-13.0176642501751	82.3274648765281	-53.2237376423038	151.88825379385	-77.1640860657245	62.7895942196522	-18.2105279488151	-10.9640224393003	
2441333333.33335	-13.0088047900799	81.884173025234	-52.2470280407902	133.279830903871	-76.6170431904165	17.8009595562967	-18.1819438343773	-11.1318669589816	
2441666666.66669	-13.0353396149709	81.5825643064896	-52.4369961184697	129.121400119816	-80.9255421112578	-34.3357120902588	-18.134572478228	-11.3294065611679	
2442000000.00002	-13.0404729957196	81.2501292378652	-52.4113985491363	121.915529928893	-73.770080077617	75.4518392657291	-18.1246212120576	-11.5324608128689	
2442333333.33335	-13.0492476772902	80.8350562731337	-52.277475023674	108.228461350318	-79.6880276906246	53.8906054182744	-18.1004269436332	-11.7396264506906	
2442666666.66669	-13.0790658338566	80.504843488206	-52.8359907502364	96.5890261863388	-73.5967885307294	58.2489310640579	-18.1036385385991	-11.94326428159	
2443000000.00002	-13.1212928579574	80.1514614597304	-53.0289254609834	90.4645060672795	-80.2157640040038	125.808875236875	-18.1082708617467	-12.1524058317206	
2443333333.33335	-13.1258484687916	79.8012150551002	-52.8538761009606	79.3339465268388	-77.6469113916389	-6.14230815889257	-18.1297785576655	-12.4143701380214	
2443666666.66669	-13.1512474998112	79.4542685342469	-53.1996360138756	68.2182709861761	-78.6305565086558	-39.2531195485561	-18.1505930158732	-12.4995439387129	
2444000000.00002	-13.182679331484	79.0231929962745	-53.1189182340942	62.6157371708889	-79.0800130282179	120.145446251288	-18.1624006760327	-12.6529343068719	
2444333333.33335	-13.215588824576	78.5489722675101	-52.9031062457284	52.304949349259	-76.3700571517637	67.5198152003886	-18.2132728618533	-12.5735321537414	
2444666666.66669	-13.2322188583324	78.1577083196975	-52.7338420399276	42.4740075176211	-87.3505815950824	90.939329815012	-18.2312142673924	-12.7942532351865	
2445000000.00002	-13.2598357623259	77.7702804823035	-53.1827637133901	33.4634671230085	-74.638113865062	40.1051386965398	-18.2958390422648	-12.8843856390039	
2445333333.33335	-13.307673541984	77.3026789349345	-52.740218222116	24.3733969973372	-93.3543170018164	-84.3832679655734	-18.3599910702768	-12.8063429612997	
2445666666.66669	-13.3235963173797	76.9097479017826	-53.4769887890427	18.3145038406377	-77.3444426957731	12.8785722888443	-18.4182406253675	-12.732794737599	
2446000000.00002	-13.3599616199397	76.4739162132473	-52.7585382465309	4.34570752609733	-74.9326068256905	85.4993820802801	-18.4945567249609	-12.7317195932482	
2446333333.33336	-13.3954056796695	76.0496005536038	-53.0557780991221	-0.408159016281367	-82.4290833618736	-135.845587866117	-18.5577328622115	-12.6112777593064	
2446666666.66669	-13.4295295652978	75.5353459034042	-53.5359100966847	-11.3251835592076	-76.0166050193281	46.1080213129841	-18.6447943801648	-12.469389876374	
2447000000.00002	-13.4578830269255	75.0430357938528	-52.8135480626626	-21.4914240639495	-82.8764277534407	-178.09146523672	-18.7350762870114	-12.2808423477522	
2447333333.33336	-13.5006932959887	74.6348375715436	-53.4429439562223	-30.2565133949161	-73.6951862377698	36.7759513697089	-18.8431508112836	-12.2078071427943	
2447666666.66669	-13.5159961865504	74.3075915313399	-52.5829750866605	-38.4120929605703	-84.4929279574616	158.839779577043	-18.9465912894491	-11.9250252881393	
2448000000.00002	-13.5507689761971	73.7626002136708	-53.2757898734559	-49.0500785260169	-79.1450688256809	67.5798734054301	-19.0422582021957	-11.622069580212	
2448333333.33336	-13.5915963162869	73.193748053853	-53.803617632955	-57.2963945189752	-72.3871156357069	-42.6903013328746	-19.1711581181354	-11.2141878439635	
2448666666.66669	-13.6371819263119	72.7553355454394	-52.6590347545135	-68.1934759311149	-85.187643764561	-165.609382655597	-19.2915438958471	-10.9541307728285	
2449000000.00002	-13.6703127881322	72.2500346302312	-52.9898517612982	-77.194425454016	-84.4275182361494	-125.813446513183	-19.4234782337595	-10.4000074815286	
2449333333.33336	-13.7125338999288	71.6913733059939	-53.1709350831067	-79.3007213547704	-75.1872892806377	-11.2242679064004	-19.5514474293692	-9.87827073043514	
2449666666.66669	-13.7466541640584	71.1826222069575	-52.4914481303236	-92.8719909918878	-75.3240791493413	149.400322351469	-19.6988409017285	-9.21029629301738	
2450000000.00002	-13.7739339418877	70.6442424912301	-53.056834850091	-102.150119848275	-77.4075250470626	-143.670669946664	-19.8378710709704	-8.55115657373241	
2450333333.33336	-13.8209355094703	70.1834093169512	-52.6207992508486	-112.046915975055	-82.4040572728924	105.440074614491	-19.9772399170352	-7.8339536390896	
2450666666.66669	-13.8631762611333	69.6526962917793	-52.5911636283496	-120.086665215894	-78.9569619249563	114.644646043776	-20.1204163395661	-7.03832351194957	
2451000000.00002	-13.8864837947901	69.083712346448	-52.5204853435753	-128.933520384102	-73.2800633842217	-115.897342252993	-20.2539782215493	-5.93544859868324	
2451333333.33336	-13.9192055391969	68.5726959635014	-52.0855137089738	-139.696731753823	-81.5095314547224	-108.122651869748	-20.4096074105633	-4.94239019448073	
2451666666.66669	-13.9310554919845	68.1425106949581	-52.3099976068908	-147.822647572127	-82.2625396450755	80.7998011910878	-20.5443946010103	-3.73648639100676	
2452000000.00002	-13.9722062117501	67.4889009456897	-52.2185949575609	-155.291601800344	-77.6827935039928	152.569862135595	-20.6627097860777	-2.57242807986846	
2452333333.33336	-13.9888403356876	66.8956407303392	-52.2288824377959	-163.859868216524	-76.6277704825673	111.999487119435	-20.773191350976	-1.28550592213965	
2452666666.66669	-14.0092563355988	66.4796559416166	-51.9531210846758	-174.781759608057	-93.0966256721761	174.313468225549	-20.8826667312892	0.00618689012220474	
2453000000.00003	-14.0304990953553	65.8703030276171	-52.4259829953505	174.970280964827	-75.5446667486598	-147.028387398778	-20.9853359521607	1.20276699753047	
2453333333.33336	-14.0398012324234	65.2918172487073	-51.4407432047026	167.171536254173	-73.4119312646102	169.127384687088	-21.0762285646045	2.89300905203306	
2453666666.66669	-14.0678718651418	64.8286891003164	-51.5592337400016	152.834590311096	-79.32027958561	-121.442248882194	-21.1483976917608	4.10165580974273	
2454000000.00003	-14.0796951987287	64.2413863350383	-51.7517540317561	145.717961634969	-76.4749223807065	122.578104840348	-21.227937898681	5.78189825625147	
2454333333.33336	-14.0939795532927	63.6836618856397	-52.5694027217893	132.442244910512	-78.561394372909	-47.6840312252617	-21.2694261006664	7.07832527949894	
2454666666.66669	-14.0990595228886	63.0968565160665	-51.5689845838438	126.717031089848	-74.8720542175185	79.5561020269638	-21.3278330781347	8.39723654761029	
2455000000.00003	-14.1047254109861	62.5455811068627	-52.5794957173783	114.620695522126	-77.348179987588	71.2872979511757	-21.3790255369689	9.88361319174951	
2455333333.33336	-14.10804588637	61.9309824432489	-52.5009471304078	103.20891446406	-79.4362880667452	-129.294439075242	-21.4184933878855	11.3325685913396	
2455666666.66669	-14.1174451727148	61.4586796223627	-52.625275927836	91.1564248699575	-85.5042610825196	-113.833551753773	-21.4548039281584	13.1006489072856	
2456000000.00003	-14.1085990694428	60.7958067642734	-53.1480471712788	85.8199320131569	-75.5534931845958	89.1268385245235	-21.4468052852	14.3517210870159	
2456333333.33336	-14.1037801055176	60.2176259380428	-53.5647937719215	71.2587229233101	-93.1872611337337	-26.7111116365848	-21.4409162197561	15.6838967698259	
2456666666.66669	-14.0931877491171	59.5155269721118	-53.5333439105202	62.2485071022065	-79.491444811887	-81.7337262074541	-21.4666678173405	17.0323217844986	
2457000000.00003	-14.0825215582251	59.0185287337421	-53.8271895417876	49.7830133421736	-81.8647478705883	-158.031263162677	-21.4281328351853	18.4021536648059	
2457333333.33336	-14.0612455385116	58.4088538959953	-54.1276578144615	44.4210324060612	-72.4632135098475	95.3504278972566	-21.411640968895	19.8337829590204	
2457666666.66669	-14.0498381866728	57.804766188443	-54.3966754033002	33.3328503724119	-85.238735530509	-163.382208816291	-21.3718523946338	21.1001152702267	
2458000000.00003	-14.0236563972466	57.2442128587034	-56.6341096768783	24.7645754035621	-81.2426533249919	-158.664608567671	-21.3019139063292	22.3326310675583	
2458333333.33336	-14.006224436232	56.5966515346406	-55.9353871218287	21.4732910218825	-76.5079750247278	124.305356850868	-21.272340896887	23.4945567297688	
2458666666.66669	-13.9753341177402	56.0161933841921	-56.1506389730718	9.57671754637298	-73.9771487950829	-101.945418955088	-21.2013337507737	24.6136624350478	
2459000000.00003	-13.9536107608902	55.4403349159768	-57.1005637811155	1.85964158047947	-76.4551553729964	101.345731561751	-21.1566866883443	25.5932903347056	
2459333333.33336	-13.9261048256284	54.8557073640769	-57.2598978617686	-6.40674918576871	-76.1665251527012	155.558484229832	-21.0716142360935	26.623577626406	
2459666666.6667	-13.8985250690622	54.2467586594569	-57.981704277202	-12.398230795944	-84.9526914791962	-78.7522579006048	-21.0343242522119	27.3994599553809	
2460000000.00003	-13.8661696043673	53.6877367789238	-58.7209068204141	-26.5386509990692	-76.026397454396	24.2252688433484	-20.9392276973405	28.254505875422	
2460333333.33336	-13.8204147668611	53.0930413216726	-58.4900195482342	-24.9270570876443	-82.8742742946622	152.198253080003	-20.8647351524345	28.9355835307679	
2460666666.6667	-13.7941595342397	52.5324050731405	-59.4538167439284	-26.1226434729845	-87.328275798721	176.88326717972	-20.779613244381	29.413093182628	
2461000000.00003	-13.7519473800468	51.8888247717341	-58.2409629319392	-34.9569422283482	-83.9908172945435	63.5538285130178	-20.6751954516322	30.0584671584434	
2461333333.33336	-13.7059609898278	51.3223398611261	-59.1343312096851	-42.3313845560912	-76.4923651992841	-113.108553042343	-20.6210996735721	30.3875219438333	
2461666666.6667	-13.6680375026288	50.73484047183	-58.5772878319688	-51.1911318905765	-93.8440748462061	-54.1556927320158	-20.5574282167515	30.7849412506038	
2462000000.00003	-13.6216254818824	50.1367013848936	-57.9737266566426	-65.1301265154908	-73.3447302569489	-134.147611290247	-20.5003003523529	31.1345779664354	
2462333333.33336	-13.5783873034072	49.551105802779	-58.6669638437434	-63.6721831814697	-76.5802829247672	-106.015375888786	-20.4456245495786	31.2827286359986	
2462666666.6667	-13.5221913118851	48.9749869656177	-57.901607823276	-71.4952559818752	-83.9533417524312	144.409916927236	-20.4038879214924	31.4681429248984	
2463000000.00003	-13.4684492736447	48.4361220966087	-58.3258122231568	-74.8970020904302	-85.7739838556592	-53.0888265091108	-20.3769517716999	31.4502580909076	
2463333333.33336	-13.4215094411615	47.8893433877989	-58.1903136283333	-80.8837959983277	-80.131486441417	-139.253872585929	-20.3303372179848	31.4787752376507	
2463666666.6667	-13.372045542007	47.2990110813441	-58.50297706747	-91.4008338226351	-81.8991815032563	73.5991459841552	-20.3295442685993	31.2973911083637	
2464000000.00003	-13.3184555983949	46.7216519162337	-58.1457710007247	-94.9422872196277	-85.0159842196366	43.4637710356367	-20.312159093776	31.3978471832351	
2464333333.33336	-13.2637204274959	46.219575583505	-58.5466445214542	-97.6738561208071	-84.4037651868748	-6.52221143308542	-20.2974111479983	31.3206875783059	
2464666666.6667	-13.208973818448	45.660051752038	-58.6906522719737	-118.944201801689	-94.701424822469	-109.936803032205	-20.2970172954958	31.0171113641809	
2465000000.00003	-13.1602860997267	45.1200745977405	-58.6487246342736	-133.636809555369	-81.0058092566651	23.1013708399763	-20.2876934021175	30.81690140486	
2465333333.33336	-13.1014450063042	44.5829440782112	-58.8826521948074	-127.053120753291	-75.7124611222913	-105.296084603672	-20.3197639306664	30.7091728471924	
2465666666.6667	-13.0445350395046	44.0905318256612	-60.9569176118222	-143.025545026674	-83.6654792290028	147.225625109235	-20.3420047886228	30.4790635159129	
2466000000.00003	-12.9876739971124	43.5517220654646	-59.8321689857774	-139.442952661996	-80.9253105357985	-51.2585516877257	-20.3544752152881	30.3544424192513	
2466333333.33336	-12.9338415181742	43.0273580077335	-59.6251970387699	-156.033545932836	-75.6510992023571	136.758200606902	-20.3670892748847	29.9713136418415	
2466666666.6667	-12.8804448669424	42.5880940149491	-60.1864370316423	-152.51684661287	-77.5150262279244	62.0883200214444	-20.415091908087	29.6740208349308	
2467000000.00003	-12.8220391281279	42.1233826646096	-59.9462782748777	-164.167036830493	-78.2985167739318	-96.4590131487704	-20.4363887790613	29.3554043762111	
2467333333.33337	-12.7710014708984	41.6338155986795	-61.0041431159926	-160.918748319356	-78.6289050755546	-46.2416506550098	-20.5049283165309	28.9867257459833	
2467666666.6667	-12.7109130840289	41.1727606957128	-60.9527574960129	-171.810347902435	-81.573094673136	156.912081970631	-20.5558519397302	28.748618876632	
2468000000.00003	-12.6580872232807	40.7127336844154	-60.2217124409797	-175.891549518955	-87.9157392232208	77.8300562066326	-20.5703975307771	28.3595457771184	
2468333333.33337	-12.5988657708083	40.3092348787175	-60.0407709584896	164.986821438224	-82.1882852771997	155.003728655603	-20.6270493476608	27.8597568612973	
2468666666.6667	-12.5461074023205	39.8643568536113	-59.9011269330997	170.490407513504	-81.7662178024034	9.32945056757119	-20.669113679147	27.4170626153928	
2469000000.00003	-12.4919988246604	39.4318818382431	-59.9316588165209	159.283740467549	-78.9155395189673	-95.3432570807339	-20.7128975710649	26.8186592233651	
2469333333.33337	-12.4329593998879	39.0416969683262	-58.4961254984237	154.363577556424	-83.8970380502757	118.171360579052	-20.7591692880669	26.3652965627789	
2469666666.6667	-12.3853073306706	38.6691068143269	-60.0532247528109	144.173365954578	-77.0519108958309	-167.675944177899	-20.8231342367104	25.8526266808013	
2470000000.00003	-12.3294395580421	38.2280343336612	-59.4522250576196	133.252853719246	-80.9400506392867	-154.089664244851	-20.8732743624154	25.2648033391399	
2470333333.33337	-12.2793706551205	37.8683620489452	-58.8979516287044	124.900221018327	-75.4308348820738	-128.922370561159	-20.9307806171258	24.7015821606603	
2470666666.6667	-12.2258273957458	37.4808489860757	-60.2586979563839	118.792180437263	-80.2646595732249	144.988593695924	-20.982936523415	23.9933670535336	
2471000000.00003	-12.1728349796876	37.1437669156488	-58.1230862945133	110.888131479077	-82.1622406497049	78.6734862773044	-21.0460126371004	23.1762114150173	
2471333333.33337	-12.1214133974888	36.7380692910801	-58.0234977843045	95.9365055318084	-75.726744599527	-75.3415375806247	-21.1130259107501	22.6215109876499	
2471666666.6667	-12.0705030543607	36.4206015217578	-58.2119961625305	83.416381421423	-83.205197526961	105.131526269229	-21.1712418500808	21.924018378316	
2472000000.00003	-12.0167515620651	36.0900729483453	-58.7820865392671	69.3911004428452	-81.3338510901824	-40.3775433473514	-21.2339571285993	21.0874084309808	
2472333333.33337	-11.9600862681973	35.7850083024442	-60.3177616533498	68.8974377187016	-80.0615183623357	105.507315788052	-21.3241573454298	20.2374489911779	
2472666666.6667	-11.9099383043335	35.4774617889438	-59.133504198042	46.249974967089	-80.3177138630639	15.3197417177959	-21.3878787507876	19.4438313664824	
2473000000.00003	-11.8534991786824	35.1958355576264	-58.843671922542	42.8758816394449	-75.9852371314146	70.0245527943803	-21.4495481914295	18.7086337890023	
2473333333.33337	-11.7991421317736	34.9126093420838	-59.6515603936748	31.7555742374367	-87.6614619097274	-0.296839181001451	-21.5391402533645	17.7419783810554	
2473666666.6667	-11.7469500847733	34.6674778614802	-60.3939790722633	17.3633884523271	-71.9511790820478	-8.8135705761239	-21.606195131981	16.7786324549263	
2474000000.00004	-11.6977036844871	34.3292525350305	-61.025335709782	23.670823903912	-87.2443631460035	-63.2807769239387	-21.6758329434921	15.9367191843906	
2474333333.33337	-11.6420296181825	34.1321354096497	-60.2008000880653	2.87471154751234	-85.5255969374268	-10.0239683269501	-21.7406794551639	14.9743830446937	
2474666666.6667	-11.5978191874446	33.865874950479	-59.780979557068	0.232210770907323	-77.2240272461498	-54.6183369039584	-21.8069642541471	13.9620617910073	
2475000000.00004	-11.5480597756833	33.6199114228932	-61.2567673555895	-9.07754292188555	-74.3948347172694	-145.185501261712	-21.8699583120475	13.0098331702203	
2475333333.33337	-11.5002922892252	33.328716093252	-59.7686815697156	-20.5048236958097	-77.5292829376235	-90.369198436784	-21.9072308897643	12.0704758006932	
2475666666.6667	-11.4585784839499	33.0383505820226	-60.9600456510965	-28.7842407633649	-76.6865971256342	-43.8066003359744	-21.9457397942758	11.1329269425883	
2476000000.00004	-11.4140848545856	32.8402536767318	-63.6302167956006	-21.2582787405159	-79.32273044502	-79.8727874184176	-21.9905328969779	10.0062890969914	
2476333333.33337	-11.3669044846312	32.5385858720918	-63.6865407049261	-50.5967605272406	-77.5512037629378	62.1522129558649	-22.0145251240015	8.97106868224205	
2476666666.6667	-11.3246085538904	32.2690807412529	-63.5696094323472	-46.2120317616597	-91.1133317758605	73.961585209425	-22.0412565546148	7.90353782553456	
2477000000.00004	-11.2782678913503	31.9820086410424	-64.9277345536926	-73.1434209558508	-75.2248430649211	176.348761500724	-22.0789977334835	6.71360700736427	
2477333333.33337	-11.2331592928566	31.7424751077433	-64.5440913607218	-90.051973896838	-79.1992608704866	27.5865297569422	-22.0866946736474	5.75688845804942	
2477666666.6667	-11.2011458922138	31.4710048186063	-68.9493793469546	-101.846777441696	-75.6808690343544	141.701239765029	-22.0705215073607	4.50219998988766	
2478000000.00004	-11.155382377108	31.1777030248492	-69.8913807934331	-85.3242400938599	-78.3834308522695	0.651736159744658	-22.0958125674282	3.41129013081805	
2478333333.33337	-11.1126434954776	30.9333524064481	-70.2482137944697	-57.3694694530941	-74.6561583375903	-64.8117086238798	-22.0718492077382	2.13193533052159	
2478666666.6667	-11.0730760487822	30.6160971475271	-76.1354465349403	-141.572083455411	-88.7736451988	-61.3544423745545	-22.0556080726461	1.09351735606341	
2479000000.00004	-11.031393545348	30.3945048366555	-85.7274864673698	-25.6118311101843	-75.4254558363959	-35.0581718759112	-22.0559219337445	-0.195143491882015	
2479333333.33337	-10.9944458728609	30.0827751275033	-79.8954634609175	6.23371954089262	-80.5338473835274	-78.9473264658605	-22.0133745514057	-1.43548694274092	
2479666666.6667	-10.9620862146926	29.7986114334826	-74.8420277114963	14.9345674891989	-92.4283770995498	147.905838917597	-21.9982832500247	-2.65266457966935	
2480000000.00004	-10.9293722434013	29.4725594227552	-75.3575243017098	-9.83548048360662	-77.3518814781119	-173.731409231794	-21.9588192414159	-3.92796733815831	
2480333333.33337	-10.8958237400905	29.181714507011	-73.8710679267353	-18.1375327072953	-80.4786431403834	-130.495336214104	-21.9196493626442	-5.07070736684689	
2480666666.66671	-10.8650611293128	28.9122722240123	-68.4967174676857	-8.87764144810902	-82.952889863966	-105.191123314617	-21.8766878813968	-6.23536412483684	
2481000000.00004	-10.8348969094078	28.5461847691081	-73.5039841459387	-43.0892326608711	-76.3649940753934	-175.846126082462	-21.8037088870163	-7.55870397545502	
2481333333.33337	-10.8014488075633	28.2774916026298	-66.1201270467535	-34.8987554872621	-78.6954312119262	-108.687091687865	-21.7395204295049	-8.7559954895081	
2481666666.66671	-10.7748185729162	27.8788287946566	-64.7904099108893	-44.5244725055768	-82.1480181643588	78.7434999382004	-21.6752637809614	-9.97903042832733	
2482000000.00004	-10.7572262473273	27.5841107453209	-65.9026744111551	-47.5383021720226	-85.1528446775762	-2.81299036767057	-21.6132671111705	-11.1992710736987	
2482333333.33337	-10.7410589831116	27.1764259729285	-62.256889893019	-53.2540546508533	-81.1745389183768	-126.932655697033	-21.5299911864278	-12.3724160774526	
2482666666.66671	-10.7211864908395	26.926268258894	-63.6075094502118	-56.6014793335733	-75.275888906852	-95.1854661977128	-21.4477481777459	-13.4408115706656	
2483000000.00004	-10.7043668939228	26.5013290995498	-63.7133572820311	-72.9337449330614	-82.670928452109	-59.0590411756985	-21.3692342340456	-14.5902775810127	
2483333333.33337	-10.6788074310336	26.2180895029769	-62.0603689475745	-85.8975145409315	-81.8090132409946	-53.5026294531974	-21.2893110865796	-15.7241482223295	
2483666666.66671	-10.6730659835411	25.8312020086088	-61.1441742824125	-84.5767025608457	-73.0569385190528	-120.645209596916	-21.2077176152984	-16.7273663277533	
2484000000.00004	-10.6532702468738	25.4075198971561	-60.7755270428334	-107.658495029271	-79.4350820029573	-86.3302055256295	-21.1033111171394	-17.9422909395019	
2484333333.33337	-10.6414217911326	25.0607140687588	-59.3896768807235	-106.390907814483	-75.7340681692124	-139.075126955047	-20.9989348140875	-18.9074672778423	
2484666666.66671	-10.6295679695019	24.6871138132179	-57.6653040262965	-122.685662587819	-77.2436428328973	-106.293731022704	-20.894544066832	-20.005289943612	
2485000000.00004	-10.6219707305233	24.3266522038423	-57.7508854183391	-128.957001854287	-77.8359667988968	3.00317257136007	-20.8111048223675	-20.9414042645119	
2485333333.33337	-10.6085170314277	24.0141503940371	-57.9846832157453	-139.212346279388	-85.9902528158074	98.0662833394652	-20.7053353308009	-21.946046315436	
2485666666.66671	-10.6098385606054	23.6017839225793	-57.4089003307916	-149.353769046709	-77.5612111103033	-4.72089848150988	-20.5920392715728	-22.9032315522549	
2486000000.00004	-10.6102586721258	23.2054970895341	-57.2623173676419	-159.312508801762	-77.4586612354668	-110.857582485046	-20.4923110038476	-23.7796423729616	
2486333333.33337	-10.6032994914049	22.8270595788027	-57.0074321984827	-170.615520022646	-76.3611503152316	-4.12734235423111	-20.3890595057741	-24.7760753602907	
2486666666.66671	-10.6056072981455	22.4244229511296	-57.1954846307188	-175.963117959115	-79.6538996668913	-75.1179602448576	-20.2783669631362	-25.7087102011936	
2487000000.00004	-10.6094306999267	21.9590179305552	-55.7645583444965	171.815190109836	-80.8256066226912	146.83535529006	-20.1859927549111	-26.612583665489	
2487333333.33337	-10.6146978525294	21.5521321805779	-55.9222482306162	162.32317825261	-80.4147471495082	-32.2018356614402	-20.0766131921444	-27.5026396838466	
2487666666.66671	-10.6169467175725	21.0931134142649	-55.035755508223	149.811860603902	-74.9411319160447	-57.5103302132731	-19.9903235263102	-28.277747699275	
2488000000.00004	-10.6243255808387	20.688842073778	-55.1910665259503	147.168784865946	-79.5704410685769	-108.743550868218	-19.9088476917047	-29.188296055786	
2488333333.33338	-10.6325045287643	20.265930355945	-55.6589374882625	137.06808788032	-86.1535232511836	10.085578918746	-19.8165792130391	-29.9763220707824	
2488666666.66671	-10.6569636722555	19.8578690866403	-54.5594248958412	122.481235244981	-83.0519973242793	130.952472009821	-19.7323449786128	-30.8807864162135	
2489000000.00004	-10.6615098244054	19.3528139280594	-55.5690936965193	110.775562648774	-79.3524525553665	9.41538787734194	-19.6506980924621	-31.6481564015541	
2489333333.33338	-10.6835142198683	18.8454714807015	-54.7692712947879	103.624367455819	-78.3544405153613	156.60965963686	-19.5907740501303	-32.3765167360036	
2489666666.66671	-10.7005649681337	18.3507197037238	-54.8589560600399	89.6326883975899	-87.2218142454855	19.3625826098555	-19.5235595356697	-33.0736918122914	
2490000000.00004	-10.7132706003001	17.8700468164976	-54.92052479111	86.7604131149273	-76.3346871271752	35.3488225575748	-19.4433165269505	-33.8104540942751	
2490333333.33338	-10.7542804200096	17.3582393448796	-54.2166636659132	78.7733453748703	-91.2633647050056	50.5898321059308	-19.3952181729083	-34.4429297831189	
2490666666.66671	-10.7774962406369	16.8338232077311	-54.2708525725165	67.1096578647199	-74.6709583672453	41.2988156522641	-19.3461173680538	-34.9604562808039	
2491000000.00004	-10.7884290383719	16.3778151591707	-54.1381739789139	61.4500308285568	-73.464893296936	9.75438239265342	-19.3071832360862	-35.6732171674598	
2491333333.33338	-10.8282646459375	15.8578011814351	-54.1006977607181	54.9080894108962	-78.2007811230281	-5.00584099448662	-19.2513739482208	-36.1584356339555	
2491666666.66671	-10.8527765794249	15.3632047098737	-54.3719040821115	36.8353477530685	-77.9045015141968	-10.5861106751035	-19.2036960070312	-36.7149855555349	
2492000000.00004	-10.8998044208969	14.7716491554842	-54.67875384375	25.3329291382214	-79.0173256717003	117.959523793951	-19.1600973997296	-37.1299602886553	
2492333333.33338	-10.9207360601109	14.2254460234231	-53.7990073611841	25.0110228575572	-83.3589013269996	77.3757105400751	-19.1350291612132	-37.5286064483099	
2492666666.66671	-10.9645877731538	13.7118805772658	-54.3282903389453	19.1090634865375	-84.1087769514104	42.5704868074664	-19.091081745939	-37.9199255091916	
2493000000.00004	-11.0148008047849	13.1234186462381	-53.7556213080164	11.2446086309781	-74.2325216987101	-14.4947770256343	-19.0806329516651	-38.3783979446727	
2493333333.33338	-11.0455731190959	12.6415748764571	-54.5787908227202	-1.07485821207099	-78.4735489109418	-34.9962547434084	-19.0513697932276	-38.6395507313389	
2493666666.66671	-11.0926160886489	12.0390658532206	-53.992190807204	-7.49612788226406	-87.4304196900121	-76.2353446944965	-19.0227159199997	-38.8818736600964	
2494000000.00004	-11.1145205772238	11.5562914389528	-53.4118493623069	-15.4913240272083	-81.2264142210468	55.5925795409442	-19.026139083808	-39.2436219830567	
2494333333.33338	-11.1704334880685	10.8989911479627	-53.9543271183055	-25.3370270237422	-89.1525401775219	-66.7282681088307	-19.0036836055459	-39.4363193499581	
2494666666.66671	-11.2144215761652	10.319595757141	-53.566516948413	-35.8363579249439	-77.2223391940644	-9.92941136165148	-18.9973008291404	-39.619881335119	
2495000000.00005	-11.2609951709326	9.74755556971314	-53.8253763790556	-45.8853570855405	-80.4255604915974	-16.7827532655817	-19.002770540188	-39.8660520256773	
2495333333.33338	-11.2956655632684	9.12709850697343	-53.8922152728367	-50.3637898373897	-83.644408117399	-176.324954611791	-19.0086051963553	-39.9666962263254	
2495666666.66671	-11.3436276263331	8.5675049832776	-53.8173035753103	-68.0637357027069	-78.7994433242587	81.7745298519127	-18.9925637797662	-40.1368439381107	
2496000000.00005	-11.3882320072665	7.97021471812856	-53.5972284235425	-71.4183100747497	-81.0929791995099	-45.4271311860179	-19.0144906471774	-40.2833340795486	
2496333333.33338	-11.4387770127701	7.39035969925067	-54.3603280585119	-77.0708915688237	-83.1307025421774	95.0386194272128	-19.0255215901001	-40.3482796522185	
2496666666.66671	-11.4878833496285	6.75446627711862	-54.5211711807839	-87.1667718587936	-84.3173200048861	55.0228625383254	-19.0493647566904	-40.4804390322903	
2497000000.00005	-11.5207957397222	6.1544633614837	-53.9813463370245	-93.3181923122743	-94.5184726498941	-159.011009151058	-19.0714829847017	-40.5515593729807	
2497333333.33338	-11.5658546502206	5.58499283627368	-53.3001630190725	-100.691465941357	-78.8437269399457	-83.6985663381257	-19.0999679915558	-40.5548228056643	
2497666666.66671	-11.6202875365801	4.91367578361179	-54.1032165629874	-113.260368843608	-79.0041660806799	-64.9581865682198	-19.1391062805098	-40.6172615506951	
2498000000.00005	-11.6654146113112	4.25978586156508	-53.9462253793444	-120.822642363447	-73.3625577325847	-117.292443242183	-19.1708770684013	-40.5942983195441	
2498333333.33338	-11.7130415331836	3.64658901632725	-54.2786332507854	-134.280024186318	-77.6258390080379	143.212686179558	-19.1865018807033	-40.6000821962892	
2498666666.66671	-11.7467070756859	3.09294601646695	-54.0768180579012	-137.748780229808	-71.8975888950679	-102.611414933627	-19.2623458180584	-40.4364896271395	
2499000000.00005	-11.7915954468358	2.47291485806277	-54.5822401046468	-147.533991383558	-85.5020478051512	-15.1089475500087	-19.3023019616643	-40.4165384050236	
2499333333.33338	-11.8375825527823	1.78139911093333	-54.0309951132821	-148.752559234614	-79.2838994942174	-34.6992747176685	-19.3625504347046	-40.4010524740933	
2499666666.66671	-11.878555184347	1.15088031973692	-54.1787361108609	-163.166154717406	-75.9703882567962	121.726665014079	-19.4372505683523	-40.2522576346904	
2500000000.00005	-11.9144539645363	0.488993575124981	-54.4848860509324	-172.130011681273	-72.5691624939854	-156.495889092262	-19.5070828388056	-40.0048551088205	
2500333333.33338	-11.9520887269287	-0.152521592646584	-54.1812065895106	-177.517415199576	-78.6638627936443	37.6637543558407	-19.5905335496552	-39.8937612401289	
2500666666.66671	-12.0051250472084	-0.767574773921906	-53.4109813751646	172.169167462435	-112.943314921652	144.897761431229	-19.6497538350703	-39.733008498789	
2501000000.00005	-12.0406773779742	-1.41201271388479	-53.7013564320446	165.573378124131	-82.38929033435	-75.0036449278769	-19.7392492903829	-39.4682362064718	
2501333333.33338	-12.0716259636343	-2.16558901528767	-54.1566805577381	158.985143472404	-82.8488170026067	17.4587788233206	-19.8462225474838	-39.0482811188997	
2501666666.66672	-12.1056645496496	-2.73637714357174	-54.0132903150557	149.351621347926	-83.9674901588978	68.8079218446694	-19.9222103131942	-38.7542734391018	
2502000000.00005	-12.1486952459064	-3.53590707336454	-54.1811285168729	137.099528915437	-80.8846926848248	61.8938569233409	-20.0335102053626	-38.3374478707583	
2502333333.33338	-12.1878392711647	-4.19279580330751	-53.6014642781627	132.330465236654	-73.1645771778322	129.062991972138	-20.1247358763871	-37.9078024060108	
2502666666.66672	-12.2185247570057	-4.91841704977849	-54.4012242926329	128.092675939374	-77.7326050952366	-15.3971898126386	-20.2494537385993	-37.4330423053929	
2503000000.00005	-12.2565928173619	-5.65862584345989	-53.7630157058324	121.379873487951	-83.024455342119	75.8529165992825	-20.3653757508591	-36.7975219771217	
2503333333.33338	-12.287606265352	-6.4273594714649	-53.8011841606168	110.409682500318	-80.7789287713352	155.554408238835	-20.5046168359073	-36.097863246237	
2503666666.66672	-12.3214085744853	-7.14795247433249	-53.4996272039126	104.23049185121	-84.3765090300916	-167.089694791013	-20.6332715134896	-35.4654083519991	
2504000000.00005	-12.347343529794	-7.91343483522912	-53.7274848906497	92.6090075305605	-75.489786166965	58.2760146715291	-20.7539205690078	-34.9985071973639	
2504333333.33338	-12.372909059015	-8.7199855729681	-53.7300847089396	82.9057153376352	-85.9665365422379	101.748018825958	-20.8869583048505	-34.1584409404252	
2504666666.66672	-12.4007036259483	-9.48518708247334	-54.384166916441	78.8191047551331	-85.171160092161	72.9423560932407	-21.0457969461972	-33.2177747441654	
2505000000.00005	-12.4237440306043	-10.2785343934999	-53.6953672340873	72.1925476128535	-81.1781839463559	-149.589131779513	-21.1955227008317	-32.4574589218638	
2505333333.33338	-12.4409952874188	-11.0455450910528	-54.5511044961664	58.2608621587935	-80.7828671339444	97.4139758277417	-21.3263747278125	-31.6476044718944	
2505666666.66672	-12.4555193763661	-11.8333560418707	-53.4190802823075	56.242612153681	-77.0714493518288	43.4807561800836	-21.4970568151668	-30.4863996050961	
2506000000.00005	-12.4817710751516	-12.583498102668	-54.5461257354382	40.1754118149798	-82.6974032388982	137.366883042156	-21.6518955490781	-29.4926330440381	
2506333333.33338	-12.4960897086308	-13.4035628143601	-53.4544147608065	37.3926434747279	-81.5138821435067	56.8790652745943	-21.8292785099202	-28.2422605365762	
2506666666.66672	-12.508782042507	-14.1801447751535	-54.1369167485183	32.4535390385332	-86.1660868539714	59.0425281701005	-22.0131169050628	-26.9915122978779	
2507000000.00005	-12.5296227277145	-14.9899794317621	-54.3754491301769	19.0443363321329	-87.527694091549	9.25130026670332	-22.1498861652789	-25.4254031878652	
2507333333.33338	-12.5337938251937	-15.7943318824265	-54.0791605372373	17.2419376924623	-86.9347055992534	-18.4428061282082	-22.2950501808044	-23.9816693569152	
2507666666.66672	-12.5452351487872	-16.5538460611312	-53.6978769808211	4.24097454748612	-88.0924160261497	-17.2698617985321	-22.4717606974127	-22.3591821197736	
2508000000.00005	-12.5554829955333	-17.448345985867	-54.1063572127523	-8.56427301282832	-78.4005025710195	139.262000968699	-22.6423952110922	-20.6088339731617	
2508333333.33338	-12.5670039043889	-18.3422081376805	-54.1644630571083	-15.5765664892756	-78.3010221532079	33.9767710603983	-22.7444572466164	-18.6035042392301	
2508666666.66672	-12.5713836677355	-19.199618662174	-54.4136593036592	-23.3178400523913	-77.5910193581082	139.231808945214	-22.8824711227777	-16.589603895455	
2509000000.00005	-12.5808114441335	-20.0251925213483	-54.0401694752944	-31.1257998447044	-86.1836985723766	169.58883012484	-22.9799211905401	-14.3366436776919	
2509333333.33339	-12.5822043024286	-20.8976956572111	-54.3727066904733	-34.1371668359134	-83.1826686329912	-156.757511386712	-23.0707646691549	-12.2456216265864	
2509666666.66672	-12.5870265512705	-21.7100206425719	-53.9295601305737	-44.7428734913296	-88.4163440737607	64.0126156976424	-23.1672380030912	-10.0380202306028	
2510000000.00005	-12.5897746894976	-22.5499075522586	-55.1343702440631	-58.0923019580811	-79.5175532170075	121.501195115843	-23.1898444914449	-7.85189987289144	
2510333333.33339	-12.587447792773	-23.3949703917989	-54.3680419047597	-65.188882617011	-87.3583108719299	-174.382253233129	-23.2482267150859	-5.42048559246222	
2510666666.66672	-12.5871981093927	-24.2173791898933	-54.3584975322647	-78.1857008398064	-78.2964989290985	20.6253405885706	-23.2430000445454	-3.11433026735737	
2511000000.00005	-12.5795518928642	-25.0182657264083	-54.2890578997589	-76.035137918512	-73.6876226745087	-79.4660208828485	-23.2513760082825	-0.785527652768699	
2511333333.33339	-12.5845387199109	-25.8563962705919	-53.9826428729723	-92.1890606101395	-85.884375339616	16.2713499959211	-23.2592649149826	1.60637880658223	
2511666666.66672	-12.5787180401658	-26.6236937904045	-53.8957145210076	-95.2064537977747	-81.7005208457231	-71.5706557332876	-23.1759216621343	4.01008586036968	
2512000000.00005	-12.5680253954303	-27.4419660179516	-54.3119199084567	-106.271728509282	-78.3646402452366	-116.735336089082	-23.129475507809	6.17962605163899	
2512333333.33339	-12.5623047090083	-28.2299139983949	-54.5323803176191	-120.943564344572	-78.7532280276577	-14.3188639291738	-23.0132874422978	8.44066210711665	
2512666666.66672	-12.5586901382885	-29.0031970462698	-55.3830186996081	-126.63048948789	-73.080248290031	-164.660340647556	-22.9404920016801	10.8191404629397	
2513000000.00005	-12.5482638520192	-29.8134049949032	-55.6294627341966	-132.406044581701	-79.6961186912902	-29.0391639311159	-22.8319359548733	12.8441063862957	
2513333333.33339	-12.5368026146662	-30.5238325978822	-56.1872552573096	-146.687614017422	-78.0507182514551	-148.559508358134	-22.6764278681213	14.8380992228478	
2513666666.66672	-12.5227749416441	-31.2621864218102	-55.2004615854776	-155.276005067003	-76.9476088384701	120.579552856578	-22.4998450066546	16.7595637278134	
2514000000.00005	-12.5249629830297	-32.0182129055887	-55.2319721869089	-163.242562223759	-83.8710836637979	164.110399693634	-22.3890333793663	18.6413678939279	
2514333333.33339	-12.514212572908	-32.8111616218953	-55.7123895731512	-169.718114746892	-83.6158621256059	-167.65977761048	-22.1614768350418	20.0976587445347	
2514666666.66672	-12.5012624020462	-33.5528196513686	-58.2841099765978	178.558165610103	-78.1650590412534	164.85026041945	-21.9793898774695	21.7835623918384	
2515000000.00005	-12.4918566122555	-34.2899273319574	-56.3346724683717	-178.455544699943	-72.8554388950776	65.0856514928005	-21.8076826157807	23.275115420603	
2515333333.33339	-12.4820598436646	-35.0361064307873	-56.2648287497058	178.015463828163	-78.9856129993846	-137.889350024171	-21.6116910698777	24.55115285263	
2515666666.66672	-12.4809318735245	-35.7173902291401	-56.4056345265095	165.687537570403	-78.872560455654	96.7961063615483	-21.3949451005031	25.7127444973456	
2516000000.00006	-12.4649405544781	-36.4510899779955	-57.3058866419067	162.324007312766	-90.8111499124044	-51.8037713760871	-21.1922333932611	26.7623298137944	
2516333333.33339	-12.4510432737196	-37.1150667730807	-56.5029880847409	156.707929500236	-77.0207169071602	-146.052434195015	-20.9793438910514	27.6615237674631	
2516666666.66672	-12.4483077774167	-37.7977419161915	-57.3262736816483	144.957670248248	-80.4282617153313	97.8222212716092	-20.784906038582	28.2707961735994	
2517000000.00006	-12.4378388297238	-38.4002042348219	-56.0858239984815	143.683047806714	-75.7938374085648	-98.000284629433	-20.5916395650065	29.1477034992625	
2517333333.33339	-12.4355440001392	-39.0164647812897	-57.6670349505538	138.252446637729	-75.6885789180138	-139.868799550361	-20.4079298923626	29.7279725856504	
2517666666.66672	-12.4335362604934	-39.6548998234639	-56.9967527108845	127.752225739035	-90.0495066578077	17.2231428973313	-20.2427083737675	29.8753651207243	
2518000000.00006	-12.4227742641977	-40.2743257747183	-56.4663699751414	117.637294958511	-79.327972165985	111.989216032382	-20.0595237420885	30.2284711076425	
2518333333.33339	-12.4220293776914	-40.8370654328932	-56.0390573605314	113.230848156859	-79.8900448974898	153.966547620043	-19.9061488621564	30.4933265569215	
2518666666.66672	-12.4175637034727	-41.4084930931241	-56.0660740929918	106.088122089494	-81.6210842801741	-106.233160185591	-19.730078790067	30.6288368400851	
2519000000.00006	-12.4156293373312	-41.8861722393784	-57.1187596341276	91.725604280402	-77.8379144052147	161.952536753453	-19.5841390890079	30.7385548481701	
2519333333.33339	-12.4172665655183	-42.4804746674454	-57.6605512178297	84.519299470917	-88.2084876695407	115.118392806772	-19.4738751014362	30.744757672867	
2519666666.66672	-12.4126761164948	-42.9673216534826	-57.0425514284822	73.8950172301627	-82.4956447137648	-69.1886499916935	-19.3599551065439	30.8028428927506	
2520000000.00006	-12.4118825021147	-43.5274908728455	-56.4080187819116	66.0343472820265	-77.832999649873	58.7417103352537	-19.243379662858	30.4969422322606	
2520333333.33339	-12.4086983966345	-43.9116040468031	-57.5621245386377	51.8483243829362	-80.6169706236317	98.167376522804	-19.1406317996253	30.3995403906028	
2520666666.66672	-12.4166560169332	-44.3747723887423	-57.6311417485026	49.0039654803079	-81.2335706299827	49.39180612356	-19.0837178587814	30.1250922839587	
2521000000.00006	-12.4206622390403	-44.8867499755494	-57.6342198374372	39.2467625240494	-78.850868264179	162.493572582309	-18.9916161063562	29.9074971820574	
2521333333.33339	-12.4173620029595	-45.3034582298134	-57.7796592065183	32.303623296275	-80.4194527113436	-148.175092308785	-18.9354747503578	29.7128156871692	
2521666666.66672	-12.4279640821671	-45.7693182094833	-59.5181678677477	21.8403217494199	-93.3223387365779	23.272081342882	-18.8723706148053	29.2528831151505	
2522000000.00006	-12.4345204119248	-46.1727157592867	-58.5786210434763	16.5639257683691	-83.8228396788112	53.7132734931772	-18.8566485678524	28.8616449288171	
2522333333.33339	-12.4429160569782	-46.4938930895634	-58.7889452524108	11.8766081899434	-89.4277408166285	50.0780957662258	-18.8128417890073	28.5119094986351	
2522666666.66673	-12.4527543835518	-46.9415227754065	-61.454085714923	6.80953382576887	-77.9096786275348	-84.4409001771419	-18.7820514038768	28.1761535461682	
2523000000.00006	-12.4510887196653	-47.2939932864676	-58.9765063998317	1.02275172029407	-80.056975003599	19.2672291341872	-18.76775325157	27.6416699489049	
2523333333.33339	-12.4617806251727	-47.6460712224825	-59.8472116811892	-6.57113910386738	-81.7695576558491	177.760481482615	-18.7498742493601	27.2994972591713	
2523666666.66673	-12.4702819474554	-48.0688896253425	-61.0655302124104	-11.5543605122156	-80.899988665553	144.099248210395	-18.7374300179993	26.6898200030198	
2524000000.00006	-12.4855259976287	-48.3120242910127	-60.4081529275728	-20.2313490385208	-87.4758904259231	-165.059938220194	-18.7571345859124	26.2420344852631	
2524333333.33339	-12.5054120521909	-48.6033391105072	-61.4068525513774	-24.8813770950242	-81.7802850755922	-58.3613789685739	-18.7619773899613	25.7491568432315	
2524666666.66673	-12.5186440288514	-48.9363031677165	-60.4365907979884	-28.0421326857895	-79.7524008687485	-110.665009496322	-18.8095806588085	25.270752844686	
2525000000.00006	-12.5271435614623	-49.2516134678365	-60.9903409329282	-39.9787637299465	-72.5384972630888	-115.853221132656	-18.8199152554161	24.6571731008847	
2525333333.33339	-12.5451987363058	-49.4638651824249	-60.5380405223437	-35.0358920991697	-86.0054343024047	139.981633184266	-18.8866539424519	24.1245810114192	
2525666666.66673	-12.5619067685246	-49.7195882599288	-61.8450022009071	-36.386021768881	-78.1957338453846	75.0396363183847	-18.9105496490942	23.5078129615883	
2526000000.00006	-12.5816006801348	-50.0219564409929	-60.8219267941734	-46.3449099645871	-87.3609923603813	-29.7890489973547	-18.967989863981	22.9654272360372	
2526333333.33339	-12.600559436375	-50.1805333850461	-58.7725537301161	-62.1497821722173	-84.1418492911274	-29.9681933622712	-19.0287402893573	22.407339058106	
2526666666.66673	-12.6191866166906	-50.4405939115542	-60.2141334769115	-66.0819629915679	-76.3929818625761	91.9108129927617	-19.0912673544144	21.8279304240682	
2527000000.00006	-12.6495857429377	-50.6703617528489	-60.6395931518719	-77.7996853210777	-76.0267098256956	-60.0077765512172	-19.1552365935189	21.2096686631475	
2527333333.33339	-12.6666135856976	-50.8676812050106	-58.7558340916724	-77.1319272859961	-78.8930355883726	27.4679460513183	-19.2358564841898	20.5620125680294	
2527666666.66673	-12.6929060927164	-51.0764843502558	-58.3534847499658	-87.8574997301788	-83.0321789718745	159.975688349607	-19.319434313412	19.9410269427426	
2528000000.00006	-12.7259172217953	-51.2812609272911	-59.2769992635217	-101.180544086426	-98.2439417682574	-177.051808564187	-19.392987629257	19.3714680287147	
2528333333.33339	-12.7435854472222	-51.483074480124	-59.4145506215767	-112.226032408452	-79.4967318981497	169.465520262275	-19.4937589014675	18.6540508201421	
2528666666.66673	-12.7775719418447	-51.6311171184009	-59.1281229971678	-121.520488637567	-81.1629675801717	6.1989001935024	-19.5818556572073	18.0344235373148	
2529000000.00006	-12.8117045299233	-51.8605818253752	-59.2707292814571	-122.541726152224	-87.6824386791484	-76.000063834884	-19.6822229749115	17.4201681876976	
2529333333.3334	-12.8352125963136	-52.115038819163	-58.5039555763152	-133.345868505158	-82.275458122368	22.4683660524962	-19.7809553492032	16.7363017488307	
2529666666.66673	-12.8778120801449	-52.2080330419606	-57.6806178419539	-137.62152757332	-74.1310724470998	12.826792670877	-19.883449217566	16.0774840630562	
2530000000.00006	-12.8956994031064	-52.4614017551596	-59.7127407657072	-140.42953719454	-77.0564183320516	-106.366096681533	-19.9920689907667	15.4084830272248	
2530333333.3334	-12.9373274607265	-52.6606888250334	-60.5929895385651	-142.565697696063	-87.5365483475171	133.100378663715	-20.1011810280484	14.6627664410299	
2530666666.66673	-12.9634544294433	-52.8183271727397	-59.9891823020794	-166.330425299382	-82.0223404886623	166.250526696302	-20.2014980957118	14.0880318873772	
2531000000.00006	-13.002777364186	-53.02895389096	-59.2571112638936	-169.091140411349	-90.7000223970995	168.55902047323	-20.3141431865307	13.3286821599742	
2531333333.3334	-13.0590440641654	-53.2120503602638	-60.1528655768782	-167.454807758266	-87.98113245368	70.0176101789307	-20.4449870377711	12.7225971423242	
2531666666.66673	-13.0887908623272	-53.3688866579697	-59.1456300953289	-172.784112245764	-78.8886614433041	136.40276816571	-20.5394144552713	11.9182123079271	
2532000000.00006	-13.1392314047886	-53.579655223225	-60.57987035891	173.546392633844	-75.8062109644183	-14.1139286863391	-20.6566300819903	11.2741108672745	
2532333333.3334	-13.1872099882985	-53.8860912579518	-59.6752404817811	171.072960863745	-80.6370387814183	-115.296748491146	-20.7728260488767	10.5130808879689	
2532666666.66673	-13.2201304504153	-53.9563839938022	-59.8634582079539	166.493655228973	-77.2279250929605	-149.827097116969	-20.8680694858402	9.63146003462468	
2533000000.00006	-13.2815378325162	-54.2225791326088	-58.9403567151533	151.560263516353	-78.6486676714973	173.34443997909	-20.9693257607847	9.00700065916676	
2533333333.3334	-13.333664702206	-54.4385272537053	-60.3043901558136	150.980612844201	-90.4378453948166	-134.174530288151	-21.0923850719608	8.18774402568452	
2533666666.66673	-13.3840034100072	-54.6961810597061	-59.2972398656221	142.356115935178	-72.3839710332499	160.939409756418	-21.1692953268408	7.22008858135037	
2534000000.00006	-13.4353976048365	-54.917050127895	-58.9536305412091	137.605733597498	-75.810227908956	141.798341834797	-21.2628413427532	6.32377952783126	
2534333333.3334	-13.478630355502	-55.1548831978313	-59.5104095547296	122.026165628035	-95.4085816000637	-136.997170117721	-21.3677107870631	5.50290885870563	
2534666666.66673	-13.5402960046765	-55.1935844988255	-59.9933446504842	118.531542223835	-76.8525443421137	-126.707830975403	-21.4399406287721	4.65271712085403	
2535000000.00006	-13.5919322091905	-55.4223560883773	-58.925032614307	113.376991720782	-93.2579916185901	123.808279518067	-21.5306987433731	3.50056946815757	
2535333333.3334	-13.6500152240684	-55.7022208881772	-59.1597927112321	106.530155649352	-85.3080352748877	-16.3868041448544	-21.5889988479836	2.5221273867734	
2535666666.66673	-13.7155534698538	-55.8997750622866	-58.6475259748953	101.100315279182	-78.4515106945706	121.065218108072	-21.6677646273779	1.43970315053302	
2536000000.00006	-13.7727573671057	-56.1619606822136	-57.4694762663458	88.7704384199128	-79.0264283655402	-148.395995361264	-21.7379038574594	0.441753029895144	
2536333333.3334	-13.8357286997824	-56.3840110570973	-57.9957781229266	73.1197482685502	-85.649028188056	65.692379770975	-21.7836399615623	-0.643298414131324	
2536666666.66673	-13.8975468716073	-56.6102406974777	-57.5282950059739	75.7559491362527	-80.8083061007061	-175.023871877036	-21.8278661701736	-1.69132772531975	
2537000000.00007	-13.9470818635714	-56.7051760010056	-58.8830701106137	62.235853075617	-75.3687443645787	-24.8254073170775	-21.8620124079313	-2.97425389124001	
2537333333.3334	-14.0167195070896	-56.8939762228733	-58.2602445894328	60.4613719114486	-80.0902438056555	-135.117606732548	-21.9357513638767	-4.1633803673355	
2537666666.66673	-14.0771808832886	-57.2214170290365	-58.7629714721608	48.5727462571611	-72.5960173500093	17.6478978621289	-21.9604182241279	-5.36752675076073	
2538000000.00007	-14.1580662005647	-57.3147246201368	-58.5119560555067	38.0212646564863	-84.8744550296472	128.589652206399	-21.9795129074477	-6.61327097400161	
2538333333.3334	-14.222505414373	-57.6455883015707	-56.7035971676353	35.0036677226806	-77.2321089929145	31.4952120932372	-21.9884353189061	-7.95050719023359	
2538666666.66673	-14.3011478651992	-57.8784198603927	-57.9980502145487	19.7425891090929	-75.6876744922172	-1.63036712519239	-21.9954669279189	-9.24893731976201	
2539000000.00007	-14.3780647601319	-58.0896065035071	-57.5276778715662	18.3311212916289	-77.3996604572618	42.2500879408614	-22.0165742275243	-10.4867700115607	
2539333333.3334	-14.4497948381448	-58.2619594950183	-58.3300267265743	12.0035754114571	-79.130088581124	13.6619165367047	-22.0263365527391	-11.8675816865606	
2539666666.66673	-14.5406559349563	-58.5141415969268	-57.9259361629401	0.917365780837954	-76.0806215041631	-31.0346273970701	-21.9995724557375	-13.0624096484278	
2540000000.00007	-14.6023578641404	-58.7379517553218	-57.9124541128519	-0.565011436978471	-78.6227685670368	-19.6481017348233	-21.9953410720208	-14.5565026771939	
2540333333.3334	-14.6971533670317	-59.0028859641973	-57.0052341454436	-11.93117762738	-78.7652353157061	22.4675027574615	-21.9845854808004	-15.6980073030439	
2540666666.66673	-14.7767120632039	-59.3406409680624	-58.2731270752982	-21.016612703472	-84.4071708552101	-83.7684655328719	-21.9580117735344	-17.1769950724326	
2541000000.00007	-14.8750352337009	-59.6240448860838	-59.2808060305353	-15.7500412338135	-88.3723314025499	-116.573038878856	-21.9402759666629	-18.5817120278171	
2541333333.3334	-14.9342304506065	-59.9030851993202	-58.1233251177332	-29.2352092429016	-72.4225560464907	-54.2133361007721	-21.9004235669519	-19.8525407362615	
2541666666.66673	-15.0232520567957	-60.285613106163	-59.2059494269877	-37.0487256031683	-78.0995420747922	9.87126357660432	-21.8573766053262	-21.2676262825208	
2542000000.00007	-15.117498993198	-60.6412760368759	-57.3465563783225	-44.898993263334	-81.3628324157819	72.9902238937461	-21.8258139654908	-22.4938488446283	
2542333333.3334	-15.2023732335089	-60.8636887878156	-57.0892332575712	-45.8543379855516	-71.6927926728113	21.3870986816909	-21.7766571614576	-23.8973053820892	
2542666666.66673	-15.2707020414662	-61.3118299095853	-58.2962271506942	-58.7310322747433	-75.5846425905244	74.5701971754778	-21.6965765485264	-25.0826963987649	
2543000000.00007	-15.3683154623013	-61.6308199881928	-57.8924705990158	-64.755942286135	-79.1063767984713	-150.772561056822	-21.6489415421799	-26.3641707587308	
2543333333.3334	-15.4432180279867	-62.1013698026592	-56.712841744698	-73.0641072300917	-78.0937369312841	-48.2873023854102	-21.5866386814503	-27.7191781293133	
2543666666.66674	-15.5261722017153	-62.5013690823407	-57.014575911173	-78.0379126570691	-76.5287221120741	159.908897111062	-21.4975264087947	-28.949115247551	
2544000000.00007	-15.6454525141988	-62.8044286650957	-56.916075405074	-85.0346347977277	-86.5617840357032	-32.1251920925023	-21.426665270196	-30.2251834192373	
2544333333.3334	-15.7573389923223	-63.1349606512236	-57.7170778189412	-90.4001125737341	-77.6376250660125	67.082016760109	-21.3422421510168	-31.4999751303897	
2544666666.66674	-15.852245773788	-63.6409168060512	-56.8273562193961	-100.370237755039	-77.1186646350364	-50.0233227527177	-21.2668115678869	-32.702981747741	
2545000000.00007	-15.9470648364941	-64.0211688264007	-56.7975259606132	-104.278853247057	-81.742608648938	150.341862334741	-21.1764612188964	-33.8574184371265	
2545333333.3334	-16.0460784526925	-64.4792614026333	-56.1502168083382	-115.317406274947	-80.0074747739313	-63.029580948812	-21.1088450101662	-35.0975905998737	
2545666666.66674	-16.1585611858329	-64.9372534233066	-57.0236678736675	-124.792901620917	-82.0856976343529	148.832221194858	-21.0466300671072	-36.3924787527115	
2546000000.00007	-16.2517131931265	-65.3435172609234	-56.201349538609	-130.971914546036	-79.6022286961947	149.059192775757	-20.9577737340494	-37.380885291886	
2546333333.3334	-16.348645793772	-65.9185821677702	-55.6337279565924	-140.358069290279	-82.2580809880738	-162.593158999989	-20.8772176811469	-38.6431670582343	
2546666666.66674	-16.4653955832535	-66.447311306371	-55.5133914527588	-143.287893567897	-74.3467536722419	-35.6532120449127	-20.8252829958765	-39.8136214332878	
2547000000.00007	-16.5597217953932	-67.0099119915482	-55.8011501360067	-154.308952815608	-87.5721670263974	146.074159790085	-20.7638423835267	-40.9901914232285	
2547333333.3334	-16.6663172416465	-67.652799736059	-55.4176865574751	-165.629214247375	-83.2965794995695	-164.755098754071	-20.7047787366322	-42.0546994237597	
2547666666.66674	-16.7688000320866	-68.0855132523556	-53.95529756746	-169.002565635206	-85.0405928927193	-169.053872612857	-20.6600897892399	-43.1215192208665	
2548000000.00007	-16.8552430183159	-68.7568331962704	-54.2778377697566	174.011744497135	-76.4419655198346	-102.818846255075	-20.6116508670129	-44.2273723019443	
2548333333.3334	-16.9504224757235	-69.4044650739869	-54.91524962617	169.382007155931	-79.171790431021	116.208660410285	-20.5901775929308	-45.2261718946001	
2548666666.66674	-17.052163167327	-70.1662378043867	-54.2013830893269	165.475638789291	-86.9402785678974	179.218370399016	-20.5694478182762	-46.260771796918	
2549000000.00007	-17.1405072577315	-70.921474639388	-55.0978056416588	149.680853979743	-85.4382515379278	74.0777559832125	-20.5479278243466	-47.1860394290972	
2549333333.3334	-17.2269737671394	-71.6831028675486	-54.4567408498608	140.476465512076	-81.9856288936823	47.0286549682092	-20.5384713647858	-48.0693670933835	
2549666666.66674	-17.3153660614548	-72.4935538034171	-54.7804027697773	136.001803494394	-79.1836527790819	114.794458362861	-20.5336059547679	-48.8683567252575	
2550000000.00007	-17.3975088045196	-73.2205817181844	-54.4674887628693	123.869886993371	-80.6045932204881	-177.478683856102	-20.5674199677916	-49.7340005134788	
2550333333.33341	-17.4994973540339	-74.2765064223869	-54.1862410573705	114.11476890997	-78.6959276152836	1.80951072882531	-20.5666554354598	-50.323376307662	
2550666666.66674	-17.5934026855328	-74.9951876509958	-53.4264224961614	105.145004260317	-76.7813721432113	99.6209837430423	-20.6009708295301	-50.9969801738971	
2551000000.00007	-17.6705423767289	-75.9705097460433	-54.0414048606387	99.256407748422	-97.4328163061645	-80.6905994347592	-20.6307937405774	-51.6956258227511	
2551333333.33341	-17.7529393918292	-76.8707554072496	-53.9984742084479	85.2254015034677	-89.9193271746097	131.759324283659	-20.6618394838851	-52.2170446124931	
2551666666.66674	-17.8437110359094	-77.7576687167484	-54.0466072972375	82.6728125765151	-80.7586537258201	50.2882613140392	-20.7030004422827	-52.7360683693734	
2552000000.00007	-17.9311086379255	-78.7695515733587	-54.8122943253689	74.3621685843071	-74.8203474686662	21.7575063994945	-20.7433741702615	-53.0536714746071	
2552333333.33341	-18.0141341753682	-79.7229023534114	-54.4839808182599	64.8849160034407	-82.0762717040121	161.944558781055	-20.8133200591838	-53.3535035533621	
2552666666.66674	-18.1023971222544	-80.7142906189051	-53.6148111251426	59.0322442802617	-75.1057137075908	60.5996001785854	-20.881844075457	-53.5714771855495	
2553000000.00007	-18.1969718330498	-81.7767316178285	-53.2446075259555	47.1466560411938	-72.5573685111336	75.0854205103248	-20.9812769551546	-53.9753004457207	
2553333333.33341	-18.2772088847057	-82.8115964291143	-53.9533796227018	44.431558465446	-83.3703854879211	56.3407582066276	-21.0534439099117	-54.1792281517852	
2553666666.66674	-18.3425803244531	-83.7216543268613	-54.9565584388415	28.5867996902698	-83.383363836167	-45.6420155950193	-21.1533170017395	-54.20361310267	
2554000000.00007	-18.416291268912	-84.8242233721235	-53.7801466803722	22.4354588162444	-76.191638886573	6.77462509520795	-21.2801914630791	-54.0682666202709	
2554333333.33341	-18.4900334214664	-85.8945269150189	-53.2694259324021	12.3239362735527	-80.7807133625334	-94.9276240503677	-21.3921400881268	-53.9193603507409	
2554666666.66674	-18.5570408089349	-86.951573970566	-54.2249050941593	4.4529190076876	-90.6706377445907	-59.427145205519	-21.5222736452068	-53.6448390146596	
2555000000.00007	-18.6204359496414	-87.9197612104404	-54.3394388596666	-6.89323564177464	-79.187284193031	-111.475133199329	-21.689082433957	-53.3587022250327	
2555333333.33341	-18.6842446890539	-89.0484752234824	-53.5654667124455	-12.3509737228187	-80.8843151844579	-36.0924757947801	-21.8250880011709	-52.7410615817342	
2555666666.66674	-18.7241004050801	-89.9820313799951	-54.2321821296879	-16.294934862993	-78.8133811214721	-11.6898615358536	-21.9724474208974	-52.1759404688718	
2556000000.00007	-18.7689343107621	-91.00677728785	-54.0750744200299	-38.3404290821642	-75.3712562700812	-127.59080513163	-22.1121874628026	-51.3466283529096	
2556333333.33341	-18.8222361426857	-92.0575649764945	-54.87572461162	-43.4622993389432	-73.2068419618229	-24.1790019195023	-22.2846564422987	-50.228426922907	
2556666666.66674	-18.8638409670128	-93.2044306346191	-55.4444158060287	-54.255879605041	-74.2447121167741	-55.0194509282922	-22.4007852550382	-49.0808037281479	
2557000000.00007	-18.8866188068288	-94.0983058329291	-55.246606389715	-56.0456089257137	-76.8144532061746	19.4414332489626	-22.5423547947389	-47.8172510894365	
2557333333.33341	-18.9106827070776	-95.0565994085881	-56.0767927906912	-61.0289833952917	-75.5372698620728	43.6887045432889	-22.7007122504978	-46.4056983144868	
2557666666.66674	-18.9375008224621	-96.079595095684	-56.2265107604408	-67.6714324082634	-82.3385502757726	165.121546602313	-22.7962430577785	-44.6855941990091	
2558000000.00008	-18.9591260018547	-97.0625713494034	-55.1636322614501	-81.1209120824373	-75.7779354278439	-85.5622849287649	-22.907751886619	-43.0279740810491	
2558333333.33341	-18.9586724096509	-97.9147290595929	-57.2301164942606	-83.3331626094779	-74.1994701035513	-115.857798299757	-22.965355234606	-41.2346762311002	
2558666666.66674	-18.9567074913262	-98.8461395835518	-56.3025796525293	-87.3077370035719	-77.2237862168394	177.455346109048	-23.022492514072	-39.3043446672254	
2559000000.00008	-18.9666718465431	-99.7919937190765	-57.3881182973618	-97.1234631062383	-81.7032580084348	176.294230715674	-23.0993931906751	-36.9999343788004	
2559333333.33341	-18.9555459372019	-100.660084342705	-57.0247113386193	-102.959388130356	-88.059031149561	146.822781269152	-23.081489609502	-35.0856417776604	
2559666666.66674	-18.9339222792249	-101.561065230867	-57.7192086028684	-108.827575302753	-76.2098706481481	-142.193777396368	-23.076179754628	-32.8149110043873	
2560000000.00008	-18.8986774895303	-102.430837435465	-56.9261541159298	-117.126090889206	-77.8026321820702	-166.81652812457	-23.0004814310482	-30.6665718046899	
2560333333.33341	-18.9014681275004	-103.198801212157	-56.7916533199963	-124.798885338042	-90.6496056297731	154.585082305982	-22.9359015429038	-28.641443836271	
2560666666.66674	-18.8608864341655	-104.09668960146	-56.1789313097245	-125.596184131226	-78.3377144531976	-175.147738567044	-22.8380596015625	-26.3737261410905	
2561000000.00008	-18.8246737971697	-104.86801891144	-56.0840465105556	-138.663334658373	-80.6516981419924	92.3546979316335	-22.7025727864641	-24.4023757815943	
2561333333.33341	-18.7976193643378	-105.709648139059	-56.1225908337117	-143.042808797361	-80.1426933338866	-36.7334396872001	-22.5564952541132	-22.4484740297823	
2561666666.66674	-18.7491001912851	-106.344750835643	-55.9438683389185	-146.619281655006	-81.0540060903026	-73.1180539540461	-22.4038468723711	-20.8010638699781	
2562000000.00008	-18.7072928939493	-107.222295193709	-55.7597840643634	-157.217625784098	-76.9548270206487	75.7520564481475	-22.218501171956	-18.9404314813409	
2562333333.33341	-18.6471257144311	-107.90182563887	-55.6862567607235	-162.52311550084	-76.1939352430364	-144.767178239057	-22.0111609019143	-17.4909088400198	
2562666666.66674	-18.5882841219164	-108.568740756515	-55.6056193481373	-171.903483405988	-88.3158900342886	-121.437585256392	-21.8369000065996	-16.1658440445685	
2563000000.00008	-18.5133475867894	-109.292596459681	-55.8493139827409	175.490754581687	-80.5466315834764	108.543275191574	-21.609949291355	-14.7040500800296	
2563333333.33341	-18.4481301672153	-109.973431374917	-54.4463345500803	165.578629906376	-78.7261388977148	-5.45893716179097	-21.4156904606126	-13.4928425365084	
2563666666.66674	-18.3856593935456	-110.62099027816	-55.4169438897271	155.980497426568	-87.964219522937	-131.829444780862	-21.1946354254609	-12.5672171176106	
2564000000.00008	-18.3277782956486	-111.206225308513	-56.1007177067747	147.004216615026	-77.7612321832513	8.82783242111076	-20.9988884175289	-11.4131482478601	
2564333333.33341	-18.2338998089317	-111.828451069496	-55.7455715836156	138.98899170081	-80.3201202967714	66.4957432603058	-20.7920735382502	-10.6751245657589	
2564666666.66675	-18.1719379512079	-112.395018998963	-54.7805895359991	127.037468174999	-75.8418669096881	83.1985716844696	-20.5868870666038	-9.99128708084071	
2565000000.00008	-18.0993709534465	-113.005664286494	-55.7911664672643	123.768636661755	-75.5977222916897	44.2458047041996	-20.391397588207	-9.38996430983988	
2565333333.33341	-18.0125159016597	-113.660384824315	-54.7023249365302	109.860254697387	-75.7707920422685	-84.9135613939819	-20.2031129336497	-8.83089872184636	
2565666666.66675	-17.9388161339893	-114.211386878822	-55.0313906787204	110.472883298639	-80.9859115773023	-77.420766545958	-20.0384505363987	-8.53018841848702	
2566000000.00008	-17.8601922864062	-114.73025201124	-55.807780503334	99.7232261322321	-76.0651160487337	116.77353844417	-19.8784380718415	-8.12144995310338	
2566333333.33341	-17.7774857400623	-115.339602646069	-55.8544426656141	91.6680801213843	-81.1736216967887	42.4441359341818	-19.704718598726	-8.0234588424638	
2566666666.66675	-17.6984981177305	-115.962282150219	-56.6093925524503	84.4567485433239	-92.1100508776324	-91.9734935424816	-19.5523411306263	-7.79290510073492	
2567000000.00008	-17.6275123200981	-116.584218436937	-55.9751346480882	77.3802145219895	-93.0083497385269	-19.1343535945175	-19.4269602150837	-7.72138356479562	
2567333333.33341	-17.5529736695237	-117.159926596869	-56.4759076109982	68.849861677413	-74.0864896429277	135.884484319983	-19.305439969581	-7.60953018420456	
2567666666.66675	-17.4654095292015	-117.642580867597	-56.6452742199662	66.4943019519703	-78.770893686869	42.3038236843263	-19.1800233726569	-7.82844661730239	
2568000000.00008	-17.3915163301968	-118.329271580426	-54.8572311926739	49.9090778816223	-82.9814633472592	-41.3093423455526	-19.0812714586513	-7.63808814756856	
2568333333.33341	-17.3031313885667	-118.81108161913	-55.5930937190755	44.6053277806869	-77.6474361263197	-159.046421709681	-18.9955869091028	-7.72141183504527	
2568666666.66675	-17.2396437121998	-119.336650844838	-55.1836587880792	32.8478565176636	-75.7044693139772	117.945953541196	-18.9076056333752	-7.92732860348157	
2569000000.00008	-17.1517150145873	-119.966999186606	-55.4246916554961	24.4571862794476	-86.3188090769349	-135.668020544389	-18.8139092092731	-8.05521690337343	
2569333333.33341	-17.0757338302433	-120.515746547468	-54.9891954248608	13.8324529268659	-81.9228560616975	-158.138759421908	-18.785645913658	-8.1349978673267	
2569666666.66675	-17.0124859190488	-121.122959845843	-55.5102207748718	7.77166592734992	-81.2763395304889	127.565606149094	-18.7479446960282	-8.3299231154331	
2570000000.00008	-16.9248103747018	-121.720507805614	-55.7836655729279	-2.71777025523543	-86.4608141361289	92.5398141662779	-18.7259514233196	-8.59818267275493	
2570333333.33341	-16.8606938017524	-122.450742437499	-55.0389181856776	-7.83732205446057	-78.8932575159991	91.706771170048	-18.6953460780038	-8.66839356597393	
2570666666.66675	-16.7968330246033	-122.843667407309	-55.8433210064842	-23.0374109023055	-82.551480934597	-2.06574563812297	-18.6980608149917	-8.89862139682023	
2571000000.00008	-16.7428903634888	-123.490001511266	-55.8354188028284	-30.6724550719004	-73.0113775916499	-159.82122339995	-18.7440719954729	-9.1948149298997	
2571333333.33342	-16.6857638257841	-124.053665742557	-55.5901758909407	-32.4563974280187	-76.0402850596587	65.8416573652304	-18.75396008558	-9.34003896584265	
2571666666.66675	-16.6462124447136	-124.704159939382	-55.7283962535297	-49.4416875799366	-87.8230903488723	-124.399568350684	-18.8155632146376	-9.52729423826765	
2572000000.00008	-16.581238154115	-125.234538401538	-55.8902500334898	-51.7796868863122	-78.3326483583698	-41.7233295333078	-18.8729240814913	-9.66760782169508	
2572333333.33342	-16.5279392732345	-125.859530088989	-56.8499088748779	-54.1235245424222	-77.5236238881139	-23.6178389271173	-18.940740291004	-9.85475374044033	
2572666666.66675	-16.4987715887255	-126.484529784406	-56.4416220802604	-75.6270156918543	-80.392271236399	9.69788244381325	-19.0419043652612	-10.0431612325064	
2573000000.00008	-16.4759568521288	-127.132591560447	-56.394289805963	-78.1166967731195	-76.9937440189484	84.5191619227468	-19.120480697397	-10.085490935127	
2573333333.33342	-16.4430180338966	-127.688142246293	-56.7994012029232	-87.0403579094427	-75.6364948068813	66.7206961096503	-19.2678360714199	-9.8304023030208	
2573666666.66675	-16.4173222984933	-128.294505598482	-56.8518497109271	-100.618465008424	-76.0662954042705	-133.702558525008	-19.3677234006614	-9.83206332431642	
2574000000.00008	-16.3635227798032	-129.093695864904	-56.6235488890575	-110.760674343816	-87.3058811055824	-86.1991235635902	-19.5171538485164	-9.60043415859042	
2574333333.33342	-16.3354349352907	-129.602794325298	-56.6328344806052	-121.389038328871	-85.846218009775	87.8922242088187	-19.6445804757053	-9.33672653526998	
2574666666.66675	-16.3232134811892	-130.284112670874	-57.2095459043122	-123.53875699067	-77.5668721031657	176.672977122575	-19.816208586712	-8.88620446391499	
2575000000.00008	-16.3105644806435	-130.919500398176	-56.7672571863947	-134.659431451314	-80.7815521275928	104.49299966695	-19.9667342514276	-8.67049382543655	
2575333333.33342	-16.2874343793698	-131.538655340851	-56.2697592674102	-142.557172711861	-77.9645648884069	162.735551970299	-20.1444815610238	-7.97382422093659	
2575666666.66675	-16.2910351440732	-132.221408920791	-57.2077147946524	-161.466135754581	-73.0611026976185	-130.241519016711	-20.3282346261914	-7.25577370604996	
2576000000.00008	-16.2799460444851	-132.978158754553	-58.278938610076	-167.148384114806	-73.4033850740079	-93.9782827168855	-20.4901805619169	-6.50797716802868	
2576333333.33342	-16.2708725315556	-133.525990868444	-56.8848171819539	-166.517954806127	-73.4929460332231	-178.623578619823	-20.6846338817834	-5.71864521317561	
2576666666.66675	-16.2778817036183	-134.255024438004	-58.8926023936101	-176.971877537165	-82.0133265480936	-20.6780279926002	-20.8432536857612	-4.63131493676373	
2577000000.00008	-16.2968381089155	-134.969835644413	-58.9968396255188	169.67948231885	-74.070133897396	61.8566152487518	-20.9981528914857	-3.56326747006601	
2577333333.33342	-16.3094094057548	-135.597949315435	-59.1906728180799	161.821178495096	-78.7759946333278	152.64356409608	-21.2030665152522	-2.29647863005182	
2577666666.66675	-16.3412021763843	-136.481618006659	-62.0961361335982	148.099834226952	-81.6590588839494	-18.1654297218643	-21.3376303221398	-0.907075705137517	
2578000000.00008	-16.3538194835856	-137.174676809188	-60.6073587308441	147.600931253808	-72.5591085074515	129.38830537297	-21.4777287085315	0.41030444475249	
2578333333.33342	-16.3825938402605	-137.882527763829	-61.6484151481243	142.114875449522	-88.7851155023363	-118.506402849742	-21.6155658300926	2.03914010668183	
2578666666.66675	-16.4165248268344	-138.560575318777	-60.7120480378022	133.464566682843	-76.4397152822402	133.641733446661	-21.7665387390345	3.65746735840095	
2579000000.00009	-16.4825135714932	-139.199602310454	-62.6179214915423	138.224703165348	-85.3979611499365	-75.8802644086584	-21.8421963166058	5.41318915927209	
2579333333.33342	-16.5405030765433	-140.165789495232	-61.6364856670429	130.615170895792	-72.9609902205578	-28.4210560096358	-21.9581082627711	7.24740639607644	
2579666666.66675	-16.5985532465551	-140.787153965024	-62.307387928063	120.969689081992	-83.73476051296	-159.028325278645	-21.9857442322517	8.9887276349469	
2580000000.00009	-16.642853912785	-141.632211960735	-61.1942423383241	116.257297628576	-79.2144478055722	119.32607728011	-22.0327980277669	10.820584082912	
2580333333.33342	-16.7079561432064	-142.385846943997	-63.2436713252796	102.233692049727	-74.1408240529607	87.6018606041811	-22.0646698937081	12.592137246924	
2580666666.66675	-16.7853330069853	-143.128352408581	-61.0229844172534	106.856558175049	-77.4744082606237	105.582109561454	-22.0445130762599	14.3107872774365	
2581000000.00009	-16.8551532730701	-143.980821331803	-61.3470812880553	104.886867490879	-77.9606273403904	-20.2126352386488	-22.0251923936208	16.3199174551696	
2581333333.33342	-16.9297729435114	-144.779469148878	-61.0950572467834	76.2945097819024	-87.0133688159426	93.1405842124274	-21.9860723873649	17.9681085190574	
2581666666.66675	-17.005886750847	-145.776040181259	-62.5232287751709	71.2459599771273	-82.9702128529973	-66.1141700976175	-21.9284155245877	19.2805709361297	
2582000000.00009	-17.0797304342783	-146.513290374021	-60.7398278608984	65.7206408902436	-74.0616103062416	143.945469204469	-21.8367738270019	20.7254879098943	
2582333333.33342	-17.1902282033803	-147.323083354674	-66.8928867220025	49.2874026343426	-82.765151647668	127.775134890708	-21.7774758253825	22.1241607445332	
2582666666.66675	-17.279806535215	-148.151473765272	-62.7842938323738	47.4251033071575	-81.4406096687605	80.5967502729858	-21.6529996691249	23.1093573185097	
2583000000.00009	-17.3633915189907	-148.934166187173	-62.3917017657577	22.161034506685	-69.4576731252132	178.579607331002	-21.541954402297	24.2864671081879	
2583333333.33342	-17.4583771341397	-149.711996673266	-63.1363824133942	18.772225079601	-77.9154464855722	39.2220520417238	-21.4177916410941	25.3165414977189	
2583666666.66675	-17.5666038594758	-150.526592354211	-66.009714449055	6.63766831003789	-84.0392958597564	36.0610574859209	-21.3177987982208	25.9882279546353	
2584000000.00009	-17.6950477310011	-151.475261087631	-62.7825175968962	-3.76741287076508	-77.2931909610106	136.088234210015	-21.1950003341357	26.6945465288374	
2584333333.33342	-17.8195045180042	-152.236006547314	-66.9497949107358	-19.9984801033208	-80.396306439576	95.1784810810165	-21.0939315436098	27.0355200712549	
2584666666.66675	-17.9009186780975	-153.074219030254	-74.4764003530387	-28.955519185654	-72.0130679712069	62.1850769589492	-20.9512574265682	27.4363879653667	
2585000000.00009	-18.0355471168759	-153.972965111157	-69.8407043910005	-25.2550393387362	-80.4112643733333	159.827758540911	-20.8405375959533	27.5969572901487	
2585333333.33342	-18.151019954337	-154.797936229736	-70.6391053835682	-46.1910086797534	-76.3620863147019	11.8582398429155	-20.7345618727128	27.8351042731755	
2585666666.66676	-18.2876341945559	-155.762219175859	-74.5287145407265	36.8127584049187	-77.7171894434871	137.348930215491	-20.6065586241247	27.8301694001325	
2586000000.00009	-18.4089330674314	-156.53118671556	-72.473603220551	-32.4832304940451	-80.6398762534006	-73.465445178476	-20.5524020483322	27.7018421015163	
2586333333.33342	-18.5430307932676	-157.374052761112	-72.8829292999547	7.8434374802061	-87.2287691513095	175.544906641663	-20.4639601940087	27.571907898099	
2586666666.66676	-18.6712268834815	-158.3587574398	-74.6399437928504	-3.31767942796091	-79.5148406037073	59.0882384599664	-20.3724445619427	27.1928036546914	
2587000000.00009	-18.804824319483	-159.143306461632	-74.1822780627073	0.699541283211427	-72.1717540263628	153.117783928323	-20.3147916332945	26.6407445284691	
2587333333.33342	-18.9510315910429	-160.152387956046	-69.3504250246702	28.8292480299933	-78.2783062500484	115.136236642794	-20.2710620175483	26.2869988707997	
2587666666.66676	-19.0953075486493	-160.934918234913	-68.0064927933672	-3.29083988624119	-75.876571907716	-174.686788249471	-20.2298497448128	25.5952575970801	
2588000000.00009	-19.2343444842973	-161.874632362821	-67.4476786047511	-8.74888052619882	-76.0736911836917	115.889887637465	-20.2110615634358	24.8247662579352	
2588333333.33342	-19.3737949757271	-162.621827473072	-69.1647251417634	-10.3742060659157	-78.5259028460472	-60.3007514872667	-20.1899240927367	24.0679470916337	
2588666666.66676	-19.5013581356389	-163.742229171555	-66.4119940332953	-28.2881960740477	-82.6256704516803	-143.664153874365	-20.1789390736094	23.1890569386405	
2589000000.00009	-19.6384596116515	-164.615557759586	-65.8939122081598	-36.796665780311	-81.0968876752426	164.473236852357	-20.1881722877987	22.2965240661734	
2589333333.33342	-19.7946816536976	-165.582784997845	-64.4395118180772	-37.4015513241756	-77.1146619744325	175.702978250595	-20.2011909912232	21.2599000038157	
2589666666.66676	-19.9160868889195	-166.47621346731	-63.5484207631256	-57.8986770583252	-82.0296081094422	-34.1592052565421	-20.2426263347321	20.2782080598653	
2590000000.00009	-20.0313224586682	-167.334221738391	-64.4662386833703	-63.8008494565026	-77.7550294481555	171.997785120001	-20.3137345779152	19.1556851394522	
2590333333.33342	-20.1750033103233	-168.4543298653	-63.2808074605205	-73.1289479897868	-79.7290482514836	-35.8514992293543	-20.3792663650148	17.9464854951674	
2590666666.66676	-20.2922184294513	-169.458314872661	-65.9342765155096	-68.48966063626	-73.7436036383971	-107.562883207089	-20.4561842750194	16.9697968421491	
2591000000.00009	-20.4340313945409	-170.447357890555	-61.7559825706226	-78.3582166105279	-83.1724213211847	-76.8095449438526	-20.5507395715741	15.5603897956229	
2591333333.33342	-20.5393674738175	-171.510450696227	-62.7950650777335	-95.4186113272816	-78.671962554038	-175.929223452923	-20.6508420030936	14.4452207236977	
2591666666.66676	-20.6735829063892	-172.761438244232	-63.4757502519204	-70.5722010326242	-75.1453792033574	79.1535733846205	-20.7676438879481	13.1016049216036	
2592000000.00009	-20.7524407496366	-173.745793823867	-63.0450826520585	-112.471581178794	-76.2768956351078	168.309178400373	-20.8972874676264	11.8114551671617	
2592333333.33343	-20.855667383911	-174.79337166532	-60.8032596507425	-118.619071297003	-88.0675810825785	-44.5019869792888	-21.0699979038617	10.470287968162	
2592666666.66676	-20.9903241095412	-176.099135143462	-61.9601670302704	-131.95288300377	-71.0975492673514	-6.14302382949279	-21.2238090816759	9.07555609794828	
2593000000.00009	-21.0801687113489	-177.444186326245	-61.4389499046985	-134.631290176671	-95.8889507767241	142.097932780524	-21.3844931555629	7.66824213605064	
2593333333.33343	-21.1598838415407	-178.665438061382	-60.6106679030438	-144.421703275199	-80.7156857259443	-121.115973213253	-21.5643311207823	6.20467577943954	
2593666666.66676	-21.2382479623809	-179.907229616791	-61.1632307014373	-153.79801185102	-80.2513055051983	-17.5186482110482	-21.7633460151698	4.79241350057907	
2594000000.00009	-21.3254269103335	178.754625505832	-59.6797224422847	-169.99195932437	-89.0376122569622	-139.009318882492	-21.9601531771719	3.3681150359265	
2594333333.33343	-21.3929462905312	177.423102779867	-60.8010173089652	-177.322523154572	-76.4243029777997	-100.806162076548	-22.1814601025942	1.90042338124088	
2594666666.66676	-21.4328610524267	175.757865832541	-61.1319361693307	169.40857670299	-97.0893126719218	-50.0982171087277	-22.42332008917	0.444837810091742	
2595000000.00009	-21.4781363817435	174.416714655382	-60.9843774917336	162.612506972765	-71.991387324202	-169.857302454949	-22.6792927647777	-1.19016826805245	
2595333333.33343	-21.4868335094119	172.972934987515	-61.0941132885428	138.890655038906	-79.5159777453702	-131.121103467641	-22.9236738576132	-2.54022284385492	
2595666666.66676	-21.5274002402172	171.384164849714	-63.5561930017183	134.030967794275	-82.430747660168	146.924975721046	-23.160719334883	-4.29353535861151	
2596000000.00009	-21.5344855469929	169.842040413074	-63.0773081245107	114.175750314343	-79.1529501656503	155.852378727928	-23.4513708720772	-5.64413141534178	
2596333333.33343	-21.5365472655397	168.283091177393	-63.5640535836308	112.877096939742	-84.3117939995558	113.09225981538	-23.7542008867568	-7.17086834690137	
2596666666.66676	-21.5140668838922	166.474987552229	-62.0181941649927	105.167727604977	-77.0543135319844	119.432027010771	-24.0690806456737	-8.59154750437878	
2597000000.00009	-21.4929395728862	164.808567083837	-62.8288547217255	96.7560054921467	-82.3411699788813	-156.436548989125	-24.3952945889949	-10.0873951500339	
2597333333.33343	-21.4677722394081	163.183802883668	-63.2079225542073	80.0154155311374	-76.4645634255691	-99.7179848445083	-24.7270805968981	-11.5768128424173	
2597666666.66676	-21.4269964615144	161.481548562402	-64.7601511162707	82.8778752788379	-95.828343410985	138.947774179144	-25.0730168756689	-12.7668833268758	
2598000000.00009	-21.3409390386018	159.854591072035	-63.3135746236567	69.3673782721093	-76.4947082164329	-106.402795806398	-25.4457803871507	-14.0389048370238	
2598333333.33343	-21.2857558994891	158.064781433052	-66.1655371525961	58.5592902930686	-81.6289561818638	-149.363085321506	-25.8107846104352	-15.1892759893939	
2598666666.66676	-21.1913990257146	156.249510073987	-64.0194026531539	66.0769693564129	-80.2712938618423	-69.5237974344635	-26.2268383711926	-16.2090442449156	
2599000000.00009	-21.1201584369978	154.667972631762	-66.283472888499	54.6976710977038	-77.5996763008016	-114.464026931548	-26.6329885343768	-16.8881823534703	
2599333333.33343	-21.0053691670315	152.928958651755	-71.2457764303696	55.0174652332166	-82.1664598839936	16.6772503355669	-27.0145970417037	-17.6734620761552	
2599666666.66676	-20.904198476604	151.113191478686	-68.6465393611369	56.9093741022418	-82.7034181582034	-25.6822233488175	-27.4309325491987	-18.1339857743198	
2600000000.0001	-20.7734706769574	149.580964635953	-68.1206376293452	43.5283049576223	-79.5765548586069	-147.023928489007	-27.8588011583658	-17.9932742270714	
