!Agilent N9923A: A.05.34
!Date: Friday, 25 March 2016 20:47:19
!Model: N9923A
!Serial: MY51491690
!GPS Latitude: 
!GPS Longitude: 
!GPS TimeStamp: 0001-01-01 00:00:00Z
!GPS Seconds Since Last Read: 0
!CHECKSUM:0160932861
!Correction: S11(ON U*)S21(ON U*)S12(ON U*)S22(ON U*)
!S2P File: Measurements:S11,S21,S12,S22:
# Hz S DB R 50
2400000000	-16.2849484334024	178.467069942523	-9.47029051490779	161.391230287299	-46.3959029300727	149.736334806492	-22.1408634868531	-0.76169437806596	
2400333333.33333	-16.309112067263	177.443527163417	-9.46962343409582	159.069270783601	-46.5006346550404	147.67484442624	-22.2812122253845	-0.789423078191655	
2400666666.66667	-16.3131259071926	176.423047330265	-9.46982699024686	156.775937254022	-46.2181131555865	144.967803964771	-22.4224330332537	-0.660317867265943	
2401000000	-16.344392465323	175.365445089977	-9.47026408660641	154.476491626937	-46.2681648031801	140.74604338141	-22.5505634910806	-0.671282321400443	
2401333333.33333	-16.3697200593382	174.34304818092	-9.46863926431357	152.179873012928	-46.2851888727451	138.87210571444	-22.6676055933615	-0.618161546361374	
2401666666.66667	-16.4109344837105	173.171225540968	-9.4640168071714	149.864878261098	-46.3708883528445	136.443706257575	-22.8394719534159	-0.449588815936242	
2402000000	-16.4203109132641	172.18726585391	-9.45796031137785	147.534942096807	-46.6208991679292	133.241853894175	-23.0145462921116	-0.532397652991958	
2402333333.33333	-16.4478825690244	170.916761991167	-9.45970784059148	145.254542551441	-46.4228414985884	134.928031102514	-23.1895050917821	-0.550177501271193	
2402666666.66667	-16.4755318469343	169.821981619473	-9.45774236436126	142.920632039729	-46.2308567117404	130.956734158814	-23.3587146296208	-0.435247846320863	
2403000000	-16.5241584625194	168.632858903123	-9.4613101397535	140.604647799311	-46.5025199642772	126.518406334349	-23.5127756302373	-0.493830284184046	
2403333333.33333	-16.5369660948124	167.569440872747	-9.46093505645384	138.29716851588	-46.482495317198	124.957276827271	-23.6711729822518	-0.303745596719334	
2403666666.66667	-16.5426634627936	166.274674806001	-9.46240670180791	135.940245145421	-46.3404281265821	123.784368787728	-23.8670512335455	-0.363903916157793	
2404000000	-16.5911552003548	165.106988236729	-9.45980139470764	133.705924213853	-46.9187038769567	122.423378106332	-24.0492335941125	-0.334702506704238	
2404333333.33334	-16.5992328150051	163.979609456162	-9.47030042300971	131.392742771126	-46.4653895394354	119.698540366269	-24.2119394379368	-0.361825664902824	
2404666666.66667	-16.619237934501	162.727791475605	-9.47157756497683	129.081029563349	-46.4932462619784	118.266610895476	-24.4491329449185	-0.205433776656116	
2405000000	-16.6509642662849	161.525470349017	-9.46743635995912	126.785715878997	-46.7794395707501	114.107257476448	-24.6184694601924	-0.103343369061768	
2405333333.33334	-16.6606938902825	160.271145107987	-9.46923700406511	124.472680137869	-46.5195658553524	112.821906184806	-24.836938182952	-0.0509534115872165	
2405666666.66667	-16.668376063752	159.032813760821	-9.47120999557477	122.174304955361	-46.6290187454367	110.302758716308	-25.0311335865728	0.0806751635666899	
2406000000	-16.685787181416	157.872186866504	-9.47809377324137	119.917457145612	-46.7022699221722	107.552895815571	-25.2134445295756	0.129222376607346	
2406333333.33334	-16.6874083695182	156.568109610227	-9.49282606174883	117.420513610797	-46.8674893493156	106.316127146165	-25.4345004789988	0.201950411683289	
2406666666.66667	-16.7204716205529	155.326433345537	-9.4859309815959	115.149623163087	-46.6092160291205	102.585190263998	-25.6825374998485	0.642053993474326	
2407000000	-16.7111883367573	154.16839417235	-9.4975423006258	112.875696026204	-46.62900235993	99.4058322659611	-25.8499322910259	0.790616785458559	
2407333333.33334	-16.7237820643354	152.853347947164	-9.49971317094054	110.583523432428	-46.2748842358102	99.339210555326	-26.0558749836532	0.709077578144937	
2407666666.66667	-16.7194440747773	151.59740593732	-9.50319592344296	108.295633924024	-46.5510166794153	95.373304822446	-26.2263990119081	1.11977787364306	
2408000000	-16.7240071444961	150.387219603516	-9.50636412777975	106.036033200825	-46.5049155244501	94.6967217573813	-26.486048548064	1.16626708657156	
2408333333.33334	-16.7141642553151	149.214134027804	-9.51600424552144	103.744243562205	-46.7577120715248	93.068847656347	-26.6871931940437	1.61117304440158	
2408666666.66667	-16.6937482090676	147.983669740173	-9.52203985784788	101.486572810293	-46.8770771977817	89.9126355337348	-26.9003433400647	1.72178616900757	
2409000000	-16.6859899188616	146.794092709082	-9.53226530530571	99.2111773436855	-46.8074798680929	86.7968483705242	-27.0895168807437	2.37921379698889	
2409333333.33334	-16.6768196322345	145.573404604875	-9.54076890060933	96.9491959810892	-46.8288346478293	85.1874162441878	-27.3072347393312	2.45426805219634	
2409666666.66667	-16.6589103864062	144.323189107432	-9.54683717129545	94.6844704052754	-46.6759969304116	81.8557816170871	-27.4678939532999	2.97092957035716	
2410000000	-16.6402285331692	143.125553028591	-9.54916952093587	92.4615792149996	-46.5391036550691	79.742111441684	-27.701105063135	3.06991468150193	
2410333333.33334	-16.6150926269863	141.986516454682	-9.56107712681898	90.1854440284566	-46.6353686722802	79.1075452931466	-27.8942339758235	3.77688401515886	
2410666666.66667	-16.5866547039146	140.840439299392	-9.56864597448508	87.944654225024	-46.4960316377347	77.0108883246823	-28.0957209110466	3.82672468363573	
2411000000.00001	-16.5548194487683	139.667749756463	-9.5771269905719	85.7037039754299	-46.5889257051753	74.9906471572543	-28.2028113810924	4.60347734195117	
2411333333.33334	-16.5256580916195	138.544018772346	-9.58575007525087	83.4410838575128	-46.6295653940545	70.4594826126516	-28.3973440395583	5.18619988743396	
2411666666.66667	-16.4815299325353	137.321331884547	-9.59198064911985	81.2433834634868	-46.5539223017018	69.0980588136613	-28.5351546225661	5.65375173918141	
2412000000.00001	-16.4617532302364	136.200117123539	-9.60499427724788	78.9602828332688	-46.6676756418838	67.5429125210774	-28.6467613631613	6.15758857415614	
2412333333.33334	-16.4044565778251	135.061732947655	-9.61769901423738	76.7048454756532	-46.6506428819334	65.9901009058922	-28.8032539883219	6.69359103669408	
2412666666.66667	-16.3531550447906	133.883673125642	-9.62282584345689	74.4597386605454	-46.5636545906278	61.2103382650973	-28.8825671010259	7.13188547825106	
2413000000.00001	-16.3016398933218	132.648893228165	-9.64233589290692	72.2312140708342	-46.6430969391895	59.460395918704	-28.9831698650249	7.69776455478418	
2413333333.33334	-16.2423611043143	131.479588289938	-9.64613506148473	70.0101445381346	-46.8340831988798	56.8379702894986	-29.076693480701	8.22465177069931	
2413666666.66667	-16.1867586455985	130.310359850717	-9.6524272343736	67.7857184368801	-46.6693378719782	53.7528831487602	-29.1171806857871	8.53572867151848	
2414000000.00001	-16.1308658200524	129.257052017044	-9.66751949238582	65.5396526649476	-46.6192862328819	53.4404817321617	-29.1740692989002	9.21839455069499	
2414333333.33334	-16.0658624776964	128.178035297695	-9.67843145535674	63.2972322684615	-46.9090187008822	50.5420700220267	-29.1751789661814	9.10112201457432	
2414666666.66667	-15.9979678932399	127.070737927551	-9.69035414352166	61.0844552556883	-46.760305978578	49.9542229242988	-29.2118011281285	9.83718402064767	
2415000000.00001	-15.9330271868572	126.032913330566	-9.69545405595175	58.877110938673	-46.8729848293414	47.4810861159425	-29.1733036878907	10.3395619200003	
2415333333.33334	-15.8607855563521	125.052240500196	-9.71587668568523	56.6486883775554	-46.7301852800763	43.0566693587289	-29.1923465194388	10.8385288967043	
2415666666.66667	-15.8102198271162	123.97100384844	-9.73148810106307	54.4010936397853	-46.9945632425316	40.5430201811383	-29.0726042752956	10.7662165275381	
2416000000.00001	-15.7215655946959	122.995705869242	-9.74176257926198	52.1626586325343	-46.9510438277894	38.7006872722809	-29.0510636691726	11.2373024521188	
2416333333.33334	-15.6559619043233	121.993359119201	-9.75804127421777	49.9833360607231	-46.539732058869	36.9383515882329	-28.9716241551791	11.3907669260752	
2416666666.66667	-15.5774555548155	121.032191118202	-9.75406380589435	47.7723631272464	-46.6657203676131	33.7649810398984	-28.9042037343532	11.3870472120078	
2417000000.00001	-15.5137357562321	120.209121639056	-9.77718872384814	45.557963025798	-46.7689485773003	30.7667921020809	-28.8012442706613	11.4841681877259	
2417333333.33334	-15.4406558852657	119.328522705422	-9.79391871571084	43.355523733155	-46.8883463360163	30.1671471370056	-28.6748390979623	11.6520073591801	
2417666666.66668	-15.3575772307699	118.390333446596	-9.7981468695236	41.1274253600943	-46.7218352572643	28.2990646511688	-28.510714548813	11.1161386716425	
2418000000.00001	-15.2886649251521	117.518599887003	-9.81327285689485	38.9287573367874	-47.0153597326041	23.9392000128342	-28.3846374223629	11.1055319102334	
2418333333.33334	-15.2203624927833	116.645483497318	-9.82551745561451	36.745285407976	-46.6805587447791	22.4401440687183	-28.2105948918735	10.7878258455256	
2418666666.66668	-15.1365111660973	115.748628422979	-9.83118424121154	34.4929943405599	-46.5897105315414	21.8140459179615	-28.0089679128645	10.8218679385278	
2419000000.00001	-15.0553414858396	114.886087714879	-9.856274775117	32.2942969494239	-46.4672396289065	19.4227366140714	-27.8463852352229	10.4043903622772	
2419333333.33334	-14.9757912616494	114.102999818376	-9.8576106315196	30.0437325922587	-46.4453515636642	17.8301005277151	-27.6406623752956	10.1193586209571	
2419666666.66668	-14.9020897823385	113.309268642208	-9.86902664189991	27.8395767068995	-46.6638325479641	14.315284002204	-27.4475944861253	9.66853417881146	
2420000000.00001	-14.8290819407366	112.476176369183	-9.87893187523422	25.6222279721061	-46.4995440978854	11.2608543033509	-27.2845222737014	8.97825933676624	
2420333333.33334	-14.7566375469102	111.700772087907	-9.88646115875533	23.4456194745426	-46.7935492109708	11.4612204205691	-27.0530489830695	8.58432346003558	
2420666666.66668	-14.6688988152956	110.918110617783	-9.90321561851936	21.2116402433569	-46.7394085678921	8.50711191729411	-26.8409833031612	7.99340329726644	
2421000000.00001	-14.6092248625127	110.213300301436	-9.90990706787771	18.9848414967197	-46.7441426982675	6.38930609428515	-26.5946503506195	7.20785968798642	
2421333333.33334	-14.534133284935	109.452891949156	-9.91887754149724	16.7916978956576	-46.4255894479033	4.19812021688652	-26.384335005677	6.7849481160003	
2421666666.66668	-14.4732780780632	108.740311518653	-9.93026481846261	14.6123873484035	-46.8090201444067	1.5667742877406	-26.1625219473306	6.10474688673418	
2422000000.00001	-14.4087779219153	108.060441039142	-9.93749438287839	12.3269976936552	-46.8325459218907	-0.43344903580317	-25.9343420192333	5.38010015685763	
2422333333.33334	-14.3424588944919	107.370887518582	-9.94253650877879	10.0970620564883	-46.771616508918	-3.00058514067433	-25.6707819779014	4.47719311419889	
2422666666.66668	-14.2751342712062	106.727124961964	-9.95226721350021	7.9057313164766	-46.6704391927176	-6.24945358599729	-25.4424127218996	3.86516932582268	
2423000000.00001	-14.2191811297816	106.033845700273	-9.96446383664326	5.65258615819208	-46.9126557498373	-6.22743490757087	-25.2243468054157	3.24218601169479	
2423333333.33334	-14.155835012515	105.47691608183	-9.96915814042262	3.4036105597778	-46.9858796279241	-9.49969854559891	-24.9917462871293	2.28057343769219	
2423666666.66668	-14.1004466591465	104.790073286052	-9.97345494847908	1.2269940929402	-46.518418144817	-11.8213731672759	-24.7640063328624	1.59688967425046	
2424000000.00001	-14.0535282304646	104.252561141116	-9.98254449887142	-1.0349063413488	-46.9500456188351	-15.6523525378468	-24.523227903482	0.90582776212302	
2424333333.33334	-14.0019187663197	103.646851663289	-9.98581183121374	-3.27418672491554	-46.9631685200399	-17.5315807672983	-24.2954012231744	0.116978287881289	
2424666666.66668	-13.9534966520029	103.115537987411	-9.99663329239783	-5.51245290420829	-47.0737151041801	-19.1296706694501	-24.0484977504918	-0.700323204181625	
2425000000.00001	-13.8969564691489	102.548062259838	-9.997430344434	-7.7069893027894	-46.6528087870733	-21.0956924262483	-23.796801791	-1.40869447518016	
2425333333.33335	-13.855334716224	102.08138470849	-10.0013354216059	-9.98392712050953	-46.6535685857574	-22.2934163135426	-23.5892103044956	-2.14022759558079	
2425666666.66668	-13.8063354110872	101.545263394956	-10.0057830634271	-12.2504673657682	-46.8914022534657	-25.0830613581879	-23.3426627668622	-3.08011360032448	
2426000000.00001	-13.7629462350018	101.071393309296	-10.0044189830765	-14.5014125982002	-46.7246330731452	-27.7640803972809	-23.1100652433214	-3.92882605441641	
2426333333.33335	-13.7335048814329	100.608233986006	-10.0106796609541	-16.7632628909511	-46.9856772339338	-30.5949037413443	-22.9062028049553	-4.65148404954703	
2426666666.66668	-13.6855768653638	100.153326484701	-10.0192982897121	-19.0196238795983	-46.806176039411	-31.0977700119077	-22.689106708711	-5.37579808212187	
2427000000.00001	-13.6546721517874	99.7297060824668	-10.0206241991828	-21.2960496063923	-46.8338802290371	-33.1589260158602	-22.4780507467342	-6.16949758621095	
2427333333.33335	-13.608691642908	99.2599656593605	-10.0290946361137	-23.5639550139443	-46.6895891309464	-37.7544050490047	-22.2733651171291	-6.88184842740528	
2427666666.66668	-13.5805117014796	98.7861074408001	-10.0281474798087	-25.8314703481457	-46.5895604189944	-38.7581492638454	-22.0660895199	-7.57332734665746	
2428000000.00001	-13.5431214512408	98.422586024286	-10.036547504405	-28.0720820451027	-46.9973496163795	-41.8585357467632	-21.8896954328874	-8.46283396807643	
2428333333.33335	-13.5078109866686	98.0775685035449	-10.0343764292878	-30.3354707589794	-46.6873152301587	-43.9431299010066	-21.6794351108004	-9.09863853785018	
2428666666.66668	-13.4794538641133	97.6721034569703	-10.0410346215201	-32.5759421973691	-46.5962786527483	-43.8261573802599	-21.5050785353806	-9.96759836109979	
2429000000.00001	-13.4461529562361	97.2332889464369	-10.0378849940439	-34.8744750867725	-46.8256459756219	-48.6033396248476	-21.3185116146313	-10.704647584672	
2429333333.33335	-13.4251990802972	96.8835579434318	-10.0484123745486	-37.1477973590537	-47.1828063202285	-50.7308891596062	-21.135544698074	-11.5731283176859	
2429666666.66668	-13.395326053431	96.5348282412807	-10.0508256692624	-39.3719301522602	-47.1161193741568	-53.1502380948811	-20.960643202232	-12.3074485097733	
2430000000.00001	-13.3710475870041	96.144612850919	-10.0566313927408	-41.6550319047258	-47.0832521150659	-53.7313228404248	-20.8061273799369	-12.9561860718695	
2430333333.33335	-13.3389816640866	95.7904037459353	-10.0593016901994	-43.9234530890356	-46.9973236766525	-56.609334909527	-20.6614107887073	-13.7194366046821	
2430666666.66668	-13.3239724508247	95.4421590132201	-10.0612246566002	-46.1728297432344	-46.9441153140427	-60.1152714914531	-20.4898549147113	-14.3451138292763	
2431000000.00001	-13.2956313058749	95.1596771115349	-10.0656026671449	-48.4628481157767	-47.1323417202032	-60.8041783383358	-20.3582543204349	-15.1342292991579	
2431333333.33335	-13.2709788306415	94.8430445196141	-10.0683998869975	-50.6492148486419	-46.9389483244081	-63.7889492193377	-20.2003028969908	-15.7718392220979	
2431666666.66668	-13.2503732893883	94.5590762984937	-10.0728775289073	-52.9358548597752	-46.9126690908751	-65.1063152805966	-20.0658521817176	-16.3780487535651	
2432000000.00002	-13.2307759276966	94.2392527997811	-10.0767100955421	-55.1814174928459	-46.7230873840208	-67.9951719008106	-19.916203136976	-17.0620126830334	
2432333333.33335	-13.2176960068926	93.9595484567611	-10.0785299600064	-57.3863760481795	-46.882597091431	-69.6603832177928	-19.7886677749993	-17.7514974353154	
2432666666.66668	-13.2038089862878	93.6980563653336	-10.0840974722999	-59.6275663581194	-46.8256318999725	-71.8132198733505	-19.6665574238498	-18.3071892421307	
2433000000.00002	-13.1794763820461	93.4655968355199	-10.0862306028375	-61.8572177046763	-46.6944239640834	-74.8993879847604	-19.5518610861559	-18.986948430955	
2433333333.33335	-13.1762804761911	93.1704492131257	-10.085592686651	-64.0900695168135	-46.8038364804658	-76.3635992901166	-19.4313514574714	-19.5743030675954	
2433666666.66668	-13.152144460075	92.8936183677422	-10.088845529729	-66.3630372711906	-47.1485056339509	-79.536549799876	-19.3352906322407	-20.186500391042	
2434000000.00002	-13.1478699705219	92.6329952211008	-10.0910742858482	-68.576103825745	-47.1016541980488	-80.8046673112169	-19.237337836726	-20.7881174228878	
2434333333.33335	-13.1313998204885	92.3182295914769	-10.0968681033282	-70.8212102865743	-46.7461298820129	-81.6834545068564	-19.138654760527	-21.3463238064799	
2434666666.66668	-13.1216056775752	91.9465679050867	-10.0972402880838	-73.0336308175109	-47.2598155178461	-86.0288666302599	-19.0542950591691	-21.9384507213999	
2435000000.00002	-13.1115249823689	91.6883129307502	-10.0952434901391	-75.2551693537727	-47.3317042712639	-87.1658226496077	-18.9801303203764	-22.5838346608536	
2435333333.33335	-13.0946683226376	91.3761078476159	-10.0971278800679	-77.4651505106535	-47.2086039974254	-91.2393917735213	-18.9045203165671	-23.1570007615017	
2435666666.66668	-13.0875723476662	91.0578582265782	-10.0959308770131	-79.6765975693731	-47.0691412174894	-91.6499204154227	-18.8487488979747	-23.6712526473994	
2436000000.00002	-13.0831768278429	90.6859949501312	-10.1001824308881	-81.9108109293155	-46.8351382431699	-93.8566445599017	-18.7922137642286	-24.2325032680537	
2436333333.33335	-13.0722286602553	90.306191421709	-10.0978091130717	-84.098639687796	-47.073590928709	-96.8267434022048	-18.7318061800361	-24.7737381742711	
2436666666.66668	-13.0627863728236	90.0353216823051	-10.1001996465117	-86.316370730628	-47.0494949794899	-98.9691048044757	-18.6857256647367	-25.1887012425624	
2437000000.00002	-13.0646402416843	89.6616653779318	-10.0960256021001	-88.5370580948778	-47.1042874047489	-98.9765315276514	-18.6489643079543	-25.7593526906412	
2437333333.33335	-13.046808213516	89.2381879836236	-10.097383868453	-90.7437990349746	-47.0818839697608	-103.001790210086	-18.6024746584237	-26.3632884842409	
2437666666.66668	-13.0410590114933	88.9488246960135	-10.0892714719837	-92.9679264225438	-47.378956050765	-103.023966948903	-18.5740240872139	-26.8038240155712	
2438000000.00002	-13.0478242664701	88.5822640268089	-10.0891098296312	-95.1488882282862	-47.1682096616824	-107.258069110338	-18.5551908298739	-27.3282876922951	
2438333333.33335	-13.0427714943417	88.1587544191769	-10.0868481232647	-97.3603299784544	-47.0904495491581	-108.185292011276	-18.5478998503349	-27.7650110366201	
2438666666.66669	-13.0322168721808	87.8090551631548	-10.0846702469384	-99.5529455940175	-47.054733644229	-111.856400018234	-18.5327338436138	-28.2948194296006	
2439000000.00002	-13.023110902919	87.3833577269226	-10.079897435674	-101.767648539105	-46.785342028992	-115.899333038871	-18.5316815427757	-28.6445904211578	
2439333333.33335	-13.0314526447064	87.0921212685771	-10.0747957244667	-103.960990012531	-47.1121835618085	-115.933520277645	-18.5408764091012	-29.066089192488	
2439666666.66669	-13.0248868115207	86.6393398656289	-10.0720373064959	-106.152751455931	-46.9196673403623	-118.832965585712	-18.5568015705763	-29.3786441095069	
2440000000.00002	-13.0185378328283	86.2328123395086	-10.0671669594749	-108.407803872349	-46.9020871636527	-119.792286173556	-18.5695128152531	-30.1041274660166	
2440333333.33335	-13.018227006498	85.7486608829029	-10.057026143793	-110.583621029617	-46.9057942800754	-122.267312778527	-18.6026452577976	-30.2708992427815	
2440666666.66669	-13.0169473363644	85.3804809576298	-10.0508980987638	-112.770136182882	-47.107727658871	-125.546962037786	-18.6294731271796	-30.7623615598209	
2441000000.00002	-13.0303020039749	85.0074235309081	-10.0446396005818	-115.016224045725	-47.1378668950173	-128.536080013627	-18.6585919264246	-31.1632252309333	
2441333333.33335	-13.0213218111406	84.5653531661463	-10.0334686847822	-117.197527352324	-46.9054923665625	-130.317225532946	-18.711366838847	-31.6285123686533	
2441666666.66669	-13.0452074992548	84.2078015632859	-10.0298088117761	-119.446898122556	-47.3592722382082	-132.932219236608	-18.7492746319712	-31.7760148282751	
2442000000.00002	-13.0436874542808	83.8014475510151	-10.0180889356938	-121.619760470251	-47.4076075120845	-134.395404287365	-18.832288985109	-31.9948628533886	
2442333333.33335	-13.0524826855074	83.4672358335007	-10.0146442758682	-123.865346929852	-47.2647947902195	-137.217772124733	-18.8854110692591	-32.329776859354	
2442666666.66669	-13.0848148546229	82.971185460225	-10.0036764531756	-126.03443623854	-47.1259296376183	-137.598275694316	-18.9546720949751	-32.662548797331	
2443000000.00002	-13.0832098895508	82.6382493556939	-9.99214846265039	-128.325212829666	-47.1323955644234	-141.056379363574	-19.058768370365	-32.8998951984155	
2443333333.33335	-13.1123862936829	82.1184641477005	-9.98079642175808	-130.539902442327	-46.8097393642983	-143.923679696125	-19.1265708182302	-33.2452040731262	
2443666666.66669	-13.1396587239802	81.7055019286106	-9.98200308078673	-132.739745648176	-47.2690255117929	-145.747838937982	-19.2030217388868	-33.3714274766788	
2444000000.00002	-13.1540008240902	81.3452173667074	-9.96405049490944	-135.024632601591	-47.0544691745987	-146.132374650206	-19.3063085337012	-33.6206611502377	
2444333333.33335	-13.1549303563793	81.0007213780535	-9.95344462813974	-137.252651735348	-46.8849674384774	-148.421913027725	-19.4263273643264	-33.7223093104074	
2444666666.66669	-13.1962254919637	80.5259035544142	-9.94969776946091	-139.483969483565	-47.0131249839354	-150.855282207174	-19.5355938511054	-33.9044352365825	
2445000000.00002	-13.223958552909	80.0599018410834	-9.94233804242002	-141.731161276315	-47.175270057296	-155.426006841511	-19.6610175562213	-33.9252056189749	
2445333333.33335	-13.2291015598946	79.6856921766551	-9.93334404805632	-143.963143299656	-46.7056038133027	-156.572611221537	-19.7902404683045	-34.0532374013314	
2445666666.66669	-13.273562249496	79.1993247569988	-9.92246638207679	-146.204308822515	-46.9098285416441	-157.905026569834	-19.9160285092933	-34.0787356521863	
2446000000.00002	-13.2855278762836	78.7809562351364	-9.91406726522147	-148.488532533226	-46.8538351984336	-159.983049047112	-20.0498991414814	-33.9852998317609	
2446333333.33336	-13.2981142861609	78.2745675540218	-9.90830800776211	-150.729012860549	-46.9289535466184	-160.137544991789	-20.2021398603318	-34.0306478068761	
2446666666.66669	-13.334696499053	77.9410869040734	-9.89592142034962	-153.004224439101	-46.7852804050077	-163.788271904465	-20.3621378370913	-34.1173375739172	
2447000000.00002	-13.368794935127	77.3788156807443	-9.88826611560663	-155.236498838961	-47.1345270391829	-168.065836940586	-20.5158405355259	-34.0431418481454	
2447333333.33336	-13.3878176719446	76.9510419742029	-9.87873668436124	-157.511950334585	-46.6531363257841	-171.226395464916	-20.6910081269344	-33.8184888214653	
2447666666.66669	-13.4055880926235	76.5289389681106	-9.86799506758964	-159.752375475907	-47.0375215906928	-169.750704298821	-20.8712891194305	-33.6637349349558	
2448000000.00002	-13.4282048862152	76.0481331804617	-9.86509397358249	-161.988024658022	-46.8810527742106	-175.096158955034	-21.056537010764	-33.3830062852599	
2448333333.33336	-13.4534813933659	75.5939333402891	-9.85517987184514	-164.255358960457	-46.8251713719924	-175.293135374217	-21.2474943591174	-33.1782595711173	
2448666666.66669	-13.4813162748015	75.074032077137	-9.84687977019391	-166.528825636228	-46.8403099533241	-177.736288912352	-21.4446363272932	-32.7885094924946	
2449000000.00002	-13.5227050680104	74.6363348820249	-9.84582212444066	-168.772573681999	-47.0569001092845	-179.317823587259	-21.6417357254757	-32.3096132809234	
2449333333.33336	-13.5451022005375	74.0769653150135	-9.83147932126284	-171.051265476093	-46.8472511754364	175.864097537914	-21.8378317255977	-31.9718512930759	
2449666666.66669	-13.5706083981565	73.674672737004	-9.82386670332992	-173.326959176375	-46.7401033020934	175.415889713394	-22.0707318469031	-31.2204402684812	
2450000000.00002	-13.5997097462596	73.1048200877645	-9.81848161692115	-175.582362012861	-46.5269841871438	172.973434538752	-22.2621163573999	-30.8679139756135	
2450333333.33336	-13.632200283261	72.6474500511563	-9.80531271405685	-177.83613280078	-46.7205179099589	172.475262600159	-22.514432085776	-30.0572765065405	
2450666666.66669	-13.6553424778432	72.1404478143546	-9.80099767774177	179.926664103115	-47.0621035517969	171.306406529723	-22.7275870320319	-29.3231836841482	
2451000000.00002	-13.6810418254213	71.681988679633	-9.79828741006226	177.656223870269	-46.8894841711683	164.905584018722	-22.9454453298387	-28.4071455475327	
2451333333.33336	-13.7004753801378	71.236068338694	-9.79165414459311	175.390160060831	-46.923332282262	165.477365612377	-23.2359730486074	-27.654937242674	
2451666666.66669	-13.7206839112059	70.7858500728077	-9.78621939065835	173.151875392929	-46.9629867387594	162.468544952565	-23.4564543109669	-26.8027224332203	
2452000000.00002	-13.7324966899872	70.2081198039308	-9.77962915452284	170.87959146136	-46.6130880354329	159.996072870293	-23.6790053484649	-25.590158432234	
2452333333.33336	-13.7481954003161	69.7706684913802	-9.7748777543646	168.628105708034	-46.4995494402517	157.917859895713	-23.92505202864	-24.4094059894343	
2452666666.66669	-13.7675677392402	69.1551153351855	-9.77000975141784	166.344330271575	-46.3686363928738	153.049812418245	-24.1584177842059	-23.4971348869246	
2453000000.00003	-13.7812486742778	68.7608664116005	-9.7623506927613	164.081741424574	-46.5726275745403	152.645072496747	-24.4189750893809	-21.8711420863521	
2453333333.33336	-13.795661296186	68.2549431421659	-9.75855742236332	161.860053957972	-46.519781573314	150.961916410134	-24.6121973734191	-20.2447237858702	
2453666666.66669	-13.7933596761819	67.747211996192	-9.75707869794716	159.58281697459	-46.5494884499733	149.0110565335	-24.8682870327025	-18.8004846819844	
2454000000.00003	-13.8069158812532	67.2433968006454	-9.74622869545715	157.323483876952	-46.8558484144208	145.833077397161	-25.0818673001881	-17.3042717181706	
2454333333.33336	-13.8122680165936	66.6515525925963	-9.74628843646607	155.063575632575	-46.6471618286861	146.487110649379	-25.3277984010428	-15.5610967295069	
2454666666.66669	-13.815052200822	66.2141990590668	-9.73918740121822	152.837574776632	-46.8293468755821	142.258821652781	-25.4917491247619	-13.6480118310198	
2455000000.00003	-13.8099969050508	65.6131723749476	-9.73554527580332	150.58269869762	-46.4202448465787	138.399389767263	-25.7285933928212	-11.5513230686981	
2455333333.33336	-13.8203718379396	65.0669779955752	-9.73620730991398	148.325746097583	-46.5631346016448	136.523525415335	-25.9113399357761	-9.76583767048328	
2455666666.66669	-13.8067327175826	64.5723648348085	-9.72945217395623	146.081127321785	-46.6154460943177	135.278459627442	-26.0972098871545	-7.50876928743045	
2456000000.00003	-13.7967702360293	64.0199909065996	-9.72902169158981	143.758345848849	-46.818096900273	131.684598035536	-26.2211467167267	-5.31611297613089	
2456333333.33336	-13.7908892991455	63.5503235350841	-9.72566847780111	141.584501898653	-46.4798084911955	130.560142061782	-26.3283407912887	-3.34018305722391	
2456666666.66669	-13.7779562293053	62.9511209247344	-9.72047797072078	139.33902569726	-46.8218723728669	128.736596726793	-26.4811507079128	-1.10988213496924	
2457000000.00003	-13.7732027909467	62.4261377242914	-9.72109514292537	137.033381020157	-46.5143933691867	126.667946471668	-26.6152622960558	0.968536706254302	
2457333333.33336	-13.7590443874506	61.9350360113015	-9.72701785609434	134.823947966581	-46.6422474878989	122.516876876689	-26.6507969246326	3.41495552232165	
2457666666.66669	-13.740772246944	61.3225077191185	-9.72512104646494	132.520149458912	-46.2816020037252	119.848448724191	-26.761577448296	5.71455752248361	
2458000000.00003	-13.7198681672842	60.7680928155477	-9.72898138841293	130.290203314131	-46.3524146322834	120.17644445772	-26.7548638966006	7.91751127541658	
2458333333.33336	-13.6922519670164	60.255981205225	-9.72204386756855	128.041619624206	-46.5097596345095	115.741544957251	-26.7679866219423	9.97225622115098	
2458666666.66669	-13.6736465006908	59.6532338097723	-9.72622020454449	125.763382884116	-46.4657345405814	114.913120440809	-26.7990447237964	12.0551715869599	
2459000000.00003	-13.6516659161127	59.0716598769789	-9.72421133034601	123.527944043276	-46.4222168778769	112.367073027824	-26.8226372231321	14.092061696132	
2459333333.33336	-13.6208325608269	58.5302058103518	-9.72221257858247	121.288239047544	-46.4553535037376	109.891564576364	-26.7892254045837	16.0410050452772	
2459666666.6667	-13.5952701145468	58.0209796134583	-9.7200363510751	119.006809860243	-46.7534726372666	109.298621781818	-26.7009712281883	17.8946215104828	
2460000000.00003	-13.5697510797278	57.4407243104774	-9.71838307866259	116.746062352891	-46.3204823575261	105.638838017406	-26.685284303893	19.6490059974168	
2460333333.33336	-13.5355562185484	56.9235288520531	-9.72958851904714	114.508120305987	-46.3332532043913	103.086075357989	-26.6198281716274	21.6498940442249	
2460666666.6667	-13.5044178530417	56.3506709439092	-9.72334704432333	112.325628746929	-46.3120806724247	102.015890497405	-26.5649265155232	23.0272272939766	
2461000000.00003	-13.4741402437707	55.8223308303325	-9.72346071771019	110.04298069656	-46.4545929770989	98.1467310956546	-26.5016717789532	24.6643571047578	
2461333333.33336	-13.4372294929201	55.2336615695515	-9.71881742193523	107.811727937917	-46.1984390287376	96.3327700951684	-26.4287939548755	26.0244153044032	
2461666666.6667	-13.4017091230745	54.6612635924349	-9.72604954591021	105.512929492143	-46.8897442665377	95.0825557286172	-26.3467376959092	27.4445259998743	
2462000000.00003	-13.3585411896413	54.1355387625395	-9.72186510385978	103.205298651062	-46.3184454343536	91.730030855712	-26.2919562373332	28.5012945024466	
2462333333.33336	-13.3213339550246	53.6032599801139	-9.72392026739466	100.96461468437	-46.5520806240361	91.0390488141642	-26.2437713306287	29.7505640835359	
2462666666.6667	-13.2750111915708	53.0021531496344	-9.72854285228745	98.6889839245337	-46.5588308628446	88.9114472790063	-26.1748233524689	30.5279019260201	
2463000000.00003	-13.2384934212721	52.49703209243	-9.73037174184725	96.4371692579615	-46.2350697262129	85.1665105861109	-26.102570686703	31.73663624345	
2463333333.33336	-13.1947850863354	51.9503823983622	-9.72880548568122	94.1660381012797	-46.5056703339476	82.1565917599808	-26.0360008803867	32.4840146964413	
2463666666.6667	-13.1410263653468	51.4129539999406	-9.73367572012643	91.8956763647601	-46.5599349610875	78.8597301464033	-25.9830059468271	33.34661249915	
2464000000.00003	-13.1051777817013	50.9478687090718	-9.73532353279699	89.625971110596	-46.4238071689109	77.8332248298685	-25.947339261233	34.2427280441304	
2464333333.33336	-13.0597060251051	50.362898989083	-9.73496505796704	87.3815690694786	-46.4163745118417	75.0097572935092	-25.8855612879136	34.8572939125942	
2464666666.6667	-13.0129149494705	49.8376610055864	-9.73910750098888	85.0889852798656	-46.3595324065275	72.2699961511869	-25.8177758801284	35.2757095672697	
2465000000.00003	-12.9747167361092	49.3665972600486	-9.73783189317604	82.8348973257572	-46.4786200507909	71.266306608489	-25.7647391872283	35.7266304751339	
2465333333.33336	-12.9267514420708	48.8657647466866	-9.74244163337631	80.54154401197	-46.5813887018365	69.1088226816575	-25.7117621008344	36.2018361164009	
2465666666.6667	-12.8762085808679	48.3900897612295	-9.73875214591698	78.2832331344899	-46.2690460501839	65.6129783988324	-25.6992734093353	36.6288377068738	
2466000000.00003	-12.8295073362764	47.888088895415	-9.74284599213348	75.9854188071684	-46.314023015176	64.2840861234944	-25.666054071958	36.95261416469	
2466333333.33336	-12.786055765704	47.443280454377	-9.74629417983052	73.723306261317	-46.0920955857507	61.2253786082256	-25.5967775145837	37.0444244996945	
2466666666.6667	-12.7382284091244	46.8816289402371	-9.74587811269423	71.437100640682	-46.5717727610553	58.6878895841654	-25.5825975425872	37.3095365147189	
2467000000.00003	-12.701935857802	46.4890532434158	-9.74686759576253	69.1554322852689	-46.230080999835	59.2879223983664	-25.5807577807077	37.5047090297667	
2467333333.33337	-12.6454495903558	46.0364786459786	-9.75376232994559	66.8772654161639	-46.363099441966	55.1632807388306	-25.5270056103716	37.527134398127	
2467666666.6667	-12.5981034780749	45.5819774349426	-9.76010608568938	64.6323002985167	-46.5341312214416	52.0207210828567	-25.5122852242891	37.635285256868	
2468000000.00003	-12.560795176836	45.1256942145156	-9.7541549429818	62.3114755105412	-46.6364396767601	48.7265366033417	-25.5047213887223	37.8511956585071	
2468333333.33337	-12.5079902560507	44.6901500622021	-9.75298171379935	60.0321275051172	-46.2492507012567	47.9010051364827	-25.52934946395	37.5818635033819	
2468666666.6667	-12.4606877797331	44.3116250191345	-9.75826019587	57.711993195192	-46.5375425275718	45.6070409204816	-25.4868562531089	37.6035348172538	
2469000000.00003	-12.4173198838407	43.9171894090075	-9.75990714087667	55.4262177031392	-46.5761881559852	42.7160760219672	-25.4676217264869	37.3408541637607	
2469333333.33337	-12.3711509253884	43.4998414419557	-9.76051231590906	53.1351170231477	-46.6148515548995	39.5441319181434	-25.5241143020906	37.2053863012452	
2469666666.6667	-12.3204592280068	43.112517621268	-9.76154849872713	50.8465557568097	-46.2048033677762	37.0084336252462	-25.5123381743155	37.0717442353629	
2470000000.00003	-12.2725933461823	42.7076899994444	-9.76237012666469	48.511251340146	-46.4414140958358	37.637770561196	-25.5229110096649	36.7777659152966	
2470333333.33337	-12.2284203686912	42.3413200802532	-9.76543812665676	46.2154181249012	-46.6875496629013	34.4738778091475	-25.5388844847526	36.4680758118448	
2470666666.6667	-12.1831570373771	41.9774257343692	-9.76709228372238	43.8665085459817	-46.3325577712904	31.6702735107459	-25.5506372633628	36.0668329354713	
2471000000.00003	-12.1388241597082	41.6345779776706	-9.7739490800783	41.6265852342649	-46.3047536253961	29.5977094951102	-25.5329230430807	35.7766151495471	
2471333333.33337	-12.0924339739294	41.2455126890697	-9.77848962934967	39.280819156293	-46.3202487901956	26.831220110461	-25.5861045692209	35.3647630372237	
2471666666.6667	-12.0502081084418	40.8791516088108	-9.77250901862857	36.9465625735502	-46.2879795777229	25.2736585170159	-25.5729175880428	34.9058064345946	
2472000000.00003	-11.9987700236849	40.552571976795	-9.77900177346308	34.6494676135434	-46.6365411263255	22.5343261635001	-25.5878305110304	34.3777286988181	
2472333333.33337	-11.94894662873	40.242421314769	-9.77898036784218	32.3606050834782	-46.352073192663	19.3175272884036	-25.6393207548119	33.9643736359368	
2472666666.6667	-11.9008983695469	39.9382586693679	-9.77836326813095	30.0201941440238	-46.5017892291117	17.2216499229741	-25.6793511325261	33.3419553518032	
2473000000.00003	-11.85236667968	39.6445711081932	-9.79312528725876	27.6466502124041	-46.6577233253165	13.1486649523346	-25.7305732431222	32.8053919969821	
2473333333.33337	-11.8054448560048	39.3255249155295	-9.79298107285463	25.3373719199303	-46.3176654268233	11.3091143847134	-25.7669522646388	31.9763338258733	
2473666666.6667	-11.7566001559932	39.062217682145	-9.79626996844386	22.9668087070489	-46.6229735519058	9.85540933650175	-25.7776118781676	31.3845084997176	
2474000000.00004	-11.71288007065	38.7177813268912	-9.80308365174456	20.6361073157609	-46.3855183675014	7.09236081893865	-25.8172627124844	30.5214170077384	
2474333333.33337	-11.6698759048962	38.4375434879091	-9.80412616511004	18.3005827869034	-46.4519289697591	5.77546077040443	-25.8388986785105	29.9665261813058	
2474666666.6667	-11.620833718093	38.147441530516	-9.80852358531488	15.9499993508595	-46.6157952509176	3.7924913285138	-25.8734449936435	28.8658953152814	
2475000000.00004	-11.5748736143775	37.8710652186236	-9.81690280828897	13.6249013393035	-46.3906913035373	1.80474740311744	-25.9269587103899	28.0385863008198	
2475333333.33337	-11.52900500684	37.573489410795	-9.81623393738508	11.2545130108143	-46.2287269047345	-1.32890927961757	-25.9554748399783	27.2994800889138	
2475666666.6667	-11.4806997273205	37.286992647697	-9.81397374070099	8.95111227116892	-46.3140908279302	-4.10082572927356	-25.9643687337448	26.2589226119014	
2476000000.00004	-11.4447540299927	37.0011839985864	-9.83166920410613	6.55088140487735	-46.2225568141491	-6.48869337801047	-25.9922195783758	25.1827052534852	
2476333333.33337	-11.3989926304572	36.7144285586521	-9.8298596776314	4.21519890395586	-46.641560294148	-7.95726329870531	-26.0228886673991	24.3312119289453	
2476666666.6667	-11.3595748901451	36.3639242175662	-9.83225281629328	1.85623638866383	-46.410561269556	-11.4833262382659	-26.0387648708268	23.3183660285035	
2477000000.00004	-11.3233629168971	36.1050884119783	-9.84561048881244	-0.484597062655009	-46.5762668979647	-13.989877728043	-26.0517948429838	22.3956993346319	
2477333333.33337	-11.278090809616	35.7793819383635	-9.84965035125021	-2.82588301588667	-46.2194134291098	-14.5577150222	-26.013593078007	21.3612819650517	
2477666666.6667	-11.2433256267954	35.4051139941767	-9.855978614801	-5.12902471626321	-46.4666365571046	-17.8717872142409	-26.0367809164651	20.0189700013556	
2478000000.00004	-11.2045730780007	35.0932928425609	-9.86236007862557	-7.49075763364025	-46.2783210283036	-19.4061858475633	-26.0193456551913	18.9982218241213	
2478333333.33337	-11.1668503487465	34.7683556617203	-9.85997927427191	-9.82238953516373	-46.339420273498	-20.3104485794667	-26.0263860953895	17.9007062802152	
2478666666.6667	-11.1257496035649	34.4790242137694	-9.87276448559082	-12.1726844138514	-46.6438441572119	-22.8285628649252	-26.0015282217962	16.5647443767003	
2479000000.00004	-11.0862446297021	34.1478613301916	-9.87548826916927	-14.4743980216125	-46.6532303271483	-24.978661143462	-25.9991023259726	15.4898377197422	
2479333333.33337	-11.0525111700668	33.7974258033214	-9.88457358838749	-16.7907766682175	-46.3990446526235	-28.0183585143994	-25.9646457665551	14.2386955062622	
2479666666.6667	-11.0177853833871	33.4928505905664	-9.89332007110541	-19.1192668368084	-46.4144477922312	-32.03126415135	-25.9102552223887	12.9984778468485	
2480000000.00004	-10.9809642781569	33.1820098795582	-9.89881729690325	-21.4705539981544	-46.7117912497383	-32.2419417078533	-25.9137953980925	11.710111415771	
2480333333.33337	-10.9540110583507	32.7644402891313	-9.90146016554344	-23.769350114232	-46.4640190718361	-35.7577218397234	-25.8333949054123	10.577762197993	
2480666666.66671	-10.9313678757387	32.428902336725	-9.90876177240507	-26.0863428169536	-46.1087210928998	-38.1636746656407	-25.7566871228813	9.29041800051962	
2481000000.00004	-10.9005547205086	32.092726876422	-9.91944949339277	-28.3752587167098	-46.7317022147125	-40.6824336397158	-25.7129784454315	7.99552053660967	
2481333333.33337	-10.8699065167629	31.642403736528	-9.92232465894544	-30.6747797616124	-46.3905181008381	-43.6348851770335	-25.6481859109101	6.76635437482147	
2481666666.66671	-10.8548763021045	31.3478357545308	-9.91714745423448	-33.0229590727686	-46.2394900212671	-44.2864969244958	-25.591560218951	5.6315239953578	
2482000000.00004	-10.8252119923703	30.9333151516073	-9.92716364312589	-35.2636097773895	-46.3143467627182	-47.9461579505097	-25.5031725838228	4.46758888657514	
2482333333.33337	-10.8086487310279	30.5372020825896	-9.93369241603755	-37.5727118483517	-46.4095574914828	-48.7869585481008	-25.4158981483328	3.25295303321871	
2482666666.66671	-10.7838693633851	30.1353757865661	-9.93357211779889	-39.8462330327685	-46.474555369798	-51.9760586099269	-25.3542283590491	1.93992721027745	
2483000000.00004	-10.7759353738567	29.7730786964382	-9.93494491609305	-42.160113148779	-46.2006034203769	-54.170805806196	-25.2536776219388	0.937903128508058	
2483333333.33337	-10.7563965247619	29.291749023449	-9.94076153109333	-44.4291093478882	-46.4925696899742	-55.5432410831063	-25.1486974833678	-0.425297555810406	
2483666666.66671	-10.7403580032659	28.8771797332976	-9.94411635347535	-46.7254819520032	-46.7181194921328	-58.1999891068472	-25.0750551918381	-1.52563897798207	
2484000000.00004	-10.7236808699688	28.5186312928444	-9.94322912191559	-49.0055034074669	-46.4908623685111	-60.141319859895	-24.9591427105835	-2.7710900997281	
2484333333.33337	-10.7115069669898	28.183711837876	-9.94836641412077	-51.241111069885	-46.5567741619405	-61.1242921108947	-24.8383832592058	-3.76408405811518	
2484666666.66671	-10.7024785934849	27.8001798647469	-9.94490195766515	-53.5526546979387	-46.6597634206416	-64.951567389637	-24.731131519413	-4.99058343643021	
2485000000.00004	-10.6895800958077	27.3247345733147	-9.94670490740256	-55.8246423921565	-46.5764113355836	-65.6194606367429	-24.5898954428353	-6.12452966247618	
2485333333.33337	-10.6816525040173	26.8728340008559	-9.94239999294627	-58.0682357737069	-46.6455934985291	-68.1582577069381	-24.4948903694436	-6.95374845183321	
2485666666.66671	-10.6716531587341	26.4856155813585	-9.94421050521212	-60.3585049719841	-46.5711327694244	-71.3847832121173	-24.3717719364473	-8.12187423425957	
2486000000.00004	-10.6747036924484	26.0832014325111	-9.93473058863042	-62.6247356462826	-46.0463597090673	-74.7199668715689	-24.2466679250373	-8.99054121740677	
2486333333.33337	-10.6725742545144	25.6982512146962	-9.93194957077875	-64.8764661939244	-46.605714195123	-77.9393652176694	-24.1177738289425	-9.96485115515543	
2486666666.66671	-10.6681379050255	25.2378662288855	-9.93469682037605	-67.1451040216598	-46.6511453483323	-78.487889812965	-24.0258274715568	-10.9422498006605	
2487000000.00004	-10.6713333344844	24.7417786183969	-9.9305909770654	-69.422170353536	-46.6052733186012	-81.078084831985	-23.8912777104386	-11.8654487101233	
2487333333.33337	-10.6772258415588	24.3482942940171	-9.92994210231264	-71.7075606225307	-46.5184830597459	-82.3719681580526	-23.7815653945743	-12.7953548218836	
2487666666.66671	-10.6696208510514	23.9041986421106	-9.91919896882955	-73.9683282056005	-46.6205533068606	-84.7382122374052	-23.6947764591025	-13.6027669480325	
2488000000.00004	-10.6867668906889	23.4081384742083	-9.92330081691288	-76.2621508525742	-46.5026763137759	-88.038300450706	-23.5617579319663	-14.2230873393549	
2488333333.33338	-10.681469643903	22.9197705417294	-9.91465201693353	-78.539150679891	-46.6673447379772	-88.2372199559506	-23.4519432440643	-15.2494629125725	
2488666666.66671	-10.6945423746609	22.4586036849353	-9.91400086504302	-80.7834736869748	-46.2396988502011	-91.0249339453921	-23.3299025690989	-15.8845001939877	
2489000000.00004	-10.7175889632684	21.9536888320055	-9.90470911869891	-83.0990012274328	-46.6304710962065	-93.9043321053745	-23.23584380824	-16.5969730707103	
2489333333.33338	-10.7208818062709	21.4695225532829	-9.90291745690777	-85.3282269159695	-46.5680293095579	-98.7923094768735	-23.1131726879455	-17.323061698251	
2489666666.66671	-10.7385228314965	20.9515054970123	-9.90027683202701	-87.6119608766188	-46.4741422853589	-97.2695756291065	-23.0203691670505	-18.0262081341289	
2490000000.00004	-10.7599703207078	20.3814508196783	-9.88858799891594	-89.9084878703593	-46.7696309584413	-98.714276135143	-22.9386587304232	-18.6149157594245	
2490333333.33338	-10.7831130585876	19.8987975216411	-9.88718269055035	-92.1624848866398	-46.5746990120505	-105.395216789679	-22.8565163113291	-19.3839351846116	
2490666666.66671	-10.7977996314959	19.3880830115911	-9.88402406790346	-94.4508237392007	-46.4267918428661	-105.772903233828	-22.7792925523093	-19.9588038073761	
2491000000.00004	-10.8134396071878	18.8546826599939	-9.8767015067433	-96.7374554001246	-46.5712958900328	-106.321574956169	-22.6759304198858	-20.5856115413499	
2491333333.33338	-10.8488357794057	18.3324504275453	-9.87525485470923	-99.0234843293423	-46.7604227915698	-110.030424249177	-22.6198535564702	-21.0349419426137	
2491666666.66671	-10.8654039353649	17.8569568580987	-9.8670320376809	-101.258985091866	-46.4243044524026	-111.884515634692	-22.4988173482498	-21.570856065355	
2492000000.00004	-10.8980149537116	17.2461922879003	-9.85816866050551	-103.560336041335	-46.4755931793625	-113.982835614863	-22.4297905988055	-22.0430286164865	
2492333333.33338	-10.9258945628807	16.6638648169542	-9.85725103108186	-105.805070403882	-46.8292824520924	-116.806340463072	-22.3563501727272	-22.4833410553391	
2492666666.66671	-10.9680750700962	16.141802222305	-9.85173529098727	-108.082513759438	-46.8127508130996	-118.053128062707	-22.2925046695432	-22.9424996816266	
2493000000.00004	-11.0024969271564	15.6484429876428	-9.84113466038075	-110.353343418606	-46.578181328202	-121.066834682507	-22.2239799856272	-23.1997744231057	
2493333333.33338	-11.031270462933	15.0208427037205	-9.83913458634684	-112.621270365046	-46.5409995114204	-123.977125757774	-22.1967362815479	-23.720195386606	
2493666666.66671	-11.0602649594864	14.5379006287483	-9.83059072611468	-114.901403496266	-46.7219942476715	-126.489420492463	-22.1496131995533	-23.9563415306011	
2494000000.00004	-11.0913922468419	13.9496630295852	-9.82657421775556	-117.141777989972	-46.5206391938314	-126.492941585796	-22.1036164180245	-24.1449366368942	
2494333333.33338	-11.13660739609	13.3509509947322	-9.81668694671214	-119.436967424125	-46.5766981037785	-129.658311188741	-22.0719888467673	-24.5108096579657	
2494666666.66671	-11.178632763005	12.80055450809	-9.81788855534198	-121.711398633542	-46.7883363836134	-133.247162594978	-22.0468005434372	-24.7306191657438	
2495000000.00005	-11.2109015270501	12.25537218941	-9.81314033083489	-123.973100336396	-46.6867094467669	-134.368128737825	-22.0005276164865	-24.9508913516042	
2495333333.33338	-11.2523657116583	11.6936593112493	-9.81031480399497	-126.241410079612	-46.8448121031293	-137.596741500312	-22.0052447123941	-25.1057542902241	
2495666666.66671	-11.2868055151636	11.1111818665528	-9.80901602266443	-128.51346406542	-46.541252500785	-139.749773504497	-21.9912116096695	-25.2497199628698	
2496000000.00005	-11.3359518876425	10.5457896864933	-9.80333525401349	-130.823092477416	-46.8531237417263	-142.060097685403	-21.9784305588276	-25.4550782524528	
2496333333.33338	-11.366642536092	9.92083781462661	-9.79797491336322	-133.104562310767	-46.8254951311691	-144.592098687094	-21.9774176555827	-25.2865403153508	
2496666666.66671	-11.4087095590398	9.33250086371515	-9.79418606412879	-135.398423674789	-46.4376912121419	-145.049632460091	-21.9850567827723	-25.5962018471053	
2497000000.00005	-11.4387935882793	8.76760860112247	-9.78928229385945	-137.639884861287	-46.3598741902812	-147.753023414001	-21.9637144104519	-25.4728000314076	
2497333333.33338	-11.4838940401865	8.15222158807664	-9.78618010129641	-139.902119838453	-46.5877539142898	-151.784667755288	-21.9901852989127	-25.3660380419852	
2497666666.66671	-11.5258262658306	7.5871385498402	-9.7870830079194	-142.284423394075	-46.5758563412307	-152.600253751761	-22.0215466524306	-25.302333781557	
2498000000.00005	-11.5644261594928	6.97265743472154	-9.78330543774727	-144.530646774522	-46.462474599126	-153.630125548596	-22.0394766726379	-25.2414460896876	
2498333333.33338	-11.6080754142179	6.39379030938652	-9.78860304177787	-146.821898939971	-46.6124958572683	-157.530974062577	-22.07027867532	-25.15197947929	
2498666666.66671	-11.6290255743421	5.78857148574939	-9.78418714041767	-149.095140599919	-46.6015125235119	-159.111434992997	-22.094234725236	-24.86063469735	
2499000000.00005	-11.6656582404287	5.26423927644135	-9.78442983372328	-151.351191321759	-46.3972438529592	-161.608389089531	-22.1548459911379	-24.6706632200432	
2499333333.33338	-11.7089797663284	4.66283884635318	-9.79007448303769	-153.618121726811	-46.6268554164274	-164.599927784099	-22.1938582074232	-24.2279286485317	
2499666666.66671	-11.7509899067481	4.08160541407756	-9.79386084691599	-155.957240289343	-46.4338917848468	-168.693258524837	-22.2547686310033	-23.8709186948164	
2500000000.00005	-11.7781705421391	3.50300509831299	-9.80043349256075	-158.242503312006	-46.5988018201186	-168.809598352857	-22.3214639683029	-23.7685379240847	
2500333333.33338	-11.8068961600119	2.87240957410293	-9.79740806069551	-160.544305058672	-46.4436957926065	-170.92100533479	-22.3730719815017	-23.0524550784829	
2500666666.66671	-11.8491419632257	2.26210591744359	-9.80088557049999	-162.825111179835	-46.4904347738747	-173.026278696266	-22.41412958256	-22.5358834177735	
2501000000.00005	-11.8842978078721	1.69338332215371	-9.80333859392767	-165.063931491923	-46.501325978196	-174.94544713812	-22.4852708166387	-21.838436071941	
2501333333.33338	-11.8986370412388	1.05016868329676	-9.7973167294881	-167.385215495391	-46.7440979045022	-176.565894880527	-22.5575736428081	-21.5007045720662	
2501666666.66672	-11.9333250532389	0.438234687920071	-9.80805879036925	-169.708488685393	-46.6293567272337	179.169853778854	-22.6065442600481	-20.6325092710037	
2502000000.00005	-11.9708309936335	-0.187518126052041	-9.81592385213652	-171.929907787493	-46.5685977671263	177.89831907186	-22.675148039828	-19.7250655816033	
2502333333.33338	-11.9992108245366	-0.835778533437122	-9.81823605187027	-174.226151833298	-46.5611152149932	174.567251283882	-22.748801272621	-18.9008570816112	
2502666666.66672	-12.0369216263426	-1.50390815476925	-9.82076410601779	-176.543638868201	-46.6488778219636	174.371696625407	-22.809403007918	-17.8257259072085	
2503000000.00005	-12.0643122877389	-2.18044800051594	-9.83449584450313	-178.837184087399	-46.5592696874033	170.042559387905	-22.8667005232387	-16.9475458768031	
2503333333.33338	-12.0909001572152	-2.90101956400141	-9.84163781936939	178.919787616622	-46.4619000128196	167.233950727163	-22.9112426166364	-15.61850904927	
2503666666.66672	-12.121014878069	-3.57921623171173	-9.84926351581291	176.619502470877	-46.6604052015126	165.546055398003	-22.9749697404848	-14.4472526090517	
2504000000.00005	-12.1399265944327	-4.27677842364285	-9.85168586477201	174.399910219393	-46.7931761926627	162.595856682998	-23.0387901950095	-13.1713727647958	
2504333333.33338	-12.1671266796374	-4.9349294868617	-9.85927783006064	172.108035950903	-46.479396394955	162.012350265613	-23.0983429075878	-11.9088317313477	
2504666666.66672	-12.1921295225863	-5.65897569358325	-9.87334168693629	169.831883199498	-46.6064938699569	157.841430492173	-23.1255765302872	-10.589785101583	
2505000000.00005	-12.2178189314106	-6.43327222389019	-9.87958378630646	167.55756885675	-46.7105254739135	156.989706579869	-23.143716593394	-9.00472540933282	
2505333333.33338	-12.2294444632851	-7.08140624948631	-9.89319286606515	165.323532183731	-46.3182985533286	152.739265782113	-23.1731936340668	-7.72782953072212	
2505666666.66672	-12.2470774225565	-7.82127110808802	-9.90010374053866	163.045085413936	-46.4724074957072	150.976364556504	-23.1903395755166	-6.06311964510626	
2506000000.00005	-12.262913250473	-8.53952248491403	-9.91582267660858	160.800082618434	-46.6947023568033	151.209142315886	-23.183263994309	-4.37707990779059	
2506333333.33338	-12.278469472827	-9.27650187572408	-9.92326055184089	158.549835574233	-46.6992954173698	146.638912637509	-23.148272180901	-2.95714439805118	
2506666666.66672	-12.2959152871732	-9.98101963118259	-9.93166853380888	156.279575663072	-46.7920143413325	145.421597282601	-23.1656194158338	-1.50584419459332	
2507000000.00005	-12.3058382733116	-10.7661500558119	-9.94430081763463	154.016739391362	-46.335688912933	142.804457016206	-23.1289973639862	0.454052362378331	
2507333333.33338	-12.3195267271279	-11.4916391941031	-9.95035742964936	151.773502818688	-46.6180777905336	140.139787466951	-23.1015869735768	2.05361426026016	
2507666666.66672	-12.3370469274078	-12.2233075705543	-9.96586561329423	149.527611985754	-46.5172434111664	137.82837575879	-23.0510120079261	3.70020679599787	
2508000000.00005	-12.3422488290589	-12.9967980805135	-9.97613782486244	147.255123746709	-46.6660755372584	135.714858995868	-22.962001352185	5.24005442283881	
2508333333.33338	-12.3596847888625	-13.7677927662317	-9.98972995818608	145.036206617728	-46.6104303923566	133.799651433183	-22.8744951034871	6.96046336333344	
2508666666.66672	-12.3708067999911	-14.5774948367291	-10.0001450495429	142.795727275777	-46.6657342346004	130.517667070271	-22.8006410624368	8.56333712916332	
2509000000.00005	-12.3772777536335	-15.3867574526592	-10.0163138602656	140.530761271	-46.5247744467529	127.937526006808	-22.6699739624856	10.1322822519484	
2509333333.33339	-12.3873076756527	-16.1816446390129	-10.0283267819974	138.32716846545	-46.46710959692	125.985384072869	-22.5591223762898	11.5011739738425	
2509666666.66672	-12.3940628079803	-16.947350511049	-10.0369966414933	136.044839149797	-46.4421761131246	122.813656394995	-22.4671823333282	12.8606313333134	
2510000000.00005	-12.4027532790878	-17.7556911468699	-10.0509936530121	133.807433517047	-46.7118222312751	122.927546766017	-22.3170946281755	14.4317841617793	
2510333333.33339	-12.4061826455101	-18.514496216349	-10.0623809048164	131.590684139294	-46.4498207918079	120.358522841893	-22.1977105708063	15.7894445058548	
2510666666.66672	-12.412145030123	-19.3507733051702	-10.0744044516022	129.374708712445	-46.9456404145895	117.495387194808	-22.0430976342707	16.9641502730865	
2511000000.00005	-12.4125164669195	-20.0944938002782	-10.0874080189684	127.097304739999	-46.7894917773559	116.518461866255	-21.8737827544195	18.0228739135955	
2511333333.33339	-12.4153430472428	-20.8967377638494	-10.099388468357	124.864649569837	-46.8083208175472	113.032903738122	-21.7159345793992	19.3763110867191	
2511666666.66672	-12.4116304114015	-21.6449310527153	-10.1069981315193	122.646712574217	-46.7218863053385	112.830693658826	-21.5655317647016	20.2766065468611	
2512000000.00005	-12.4192087655133	-22.3661837344678	-10.131496022781	120.442647163272	-46.55641569936	108.874010897016	-21.4090096071935	21.3255079710359	
2512333333.33339	-12.4264027479114	-23.1523575737471	-10.1395281379523	118.208098444486	-46.541032747863	107.023509234149	-21.2593312740001	22.2438886614505	
2512666666.66672	-12.4298231803384	-23.8829752049264	-10.1485171194579	115.949417851928	-46.7273137552546	103.189939383285	-21.0873547963033	22.9873854294807	
2513000000.00005	-12.4336190376981	-24.6486129687857	-10.1697781765279	113.718623868306	-46.7534334239246	102.591983014599	-20.9463049575595	23.9829109195497	
2513333333.33339	-12.4322225608444	-25.3426995345453	-10.1738386472648	111.476779378329	-46.5104461512198	98.4997515080683	-20.7672289155653	24.5585315193213	
2513666666.66672	-12.4314254591873	-26.1000253848877	-10.1794315154742	109.260302801	-46.7625865341886	97.7771078308949	-20.6359506145929	25.2995004695838	
2514000000.00005	-12.4332259570803	-26.8585812300867	-10.2055875548774	107.024744712554	-46.6834544264874	96.3920081259058	-20.4568476307747	25.7070292510601	
2514333333.33339	-12.4405626004017	-27.5847917618396	-10.2113889037138	104.754218674556	-46.5553896526548	92.6135092080075	-20.305070901966	26.4300248460536	
2514666666.66672	-12.4402856916192	-28.3222341552782	-10.2212802257906	102.546451804859	-46.7365992889203	92.0544887971257	-20.1795128968412	26.8901216442862	
2515000000.00005	-12.4434111470194	-29.07071967756	-10.2352569783981	100.277327284223	-46.720318546453	87.1685176372844	-20.008915439728	27.0600739201081	
2515333333.33339	-12.4395276546183	-29.796659312312	-10.2511162950746	98.0738148878887	-46.8986386868713	84.138084628661	-19.8712640541637	27.543161561376	
2515666666.66672	-12.4434414824885	-30.4645145224678	-10.256891405021	95.839672667056	-46.6598903694463	83.5856859505052	-19.7338002145239	27.8187001738958	
2516000000.00006	-12.4462334637444	-31.1497311955659	-10.2738476132562	93.543756372054	-46.7093850842035	81.3181432667592	-19.594393556534	28.0573381277851	
2516333333.33339	-12.4531137040754	-31.8048129814844	-10.2845881902915	91.3163434408963	-46.7196276285742	78.1815010993782	-19.4651218731026	28.2266638187128	
2516666666.66672	-12.4600744613813	-32.4507560186753	-10.2891406403415	89.1057637152172	-47.0520391715115	78.718308332138	-19.3447092359473	28.4587414922468	
2517000000.00006	-12.4642430268084	-33.0928552645801	-10.305614285438	86.8337115299954	-47.0523485654602	76.4889365142516	-19.2108575046269	28.4952162220025	
2517333333.33339	-12.4635282338064	-33.7176285811936	-10.3076237480667	84.5428577075654	-46.76024992394	73.041406263658	-19.1076566706688	28.530822866232	
2517666666.66672	-12.4804091245851	-34.311429242112	-10.3234224096427	82.3157892699333	-46.8137784942336	72.9901343025817	-19.0011670396103	28.5818553959638	
2518000000.00006	-12.4845909431766	-34.9189524526163	-10.3242015895993	80.0563338565875	-46.5915246872073	68.3160837216546	-18.8771151502836	28.4714693965789	
2518333333.33339	-12.4966106466549	-35.4730349072513	-10.3456778943031	77.8036953748848	-46.764011436057	65.4691084001653	-18.8006395152078	28.4114776046861	
2518666666.66672	-12.5013681891477	-36.0228491288793	-10.347653385888	75.5861904390881	-46.715620142242	66.627849393583	-18.6859544571941	28.2537992289969	
2519000000.00006	-12.4998741469974	-36.5605076835483	-10.3592878816981	73.26870581356	-47.0149928509535	60.721776689082	-18.6109541667409	28.2183613313903	
2519333333.33339	-12.5159132163074	-37.0765566137757	-10.3634611834567	71.0685498711046	-46.6707759273446	60.818851852568	-18.5386891621667	28.1706217067411	
2519666666.66672	-12.5314087348192	-37.5686218187209	-10.3759680842998	68.8113678686608	-47.0316072668795	56.8099466120804	-18.4507307244688	27.8781773222668	
2520000000.00006	-12.538695602472	-38.0610664722927	-10.384764982074	66.5377064744992	-46.8417139513312	55.0187938298712	-18.3703905749141	27.5999967689302	
2520333333.33339	-12.5558021157627	-38.5400591902797	-10.3924871796161	64.2596582123989	-46.7976775078187	51.9862064138049	-18.2995613958684	27.3851406301974	
2520666666.66672	-12.5656567236689	-38.9900483798595	-10.4007829428105	61.9919304188026	-46.9123765883643	48.5247370539336	-18.2518392767196	27.0455047690582	
2521000000.00006	-12.5750660773163	-39.4258805498973	-10.4102014494514	59.7595564391777	-46.9636824973294	47.8316418600415	-18.2122978790182	26.822423594626	
2521333333.33339	-12.5868176652473	-39.8836632631897	-10.4216308166946	57.480873549296	-47.2196191573542	47.2336779969665	-18.1581329876035	26.2429763468126	
2521666666.66672	-12.6000001011981	-40.3464479761757	-10.4265732398903	55.2177307322135	-46.8470546923623	45.4242477742638	-18.1350125410904	25.9306186992576	
2522000000.00006	-12.6136323651551	-40.7669776861151	-10.4361989067384	52.958526665215	-46.7227993587918	42.0325498890155	-18.0692125959997	25.5803295883602	
2522333333.33339	-12.6359008321526	-41.1294929146145	-10.4446635416893	50.7025967280559	-47.0949442948435	38.728885400435	-18.0475660346595	25.1526975128084	
2522666666.66673	-12.6394283391054	-41.5296146443926	-10.4511468813744	48.4674580663514	-46.8422408785886	38.4601239341179	-18.0001213369279	24.6190903242397	
2523000000.00006	-12.6640986371492	-41.8989287634243	-10.462198603251	46.2560826393039	-46.9504190829564	34.0768920985062	-17.9853400460592	24.1654494706755	
2523333333.33339	-12.674699367778	-42.1986081037617	-10.4696148508026	43.9718311270919	-47.0860186461947	32.7860467906892	-17.9767623505559	23.6738070874264	
2523666666.66673	-12.6932961752962	-42.6000469148001	-10.4781061016646	41.7048561771165	-47.2156213393997	30.7762453911944	-17.9610067806429	23.0828363214506	
2524000000.00006	-12.7115839388983	-42.9340453366777	-10.4866617911272	39.4790507838259	-46.8919453882575	28.2993691867186	-17.965326562691	22.5282153496336	
2524333333.33339	-12.7268117526839	-43.2413987208612	-10.496157111095	37.2054997612101	-47.1038015320672	27.4129273330726	-17.9423679109061	22.0767591755418	
2524666666.66673	-12.7522668440014	-43.5227397533686	-10.5040967702062	35.0080429744639	-47.1060310469492	23.192218878361	-17.9540709078383	21.3997644121688	
2525000000.00006	-12.7709607147303	-43.795401236961	-10.5091734353922	32.7774362714248	-46.8921584182208	21.8341930477175	-17.9713727153605	20.7440749494098	
2525333333.33339	-12.7919436248954	-44.0391506207134	-10.5185548520095	30.5438433450984	-46.8782622589374	17.440876554361	-17.986913660952	20.1275578233078	
2525666666.66673	-12.8221526208202	-44.3275550107005	-10.5223256762833	28.3536029421341	-47.0293293728323	16.4743388676211	-18.0002164828236	19.4062639330345	
2526000000.00006	-12.8393019071117	-44.6248878957473	-10.5234890238554	26.1266238688424	-46.9682134313118	13.4035907413905	-18.0125865216403	18.7346501652266	
2526333333.33339	-12.869353456518	-44.8705726665514	-10.5291304414222	23.9272172974876	-47.0305337459456	11.6690873874414	-18.030780749839	18.0643488945139	
2526666666.66673	-12.8840339787976	-44.9955277809267	-10.5403661236646	21.7358308637052	-46.9896427401833	10.5274750282297	-18.0757335011477	17.3962793480034	
2527000000.00006	-12.9133444647352	-45.2862407302928	-10.5396080150945	19.5201206679187	-47.0655952568003	7.44901701879885	-18.108787832142	16.586814806229	
2527333333.33339	-12.9416734892184	-45.5199488915605	-10.5451859064895	17.3038855004922	-47.2160877200195	5.30917397810748	-18.1622506251762	15.8641071624553	
2527666666.66673	-12.947880957676	-45.679654142614	-10.537483959765	15.1354585659558	-47.0215738855991	3.6917543957326	-18.1966572942756	14.9846569268677	
2528000000.00006	-12.9730180811536	-45.8990924281126	-10.5442788489201	12.8724366091341	-46.9116499347641	3.3634673201793	-18.2402052641475	14.3476928042933	
2528333333.33339	-13.0054895517534	-46.0899601445647	-10.5411355748907	10.6667485728004	-46.9734523386271	-0.267915136591427	-18.2996537038974	13.3527538724196	
2528666666.66673	-13.0497351953318	-46.2282867351119	-10.5421953699628	8.49610759771703	-47.2311094808261	-4.37024976718405	-18.3543743649055	12.5855162822436	
2529000000.00006	-13.0688466203302	-46.4911155314202	-10.5455302825016	6.31466637440223	-47.1901167301092	-5.58049110483731	-18.40359492034	11.7316436964746	
2529333333.3334	-13.1020296689876	-46.6496876575414	-10.5411990151366	4.12769927712397	-47.0891274542877	-6.68669908789297	-18.4542359003355	10.9062998176764	
2529666666.66673	-13.1263463676016	-46.9181881212922	-10.5324611794358	1.91302648236769	-47.070051158298	-8.15016564154891	-18.5313845967502	9.91265466677234	
2530000000.00006	-13.1512328924944	-47.0769013714166	-10.5316993060119	-0.301555650861315	-46.946371527804	-9.48849303058299	-18.6051697217931	8.9565775941181	
2530333333.3334	-13.1973018150202	-47.3394850016827	-10.521507784843	-2.47224902216926	-47.1684236668531	-14.1379533287432	-18.6740480367209	8.09303893481195	
2530666666.66673	-13.2327340147695	-47.6016356561392	-10.5237178163117	-4.67946831593629	-46.7979062464901	-15.7137023204298	-18.756469115706	7.13976219588911	
2531000000.00006	-13.2566826947333	-47.7468997905264	-10.5109993663003	-6.88882903488616	-46.9607511004359	-19.5993769332913	-18.8256529976138	6.2036206718354	
2531333333.3334	-13.289648063504	-47.9933977858689	-10.496474520389	-9.12269425648824	-46.9594711142438	-19.224749848985	-18.9055825084913	5.21273388456146	
2531666666.66673	-13.3186341210037	-48.0967893306397	-10.4896243847394	-11.318190760199	-46.9762473449585	-22.889365665293	-19.0012010835135	4.25309940093092	
2532000000.00006	-13.3787152098607	-48.4189836100772	-10.4825335647468	-13.5118429783236	-47.0652042595144	-24.5902172806332	-19.0754880145818	3.17724224071912	
2532333333.3334	-13.40611807423	-48.7448782072245	-10.46857244851	-15.7239978960491	-46.8588186553068	-26.7753550708159	-19.1731579099747	2.23474634544509	
2532666666.66673	-13.4531244094967	-48.7647788712832	-10.4581897219323	-17.9457900597613	-47.0619486452479	-28.7494681035441	-19.2652944073147	1.16080754853681	
2533000000.00006	-13.5102063396008	-49.0664286585809	-10.4522481756637	-20.1974411373747	-47.0320148342832	-32.5766859558927	-19.3560486061527	0.0223210244247636	
2533333333.3334	-13.5441733828139	-49.2911029051446	-10.4372505758421	-22.4101760583465	-47.0061690741403	-32.8569906173007	-19.4578688962383	-1.03318941581701	
2533666666.66673	-13.5836772698713	-49.3995747429584	-10.4271468918765	-24.6523457919114	-47.2699190510839	-34.368444560652	-19.5395409089001	-2.16154999930262	
2534000000.00006	-13.6553917333076	-49.7459217822607	-10.4097834102332	-26.8799676572389	-46.9717145061284	-39.4919526935845	-19.6681298529439	-3.23507533579887	
2534333333.3334	-13.6967823917512	-49.999186121096	-10.3986935506439	-29.1083059419792	-47.2145050939825	-41.2794557935364	-19.742931090582	-4.27818073366642	
2534666666.66673	-13.7460474363948	-50.2338959870924	-10.3836435413764	-31.3344789874912	-46.8416974590616	-42.3109563334851	-19.8284665391811	-5.43680643209528	
2535000000.00006	-13.8038165918203	-50.4440932985258	-10.3702997524062	-33.5663775042829	-46.9170181238694	-46.6251022705814	-19.9245956588657	-6.61222629181317	
2535333333.3334	-13.8562317662288	-50.6751180453086	-10.3669807819286	-35.8269725848252	-46.7121310269379	-46.4956034552063	-20.0265950252653	-7.7116737718233	
2535666666.66673	-13.9063374728912	-50.8283255457884	-10.3470018600287	-38.0650324152182	-46.6855980678216	-47.8555141583514	-20.1361893853001	-8.89289157492611	
2536000000.00006	-13.947048794818	-51.1961187531827	-10.3369541962816	-40.3168914855091	-46.8441963604685	-52.1401337615916	-20.2353144177949	-10.0313694665471	
2536333333.3334	-14.0056524625707	-51.360522297931	-10.3297442124177	-42.5958777215078	-46.7076224264097	-53.4863178173073	-20.3257235511872	-11.0895108034153	
2536666666.66673	-14.0467228971977	-51.6814185923343	-10.30901951109	-44.8342111023376	-46.8528129849898	-54.8194121782208	-20.4274465506011	-12.3421997530539	
2537000000.00007	-14.1181002171043	-51.8813557530224	-10.3054950163665	-47.0894036929869	-47.1052552810795	-57.7334970260052	-20.5218829325492	-13.4749999893183	
2537333333.3334	-14.1621966430723	-52.0890054606088	-10.2939837127677	-49.3941009632251	-46.7628198127492	-60.7199825332939	-20.6177560786199	-14.5810324372758	
2537666666.66673	-14.2484672037553	-52.3639768939587	-10.2837386360694	-51.6705232698076	-46.6315341518724	-61.6043588835116	-20.6880718218299	-15.7386008276274	
2538000000.00007	-14.2856677469212	-52.6917335253336	-10.2683196781855	-53.8753622948163	-46.858620894496	-64.1249125881259	-20.795865920582	-16.8016638478506	
2538333333.3334	-14.3674341359874	-52.8218851455427	-10.2564805499417	-56.2441224537456	-46.6978512303952	-66.2564329112656	-20.8915389518347	-17.8655898350307	
2538666666.66673	-14.4271966522374	-53.1451433389385	-10.2500077536497	-58.5271593326626	-46.811539090965	-70.2998249114713	-20.9852806155154	-19.0255865955663	
2539000000.00007	-14.4932058208926	-53.2488452371289	-10.2364545322334	-60.7717731843827	-46.8275403586298	-71.5349223882059	-21.068158289002	-20.1475250276751	
2539333333.3334	-14.5735275459799	-53.5603310255253	-10.2295889229457	-63.0550120208846	-46.8431959217987	-74.499857884732	-21.1435076791188	-21.0702880847583	
2539666666.66673	-14.6468850835338	-53.7750757671893	-10.219748578693	-65.3317102089117	-46.9283890845286	-75.2777542706818	-21.2143174220253	-22.106847894655	
2540000000.00007	-14.7161225582694	-54.1639903517273	-10.204531675605	-67.6274078021777	-47.0671811166697	-77.5604207171785	-21.3231378912279	-23.0864522753375	
2540333333.3334	-14.7869346520112	-54.3732449515399	-10.1995308844764	-69.9288197712154	-46.569691060128	-82.1258320899895	-21.3827669168953	-24.1249278057529	
2540666666.66673	-14.864832480466	-54.6550956118833	-10.1975385763625	-72.2253399240566	-46.5702638725928	-80.7633180418496	-21.4628542841163	-25.1968575101075	
2541000000.00007	-14.9420752260327	-54.9864134943604	-10.1894693669811	-74.5199779987716	-46.6530588127448	-83.3909649856551	-21.5464461791027	-26.0294615526924	
2541333333.3334	-15.0085906961818	-55.3630964945471	-10.1785801302929	-76.7953635953466	-46.6822959740787	-87.0886484209687	-21.6234204014116	-26.8581290332216	
2541666666.66673	-15.099254887924	-55.5877249246901	-10.1776945277785	-79.1176937130878	-46.5666660877109	-89.7990624919657	-21.67609128952	-27.9019163890016	
2542000000.00007	-15.1674997888494	-55.9253107727832	-10.167322879146	-81.4063113632592	-46.7342685504167	-90.1711779391777	-21.7604670263879	-28.7644558491671	
2542333333.3334	-15.245614318217	-56.407206337576	-10.1604588403002	-83.7067972996914	-46.6014557617931	-95.1389746613574	-21.7891696720227	-29.5620817360651	
2542666666.66673	-15.3114868090813	-56.6621747065293	-10.1524501828631	-86.0480151277782	-46.7404544962583	-95.7727504211192	-21.8818189585807	-30.3093049564459	
2543000000.00007	-15.4082889329007	-57.0602323916334	-10.1465219058954	-88.3488793947004	-46.9713990918662	-98.8268138557564	-21.9296587584528	-31.0226607215196	
2543333333.3334	-15.475684627161	-57.3169574362851	-10.1459156776478	-90.6785179244429	-46.7241117449094	-100.700916838793	-21.9576787609484	-31.7369740184737	
2543666666.66674	-15.5575399696088	-57.6307586104153	-10.1437319153089	-92.9743683155075	-46.8487420510852	-103.673100600418	-22.0104740246012	-32.4534103044093	
2544000000.00007	-15.6514956345747	-57.9901623632493	-10.1403846131865	-95.2403295606927	-46.7368702108929	-104.614931508919	-22.0553276910252	-33.0653626076709	
2544333333.3334	-15.7415465036124	-58.3520119690891	-10.1360349797317	-97.5486240101412	-46.6092011244618	-107.27733138811	-22.0775686600009	-33.5233211604941	
2544666666.66674	-15.8278838550282	-58.651823491636	-10.137232961024	-99.821909699889	-46.7632134602884	-110.451026564099	-22.122631843333	-34.0675920705354	
2545000000.00007	-15.922641504017	-59.0532647257393	-10.136711894808	-102.186116143297	-46.5603091171518	-110.012915897075	-22.1386684637642	-34.4783450802999	
2545333333.3334	-16.0237109691617	-59.5097366153935	-10.1364725329677	-104.449291337291	-46.5838857545883	-113.21792024345	-22.1507558651945	-34.7734523473918	
2545666666.66674	-16.1322221533028	-59.8311353804606	-10.138121606203	-106.728341360179	-46.6765567511439	-115.395273662162	-22.2028690941131	-35.3598635962262	
2546000000.00007	-16.2120018551843	-60.4595807992914	-10.134593759732	-109.012035010863	-46.4949613331959	-116.488457328898	-22.2119903928192	-35.6425726576081	
2546333333.3334	-16.3106821032734	-60.6750047068206	-10.1348741165289	-111.318267667864	-46.6854869673749	-118.329527975314	-22.230164210671	-36.0105996886813	
2546666666.66674	-16.4037485166947	-61.139518973213	-10.1343161701304	-113.56800314619	-46.4875909779048	-123.032425858994	-22.2413823767263	-36.1136868422707	
2547000000.00007	-16.5018645480276	-61.6726208768501	-10.1345822212066	-115.912884216588	-47.0281096705368	-125.477897440376	-22.2592890857807	-36.276213243551	
2547333333.3334	-16.6050270001198	-62.1073786733967	-10.1437528409591	-118.176615766796	-46.1693466791927	-128.294964931138	-22.2558262313843	-36.5384443985795	
2547666666.66674	-16.6558202497508	-62.5927288468271	-10.1381553159777	-120.421716170214	-46.669648188401	-129.588457508144	-22.2550655361822	-36.7723901233275	
2548000000.00007	-16.7530889967986	-63.202462816159	-10.1364594534392	-122.72941717215	-46.6602666255161	-132.609735609215	-22.2713382629832	-36.6855075745737	
2548333333.3334	-16.8604702279574	-63.6893400143195	-10.1403552356801	-124.968289863556	-46.5351216040323	-133.911023426043	-22.2550741619947	-36.71015497674	
2548666666.66674	-16.9477340987967	-64.2816090178662	-10.1313789298283	-127.247269098361	-46.698983450011	-139.751753504481	-22.2602906686472	-36.8675678065206	
2549000000.00007	-17.0350761152113	-64.9413581224235	-10.1358066922465	-129.541551136517	-46.6252360939961	-138.982209171803	-22.2373772435114	-36.5992130074106	
2549333333.3334	-17.115204606725	-65.5542007044324	-10.1363552456347	-131.794383633105	-46.7122993543622	-141.645771747151	-22.2276661140214	-36.5618025850466	
2549666666.66674	-17.2035603073979	-66.1205023718788	-10.1369847822545	-134.079328573195	-46.7025009832479	-145.020034430398	-22.2193088512631	-36.607793449051	
2550000000.00007	-17.2793396249157	-66.9425551571823	-10.1339594195362	-136.335673791669	-46.7313015041266	-146.00286529485	-22.1961052302027	-36.4569178719183	
2550333333.33341	-17.38195280607	-67.6056841352894	-10.1356901277093	-138.627597964919	-46.6596402862653	-149.092744855858	-22.2118656110236	-36.3922472539466	
2550666666.66674	-17.4627325003591	-68.4231496319803	-10.1374853795001	-140.892797593185	-46.5445079063623	-150.762720524682	-22.1602729284227	-36.1150399032838	
2551000000.00007	-17.5264141723111	-69.0650922989198	-10.1365431547964	-143.12893969765	-46.5795301761268	-153.202330424024	-22.1403206125678	-35.7246074017825	
2551333333.33341	-17.6086138400471	-69.8533455275213	-10.1349064765735	-145.379401060594	-46.4405617284314	-155.192474352399	-22.1146031145448	-35.479412377843	
2551666666.66674	-17.7059603265258	-70.5029990879761	-10.1332973453412	-147.643023549056	-46.4978952875104	-157.815900281163	-22.0511759317388	-35.2281721806389	
2552000000.00007	-17.8072537973754	-71.3991371497259	-10.131823274035	-149.883354709177	-46.7897758205931	-160.590503220321	-22.0028377326859	-34.7289228962107	
2552333333.33341	-17.8884134162246	-72.1587787395078	-10.1327777087125	-152.139731885688	-46.6447104014796	-162.164705887078	-21.9909565145287	-34.4523376648751	
2552666666.66674	-17.9607206487462	-73.0371104300662	-10.1324859426678	-154.393962230959	-46.5049178594562	-163.828561472686	-21.9404513820641	-34.1726473183306	
2553000000.00007	-18.0575472716493	-73.7231513395205	-10.1300593734491	-156.646453984807	-46.3003765642595	-166.974069639077	-21.885524781395	-33.7099984520074	
2553333333.33341	-18.1457198811685	-74.6187333785036	-10.1318628646903	-158.912801366207	-46.5524488289636	-169.982413337859	-21.8258692059775	-33.2717340190607	
2553666666.66674	-18.2245511306626	-75.3330613997692	-10.1331549153651	-161.144072467866	-46.8440566923154	-170.854389430994	-21.7899541133052	-32.8384084114204	
2554000000.00007	-18.3055065503044	-76.2908613222118	-10.134105424628	-163.425162948748	-46.7589363329355	-172.075728941848	-21.7357297071165	-32.4256536022813	
2554333333.33341	-18.3720238795077	-77.1301965113797	-10.1310921971033	-165.667527549594	-46.1911972442421	-175.658008523037	-21.6817705532884	-32.0580988023059	
2554666666.66674	-18.4582575680497	-77.8807626217691	-10.1262501056931	-167.870555382596	-46.2893336006385	-177.894319828643	-21.6244941602968	-31.3654097489045	
2555000000.00007	-18.5352455649221	-78.7335555239373	-10.1287043268007	-170.147515225687	-46.4726286945955	179.27513980053	-21.5841070164739	-30.8886417103485	
2555333333.33341	-18.5928588471743	-79.5791030472411	-10.1273658443888	-172.378188698707	-46.4059919824021	176.231364524662	-21.5035784713862	-30.5004981082776	
2555666666.66674	-18.6583243275754	-80.4553678933199	-10.1253179764459	-174.641286472405	-46.6207673297846	175.59662299497	-21.4515410684105	-29.9315680575709	
2556000000.00007	-18.7013258463092	-81.2825223086522	-10.1298427872303	-176.813352340236	-46.5653673531843	171.637817399598	-21.4016054142787	-29.5294862646568	
2556333333.33341	-18.7508601742045	-82.1185646796971	-10.1218032145427	-179.150278669153	-46.4115585787814	170.669522188701	-21.321520321595	-29.108137671057	
2556666666.66674	-18.813412269435	-83.0753628068778	-10.1171194942089	178.645405032331	-46.4104863797755	166.804179610401	-21.2903164200248	-28.636087003162	
2557000000.00007	-18.8618738481758	-83.7233278626034	-10.1164879054719	176.394433207967	-46.441263039835	164.962658238789	-21.2025629858894	-28.0446790401969	
2557333333.33341	-18.8973771738195	-84.621539642084	-10.1089242671366	174.125391407062	-46.6843800846447	163.433306439306	-21.1506633558928	-27.5744674404702	
2557666666.66674	-18.9265305121244	-85.4616654048456	-10.111291808936	171.825366697879	-46.6589391618488	158.367051805398	-21.078386859177	-27.0956043651371	
2558000000.00008	-18.9574642307741	-86.2545354024309	-10.1076013853886	169.588981054526	-46.3509360336743	156.63892874884	-21.0295610865254	-26.7099517348655	
2558333333.33341	-18.9771085404721	-87.1115283931432	-10.107547819831	167.339177775491	-46.3736310497353	155.130843610533	-20.9632122514169	-26.2919123034372	
2558666666.66674	-18.9967981887578	-87.9754453840661	-10.1067945558982	165.050569304201	-46.504870514076	152.727180171863	-20.8995756829766	-25.8494977713969	
2559000000.00008	-19.0174603884585	-88.7553556705127	-10.0985554862871	162.847593822765	-46.4049442201123	151.559725008616	-20.8515939308008	-25.1208051970186	
2559333333.33341	-19.0193612819957	-89.495983791659	-10.1021730967527	160.579878473219	-46.5417796774485	150.067023565567	-20.7812197070079	-24.8082597252187	
2559666666.66674	-19.0299012392597	-90.3128375117204	-10.0936214342407	158.264261628938	-46.3489325804503	146.180581665867	-20.7204620999365	-24.0971455201727	
2560000000.00008	-19.0398642796894	-91.0872905605425	-10.0923283136003	155.976251126127	-46.529217500828	144.322633253351	-20.6880485266987	-23.7490335901154	
2560333333.33341	-19.0349550944478	-91.9254555927049	-10.0851025409525	153.745620124349	-46.5270864639097	142.853679847324	-20.607195252445	-23.2627998292878	
2560666666.66674	-19.0302513317804	-92.6760763999134	-10.0862980134178	151.448281075821	-46.399161509566	140.224246698039	-20.5513247934365	-22.844346358624	
2561000000.00008	-19.0150334333169	-93.4343668581099	-10.0770356434168	149.158712404828	-46.5477324277861	137.216363259974	-20.5095553143514	-22.2336543521577	
2561333333.33341	-18.9845479041531	-94.1640281734592	-10.0807125309304	146.868193750467	-46.2089559249868	136.690331202788	-20.4346701945805	-21.9896917064981	
2561666666.66674	-18.9624260017509	-94.9411934542184	-10.0777545367745	144.579090971764	-46.4668500915186	132.206082068301	-20.4068763992204	-21.5065614823651	
2562000000.00008	-18.9351807481771	-95.6930333921922	-10.0667605732006	142.297700032504	-46.4778211858967	131.05821772507	-20.3092530693887	-20.8512649601605	
2562333333.33341	-18.8902006843703	-96.4622409276987	-10.0657074787706	139.997889617931	-46.4703235137731	128.383936444866	-20.2815129693827	-20.348690934982	
2562666666.66674	-18.8614914064735	-97.1853516588508	-10.0616128198453	137.681034278666	-46.4247531148615	126.46631644638	-20.2180616234361	-19.9186594095377	
2563000000.00008	-18.8202648301616	-97.9930853637267	-10.0589876115613	135.381894848759	-46.4114793435053	123.998220434491	-20.1554585178683	-19.3657420115072	
2563333333.33341	-18.7713661694584	-98.6701818459732	-10.0482566969326	133.05327277648	-46.2435650136925	121.185346339031	-20.1026767959601	-18.9003012342539	
2563666666.66674	-18.7208572904721	-99.3732543080367	-10.0510707928222	130.725822716444	-46.3426723216219	117.623011179337	-20.0833761510611	-18.4462267284474	
2564000000.00008	-18.672686062225	-100.068984737635	-10.0505798268611	128.409912805904	-46.214771865473	117.917686119983	-20.013048012837	-17.9209147843601	
2564333333.33341	-18.6306966948795	-100.846976087802	-10.0422584517796	126.077766586638	-46.4902513011513	115.361585747043	-19.9965479151058	-17.3867220453096	
2564666666.66675	-18.5678822914783	-101.508288071363	-10.0448522383339	123.763410872317	-46.4137218845717	112.17786945772	-19.9202348031005	-16.8342401881404	
2565000000.00008	-18.516332075541	-102.203684288284	-10.0397230002913	121.388768257676	-46.3679416007103	108.937084268304	-19.889800048637	-16.4120711949532	
2565333333.33341	-18.4676961627521	-102.927954341416	-10.0440521282141	119.077809854565	-46.3583205869462	106.191846957731	-19.8441551987362	-15.991155638848	
2565666666.66675	-18.4134154979105	-103.603376853661	-10.0444859094727	116.73229001113	-46.1280150276499	104.266710653363	-19.7867885065481	-15.5642348942801	
2566000000.00008	-18.3585367109742	-104.296367820224	-10.0373783132194	114.375141441853	-46.4422860159268	104.080410843066	-19.742341632474	-15.1561432014144	
2566333333.33341	-18.3027053769677	-104.945468123472	-10.0368194173677	112.040286439703	-46.2371067965146	100.080159244333	-19.709373678793	-14.5616366378305	
2566666666.66675	-18.2337535846009	-105.653201110117	-10.0358358887297	109.665783625249	-46.4491569044243	96.7868638501523	-19.6832264212579	-13.9801671580854	
2567000000.00008	-18.1982532485446	-106.304541124066	-10.0370241133154	107.324903499169	-46.5916766037415	96.6171862197986	-19.653510135344	-13.6047374854999	
2567333333.33341	-18.1365692342673	-107.06103610493	-10.039741661099	104.973631632029	-46.3368655235144	92.1819829032066	-19.629225746869	-13.2933271344372	
2567666666.66675	-18.0727433866931	-107.778466796466	-10.0390281968401	102.553395435628	-46.1581545348174	91.711732925753	-19.5765518146968	-12.7399142849488	
2568000000.00008	-18.0130948295063	-108.519331252975	-10.0450932360596	100.219127159631	-46.0289390769517	89.7404100793939	-19.5354432175951	-12.3009020336141	
2568333333.33341	-17.9579638371422	-109.14748336571	-10.0398987182509	97.8516956246094	-46.1750897076598	86.8370534429191	-19.4819846947217	-11.7873663266532	
2568666666.66675	-17.8773450211299	-109.852122464632	-10.0464362955696	95.4618302100246	-46.2654134586709	84.542120858863	-19.4619040906325	-11.2865753073261	
2569000000.00008	-17.8205711608368	-110.442538054254	-10.0512795996387	93.1140872246305	-46.0084386349531	82.4532716718431	-19.4229120984868	-10.9602397578717	
2569333333.33341	-17.7692664118985	-111.295924979106	-10.0495932921293	90.733213423456	-46.111547479779	80.3602225704379	-19.3935553501603	-10.4931436957108	
2569666666.66675	-17.7182415643615	-111.862875395132	-10.0591491108592	88.3641454786087	-46.1883764929068	77.3421415553594	-19.3693194047929	-10.0958804769994	
2570000000.00008	-17.6571490372641	-112.567672842591	-10.0564938271313	85.9791735064231	-46.3824004505109	74.8078234562273	-19.332957260378	-9.65005929849198	
2570333333.33341	-17.6184382641693	-113.355498919215	-10.0620364138221	83.6131417618048	-46.2163860602028	76.0000757438334	-19.3128939469489	-9.2065116902567	
2570666666.66675	-17.567379735602	-114.099543041365	-10.0645464730182	81.1921089384871	-46.3865642810794	69.671308396148	-19.2665173720215	-8.67962893743105	
2571000000.00008	-17.5261462970777	-114.695518397035	-10.083028098247	78.8847012612361	-46.1211277718704	67.2807794770289	-19.2424719060011	-8.37605823127636	
2571333333.33342	-17.4973835223485	-115.481538552287	-10.0802051115909	76.4793068911682	-46.3068002401413	65.381280422619	-19.2009526109381	-7.93158344686328	
2571666666.66675	-17.4679811940384	-115.95316085574	-10.0921920435274	74.1314087042508	-46.3803906335952	64.8449072141133	-19.1788047855533	-7.7203225477496	
2572000000.00008	-17.4306062843047	-116.820981814255	-10.0934811236972	71.8221368480464	-46.3470854788263	62.3152218341645	-19.1603494854981	-7.28103153680915	
2572333333.33342	-17.3940601000615	-117.61636527308	-10.1036023613084	69.4885341583408	-46.2831385108079	59.8237034371406	-19.1372870874653	-6.81714735942333	
2572666666.66675	-17.3810064869591	-118.26448302171	-10.1090969519819	67.1083801483616	-46.2454733945219	56.9673666749265	-19.1171884712879	-6.50804869968414	
2573000000.00008	-17.3615334676283	-118.929744331977	-10.1238292373314	64.7202417859809	-46.4185922380053	55.180887372897	-19.1007385115727	-6.24531519783872	
2573333333.33342	-17.3436927303006	-119.687951118848	-10.125989025137	62.4277834890016	-46.4259492693094	52.7800857980947	-19.065212350765	-5.97676563689166	
2573666666.66675	-17.3183514133659	-120.502956061798	-10.131075307637	60.0421740423003	-46.5059092832599	50.034463037715	-19.0391895379838	-5.68899275395095	
2574000000.00008	-17.295894303287	-121.255495396858	-10.1378389922107	57.7747621445192	-46.2006068750427	47.6638078441681	-19.0329957811022	-5.31171094450688	
2574333333.33342	-17.2826207184009	-121.900923641834	-10.1478518988363	55.4249278786799	-46.2070021133103	44.1598192665954	-19.0056241259592	-5.02871029878997	
2574666666.66675	-17.2846758371394	-122.698236807108	-10.1588082906351	53.1284628736131	-46.5465964660566	42.8330527258418	-18.9708733753423	-4.75277041339298	
2575000000.00008	-17.253100474113	-123.403153594772	-10.1573156890107	50.81348204489	-46.2305884144234	38.9531060221776	-18.9478006287973	-4.61171934163514	
2575333333.33342	-17.2762824214721	-124.142979442107	-10.1656913017916	48.5212858779524	-46.2596650052366	36.6560185022631	-18.9590237465869	-4.28893885158662	
2575666666.66675	-17.2583322742837	-124.937592391278	-10.1681771255542	46.1915039745163	-46.4297491183945	35.8770404081877	-18.9316219140276	-4.08780822125754	
2576000000.00008	-17.2685546196502	-125.599883760437	-10.1765424507035	43.8727078550229	-46.594337695463	31.9665347061158	-18.9363896590698	-3.80618228927662	
2576333333.33342	-17.2814494836072	-126.404044089124	-10.1811356304328	41.6098230442082	-46.4006375280051	31.9978418168119	-18.9168704897765	-3.80797354129643	
2576666666.66675	-17.2909796381974	-127.258059008605	-10.1825916786185	39.3379229692785	-46.6076021872948	29.259593857224	-18.9044027292406	-3.64362237290118	
2577000000.00008	-17.3271584817641	-128.029830967	-10.1865788287514	37.0110451458707	-46.4299577502841	25.4404588061306	-18.9071951608491	-3.50371541033277	
2577333333.33342	-17.346300364756	-128.857845468361	-10.1929822076125	34.7699885398056	-46.4352984945566	25.1184205268129	-18.8843442235669	-3.49628300738726	
2577666666.66675	-17.3904775619606	-129.63895990452	-10.1920793566	32.4747999298936	-46.5801534152885	20.9007347265384	-18.8865933836306	-3.44119689992541	
2578000000.00008	-17.4278020633304	-130.389249697854	-10.1942556655739	30.2311029248801	-46.4398720200455	19.798779473885	-18.8847616358538	-3.27984027868563	
2578333333.33342	-17.4542141394628	-131.235126200081	-10.1946662271047	27.9454389212399	-46.7897847118956	17.6127355652034	-18.9036171608269	-3.4615221739175	
2578666666.66675	-17.49465043357	-132.107705579986	-10.2006993481428	25.7072044235214	-46.1391296246744	12.6404804867849	-18.8891573355929	-3.34754243676803	
2579000000.00009	-17.5424611591514	-132.899065718604	-10.2058613441564	23.4572112752491	-46.3559602609363	12.50569624057	-18.909178449474	-3.28359696762932	
2579333333.33342	-17.6078888468246	-133.737927763396	-10.2065274141851	21.1842552744698	-46.5416722455646	13.249423729554	-18.9385831185896	-3.32246249355103	
2579666666.66675	-17.6891581128801	-134.667894400307	-10.2046910096487	18.9284479234898	-46.5335610931323	8.45484707769999	-18.9177100180284	-3.42681301747865	
2580000000.00009	-17.7367616292088	-135.591940256289	-10.2077005536288	16.6838922343215	-46.4581608810511	8.22420937110863	-18.9847611726348	-3.53287278621934	
2580333333.33342	-17.8138263476756	-136.425396273478	-10.2041575706285	14.4275625848228	-46.3375200946487	2.6600733849397	-18.9777717970518	-3.74829198467409	
2580666666.66675	-17.8953999124045	-137.377986206457	-10.2046690502362	12.1958885704982	-46.4104964313304	3.12823674895926	-19.0270272373082	-3.75381550013708	
2581000000.00009	-17.9838115473625	-138.160793771824	-10.2039153648741	9.99462384619615	-46.4916596861329	-2.03405893250188	-19.0676400294207	-3.79249733640109	
2581333333.33342	-18.0413090823274	-139.02477417322	-10.2008683241868	7.70578503281217	-46.4911300323103	-0.782480198156675	-19.0990615412485	-4.10423150495997	
2581666666.66675	-18.1471230577183	-140.009510569832	-10.2036422979845	5.47450035278898	-46.9408064207696	-5.37267074900146	-19.1117462017232	-4.32736795437123	
2582000000.00009	-18.2238401439738	-140.866236782543	-10.2002093822938	3.2084121885965	-46.6561356548535	-4.67331385582662	-19.1538663536416	-4.64953902161598	
2582333333.33342	-18.358283969936	-141.648923874146	-10.1969076242995	0.935616335971244	-46.4085692948449	-9.43097691285462	-19.1953598717292	-4.76190150046024	
2582666666.66675	-18.4403299457288	-142.667770368336	-10.1974223669611	-1.28577327040069	-46.5860973584184	-13.7958599526388	-19.256727745231	-5.13795871845705	
2583000000.00009	-18.5245762327185	-143.533972571473	-10.1898392589774	-3.54822019572465	-46.7868787447505	-14.2091180030339	-19.2914846353946	-5.54388526579422	
2583333333.33342	-18.6280825700028	-144.365550422059	-10.1980921906837	-5.81250063673362	-46.6371376970552	-13.8195283457338	-19.3410926952755	-5.8655896171301	
2583666666.66675	-18.7339453497229	-145.509969128769	-10.1820262459501	-8.05307816758185	-46.5497396732688	-18.1432406122155	-19.422625138838	-6.27118216234081	
2584000000.00009	-18.8509982698398	-146.318719342902	-10.1909603086993	-10.283599117013	-46.6346834423084	-20.3808627417029	-19.4875640742276	-6.70241344468233	
2584333333.33342	-18.9792532630905	-147.120789054089	-10.1840020037556	-12.5426776130614	-46.9650587181539	-23.2827498459641	-19.5505939647558	-7.07900776302079	
2584666666.66675	-19.0903582559944	-148.202183943538	-10.1807838633785	-14.7925754466033	-47.0067622424307	-24.0641779762526	-19.6160581020005	-7.59032544467559	
2585000000.00009	-19.2078809068663	-149.243608280244	-10.1805027065144	-17.0193226310516	-46.7027043929187	-29.978552764441	-19.6941329577732	-8.08144075403252	
2585333333.33342	-19.3541412026461	-149.929850677329	-10.1796836194952	-19.2912250360169	-46.6972764772437	-31.5601609498664	-19.7607576041836	-8.57526375982185	
2585666666.66676	-19.4531879939941	-150.91955894624	-10.1769280778222	-21.5402195202485	-46.7457721495539	-31.646672986283	-19.8608035784269	-9.2179630924026	
2586000000.00009	-19.6057167218859	-151.869042350055	-10.1688954896382	-23.8471918487002	-47.0391447237051	-33.1506602750761	-19.959115112514	-9.6803831084231	
2586333333.33342	-19.7444780396173	-152.735259556551	-10.1668325492637	-26.0619288936617	-46.8282071029672	-33.9555449685086	-20.025673655279	-10.1892795090685	
2586666666.66676	-19.8710646967867	-153.924688626797	-10.1705481515246	-28.2413939857022	-46.6455024113463	-40.3115240126944	-20.1312908562025	-10.8586749792117	
2587000000.00009	-20.0040526149662	-154.780974390031	-10.1621572239805	-30.5594459340089	-46.6258342867035	-39.8868071495188	-20.2286324376214	-11.4960797810269	
2587333333.33342	-20.1216063099509	-155.872472719228	-10.1622933431221	-32.783518332703	-46.5356589196415	-44.5743120701908	-20.3402147084739	-12.1306351301954	
2587666666.66676	-20.2647101703306	-156.560819619243	-10.1631326148677	-35.0529575965906	-46.8386048119085	-44.9146071465382	-20.4420854507748	-12.8835135950386	
2588000000.00009	-20.4156528545608	-157.796014001636	-10.1623134331198	-37.3244605710809	-46.4888741504502	-46.3892554694623	-20.5485282323843	-13.5498087559752	
2588333333.33342	-20.5711005685419	-158.776906912502	-10.1587383750885	-39.5827902722825	-47.0912449946767	-49.9337931635626	-20.668138588693	-14.3659364413271	
2588666666.66676	-20.7142285457449	-159.748018446436	-10.1594481544914	-41.8476480101715	-46.7266026033649	-51.8173537183764	-20.7874128193521	-14.9255295584027	
2589000000.00009	-20.842828876635	-160.636191758534	-10.1645225233388	-44.0956648379889	-46.6791217545097	-54.8357076569832	-20.8863212410327	-15.7266099501386	
2589333333.33342	-20.9854575042542	-161.860924958098	-10.1611709044171	-46.3644854729706	-46.5095519507979	-58.8921284013072	-21.0232623775307	-16.6411895601616	
2589666666.66676	-21.1418189663663	-162.707612508633	-10.1588443893293	-48.6281855681775	-46.6530711590182	-57.9563564385098	-21.1691361783254	-17.3608416623883	
2590000000.00009	-21.2411115977113	-163.787909439211	-10.1484908079054	-50.9213245613998	-46.933591504306	-64.0223475355935	-21.2889772366587	-18.3673912400341	
2590333333.33342	-21.3856739873539	-164.889762395632	-10.1526666369291	-53.1359761041979	-46.6800588200234	-62.798672937156	-21.4181745776056	-19.2096147329008	
2590666666.66676	-21.5110795722339	-165.985493433371	-10.1524677497245	-55.4868429306697	-46.7855287072988	-64.8236302630857	-21.5581491968792	-20.0969606359148	
2591000000.00009	-21.6464057588561	-167.26921002736	-10.1548524708394	-57.7627070906868	-46.3276320832513	-68.5668459596726	-21.7080968670763	-21.0728750260685	
2591333333.33342	-21.7627365356994	-168.320813668528	-10.154371837517	-59.9996488046681	-46.9884260538434	-70.884399279774	-21.845853357073	-22.0383043835436	
2591666666.66676	-21.8805062523188	-169.562592189401	-10.1569563222774	-62.3071154044426	-46.3626971006152	-73.1301373498962	-21.9981586098794	-22.9082098433125	
2592000000.00009	-22.0205510858215	-170.657631929916	-10.1462939924105	-64.5628110290218	-46.9759600840823	-75.8927697959827	-22.1488391785324	-24.0256327324841	
2592333333.33343	-22.1333971329044	-172.015698732995	-10.1486573680566	-66.8897768843051	-46.5728784625994	-78.2370214932697	-22.3018552235104	-24.9372970972118	
2592666666.66676	-22.2187422555246	-173.422495629805	-10.1499102839601	-69.1778555638689	-46.4966091503429	-78.641058914398	-22.4664125462552	-26.0111062030515	
2593000000.00009	-22.3193168711138	-174.659113723899	-10.1488448980402	-71.4562147541317	-46.558304626642	-81.7071034495655	-22.630698585561	-27.1232572895476	
2593333333.33343	-22.4151996871427	-175.881315696554	-10.1418612641629	-73.7452825996546	-46.5305881162479	-83.4766084560612	-22.7548103963715	-28.2996683363402	
2593666666.66676	-22.4811941787977	-177.366772187395	-10.1499468557143	-76.0508865434502	-46.516921857725	-85.7726565055999	-22.9244035262244	-29.3522183966547	
2594000000.00009	-22.5447703336151	-178.752348898973	-10.1452835110009	-78.3775473674121	-46.5088843867455	-87.097098430717	-23.0961200317274	-30.3488604441962	
2594333333.33343	-22.617115805431	179.725561213499	-10.1474878431364	-80.6324357912917	-46.7583714193389	-90.3899773680115	-23.2747549808674	-31.5977516862495	
2594666666.66676	-22.677701529385	178.333069098466	-10.1407587913493	-82.9573723945167	-46.7077740950099	-92.0765079373861	-23.4337556851063	-32.7496093214472	
2595000000.00009	-22.7201052348596	176.638079945763	-10.1444850058249	-85.2353396056306	-46.4622721652947	-96.0431675934718	-23.5660324732156	-33.8883507212045	
2595333333.33343	-22.7396447648334	175.065595412143	-10.1424799589	-87.5022162600389	-46.39101390507	-97.4953692665323	-23.7467386413539	-35.0278550490493	
2595666666.66676	-22.7489731831445	173.409228680404	-10.1493135846872	-89.8316090290889	-46.3667783688808	-99.4404364638749	-23.891210101691	-36.2280738293557	
2596000000.00009	-22.7755631775396	171.790771790466	-10.1425999697375	-92.1148141033624	-46.2473453207129	-99.6782051586333	-24.0582747596175	-37.0145186816809	
2596333333.33343	-22.7534720655634	170.068465443648	-10.138982527465	-94.4130595972836	-46.127532217217	-103.792955149303	-24.2320746893969	-38.3552710537536	
2596666666.66676	-22.7335293833402	168.22003182527	-10.1469706113237	-96.726883505079	-46.3255505079876	-106.143878048237	-24.4036791109822	-39.4263725535443	
2597000000.00009	-22.734198257727	166.776905430722	-10.1440078845468	-99.0412433989591	-46.4988656031014	-108.114484666641	-24.5405889125552	-40.5581782561059	
2597333333.33343	-22.6813416321414	164.902006189108	-10.1442299040046	-101.31156416666	-46.3063318079038	-111.193107830197	-24.7121785464065	-41.5299843246161	
2597666666.66676	-22.626570504224	163.171419873035	-10.1482699615227	-103.645730415172	-46.3864174564417	-112.840335172554	-24.8558876694805	-42.794822769267	
2598000000.00009	-22.5555680357045	161.204197229855	-10.1499548142788	-105.9627093837	-46.2682846585463	-116.577724100058	-25.0076502354748	-43.7048716587024	
2598333333.33343	-22.4822266590546	159.401314397357	-10.1564216279169	-108.244979663845	-46.4297215365124	-118.585002585734	-25.2034629583169	-44.9576209666657	
2598666666.66676	-22.4056802180455	157.52624132887	-10.1559586030967	-110.5849826475	-46.391587131504	-118.952740670557	-25.3395387464404	-45.8148882780045	
2599000000.00009	-22.2940640765671	155.713951324524	-10.1598370694233	-112.854577915729	-46.6231200729702	-123.012407280191	-25.5161380526287	-46.6784572411589	
2599333333.33343	-22.1752208429308	154.07316386754	-10.1676494497457	-115.136117438311	-46.6801377341463	-125.838860186139	-25.6766192121552	-47.5847463265541	
2599666666.66676	-22.0862087230588	152.12686280532	-10.1669197942555	-117.437571451175	-46.508257596461	-129.837510184787	-25.8177677051449	-48.4230944615879	
2600000000.0001	-21.9446655166795	150.336874754733	-10.1674353271936	-119.806019424716	-46.5748849280216	-130.538082680918	-25.955455540145	-49.4389888950843	
