!Agilent N9923A: A.05.34
!Date: Friday, 25 March 2016 20:56:30
!Model: N9923A
!Serial: MY51491690
!GPS Latitude: 
!GPS Longitude: 
!GPS TimeStamp: 0001-01-01 00:00:00Z
!GPS Seconds Since Last Read: 0
!CHECKSUM:1566115187
!Correction: S11(ON U*)S21(ON U*)S12(ON U*)S22(ON U*)
!S2P File: Measurements:S11,S21,S12,S22:
# Hz S DB R 50
2400000000	-16.4527529780245	-179.790922505886	-9.0313506375425	136.141130339028	-45.8833563024746	122.493667855776	-29.7176896326537	75.7213659673565	
2400333333.33333	-16.4610516916091	179.300595339075	-9.02286399294802	133.812779069538	-45.9842917714604	119.835000119583	-29.5159607926274	78.6042367266035	
2400666666.66667	-16.4655707532977	178.239988555689	-9.01935683086075	131.457306957833	-46.1819456324077	118.229516113141	-29.4420164273972	81.1617029470221	
2401000000	-16.5132012704134	177.146242296405	-9.02048176876754	129.152146520757	-45.899053603538	115.274295775807	-29.277697369968	83.6834477687384	
2401333333.33333	-16.5129359819955	176.163663341046	-9.01794000415485	126.827151923943	-45.9126512327648	113.650066328322	-29.0955143983538	86.334895337301	
2401666666.66667	-16.5770596560669	174.976229375485	-9.01216874656145	124.502192338173	-45.9248274258126	111.128062006229	-28.9114226018686	88.6129584394103	
2402000000	-16.6008661166691	173.899866732993	-9.00647598351951	122.203951084627	-46.0119383102885	109.726598013078	-28.6821420278765	91.3917319882834	
2402333333.33333	-16.6192072581658	172.766375981822	-9.00556500174984	119.827488685423	-45.6606150219998	107.460820696657	-28.4738056340924	93.4182116585425	
2402666666.66667	-16.6526446853019	171.543187543924	-9.00240210470786	117.469805928864	-45.7194043549958	103.676333857714	-28.249911965164	95.3484377059586	
2403000000	-16.6976584394573	170.354818266786	-9.00009719325341	115.116844662646	-45.9687873250444	102.197162946677	-28.0321660393076	97.4920958163281	
2403333333.33333	-16.7271302600412	169.176240556736	-8.99986082786339	112.809324576019	-46.0866270049928	98.6883112458365	-27.7825251837309	98.9260412359616	
2403666666.66667	-16.7377508942969	168.038334249964	-8.9942296714241	110.482717889553	-46.0375842558075	97.408739089384	-27.5725384641073	100.830423775954	
2404000000	-16.7812485011992	166.799105930801	-8.99943230007793	108.162884573483	-45.8182696670066	94.5248425816354	-27.3397756244377	102.066363092832	
2404333333.33334	-16.8068188899348	165.558112190914	-9.00139771503507	105.811610926735	-46.2508520952964	92.760345479501	-27.0866296735447	103.671089534656	
2404666666.66667	-16.8350410702419	164.315621361769	-9.00123857049148	103.466090005479	-45.8605681167794	90.0947554265864	-26.8641154418169	104.676158713939	
2405000000	-16.8724849159147	162.996541486372	-8.99990701558243	101.132307601061	-46.03243586797	89.5078879783916	-26.636642582231	106.107519243843	
2405333333.33334	-16.8788224644561	161.740525194687	-9.00311436778589	98.8336643059343	-45.8384980962644	87.6857932036901	-26.4147107081722	107.060951136431	
2405666666.66667	-16.8922872578841	160.45088776337	-9.0044357163621	96.4722822122869	-46.0271769417254	83.7660336048621	-26.1943465743796	108.053470798831	
2406000000	-16.9190834156214	159.197952849122	-9.00197752643758	94.1837426682642	-46.2729939931804	81.2842671923703	-25.977525431676	108.755945694324	
2406333333.33334	-16.9169844563014	157.832699690347	-9.00848046619986	91.8396597039797	-45.9672820863382	78.7043584092838	-25.7800101566904	109.842808286522	
2406666666.66667	-16.9350774050769	156.47710440005	-9.00363245443422	89.5656521186878	-45.9531536166317	76.8163996266337	-25.5718781645169	110.394059555532	
2407000000	-16.9635651185013	155.072455012639	-9.00798863115273	87.2355449215648	-45.9933536178622	73.3716305823986	-25.3777565804978	110.904321903986	
2407333333.33334	-16.9639709737509	153.783404895524	-9.01465970777489	84.9322003475642	-46.1178273319325	71.5106754832426	-25.2239117166068	111.428600491621	
2407666666.66667	-16.9556593946361	152.488846486996	-9.01637657008836	82.5931372671697	-46.0301205471745	71.5960140378868	-25.0300927324756	111.712550853323	
2408000000	-16.9514438315866	151.229938433873	-9.02061793352228	80.3146714425961	-46.1092594504585	65.5706448062627	-24.9102524616192	112.240166725595	
2408333333.33334	-16.94970091424	149.875866008774	-9.02542940561663	78.0032415281098	-46.0341267342191	64.8034442118569	-24.7275424869695	112.342400472111	
2408666666.66667	-16.9522751219278	148.510872421504	-9.03102560735095	75.7015904722115	-46.0470605016541	62.0800167046925	-24.5723578098499	112.632672718126	
2409000000	-16.9424584888513	147.240531123247	-9.03717379728782	73.4117586978337	-46.0203900537549	58.8732479217297	-24.4241535139884	112.784871623907	
2409333333.33334	-16.9371656059582	145.943731018461	-9.04761568097398	71.105096489153	-46.2701672944726	59.6068423828962	-24.2922000631262	112.789361591637	
2409666666.66667	-16.9112059316722	144.625690841085	-9.05293488166828	68.8659241033908	-45.825896896641	56.2123754686775	-24.1739998106716	112.610493435227	
2410000000	-16.8861916218564	143.374010291101	-9.05939772902449	66.5329667971801	-45.9886894927936	52.917629690927	-24.0550780943482	112.810388566985	
2410333333.33334	-16.8687262499537	142.054767946421	-9.06584704671823	64.2469664309738	-46.052761505719	50.8069437432934	-23.9562388582252	112.871714759314	
2410666666.66667	-16.8414003788674	140.832877741841	-9.07363768283623	61.9696301297113	-45.9335421813196	50.8403497495351	-23.8365935597384	112.564278368958	
2411000000.00001	-16.7926314204587	139.568970831449	-9.07853752800706	59.7089473346267	-45.9372618047909	45.5738331406143	-23.738683319979	112.173974129074	
2411333333.33334	-16.7793636564023	138.221595777137	-9.09463354894591	57.3960443553191	-46.0228227516711	44.1059510327784	-23.6939670570566	112.225130435638	
2411666666.66667	-16.7363929376593	137.073626525116	-9.11028699284015	55.1681205337581	-46.1225057055663	42.3104208153449	-23.6044768798	111.915518485178	
2412000000.00001	-16.7031328898092	135.805902453961	-9.11718541735406	52.9236519647455	-46.0120502242449	39.3747296712585	-23.5500294501309	111.530185754231	
2412333333.33334	-16.6556954779796	134.516042189891	-9.12146228062665	50.6454923666699	-46.2656513532085	37.2105965921076	-23.5052911744175	111.132377636817	
2412666666.66667	-16.6080884478055	133.217458411286	-9.13363665818497	48.4018076280378	-46.1953027982402	35.1083918357944	-23.4863370145705	110.628113152721	
2413000000.00001	-16.5493338069375	131.980948167966	-9.13859317933474	46.1298083950762	-45.9847989953938	32.2512027081499	-23.4310733562823	110.161397598758	
2413333333.33334	-16.5003555401695	130.699843935355	-9.15661593056688	43.9344019803053	-46.1047365030828	30.9865241369069	-23.4124811262866	109.809074493173	
2413666666.66667	-16.4265027196726	129.477109092259	-9.15800127730934	41.6759917888329	-46.1257261594315	25.8832413261568	-23.3628101460139	109.063032183215	
2414000000.00001	-16.3600190598058	128.319867890103	-9.17486625161343	39.4367638028686	-45.9970585270401	24.8182676038609	-23.3843693525823	108.533297598303	
2414333333.33334	-16.3080713245306	127.140257187162	-9.17847894001019	37.1524452829964	-46.0972436539569	23.6666110847014	-23.3657200658999	107.917552226313	
2414666666.66667	-16.2362845023718	126.027813501772	-9.19063355454548	34.9201759017794	-46.1321013284928	21.2371374486231	-23.3874875983505	107.118027454793	
2415000000.00001	-16.1713342048347	124.950087191612	-9.20081327788855	32.7205845670403	-45.9309864944714	19.8992638696828	-23.4188460358972	106.419473304397	
2415333333.33334	-16.1072912222495	123.880187733048	-9.217147760991	30.4751686133611	-46.0551989603382	18.0643030594304	-23.4330973368645	105.637953755024	
2415666666.66667	-16.0195146916965	122.733809988648	-9.22660314081736	28.2557947814099	-46.1318535032927	16.2981993499496	-23.4722567411346	104.828676387607	
2416000000.00001	-15.9503963483308	121.809702501762	-9.23766664596482	26.0051275162117	-45.9901865744773	11.8799887064101	-23.4954505573208	103.914762745283	
2416333333.33334	-15.8787044542491	120.835543173066	-9.24926817915707	23.8193823500517	-46.2469418251085	10.0116524441628	-23.5417289660916	102.953859192968	
2416666666.66667	-15.8043615820682	119.811121757282	-9.26198400000056	21.5384688887458	-46.271161139137	9.38119190996984	-23.6334325677502	101.867259919311	
2417000000.00001	-15.7241942534577	118.895364037524	-9.27409795321416	19.3342902802077	-46.0662647415306	5.62485759049778	-23.6988430164839	100.925257110436	
2417333333.33334	-15.6443261733739	117.915274302918	-9.27640726826086	17.1368582096847	-46.1154478861637	1.71453973290468	-23.7704260346733	99.9749589585684	
2417666666.66668	-15.5808090937251	116.998238320493	-9.29110518594258	14.8965457460477	-46.0315254361254	2.17660423330633	-23.8351127788644	98.8884132790338	
2418000000.00001	-15.5057885156884	116.163905875385	-9.301983218905	12.6428950280106	-46.0867455769356	-0.0862343828911049	-23.921334485611	97.5307027341654	
2418333333.33334	-15.4137980305502	115.223426839454	-9.31365129643692	10.4364602697175	-45.9606651153152	-2.7755798335924	-24.0330151623572	96.2556806336285	
2418666666.66668	-15.3289898742146	114.356907901637	-9.3269215112983	8.21929994071841	-46.0991405247951	-5.63703674019919	-24.1032744636541	95.0098705904415	
2419000000.00001	-15.252871578243	113.506745221067	-9.33542231079654	5.96409175705615	-46.2477489397727	-6.99664020546597	-24.2086564058971	93.6346619644792	
2419333333.33334	-15.1726383833783	112.68178796882	-9.34047891806029	3.74070716495432	-46.0109492999914	-10.0373289461526	-24.3630771576905	92.2469017173304	
2419666666.66668	-15.0905875041435	111.845782702369	-9.35324400864194	1.50193837556213	-46.2536552008661	-11.6983263417361	-24.4766430132852	90.5918845378244	
2420000000.00001	-15.024664424024	111.02868878961	-9.36089357336277	-0.67905295062834	-46.1710796642248	-14.7964379499851	-24.5990399924236	89.1238712545001	
2420333333.33334	-14.9332085497479	110.289991248885	-9.36778513689645	-2.92791800052814	-46.1432778498433	-16.6072113697282	-24.7615208053169	87.4143033165356	
2420666666.66668	-14.8653942714525	109.522922539003	-9.37605091603663	-5.18620915330807	-46.040033864776	-18.8760286702472	-24.9082444251916	85.6904220124488	
2421000000.00001	-14.7849971432165	108.802508552408	-9.38745357525642	-7.4000793810203	-46.25163830296	-22.0916571668169	-25.0127110153477	83.8512684352217	
2421333333.33334	-14.715001577768	108.091244771313	-9.39378440580633	-9.6252881118004	-46.1147200358425	-23.5215088395099	-25.1674652122949	82.0444958052231	
2421666666.66668	-14.6562478760096	107.426944801577	-9.40031497771956	-11.857917384043	-46.2342976842571	-26.1898208514506	-25.2896294230849	80.0888919602314	
2422000000.00001	-14.5750760462377	106.700630100917	-9.40745605769474	-14.1425877800051	-46.3172866937819	-28.2850709885984	-25.4741770951772	78.1466644093614	
2422333333.33334	-14.5065873820701	106.072533273902	-9.40756148250244	-16.3644711741228	-46.1995804280092	-32.342301882436	-25.6039468238977	75.9434046570816	
2422666666.66668	-14.4456389019781	105.451180945548	-9.42150836580626	-18.610330342118	-46.2587011956648	-33.4392398039301	-25.7968579463437	73.7317978101407	
2423000000.00001	-14.3807479866742	104.811915603969	-9.42420482810767	-20.8675835820459	-46.0118161827764	-35.2844258132463	-25.8985867777279	71.3958741460403	
2423333333.33334	-14.3215861875859	104.177015913768	-9.42982136072516	-23.112224455401	-46.3465305201456	-36.1523955400079	-26.0553810613045	69.1502529293843	
2423666666.66668	-14.2677188246078	103.63778312368	-9.43569458457119	-25.3831143763191	-45.8218851031821	-40.4896079722683	-26.2260652809223	66.71687728959	
2424000000.00001	-14.2041466316238	103.114978489898	-9.44343482784028	-27.6410407957504	-46.1511863457664	-39.8497615778995	-26.3644283188383	64.1146590622134	
2424333333.33334	-14.1476592799567	102.52407283548	-9.44137562475732	-29.910850205136	-46.0910375273207	-44.2565613987553	-26.5006308858798	61.4868678824073	
2424666666.66668	-14.0989139315547	102.005286226261	-9.45239419964704	-32.1264904516326	-45.7752059896365	-45.8047028351725	-26.5526327063189	58.884196198779	
2425000000.00001	-14.0519393337365	101.483943866187	-9.45025570306116	-34.4013130707794	-45.9365899212568	-49.0219363092398	-26.6848142198022	55.7511225601556	
2425333333.33335	-14.001989208388	101.010360059929	-9.45746068611722	-36.6831833497194	-46.2821146460263	-50.5184900332544	-26.7990200421961	53.0344105792793	
2425666666.66668	-13.9458575054232	100.597272694507	-9.46241230991649	-38.915182911552	-46.4333245083267	-51.8427270479015	-26.8539973384639	50.3639522294553	
2426000000.00001	-13.9047607579607	100.117991487538	-9.4594583497427	-41.2463069173432	-46.3188645591361	-54.8880711295197	-26.93195061131	47.38557722011	
2426333333.33335	-13.8528883058749	99.6582217922284	-9.46428058646769	-43.5226686929516	-46.2637000747455	-56.0471893977318	-27.0108748460595	44.7720701261786	
2426666666.66668	-13.8194548923068	99.2507913401095	-9.46814118189101	-45.7770557865467	-46.1763789102437	-59.8804567193421	-27.0490733243147	41.6447934371566	
2427000000.00001	-13.7786627872643	98.8576948825531	-9.4634957668008	-48.0597339466771	-46.0648632188349	-60.8878603403872	-27.0599323663215	38.6402775599238	
2427333333.33335	-13.7410739923928	98.5140992401759	-9.4689509864188	-50.3784895536882	-46.4195928049889	-63.772226301076	-27.0736480179047	35.8953318350066	
2427666666.66668	-13.6889545797612	98.0400184856813	-9.47396785447177	-52.6451685217203	-46.1871994025159	-67.8288685187874	-27.1241516671081	33.0484039166128	
2428000000.00001	-13.654004975383	97.6721674784781	-9.47836385291834	-54.908326849317	-46.0499920400028	-69.5438339599562	-27.123792806471	30.2461964948182	
2428333333.33335	-13.6215092141729	97.3238471574528	-9.47999767892753	-57.1806202809118	-46.1335790096566	-71.7776632394503	-27.1159006880806	27.3009195258747	
2428666666.66668	-13.5859354323952	96.9577503039496	-9.47650442358742	-59.5078946035436	-46.330189267916	-71.5257965303447	-27.091218580123	24.4460358052446	
2429000000.00001	-13.5469406999585	96.5715213571863	-9.48025654116464	-61.792777081126	-46.2413865021891	-74.2387615403931	-27.0794522905923	21.8660544944877	
2429333333.33335	-13.5192463131549	96.343453348855	-9.48657563947041	-64.0591966380765	-46.4503309624913	-76.2391279169363	-27.0256472709091	19.2417268087827	
2429666666.66668	-13.479343172182	95.9903374998028	-9.49330437712854	-66.3523158513666	-46.2961267369172	-80.8943752858234	-27.0190756383984	16.9452161501427	
2430000000.00001	-13.4555572667528	95.5906869377958	-9.4897352328465	-68.6890937109931	-46.1894318723549	-80.7322751718879	-26.9610758946642	14.4460272359525	
2430333333.33335	-13.4183147958117	95.3191705651479	-9.49884569327597	-70.9129806385841	-46.2151464677311	-85.4341700885931	-26.8878697608507	12.1040921117908	
2430666666.66668	-13.3998371596379	95.0072676386446	-9.49499967224677	-73.1955953110905	-46.2645675286362	-85.7213382233192	-26.8845656275224	9.75208441049777	
2431000000.00001	-13.3666812059024	94.6879820914392	-9.50465803324209	-75.4858744144539	-46.1428041531901	-88.3852259100479	-26.8133553248758	7.56287257778998	
2431333333.33335	-13.3333979560416	94.4041868588629	-9.50241372471282	-77.7476143830477	-46.129928676378	-90.3380208886555	-26.7591821906464	5.52653872641196	
2431666666.66668	-13.3019690932926	94.1342071796565	-9.50434195266454	-80.0275226961166	-46.1212961296493	-91.8164245184378	-26.6657948164737	3.46065869700323	
2432000000.00002	-13.2867692489191	93.9779904279978	-9.50960443425257	-82.2760072677085	-46.3780273074675	-95.3480301470517	-26.6320163886321	1.70475920041975	
2432333333.33335	-13.2698083588152	93.6558852576539	-9.50924259581979	-84.5484365939819	-46.3535624402934	-97.3655684979811	-26.5793911041434	-0.016526364961455	
2432666666.66668	-13.235111655598	93.370273750374	-9.51717156242103	-86.8055917522822	-46.1400695923121	-100.765968906791	-26.5042071697405	-1.60539029152909	
2433000000.00002	-13.2269098451597	93.1451099444117	-9.51644261600741	-89.0785915953872	-46.4605009632198	-102.524507450473	-26.5024715449937	-3.12445270667761	
2433333333.33335	-13.2046055949031	92.8743314602913	-9.52433539028045	-91.2830706448392	-46.3837376679064	-105.707841304221	-26.4405874027455	-4.5252318075113	
2433666666.66668	-13.1880471761819	92.5790867989206	-9.52815219596429	-93.5830122396622	-46.0457310796599	-107.129520613008	-26.3960401522548	-6.13827989138735	
2434000000.00002	-13.1752696773192	92.314457598911	-9.52695813853586	-95.8472328098376	-46.370822571164	-107.276820139274	-26.4033983754585	-7.22081146490942	
2434333333.33335	-13.1552388905204	91.9881592631944	-9.52941139308888	-98.0623075706707	-46.1672588108746	-112.343545108273	-26.3667292677839	-8.53463833283375	
2434666666.66668	-13.1468451116163	91.7267251616095	-9.53399537800238	-100.325371276662	-46.4925497105162	-114.358264310535	-26.3502788325522	-9.7684546639519	
2435000000.00002	-13.12569897722	91.3559037687283	-9.53430715543047	-102.560051632554	-46.6854179550954	-115.124261026595	-26.3644728267792	-10.4310521943882	
2435333333.33335	-13.112122706411	91.1087086775396	-9.53815517774962	-104.822006135812	-46.4406563698809	-117.525582603996	-26.3987486779228	-11.6309444407656	
2435666666.66668	-13.1012172948515	90.7999831687738	-9.53723665485206	-107.069112549791	-46.3762890664854	-119.323955943406	-26.4642049031087	-12.2051345022679	
2436000000.00002	-13.0898263660057	90.406563359334	-9.53421256415804	-109.302646188427	-46.2397329467062	-124.230562051883	-26.5178366224056	-13.0132370324238	
2436333333.33335	-13.0903236469765	90.0528527024854	-9.54325486540977	-111.536710121563	-46.5060511845511	-125.039701354662	-26.5230039581497	-13.7265757927148	
2436666666.66668	-13.0806157999712	89.7910661540201	-9.53860291890929	-113.803496519723	-46.4698392334633	-126.878552839095	-26.6187581797714	-14.1291706853911	
2437000000.00002	-13.0679588694699	89.4143908059824	-9.54091031538555	-116.005601305927	-46.1696403317523	-129.312536134324	-26.7196366142283	-14.8123670052331	
2437333333.33335	-13.0520571098019	89.1177912625339	-9.53770546278716	-118.233836087455	-46.6292357887018	-131.118461717657	-26.7871913183752	-14.9473133861446	
2437666666.66668	-13.0498789682214	88.6129629446218	-9.53363941028265	-120.492243029494	-46.5115614321737	-133.585073607875	-26.8744337571841	-15.2354315396935	
2438000000.00002	-13.0466005867125	88.2579329986483	-9.53494433930283	-122.722767548423	-46.6760071436566	-136.146456079925	-27.0283697765992	-15.605226369423	
2438333333.33335	-13.0404852161076	87.8726626321429	-9.53557199673095	-124.965536884499	-46.5224091087978	-138.921730746884	-27.1453347792295	-15.4031397695747	
2438666666.66669	-13.0496360073898	87.4694338007131	-9.53295704608465	-127.18648961391	-46.5404455365458	-142.266671468972	-27.2664335331871	-15.3249833249782	
2439000000.00002	-13.0371871875798	87.1549369718534	-9.53145625594455	-129.374492857745	-46.5972057134479	-143.742640984043	-27.4377673639528	-14.9763525079518	
2439333333.33335	-13.0340592790959	86.6266556871999	-9.5234288127505	-131.628636766341	-46.5113154017284	-145.628671369493	-27.6372808370786	-14.8369050152728	
2439666666.66669	-13.0316514773635	86.3827953972857	-9.51739857081004	-133.865545165732	-46.3404016753121	-146.892832716203	-27.8171467935222	-14.1257805621533	
2440000000.00002	-13.052067854956	85.8943432859047	-9.52664011727151	-136.100564148372	-46.0978479043134	-149.488052666217	-27.9969583688394	-13.4832410043839	
2440333333.33335	-13.0393978717976	85.4216629839654	-9.52093116254355	-138.275478929315	-46.5460296546106	-152.37274069309	-28.1879285273173	-12.9152183797757	
2440666666.66669	-13.0373047789744	85.1694160053302	-9.50876317489024	-140.532760498191	-46.2265335731579	-154.850844450393	-28.4056549897933	-11.9814725294004	
2441000000.00002	-13.0544362011675	84.7069397638435	-9.5069302233602	-142.775268203603	-46.4063130601922	-156.316817419456	-28.5916803468733	-10.8327115304782	
2441333333.33335	-13.0633397770136	84.212730401295	-9.49848738804255	-144.982506496262	-46.3752551568721	-158.387486935792	-28.8316364774647	-9.42535313854951	
2441666666.66669	-13.059789937726	83.7490440006853	-9.49430607679021	-147.213555658492	-46.4776458229318	-161.233566172731	-29.0183578046084	-7.38902466787273	
2442000000.00002	-13.0810569472328	83.457489237013	-9.49451962377056	-149.398867739299	-46.5632826592381	-164.223965837634	-29.2679754048944	-5.33187949002491	
2442333333.33335	-13.0891673573853	83.0952528110926	-9.48708754764866	-151.65685833599	-46.4364431926919	-162.968233910415	-29.4699813531251	-3.48310839624985	
2442666666.66669	-13.1164415311965	82.7099934321541	-9.4804301694173	-153.885801821856	-46.3967805642762	-166.030724285765	-29.5934933417943	-0.855282274030406	
2443000000.00002	-13.1353798764569	82.2602237979228	-9.4707936859844	-156.142014536711	-46.3487238662566	-169.592802739961	-29.8232814418547	1.79322970616136	
2443333333.33335	-13.1429978349258	81.8677829411514	-9.46741073998881	-158.380055549644	-46.4539086056779	-172.059733735725	-29.99730962351	4.52642578748768	
2443666666.66669	-13.1714333226327	81.3484440766417	-9.46513961767452	-160.629851877464	-46.328769272047	-173.810258452987	-30.1077251498898	7.98473331135583	
2444000000.00002	-13.2074325164847	81.0183478789149	-9.45691147568688	-162.843588777187	-46.3224481388961	-177.540692584362	-30.2148585161361	11.2134221811731	
2444333333.33335	-13.2323526720492	80.6016120550994	-9.450343868484	-165.049669197068	-46.3873626463103	-179.286924092712	-30.20451068754	14.8844276824296	
2444666666.66669	-13.2580717665121	80.1928918276508	-9.44039269109549	-167.359241353503	-46.2879148239157	179.602567144507	-30.2095827598865	18.4092180188276	
2445000000.00002	-13.2686537484958	79.8396432851974	-9.4358862550325	-169.548775733553	-46.2389699834941	176.945981622994	-30.1155850349122	21.9427397615813	
2445333333.33335	-13.3209496292451	79.2832631228725	-9.42816246404462	-171.814820904368	-46.1397645266896	174.723162140895	-29.9937624945853	26.067405056283	
2445666666.66669	-13.3311824757574	78.9287110480142	-9.42197687075204	-174.045285462761	-46.1330149168841	172.94247388725	-29.8256388147686	29.3606500483999	
2446000000.00002	-13.3524376160076	78.5385712496319	-9.40868540293213	-176.306272943214	-46.0805893096738	170.314980005954	-29.6095020088021	33.0366620352971	
2446333333.33336	-13.3873844737865	78.1141935216886	-9.40270624431102	-178.603219464451	-46.2016009252599	166.948855923251	-29.3485748243665	36.4815086821973	
2446666666.66669	-13.4072043063392	77.5181839143086	-9.39766451232002	179.175450760975	-46.2869499781913	166.827759656381	-29.0763003482055	39.4587229894412	
2447000000.00002	-13.4415862054645	77.0712696304498	-9.38941459667681	176.881931277845	-46.2066556946995	164.911454031858	-28.7796811080079	42.4888508810288	
2447333333.33336	-13.4816498798254	76.5826427245541	-9.38264447375946	174.632655687453	-46.3447183681382	163.073832647911	-28.4285124652254	45.2749684307145	
2447666666.66669	-13.5027429148919	76.1422531004612	-9.38230974198623	172.382314579734	-46.1749760945821	157.831720553953	-28.0936143424676	47.6119742996396	
2448000000.00002	-13.5443861335093	75.6777867802066	-9.36993746669724	170.110361671967	-46.4017909442601	157.910579691679	-27.7173655320901	50.0142796176806	
2448333333.33336	-13.5741980807456	75.2260368471945	-9.36368896467817	167.866732468801	-46.2946761246737	154.325992475005	-27.3825416967488	52.0783890352923	
2448666666.66669	-13.5947495257911	74.7275235024892	-9.3583561626068	165.5856784113	-46.2535557979537	151.317496321197	-27.0089157091796	54.0458879488024	
2449000000.00002	-13.629349883339	74.2696980511801	-9.35526074982319	163.300394750963	-46.2133820372384	150.097269181849	-26.5745887514378	55.406402108935	
2449333333.33336	-13.6757921498987	73.7401781500949	-9.34849193195694	161.015467703796	-46.2000825425044	149.654683448262	-26.1999932649871	56.7989745923566	
2449666666.66669	-13.7003657019432	73.2529724196059	-9.34512173085764	158.76305845153	-46.1442511490781	147.074363568275	-25.8631776871491	57.9194813633319	
2450000000.00002	-13.7489983530054	72.7738459077248	-9.33726871049188	156.502513432754	-45.9239340693373	142.591167421992	-25.522613197693	59.1540964924556	
2450333333.33336	-13.7706179640393	72.2774590541715	-9.32670504702461	154.194614500642	-46.3274598587667	142.410300786624	-25.1619588175887	60.1533298335082	
2450666666.66669	-13.7951718145821	71.7112359306152	-9.3207264071684	151.934834015467	-46.2245210213629	139.386576531786	-24.8354713746493	61.2105387577738	
2451000000.00002	-13.8338423278924	71.2670428577715	-9.32034476300505	149.666761365007	-46.2289788994787	137.117548017939	-24.5035339306018	61.7879676571895	
2451333333.33336	-13.8682206810805	70.7127350828372	-9.31953866823524	147.390114180385	-46.2166843384116	135.691171383333	-24.1756027854793	62.6462829303443	
2451666666.66669	-13.8880035476828	70.3607959841903	-9.31574220427165	145.132597410171	-46.2963374856679	131.12437832087	-23.8519051029919	63.2347186927659	
2452000000.00002	-13.9046334169672	69.7753792896055	-9.3089918988029	142.842010341326	-46.203758331062	132.838914751672	-23.5764146754816	63.6260993717712	
2452333333.33336	-13.9266318899056	69.2243506187794	-9.30584541053112	140.598559274526	-46.3270149506226	128.331588939781	-23.3091357681961	64.1052937626385	
2452666666.66669	-13.9469279150277	68.7541892347145	-9.30146904601221	138.346038712591	-45.9283366699741	125.685183624017	-23.0267633768862	64.3200390277961	
2453000000.00003	-13.973059207914	68.2814351135922	-9.29745893836473	136.019005771519	-46.1963870481703	124.051484363563	-22.7754618822848	64.4455692930371	
2453333333.33336	-13.9875496788961	67.660510784341	-9.29365166487269	133.810665009275	-46.2626295306243	122.595849910376	-22.5216810786562	64.694305538486	
2453666666.66669	-14.0068170816758	67.1980422330457	-9.29859068218676	131.563909746029	-45.6918371194704	119.14160071236	-22.2916569657623	64.9500346346518	
2454000000.00003	-14.0213066203835	66.6766828968529	-9.29025907627244	129.266139861763	-45.9679244184626	114.931526710247	-22.0898891311575	64.9613828292855	
2454333333.33336	-14.023183077902	66.2254039806531	-9.28629245949154	126.975657434495	-46.2907134958298	115.811010597584	-21.8580167713829	65.1833519431642	
2454666666.66669	-14.0278724334312	65.6359830379128	-9.27922401059044	124.714978169287	-46.0193387586439	112.880762287055	-21.647946687163	65.2194028838226	
2455000000.00003	-14.0411409748926	65.1832520255752	-9.28618860784032	122.45302099148	-46.2542712757748	110.133552928918	-21.471512732017	65.2087005748509	
2455333333.33336	-14.0452786724986	64.6543409448951	-9.28151934843783	120.165438971445	-45.9676795868279	108.575277177596	-21.2974857397033	65.1327955629537	
2455666666.66669	-14.0403253377837	64.0244320656344	-9.27866740457299	117.899151730704	-46.2200164107995	106.379947653104	-21.1341617224266	65.0532536909443	
2456000000.00003	-14.0324389888547	63.5502403221332	-9.28516799456854	115.655909371321	-46.236718578711	102.220818662208	-20.9722049951826	65.0462494842424	
2456333333.33336	-14.0366837162506	63.0957795310926	-9.27594761516843	113.386795427071	-46.0970189446832	100.847519907173	-20.8210099389341	64.862664376761	
2456666666.66669	-14.0238206399042	62.5340968229484	-9.27799524193832	111.176789605453	-45.971543826845	100.825950675141	-20.6588275685057	64.742400006024	
2457000000.00003	-14.0098684474794	62.0022927474225	-9.28087626808641	108.896615074763	-45.8918090213841	97.1258897688429	-20.5394576167167	64.6340804233975	
2457333333.33336	-13.9950164291575	61.4734371954935	-9.27576116049711	106.621796739236	-45.9078221539358	95.4758984504607	-20.4081884664042	64.4006842948902	
2457666666.66669	-13.9701829102421	60.9057302436889	-9.28040218047092	104.367954771783	-46.2111837004407	92.1426187459845	-20.2937977340669	64.2319052629127	
2458000000.00003	-13.9672153781806	60.3394724971219	-9.28316740990972	102.089322122252	-46.1377227460995	90.3504942176942	-20.1851452204067	63.8196979132217	
2458333333.33336	-13.9274405474825	59.8104489514889	-9.28332107369451	99.8330881927097	-45.8323027466415	90.0608790997249	-20.0836207727658	63.6405140829473	
2458666666.66669	-13.9024760366076	59.3036431820065	-9.28598291473633	97.6005984075985	-45.9341982073574	85.7360704178886	-19.9907036382395	63.3247340536867	
2459000000.00003	-13.8757595069111	58.7294283626279	-9.28247409015657	95.3987219154856	-46.1634331311339	83.6677095019936	-19.8949157980292	63.3129952666846	
2459333333.33336	-13.8493909038169	58.1399017773261	-9.29154567461148	93.1387375752735	-46.1126131458948	81.5215655736365	-19.8209486513263	63.0644339578572	
2459666666.6667	-13.8105202064842	57.6462027072209	-9.28536751284547	90.8804763773684	-45.8084455289671	77.9640585201783	-19.7577544640928	62.7389144249606	
2460000000.00003	-13.7908333884168	57.1016086723268	-9.28846633476412	88.6008660974555	-46.3915769144999	77.8711340519134	-19.6882141137868	62.4084076866304	
2460333333.33336	-13.74462696052	56.5278860194991	-9.29049766391008	86.4124535159107	-45.8691190329033	75.1663737152493	-19.6373300185484	62.1647086296763	
2460666666.6667	-13.7075509286435	56.0305922570174	-9.29561993425301	84.1121333671319	-45.9048146841846	72.4056011132165	-19.580445163071	61.8447720088373	
2461000000.00003	-13.6652058690165	55.4252920014663	-9.29509257008012	81.8760304352143	-46.3250497045221	70.0849642964462	-19.5345393706753	61.4971158153737	
2461333333.33336	-13.6248940597119	54.8703800901906	-9.29673717366852	79.6341605227542	-46.1721208317972	67.3756917269276	-19.5084659986892	60.9574625876807	
2461666666.6667	-13.5867167334619	54.3077100818694	-9.30184465876247	77.3556401857643	-46.1905800588602	64.6197085244673	-19.4925316508751	60.74190727148	
2462000000.00003	-13.5345602998765	53.7460578305713	-9.30157067710573	75.1010672186726	-46.2089796402742	61.1307772852664	-19.4727326007565	60.43815758212	
2462333333.33336	-13.4940696320454	53.1777868597548	-9.30411482489527	72.8186298953486	-46.0512588037995	60.9250553680513	-19.4807738963217	60.1365185290666	
2462666666.6667	-13.442557310705	52.6302946174059	-9.3081630772311	70.5634789512062	-46.0553595185185	57.0020198154363	-19.4718248122583	59.7491784791783	
2463000000.00003	-13.3891053600005	52.0543527179995	-9.30801854919974	68.2785285403473	-46.2012879945709	56.506257588098	-19.4817951265464	59.3207349551217	
2463333333.33336	-13.3418842062833	51.4970253000272	-9.31552263148745	66.0069934106014	-45.8065599225015	53.06435126796	-19.4802532479305	58.8695704679147	
2463666666.6667	-13.2970684799923	50.9656752283395	-9.32107416412346	63.7483921093803	-46.0481615195386	51.0765309450437	-19.5086066094713	58.6604542687744	
2464000000.00003	-13.2381764924995	50.4106497276856	-9.31979040017	61.5023259081961	-46.1499375018232	50.1940850329332	-19.537972568062	58.2663861011643	
2464333333.33336	-13.1869048239712	49.8274583584598	-9.32849453294057	59.2096071233642	-46.0402929208172	45.7748143075057	-19.5702947503744	57.8147758330915	
2464666666.6667	-13.1332061141363	49.3428681003074	-9.32651988611432	56.8897764479438	-46.0794683267366	43.6116091049634	-19.6171474250353	57.2712955050007	
2465000000.00003	-13.0853192022328	48.7693373108925	-9.33408310185581	54.624764320076	-45.9139586754003	41.1534632993571	-19.6403253255042	56.924339425706	
2465333333.33336	-13.0325871689784	48.2221480355878	-9.33995953381058	52.371348959062	-46.0452210914835	38.1507783453309	-19.6816335741541	56.5361246519646	
2465666666.6667	-12.9799840257851	47.6644439510787	-9.33984243514779	50.1076363302279	-46.0899419767473	35.3153171980571	-19.7491044696925	56.1287180360184	
2466000000.00003	-12.9194929640142	47.1911978497827	-9.34747340481515	47.8040394822773	-46.1837780016545	33.8515727294624	-19.7925320172675	55.6812384260095	
2466333333.33336	-12.8703340558525	46.6691081680432	-9.35148841221193	45.5612706895549	-46.0642430527444	33.4693187044841	-19.851129940407	55.1014885813331	
2466666666.6667	-12.8188865024043	46.1687760786375	-9.35404247231161	43.2759381558122	-46.1428423924113	30.5799957314357	-19.9378351230781	54.7169948089862	
2467000000.00003	-12.7657591653679	45.6267918923228	-9.35531370611397	40.9982187015402	-46.1798462502641	26.295198398871	-20.0290130968269	54.1726029623194	
2467333333.33337	-12.7078327793339	45.1878555685782	-9.3594610486609	38.7474650393493	-46.151686767289	24.7361277411132	-20.1053014178234	53.6614401881859	
2467666666.6667	-12.6582810642289	44.6932038600839	-9.36294091234723	36.4789475582891	-46.1036272760107	22.2713387105362	-20.1954431371341	53.1071132353093	
2468000000.00003	-12.6122264289167	44.2387273937643	-9.37210496248706	34.1485678722358	-45.7414939499824	20.0858405373645	-20.2854107760556	52.6402032073858	
2468333333.33337	-12.5539820536925	43.768166075677	-9.37208961519876	31.8893987356223	-46.1600725172764	17.6760362736742	-20.3978289638993	52.0684988890605	
2468666666.6667	-12.5053934150897	43.3063007257584	-9.37208600402888	29.6030970412429	-45.9265457803054	15.9301939351698	-20.5021151076226	51.4972352828363	
2469000000.00003	-12.4490443524375	42.8417296809837	-9.37843642403603	27.3420260475111	-45.9125353551315	13.4343794139838	-20.5934280276754	51.0012927448672	
2469333333.33337	-12.411098854914	42.4085431582868	-9.39114895425774	25.0685949355826	-46.0147360226081	12.15530954737	-20.7302143815012	50.2119857573323	
2469666666.6667	-12.3529971992622	42.0099388993768	-9.38982673406125	22.757865533873	-46.3245599940803	9.29188976014973	-20.8443068777378	49.6354884498138	
2470000000.00003	-12.3105964687671	41.5265801221841	-9.38889869297243	20.47161423382	-46.0778725439171	7.31870316616022	-20.9826801539173	49.0445980709936	
2470333333.33337	-12.2590600979306	41.1054024689819	-9.3917257914718	18.1813533127619	-45.9091919232587	4.89564700855513	-21.0931312568192	48.4163226368309	
2470666666.6667	-12.2114919463069	40.7108374701434	-9.39902038040567	15.9035641611464	-45.9869367108136	3.43717616675572	-21.2443743902277	47.6751312071695	
2471000000.00003	-12.1686228254502	40.3256410203882	-9.40032467623243	13.6038337355845	-45.9296447934972	-0.662786945479366	-21.3766794677238	47.0288041059179	
2471333333.33337	-12.1150422902053	39.9755547676512	-9.40325451527182	11.2981435995902	-45.8224813809322	-3.71894967326401	-21.5361082788898	46.3649433917788	
2471666666.6667	-12.0724899300299	39.5954778062587	-9.40326415845081	8.99337408295879	-46.2497194258675	-5.47949331123535	-21.6533857423634	45.5449446755169	
2472000000.00003	-12.0258783570763	39.2032323569214	-9.41159406344782	6.7269389691324	-45.9338712784486	-7.39822668480319	-21.8323541770637	44.8622861860243	
2472333333.33337	-11.9804798732105	38.9062241146932	-9.40930160226971	4.43690070267601	-46.1692902479099	-9.46279932152348	-22.0050654014232	43.960930302544	
2472666666.6667	-11.9210853428874	38.5770255371536	-9.41871458300463	2.11514777325649	-45.9406405575135	-11.6676196555464	-22.1880426317077	43.2271972353349	
2473000000.00003	-11.8748632203382	38.2703769976254	-9.41418024922347	-0.254688075025451	-45.8994378543441	-16.3225940108166	-22.3848087847221	42.1677252991607	
2473333333.33337	-11.83332127158	37.981081775915	-9.4252494865721	-2.48974159766088	-46.1065202968138	-14.8742116494354	-22.5595788459011	41.2387817763374	
2473666666.6667	-11.7870714705707	37.6288538057151	-9.42362590583251	-4.85039780233284	-45.9807419501222	-18.2998469668302	-22.7534017998946	40.4095364538547	
2474000000.00004	-11.7371595928218	37.3565958949189	-9.43226378371045	-7.16467391971248	-45.9658233558651	-21.6846646111361	-22.9424805243398	39.3620147346312	
2474333333.33337	-11.6965401565873	37.0830295032727	-9.42707839456516	-9.48417909475498	-46.177610369791	-23.7211635645214	-23.1469144274196	38.3896942499194	
2474666666.6667	-11.647654487221	36.7696618605659	-9.43486428999465	-11.7779929809989	-45.9271664486243	-24.3138088350622	-23.3603466897672	37.2724052530389	
2475000000.00004	-11.6055738098337	36.5257503839746	-9.43488337828971	-14.1136011944288	-45.9302642982357	-27.6666315567344	-23.5657789882679	36.250768006764	
2475333333.33337	-11.5637868742181	36.2560352188733	-9.4363918390931	-16.4263534238251	-46.1134462536173	-27.5898677889969	-23.8136085127103	35.0271740374394	
2475666666.6667	-11.5248294502195	35.953876648535	-9.43987782031823	-18.7895527467104	-45.8322269654123	-32.2559026734451	-23.9971459564655	33.9416537160152	
2476000000.00004	-11.4770769921685	35.7165631935406	-9.44487821635114	-21.0978695527518	-46.0753588517625	-35.4397813338001	-24.2248857074245	32.5663831244489	
2476333333.33337	-11.4392533750247	35.4365219564349	-9.44435647171707	-23.4161178070739	-45.9760490514009	-36.2793630178195	-24.4494530701821	31.4665109897369	
2476666666.6667	-11.4035027962231	35.1214167455376	-9.45036019431584	-25.7417780241511	-45.8056215416403	-39.6405920968723	-24.6891636275164	29.9991709299235	
2477000000.00004	-11.3624336852771	34.8591018301053	-9.44852725780911	-28.0618634693137	-46.2645295332415	-40.1329114311543	-24.9038682202521	28.5397709437866	
2477333333.33337	-11.3300012206368	34.6027703467994	-9.44841576389976	-30.3926097011786	-46.1730091866025	-44.1716925485102	-25.1351270408258	27.1861486069646	
2477666666.6667	-11.2981364109788	34.3109913768947	-9.45118555038604	-32.717956909453	-45.9793424407819	-43.9231669684373	-25.3503312010711	25.4673720133525	
2478000000.00004	-11.2535023388793	34.0286250443745	-9.4581162296737	-35.0759515796485	-45.9678514187537	-46.1393276610932	-25.5904274564505	23.8838674910949	
2478333333.33337	-11.2149252697126	33.6913411353721	-9.45704227307264	-37.3985103357143	-45.8471308457243	-49.8010736200425	-25.8267894400428	22.0646861758357	
2478666666.6667	-11.1767865198079	33.4375393741961	-9.46323064143478	-39.7290695160591	-46.0862624974152	-51.2246079126727	-26.0698696318979	20.3256608721029	
2479000000.00004	-11.1391298116266	33.128776938004	-9.46046104813781	-42.0563103408284	-46.2136385085016	-54.203101038047	-26.3087488628809	18.4757730771601	
2479333333.33337	-11.1063740909619	32.8833212334977	-9.46753811455017	-44.4378386891234	-45.9532639671653	-58.2358637414539	-26.5276051261635	16.711034016874	
2479666666.6667	-11.0752621811721	32.5814266370436	-9.4632014068174	-46.7172474465519	-45.9958281131751	-59.6706873555371	-26.7691511034263	14.6920773482481	
2480000000.00004	-11.0327196326101	32.2947687374391	-9.47062183052175	-49.0704449984226	-46.0047961238857	-62.4166972000863	-26.9752283332206	12.5404498781135	
2480333333.33337	-11.007151370263	32.0099805410958	-9.47179331347858	-51.4065953617484	-45.6780378499501	-63.4580599995229	-27.1891711394003	10.3718184527829	
2480666666.66671	-10.9835673719784	31.6912823781414	-9.46876826243598	-53.7031207897436	-46.0163944272544	-66.3859341435982	-27.4092851474508	8.22695849617295	
2481000000.00004	-10.9495815459301	31.4152130927728	-9.46990877834294	-56.0384014178766	-45.745006616224	-67.5119753024454	-27.6265057858695	6.10109611415468	
2481333333.33337	-10.9201708777155	31.0606250145393	-9.4756783959272	-58.3161484714644	-45.704212023666	-71.8857327272287	-27.770328607825	3.87284478360438	
2481666666.66671	-10.9014923835973	30.7084169267648	-9.47046920084311	-60.6995409320371	-45.9303019931585	-72.7166618316159	-27.9999218084285	1.49723711087464	
2482000000.00004	-10.8774609266006	30.3974734972149	-9.47296049594005	-62.9887646098917	-46.0717265426162	-75.0794703831964	-28.1269219709298	-0.864597629349116	
2482333333.33337	-10.8497428525607	30.1076379479309	-9.47120103020873	-65.3631955843336	-45.9427727621649	-76.1688715028336	-28.3265706595938	-3.43746458011328	
2482666666.66671	-10.8280864308229	29.6428384132771	-9.47428441405757	-67.6614063831719	-45.636891629797	-80.0294251522821	-28.4492491404976	-5.7544753839999	
2483000000.00004	-10.8097468696998	29.3444724170772	-9.46736602514465	-69.9480216350684	-45.9462952177165	-81.5177050184397	-28.5872757072993	-8.2975760327819	
2483333333.33337	-10.794000516401	28.8961031646388	-9.46738136253736	-72.2453681937831	-45.9370458372541	-84.396134322803	-28.6994738084118	-10.5957975081708	
2483666666.66671	-10.7777260329364	28.637235724215	-9.47030673489801	-74.5564723297633	-45.8981492255276	-87.0127092178361	-28.8062967552224	-13.1022025751614	
2484000000.00004	-10.7591000331539	28.1842723725498	-9.46764848725065	-76.8884028133162	-45.9094495725816	-89.1365984566552	-28.9332652162681	-15.7711926644242	
2484333333.33337	-10.7448014826967	27.8925404974539	-9.46257138740751	-79.1919285422229	-46.1289929583366	-93.1594792059743	-29.010509081047	-17.9420723649237	
2484666666.66671	-10.722422119682	27.4765590802344	-9.45983250564152	-81.4622438075411	-46.1294076795972	-91.8151978315871	-29.0958290557028	-20.4906557204851	
2485000000.00004	-10.7227132977965	27.0991397883949	-9.45358158231107	-83.7681328566006	-45.8471761368368	-95.6140206410878	-29.1302881251236	-22.5896862557575	
2485333333.33337	-10.6985282239005	26.7275303311792	-9.45750935970312	-86.0852182308469	-45.9820422879174	-98.7339669965414	-29.2125710570349	-24.814418062774	
2485666666.66671	-10.6957402025135	26.2761135693825	-9.45566564254966	-88.3751882752673	-46.1851286821626	-102.067862084549	-29.2369045287489	-26.9576426077178	
2486000000.00004	-10.6971807175994	25.9558660677532	-9.44980288673444	-90.7178429183219	-46.2228636507007	-105.043379587561	-29.3072073169046	-29.455290110296	
2486333333.33337	-10.6834507513358	25.5490556916323	-9.44575163380488	-93.0050991347338	-46.0507907098088	-104.90523809573	-29.3172961867526	-31.1057400323364	
2486666666.66671	-10.6800477353045	25.0674954330989	-9.44733764805889	-95.317666707746	-46.0289503052824	-108.138328926713	-29.3864724120135	-33.2594727698713	
2487000000.00004	-10.6885065572742	24.6825134768672	-9.43801380515853	-97.6171442057418	-45.8840778268077	-108.789957731304	-29.4378161228604	-35.3164335788283	
2487333333.33337	-10.6894383529835	24.2521442673465	-9.42804835095011	-99.9202581189924	-46.1696698857909	-111.897697629068	-29.4607459468776	-36.7009629628793	
2487666666.66671	-10.6906681385325	23.8979192995783	-9.42771771319633	-102.240727550198	-46.0428079983432	-115.684140126736	-29.5375400293219	-38.7311654419792	
2488000000.00004	-10.6852464723788	23.4326087071596	-9.42456203076415	-104.526295042387	-46.0700643006897	-116.98871395871	-29.6145812556098	-39.9921396481602	
2488333333.33338	-10.6950394699597	22.9729845329804	-9.41856228687013	-106.846421865085	-46.0584965263958	-118.541921781666	-29.6859793310107	-41.5666240548392	
2488666666.66671	-10.6963311904635	22.5020221209345	-9.41545200165622	-109.175423016646	-46.1926402442639	-121.090186071937	-29.7780489805148	-43.1403821168466	
2489000000.00004	-10.7152851302996	22.0256476973359	-9.41028137602085	-111.440766028414	-46.0972960229588	-122.827584343276	-29.7054792912523	-44.3463259550789	
2489333333.33338	-10.7166240320795	21.5302035782262	-9.40158134410118	-113.757902047357	-46.027226127977	-125.331494623813	-29.8457008624671	-45.5633347702268	
2489666666.66671	-10.735281264418	21.0180637881814	-9.39973567267808	-116.057755195441	-46.0679864349157	-127.449336396019	-29.9820878711306	-46.8393963901244	
2490000000.00004	-10.7486663587026	20.5707610845262	-9.39291530621083	-118.349190943155	-45.9244441195545	-128.682897957085	-30.0571401299517	-47.8419981236066	
2490333333.33338	-10.7815780481214	20.0690034568652	-9.39364728808129	-120.679193717574	-46.0888961260888	-133.887752533957	-30.2202889235219	-48.7921968801231	
2490666666.66671	-10.791491347544	19.5006716342791	-9.38365734845575	-123.003980654344	-46.125899929844	-136.030497373643	-30.3341266743392	-49.5332677078139	
2491000000.00004	-10.8178978709227	19.0468480907757	-9.38306439489982	-125.280440859478	-46.1075615678126	-138.466949738116	-30.5311875304204	-50.0132506324088	
2491333333.33338	-10.8427918985251	18.5158416101989	-9.37985801536966	-127.615755954923	-46.0069827698666	-140.073887253141	-30.6540296826917	-50.5287288846986	
2491666666.66671	-10.8699579252396	17.9626206607688	-9.37131833436043	-129.90821735743	-45.9417343505115	-141.779707582268	-30.7404278524077	-50.7316581626383	
2492000000.00004	-10.8999411579904	17.4347503871667	-9.36761970340496	-132.232041299473	-45.8643275173328	-144.578595738951	-30.986553044689	-50.9715526766343	
2492333333.33338	-10.925707412176	16.8969379563755	-9.36445394992468	-134.516716327063	-45.9628401490151	-146.361522383668	-31.208728739803	-50.8320500806888	
2492666666.66671	-10.9552458814407	16.3369087735053	-9.35697078385813	-136.801976823237	-46.1248325021863	-148.449988552501	-31.499558799059	-50.7240286081359	
2493000000.00004	-10.994089159307	15.8004894747128	-9.35492983341659	-139.102388117808	-45.8276967999726	-149.616246988573	-31.6724613492733	-50.3597346695092	
2493333333.33338	-11.0262630894407	15.24168191316	-9.35185056714289	-141.4289233595	-46.1710852297237	-153.179615950465	-31.9756413717595	-49.5815057617023	
2493666666.66671	-11.0602206475237	14.6314160452836	-9.34863083674097	-143.727344259101	-46.2039753683538	-155.301874416271	-32.2779951388443	-48.6218305676815	
2494000000.00004	-11.1057664477756	14.0964895490377	-9.34722944746526	-146.038270350055	-46.0485699259134	-159.305750780703	-32.6812443829358	-47.456525166846	
2494333333.33338	-11.1337393355869	13.5074608674947	-9.34349457462938	-148.308890495439	-45.8993999968347	-159.932524997679	-33.0425703546745	-46.1385374064017	
2494666666.66671	-11.1715743053115	12.899632302033	-9.33988851633275	-150.648370342601	-46.3818339554415	-162.679092803481	-33.3509631350027	-43.8620711055837	
2495000000.00005	-11.2118297395051	12.3438936836274	-9.33755055396517	-152.953412829837	-46.1706092377196	-165.130931560283	-33.7739016351436	-42.2410376459577	
2495333333.33338	-11.2465808225315	11.7111247854403	-9.33842676348535	-155.268818536022	-46.0491239991539	-166.538509615496	-34.1801080652245	-39.0083770577574	
2495666666.66671	-11.2922443977963	11.185723600289	-9.33920999051848	-157.546194387217	-45.9718591716798	-168.477234756181	-34.4922241901096	-35.6467707221756	
2496000000.00005	-11.3349330582353	10.5253521732282	-9.33618873159886	-159.857730219873	-46.0704283969146	-171.610030447329	-34.855611597698	-31.1217976506894	
2496333333.33338	-11.367564208243	9.91552863934708	-9.33853071031979	-162.160796576139	-46.0497251536996	-173.854464466212	-35.2013860065158	-26.4936639757099	
2496666666.66671	-11.4033219802912	9.2989494630374	-9.33626452860301	-164.430811259074	-46.3155022978635	-175.55921487741	-35.5359602216225	-21.2355188176651	
2497000000.00005	-11.4520133857693	8.71557665330713	-9.33918750894679	-166.79522617251	-45.9052732063801	-179.577275002162	-35.6634951774357	-15.1144803966107	
2497333333.33338	-11.4886247824816	8.09602205051261	-9.33843922617921	-169.019507909048	-45.8244083903784	-179.956926663124	-35.6144479362729	-9.15508677219889	
2497666666.66671	-11.5457730260205	7.50311697173112	-9.34660822107838	-171.33674573228	-46.2169692059354	177.559414647735	-35.4852245160828	-2.99870094375783	
2498000000.00005	-11.5831443049916	6.85350643333242	-9.34765787125522	-173.633949805836	-46.1349897047142	176.257744889378	-35.2609873079588	3.28634801586414	
2498333333.33338	-11.6151621426637	6.17177067439858	-9.35375096417246	-175.966062136139	-46.0709698078703	172.219495907786	-34.875244828271	9.26500984231507	
2498666666.66671	-11.6561826843465	5.57448998696449	-9.36012170662168	-178.238589376464	-46.2485548932466	171.490202967823	-34.4339295136341	14.9528318569708	
2499000000.00005	-11.6840293213596	4.99223664765026	-9.35587478437615	179.502082597011	-46.113983460341	168.364475857823	-33.8568763294834	20.4578794102948	
2499333333.33338	-11.7433288576267	4.31130535106626	-9.37220703981138	177.214106147742	-45.8452223797963	166.125771159168	-33.2320875652479	25.3128555758781	
2499666666.66671	-11.7764063011402	3.6804260543636	-9.36685620187628	174.921921580749	-46.0142750801384	163.592120570056	-32.5468087092596	28.9922125166743	
2500000000.00005	-11.8241092517409	3.09472578232713	-9.37401415487703	172.62528845794	-46.3148739530804	161.490613894212	-31.9353628660023	32.3350482960069	
2500333333.33338	-11.8560995798278	2.4377234904398	-9.37517334657368	170.32540133978	-46.1665540372492	158.37163260687	-31.3060984260823	35.2071374099709	
2500666666.66671	-11.8988948914995	1.79400839664869	-9.39439532388894	168.072563176167	-46.027082542959	154.932235375355	-30.6515312433241	37.1534023553984	
2501000000.00005	-11.9339930819239	1.12816352015677	-9.40071295601231	165.833479848999	-46.0322135609279	155.31823884142	-30.0207392272106	39.3591204796199	
2501333333.33338	-11.9661490319019	0.460266987208669	-9.40252691045021	163.547106887417	-45.7946725210857	151.371093845716	-29.3709222677553	40.6953388637148	
2501666666.66672	-12.0087211396575	-0.111058277903012	-9.41047278943225	161.251556726301	-46.0136708009598	148.950675218873	-28.7654788400323	42.1574200018582	
2502000000.00005	-12.0408977865025	-0.819338147138286	-9.42224824058716	158.992955381256	-46.1306308604354	146.404462403595	-28.2046622402128	43.1510645902298	
2502333333.33338	-12.0797600039375	-1.50229132946284	-9.42673475429916	156.748526634555	-46.270127543279	145.058184420247	-27.6221764991674	44.0917516374306	
2502666666.66672	-12.1176333510356	-2.17232092578759	-9.43134602091889	154.486827052211	-46.1734301126708	143.594942891467	-27.0664365472126	44.9858231913162	
2503000000.00005	-12.1531814954402	-2.93228198874773	-9.44523354625252	152.233628898071	-46.114031698543	141.760889671578	-26.5462146409933	45.4336527630714	
2503333333.33338	-12.1853786282864	-3.6247016804021	-9.44634484063494	149.95010248723	-46.03649206028	138.809755032407	-26.0899397463272	45.6792099773543	
2503666666.66672	-12.2210127889255	-4.39387330239328	-9.46062838867334	147.687005706005	-46.1279454596826	133.248505966768	-25.5636027629179	46.1373229694514	
2504000000.00005	-12.2487637082703	-5.01926709646838	-9.47092982593561	145.471632436392	-46.0346771583742	133.771571206237	-25.1528115870134	46.3007976926542	
2504333333.33338	-12.2810158642871	-5.7643607887844	-9.47938767528001	143.217719495868	-46.1886276514204	130.598730252648	-24.7452134503798	46.3830029880627	
2504666666.66672	-12.301570297049	-6.46156700263712	-9.49084539395816	140.984073700088	-45.8627290396594	130.008815853582	-24.3151567285935	46.4944445650856	
2505000000.00005	-12.3310098131466	-7.1655949618246	-9.49906892994405	138.745374647539	-46.222192514706	127.576120091596	-23.9029584063566	46.4938302892379	
2505333333.33338	-12.3543779541083	-7.94254279837683	-9.50568726991875	136.447806076699	-46.224041985506	125.107985102492	-23.5094731725251	46.5430142678329	
2505666666.66672	-12.3751464523729	-8.63065527221662	-9.51858821126283	134.218809374016	-45.9472301257837	122.296061933766	-23.1755433296997	46.2441591254466	
2506000000.00005	-12.398971315899	-9.39361392125929	-9.52634573972577	131.977983536373	-46.2521763533343	120.478995758261	-22.8105114261514	46.2019900049579	
2506333333.33338	-12.4217631022362	-10.0915117619726	-9.53766385841433	129.749114748745	-46.0993114309547	118.086505921249	-22.5084250496213	45.8793008542916	
2506666666.66672	-12.439085082517	-10.9059234588277	-9.54224768044424	127.496730369091	-46.0603144128534	115.81889758328	-22.1867930554516	45.6484999199012	
2507000000.00005	-12.4522500982397	-11.6103147084684	-9.55869468882114	125.238560512841	-45.9923444162901	113.792031930475	-21.8918260536279	45.4181890588738	
2507333333.33338	-12.4717523765584	-12.3406196218247	-9.56494473164129	123.051312175541	-46.001382899917	111.339776434356	-21.604920970958	45.169646548458	
2507666666.66672	-12.4813083215038	-13.0737794397751	-9.57755130455682	120.81651627973	-46.0691124609054	108.018074900416	-21.3286088339824	44.802267933264	
2508000000.00005	-12.4999484860639	-13.8378703021131	-9.58712486321269	118.561141610097	-46.0177521651493	106.528710125052	-21.0689449752035	44.4869795946713	
2508333333.33338	-12.5190774764806	-14.6033445911723	-9.5950726456069	116.339195733128	-45.9039766749431	102.579329623235	-20.8117199250024	44.1200246388751	
2508666666.66672	-12.5264250947374	-15.4087426543602	-9.60625582371787	114.073028153447	-45.9912203313951	101.597295182312	-20.5922470412749	43.7870186026256	
2509000000.00005	-12.536168774413	-16.2202658190602	-9.61899619910047	111.862400176905	-46.1891357957481	99.8158871157925	-20.3467441625738	43.2060996047522	
2509333333.33339	-12.547735073229	-17.0125457372815	-9.6292508971511	109.643306738407	-46.169855733367	97.6807651928179	-20.1665491043122	42.6380986279496	
2509666666.66672	-12.5531217367268	-17.7877451275711	-9.64003917749498	107.392303000604	-46.2618909343423	95.6656134336787	-19.9404304780728	42.1865978771106	
2510000000.00005	-12.5559134160956	-18.5568013376252	-9.65262625386447	105.120703479506	-46.0572880786234	93.1470677605913	-19.7430646136035	41.8389229327733	
2510333333.33339	-12.5648906063692	-19.3517386564385	-9.65737312855069	102.870233248143	-45.9879427810156	89.9568905626209	-19.5710302700275	41.4054835485627	
2510666666.66672	-12.5621733837262	-20.135109367185	-9.66721417830922	100.663165537306	-46.225282052275	88.1389773886007	-19.3935831331722	40.9539106714669	
2511000000.00005	-12.575061085889	-20.8545873474925	-9.68269429926239	98.4209911079969	-46.2591702675296	85.4758178572546	-19.2393683903652	40.3832745163635	
2511333333.33339	-12.5790185367111	-21.6184781759126	-9.689691403263	96.1878566377223	-46.1595842752049	83.1987211336374	-19.0825145589362	39.9532563423026	
2511666666.66672	-12.5738872103001	-22.326190600083	-9.7064738090658	93.8890724710614	-46.1647469216405	80.9986097431389	-18.9348124987911	39.2430114595634	
2512000000.00005	-12.5715399256734	-23.0732290243814	-9.71785675380543	91.6825509781533	-46.0226755137443	81.2185025667115	-18.7928972429768	38.7400151050671	
2512333333.33339	-12.5739616716766	-23.7842882694247	-9.73053775919487	89.4934346944972	-46.3665383445126	76.202789595835	-18.6817831859772	38.229695218572	
2512666666.66672	-12.5657041119403	-24.5170347333236	-9.74416215389464	87.268713109914	-46.1945628986887	74.492032839941	-18.5659887352301	37.6561100508101	
2513000000.00005	-12.5672475734867	-25.2530909950562	-9.74504120766488	85.0116469908056	-46.245277431948	72.7411463771717	-18.4769920138439	37.2314855642927	
2513333333.33339	-12.5656570478593	-25.9441879297414	-9.7589633442927	82.7816795913588	-46.1808366862996	69.5402678727245	-18.3723142671183	36.6732802329956	
2513666666.66672	-12.5588081697524	-26.6283535135397	-9.77376170208896	80.530543459726	-46.2416785991144	66.6514961205395	-18.2868955425254	35.8467111339274	
2514000000.00005	-12.5574152229021	-27.3747504259038	-9.77574625879794	78.2778703091101	-46.2861632747323	65.6354432828557	-18.2103494780549	35.3466935231051	
2514333333.33339	-12.5482489313376	-28.0610628165451	-9.79412682519852	76.0230015925576	-46.3141618884598	62.0994018450263	-18.126076762412	34.9425091978094	
2514666666.66672	-12.5510342328498	-28.7917389900401	-9.80394517582988	73.7890997636451	-46.2930331781066	59.9466508045493	-18.0614407602581	34.2931218204513	
2515000000.00005	-12.5513352440168	-29.478986943003	-9.81807200897021	71.5022703716084	-46.3402409307486	56.7116162396716	-18.0071016467596	33.6403211171215	
2515333333.33339	-12.5383362652799	-30.1874283605747	-9.82665029451323	69.2664806881731	-46.2695158216482	55.1539240077138	-17.9563483258233	33.0507460527229	
2515666666.66672	-12.5339131476231	-30.8659073081778	-9.8336182818319	66.9892462008426	-46.3494761301789	53.2378246292237	-17.9326925939031	32.4544029309952	
2516000000.00006	-12.5279492107875	-31.5373039751264	-9.84240042344627	64.742188690654	-46.1225197703354	51.7860895593506	-17.8934256329021	31.7352826223736	
2516333333.33339	-12.529228964744	-32.1806183146875	-9.85638430008822	62.4892765901563	-46.136395602025	49.9955516289562	-17.8753104619594	31.1301378827662	
2516666666.66672	-12.5222484570661	-32.8321365546886	-9.86913444398655	60.2569982678303	-46.6521042653104	48.766276128438	-17.863548471423	30.5194898003592	
2517000000.00006	-12.5179551496355	-33.4579968872801	-9.87651876284435	57.9832801332979	-46.3217499316639	46.0788674362964	-17.8432507567294	29.8956216706429	
2517333333.33339	-12.5121179370811	-34.0824412582023	-9.8915264890483	55.693997487356	-46.2728173012525	41.7758150981643	-17.8752171744089	29.2534217910752	
2517666666.66672	-12.5087109233024	-34.6718373579295	-9.89570395942507	53.4275755775913	-46.2732897910203	42.4559818450057	-17.8771860001485	28.6250529963918	
2518000000.00006	-12.5096691262035	-35.2645526348681	-9.90926601788482	51.174309904723	-46.2300774975485	38.9576763790881	-17.8838547282656	27.873393962503	
2518333333.33339	-12.5089951199205	-35.8612953179563	-9.91538817985187	48.9260132750773	-46.4587666744258	34.5807347978364	-17.8942732997495	27.2660829548889	
2518666666.66672	-12.5095160565051	-36.4384296144281	-9.93181960968471	46.6406142393768	-46.5991189925133	33.3347074107436	-17.9445614782938	26.6608332936402	
2519000000.00006	-12.5079916505241	-36.9477003811995	-9.93623521386864	44.4229718572275	-46.3977178855078	31.6651672271869	-17.9768482541202	26.007101868182	
2519333333.33339	-12.5089863094301	-37.5284432965914	-9.94935348793081	42.1421359230763	-46.329190641493	31.9510113407166	-18.0326885345313	25.2683491311588	
2519666666.66672	-12.512076505733	-38.0065238624153	-9.96429890888192	39.8651936789431	-46.7262870991734	25.2673927148174	-18.081347024328	24.6794386039116	
2520000000.00006	-12.5130809354789	-38.521124242176	-9.97560870348823	37.6066809838635	-46.3855103831134	25.1745573817726	-18.1744894512456	23.9094877519811	
2520333333.33339	-12.5150901267036	-38.9938569281459	-9.98233095029638	35.3488343532345	-46.5823181399528	22.1045415635994	-18.2257888719965	23.172697911165	
2520666666.66672	-12.5263543429233	-39.4598505218751	-9.9882834005456	33.0623827511631	-46.4633243880484	20.0091478053094	-18.3155769665873	22.5679918271975	
2521000000.00006	-12.5339211348667	-39.9440407429668	-10.0006064645537	30.8172810557552	-46.6418603937631	19.1373236839651	-18.4237614319508	21.9423226578137	
2521333333.33339	-12.5389529226696	-40.4467686553966	-10.0100748474091	28.5566230492331	-46.6702295181269	16.4000468022421	-18.5017883232375	21.295090581877	
2521666666.66672	-12.5374010207806	-40.866652346239	-10.023919573488	26.3279615691942	-46.4992658381024	14.4056596160861	-18.6146478424953	20.4570300612146	
2522000000.00006	-12.550229817809	-41.3379218531925	-10.0371402135906	23.9997465882568	-46.3190099583767	12.1689956124323	-18.7406492508153	19.7949082053713	
2522333333.33339	-12.5582232397662	-41.7613679929928	-10.0457045301341	21.7472324766435	-46.4067897243775	8.32920532449838	-18.8457418982841	18.9855049200249	
2522666666.66673	-12.5657137892896	-42.1430362412646	-10.0540114715965	19.5341005964443	-46.5982670711026	6.88445181315179	-18.9980250101813	18.2501465007949	
2523000000.00006	-12.5891353684592	-42.6197024252157	-10.07104341097	17.2720131122195	-46.59922982014	4.95510688474241	-19.1371772749738	17.4625109863092	
2523333333.33339	-12.5873748345719	-42.9076596145573	-10.0785099563695	14.9972334987308	-46.5446151213292	1.45330105769185	-19.29148984642	16.9347669885933	
2523666666.66673	-12.5958861179751	-43.2886916264665	-10.0869013906619	12.7123314920659	-46.6153666080507	-0.102501001851799	-19.4517468077123	15.9915127041701	
2524000000.00006	-12.619181192139	-43.6360268958151	-10.097394308591	10.4837146545995	-46.6830782623682	-2.79246337914006	-19.6321726299652	15.2941955231014	
2524333333.33339	-12.6356420060574	-43.9988377625041	-10.1082488850825	8.28127588090154	-46.3762918975709	-5.08108327940638	-19.7971569270098	14.5352687158379	
2524666666.66673	-12.6524253334557	-44.3615474478471	-10.1110103671614	6.04848135902143	-46.526947039292	-8.22805000166783	-19.995497690666	13.7569083943444	
2525000000.00006	-12.6745731512665	-44.5648738823721	-10.1299302492011	3.76988399730532	-46.803154683591	-9.57518858124098	-20.1831792619307	13.0481911324088	
2525333333.33339	-12.6911918644387	-44.9071110195928	-10.1350362591876	1.54069740434191	-46.2943920484535	-12.574566833342	-20.4257404324886	12.1696710232846	
2525666666.66673	-12.7170823892441	-45.2229133344745	-10.1371226585676	-0.681916071171603	-46.5158138675109	-13.4618550120555	-20.6302027538007	11.5358246366468	
2526000000.00006	-12.7349093266592	-45.489818789588	-10.1500225548122	-2.87882876384873	-46.4507820967042	-14.9011878441771	-20.8538494143515	10.6131028633519	
2526333333.33339	-12.7565954225082	-45.7508344882207	-10.1557537665641	-5.10643176972936	-46.6392605521639	-18.0777162034148	-21.1120011788488	9.80476355509709	
2526666666.66673	-12.7810777821486	-45.9522268005423	-10.1578719714823	-7.31988133084139	-46.6769506508725	-18.1860737299288	-21.3640770709618	9.16083986381804	
2527000000.00006	-12.7960894717228	-46.2544106345734	-10.1614500357369	-9.53752564076858	-46.6005679923646	-23.039252174609	-21.6487158619476	8.24145700171463	
2527333333.33339	-12.8251069248789	-46.4713476030767	-10.1666564291529	-11.7254418878608	-46.9314020905129	-23.103664294127	-21.8925931883124	7.14420621181679	
2527666666.66673	-12.8578170713315	-46.7408963971974	-10.1742220380867	-13.9530407790516	-46.6761169063484	-25.7571166596592	-22.1950827449136	6.58581494927709	
2528000000.00006	-12.8840301529558	-46.9525311719671	-10.1736692916522	-16.1635057265867	-46.5985765223863	-27.9066145286671	-22.4950050059908	5.87934953715006	
2528333333.33339	-12.9125270074155	-47.121555307717	-10.1679715559509	-18.3348101800851	-46.5359927803679	-31.1203264159885	-22.7979697043151	4.93971920954956	
2528666666.66673	-12.9422781839408	-47.3250163925946	-10.1713090665093	-20.5726661874181	-46.5868835022566	-33.3265911029251	-23.1466478431182	4.09394514498118	
2529000000.00006	-12.9733163261629	-47.5383500994155	-10.1684215670529	-22.7061623767103	-46.6344203711312	-34.2417296267199	-23.4934427350119	3.05251359395775	
2529333333.3334	-13.0006358154295	-47.7561199264177	-10.1698486368367	-24.9027891645128	-46.6202109179295	-35.4757309741573	-23.8575446281094	2.20425343926429	
2529666666.66673	-13.0469670155765	-47.9278821754577	-10.1656043757264	-27.0729401387121	-46.6648547764234	-40.9702008096397	-24.2158244643989	1.41093680362257	
2530000000.00006	-13.0779014535198	-48.1978391596792	-10.1574740298726	-29.2534149024931	-46.7329685026633	-40.6235032423909	-24.6221845254352	0.573300522981141	
2530333333.3334	-13.1151050644894	-48.3690132503752	-10.1516859342145	-31.476509071804	-46.5795197222083	-44.1284338938976	-25.0240145639527	-0.407294846184484	
2530666666.66673	-13.1489309030732	-48.6317437514127	-10.1490545542426	-33.6356172483105	-46.521582971519	-46.3437861533798	-25.4333834748811	-1.16634488446436	
2531000000.00006	-13.1964671631664	-48.7693978941745	-10.1378897745335	-35.8509704518468	-46.5220890479332	-47.7761017318798	-25.8603131548222	-2.23260715146449	
2531333333.3334	-13.2366698626299	-48.9605569068033	-10.1343375280484	-38.0015481188731	-46.720071002259	-51.5182924583674	-26.3426176722661	-2.92684572632311	
2531666666.66673	-13.2780406449656	-49.0826738195987	-10.120816356899	-40.2067083218083	-46.5658983836389	-54.7514048646017	-26.7994048515303	-4.0245970570612	
2532000000.00006	-13.3322860380974	-49.2876690306016	-10.1200336109032	-42.438059184371	-46.4190512862047	-54.8966447952005	-27.3265553086054	-5.39738660602088	
2532333333.3334	-13.3641095184825	-49.5629739889367	-10.1075784604197	-44.6111524861304	-46.6275283392769	-56.5506081267577	-27.8943212815856	-6.05983102417753	
2532666666.66673	-13.4090378154873	-49.7171835020919	-10.0950747793272	-46.8230417545744	-46.4960744213866	-58.9605313566527	-28.4629301974385	-7.02526227397408	
2533000000.00006	-13.4620918420273	-49.9088821376981	-10.089966804479	-49.022178076391	-46.1659692506445	-61.9713575261485	-29.0407482650199	-7.79542053643089	
2533333333.3334	-13.5135490137989	-50.1678300074826	-10.0753695603316	-51.2449514930174	-46.7089791412156	-63.2376052641938	-29.6285675755335	-9.15421961716214	
2533666666.66673	-13.5714915372597	-50.259989550254	-10.0670080816359	-53.4671269291705	-46.2819601103075	-64.465228179494	-30.3321802854693	-10.0781143223658	
2534000000.00006	-13.6106333870452	-50.4385273488206	-10.0539246596025	-55.6567170883336	-46.4917440807873	-67.8139613556118	-30.9754329550656	-11.4080818457301	
2534333333.3334	-13.6683574696744	-50.6596466083785	-10.0402093210239	-57.8876063301788	-46.2208408613916	-71.1431166196741	-31.7495789049921	-12.4776942403359	
2534666666.66673	-13.7111646715476	-50.8077749374285	-10.0253760700028	-60.1420944212152	-46.6578952535721	-71.3290050368505	-32.5550393862448	-13.6389232521502	
2535000000.00006	-13.7872482663027	-51.0160792035246	-10.0127735233252	-62.3565871183308	-46.4538829863159	-72.4035394212706	-33.2743207153953	-14.3013554950546	
2535333333.3334	-13.8314574876814	-51.2033922061403	-10.0031031529077	-64.5785920905012	-46.4938542512593	-78.1222018998777	-34.2523284511875	-15.8747782478075	
2535666666.66673	-13.8799475284523	-51.4091220808932	-9.99098833840022	-66.8028037758065	-46.5025455645998	-78.5152305143125	-35.209136748244	-16.4740622991216	
2536000000.00006	-13.9472368505822	-51.5878286812264	-9.97461183078803	-69.0608487056464	-46.5210756020023	-79.2904124226218	-36.1487174614321	-17.6535202102421	
2536333333.3334	-14.0201326628176	-51.7824386812415	-9.96443409155482	-71.273845287248	-46.3756943146569	-82.7369679545688	-37.2467696876716	-18.8043765778719	
2536666666.66673	-14.0717387380803	-52.0163033864211	-9.9540648414911	-73.571242591262	-46.7230074222709	-87.0926143916125	-38.3909328825741	-20.1136410733151	
2537000000.00007	-14.1175407683567	-52.1551624579757	-9.94000153755666	-75.8606180086061	-46.397929558088	-87.8142963097812	-39.6514060746001	-20.0727385932247	
2537333333.3334	-14.1751126322413	-52.3447743548618	-9.92775909081777	-78.0643317148009	-46.3507539877982	-88.7215756090056	-41.2562342722911	-21.0740550007455	
2537666666.66673	-14.2307604667087	-52.5748821186602	-9.91416235463863	-80.3379309286309	-46.5246646947864	-91.9261867454383	-42.8971840078682	-21.7589978662348	
2538000000.00007	-14.3107661675055	-52.7596427148435	-9.90131053987964	-82.619493970694	-46.6089471603379	-94.7881880402881	-44.7298738209903	-22.6190441846595	
2538333333.3334	-14.3620984327952	-52.9304242830118	-9.89326632842043	-84.8815434815958	-46.0824184714083	-97.0323260425127	-47.2083573326888	-22.2032081031268	
2538666666.66673	-14.4484782773352	-53.0646597310705	-9.88001999179617	-87.1531197301445	-46.4440251601905	-98.1896304494349	-50.2531077386967	-13.75023096153	
2539000000.00007	-14.5128641596226	-53.1611089494006	-9.87497790327581	-89.4338017598561	-46.4059331558762	-101.342397461273	-54.283312586389	-7.41852116859706	
2539333333.3334	-14.5827403130593	-53.4764836328014	-9.86619159699394	-91.7371403451239	-46.3196194369191	-100.818585496014	-59.01630277151	10.7438591582224	
2539666666.66673	-14.6511380841863	-53.606987065624	-9.8561477271962	-93.9874641164317	-46.163310976411	-106.355009697895	-59.2913727926201	77.0747352140349	
2540000000.00007	-14.7158931617728	-53.8011400214906	-9.84667820629516	-96.3040354233067	-46.4738422771757	-107.268204227928	-55.4635389364039	98.7429697672292	
2540333333.3334	-14.7973201965626	-54.0729571453809	-9.83275007119471	-98.584600907585	-46.2790682233987	-109.298150721495	-51.5753070213311	107.320446513221	
2540666666.66673	-14.8753588247726	-54.211950144928	-9.83921945284364	-100.871293051862	-46.4019405503486	-112.495279638187	-49.4926826905	108.038727858321	
2541000000.00007	-14.9542619857561	-54.454242597545	-9.81978109046088	-103.174444464868	-46.3956053493748	-114.613319555136	-47.8487151179238	110.120627954943	
2541333333.3334	-15.0231317366049	-54.7958992249089	-9.80823308650175	-105.444911350003	-46.2530925588337	-115.791473498006	-46.7614909609912	109.414629368515	
2541666666.66673	-15.1187363384725	-55.1225731833266	-9.80437706256084	-107.747952670141	-46.1474341772325	-118.338396485273	-45.4432677364548	109.540149455551	
2542000000.00007	-15.1848545039066	-55.4048915600126	-9.80085965372084	-110.041948627844	-46.5651789742139	-121.882245494011	-44.2763265196453	105.030415019261	
2542333333.3334	-15.2709286202702	-55.549671586578	-9.78453207817309	-112.377210218021	-46.2795587803301	-122.334912043494	-43.5679454632113	102.25054808597	
2542666666.66673	-15.3349606510181	-55.9895404482889	-9.78696095861914	-114.661345767858	-46.518106298045	-126.68552015717	-42.8796738898987	99.7244169515535	
2543000000.00007	-15.427437022625	-56.3274104989349	-9.78134184629353	-116.990725543682	-46.3045370911251	-128.167391171085	-42.2671077318779	96.2616867957882	
2543333333.3334	-15.4875808332226	-56.6433354628855	-9.77829691053961	-119.271467389059	-46.1220209263251	-129.861390564038	-41.7867531217872	92.8551015636439	
2543666666.66674	-15.5673627264773	-56.9910537062795	-9.77740542498329	-121.575230897086	-46.4438706382396	-130.151644581405	-41.0753767597969	87.6628651234833	
2544000000.00007	-15.6710781718281	-57.2791249156319	-9.77029203556801	-123.831811542841	-46.4924329461813	-134.946986234689	-40.5561582446574	83.4860715288084	
2544333333.3334	-15.7664175106095	-57.4822446647762	-9.77078332867793	-126.118729611533	-46.6089977558919	-136.879885592764	-40.0925510293668	78.4658545738704	
2544666666.66674	-15.8601906563471	-57.9168790345335	-9.77253017109518	-128.44243943727	-46.0177248341437	-138.433228385268	-39.6112036382003	73.4314502945334	
2545000000.00007	-15.9463503187399	-58.2407635337163	-9.76552073674125	-130.731658083909	-46.1456169973247	-141.556425522346	-39.045345322725	69.6686121032994	
2545333333.3334	-16.0412826857446	-58.5544226996856	-9.7679069034314	-133.013297787798	-46.114927251959	-144.334549369225	-38.3669948970684	65.7297071901897	
2545666666.66674	-16.151064695478	-58.9671626356735	-9.76466289162494	-135.318656370145	-46.1027803565052	-145.457536869632	-37.8982471203553	61.1887792435825	
2546000000.00007	-16.2240429593373	-59.3483150501862	-9.76099924686649	-137.628952130517	-46.5205272420706	-147.45668960533	-37.4046643577376	56.6168238777304	
2546333333.3334	-16.3175833973627	-59.7948649705924	-9.75948828052997	-139.920246085514	-46.1618161094496	-149.791125648908	-36.8854105993244	52.5046250287539	
2546666666.66674	-16.410036702567	-60.2843161066355	-9.76272080135526	-142.190970157403	-46.1338832524915	-154.399163571402	-36.2066165939045	48.7264687779031	
2547000000.00007	-16.5005644808871	-60.6891986264574	-9.76658775988487	-144.461082093356	-46.4563130751697	-155.835225430256	-35.6011690519342	45.4088712116434	
2547333333.3334	-16.5875508984872	-61.2436301873733	-9.7657029671706	-146.74610560308	-46.41444036251	-158.271851340219	-35.0361440540676	42.3517823203446	
2547666666.66674	-16.6686051013706	-61.676702315541	-9.76826002182953	-149.025707949621	-46.3432524936114	-160.422902913529	-34.541726180122	38.8081334775587	
2548000000.00007	-16.7743439243765	-62.3777978931545	-9.76115468033019	-151.329946291625	-46.277096643956	-161.348191705287	-33.8678818331069	35.9712831500392	
2548333333.3334	-16.872541508053	-63.0437547318662	-9.76513534942309	-153.569169692745	-46.1956711753798	-164.711957631782	-33.4132181997362	33.0265405409526	
2548666666.66674	-16.9520654397062	-63.4933952742772	-9.76479302353111	-155.842657572457	-46.3190582783604	-167.007067387164	-32.8343270671198	30.0793740404068	
2549000000.00007	-17.0472774564015	-64.1550413258636	-9.76507677916158	-158.105914166607	-46.4683437763113	-168.383762630546	-32.3782060729485	27.9507047162933	
2549333333.3334	-17.1428299445143	-64.8560663915529	-9.76661014469237	-160.435256801461	-46.4598637014631	-172.526244672155	-31.8085847275704	25.5272336668236	
2549666666.66674	-17.22636920263	-65.5459676676113	-9.7638550917743	-162.662539026669	-46.260718808192	-172.885414311873	-31.3343493988418	23.5041232311859	
2550000000.00007	-17.301582900213	-66.3503063083798	-9.76779725012682	-164.881319198327	-46.0001981230488	-176.203167252531	-30.8460717928001	21.2374912810958	
2550333333.33341	-17.395162056657	-67.1687056547467	-9.76900025710707	-167.178731404398	-46.2631904539463	-177.105654933687	-30.4227734291176	19.1362746506243	
2550666666.66674	-17.4749958343147	-67.9622446937993	-9.77287724354685	-169.444979272351	-46.2959241933714	-179.284180112619	-29.9583133629617	17.4681903104997	
2551000000.00007	-17.5552735225591	-68.7915022551448	-9.76999647231067	-171.68302760597	-46.0435229086881	177.246222107361	-29.5288058522179	15.9049587055565	
2551333333.33341	-17.6586881819617	-69.564880825871	-9.76967603745959	-173.937144812957	-46.2807473554572	175.371669706386	-29.0744433856744	14.1873695373461	
2551666666.66674	-17.7515107162206	-70.329502326286	-9.77421852754505	-176.195436863976	-46.2481278106444	171.687026756463	-28.6751762141244	12.7161883726726	
2552000000.00007	-17.8446011451692	-71.200352538804	-9.77223145054886	-178.401503162984	-46.310536099329	170.90508978797	-28.2846975902131	10.9604344520369	
2552333333.33341	-17.9422260705856	-72.1714281895026	-9.77371500581332	179.369992406673	-46.2567286416116	167.602739690256	-27.8676108532572	9.74506756350051	
2552666666.66674	-18.0360651596433	-73.0115723215612	-9.77935792637246	177.114401791059	-46.0076743648699	166.593736885057	-27.5206531645403	8.37508061220002	
2553000000.00007	-18.1298078006623	-73.8335886675097	-9.77297219278323	174.877214297097	-46.1206435066748	164.52027025583	-27.1342015504153	7.20536003689202	
2553333333.33341	-18.2054423419816	-74.8070314230324	-9.76820395281654	172.630319151672	-46.2594741439765	162.520186576495	-26.8560706034376	6.13702894778025	
2553666666.66674	-18.2987307582083	-75.7559651502911	-9.7747180447775	170.414273791186	-46.3065963251731	158.459646063307	-26.5105155616657	5.07351995887215	
2554000000.00007	-18.3837475140794	-76.701609851472	-9.77399286103438	168.208854269021	-46.0029453491007	158.026259271939	-26.1992251374964	4.07369036753355	
2554333333.33341	-18.4633940232476	-77.66105465776	-9.77706677136819	165.909203335426	-46.1332565322173	153.27511242927	-25.8727455341673	2.74614861234158	
2554666666.66674	-18.542341827332	-78.4681830617848	-9.76818125740037	163.728866871969	-46.3933709992166	150.889307845632	-25.6340546338404	1.94993028392627	
2555000000.00007	-18.6237189896938	-79.540103616378	-9.77096339436387	161.473480481465	-46.2580941648056	148.128071337316	-25.3615663566781	0.864310200916161	
2555333333.33341	-18.7016858417481	-80.4158670601733	-9.77111249808789	159.251997825151	-46.0959715013162	146.240075722853	-25.0913008420624	0.18352839051988	
2555666666.66674	-18.7686188824433	-81.3984596295288	-9.76588562617845	157.028352119072	-46.2463908422389	146.307611877681	-24.8603705924438	-0.43458729658592	
2556000000.00007	-18.839687578682	-82.3097952643134	-9.7749006303002	154.828202335346	-46.253603526653	142.65909158586	-24.6116239013494	-1.41145755439881	
2556333333.33341	-18.8985759527414	-83.2795330818254	-9.77007986438389	152.546962112534	-46.2627515143786	142.761003538145	-24.4066074790701	-2.121750390809	
2556666666.66674	-18.9639107629124	-84.282083747122	-9.76639529436932	150.308628665176	-45.9004585093705	136.13834953852	-24.1909649436295	-2.86192578168549	
2557000000.00007	-19.0182479586006	-85.1287476364183	-9.77003407941386	148.083793451423	-46.0644216381235	137.204062147416	-24.0073164566795	-3.5049306619044	
2557333333.33341	-19.0533203390001	-86.1050273197087	-9.75333461291605	145.880757898567	-45.9847703022546	132.488060838498	-23.8184724528759	-4.07202608964833	
2557666666.66674	-19.0937673263132	-87.0707811423264	-9.75156145396879	143.574496008326	-45.7546667821529	130.994201262513	-23.6250596578106	-4.85038994216886	
2558000000.00008	-19.138332607014	-87.963122928073	-9.75625210081356	141.338203524797	-46.2097502631504	129.274582507548	-23.4646753849383	-5.48669039734758	
2558333333.33341	-19.1576880608209	-88.7659243862989	-9.75078329727749	139.102626245715	-46.211910419518	127.052053465937	-23.3158464118113	-6.11766372181902	
2558666666.66674	-19.1882693492115	-89.7257248127605	-9.74795096953229	136.811766090565	-45.926137525359	122.674589762662	-23.1765082957262	-6.66744768863672	
2559000000.00008	-19.2197159442794	-90.6540474992593	-9.74341440700948	134.574859011656	-46.1947891626258	122.820948480246	-23.0216570140496	-7.02725738129767	
2559333333.33341	-19.2362583205692	-91.3908473338359	-9.73737194482526	132.366235225005	-46.017480699902	119.79570059276	-22.9078700532762	-7.58150765999452	
2559666666.66674	-19.2620488543186	-92.2133648629847	-9.73523436363677	130.087903716302	-45.9819610964795	117.904902426074	-22.7840370792775	-8.04853856415301	
2560000000.00008	-19.2551763073867	-93.0608964574205	-9.73176614879052	127.801168677394	-45.9417249717882	115.603971337439	-22.6929000199923	-8.55479559372559	
2560333333.33341	-19.2466156296343	-93.958031743136	-9.72766416951563	125.557704997114	-45.9402765596568	113.020720750485	-22.5841065386985	-8.99948021600618	
2560666666.66674	-19.2588322963635	-94.7674936966043	-9.72094016816907	123.282615921807	-45.9142676436275	110.097033210912	-22.5060204175318	-9.36489608377062	
2561000000.00008	-19.2458772932379	-95.4770329081437	-9.72140580011894	121.026834953003	-45.8192939515272	109.527620419287	-22.4207860228961	-9.6202970491797	
2561333333.33341	-19.218941163043	-96.2047687232959	-9.71441724914493	118.744663434621	-45.9005115991794	106.613415077678	-22.3378607264089	-9.98449611808315	
2561666666.66674	-19.2068726402216	-97.0161775856424	-9.71357075128324	116.438794266735	-46.0069971696036	104.775282681788	-22.2535621240235	-10.2556361174487	
2562000000.00008	-19.1731310433459	-97.8240297193751	-9.70364171969573	114.19081989967	-45.7654987328328	101.286659927074	-22.1972666610328	-10.4118364318888	
2562333333.33341	-19.1446859049302	-98.4481833673323	-9.70027427072571	111.883022977679	-45.7495435451495	100.366225349982	-22.1438324914448	-10.6965920071833	
2562666666.66674	-19.0952552369508	-99.2162157112135	-9.69290065271386	109.614264142076	-45.8940886168499	97.1590508115965	-22.0869652598304	-10.9554570050614	
2563000000.00008	-19.0561205559201	-99.954082495585	-9.69413175862541	107.291378410934	-45.8027939373636	96.07644900246	-22.0331605151975	-11.2105508416204	
2563333333.33341	-19.0088680782353	-100.630280819008	-9.68726136405613	105.011846846734	-45.8836555708816	91.3237382338335	-22.013732206302	-11.1970393076902	
2563666666.66674	-18.9430963676224	-101.348708647451	-9.68036678895309	102.720403059705	-45.8510457310567	89.6197791698254	-22.0097403803543	-11.2687635676676	
2564000000.00008	-18.9069193848182	-101.952250586293	-9.67904823441037	100.399057933176	-45.8406185070489	87.3159568616021	-21.9739408641969	-11.5562539112664	
2564333333.33341	-18.8443717228769	-102.510531262755	-9.67905805316034	98.0627786732893	-45.8028114657991	86.9369812535228	-21.9464310416221	-11.5392631155484	
2564666666.66675	-18.7884916622854	-103.238396117697	-9.67015879528427	95.7838536322028	-45.8002908830354	82.9984231430849	-21.9525442956557	-11.5854985790385	
2565000000.00008	-18.7338469247192	-103.871346936735	-9.668874361071	93.4336210683391	-45.8162565209305	81.4874391447047	-21.9413360144119	-11.546991849344	
2565333333.33341	-18.6770095674868	-104.424855732316	-9.66219724901843	91.1779208835067	-45.9250558761047	79.1570952647016	-21.9378326062403	-11.3106291798068	
2565666666.66675	-18.6040633414233	-105.037968116739	-9.66226643310088	88.8360972022651	-45.7428314540271	77.9738564142281	-21.9625193539959	-11.6073895930466	
2566000000.00008	-18.5156277953968	-105.628642955674	-9.66324202562869	86.4743132154536	-45.7781784399838	74.8455877998025	-21.9741736803374	-11.362246540252	
2566333333.33341	-18.4719416511715	-106.253019152296	-9.65165683158755	84.1179939259623	-45.9546431807362	72.6196984866437	-21.9949991530183	-11.408137967218	
2566666666.66675	-18.4038265363808	-106.850316506077	-9.65054925051237	81.7992611978894	-45.9880475446274	68.8920900828526	-22.0579109305675	-11.0580390504484	
2567000000.00008	-18.3334669873329	-107.447843893534	-9.65122588621744	79.4659763529383	-45.7445572556002	67.3028693955751	-22.0690883564593	-10.9254273199622	
2567333333.33341	-18.262338654572	-108.105219470483	-9.64281373124251	77.1399931675825	-45.8193108431519	66.8198424768824	-22.1191567609424	-10.7827723536615	
2567666666.66675	-18.1932110316557	-108.874256522622	-9.64926544876947	74.7084353852187	-45.8005061491343	62.9304848756658	-22.1450747259852	-10.4864698527318	
2568000000.00008	-18.1121283901278	-109.531811872791	-9.64504656300875	72.3663612265901	-45.867879458251	62.3631720808372	-22.2148788473049	-10.2584025326307	
2568333333.33341	-18.0418691566691	-110.065112491884	-9.64479086351225	70.0207537058308	-45.668704329016	57.8978651303171	-22.2747758061812	-9.90412495848623	
2568666666.66675	-17.9703946092272	-110.742206536602	-9.63935429214853	67.6307889803248	-45.8906301425536	55.3177257490425	-22.3288593346527	-9.52666660057481	
2569000000.00008	-17.8986640485056	-111.403490340453	-9.64501731476559	65.2952173329605	-45.8202211715259	52.6419416390946	-22.3737026257413	-9.19237112287347	
2569333333.33341	-17.8300752990912	-112.005365513748	-9.64966634861112	62.9458247503466	-45.7857598044415	51.5527577504947	-22.408154830838	-8.68702722684992	
2569666666.66675	-17.7623097278634	-112.649890824565	-9.64938903936097	60.5592498686227	-45.4735312609517	47.8758819572133	-22.4962703747313	-8.28606723554178	
2570000000.00008	-17.6953564943431	-113.324326618689	-9.65086042329614	58.222564300424	-45.9977304861695	46.6201745357346	-22.5712432819387	-7.94639269988163	
2570333333.33341	-17.6266812874674	-113.988950075351	-9.65029855145634	55.8497768831681	-45.954325884098	42.8207970781136	-22.6183243254085	-7.19090670880063	
2570666666.66675	-17.5807091837711	-114.65210317819	-9.65718368674235	53.4925813739831	-45.7930405392128	41.968840110341	-22.7034982402485	-6.8010574330564	
2571000000.00008	-17.530528195125	-115.337547429777	-9.65773753863197	51.130401228667	-45.7736065091455	40.127450711623	-22.8001595435305	-6.21181210635548	
2571333333.33342	-17.4867225017568	-115.972924968188	-9.66133465047642	48.756386559958	-45.7644265895967	37.0293245651095	-22.8864209202372	-5.40651469940028	
2571666666.66675	-17.4394696215347	-116.604787766415	-9.66126787322244	46.3907218643879	-45.99368232267	33.2797813306448	-22.9511270304523	-4.85575348773202	
2572000000.00008	-17.399547656883	-117.306151121873	-9.66755394926747	44.0763072980459	-45.7873663757113	32.0778482494259	-23.0127387844248	-4.07445714267011	
2572333333.33342	-17.3697061275879	-118.011914138853	-9.67001645718585	41.7389902128008	-45.8584931770322	30.9198407117639	-23.1451468325741	-3.40278625664928	
2572666666.66675	-17.3267628352581	-118.566207237424	-9.67357268352641	39.4072509132966	-45.8701203541281	28.8811543532679	-23.2359598745127	-2.62450092846691	
2573000000.00008	-17.3026752988329	-119.320906741023	-9.67447753571433	37.0445677105948	-46.0816366399258	25.3210864615782	-23.3468295459564	-1.70459243228355	
2573333333.33342	-17.2707865537497	-120.036483178625	-9.67484341497342	34.7402072384569	-46.1282148338563	24.0116323429395	-23.4221921057851	-0.939986765218351	
2573666666.66675	-17.2447345047228	-120.814152144827	-9.68062558995358	32.3815519425923	-45.9948151607837	23.0987470427611	-23.5040218575734	-0.316812120140325	
2574000000.00008	-17.1987917406976	-121.435285475208	-9.68824612897235	30.0498586623214	-45.8586889349561	18.7554515452378	-23.602059779089	0.963724596685386	
2574333333.33342	-17.171922057631	-122.203096092906	-9.68881771740643	27.7130116415068	-46.0847729190986	15.8671511123876	-23.6925544704751	1.56433496215116	
2574666666.66675	-17.1393765306419	-122.82164881259	-9.68910029441554	25.3944336830876	-45.8761420388605	14.953960709018	-23.7862714329643	2.75835145889737	
2575000000.00008	-17.1413447503884	-123.575015827088	-9.68875626961498	23.0878112847715	-45.9981202092964	11.9828896505279	-23.8688000827094	3.68900997013583	
2575333333.33342	-17.1214286537572	-124.288729668948	-9.69271822857894	20.7564840102068	-45.8443598098628	10.1739165421915	-23.9222359802406	4.64330486152084	
2575666666.66675	-17.1150490482409	-124.951327093445	-9.69248377153076	18.4258198381531	-45.6519372222956	6.36209712916315	-24.0666287278252	5.87922863308586	
2576000000.00008	-17.1128336762045	-125.811319686145	-9.69303129407214	16.1031668899971	-45.6216784112403	5.80270769832059	-24.1470170367203	6.77516612503664	
2576333333.33342	-17.1217452110251	-126.609233863565	-9.69155854558628	13.8330766612424	-45.9527044003126	2.68157467506851	-24.2381139622733	7.95071390195562	
2576666666.66675	-17.1318261926692	-127.374206431973	-9.69194174075542	11.5611186358919	-46.056577462706	0.365795962425849	-24.3050443313738	9.18633684071965	
2577000000.00008	-17.1520470729673	-128.062997690307	-9.6934439956915	9.2206807089931	-45.9370616009644	-0.583921983261725	-24.4300201809751	10.2763160821685	
2577333333.33342	-17.1612359393963	-128.815221811245	-9.69338376961878	6.92440073240004	-46.0730858724107	-4.44814822054301	-24.5011006232804	11.445464685058	
2577666666.66675	-17.1847548518046	-129.633165407882	-9.6916307018173	4.67734898224368	-46.1736560800278	-7.67491453799525	-24.6024310219208	12.6863804148356	
2578000000.00008	-17.2213994066426	-130.642177585252	-9.68883710176725	2.34252666059978	-45.9411253595862	-9.28477494084026	-24.6862094618978	13.7410435148558	
2578333333.33342	-17.2476266014787	-131.247524155997	-9.6858190128288	0.0747734698611272	-45.8196518057957	-10.1735694825128	-24.7451895655447	14.9245387460231	
2578666666.66675	-17.3172819615432	-132.175192699701	-9.6863454617826	-2.17612095672657	-45.7280199369522	-12.9408896240125	-24.8530323788065	16.3905207309737	
2579000000.00009	-17.3577395271626	-132.928534313296	-9.6890520851727	-4.45301639343063	-46.0582624887084	-16.8370985550509	-24.8997898880431	17.4655035478183	
2579333333.33342	-17.3968553520325	-133.630116298793	-9.68579315509871	-6.76427306865028	-46.1377256095845	-17.809483165668	-24.9993510212683	19.1078800635347	
2579666666.66675	-17.4818928182284	-134.710551418973	-9.68292366353108	-9.03086136531071	-46.0949120181457	-19.831111060709	-25.060214440761	20.0179249421934	
2580000000.00009	-17.5403795885783	-135.612584589727	-9.67834168305751	-11.3476412362136	-46.0140707859561	-23.69650944292	-25.1103414418123	21.2740425843932	
2580333333.33342	-17.6096861409288	-136.331293231506	-9.67870539800695	-13.5723591459214	-46.0798722593663	-24.6391812015099	-25.1965275454842	22.7511852537795	
2580666666.66675	-17.6895497589642	-137.311277923295	-9.67731310011352	-15.871888587406	-46.1890116507635	-26.9419555697598	-25.2655102969351	24.1916352830735	
2581000000.00009	-17.7758843592528	-138.265017673182	-9.67693734412594	-18.1515154818792	-46.1784976706072	-29.5274100604992	-25.3408354493388	25.2472814463607	
2581333333.33342	-17.8442112198088	-139.047464178608	-9.67496720523377	-20.3886932859397	-45.9241869316805	-32.4056966262961	-25.428979117118	26.7166577249517	
2581666666.66675	-17.9480013690661	-140.107070784644	-9.66108760810726	-22.6336941022328	-45.930475845065	-35.0931499164209	-25.5199664577417	28.2454513067091	
2582000000.00009	-18.0393435279201	-140.890066787502	-9.6744057656859	-24.9553344618784	-46.3742255929328	-36.6261313634372	-25.5591280655623	29.4911055810485	
2582333333.33342	-18.1370235877092	-141.731870890407	-9.67294521192533	-27.216164071996	-45.8933603451163	-37.8932225652923	-25.6098074470355	30.9768326871131	
2582666666.66675	-18.2330463981016	-142.490061587852	-9.66312061697297	-29.4760107670354	-46.1965250440416	-40.3264643354131	-25.6854023761781	32.1808503348914	
2583000000.00009	-18.3657728913109	-143.686515541756	-9.6617506173649	-31.7295908774488	-45.9561987241963	-40.8277239342467	-25.7668520464207	33.6657358368383	
2583333333.33342	-18.4710211229591	-144.480786255206	-9.65736343518159	-33.9787609245992	-46.0995619257025	-46.2816145575705	-25.8234160571726	34.8571830335615	
2583666666.66675	-18.5925870178676	-145.235125471511	-9.65327657305128	-36.2569843197049	-45.966456931368	-49.7772707397116	-25.8736484253551	36.4694262307625	
2584000000.00009	-18.7093302907738	-146.290420252554	-9.65123956697883	-38.4947934439596	-46.2372512455148	-52.3519106503726	-25.8914113836169	37.5152524413477	
2584333333.33342	-18.8222213214298	-147.227577821294	-9.65744925521119	-40.7678198160343	-46.0555111078802	-54.9883578807869	-25.9271817272234	39.1528320754671	
2584666666.66675	-18.9625679318429	-148.152715635251	-9.6525422256942	-43.0649353145279	-46.120374410106	-55.532411356468	-25.9734668385952	40.5586975971978	
2585000000.00009	-19.0841675985744	-148.936591558068	-9.64708605620639	-45.2835817131757	-45.9496876399028	-57.8723040779049	-26.0161077373554	41.7468063266999	
2585333333.33342	-19.2197858627508	-150.156881378757	-9.64773922414842	-47.5570106606916	-45.9344283478651	-58.5287388454081	-26.0429525241501	43.0781355221041	
2585666666.66676	-19.3584317904567	-151.0203385313	-9.64690619962937	-49.8126741762571	-46.0083182085443	-60.8036360722606	-26.0637461364559	44.576871273408	
2586000000.00009	-19.5036102853121	-151.937869055655	-9.64576579230202	-52.0935484072496	-46.1089056228286	-63.4849327492941	-26.1017116523022	45.6030999550925	
2586333333.33342	-19.6632608348978	-152.925220030927	-9.63971173702818	-54.3188059037199	-45.9724257829677	-63.7232246362951	-26.1234866008556	46.9906510210788	
2586666666.66676	-19.8136996117209	-153.815269020066	-9.64411111606424	-56.610194287781	-45.9292474694836	-69.3396386450466	-26.1282717878671	48.0550735488956	
2587000000.00009	-19.9443982420859	-154.869735881484	-9.63990232973774	-58.8734709452645	-46.1310177712396	-69.1392668600888	-26.1751776126246	49.520078754776	
2587333333.33342	-20.1060987705882	-155.900835918512	-9.63545278800432	-61.1373430199204	-45.8437072326436	-72.3792302942359	-26.1544573811702	50.7158428071381	
2587666666.66676	-20.2771923737489	-156.593924949525	-9.63432595159533	-63.3912401059492	-46.099655488716	-72.7862799245591	-26.1692290306937	51.7228951352458	
2588000000.00009	-20.4096479076349	-157.67785678672	-9.63557704955886	-65.6579121469237	-46.2103797652887	-77.8195567024502	-26.143521215867	52.9461530794296	
2588333333.33342	-20.5719424614188	-158.559436113781	-9.63134772402769	-67.958294858099	-45.9222380492856	-79.115037933154	-26.1650455887623	53.8798832893348	
2588666666.66676	-20.7357027139515	-159.698771496269	-9.63095824420652	-70.1957427412767	-46.2590085501697	-80.4650916761895	-26.1708837985065	54.9566903097794	
2589000000.00009	-20.8759284585413	-160.519337809614	-9.63730182922788	-72.4778272544295	-46.1031717521248	-83.3847830545275	-26.1867673966721	56.0591847455132	
2589333333.33342	-21.0453655205843	-161.716391958311	-9.63748300763487	-74.7457804000574	-45.952493402781	-84.7690375591879	-26.1997106805608	57.0275037794248	
2589666666.66676	-21.1878782941755	-162.622667830879	-9.63325193092624	-76.9902024571692	-46.0604558823249	-86.8546667839795	-26.1677364541183	57.9551640586309	
2590000000.00009	-21.3412732915423	-163.726495927196	-9.63539463145313	-79.3038407644534	-45.9474727303902	-90.3245670427442	-26.1778581865913	58.9045744585599	
2590333333.33342	-21.485768987099	-164.92845905999	-9.63385323302415	-81.547457889906	-46.3027608323897	-91.7402054819205	-26.1478584530339	59.5114069475306	
2590666666.66676	-21.6425970373331	-165.861340638166	-9.62987361257888	-83.8123283076712	-46.1832220638079	-92.7649818429828	-26.1350645977524	60.4954319100072	
2591000000.00009	-21.7900916752784	-166.946747775961	-9.63573814372769	-86.0751244416001	-45.8618634256593	-95.5236678957135	-26.1390882962991	61.0397401537672	
2591333333.33342	-21.915143974464	-168.293313901706	-9.63452851432422	-88.390962243797	-46.1207665107948	-100.726576975138	-26.1160391998529	61.5885235097435	
2591666666.66676	-22.0820419712078	-169.411743760812	-9.6318120338449	-90.6723434081428	-45.9091447974381	-103.022900325389	-26.1117391434838	62.1026358645201	
2592000000.00009	-22.1761150507356	-170.666810995554	-9.62971639310032	-92.9396248843149	-46.0960020172918	-103.450801318028	-26.1542508386348	62.9774848390781	
2592333333.33343	-22.3131007675071	-171.870823295006	-9.63371295146386	-95.2387371118642	-45.9450263076292	-105.680853242091	-26.1668584892591	63.013808542123	
2592666666.66676	-22.4471705759735	-173.244452437912	-9.63182723945968	-97.5404188519627	-45.9938374482523	-108.33632176204	-26.1476331959781	63.5672024361879	
2593000000.00009	-22.5702274138029	-174.602411563588	-9.62154555894133	-99.8651932737442	-45.8153171798435	-110.828260108494	-26.096749109646	63.8457365399499	
2593333333.33343	-22.6726624885389	-175.970288674233	-9.63238266530675	-102.106405140291	-45.7864854424853	-112.738271001188	-26.155281931715	64.3535847409059	
2593666666.66676	-22.773426875088	-177.32497374497	-9.63138273987207	-104.40548969305	-46.036169651712	-114.940203945649	-26.1321025155667	64.3712286143853	
2594000000.00009	-22.8472933959653	-178.984610966601	-9.633639000452	-106.703048704207	-45.6958955988184	-118.517999801449	-26.1071724282514	64.4834220591839	
2594333333.33343	-22.9419064121392	179.661306229158	-9.62994082985468	-109.000516281992	-46.1310627026043	-119.828518649267	-26.1124176000125	64.5600968649641	
2594666666.66676	-23.0020972646826	177.926076141621	-9.63159144943246	-111.317020651123	-45.9884757905168	-121.08147427783	-26.1510207436869	64.7500568017975	
2595000000.00009	-23.0522729596243	176.582316199336	-9.63653323601515	-113.613701826164	-45.789458664343	-124.322950068394	-26.1545691605484	64.6318485645406	
2595333333.33343	-23.0798694659319	174.883998890795	-9.62947940818945	-115.879481340402	-45.8764273649441	-128.091114602315	-26.1395868313261	64.4003667624158	
2595666666.66676	-23.1192395429838	173.161487409516	-9.63189144915903	-118.145743544431	-45.7598556568859	-128.067160661969	-26.1735003209381	64.1563548538439	
2596000000.00009	-23.142510584684	171.560386619282	-9.62522877719508	-120.475455845456	-45.8989401567725	-131.024210490425	-26.193493923731	63.8888541252845	
2596333333.33343	-23.1345608842662	169.763799902746	-9.62870238112674	-122.777092791788	-45.9773337599699	-133.429500905337	-26.2171594105882	63.2538125804474	
2596666666.66676	-23.1197717463444	168.03783215211	-9.62671728007253	-125.012961128959	-45.848494430561	-135.874015831805	-26.2468051997131	62.9795998706113	
2597000000.00009	-23.1086982831433	166.148126410323	-9.63254678396207	-127.329330004206	-45.959381253487	-137.548718825682	-26.2590421404437	62.3133197221406	
2597333333.33343	-23.0619878554387	164.420653195249	-9.6337218298061	-129.623787828053	-45.8809811217054	-140.159807617194	-26.2453645960249	61.6103179821667	
2597666666.66676	-23.0160856761302	162.486423010232	-9.63484318507956	-131.910111674994	-45.8439016882065	-143.49379622944	-26.3045381496439	61.0822616260448	
2598000000.00009	-22.9366801831261	160.578977495547	-9.63150609771587	-134.229103785565	-45.9215733373318	-142.891366450492	-26.3584113148507	60.2085137118757	
2598333333.33343	-22.8680121107841	158.692667125582	-9.63193642299395	-136.510096382643	-45.8879963365943	-145.726457168958	-26.4186149234748	59.4036444436918	
2598666666.66676	-22.7665907700152	156.888873437306	-9.63181387826512	-138.818431046333	-45.8986364406019	-149.010770770022	-26.4829039954728	58.371488983472	
2599000000.00009	-22.6464849042224	154.997269071212	-9.63566663414056	-141.089073639132	-45.9376632044653	-150.983165916549	-26.5282924952682	57.4289836567252	
2599333333.33343	-22.5365259401502	153.003832784243	-9.64124152961697	-143.365859756852	-45.7535983716254	-153.634783318796	-26.5430168826775	56.0777918386653	
2599666666.66676	-22.4030117620992	151.188177854049	-9.64154124984134	-145.651645180159	-46.2526820429032	-156.917125800937	-26.5798550036627	55.0250231094874	
2600000000.0001	-22.2601250523575	149.371793958456	-9.64588596693043	-148.033248425787	-45.9029545715463	-159.796715064509	-26.5755580575016	53.5295463828717	
