!Agilent N9923A: A.05.34
!Date: Friday, 25 March 2016 20:45:07
!Model: N9923A
!Serial: MY51491690
!GPS Latitude: 
!GPS Longitude: 
!GPS TimeStamp: 0001-01-01 00:00:00Z
!GPS Seconds Since Last Read: 0
!CHECKSUM:0763107631
!Correction: S11(ON U*)S21(ON U*)S12(ON U*)S22(ON U*)
!S2P File: Measurements:S11,S21,S12,S22:
# Hz S DB R 50
2400000000	-16.286021085747	178.20757331005	-9.54416624347988	155.133719613098	-46.276729965736	142.389007031747	-21.9736129588871	6.80897924602085	
2400333333.33333	-16.3024932151597	177.2225759458	-9.54902323711022	152.789614575396	-46.4565122666572	138.430130136653	-22.0634537095768	6.66399842839845	
2400666666.66667	-16.3064653760401	176.302306384924	-9.54434811879142	150.51285228477	-46.4453391401101	138.712838310138	-22.1633410329676	6.29032033915103	
2401000000	-16.3252577827285	175.207769105747	-9.53702437401597	148.247063485266	-46.6632486466759	136.157640553166	-22.2949087170459	6.10197384976778	
2401333333.33333	-16.3797518851106	174.173804234048	-9.53818555134853	145.937480059146	-46.5009584241656	132.678005263432	-22.4223034657234	5.97326881821594	
2401666666.66667	-16.3885136109561	173.114929238556	-9.5389531633924	143.580488185289	-46.3385554301885	131.473600060583	-22.5262862322709	5.75084047480462	
2402000000	-16.4111179421844	171.927620430047	-9.53764812289267	141.260203804645	-46.364217945491	129.81897913605	-22.6965196832025	5.41250793705251	
2402333333.33333	-16.4502985015683	170.76925486257	-9.53925356295088	138.95930179274	-46.664078970048	127.16920895794	-22.8170950970483	5.14451043811357	
2402666666.66667	-16.4663528799392	169.596843494396	-9.53823983261123	136.642000238048	-46.55884479208	124.093786058429	-22.9761940335272	4.87452834247719	
2403000000	-16.484855497288	168.572358535543	-9.53543907410933	134.3205091068	-46.6111269970548	122.432770839627	-23.1287004476488	4.51303197585533	
2403333333.33333	-16.5162666587354	167.289849043308	-9.5352921851099	132.03572801985	-46.6606381530797	118.122167723317	-23.3026720249005	4.27440755774293	
2403666666.66667	-16.538503568515	166.009429408283	-9.5357130999326	129.728710339565	-46.4324135481114	117.780999375851	-23.4678499385612	3.83056221899008	
2404000000	-16.540370214979	164.966291758017	-9.54060127581779	127.433317954878	-46.6294087372998	115.413736425716	-23.6383435932269	3.69687650094185	
2404333333.33334	-16.5735514483759	163.690046749178	-9.53569529263822	125.140295603029	-46.7095845413243	112.347548323745	-23.812882111528	3.34955165234703	
2404666666.66667	-16.5904167516748	162.561806168073	-9.53796799352927	122.797122531451	-46.6403627152647	108.556518889627	-24.0262140833349	2.99872657331504	
2405000000	-16.6083682835245	161.259613387063	-9.54475393382047	120.511458574064	-46.4977719136715	107.029538497872	-24.1792971932438	2.66818286807605	
2405333333.33334	-16.6282135373183	160.120624190817	-9.54180062508562	118.197072472721	-46.4243186477264	104.025504134261	-24.3727135212074	2.22609171774281	
2405666666.66667	-16.6393529740457	158.894508912458	-9.54816034757688	115.910738212026	-46.759519273339	102.80582319826	-24.5831909135455	1.97715325110708	
2406000000	-16.6625667931227	157.703760783544	-9.55022433766805	113.588389703854	-46.6168409415676	101.873264430544	-24.7558252357204	1.74533013346743	
2406333333.33334	-16.6567601253765	156.444850629871	-9.55485828459518	111.327836433254	-46.5217931107195	98.3217552000135	-25.0119554327656	1.27921749072692	
2406666666.66667	-16.6607989776933	155.049059235254	-9.54780086400854	109.02520847576	-46.7443620864254	93.7367972387537	-25.1955091730134	1.10583809925386	
2407000000	-16.6601563235855	153.948733488885	-9.55851901981861	106.782453530119	-46.6469119469803	93.9267672690057	-25.4258142035466	0.586531695008956	
2407333333.33334	-16.6622886802299	152.687643356154	-9.56320431641467	104.465073855265	-46.776750847084	93.1265461297749	-25.6334107859912	0.354500736748162	
2407666666.66667	-16.6525075528744	151.469011787959	-9.56339810242516	102.192212005445	-46.698944962777	89.3112806199343	-25.8610091254103	0.114043320640156	
2408000000	-16.6472655756655	150.216865261246	-9.56680300758937	99.9407609897036	-46.4667753964706	87.8432369334648	-26.1225361680679	-0.275439431917468	
2408333333.33334	-16.6439954840908	148.978649949689	-9.58051803462598	97.629900737627	-46.7037597915479	85.29682537437	-26.3406742209017	-0.418694310637217	
2408666666.66667	-16.6400841896476	147.769941271851	-9.58318858812612	95.3927730885152	-46.5939755158063	82.9343990316819	-26.6120292211748	-0.910016395914283	
2409000000	-16.6237140044838	146.512233963857	-9.59031676986146	93.1143859070513	-46.7342416450845	81.5562533546658	-26.8096465691831	-1.23656718859284	
2409333333.33334	-16.601926377702	145.277731984987	-9.59732986612759	90.8337215249539	-46.8572541596313	76.9461353357558	-27.0601626146377	-1.25015729194643	
2409666666.66667	-16.5816147973969	144.097779951308	-9.60711422767673	88.5912456886878	-46.9267770076647	75.2379474058977	-27.2641524985607	-1.4975679128317	
2410000000	-16.5688477717177	142.951298579251	-9.61541622479665	86.2952723354749	-46.9145229198583	73.8485328981098	-27.5210301549298	-1.86884903374368	
2410333333.33334	-16.5448576030315	141.667126345969	-9.62377544697859	84.0600290834707	-46.7736655097814	72.6033377592944	-27.7482252027564	-2.012451913055	
2410666666.66667	-16.5161816625647	140.484561764815	-9.62960694720734	81.7730233598214	-46.7613409835378	67.7162794400256	-27.9920385172841	-2.27310230832359	
2411000000.00001	-16.4824921926171	139.365354543111	-9.64368139066405	79.5684474729952	-46.790604330903	67.2495319869271	-28.2227192017164	-2.38190590320463	
2411333333.33334	-16.4539146119767	138.273894037777	-9.64849333089244	77.3150592786208	-46.7495794187297	65.3472805685677	-28.4380295120727	-2.42098987277115	
2411666666.66667	-16.4211070279702	137.113630010171	-9.6599202527415	75.0887118552183	-46.9897894728221	62.7811010617653	-28.6865675820561	-2.58788281479913	
2412000000.00001	-16.3789153635886	135.999271207707	-9.6692428814224	72.8152565111203	-46.7403338740864	59.887997019831	-28.8583725734119	-2.69489118838677	
2412333333.33334	-16.3462832849462	134.760477197279	-9.68140370466893	70.6093477626344	-46.6909789084161	57.1582530773488	-29.0982910055974	-2.45548908478262	
2412666666.66667	-16.3014105853517	133.626181298502	-9.68954217868466	68.3930000871105	-46.729199544032	54.5535748323937	-29.2589606791273	-2.58727533744836	
2413000000.00001	-16.2372004018386	132.424629035448	-9.69718765904555	66.1294305375824	-46.9592532673627	53.6285574089009	-29.4196358612711	-2.72134006100797	
2413333333.33334	-16.1988582691172	131.307811794498	-9.71260684139204	63.9013997919025	-46.6647783978122	51.1262730555233	-29.57395467219	-2.62339796125466	
2413666666.66667	-16.1288143737679	130.142234951564	-9.71999356245138	61.6998843171762	-46.6523028970651	47.0608638949237	-29.7935932254845	-2.55310853733623	
2414000000.00001	-16.0751647942063	129.076884621392	-9.72365102257559	59.430357530905	-46.6635204492462	45.7579302035429	-29.8579796800736	-2.41034889791988	
2414333333.33334	-16.0142733227939	127.983177532613	-9.73765915561804	57.2357983280321	-46.6485287814572	43.2738765942197	-30.0428769017857	-2.39170116557525	
2414666666.66667	-15.9570267382896	126.87956779232	-9.75330559318161	54.994633485075	-46.7022689423693	40.801802893515	-30.123068488653	-2.53114065290086	
2415000000.00001	-15.8922208149628	125.897676963888	-9.75347135621704	52.8184886622923	-46.7714125542265	39.1691632521393	-30.188421011698	-2.6533854639817	
2415333333.33334	-15.8316151886503	124.825474845941	-9.77240825039731	50.5867615275739	-46.8103147351147	37.5732332027415	-30.2924529271723	-2.58023013173808	
2415666666.66667	-15.7561533574042	123.846736869763	-9.78779982624697	48.3428728855956	-46.855642573244	32.853695206507	-30.331113518484	-2.19010012544069	
2416000000.00001	-15.6864708626465	122.906210344325	-9.79866455642351	46.1518239712229	-46.9334386489339	30.4907030619145	-30.3402087854116	-2.17359627450756	
2416333333.33334	-15.6198355645596	121.944551492629	-9.80152854139044	43.9442932649396	-46.8529140519042	29.7454955709131	-30.3052932442241	-2.67099968006301	
2416666666.66667	-15.5620177384522	120.965765260736	-9.81390928509427	41.6721090010726	-46.7684498163623	26.6887922977714	-30.279597946599	-2.13611489387403	
2417000000.00001	-15.4826717382087	120.128068750218	-9.82716472801555	39.4718882480328	-46.868960339552	25.4597830651089	-30.2295180456302	-2.21903559785276	
2417333333.33334	-15.4189949560335	119.313551499086	-9.84264782465881	37.2981463213224	-46.6489491655349	24.5463854680706	-30.2039731929787	-2.02033392528562	
2417666666.66668	-15.3386620218713	118.365014499488	-9.85050635591222	35.0844684496381	-46.6778768510169	19.8113868202114	-30.1374247862138	-2.44495307823613	
2418000000.00001	-15.2687436828541	117.490042553508	-9.86032379926286	32.887995869023	-46.6837021176087	17.98394274502	-30.0217306842044	-2.07033824594441	
2418333333.33334	-15.1986341688931	116.630632666668	-9.87642898026786	30.6297401551725	-46.921929049336	18.7959179098287	-29.8681521391783	-2.51935086575923	
2418666666.66668	-15.1280662380894	115.795417306996	-9.88516621909662	28.4468833893564	-47.0519872007104	15.2665261318189	-29.7809433726657	-2.80422545912663	
2419000000.00001	-15.0519119658332	114.967682401298	-9.8940057955533	26.2736126836155	-46.9173744659293	12.4080549186473	-29.6118940264436	-2.72307701906284	
2419333333.33334	-14.975518171517	114.097306999464	-9.90243770619228	24.0043268061867	-46.9727667695678	10.8578646097373	-29.3920056818801	-3.36122980881632	
2419666666.66668	-14.8960936370184	113.304126727978	-9.91515778958636	21.7406813538663	-46.6667497548111	7.37025398688282	-29.2993580443921	-3.35374615341169	
2420000000.00001	-14.8217865837783	112.529065535765	-9.91703402444761	19.5759390097386	-47.0274415685775	7.7321140244994	-29.0033403001365	-3.65915893594189	
2420333333.33334	-14.7521524305964	111.744285581893	-9.93255067822045	17.3874987185675	-46.6794293194892	3.74575298992421	-28.8335614653292	-4.15880548602737	
2420666666.66668	-14.6783079165009	111.017298690832	-9.93360814090824	15.1681292182915	-46.8159531680239	1.78056852811852	-28.6056883092743	-4.31885696020598	
2421000000.00001	-14.6079055547174	110.282656915435	-9.94572861111362	12.9344246197004	-46.8682656311233	0.556246906828991	-28.3854601586252	-4.83204394722779	
2421333333.33334	-14.5470812818273	109.582128444948	-9.95281655738276	10.7110110419386	-46.7600197311499	-2.19480128151006	-28.166112007732	-5.07375445758296	
2421666666.66668	-14.4833631147422	108.902264006218	-9.96184765309696	8.48923543492079	-46.5957356074954	-6.94419272669011	-27.8912060744718	-5.86935424765268	
2422000000.00001	-14.4154127981838	108.265620435559	-9.96641814581424	6.27266234129306	-46.6978734188808	-6.95561790308924	-27.6678881208726	-6.43785420683794	
2422333333.33334	-14.3456974471781	107.534654561623	-9.97741538428916	4.00809159596744	-46.7456761321942	-8.18819571038222	-27.383160744591	-7.23857079074093	
2422666666.66668	-14.298694281182	106.90130865069	-9.98239566029168	1.80223844222546	-46.8093665987291	-12.5166377241929	-27.1685424131034	-7.40999910989066	
2423000000.00001	-14.2288984652605	106.227588844005	-9.9884773898203	-0.405585924409104	-46.5760042318913	-15.663782644475	-26.8893624514129	-8.11181820882379	
2423333333.33334	-14.1840771845952	105.605917190156	-9.9978748294755	-2.65792781442684	-46.9552528335757	-16.0838564597885	-26.6140455037467	-8.69986576483342	
2423666666.66668	-14.1196354326362	105.000223024358	-9.99791903343904	-4.90716284224646	-46.8383970709907	-19.6754973849112	-26.374941424826	-9.4507414641761	
2424000000.00001	-14.0662025663951	104.462892517328	-10.0038711629985	-7.14398772290529	-46.8564306609488	-20.469406128887	-26.1284913161987	-10.0212498178824	
2424333333.33334	-14.01771133811	103.9032997624	-10.0059640295393	-9.38660688645441	-46.4515499680088	-21.4940893096071	-25.8208689315697	-10.6525222299723	
2424666666.66668	-13.9667292912329	103.289028196791	-10.0132403756415	-11.6438053089314	-46.641580116012	-24.8448005586518	-25.5700267761828	-11.2652394232311	
2425000000.00001	-13.9238391724664	102.788009316299	-10.0175617570606	-13.9037141916224	-46.857201818153	-29.2857310416373	-25.3176569816423	-11.9355925872295	
2425333333.33335	-13.8665283436683	102.315827068232	-10.017714385117	-16.1473830699379	-46.7646619186181	-28.8205442833204	-25.032921879414	-12.7137719128956	
2425666666.66668	-13.825532954021	101.819971592454	-10.0239513218823	-18.373026113973	-46.7292439993181	-31.2391877171264	-24.8049311131753	-13.0858832874681	
2426000000.00001	-13.7788118117466	101.348669990244	-10.0302604655477	-20.6963813652843	-46.5622318473537	-33.3842460191631	-24.5249688380113	-13.7407124707965	
2426333333.33335	-13.7390723901969	100.853922224524	-10.0301436995467	-22.9373236887947	-46.8105324082021	-36.3861444977495	-24.2822169805186	-14.4085322139249	
2426666666.66668	-13.6979112957468	100.369084996662	-10.0308564993317	-25.2049595161073	-46.9527347980168	-39.8732265468009	-24.0330263750704	-15.2963173952505	
2427000000.00001	-13.6519654345073	99.920021064541	-10.0356956011964	-27.4778367630378	-46.9143318086141	-40.4164724822543	-23.8126419024311	-15.7997796183589	
2427333333.33335	-13.6317833068181	99.4916514635171	-10.0371915438215	-29.7655748887181	-47.0442466444278	-42.2963460151371	-23.5439958108691	-16.6050919518015	
2427666666.66668	-13.590013787148	99.0520522835499	-10.0469598090402	-32.0005142525485	-46.960652560149	-45.7259318343562	-23.3406018672594	-17.3219674027628	
2428000000.00001	-13.5534046802738	98.6274525823556	-10.0492856836211	-34.3103023051581	-46.8551878176566	-46.5981913063264	-23.0948293548251	-18.150016826415	
2428333333.33335	-13.5194119215705	98.2153558864786	-10.0513912093514	-36.5662449630384	-46.9567280345638	-49.7382354125175	-22.8668065613378	-18.7082427656436	
2428666666.66668	-13.4871836761719	97.7763670423393	-10.0578217195588	-38.8242016930147	-46.9284077758304	-52.8932273361356	-22.6554811758194	-19.4556584859312	
2429000000.00001	-13.4588558103274	97.3838238927546	-10.0582934002197	-41.0936699578738	-46.6912910056284	-53.8739111351949	-22.4669990336805	-20.1688955101544	
2429333333.33335	-13.4303038788676	97.0277476542646	-10.0614526316503	-43.3742159702801	-46.4743920789386	-56.223415842659	-22.2682593231709	-20.9634745533887	
2429666666.66668	-13.4029457123123	96.6120668796766	-10.0579381548114	-45.6585253743631	-46.916993368642	-60.0098932103837	-22.0763333650277	-21.6957996358384	
2430000000.00001	-13.3711754938007	96.2506139930722	-10.0698944994813	-47.9469011860139	-47.0410078387874	-60.2292668239744	-21.8647036767406	-22.4080294281377	
2430333333.33335	-13.3478430634918	95.8772623142529	-10.0722585440567	-50.1941560011526	-46.9188852417436	-63.423272050287	-21.6838272582425	-23.0804078563634	
2430666666.66668	-13.3229757474532	95.5400757481929	-10.0763309640994	-52.4659351619962	-47.1005065361165	-64.0183784175651	-21.5510332482096	-23.7963496058608	
2431000000.00001	-13.3050557162057	95.2243909352901	-10.0776394409915	-54.6968779880068	-47.1970750835665	-66.2629477907769	-21.3765472904365	-24.4916175317202	
2431333333.33335	-13.2786453153882	94.8929777614763	-10.087665330164	-56.9359373996731	-47.0215431392892	-70.4297995464747	-21.2132264112481	-25.2381941691048	
2431666666.66668	-13.2546135016671	94.6401192668643	-10.0849723721324	-59.1964664979398	-47.2440143218243	-70.0765731416477	-21.0491714817482	-25.8467621301195	
2432000000.00002	-13.2410380660817	94.284931905538	-10.0878357627834	-61.4413802107761	-46.8239880114869	-73.6955213612794	-20.8835477543328	-26.585772267775	
2432333333.33335	-13.2199439865409	94.0460804736177	-10.0919764640454	-63.7379125445782	-46.7955236659033	-76.1012918299159	-20.7364614233355	-27.1174892783151	
2432666666.66668	-13.2049662486435	93.7506902968747	-10.0893966103767	-65.9418371429413	-47.2309522819341	-79.3925016963928	-20.6066051334024	-27.7493294262477	
2433000000.00002	-13.1802085426707	93.4545041273435	-10.0985477157128	-68.1875082351653	-46.9280088438504	-80.3132083653579	-20.4783942126209	-28.512657876039	
2433333333.33335	-13.1643200470787	93.1289529392387	-10.0963818973942	-70.3771341567361	-46.7324767030238	-84.0963659489716	-20.3611874132088	-29.1753320246627	
2433666666.66668	-13.1512519649939	92.8212142240836	-10.0990008432716	-72.7086090137065	-46.7375063927163	-85.5638364458683	-20.2344812790487	-29.9073675115411	
2434000000.00002	-13.1486528744138	92.5673224352388	-10.1022141834034	-74.9020507915808	-46.9095545238891	-87.7326517206548	-20.1083324605363	-30.4185994056809	
2434333333.33335	-13.1295302656475	92.2360271385993	-10.10481749363	-77.1538509266671	-47.1510327192126	-90.5358231178611	-20.0171274041921	-31.0817186041528	
2434666666.66668	-13.111250875684	91.9032108427586	-10.1070497204493	-79.3886869455687	-47.1336210643614	-92.5120511033656	-19.9174782524689	-31.8805861267196	
2435000000.00002	-13.1022954225858	91.5935859477837	-10.1036243030228	-81.6198763469796	-46.9842480601465	-95.1005560481356	-19.8155724856895	-32.4756136812022	
2435333333.33335	-13.1001012778331	91.2537264286417	-10.1048726788051	-83.8489491973154	-47.0052778111625	-95.3101188793641	-19.759837797114	-32.9963400779391	
2435666666.66668	-13.0867660878537	90.9660154424736	-10.1065823659046	-86.073749605826	-47.2210239904155	-99.9490765444846	-19.6753812469408	-33.795146077729	
2436000000.00002	-13.0752138607232	90.5455462095483	-10.1065161324035	-88.304984105752	-47.1417957964131	-101.130670232622	-19.6237359864569	-34.4583201707421	
2436333333.33335	-13.0653273780781	90.1789917645632	-10.1057126142678	-90.5249175777001	-47.2429945648563	-104.664402758115	-19.542480403489	-35.0927513087813	
2436666666.66668	-13.0685988267048	89.8376565142607	-10.1038979204634	-92.7436569123601	-47.0273390555481	-105.937916403491	-19.4942774939403	-35.7239979165722	
2437000000.00002	-13.0501550312337	89.5020504700763	-10.1011427301269	-94.9600828979421	-47.0375612921814	-105.438134771465	-19.4456326487424	-36.2854934788985	
2437333333.33335	-13.044043779542	89.1214251371147	-10.0973524860459	-97.1791879348685	-46.969249669917	-109.450550736882	-19.4070859077536	-37.0133233356753	
2437666666.66668	-13.0487863937673	88.8423269024113	-10.0980196704652	-99.3738946139865	-47.1474628134873	-110.700772546651	-19.3816486335221	-37.6033247312145	
2438000000.00002	-13.0411770494464	88.3750116579816	-10.0945637112424	-101.607167030079	-47.1168379743755	-114.215400998867	-19.3541163043196	-38.3309486668544	
2438333333.33335	-13.0354688144981	87.9743421342713	-10.0882495752174	-103.802514493635	-47.0722108260353	-117.766960563557	-19.3379946410737	-38.8895452984535	
2438666666.66669	-13.026232570042	87.5898203255397	-10.0849048952547	-106.015915121224	-47.2134808922383	-117.146011233383	-19.3118244842435	-39.6428078433353	
2439000000.00002	-13.0162459866849	87.1341715581945	-10.0836299269707	-108.240023972011	-47.1103059568337	-121.145736285416	-19.3200169226072	-40.0989085494786	
2439333333.33335	-13.0285926033621	86.7657067831666	-10.0829706547427	-110.429167597579	-47.1846848990407	-120.021531996413	-19.340229645288	-40.9606274569894	
2439666666.66669	-13.0188212369012	86.3737433807688	-10.0746031442879	-112.673291251062	-47.0254740935623	-126.307442880419	-19.3604141960294	-41.4670889887268	
2440000000.00002	-13.0171366823877	85.893688487407	-10.0750434607012	-114.869457353391	-46.9674322981469	-127.612737335079	-19.3671813426965	-42.1907521110077	
2440333333.33335	-13.0166473752271	85.5013375225279	-10.0623052006762	-117.095982586423	-47.026523552793	-129.968634829657	-19.3951394472724	-42.7356762815804	
2440666666.66669	-13.0232561435111	85.172555814131	-10.0634721886485	-119.295529839018	-47.1367825371595	-132.437588835591	-19.4248247882755	-43.3969354278036	
2441000000.00002	-13.0258200918999	84.7116721893407	-10.0558208841329	-121.480703015341	-47.1923358625038	-136.315753699442	-19.4775784304746	-44.1550543916596	
2441333333.33335	-13.0185675136341	84.2089070906135	-10.0481674033863	-123.755310382731	-47.3617146601779	-134.97874297596	-19.5230877062043	-44.7325998611157	
2441666666.66669	-13.0288056964186	83.8083790652062	-10.0532770337763	-125.948298036215	-47.0544654388041	-137.747562433078	-19.5648238151475	-45.3793145450012	
2442000000.00002	-13.0458690302901	83.4055653742471	-10.0286566928932	-128.187513433636	-46.9306744109509	-141.525803035909	-19.6633872738042	-46.010775848751	
2442333333.33335	-13.0664861098729	82.9953647091141	-10.0215287583432	-130.360641012444	-47.2271520233137	-140.425153002895	-19.716938750877	-46.6908533853662	
2442666666.66669	-13.0693441275577	82.6420005350882	-10.0197184615794	-132.612946235943	-46.7800456148187	-145.274675352742	-19.8181989749333	-47.158851681489	
2443000000.00002	-13.1056552902898	82.2389815800531	-10.0087849755214	-134.844832655916	-47.1246530495102	-147.670109138574	-19.905875324733	-47.82385986009	
2443333333.33335	-13.0997271943104	81.810532254551	-10.0038258977807	-137.11306864467	-46.8745641720072	-149.665320038216	-20.0004204412307	-48.5561584505288	
2443666666.66669	-13.1196193626337	81.4398630393722	-9.99788481814646	-139.344092404302	-47.0907309916201	-150.656647336206	-20.1129624546509	-49.1963095617436	
2444000000.00002	-13.149550849304	80.9541963143155	-9.9832832091649	-141.573755572753	-46.9404431892905	-153.658240091741	-20.234040781629	-49.6922305879046	
2444333333.33335	-13.1575070205312	80.5983304352733	-9.97712195698148	-143.768852795358	-47.0127181449661	-156.347789759611	-20.3610706022385	-50.312618610851	
2444666666.66669	-13.1927415194953	80.0921059067519	-9.97031021957005	-146.012129435138	-46.844124098444	-157.459176866077	-20.4735043585263	-51.0182806178443	
2445000000.00002	-13.2056143695668	79.7473250431543	-9.96154812736872	-148.268181868109	-47.3187099840255	-162.030085903156	-20.6287813598048	-51.6200016898824	
2445333333.33335	-13.2301208593138	79.2933297923007	-9.95847192929816	-150.515143587066	-46.9063006071919	-163.069794390571	-20.8087306704849	-52.0734309747606	
2445666666.66669	-13.2645748219543	78.8636231161821	-9.94545238112752	-152.781109808918	-47.0651509109884	-165.130975818228	-20.9840477357413	-52.893395142863	
2446000000.00002	-13.2861924488371	78.3294589742704	-9.93359126856209	-155.036151705018	-46.9757356136568	-166.305195397698	-21.1535914174803	-53.3393389601566	
2446333333.33336	-13.3200180197738	77.968558238396	-9.92863638566788	-157.25771539526	-46.8455474670319	-169.030574836001	-21.3484331725944	-54.1446584525759	
2446666666.66669	-13.3370716022708	77.50652915685	-9.91693889352581	-159.530919345283	-46.964462074447	-172.955521014849	-21.5279401777191	-54.6374453036532	
2447000000.00002	-13.3574660230756	77.0103839169163	-9.90999934519569	-161.773778768533	-47.1460174621432	-175.1025635509	-21.7682103250234	-55.1558144124069	
2447333333.33336	-13.3846601598851	76.5943792396706	-9.90482932016467	-164.036870577435	-46.9754489482663	-175.960037459698	-21.9778330779677	-55.8701954769703	
2447666666.66669	-13.407358765841	76.1626673399376	-9.89791542237586	-166.266061927666	-46.8189551816186	-178.938591798509	-22.2084429654124	-56.5044337256526	
2448000000.00002	-13.4368607835808	75.6630367979041	-9.88803254521759	-168.494537637862	-46.8371277274163	179.737216930359	-22.4671374776633	-57.2280725019443	
2448333333.33336	-13.4573701524935	75.2460085891655	-9.88577876014334	-170.785794074086	-46.7650772940824	174.398926777184	-22.7170164450009	-57.7240308025011	
2448666666.66669	-13.4845585615041	74.7354299401804	-9.87922950121378	-173.050935861885	-46.6116016718903	175.82097242214	-22.9945073883917	-58.3064010975134	
2449000000.00002	-13.5096853492476	74.3106274789165	-9.86813490800359	-175.345425056045	-46.8795597924314	172.730412770238	-23.321639024273	-58.8848132882728	
2449333333.33336	-13.5476328288114	73.8439665403555	-9.86332126490559	-177.605694740024	-46.9454847500838	170.838966805175	-23.6479008003599	-59.5368724212844	
2449666666.66669	-13.5689172003042	73.3499377354514	-9.85850117254753	-179.837115811388	-46.8544454162139	169.188440444627	-23.9694186193631	-60.1145486200966	
2450000000.00002	-13.5982636349784	72.8270596566833	-9.85253779083647	177.924062719835	-46.916624371162	167.246913448667	-24.3180296822713	-60.7084176690852	
2450333333.33336	-13.6314137070638	72.4535676203385	-9.84369728853567	175.63832804104	-46.8718569189831	165.057233811135	-24.7102064616081	-61.2872086368475	
2450666666.66669	-13.6521199839485	71.8887055514447	-9.83897013848394	173.398828255487	-46.6899448008167	160.488877162377	-25.1549204915764	-61.9002643489138	
2451000000.00002	-13.6753871278323	71.4690066311178	-9.83218391796095	171.119723231657	-46.8916004252221	158.621214749669	-25.5075683223735	-62.5594628291446	
2451333333.33336	-13.7030835138241	70.9920112680322	-9.82218495728889	168.845944877199	-46.9201887055559	156.166823767882	-25.9608642023189	-63.1878420924949	
2451666666.66669	-13.7119494194309	70.6423395579348	-9.82122563919365	166.638204019253	-46.6042097657108	154.418075353957	-26.415820915095	-63.9401808138309	
2452000000.00002	-13.7331195261853	70.1032879670146	-9.81459283172198	164.351835726837	-46.7451021114901	153.254994614274	-26.9589188674661	-64.3945081602874	
2452333333.33336	-13.7499421755041	69.5585327755919	-9.81220537857989	162.131235696706	-46.670769533983	149.517900268804	-27.5228472807914	-65.1723679156144	
2452666666.66669	-13.759538562737	69.0412820059249	-9.80191520637266	159.846166324078	-46.7710318708437	149.740255221028	-28.0287797215453	-65.7773200293954	
2453000000.00003	-13.7745109072544	68.6605561079052	-9.79793769760367	157.632473589102	-46.7417655249448	146.159256040967	-28.7060532180885	-66.1831134761096	
2453333333.33336	-13.7695819459036	68.1118120585421	-9.79347492382195	155.391269598684	-46.8062216835404	143.863803839842	-29.3698984195101	-67.1503657956091	
2453666666.66669	-13.7725710318978	67.6303014799223	-9.78690469167915	153.104635256131	-46.8187179114418	143.047158037296	-30.1195906424646	-68.7793256989135	
2454000000.00003	-13.7959624126493	67.1420487135345	-9.78372608156423	150.861066819541	-46.5271611151666	138.230988967643	-30.9389601271215	-68.8997589753545	
2454333333.33336	-13.7980697295496	66.5727555323293	-9.77675830624941	148.568092253116	-46.753354462377	138.29537368693	-31.7866680698505	-70.2184604938598	
2454666666.66669	-13.7956981791891	66.1356297746934	-9.77385328177274	146.387869740682	-46.6717625001077	135.412005094218	-32.7189033858116	-70.9307807584472	
2455000000.00003	-13.7945053449215	65.5728606389675	-9.77154940322341	144.150077314612	-46.7054725408357	133.475669008225	-33.8847876547828	-72.4353206113297	
2455333333.33336	-13.7950633483823	65.0673867991288	-9.76941367842658	141.879353871229	-46.4349848419792	128.970258209416	-35.0695091316271	-73.9609035222073	
2455666666.66669	-13.7926818635453	64.6104329666525	-9.76945963200344	139.624571554491	-46.7778882378775	129.455519078414	-36.4877056873717	-76.2109081397325	
2456000000.00003	-13.7833887231067	63.9640112049848	-9.76073468620401	137.346574245615	-46.4836922852357	127.18565846404	-38.2901198314084	-77.7375914655547	
2456333333.33336	-13.7735075749826	63.5027554994697	-9.76390413601411	135.136215559245	-46.7947119131149	124.964742481761	-40.5499996986229	-81.1012589733169	
2456666666.66669	-13.7639963992402	62.9859691040794	-9.7541967933668	132.887046747763	-46.4104474509776	123.38717491538	-42.9113651332963	-87.7775049962356	
2457000000.00003	-13.7496834116211	62.4179627040452	-9.76439652118215	130.614479789521	-46.9031691935778	117.886627933303	-47.0822007561324	-97.9314084450264	
2457333333.33336	-13.7267585816322	61.9075854412448	-9.75899041938244	128.372334953902	-46.3883339314352	117.572559482212	-51.3937430262715	-128.300326273065	
2457666666.66669	-13.7064115021886	61.4035584372717	-9.75125810401496	126.140562348035	-46.7336190796762	115.252057885182	-51.7246255033921	177.45522799281	
2458000000.00003	-13.6929082769671	60.8587814499337	-9.74524031607986	123.890353502947	-46.5830679668198	111.479302438136	-47.3632640765199	140.701065002828	
2458333333.33336	-13.661440782376	60.2822859182625	-9.75457302098037	121.676261940587	-46.7579387011384	110.877614731459	-43.7470798187961	129.068611551395	
2458666666.66669	-13.6420943531067	59.7550758976492	-9.74936848747531	119.410195641609	-46.4979826272297	109.547226649718	-40.9284530827686	123.456533370772	
2459000000.00003	-13.6089439047572	59.1943070128083	-9.74543259885302	117.178769508613	-46.7111982423673	104.71818290063	-38.9474637879779	119.671934564542	
2459333333.33336	-13.5894993392881	58.6642953062578	-9.74462325851073	114.950542118917	-46.7582449237836	103.693502252212	-37.4433195309282	117.564877402406	
2459666666.6667	-13.5599092805926	58.1636081556568	-9.74745149907319	112.65197072372	-46.4164540064487	101.872427618947	-36.0707124901987	115.282340604695	
2460000000.00003	-13.5210205074744	57.6184588652033	-9.73823153301053	110.419298793791	-46.2625763697814	98.674812415894	-34.873773070029	113.610460293908	
2460333333.33336	-13.4888230168323	57.0311608046162	-9.73483118416354	108.152690502922	-46.5474560845906	95.5847295831671	-33.7739136050363	112.747725405547	
2460666666.6667	-13.4588521145598	56.5708011330781	-9.74179640055656	105.914976676645	-46.5346578351073	94.7301201314418	-32.9153519832161	110.95432119001	
2461000000.00003	-13.4270452073152	55.9939424590782	-9.73885276412887	103.702176062202	-46.7202386513385	92.6928404937343	-32.1863864605676	110.682709235393	
2461333333.33336	-13.3877877316691	55.407479135	-9.74282206129594	101.427754279884	-46.5021300474326	90.4117325691144	-31.4253962006864	109.560975276341	
2461666666.6667	-13.357071967425	54.8293164211351	-9.74438985708245	99.1503437313183	-46.8475192415844	87.0154232695721	-30.7925749695756	108.858438907955	
2462000000.00003	-13.308768039832	54.3047887153699	-9.73147003174661	96.8526575168632	-46.7214541522898	85.0785235272896	-30.2367448899794	108.400338985079	
2462333333.33336	-13.2735019596529	53.7721412523919	-9.73574157643061	94.6095909884051	-46.4903117629667	83.5168565291663	-29.6755669520992	107.38085128911	
2462666666.6667	-13.2228020968153	53.1793545693649	-9.73883105842303	92.3577089962233	-46.5949417460426	82.2592925545413	-29.2492779802163	107.189993243161	
2463000000.00003	-13.1824797623472	52.6349647186709	-9.73982374665012	90.0877291607232	-46.3722750583421	78.7674876302711	-28.7701135554061	106.4875825796	
2463333333.33336	-13.1417563293162	52.0987741893407	-9.737919632005	87.7882875229817	-46.6593931512808	77.1920724729837	-28.368028830479	105.809205169762	
2463666666.6667	-13.096365541425	51.5173013159988	-9.73914587869637	85.5335010732937	-46.8839167524553	74.4767232582628	-28.0052623180805	105.470096040747	
2464000000.00003	-13.0466712817153	51.0473172653241	-9.73933333073841	83.2628883351785	-46.4751679776549	69.1587411093185	-27.6744950571584	104.726378838059	
2464333333.33336	-13.0120186640676	50.5251094685303	-9.74177054992231	81.0050514634114	-46.4611519806628	67.9920336973855	-27.3181468190694	103.793203064019	
2464666666.6667	-12.9668099779745	49.9918871738701	-9.74099229215859	78.7438333878668	-46.4589318779535	66.2615508745708	-27.0418412778413	103.771511445367	
2465000000.00003	-12.9155200858189	49.476196075852	-9.74482345827857	76.4312255309302	-46.7436190137027	62.4373154561149	-26.7463468341973	103.098648486253	
2465333333.33336	-12.8721013861478	48.9498635038926	-9.74296476593009	74.1409727819039	-46.4181790295453	62.0408884652887	-26.5091063353495	102.267134902961	
2465666666.6667	-12.8271637426957	48.4624151873067	-9.74666278666518	71.8621683192322	-46.4754822020933	60.2116141264738	-26.2489963535227	101.823957127411	
2466000000.00003	-12.7761376284561	47.9350197447903	-9.7437453299193	69.582479009062	-46.4708627294813	58.5376433784353	-26.0148740218661	101.145114619787	
2466333333.33336	-12.7387624232647	47.4843749071436	-9.74607805836765	67.2941735610386	-46.4725183241867	54.7695156635513	-25.8496447976175	100.314430881143	
2466666666.6667	-12.6852365453319	46.9949615901209	-9.74925116072402	65.0499304794403	-46.1876372288081	51.4376615541872	-25.5940469793311	99.977263796772	
2467000000.00003	-12.6463269645612	46.4996742853023	-9.74784183039059	62.758721205017	-46.4083349920016	49.0982031291024	-25.4543681884345	99.3116831117353	
2467333333.33337	-12.5980590344561	46.0656865001647	-9.749003496223	60.4767590469477	-46.4414691532303	47.6172630346478	-25.2736199609224	98.8328857740989	
2467666666.6667	-12.5544161104981	45.5824599020304	-9.75089887933224	58.1725644608172	-46.4371649101983	44.1518919181361	-25.1152367316147	97.9581034661303	
2468000000.00003	-12.5116096573196	45.1498217557585	-9.75299468608044	55.8834852645855	-46.5089272735635	43.681342647983	-24.965989963387	97.5172668115608	
2468333333.33337	-12.4639321410797	44.7233403746309	-9.75764533569821	53.5582820318337	-46.4987445702508	41.9226120946461	-24.847427895085	96.8334024076182	
2468666666.6667	-12.4166581979238	44.2899243079982	-9.75756069759502	51.2527492237238	-46.4317366817049	39.4960004585894	-24.7140116662348	95.94472860212	
2469000000.00003	-12.377312724429	43.8603858675198	-9.75909877296249	48.9962307010632	-46.5886533478378	36.4574448857651	-24.6074125076458	95.1754241966418	
2469333333.33337	-12.324991420673	43.4444069917514	-9.76074169893982	46.6910784692125	-46.5080454692828	33.7136145351467	-24.5014488386811	94.4969145155369	
2469666666.6667	-12.287774596792	43.0081824818487	-9.76105644771	44.4462282454982	-46.4718959524107	32.2710903600647	-24.4042603304692	93.9193467352221	
2470000000.00003	-12.2492314941642	42.6335839061895	-9.76673388965062	42.0716567825481	-46.6180762716097	31.3250799394613	-24.3389986179533	93.1919420233582	
2470333333.33337	-12.2012388153867	42.2636044497266	-9.76768634665429	39.7207782981329	-46.645600418711	27.8120076662281	-24.2110076513575	92.1930258049341	
2470666666.6667	-12.1605999029554	41.8518436759735	-9.77182452846172	37.4323555896664	-46.4256729013952	25.246933594424	-24.1457675901812	91.5764555352644	
2471000000.00003	-12.1179674534977	41.5205119523875	-9.77364405879949	35.1528931158973	-46.3193210447915	21.0123145240759	-24.1053896649431	90.5961649911894	
2471333333.33337	-12.0777192973994	41.1243758021025	-9.7787155954959	32.8307914152986	-46.4942760306711	19.5830078156762	-24.0254922548449	89.8991321937334	
2471666666.6667	-12.0374957388483	40.7746654832742	-9.78159856611867	30.5450126187858	-46.6620465794222	17.9105567739129	-24.0059692142752	88.9170465756464	
2472000000.00003	-11.9944375892333	40.4682879432572	-9.78546034361836	28.2250543457601	-46.5255617593706	17.0343160828687	-23.9515659577603	88.0731839088176	
2472333333.33337	-11.9445698031264	40.1306421634109	-9.78141418959948	25.8933995684222	-46.6575711479391	12.9657368701795	-23.9070968274686	87.2993548612582	
2472666666.6667	-11.8957409034964	39.8261739189082	-9.78370832535723	23.5961850224973	-46.3999877184442	10.4858613882899	-23.8987854561671	86.3084098227316	
2473000000.00003	-11.8551551078061	39.5370797117213	-9.78707677918934	21.2197149946542	-46.063809974527	8.33757244695039	-23.8600011233513	85.3983169779815	
2473333333.33337	-11.8051320227404	39.2353249674959	-9.7933249457961	18.8972173338251	-46.7392296721775	5.64318215834956	-23.8398670949597	84.6063577533705	
2473666666.6667	-11.7610658248179	38.9291226653194	-9.79313394540071	16.5630793485459	-46.3108245016651	4.88202207522013	-23.835530638544	83.5066172973136	
2474000000.00004	-11.7163180349642	38.6300017417191	-9.79465760969244	14.2239056981838	-46.3079029596191	1.77531829158942	-23.8316832280523	82.3439428231745	
2474333333.33337	-11.6710540888797	38.3698891381015	-9.80108072803281	11.9095753560019	-46.4878626912666	-0.199228284499185	-23.8404607246953	81.2494372263773	
2474666666.6667	-11.6311321768297	38.090987385039	-9.80425398264754	9.55079749196725	-46.4858168349873	-4.00229436058706	-23.8477766442545	80.2057139762604	
2475000000.00004	-11.588087663092	37.8059890284577	-9.80809464873477	7.22578516985553	-46.4389474505151	-4.6068728679708	-23.8800649927946	79.0744999329608	
2475333333.33337	-11.5457719190794	37.4878682723019	-9.8114158270478	4.89414793395363	-46.3547182553318	-7.56065479723619	-23.8815007571927	77.9201430135639	
2475666666.6667	-11.5027764866242	37.245283409583	-9.81413737086605	2.56729645678951	-46.414624251842	-11.9114661251569	-23.8807401765792	76.4996129103642	
2476000000.00004	-11.4666723830868	36.9167438689369	-9.81656778350853	0.144067411264123	-46.3487596236847	-11.6660218022378	-23.8990225990226	75.6454080755455	
2476333333.33337	-11.4216685537616	36.6402462325279	-9.82205349368045	-2.18814806460498	-46.5704400414594	-15.19080897293	-23.9322747372237	74.0133617033469	
2476666666.6667	-11.3814678897101	36.3360507461655	-9.82457764486797	-4.47401046449007	-46.1368757562209	-16.3841551650924	-23.9609587704966	72.6341670690062	
2477000000.00004	-11.3448312532044	36.05605422604	-9.82965083143827	-6.85660839471083	-46.3061229653069	-18.9670053289883	-23.9859831031553	71.2217795555343	
2477333333.33337	-11.3062208468415	35.7186007093238	-9.83530688020571	-9.19170715566152	-46.4558542757723	-22.1244624094788	-23.997097087287	69.7646117147624	
2477666666.6667	-11.2661157988578	35.3775665408707	-9.83475825066777	-11.5105322648932	-46.3840813021788	-24.7472846683308	-24.0166000531981	68.3340825085152	
2478000000.00004	-11.2240910890288	35.1447381352333	-9.84184529318364	-13.8410169846274	-46.7885773394721	-25.138112018891	-24.061282211746	66.8011477265158	
2478333333.33337	-11.1908004417776	34.7968891447591	-9.85383121293625	-16.2031947685218	-46.3504506868577	-28.2509740335528	-24.0984472781198	65.1960822755024	
2478666666.6667	-11.1510024029122	34.4980289282936	-9.85631734077636	-18.5340495404099	-46.5242061786712	-30.7668976618838	-24.126656668045	63.5517670752521	
2479000000.00004	-11.1204088260953	34.1464615228833	-9.85990497524797	-20.8444412736913	-46.2548208411244	-34.0204250454457	-24.1197725401454	61.8047191890129	
2479333333.33337	-11.0755489388038	33.8292239865562	-9.86705743637473	-23.1523682305357	-46.3931457310517	-33.0843836431667	-24.1470532627291	60.3019887905135	
2479666666.6667	-11.0431186392515	33.5082095383494	-9.87250619488302	-25.4914074557127	-46.3558281518183	-38.3882634257859	-24.1656076838787	58.5148002349883	
2480000000.00004	-11.0119830579773	33.1628277828758	-9.87690975608477	-27.79447300947	-46.4061991685516	-39.7743942931277	-24.234645130395	56.5887236529577	
2480333333.33337	-10.981581965099	32.8141779165783	-9.88644282998464	-30.1060561314012	-46.3441391561837	-42.0170698759163	-24.216246539251	54.4175044401073	
2480666666.66671	-10.9521804503819	32.5120513150497	-9.88268900279739	-32.4941171927826	-46.1983680952683	-44.0646436871308	-24.2603231110933	52.8007497921457	
2481000000.00004	-10.9236178853581	32.1780001902149	-9.88434835604443	-34.7759612211663	-46.3673619736292	-46.487469870547	-24.2702434001278	51.0443702900615	
2481333333.33337	-10.9019109249763	31.7749771066017	-9.89260407354378	-37.0827597835444	-46.4534638762703	-48.2976024572621	-24.2541697876166	48.9568882126718	
2481666666.66671	-10.8760755863786	31.372287643884	-9.89021639308916	-39.3428619908738	-46.6384116922631	-51.3981294444211	-24.2576822531932	46.9185736067631	
2482000000.00004	-10.860580556862	31.0496567986505	-9.89772911788197	-41.6662868879979	-46.5224607923249	-54.5957458763841	-24.2481807077701	44.9024409100144	
2482333333.33337	-10.8365865931342	30.6841278744613	-9.90134430873793	-43.9915428806634	-46.5555143622923	-54.1776844170962	-24.2329907298178	42.9137948114121	
2482666666.66671	-10.8160431322729	30.2295630389685	-9.90238505667854	-46.2742518745487	-46.2946353661384	-57.8629790887249	-24.2117656448215	40.8867622814901	
2483000000.00004	-10.7904414012999	29.8814979111925	-9.90497617889148	-48.6012752183634	-46.57853072172	-60.0861907339478	-24.1966702231408	38.7913310866486	
2483333333.33337	-10.7749864359674	29.4763198506999	-9.89962333371162	-50.8760857456615	-46.4757492662534	-61.4387002095582	-24.1614846707743	36.754470767532	
2483666666.66671	-10.7538262574506	29.1287290708899	-9.90476272534191	-53.1375526656482	-46.3923753371583	-64.000884226207	-24.1629792417074	34.7004383608696	
2484000000.00004	-10.7495640537719	28.6683835588456	-9.90343752994849	-55.427154911557	-46.4996917309943	-66.3852665144231	-24.1107136531797	32.4492132320825	
2484333333.33337	-10.7281906560828	28.2667208240875	-9.90459289015757	-57.7057601234156	-46.5306303092523	-70.7279959422103	-24.0463128237057	30.3344907382277	
2484666666.66671	-10.7267129689392	27.8984701490043	-9.90332069358361	-60.0181266065992	-46.4440074660578	-72.5633365382211	-24.0012521940798	28.2020643216947	
2485000000.00004	-10.7027808111222	27.5067099729375	-9.90343182926938	-62.2917132231977	-46.3580946613003	-75.0516812797723	-23.9250342890185	26.2699342904076	
2485333333.33337	-10.6968857683819	27.0715324610086	-9.90208331640675	-64.5393546150233	-46.3292219323782	-73.9729392347563	-23.8636705836595	24.1468686375151	
2485666666.66671	-10.689686156213	26.6686004870742	-9.90337938934152	-66.8083976236923	-46.5969253583504	-76.2268114320876	-23.7809846562418	22.0977294739262	
2486000000.00004	-10.6844351492516	26.230512326033	-9.89894128973935	-69.0628257620046	-46.373124316297	-79.7923196438357	-23.6945923639217	20.0331080415875	
2486333333.33337	-10.6780975497386	25.8407406657919	-9.88988839667044	-71.4090850666903	-46.3291999904004	-80.7267945341011	-23.6365098394146	17.9978408916027	
2486666666.66671	-10.675707799102	25.3120972177196	-9.90007983816023	-73.6616522081902	-46.3156941583608	-84.5272190093856	-23.5504317965152	16.0926556954686	
2487000000.00004	-10.6688275173501	24.9015494873694	-9.89150980115757	-75.967423673891	-46.6570903981172	-85.7078829269815	-23.4770305071486	14.1835028526508	
2487333333.33337	-10.6774583248856	24.4008556346229	-9.88961988767672	-78.2370408377202	-46.2404076674236	-88.634043906201	-23.3883082168685	12.3796333553402	
2487666666.66671	-10.6682637289685	23.9545100819682	-9.88700789211234	-80.5216274078552	-46.4088448451926	-92.8473597785568	-23.2859043744038	10.4937274357787	
2488000000.00004	-10.6827156241145	23.4766964727385	-9.88819038491617	-82.7912225625023	-46.6248826491239	-94.3718156077158	-23.1981822028115	8.79535630971843	
2488333333.33338	-10.6849546402666	23.0470198858929	-9.88067848308571	-85.0895450672067	-46.5836265138897	-96.4444961951305	-23.1263296188053	6.99746294187687	
2488666666.66671	-10.6905847360001	22.5376671478469	-9.87723391650506	-87.389925190843	-46.6837434314123	-99.3144460051399	-23.0233383151711	5.25477543449978	
2489000000.00004	-10.701386033304	21.9955855626318	-9.86400757457944	-89.6318245137276	-46.6786130863872	-100.369584754394	-22.9374427250647	3.54213424319661	
2489333333.33338	-10.7214974963697	21.504129116645	-9.86665799354464	-91.9191500515221	-46.8217659583304	-103.953685087221	-22.8363920430016	2.02461168178031	
2489666666.66671	-10.7237993290184	21.0651048435578	-9.86309605847175	-94.1950135987097	-46.3419084185378	-105.660189244167	-22.7374771169082	0.350507482532064	
2490000000.00004	-10.7372418125327	20.4457783621716	-9.85787068147691	-96.538214510433	-46.6131682923249	-106.457787450122	-22.6621109249131	-1.17388792478615	
2490333333.33338	-10.7500021453597	19.8784805476537	-9.84775263138959	-98.7862497071871	-46.4238032138182	-111.208856583279	-22.578709884556	-2.50850494513225	
2490666666.66671	-10.7759303545075	19.3401376786427	-9.8489238221027	-101.090192111392	-46.319873844105	-111.374725313425	-22.4833125350293	-4.00477045510686	
2491000000.00004	-10.7930288928728	18.8325005704188	-9.83971445085902	-103.355550933277	-46.5753223704858	-115.242171501434	-22.4122440872087	-5.36854423946043	
2491333333.33338	-10.8276558884281	18.2591102419479	-9.8379501386046	-105.633072698107	-46.4945215234664	-115.677300631142	-22.3209419159936	-6.73158960467509	
2491666666.66671	-10.8481935374585	17.7640286510392	-9.83052066789604	-107.914527094253	-46.6170702499184	-118.447329450151	-22.2418844510628	-7.99539873039441	
2492000000.00004	-10.8745490415429	17.2245304113314	-9.82955302179752	-110.18954829315	-46.602076661029	-120.375807584812	-22.1916601772903	-9.11398878186637	
2492333333.33338	-10.9108715196402	16.6339975531535	-9.82694334187629	-112.469554415888	-46.5493413781404	-121.714694517596	-22.0939832449729	-10.3392230602125	
2492666666.66671	-10.9372022371578	16.0728323400234	-9.82025876991741	-114.743283300677	-46.9119230987366	-125.531405105787	-22.05207027901	-11.5578571341246	
2493000000.00004	-10.9635124677044	15.4592591916293	-9.81889428027345	-116.998691221949	-46.7723404937023	-128.81777810278	-21.9991555841936	-12.5004452117307	
2493333333.33338	-11.0095434657041	14.9257675503087	-9.81421048986726	-119.267955767727	-46.5705038710736	-130.434772158179	-21.9568908318699	-13.5879758012821	
2493666666.66671	-11.0201571154939	14.3272342237032	-9.81024128299685	-121.560336445953	-46.418544909433	-133.149122480836	-21.9003010789049	-14.5947694452083	
2494000000.00004	-11.0771146148325	13.7458214309466	-9.80832008870359	-123.844784981725	-46.1693129830436	-136.027734334281	-21.8450332706223	-15.5853747301096	
2494333333.33338	-11.1009850110521	13.1299499036083	-9.79715174518225	-126.1053932785	-46.6829027890012	-138.404011507499	-21.8080678687171	-16.4336332563079	
2494666666.66671	-11.138519878167	12.5409752524553	-9.79750807356154	-128.416207132092	-46.267575063354	-140.167839201233	-21.7724811025288	-17.2752091476248	
2495000000.00005	-11.1780383646005	11.9497394493846	-9.79542483347501	-130.657274501059	-46.5749025380682	-141.745972274249	-21.7791473214158	-18.0753513672702	
2495333333.33338	-11.2213023441506	11.2940583213182	-9.79818813459511	-132.919747826381	-46.6599290758996	-147.406930922829	-21.7328337672041	-18.9365379348302	
2495666666.66671	-11.2530318695938	10.7140736667713	-9.79171215631325	-135.179544850918	-46.4732989983205	-146.72452960631	-21.7317158688114	-19.623731533153	
2496000000.00005	-11.3086781146753	10.1459135306183	-9.7920538385638	-137.483684837329	-46.7191340862922	-149.926958036791	-21.7392060170324	-20.3540202108259	
2496333333.33338	-11.3370210552602	9.50381443840142	-9.79047145760107	-139.736017088213	-46.6194007376038	-153.150426288073	-21.7516994756157	-21.0728851587153	
2496666666.66671	-11.3842620182484	8.91219889390921	-9.79248013223783	-141.975388663581	-46.8895382839558	-153.952855570233	-21.774120243086	-21.5492240804304	
2497000000.00005	-11.4192885007147	8.30261046567033	-9.78549257576868	-144.265049990194	-46.4893778704205	-156.160673416475	-21.8050945678433	-22.3723194852381	
2497333333.33338	-11.4608285714328	7.74287736793245	-9.7840659630551	-146.498563187002	-46.3911399979644	-157.375462353494	-21.7995896210828	-22.6779541564893	
2497666666.66671	-11.4966031927245	7.06509307378887	-9.78320006885884	-148.819507430174	-46.8134536072278	-161.419535666937	-21.807591997987	-23.1587638564659	
2498000000.00005	-11.5400827896906	6.56122485547415	-9.79136736832513	-151.072207172777	-46.6348857671815	-161.6616166574	-21.8732037134246	-23.5112338938521	
2498333333.33338	-11.5785721065071	5.94981439859476	-9.79091064999994	-153.322571326058	-46.2930730740596	-164.550808157059	-21.9211140916567	-24.019443572181	
2498666666.66671	-11.6202773212547	5.34935567147076	-9.78613226193424	-155.630381798117	-46.68091594431	-167.162379422919	-21.9560747183811	-24.4180921317558	
2499000000.00005	-11.6533975070714	4.75270083416193	-9.78643173688435	-157.834553427969	-46.7388950866572	-170.264678214081	-22.048115441964	-24.5628727522746	
2499333333.33338	-11.6900789492567	4.1440534465537	-9.78964194753247	-160.143706986658	-46.6698884421737	-171.382001946324	-22.1088533393586	-24.7890710120351	
2499666666.66671	-11.7340500429929	3.58419098710146	-9.78957971718352	-162.395371977989	-46.4003669466021	-175.517114622362	-22.1904206261937	-24.9475466662935	
2500000000.00005	-11.7760975941781	2.97400971518113	-9.79809008663855	-164.622259712816	-46.4008703926304	-172.514567173929	-22.247398369286	-24.9591007063477	
2500333333.33338	-11.8097205635931	2.3551200033489	-9.7960482844462	-166.93558869501	-46.6970965022105	-178.004561776598	-22.3444831888404	-25.0579791145477	
2500666666.66671	-11.8445923678225	1.81736286906682	-9.79683318361172	-169.256910914464	-46.5565876110473	-178.35840898953	-22.4477331304965	-25.1338474909708	
2501000000.00005	-11.8777052098493	1.22099653476005	-9.80220054851422	-171.444351506066	-46.9143323002678	176.40064744625	-22.5572703460045	-25.0381660264437	
2501333333.33338	-11.9046388211029	0.657264398554262	-9.80648037077875	-173.755298141913	-46.501999397892	175.058848247085	-22.6485548304313	-24.846108152983	
2501666666.66672	-11.9440942023006	0.0285564986894087	-9.81360614083205	-176.061276977326	-46.5019641731547	173.04188882385	-22.7615594762658	-24.8097075277508	
2502000000.00005	-11.9801116244628	-0.60200772404451	-9.81856531048215	-178.292935883197	-46.9831391976252	170.251218251084	-22.8948844012648	-24.3527314501616	
2502333333.33338	-12.0027816617797	-1.18900825991528	-9.82198218009103	179.421948711552	-46.9205386850528	169.061097077933	-22.9839130658169	-23.9898449173932	
2502666666.66672	-12.0369827220634	-1.9195099341237	-9.82726150476431	177.222210687217	-46.6645626045343	166.758603897943	-23.1271536684589	-23.4861998928331	
2503000000.00005	-12.0706590939129	-2.59694968750526	-9.82015552750951	174.955995073072	-46.578152494954	163.506978385303	-23.2567353451931	-22.8852690915679	
2503333333.33338	-12.0993795857204	-3.24279172800234	-9.83940490197111	172.63852306809	-46.5062778866074	162.961552859591	-23.3803183881761	-21.9959984028828	
2503666666.66672	-12.1233731140677	-3.92024876882277	-9.83771905973399	170.450917522837	-46.9479071199491	158.697978026971	-23.5082334215092	-21.2985411548002	
2504000000.00005	-12.1527916671343	-4.53445458163191	-9.85100842986813	168.160767956734	-46.5526650626861	157.601794794708	-23.6401073492862	-20.2717996103438	
2504333333.33338	-12.1746516051276	-5.25312061403376	-9.84830719677026	165.931106712903	-46.7026722215817	154.084673885144	-23.7660566929547	-19.404149155071	
2504666666.66672	-12.1980290030215	-5.93227914488946	-9.86124485470463	163.676468745425	-46.6645052818559	152.260115210104	-23.8840668603526	-18.5559648530788	
2505000000.00005	-12.2107976810957	-6.58819479198821	-9.86753508398235	161.417364777408	-46.5185237796787	150.880004010847	-24.0130134821504	-17.3454672658125	
2505333333.33338	-12.2393507513963	-7.26267645408767	-9.87483261079898	159.182386022421	-46.1654625028417	145.11121536378	-24.1500302813569	-16.0661209204448	
2505666666.66672	-12.2570533118531	-7.97678212114267	-9.88015345192814	156.92013228033	-46.4711541718578	145.507799555874	-24.240534571683	-14.8008375385873	
2506000000.00005	-12.270878279159	-8.63442255845633	-9.88828849906272	154.672583863748	-46.39459654884	145.108371335296	-24.3978513248071	-13.332819839699	
2506333333.33338	-12.2911943298911	-9.31639209030383	-9.89467284274716	152.423894917313	-46.4662744012249	141.207706517497	-24.4520669120387	-11.5633932333977	
2506666666.66672	-12.307750231111	-10.0988731850576	-9.90262882381793	150.211680158485	-46.3164625548538	138.634253186497	-24.5658024957079	-10.1510801150169	
2507000000.00005	-12.3102349508758	-10.8044906389239	-9.90783296403449	147.972414572563	-46.3214708552512	135.833569282874	-24.6610830996713	-8.42514976103593	
2507333333.33338	-12.3253170869766	-11.4743426700088	-9.92762809499898	145.702507405126	-46.6202728517344	134.723375250513	-24.6941282914275	-6.58311592556925	
2507666666.66672	-12.3369402263571	-12.1965984783844	-9.93150668835985	143.473593323339	-46.519229522457	130.398351375523	-24.762824601899	-4.63728573620689	
2508000000.00005	-12.3509237838426	-12.9205670665943	-9.93492332408336	141.257654392417	-46.4438552588705	129.57358088406	-24.7841336229519	-2.71881859675826	
2508333333.33338	-12.3628683554307	-13.7334176435712	-9.94195136793199	138.985506292581	-46.7586828554953	126.522485041484	-24.8374421193678	-0.878555722949146	
2508666666.66672	-12.3667656776615	-14.5261112371729	-9.94888705137582	136.748643896723	-46.8083927111131	124.79104471403	-24.823538538267	1.20448343324611	
2509000000.00005	-12.3816929905935	-15.2342230761225	-9.96164165648965	134.512363229682	-46.6617319314259	124.480821168163	-24.7693795315857	2.9664892713184	
2509333333.33339	-12.3915007780435	-16.0782393975577	-9.97091754442289	132.255677197789	-46.6127823692506	120.144134338612	-24.7519615993788	4.92697818685558	
2509666666.66672	-12.3953692283446	-16.8097348461848	-9.97919219119739	130.026025138622	-46.8923645942568	118.383159575248	-24.6900450229626	6.60563699996547	
2510000000.00005	-12.39990403355	-17.5899258480703	-9.98931796874891	127.817690862846	-46.7271016770373	117.124126096116	-24.6700974601793	8.59982847650632	
2510333333.33339	-12.404376902861	-18.3518833023238	-9.98865027891774	125.569475804868	-46.3430850060896	114.002469811604	-24.5453417091228	10.6527656051776	
2510666666.66672	-12.4096070795475	-19.0990628637412	-10.0035305159881	123.290281877546	-46.6160092772912	112.361729659528	-24.4424281233415	12.2018580312597	
2511000000.00005	-12.407491358858	-19.9145026075936	-10.0126902885518	121.072115221089	-46.8002258011335	110.576494352127	-24.3565944727432	13.9619041047379	
2511333333.33339	-12.4126301716792	-20.6130148507128	-10.0211388074315	118.836082660563	-46.6383708030924	108.679283496938	-24.2182092807255	15.5416231425469	
2511666666.66672	-12.4191973614409	-21.3969330532181	-10.0390070961583	116.587201062254	-46.4522322204941	105.096525182398	-24.0986230577117	17.1748380413781	
2512000000.00005	-12.4146089165987	-22.1194121590073	-10.0396670016463	114.335287858017	-46.6919651132986	101.571736161009	-23.9592997474596	18.7030424407141	
2512333333.33339	-12.4158255507925	-22.8538977670617	-10.0497685402776	112.146764918682	-46.2667997938976	101.738847146766	-23.8177657995934	19.8692029932219	
2512666666.66672	-12.4137935348308	-23.5861209556972	-10.0607107171264	109.874261119886	-46.5775359027669	96.5234825820954	-23.6600085371689	21.2012964837133	
2513000000.00005	-12.4155319957841	-24.2931484935963	-10.0674436274053	107.64730830155	-46.4822822730074	95.7186977696295	-23.5037866999328	22.6122896949029	
2513333333.33339	-12.4171890647688	-25.0531494860223	-10.0809228063099	105.404769989686	-46.5701913280747	92.4616016413792	-23.3684969144563	23.7715558969406	
2513666666.66672	-12.4121561698767	-25.7443093380161	-10.0880080529854	103.188189176847	-46.6673352818072	90.9714804053165	-23.2138356256194	24.5766892463251	
2514000000.00005	-12.4205733500117	-26.4889247658522	-10.0992783972588	100.927141588426	-46.4499470435082	88.0976119049853	-23.0641064548566	25.6222452856421	
2514333333.33339	-12.4168603272216	-27.2090463247763	-10.1095941747564	98.636055995635	-46.6966161652471	86.5220051821094	-22.8853771333981	26.3106098671354	
2514666666.66672	-12.4236081432077	-27.9602116349158	-10.1121483772813	96.3912544710573	-46.5316145848329	84.0492672285614	-22.7446426131696	27.2687875203591	
2515000000.00005	-12.4220247075115	-28.7311947596428	-10.1243674639387	94.1996025228298	-46.5103835657294	80.6330999758924	-22.5908459071258	27.9163614191172	
2515333333.33339	-12.4225349107133	-29.38136632698	-10.1303166273178	91.8727057597025	-46.5489684099594	79.3316540082486	-22.4441437116912	28.596647091973	
2515666666.66672	-12.4206992423151	-30.0866552427048	-10.1377171061609	89.5940228089563	-46.5501679961194	78.7174412428836	-22.2961550555243	29.0317574839453	
2516000000.00006	-12.4255742216558	-30.7563439547965	-10.1465254949934	87.3879384498825	-46.465631453311	77.4561201831063	-22.1463698390243	29.7094895350195	
2516333333.33339	-12.4288755342313	-31.4613029088656	-10.1554114377446	85.0653322034337	-46.796079259785	73.361464429609	-22.0159883072405	29.8528319401915	
2516666666.66672	-12.4288944219169	-32.0841241606821	-10.1642077980824	82.8079514131745	-46.7265238761625	71.1604670720735	-21.8927137388414	30.3680163654602	
2517000000.00006	-12.4374556125389	-32.7131890489947	-10.1758210407381	80.5369909330405	-46.8127840545024	68.934763499247	-21.770460198254	30.4513536256277	
2517333333.33339	-12.4389779658589	-33.3574853417713	-10.1786809316163	78.2872414764372	-46.5206776233917	67.2738466284175	-21.6559176960315	30.4912078406355	
2517666666.66672	-12.4385416809619	-33.9487397127096	-10.1858336017711	76.0384756455671	-46.7586922474974	64.1960996918125	-21.5392834163985	30.9834700097479	
2518000000.00006	-12.4533748984835	-34.5793705370789	-10.1976188883365	73.7541776354288	-46.6808120761376	61.6216597591313	-21.4529571306275	30.9986105353718	
2518333333.33339	-12.4602318867908	-35.1979042292126	-10.2039761947063	71.5032702394588	-46.9881375789893	58.5889360004244	-21.360379025923	31.1962898113247	
2518666666.66672	-12.4630854491102	-35.7330104678638	-10.2223473823878	69.1892112364098	-47.021581713696	57.5728998517821	-21.2467715856521	30.9915545927572	
2519000000.00006	-12.4698419991956	-36.290818778573	-10.2206249199032	66.9061552768944	-46.7404526969081	55.6417477764369	-21.1525350567777	30.9375652872754	
2519333333.33339	-12.4775282202432	-36.8393208808497	-10.2304726587941	64.627863746512	-46.6077177238428	53.9117236805568	-21.1042670712486	31.1111456011538	
2519666666.66672	-12.4972841200078	-37.3297974050191	-10.2378315027141	62.3623779453925	-46.754847159212	51.5969790419961	-21.020365920662	31.0710963961148	
2520000000.00006	-12.5172139219434	-37.8601650562316	-10.2461917224664	60.0994102084728	-46.5266825108074	49.0475685176507	-21.0017990045608	30.9058589705238	
2520333333.33339	-12.5181830016728	-38.3466491632928	-10.2497729375971	57.8064039825502	-46.7099800818784	47.5582297836172	-20.9316258114183	30.6260380041443	
2520666666.66672	-12.5341716396697	-38.8479833824677	-10.260463737743	55.5498921448928	-46.6581417739392	43.1118729948202	-20.8662672406596	30.3906700147313	
2521000000.00006	-12.5447232167365	-39.2893329500405	-10.2710256048324	53.2726122088025	-46.9094663936137	41.7110170256277	-20.856401333913	30.2411485616936	
2521333333.33339	-12.5530270205476	-39.7415455553966	-10.2766128401014	50.9653881624054	-46.8189378907304	39.0818322482159	-20.799426690644	29.8913185670077	
2521666666.66672	-12.5735847693031	-40.2016379878828	-10.2880096208249	48.6896351303049	-46.9625879450196	34.2786152720962	-20.8135122666569	29.6349541271021	
2522000000.00006	-12.5855129554695	-40.6771806129819	-10.2958794516419	46.4274588106577	-46.5801871367346	34.9992367683884	-20.8024163951404	29.4111240095581	
2522333333.33339	-12.5933566333807	-41.097420401439	-10.3078346715682	44.131292619273	-46.8021511652702	33.0038551054732	-20.7868349621349	28.9559022397037	
2522666666.66673	-12.6201519558946	-41.5249174222714	-10.3165097409514	41.8743875990494	-46.7882301080123	31.2374011305522	-20.7763967020969	28.7233232789395	
2523000000.00006	-12.6317328224238	-41.9188078709609	-10.3238673540043	39.6133910916137	-46.869574794022	27.3172257695771	-20.7952352791034	28.2173613971063	
2523333333.33339	-12.6545232943306	-42.3851655105735	-10.3311007265062	37.3468100616541	-46.8227186984092	25.4787726029335	-20.8070247786714	27.7869715853543	
2523666666.66673	-12.6735212526261	-42.6647964355073	-10.3427116043013	35.1012062772053	-46.8338429212907	24.4749327561896	-20.8182924794891	27.3309540482561	
2524000000.00006	-12.6865082926412	-43.0024181425904	-10.3446112549576	32.8525861058705	-46.6109878052322	21.4119206526282	-20.8655470588713	26.84358075773	
2524333333.33339	-12.7120147696715	-43.3550444003666	-10.3616138665553	30.6008440678048	-46.9453727817578	19.4843783937692	-20.9347986317601	26.510180974004	
2524666666.66673	-12.7324675620585	-43.7036122351713	-10.3684419506017	28.3434835057241	-46.8575843834498	16.9231812478275	-20.9484053341967	25.8491332363814	
2525000000.00006	-12.7544908997048	-43.9697888057069	-10.3774289619555	26.131637197538	-46.7321800827835	14.4215112641989	-21.0088917522702	25.2933796898536	
2525333333.33339	-12.7840345346895	-44.319055363586	-10.3824138937549	23.8856023940571	-46.644993465957	13.1568311718869	-21.067446345472	24.7332440967703	
2525666666.66673	-12.8075056835559	-44.5259395102219	-10.3885695972424	21.6624329387203	-46.9338901390258	9.41930643213133	-21.1333594362629	24.2202267710911	
2526000000.00006	-12.8352749048014	-44.8134557321535	-10.4011454741311	19.4619073052298	-46.847153759464	7.26004121171731	-21.1841587066304	23.6226775340889	
2526333333.33339	-12.8633557929964	-45.0333752799213	-10.4033923756527	17.2535802052612	-46.9616299335166	5.67263173786074	-21.2835063799484	22.9403055362537	
2526666666.66673	-12.8881588124457	-45.380611179631	-10.4137112274681	14.9624600760887	-46.7413615058524	3.90117361358483	-21.3657994009186	22.2841098049891	
2527000000.00006	-12.912019004929	-45.5626799701074	-10.4101405464516	12.8300749656553	-46.8862242642453	0.200827719503011	-21.4552033539658	21.6224927015041	
2527333333.33339	-12.9402791686149	-45.8504624462137	-10.4225359959652	10.6108349250978	-46.8797555684625	-1.71608150709051	-21.5715157275218	21.1996227659433	
2527666666.66673	-12.9610530211011	-45.9887545633962	-10.4245571414047	8.37229329597046	-47.0239456108347	-3.45901886908426	-21.6897828110521	20.3461174164372	
2528000000.00006	-12.9986703563443	-46.2682279554306	-10.4310869042577	6.18604926534109	-46.7517004296167	-6.06452304499143	-21.7809387373756	19.6829114389038	
2528333333.33339	-13.0328195725883	-46.3869441747628	-10.4305554008141	3.94051222779651	-46.8664392520098	-7.90336248938778	-21.9281523762141	19.0968310264138	
2528666666.66673	-13.0574833592453	-46.6454952492089	-10.4319190533373	1.77797609501318	-46.9054257201988	-10.0048844936987	-22.0295225439176	18.2921780850529	
2529000000.00006	-13.0845993983702	-46.9064588343834	-10.4272019590772	-0.419624123710909	-47.0397546119797	-10.7550337605327	-22.1858815738923	17.5748283419462	
2529333333.3334	-13.1183895761316	-47.0863533326453	-10.4252468070348	-2.58492138239314	-46.9370128039974	-14.0976331140665	-22.3312978951843	16.8122699614003	
2529666666.66673	-13.1509129750115	-47.2459032542338	-10.4271396593973	-4.79054829081272	-47.0712213679265	-17.1419750399631	-22.4688676655196	15.9168782304711	
2530000000.00006	-13.1835374813826	-47.4673089583552	-10.4232762602097	-7.0192661620592	-46.975912478743	-17.3512179467184	-22.6315765312241	15.2590993880775	
2530333333.3334	-13.2227255096099	-47.6672029847313	-10.4129848691026	-9.21801900025365	-46.9472516363221	-21.1527374604368	-22.7880822937317	14.3781545993557	
2530666666.66673	-13.2597137358495	-47.8908495954692	-10.4108908380817	-11.405764924152	-46.8061834351361	-21.2412314018748	-22.935830605211	13.6306208429793	
2531000000.00006	-13.3021569213692	-48.074459891047	-10.4068986896223	-13.5611344823011	-46.6602976572588	-25.5493063613466	-23.1243671788613	12.8969090698676	
2531333333.3334	-13.3482742509196	-48.3183446532145	-10.4031225187747	-15.7957087407409	-46.752573696901	-27.770314642634	-23.3053683100746	11.9671602422963	
2531666666.66673	-13.3791166211865	-48.4020058742918	-10.3890285381904	-17.9548270200048	-47.0494377032047	-29.9978068496405	-23.4938264859154	11.2108934395313	
2532000000.00006	-13.4266571956004	-48.6723568572925	-10.3826195833192	-20.1543265634916	-46.8349531242984	-29.9800985344596	-23.7010094567802	10.3472827252617	
2532333333.3334	-13.4761536632345	-48.9321809295113	-10.3725902006225	-22.3569796902078	-46.9550181689872	-31.5323899260412	-23.89725413939	9.43792179151464	
2532666666.66673	-13.505729076571	-49.023728757236	-10.3615567589351	-24.5650648799438	-46.981590490455	-34.770704156149	-24.1317886872983	8.43982058494255	
2533000000.00006	-13.5555854023899	-49.309998717162	-10.3492310207525	-26.7697461365552	-46.7608803447324	-39.3248393943099	-24.319634129315	7.3725763136985	
2533333333.3334	-13.6052346756921	-49.541461842685	-10.3368958609785	-28.9951783901087	-47.1224049198387	-39.7448851171332	-24.5593137409753	6.69380393686195	
2533666666.66673	-13.6638955271324	-49.696634722903	-10.3218689312425	-31.2248430772122	-47.0672106810651	-41.3929128832785	-24.7570865574242	5.60132190636438	
2534000000.00006	-13.6931728775773	-49.8697844920462	-10.3137207778285	-33.4628521158739	-46.7699361655064	-44.2208800593555	-24.9939044748779	4.70204801056953	
2534333333.3334	-13.7511763010713	-50.1260023992793	-10.3093498073378	-35.6855280436773	-46.8000439064038	-45.2498785095873	-25.2573208698856	3.72022456717957	
2534666666.66673	-13.8061515439909	-50.3736219825319	-10.286352652771	-37.9008809852445	-46.8638583533729	-48.8691186079045	-25.4826019202334	2.76757020523949	
2535000000.00006	-13.8561436978808	-50.4939185944534	-10.2738900788226	-40.1355561883429	-46.669094134242	-52.2079368744477	-25.7060967214509	1.7591768703902	
2535333333.3334	-13.9077957413234	-50.8361778059556	-10.2609182766196	-42.3782943704614	-46.5856003939059	-54.7066389635056	-25.9317284221111	0.575447910982921	
2535666666.66673	-13.9557434406634	-50.9343518280174	-10.2546499328551	-44.5674366249103	-46.9119897081503	-56.474154672016	-26.2024301554314	-0.533392943491805	
2536000000.00006	-14.0173059854784	-51.1979587270093	-10.2331940700708	-46.862968440104	-46.6487254911645	-57.3752096138143	-26.4540173344087	-1.2971994071495	
2536333333.3334	-14.0619517719776	-51.4482128431815	-10.216810530934	-49.0970940598156	-47.2126545989285	-59.89826698326	-26.6920426802026	-2.18546748854046	
2536666666.66673	-14.1275062761947	-51.6961567765549	-10.2042096760538	-51.3454232227845	-46.2384807557542	-62.5928317573067	-26.9679858745322	-2.91958479704158	
2537000000.00007	-14.1639518761989	-51.9555520693724	-10.193561011299	-53.5969368610431	-46.7495640771617	-65.3792524673552	-27.1708466354403	-4.24262494199685	
2537333333.3334	-14.2101230383141	-52.0995869733071	-10.1848456372555	-55.8970482252979	-46.792546275376	-66.5429963165747	-27.430161741416	-5.12335857910407	
2537666666.66673	-14.2830265180256	-52.4345067311155	-10.1718663682308	-58.1002253390178	-46.4379826492574	-70.1508407538798	-27.6888129582828	-6.0973388021814	
2538000000.00007	-14.3424985568952	-52.6385084788884	-10.1561579472179	-60.4140146807188	-46.9039280626671	-69.0838237883161	-27.9451542401862	-6.80238046333068	
2538333333.3334	-14.4015653118954	-52.8012517031454	-10.1459258016686	-62.7147414730233	-47.0274883358966	-72.4910840727982	-28.2068220517947	-7.90054835977491	
2538666666.66673	-14.4510924021143	-53.0349942264158	-10.1287792302188	-64.9804324378415	-47.0117570175574	-77.1643601620315	-28.4344968376915	-8.81557720264816	
2539000000.00007	-14.5256080241975	-53.2019664571117	-10.1262089372232	-67.2317822818437	-46.5366973704737	-78.8719255715578	-28.6496913397884	-9.43072262802531	
2539333333.3334	-14.6004228683364	-53.4930183264575	-10.1172852984005	-69.5479734706172	-46.4571419541244	-79.3516415469309	-28.8928259601518	-10.0390819535391	
2539666666.66673	-14.6717744941639	-53.719756576059	-10.099680660273	-71.8459186109791	-46.8037002454191	-84.7686999096157	-29.1308697698607	-10.5189429358705	
2540000000.00007	-14.7361879002075	-54.0704673428309	-10.087403584851	-74.1196787976978	-46.7369051103151	-85.7033489832869	-29.3583577527966	-11.4462312233759	
2540333333.3334	-14.7940908640567	-54.2769472569455	-10.0826352096843	-76.4032626697807	-46.6791588262175	-86.2349173219689	-29.5733138323753	-11.5652392379739	
2540666666.66673	-14.8708690588728	-54.6192728485453	-10.0771290449459	-78.714391613885	-46.4781801192364	-89.8557860094834	-29.7700199012842	-12.4688015192709	
2541000000.00007	-14.9502652206661	-54.7882031737196	-10.0667548902495	-81.0098315030748	-47.1002103029417	-90.2171218873836	-29.9369045117273	-12.5938842394239	
2541333333.3334	-14.9980037306281	-55.2500735267695	-10.0591454684881	-83.2804072877797	-46.8224416336058	-93.6323511641913	-30.1046164642943	-13.1468800592225	
2541666666.66673	-15.1087628672125	-55.5423379165517	-10.043165283057	-85.6187744942968	-46.4677915617511	-95.8863191372189	-30.2987710921853	-12.9444158590634	
2542000000.00007	-15.1542217829054	-55.8628445024296	-10.0312974116597	-87.9212390101796	-46.6012573134214	-95.8909371213999	-30.443463807064	-12.978467470059	
2542333333.3334	-15.2217525259149	-56.1354184762717	-10.0305936388442	-90.1742308746333	-46.5236471658309	-99.5192949174633	-30.5826985757769	-13.4378451740718	
2542666666.66673	-15.3088844183073	-56.5397467782085	-10.0290603270552	-92.5477855216825	-46.7431188089925	-100.603978931878	-30.6475468431161	-13.0884792187292	
2543000000.00007	-15.381367982759	-56.9094004339915	-10.015393265972	-94.8435935124073	-46.1842605036782	-104.620967982881	-30.7246898675797	-13.3750141797682	
2543333333.3334	-15.4512812359891	-57.3790294751963	-10.0117428430612	-97.1437456864208	-46.6182954039168	-107.468129972715	-30.8301534017913	-13.2773262788849	
2543666666.66674	-15.5303117275072	-57.7192116632504	-10.0053421283521	-99.4760577052829	-46.6523715769098	-110.791864768088	-30.8706099455168	-12.795514405241	
2544000000.00007	-15.6227256764336	-57.9330261069795	-10.0037769551068	-101.7881656344	-46.5531869660389	-111.26470600378	-30.8282624717813	-12.2674644001643	
2544333333.3334	-15.7084167432919	-58.3112325403889	-9.99861071516934	-104.096735389115	-46.472532579709	-114.845470588092	-30.8798205086243	-11.8669960893484	
2544666666.66674	-15.8069059702709	-58.7421839922102	-10.0000071097672	-106.405436897286	-46.4952619727641	-116.832329075687	-30.8450878386631	-11.4113747677039	
2545000000.00007	-15.8852399831662	-58.9837876257662	-9.99599837202336	-108.683894863228	-46.4802227937898	-118.731877528241	-30.7713540681008	-10.6687015894954	
2545333333.3334	-15.9850969477514	-59.483881382541	-9.99272561369928	-111.002751974485	-46.4380526870116	-119.536035696217	-30.6023831449868	-10.1317053613798	
2545666666.66674	-16.0644624210734	-59.8660200036248	-9.9921693912498	-113.297075107331	-46.561322494216	-123.805044663783	-30.5671446588303	-9.62991019180415	
2546000000.00007	-16.1496922136369	-60.3525711156565	-9.9838303304825	-115.651202709047	-46.5864257517114	-124.662313351506	-30.4408037593054	-8.52789147549825	
2546333333.3334	-16.2488257075028	-60.7880549094561	-9.9884976959354	-117.913002303424	-46.6803545767038	-127.013607209416	-30.2984964372194	-8.31933605077394	
2546666666.66674	-16.3411524503707	-61.3131436312224	-9.98769516162633	-120.204618263577	-46.319399693566	-129.095715817862	-30.139376031545	-7.38605583350251	
2547000000.00007	-16.432314793028	-61.7815267386936	-9.98729242749722	-122.507085819641	-46.384987347452	-133.545137257106	-29.9099680978091	-7.04847897827433	
2547333333.3334	-16.5250307948465	-62.3018449493154	-9.98914580549686	-124.834987213069	-46.3731187485542	-133.491250583594	-29.7357868200637	-6.23783583415723	
2547666666.66674	-16.5944884352729	-62.6776302062983	-9.98842461847985	-127.093640801209	-46.2152277962901	-135.933256181349	-29.5179307149314	-5.97705199814611	
2548000000.00007	-16.691396587748	-63.3916909546222	-9.99123086649146	-129.407870155522	-46.4783451786613	-140.397517250352	-29.2990626399531	-5.05042274761924	
2548333333.3334	-16.7742970602156	-63.9039547784013	-9.98944573497699	-131.68842123917	-46.5803633816968	-140.717221276714	-29.0751453872739	-4.65773136876371	
2548666666.66674	-16.8608854324273	-64.5315325393826	-9.98971922744438	-133.955480308702	-46.7574499485906	-143.997003860335	-28.8521993982143	-3.91939749472826	
2549000000.00007	-16.9433553949538	-65.2728857581652	-9.98539433630718	-136.264187043119	-46.3308651686166	-146.623735559195	-28.5167350755409	-3.90654324165105	
2549333333.3334	-17.0307645237476	-65.8419433297159	-9.99088153609036	-138.540532913622	-46.5729878630302	-146.930511417355	-28.2949324999209	-3.56080377410672	
2549666666.66674	-17.1221241502799	-66.4988634330118	-9.99150507985069	-140.83824304394	-46.6733881611959	-151.742192808502	-28.0188162327694	-3.06519173992323	
2550000000.00007	-17.2090363439295	-67.3145151390747	-9.98889585882568	-143.101376820946	-46.3784572091581	-152.34364347505	-27.789786500578	-2.87919054421532	
2550333333.33341	-17.2856953176598	-68.0285836437199	-9.99069371830501	-145.349915669696	-46.1321639857239	-155.322600178925	-27.4999020602769	-2.55073485467837	
2550666666.66674	-17.3677499927965	-68.7869391503941	-9.99478309559461	-147.65927769296	-46.326792203316	-156.239553176845	-27.2284170847078	-2.30033262157859	
2551000000.00007	-17.441843525836	-69.523994377849	-9.99285582559506	-149.917403427081	-46.4995920168606	-159.47198722136	-26.9370117748828	-2.10267039984467	
2551333333.33341	-17.5298064725325	-70.3508440621489	-9.99708344993841	-152.195276357993	-46.2543388512699	-161.573713578214	-26.6678579692248	-2.03066847082575	
2551666666.66674	-17.6336958914804	-71.0885583135779	-9.99911837010614	-154.439584839383	-46.6101666947415	-164.825906524441	-26.3809142947468	-1.82290669231408	
2552000000.00007	-17.7101950116612	-71.9573626039211	-9.99709940913667	-156.727512854186	-46.4757269074054	-166.081310864812	-26.1094754867977	-1.70827206609809	
2552333333.33341	-17.7972893577648	-72.7193822290083	-10.0026057373381	-158.962216344143	-46.3119024365535	-170.554841961362	-25.8057747212754	-1.57718744059265	
2552666666.66674	-17.895979529941	-73.5024769204668	-10.000809593603	-161.193662537433	-46.3300777136243	-172.685767008764	-25.564446545488	-1.63652791537713	
2553000000.00007	-17.991393081191	-74.2659871923988	-9.99999886522589	-163.490130668979	-46.1780000768791	-174.856183723604	-25.3148695026202	-1.72334666192206	
2553333333.33341	-18.0589025580624	-75.2513607296751	-10.006898916099	-165.670189486732	-46.1884941060834	-175.279705957278	-25.0572455462614	-1.63257785413995	
2553666666.66674	-18.1474488296935	-76.0359093085288	-10.0022475159702	-167.979090512465	-46.2330929763475	-178.489291161428	-24.7701107867368	-1.71243615656431	
2554000000.00007	-18.2368521451796	-76.9175585342943	-10.0095573404391	-170.1857062292	-46.278048074423	179.930144652212	-24.5282516241236	-1.9444867005443	
2554333333.33341	-18.3147095255881	-77.669630679441	-10.0161164956171	-172.471480678392	-46.3136288066316	179.261851210873	-24.2667518695846	-1.75394104480711	
2554666666.66674	-18.3769136230564	-78.5213935950155	-10.0157265873499	-174.716049611959	-46.4927363215601	173.277913796494	-24.0560869113036	-1.84842502208847	
2555000000.00007	-18.4531854645033	-79.396056717516	-10.0113111714427	-176.943816918586	-46.497573661333	172.672673212506	-23.7951655024537	-2.04112001532465	
2555333333.33341	-18.5196366264714	-80.2322248495145	-10.0234663547075	-179.150172059568	-46.4633288131319	170.377255671243	-23.5803033896274	-2.14089168091531	
2555666666.66674	-18.5874975040695	-81.1393372622363	-10.0125909844205	178.576431160342	-46.4687547815327	167.93365397071	-23.3708566497601	-2.23966447418889	
2556000000.00007	-18.6444239954963	-81.9150520404469	-10.0177115399833	176.328382349847	-46.1286148612412	166.010688395534	-23.1427320578067	-2.40570306080271	
2556333333.33341	-18.7165605979522	-82.8077262480357	-10.018901708547	174.089100980166	-46.0810141510606	164.0480658037	-22.9646746443075	-2.51582842019248	
2556666666.66674	-18.7704725489778	-83.712971044518	-10.0240228258184	171.877023348558	-46.0648917570842	158.637358268673	-22.7463561752482	-2.71622832778949	
2557000000.00007	-18.8245429950678	-84.4954917077259	-10.0168990876376	169.637005009328	-46.466046232039	158.249123847531	-22.5623746344852	-2.93965467112101	
2557333333.33341	-18.8607626568771	-85.2458568500543	-10.0153271621975	167.386100995635	-46.1587340454049	155.891239759324	-22.3622195926959	-3.06252998215565	
2557666666.66674	-18.9037258679085	-86.1416595792445	-10.0127361076632	165.17249257607	-46.3690197282082	152.976049315016	-22.1986810606696	-3.3010563409422	
2558000000.00008	-18.9404446084054	-86.9449178196696	-10.0144779826648	162.864250861741	-46.2861646941859	151.408606621666	-22.0006536307037	-3.48146912490951	
2558333333.33341	-18.9607687059378	-87.7659946201623	-10.0166134907516	160.636595994993	-45.9485899210936	150.91986043383	-21.8384892140687	-3.65760019119885	
2558666666.66674	-18.9837075385608	-88.4334991793543	-10.0124436666281	158.396050620168	-46.448251242966	146.90348067193	-21.6742620101514	-3.90561338035476	
2559000000.00008	-19.0205146308208	-89.2739623055438	-10.0033211122403	156.14660667572	-46.3288230511671	144.981789757173	-21.5411919124527	-4.04059295253426	
2559333333.33341	-19.0268055008678	-90.0440786685113	-10.0151275408083	153.947592687694	-46.2495853055308	142.567512152319	-21.3904863936576	-4.25789420251618	
2559666666.66674	-19.0468143661817	-90.8469334648216	-10.0017193100987	151.671154062425	-46.1852864880019	140.130964352979	-21.2355236290443	-4.42805189343547	
2560000000.00008	-19.0462870606026	-91.504994953417	-10.00023513885	149.392610528309	-46.0687460629925	136.583512296204	-21.0970319973042	-4.69168937326192	
2560333333.33341	-19.0596650480387	-92.2362496082733	-9.99197155228657	147.184650924499	-46.381771792122	135.829566506987	-20.9541060329489	-4.89575686686616	
2560666666.66674	-19.0633627698068	-92.9205375291191	-9.98992584416872	144.891177534235	-46.1270183763005	131.768403581219	-20.843297008473	-5.12418736797656	
2561000000.00008	-19.0372222288643	-93.6557953154758	-9.98294400237531	142.632767176227	-46.135151657063	130.497486142561	-20.7254727755968	-5.35528830414609	
2561333333.33341	-19.0215774993238	-94.3736244121353	-9.98280240267886	140.343687033124	-46.0025521797751	127.786407094022	-20.6171752499684	-5.54767460384887	
2561666666.66674	-19.0106962285003	-95.07390180857	-9.97689059464963	138.129427847858	-46.0134802029467	127.632078871095	-20.5053596433435	-5.80672086165152	
2562000000.00008	-18.9758742107501	-95.8020806237798	-9.96884920450564	135.805390562448	-46.6268341943214	124.067182422599	-20.4009918090003	-5.90713982338522	
2562333333.33341	-18.9326019909909	-96.4874467700594	-9.96458101220799	133.526002894072	-46.3656664099899	123.544501519547	-20.2935543272938	-6.11884487604825	
2562666666.66674	-18.9158425101846	-97.2080616869922	-9.96979544746382	131.254922458952	-46.2999268500278	119.918843996801	-20.1989978542501	-6.32930190983346	
2563000000.00008	-18.8768604362499	-97.9037136474633	-9.95884636642791	128.909712163485	-46.3232002293059	115.668999590009	-20.1092048380274	-6.50226791853372	
2563333333.33341	-18.8405762694225	-98.5733471444397	-9.95383404816034	126.654605050123	-46.2065416487113	114.852971627002	-20.022423203561	-6.63219416782475	
2563666666.66674	-18.7746485096841	-99.1496326222516	-9.95268655291323	124.336656793263	-46.2602771806527	111.821619522039	-19.9543253293834	-6.75135815511023	
2564000000.00008	-18.7360910053229	-99.7534407974762	-9.94834181767342	122.047705330464	-46.2207212693414	110.319500326941	-19.8778018406754	-6.82951484801988	
2564333333.33341	-18.6804000363194	-100.510234380008	-9.94017871672957	119.763129237408	-46.2128423286222	106.585745481701	-19.8083125659848	-7.11827761727427	
2564666666.66675	-18.6256357746387	-101.168197101657	-9.93579115616714	117.378517639787	-46.3383331904607	105.623514441852	-19.7340410430103	-7.21994747242083	
2565000000.00008	-18.5678052775517	-101.733361295329	-9.93898349569033	115.07597466046	-46.0346282666313	103.526421455214	-19.6856603437143	-7.45635189498607	
2565333333.33341	-18.5236482705147	-102.388161021094	-9.93355820036719	112.766271415571	-46.1914628219284	101.160239825021	-19.644610159452	-7.45248030240509	
2565666666.66675	-18.4723443737265	-103.030666014691	-9.92652611878517	110.411247833036	-46.2509099678405	96.693372879924	-19.5982964764209	-7.7117553913785	
2566000000.00008	-18.3973005652733	-103.656551742305	-9.92828201986613	108.08432055784	-46.156394521993	95.9229398514955	-19.5481531136192	-7.64318136779987	
2566333333.33341	-18.3422266605083	-104.32762602138	-9.92438861700808	105.723054039234	-46.07892788414	94.8079234980687	-19.5006649369317	-7.73958362740111	
2566666666.66675	-18.2769916060223	-105.00449085756	-9.91516010582242	103.419442319753	-46.3008238910313	90.8526862570173	-19.4711036183641	-7.95211772383222	
2567000000.00008	-18.2186714815135	-105.692809845611	-9.91544419258216	101.038836337823	-46.1275156962763	91.1319857594547	-19.4498977238464	-8.04850154514351	
2567333333.33341	-18.1670208387406	-106.280804235376	-9.91424671438929	98.6987529311327	-45.8631800283934	87.781859927862	-19.4143129911948	-8.22929029621474	
2567666666.66675	-18.1090775604231	-107.040532105753	-9.91805107148298	96.3176063293656	-46.4332497111623	85.5484130137231	-19.408614324263	-8.3317958824646	
2568000000.00008	-18.0432131437679	-107.656370086724	-9.9157344407062	93.9528342204879	-46.1924424439045	82.8372010476675	-19.3932848849422	-8.26853385696923	
2568333333.33341	-17.9691217500238	-108.352142176518	-9.91586794672574	91.5811439484341	-46.2946231706039	83.3464937574063	-19.3882409276969	-8.35611403239378	
2568666666.66675	-17.8911910637889	-109.075138667138	-9.91530715919619	89.2171799249742	-46.1608794930071	78.042919928382	-19.3600310998835	-8.43537688342752	
2569000000.00008	-17.8403696401971	-109.72734865021	-9.91524762345647	86.8414668801928	-46.0428935816407	77.8022356131883	-19.3574857825138	-8.60218727231924	
2569333333.33341	-17.7667436141795	-110.487556846658	-9.91562125668623	84.4668067555152	-46.1315985591208	73.3851116460345	-19.3658470065113	-8.5160465466195	
2569666666.66675	-17.7144723738273	-111.18530895593	-9.91769466975378	82.1097273809373	-46.2789495739665	69.8267775933845	-19.3632856829638	-8.57621374635204	
2570000000.00008	-17.6524518801782	-111.959233150362	-9.92345786458204	79.7668689448151	-45.9169460773321	69.4100577639053	-19.3812383744957	-8.51420913731848	
2570333333.33341	-17.6187905933264	-112.601730704939	-9.91875794877686	77.3600907715892	-45.9960024176829	66.6329481136883	-19.3973110973974	-8.53270563251445	
2570666666.66675	-17.5398361759646	-113.269977545147	-9.9247819202444	74.9366686584731	-45.9902625675837	63.3245619335196	-19.4204777730103	-8.50195786068227	
2571000000.00008	-17.5150691952378	-114.04195331484	-9.9327853257967	72.5780464593637	-45.95112310863	61.3092317907259	-19.4273573087147	-8.70748303841755	
2571333333.33342	-17.4860326184521	-114.858551630337	-9.94084861239843	70.1824088812454	-46.1998132217166	58.7515901638675	-19.4427716367642	-8.59761157824552	
2571666666.66675	-17.4508517831076	-115.623941445318	-9.94867613412917	67.8260597779078	-46.1681670063302	56.5121327910003	-19.4877935188106	-8.72941131178526	
2572000000.00008	-17.4025525788541	-116.284699617929	-9.94537833688167	65.5186243570661	-45.9361152472309	55.2173818427935	-19.5093256569777	-8.72418966758046	
2572333333.33342	-17.3793460760828	-116.989183657308	-9.96025014626895	63.1566901664809	-46.0659585813009	51.9276461576183	-19.5350318171068	-8.68021473679584	
2572666666.66675	-17.3534385515071	-117.803920695986	-9.9635568470814	60.766570438526	-46.0370076361957	50.9610460823635	-19.589155771939	-8.54267844632921	
2573000000.00008	-17.3233763311392	-118.53037224626	-9.96801924306199	58.4430144675846	-46.3730570669352	48.6939222333675	-19.6117547258558	-8.59734952625673	
2573333333.33342	-17.3019355032057	-119.203320984771	-9.97673464331852	56.0900822183427	-46.1973704105135	46.2565608389841	-19.6675996348992	-8.65582765307251	
2573666666.66675	-17.2846136602141	-120.138617986226	-9.97933744572385	53.7639646387499	-46.0754919579591	44.1569737606198	-19.7165481176753	-8.64029755064393	
2574000000.00008	-17.27323775916	-120.85246635473	-9.99093810584702	51.4178522844146	-46.2368913920983	41.2908352933516	-19.765870066417	-8.53031863355716	
2574333333.33342	-17.2550622321617	-121.668900278029	-9.98840232223715	49.0689182906739	-46.548036426252	40.9623723970196	-19.7981552364462	-8.43158155754	
2574666666.66675	-17.2370551878443	-122.546890630238	-10.0000779183656	46.7956976797053	-46.223525764185	37.8565598565818	-19.8587200466148	-8.41457152347029	
2575000000.00008	-17.2259326284161	-123.163377608247	-10.0044136691419	44.444093076038	-46.1586215400971	33.0464652833246	-19.9399446803141	-8.39662958295809	
2575333333.33342	-17.2398320714662	-123.974120745222	-10.009572617876	42.1256980402104	-46.4210823716422	32.5001134276477	-20.0093182464375	-8.26406651983585	
2575666666.66675	-17.2314763148185	-124.843478556233	-10.0125840884839	39.8030396304063	-46.2926767162482	31.1410472916238	-20.0431803983971	-8.21554009070771	
2576000000.00008	-17.2467895906962	-125.63111420399	-10.0176341863202	37.5337162360032	-46.6241961397893	26.6793791926088	-20.1540029086749	-8.16450918173274	
2576333333.33342	-17.2310482937002	-126.451926646352	-10.021533930348	35.2178634148107	-46.0069015074414	27.1760924764114	-20.206973409592	-8.04550599725785	
2576666666.66675	-17.2876042558997	-127.365470592678	-10.0277270920178	32.9638792652878	-46.129133211597	22.7915295887403	-20.2914319523594	-7.99837683839555	
2577000000.00008	-17.3059510512119	-128.083159456916	-10.0284112285239	30.6961616418072	-46.2941931683316	19.0202390946957	-20.3747536361234	-8.0085880540831	
2577333333.33342	-17.3334135824384	-128.904644963235	-10.0370790894476	28.3899640634167	-46.2420848285622	17.7317327892915	-20.4333036778355	-7.89558440303411	
2577666666.66675	-17.3458443833421	-129.726815470531	-10.0380883361143	26.1237416226362	-46.2762623162612	15.6972076389037	-20.5254150611814	-7.84941099239528	
2578000000.00008	-17.3996244626898	-130.589371743617	-10.0365807829236	23.8541513280639	-46.3724088249006	11.9172165053539	-20.6451338881822	-7.79137703236411	
2578333333.33342	-17.4215394331786	-131.537780296284	-10.0398446268675	21.6134648714828	-46.5745346909132	10.4405203764255	-20.733248671624	-7.92412303040802	
2578666666.66675	-17.4894305165574	-132.345706533607	-10.0410400853688	19.3314153755302	-46.5104114858863	10.4363614078394	-20.8410396996619	-7.90541157451659	
2579000000.00009	-17.5359875295165	-133.162616807004	-10.0434603669533	17.1109713274915	-46.4631106484834	6.08312181844678	-20.9367827394206	-7.55381812244742	
2579333333.33342	-17.6049910779882	-134.04322207917	-10.0433558331299	14.8484830151867	-46.3619506893304	3.73040843137334	-21.0351411498082	-7.57475315385263	
2579666666.66675	-17.6793350110982	-134.98957458807	-10.0453311044188	12.5791766723271	-46.1300951085085	0.848178628908324	-21.160411559131	-7.44850008885329	
2580000000.00009	-17.7426790973356	-135.937022306748	-10.0422327350306	10.34850019058	-46.551591732756	-1.50049134880954	-21.2808120557597	-7.53539479428025	
2580333333.33342	-17.8235265858504	-136.902434887067	-10.0452677226964	8.06824762803963	-46.427789552614	-1.52598918504687	-21.4246872479426	-7.4317734692369	
2580666666.66675	-17.9050821401849	-137.732366396546	-10.0372161689254	5.88170238401203	-46.5975469011042	-4.35218613112116	-21.5386374905157	-7.52399472075607	
2581000000.00009	-17.9804996522754	-138.745146120363	-10.0408752574665	3.63143542223471	-46.4900719165259	-7.11100190940618	-21.6775529824604	-7.43478403851031	
2581333333.33342	-18.0557529916682	-139.566018954311	-10.0317431618803	1.37650143209429	-46.316095813905	-10.3034249418584	-21.8046157299527	-7.35713334343465	
2581666666.66675	-18.1397600353891	-140.556614578317	-10.032657518921	-0.849982008799478	-46.3944696635976	-13.7514593477483	-21.9523559446322	-7.35560342669734	
2582000000.00009	-18.2427706898038	-141.452772105291	-10.0431319851565	-3.10615364662109	-46.0167608000122	-15.0407451924133	-22.1063168474429	-7.26452788539564	
2582333333.33342	-18.3299420982517	-142.481508750228	-10.0349222240762	-5.37175881378055	-46.6731333387322	-16.4952116345999	-22.2698708520034	-7.32019628347708	
2582666666.66675	-18.4247777980771	-143.260757626601	-10.0240051488609	-7.60233192170213	-46.3646048064541	-16.6099351810813	-22.4216700139626	-7.39959521289856	
2583000000.00009	-18.5321507088504	-144.200460160455	-10.0262208191532	-9.81271015223242	-46.5344147603503	-18.7194871100075	-22.5968169897617	-7.31399709869692	
2583333333.33342	-18.6462917215991	-145.227603899531	-10.0209317079991	-12.093472113871	-46.559648156506	-22.124781437068	-22.7557366713444	-7.23156956015562	
2583666666.66675	-18.7766828453036	-146.074601751899	-10.0233131503672	-14.2781569632718	-46.7466932115003	-24.9586412755167	-22.9622929848176	-7.21852991796703	
2584000000.00009	-18.85624218833	-147.102527471647	-10.021720808935	-16.5788588573313	-46.3257259693834	-27.671259835086	-23.1180882027833	-7.0818467063375	
2584333333.33342	-18.9938335220142	-148.098014518668	-10.0053581648727	-18.856647092065	-46.4098633783288	-30.7083858480343	-23.3087998361277	-7.23780918134491	
2584666666.66675	-19.1053903393261	-149.009702473115	-10.0082332891352	-21.0690955837707	-46.6242009330882	-31.3513023223107	-23.5306931300842	-7.21646869250131	
2585000000.00009	-19.2200381262823	-150.089361936607	-10.0058163710615	-23.306722403051	-46.5137371706723	-35.5017911710494	-23.7184390563602	-7.06030850049836	
2585333333.33342	-19.3735676817302	-150.838167556135	-10.0012849099325	-25.5358871121119	-46.6800483584004	-36.3314313867302	-23.9168544206221	-7.17000904556411	
2585666666.66676	-19.5154635596426	-151.91676822949	-10.002178730872	-27.7696948169547	-46.4463143226746	-38.9367185911026	-24.13275084891	-7.1033698334236	
2586000000.00009	-19.6347315977904	-152.925011053659	-9.99498223304049	-30.029877073712	-46.5338802657828	-39.7996417966768	-24.344971732835	-7.05444933256665	
2586333333.33342	-19.7846847864449	-153.866997303156	-9.98741108352087	-32.2235687410017	-46.3797197870739	-42.7108313345436	-24.542445072912	-6.90331981088625	
2586666666.66676	-19.9055572695838	-154.761222385561	-10.0005147080906	-34.5215959440022	-46.6266292807547	-46.3351392231697	-24.7997230630621	-7.01036340969538	
2587000000.00009	-20.0451979165917	-155.878465385398	-9.98629646157956	-36.7671328636969	-46.7172257741376	-46.4318504126054	-25.0172716203494	-7.00601995010207	
2587333333.33342	-20.1719548805111	-156.846094253044	-9.98299551013782	-39.0044648816023	-46.7143380220778	-50.0088607361558	-25.3116108298034	-6.85196914742594	
2587666666.66676	-20.3190419163713	-157.917573269905	-9.9828116019318	-41.2767734220874	-46.6704100161566	-51.1346217805476	-25.5574093988187	-6.77100002810373	
2588000000.00009	-20.4591555775851	-158.752395834406	-9.97807746264496	-43.5288226945448	-46.1523785606138	-54.5375486374837	-25.8313557771661	-6.56041447007276	
2588333333.33342	-20.5967239322967	-159.855099590443	-9.97439569496888	-45.7853979647296	-46.3663662351918	-56.5384386064278	-26.0611394376209	-6.50386685469379	
2588666666.66676	-20.7349147939546	-160.603813691968	-9.97480223901548	-48.0496049772269	-46.2547142797358	-58.7868793893069	-26.3163221876373	-6.15179961458301	
2589000000.00009	-20.8691731093338	-161.683745555878	-9.97159299871491	-50.2869397586329	-46.6851735095004	-59.4751624624313	-26.5834881590962	-6.2127231361301	
2589333333.33342	-21.0056102913837	-162.718261379605	-9.96420093962447	-52.5608716250157	-46.6984360774843	-63.2052181972645	-26.8906418540397	-5.96626039161556	
2589666666.66676	-21.1508334975783	-163.718871361769	-9.96600121963538	-54.8144326415634	-46.5653448905003	-64.7299818986232	-27.1764706428545	-5.80350278464311	
2590000000.00009	-21.2706913055268	-164.64237116359	-9.95988634564038	-57.0979151976992	-46.2978810575776	-65.8336107110904	-27.4509663941448	-5.41834227873023	
2590333333.33342	-21.4044306674532	-165.830494445013	-9.96177139826933	-59.3543982672204	-46.1804489240502	-70.5757766667038	-27.7633640795587	-5.21216705707523	
2590666666.66676	-21.5276019643893	-166.822187499357	-9.95663801118869	-61.6094292547697	-46.6868224297516	-71.6810582857515	-28.0748354198002	-4.57659074752355	
2591000000.00009	-21.6658525493962	-167.86889910154	-9.95751104102592	-63.9211218073367	-46.5262243693277	-74.424071603231	-28.3996618728338	-4.66956144498539	
2591333333.33342	-21.798654911082	-169.016536940789	-9.94690039736669	-66.1578700041698	-46.2992599349865	-75.0329862483911	-28.6408801918616	-4.04228639832355	
2591666666.66676	-21.9103061440453	-170.273181641725	-9.94779061886271	-68.484750276669	-46.3009196350456	-79.825023385224	-29.002265377033	-3.45967601430066	
2592000000.00009	-22.0407597623687	-171.360189604257	-9.95124537095681	-70.7471708931685	-46.5416456317169	-80.7642733391322	-29.3954934355723	-3.2917010082792	
2592333333.33343	-22.1218310365773	-172.705089920845	-9.94759458408734	-73.0443887007219	-46.5342482558295	-83.1290241135326	-29.6995951477673	-2.81474938385596	
2592666666.66676	-22.2295275299866	-173.975557263606	-9.94329486424432	-75.3489539965398	-46.4833851615212	-84.1639509460811	-30.0177757751508	-1.96296469692397	
2593000000.00009	-22.3008996184724	-175.153159938097	-9.93788762792234	-77.6241863947129	-46.29570017631	-88.9111050408509	-30.2990346086679	-1.19438223985332	
2593333333.33343	-22.3889088596519	-176.61297348132	-9.93882531106114	-79.9160397779285	-46.0497772958903	-91.5990942447761	-30.6429152632557	-0.644612995579818	
2593666666.66676	-22.4846759325946	-177.953485551322	-9.93406151636796	-82.2182519754166	-46.2089715094162	-91.9556111124595	-31.0078450096816	0.222889677011383	
2594000000.00009	-22.553134824163	-179.218653124151	-9.93441664207239	-84.5238372057376	-46.3753664161278	-94.7324628756367	-31.3086569092339	1.17832296020072	
2594333333.33343	-22.5905647213818	179.34745863944	-9.9328304362018	-86.7995667063562	-46.2449518044934	-96.7594369149568	-31.6081985131176	2.27491170741994	
2594666666.66676	-22.6593357447902	177.80868670093	-9.93052446562274	-89.1236876213948	-46.0009541544142	-98.2870507650815	-31.8934171568659	3.12127477530025	
2595000000.00009	-22.6858070292375	176.562424313341	-9.93244339622617	-91.4227459343439	-46.2999989894833	-102.615722256014	-32.1774051089291	4.61236060581406	
2595333333.33343	-22.7154479243675	174.791630882293	-9.9271373571281	-93.706619928212	-46.4667363626488	-104.464208968009	-32.3906010772882	5.85329466465028	
2595666666.66676	-22.7416355906237	173.261184401528	-9.92701964547382	-95.9895044998992	-46.2753527337697	-105.615138699138	-32.7207321525452	7.0546683077586	
2596000000.00009	-22.7463384163688	171.816479617565	-9.92025452810234	-98.3229735079685	-46.3793516192181	-108.973856795888	-32.8999478351064	8.4467412884479	
2596333333.33343	-22.7510225323761	170.331032770702	-9.92993749934702	-100.622009881245	-46.3158249409137	-108.542653964158	-33.142017817022	9.56501276394643	
2596666666.66676	-22.7098172320988	168.377980979884	-9.91470823926676	-102.889178957892	-46.2119285747376	-112.070642455886	-33.2923784557386	11.0595161178317	
2597000000.00009	-22.6667808824827	166.832890130286	-9.91534327737776	-105.206010200132	-46.3142173948825	-114.972909718985	-33.3586061338772	12.7388559744456	
2597333333.33343	-22.6453476451245	165.076205090432	-9.9238960707348	-107.524241006744	-46.2720851713483	-116.891044430496	-33.5451482757631	14.2743219233974	
2597666666.66676	-22.5791170527706	163.371926951835	-9.92026933711472	-109.845171080725	-46.1087126255317	-119.427302304662	-33.5813732345932	15.8529871332624	
2598000000.00009	-22.5323634023101	161.633950163528	-9.91864451124682	-112.167113401695	-46.0644949757572	-122.483404666184	-33.7104910257106	16.9341764728348	
2598333333.33343	-22.4502969353304	159.807402147941	-9.92502148642247	-114.463369703361	-46.1741431811735	-125.394825156321	-33.7330591773403	18.1721487478744	
2598666666.66676	-22.3491733746087	157.917913904453	-9.92250567816503	-116.833288546174	-46.4377387619354	-126.922225071617	-33.7390433412274	19.2337571446482	
2599000000.00009	-22.2418355676253	156.163147726221	-9.91274094518478	-119.089647318775	-46.211455140153	-129.327565672196	-33.6921980248561	20.6179969944494	
2599333333.33343	-22.1423120719348	154.568271660711	-9.92061088300735	-121.410046858341	-46.1730439860601	-130.268463025257	-33.5631728577107	21.6309943767197	
2599666666.66676	-22.0286599303387	152.679762170388	-9.92627088468337	-123.67804129918	-46.1262933303801	-134.183940762507	-33.5304004274338	22.1861843352003	
2600000000.0001	-21.8885692498331	150.913059405498	-9.93164991830609	-126.104800539216	-46.0935882005367	-134.928215834366	-33.3374263636004	23.2019899369703	
