!Agilent N9923A: A.05.34
!Date: Friday, 25 March 2016 20:55:14
!Model: N9923A
!Serial: MY51491690
!GPS Latitude: 
!GPS Longitude: 
!GPS TimeStamp: 0001-01-01 00:00:00Z
!GPS Seconds Since Last Read: 0
!CHECKSUM:1574772055
!Correction: S11(ON U*)S21(ON U*)S12(ON U*)S22(ON U*)
!S2P File: Measurements:S11,S21,S12,S22:
# Hz S DB R 50
2400000000	-16.3925305393465	179.9291052275	-9.53727285294834	165.307617398858	-46.3006408953846	150.356292178216	-22.4123483093251	10.9423918350324	
2400333333.33333	-16.3955374833167	178.944799806808	-9.53355464713534	162.984321095267	-46.3500421583747	149.036528871053	-22.5766179512997	11.1592316516293	
2400666666.66667	-16.4228038124202	177.9120367235	-9.53030827946209	160.727794580792	-46.5179358187941	148.37197294553	-22.7660111614263	11.3359925909705	
2401000000	-16.4394818249668	176.908894017197	-9.52536068811987	158.404317834438	-46.5045911514188	145.565682248192	-22.969655569837	11.6321964270167	
2401333333.33333	-16.479518379828	175.671865965233	-9.52671293666755	156.073771416947	-46.4267910259276	143.499052381773	-23.203027985785	12.2814708129448	
2401666666.66667	-16.4954479959824	174.494314903051	-9.52508508132272	153.73201382471	-46.4166758343333	142.97228495341	-23.3844955812993	12.7803150522264	
2402000000	-16.5454062598373	173.387677375609	-9.51808936041478	151.35172529185	-46.6521683188077	139.499098255323	-23.6009913715673	13.1301526761824	
2402333333.33333	-16.579210673764	172.265225713798	-9.51746498430598	149.060566192865	-46.4624566939111	137.14176781548	-23.8408528653606	13.6713593688158	
2402666666.66667	-16.6165714820843	171.022725923726	-9.51643470295473	146.73861838365	-46.3853389103309	131.497957462503	-24.0537932907741	14.198937453965	
2403000000	-16.6475651392896	169.851573058813	-9.51738052521403	144.395054870149	-46.3761669793357	131.041905819175	-24.2908956380309	14.8239166390375	
2403333333.33333	-16.6633778072775	168.516725467696	-9.5125187829087	142.062587934559	-46.5359896662936	127.183212680016	-24.5071851596231	15.4132458492277	
2403666666.66667	-16.6910847604825	167.262796114567	-9.51836984487603	139.750231031541	-46.2359141487172	124.543912778719	-24.7441627682737	16.0008826415439	
2404000000	-16.7219463462047	166.126227598279	-9.51792434042547	137.437862741738	-46.6395474557685	123.623145568345	-24.9806083077921	16.4966925967856	
2404333333.33334	-16.7666360663181	164.801867543258	-9.51336587571418	135.104746235916	-46.389002449981	121.268622015855	-25.2600843885557	17.2583594348785	
2404666666.66667	-16.7923121501484	163.469965315719	-9.50667500328949	132.765725884481	-46.464550180284	119.13583177049	-25.486858124272	18.0137647664375	
2405000000	-16.8134207593517	162.231044998863	-9.51633317698419	130.488575491543	-46.5624013549144	118.973946639395	-25.7169710781486	18.8798601955973	
2405333333.33334	-16.8328552193459	160.996697624148	-9.51400745182682	128.127628593756	-46.2771739925697	113.16158421267	-25.9709026020062	19.5405126626556	
2405666666.66667	-16.8496056846817	159.619525185012	-9.52093249903941	125.834611062226	-46.4823227146363	112.861551071833	-26.2534272328852	20.7830380798878	
2406000000	-16.880630274225	158.358703151426	-9.51637714754677	123.518487947369	-46.5932100311981	110.090578616463	-26.4897872180299	21.5817154734549	
2406333333.33334	-16.8952467996741	156.989125145329	-9.51672354243376	121.221112445945	-46.6967600492115	110.343834406987	-26.7310790884345	22.6412844975793	
2406666666.66667	-16.9108229579332	155.667344912006	-9.51429995224133	118.950566043418	-46.4581639306968	106.384525074596	-27.0172405471141	23.696112867551	
2407000000	-16.9394450091463	154.412424628311	-9.52126010565649	116.5996844921	-46.485082153359	104.188591577692	-27.2521360402489	24.9595553163584	
2407333333.33334	-16.9295001478786	153.188369632748	-9.52399480033862	114.328304203431	-46.6476431945226	100.90458879332	-27.5009734725601	26.2776476867341	
2407666666.66667	-16.9319174351625	151.701199934083	-9.52689305625513	112.011842735916	-46.6243970227855	99.709335373487	-27.733832947992	27.1315861398919	
2408000000	-16.9324561754756	150.416073927932	-9.52762087329417	109.710677940374	-46.6086082691091	96.5228895689008	-27.985954266819	28.8138828157038	
2408333333.33334	-16.9436463456413	149.07978360899	-9.53810201083265	107.451099533769	-46.6793021012554	95.2314033531182	-28.2477466749035	29.8812334729031	
2408666666.66667	-16.9350687422566	147.859116587068	-9.54194326263884	105.145153125641	-46.6516932197145	92.8972387579564	-28.4206449928771	31.3616647210412	
2409000000	-16.9289538132274	146.594887128027	-9.54509550785338	102.854123082992	-46.5936957268246	90.1891945427223	-28.6316997665988	33.0368763719457	
2409333333.33334	-16.9190426601783	145.221769819973	-9.54830114914914	100.581186232545	-46.422527636981	87.4866401494716	-28.8696983341418	34.5574953897473	
2409666666.66667	-16.8980214436399	144.027933067278	-9.55525699147196	98.2988574828529	-46.8030383923331	86.3589531787212	-29.007490399629	35.9905358664476	
2410000000	-16.8820992887571	142.812414279039	-9.56366433639968	96.00935724732	-46.5073856174423	85.0093610352649	-29.1694446633726	37.5351789399197	
2410333333.33334	-16.86859357174	141.529422447376	-9.56693649831217	93.7605841222587	-46.4015998554945	80.4929884021287	-29.3160916554855	39.306879426489	
2410666666.66667	-16.849811800489	140.270085925553	-9.57569001657157	91.495041180915	-46.5291450814505	77.5255019284181	-29.4967794397914	40.5859988527557	
2411000000.00001	-16.8192578144508	139.09663967186	-9.58105776433734	89.1922972362508	-46.4972516174214	76.0730015340894	-29.6053191663545	42.2213727860246	
2411333333.33334	-16.7894798238731	137.87850399422	-9.59376735384828	86.9417111408707	-46.640325180812	73.4191388291446	-29.7620490158438	43.9761947870834	
2411666666.66667	-16.7448980788376	136.695067931545	-9.60011085172387	84.6780361743968	-46.5102637964661	72.9057291695203	-29.7307604615298	45.3470668122277	
2412000000.00001	-16.7128741479977	135.460768710294	-9.60701827751769	82.3956510867392	-46.7880385921028	68.6256198711119	-29.8512722427623	46.7883974782663	
2412333333.33334	-16.6897520239866	134.130065231592	-9.62182096062555	80.1605315109129	-46.6195713785056	66.4027563360802	-29.8817289532568	48.2570777572437	
2412666666.66667	-16.6272213386026	132.945903319644	-9.62633183387411	77.909095039794	-46.3070499870497	65.5325328120003	-29.9537612088589	49.402394385288	
2413000000.00001	-16.5844290465799	131.705043084004	-9.63666989419807	75.6722402880689	-46.894977378266	61.2676714223299	-29.993742576162	50.5707221220585	
2413333333.33334	-16.5067333953674	130.449845574606	-9.64138694824936	73.3954685719142	-46.5634615430021	60.4529614584112	-29.9746323523782	51.5934907493891	
2413666666.66667	-16.4633242720037	129.301113247411	-9.64986601862579	71.1556326649777	-46.4524483053595	58.7274102304386	-29.9690048048308	52.5720096475916	
2414000000.00001	-16.3987725036117	128.244568438834	-9.65843547528191	68.9101450914794	-46.6577325993385	54.0565835163154	-29.9338069485141	53.7274951234045	
2414333333.33334	-16.3369118217332	127.050848425509	-9.67188278466858	66.6608474841709	-46.5916325358736	53.8717097782655	-29.934968322167	54.4244470324788	
2414666666.66667	-16.2632386052827	125.98026971534	-9.68353880348625	64.425565489963	-46.5913285619494	50.7804112924042	-29.8855029163773	54.7822161751038	
2415000000.00001	-16.2078922954534	124.81392064131	-9.69495624240484	62.1924292340614	-46.2900426648379	47.9311097467469	-29.7938694208176	55.2870726397166	
2415333333.33334	-16.1320931122136	123.877416827701	-9.700447457669	59.9263965113204	-46.2740309668612	45.707061243382	-29.7829680436757	55.5509983024773	
2415666666.66667	-16.0627799690398	122.826916804232	-9.71195649167748	57.716676530011	-46.7720684028571	44.8177020259379	-29.7014296226692	55.8427193479375	
2416000000.00001	-15.9919512992558	121.84299826447	-9.7241502272788	55.4258289698805	-46.704412495572	41.9476330067907	-29.592208443034	56.0311447998971	
2416333333.33334	-15.9123955835573	120.908013006024	-9.7365888444038	53.2084594466936	-46.5756767792055	39.7634662606008	-29.561592952317	56.1743638457849	
2416666666.66667	-15.8496569682294	119.979518613067	-9.74230249650062	50.9871384073268	-46.3216014717852	38.6021472473231	-29.4403348335535	55.5440521593683	
2417000000.00001	-15.7598150692761	118.960970876702	-9.75235830767685	48.7631211105869	-46.6796665013447	36.0669986318761	-29.3219598147713	55.5238526293357	
2417333333.33334	-15.684018933542	118.132915478077	-9.76361082491337	46.4882618013917	-46.47913498063	32.5937255143987	-29.2306901631449	55.1665719036458	
2417666666.66668	-15.6151935069491	117.206452009002	-9.77737113422261	44.2814337776676	-46.7469133285534	31.4015178128189	-29.1333853111514	54.4468276800961	
2418000000.00001	-15.5329853100756	116.362017880975	-9.7845358158925	42.0692208114183	-46.3836148188637	29.2904521806054	-29.0022364224672	54.0006433007075	
2418333333.33334	-15.4603796799125	115.459468266877	-9.79795815387575	39.8198534584341	-46.5826726533738	25.2967527504411	-28.9167069015495	52.9012014394462	
2418666666.66668	-15.3771963516798	114.625361743791	-9.81180856489261	37.6053674645524	-46.5706967878851	22.7287025819024	-28.771851834038	52.0641831766053	
2419000000.00001	-15.2849168096003	113.778659521766	-9.81556346339736	35.3255083137105	-46.7238554589189	22.1209699771307	-28.6658427097633	51.4442004006781	
2419333333.33334	-15.2062934469389	112.948000809473	-9.82805004216302	33.1341585405802	-46.5121825817985	18.9315905106452	-28.5677652155519	50.06891237884	
2419666666.66668	-15.1231305145269	112.142221607975	-9.8349335544437	30.8154585416122	-46.6189405584971	17.4149153305402	-28.4515066108062	48.8937837088942	
2420000000.00001	-15.0484550499837	111.380014729319	-9.83733669650705	28.6090174013635	-46.7152068521489	14.4219196882749	-28.277211064681	47.9049512187447	
2420333333.33334	-14.9716683138452	110.69065016351	-9.84726155413961	26.3426424721332	-46.8340276739162	13.2079659427714	-28.1634466410777	46.7576338181549	
2420666666.66668	-14.8872859385155	109.883537346802	-9.8561400848377	24.099423680744	-47.0573059467335	7.42619475478019	-27.9803671873017	45.1597990081313	
2421000000.00001	-14.8155615636787	109.13359439008	-9.87158272635886	21.8970344381797	-46.4912754170415	7.76277186348075	-27.8643801732644	43.6801679618677	
2421333333.33334	-14.7507090486639	108.500105032509	-9.87790400845823	19.6127407915325	-46.6269650458561	4.86782323172904	-27.6464451801893	42.432331759356	
2421666666.66668	-14.6706656643374	107.799598964496	-9.88842914133975	17.3541351444638	-46.5766064861934	2.80651340389734	-27.5347513990398	40.8267504459597	
2422000000.00001	-14.5994788282653	107.079149911741	-9.88909853142323	15.129878940876	-46.6595713013861	-0.426576729348899	-27.3942058799526	39.5629304856542	
2422333333.33334	-14.5260693310333	106.475355186967	-9.89676261566966	12.8688406428371	-46.6347707148471	-3.04476541946798	-27.2084356426825	37.842170152475	
2422666666.66668	-14.4589901796225	105.791880278495	-9.91232840628404	10.6110644729939	-46.7176550267497	-3.25287642084622	-26.996604158046	36.1938068447486	
2423000000.00001	-14.3895373785961	105.201059627237	-9.91551228925147	8.33927824459984	-46.4810778053186	-5.85520257505515	-26.8432911259649	34.7021656921835	
2423333333.33334	-14.3244616236137	104.58403215647	-9.91907193960114	6.06834627252971	-46.459511799221	-7.89506838778555	-26.6648666078479	33.1270092180773	
2423666666.66668	-14.2680906143397	104.015924499891	-9.92920080855927	3.77818528327225	-46.5153981222157	-9.80997943975956	-26.4728909654313	31.5577222678347	
2424000000.00001	-14.205238417782	103.485407981164	-9.9360838041655	1.54023222997992	-46.51739772936	-12.9641590467471	-26.314025121025	30.1040156298117	
2424333333.33334	-14.1413699630833	102.906580849397	-9.94528485950239	-0.731497790744115	-46.7855554207769	-15.465062976439	-26.0955490518181	28.5425864121477	
2424666666.66668	-14.0873561891555	102.373206843143	-9.94756077517032	-2.98780005958166	-46.4694172613011	-17.7862719206128	-25.9133571922374	26.8190091854842	
2425000000.00001	-14.0337590287676	101.835509027974	-9.95203817074396	-5.27965661585749	-46.726456038075	-19.131165357347	-25.6813626625012	25.4854926498961	
2425333333.33335	-13.9780656898234	101.37942304306	-9.95785721664178	-7.55589096686827	-46.7499087505488	-22.7641987169338	-25.47214699938	23.8913953203848	
2425666666.66668	-13.9290658966075	100.866274520517	-9.96977561854692	-9.8208602186705	-46.4793733552683	-24.061596220463	-25.2894405929836	22.5742710066921	
2426000000.00001	-13.8742852614958	100.350415549646	-9.97375736876777	-12.133614440979	-46.9412793982892	-27.241884217237	-25.0815355640978	20.8729603840275	
2426333333.33335	-13.8217342392397	99.9127343760246	-9.97560652068578	-14.4012910124828	-46.8774677588744	-27.6170044489353	-24.8895081760646	19.494505561693	
2426666666.66668	-13.7824916252449	99.4844569557249	-9.98182523595877	-16.6529657784568	-46.7423950657603	-30.2735973300997	-24.6866109335186	18.1199299943948	
2427000000.00001	-13.7411896719762	99.0219606287831	-9.98638404404144	-18.9803203776169	-46.4985995230353	-32.8617194168449	-24.4992964543778	16.7045398827631	
2427333333.33335	-13.6971259521261	98.6080671029186	-9.99022867135653	-21.2489974234552	-46.4406585593304	-35.699706041854	-24.2867334064296	15.4917916560809	
2427666666.66668	-13.6571726967834	98.2294536306438	-9.99601480848287	-23.5123977515357	-46.7737708452257	-37.9853442203777	-24.1134384855229	14.284677642263	
2428000000.00001	-13.6237843973093	97.7457861089769	-10.005145049996	-25.8148794931583	-46.6391896377274	-39.9962764572486	-23.9066242126135	13.0649438568515	
2428333333.33335	-13.5796313294389	97.4325929534663	-10.0139873821226	-28.1212164513969	-46.9541948342462	-41.9021222994424	-23.7150785492708	11.6506627796695	
2428666666.66668	-13.5406605954226	96.9830149922076	-10.0199340263119	-30.3966389841495	-46.7038825779542	-44.7184177941511	-23.5475717287213	10.631044045954	
2429000000.00001	-13.5054969898763	96.6405570838456	-10.0260527587638	-32.6321736576492	-46.9938819712061	-45.7885824483653	-23.3633896252423	9.40177188914369	
2429333333.33335	-13.4770635370941	96.2550702492594	-10.0274972774293	-34.9392250807749	-46.7886140968277	-46.4602060226946	-23.1766267873482	8.24682687098865	
2429666666.66668	-13.4396607385669	95.8972074664602	-10.0293269584577	-37.2365186154426	-46.9830049754716	-51.764075420652	-23.0071298917137	7.10888537112806	
2430000000.00001	-13.4050705928906	95.4926774938642	-10.0420163481695	-39.486823831326	-46.8847564763481	-52.5786050064701	-22.8540860304208	6.11143533714711	
2430333333.33335	-13.3828530967883	95.181632917408	-10.0497133708356	-41.7179527435427	-46.9054402174479	-54.6183040069728	-22.7166734781776	5.05900999075007	
2430666666.66668	-13.3540970155851	94.8239265770937	-10.0536425628226	-44.0409520554421	-46.7921502276799	-58.4777604280249	-22.5365016002004	4.10849770009862	
2431000000.00001	-13.3206585862613	94.5139897531541	-10.0620449690664	-46.2851705038922	-47.0219522838607	-59.2874599000031	-22.4204036119028	3.16564165176155	
2431333333.33335	-13.3091655669212	94.2407804435852	-10.0740369299945	-48.5071775777443	-46.7861461199647	-60.8671365049698	-22.22534849297	2.29381763931467	
2431666666.66668	-13.2706033342538	93.9600326334512	-10.0685884905677	-50.7545663455264	-47.0753974903198	-64.1848031655912	-22.1118607878784	1.29178094067281	
2432000000.00002	-13.2590486549664	93.6960121894812	-10.0738456553649	-53.0096301313036	-46.8965263703362	-66.8922788584414	-21.9448880575852	0.505233593306053	
2432333333.33335	-13.2318102701533	93.3971820139769	-10.0749683480639	-55.2306804158047	-46.8883174942738	-70.61340551281	-21.8211221002768	-0.179259749997404	
2432666666.66668	-13.2283623130455	93.1035729875396	-10.081530785199	-57.4867006273147	-47.1275076042293	-70.1715245067569	-21.7020204093448	-1.13531493824677	
2433000000.00002	-13.1942206142462	92.8546643529095	-10.0891378948023	-59.7360243691974	-46.8054463561635	-73.542066363997	-21.5703501698942	-1.80147980422245	
2433333333.33335	-13.1873619290991	92.5402904089326	-10.0957675914106	-61.970215741892	-47.0782427169918	-75.4844133001378	-21.451575000887	-2.52821203490478	
2433666666.66668	-13.1711271860862	92.2636273558832	-10.0948802694883	-64.222439762382	-46.8269176421563	-75.5129496153647	-21.366019988082	-3.13733817392169	
2434000000.00002	-13.1633518427085	91.993223323297	-10.0964410269029	-66.4124464031701	-47.0799694785351	-80.6015886996367	-21.2478100644893	-3.88873771631249	
2434333333.33335	-13.1444627295056	91.6562159060968	-10.1002276903531	-68.6798891324971	-46.9196787443372	-82.1062097514119	-21.1355217960264	-4.44684919522417	
2434666666.66668	-13.1352568468193	91.3436612521212	-10.101560639809	-70.902122394236	-46.8793595447959	-85.8232394130707	-21.0415115049825	-5.07447469797292	
2435000000.00002	-13.1117754585984	91.0835672971491	-10.1103530612042	-73.1155994475579	-47.0502544174497	-87.6745400342018	-20.9794295176529	-5.60364374986092	
2435333333.33335	-13.1013997004659	90.7901181076043	-10.1068272995427	-75.3263613608294	-46.7404265306459	-88.4832644065225	-20.8964935506681	-6.07384157168357	
2435666666.66668	-13.1079597494979	90.3626245811948	-10.1086509183527	-77.5982100129686	-47.1044837928613	-91.4838971923546	-20.8402708577228	-6.55365439480603	
2436000000.00002	-13.0911234363532	90.0120651476416	-10.1099621034246	-79.7801270010568	-47.1444174758767	-91.1658852321086	-20.7746950608585	-6.96290333222264	
2436333333.33335	-13.0880490805513	89.6863112879949	-10.108536419718	-82.0076607752147	-46.7926220610077	-94.1889645587146	-20.7190761462037	-7.47055527210569	
2436666666.66668	-13.0860174334387	89.4069785073475	-10.1077352245199	-84.2088148041201	-47.0601119695825	-98.0985997052704	-20.6592969258077	-7.82932143023704	
2437000000.00002	-13.067587138185	89.0901234580958	-10.1108098651359	-86.457137555207	-46.7464435105672	-99.5522764739948	-20.6150404625139	-8.2698302693486	
2437333333.33335	-13.0656317882547	88.7162084305935	-10.1120181029117	-88.6852895501809	-47.0688711828663	-101.22498336587	-20.5905573341446	-8.57682380228426	
2437666666.66668	-13.0638488480543	88.2696410638924	-10.1085850792509	-90.8664573511391	-47.2054557874008	-105.318866359513	-20.5670238771722	-8.91997713865257	
2438000000.00002	-13.0648003137878	87.9522914456639	-10.1009539012668	-93.1162653695633	-46.6666845495806	-106.266124496309	-20.5183950880066	-9.20388080723693	
2438333333.33335	-13.0630297178544	87.5413109236628	-10.1068205778437	-95.3059047673731	-46.9580266636065	-107.698968062449	-20.5347255303217	-9.49277150450374	
2438666666.66669	-13.0620394371151	87.2051549070371	-10.1038803493725	-97.5219674548505	-46.9166585988841	-110.138362676039	-20.5004291363043	-9.74731064253704	
2439000000.00002	-13.0567505342955	86.8813743569096	-10.1005563574176	-99.7523348123164	-46.8983620463919	-115.335271521078	-20.5167244743556	-9.7359014501826	
2439333333.33335	-13.0572925658666	86.3984631811142	-10.0944532973264	-101.926907595892	-46.8597245323238	-115.575126321876	-20.526188056117	-9.95894981909819	
2439666666.66669	-13.0536899221602	86.0818461907352	-10.0915877533851	-104.164427786416	-47.1237113186914	-116.440293254197	-20.5212607085455	-10.121787924327	
2440000000.00002	-13.0710530447614	85.737725030716	-10.0851153174835	-106.378398846247	-46.7507593035003	-120.508218126644	-20.5352925383868	-10.0222273259873	
2440333333.33335	-13.0659455363165	85.2636763686467	-10.0771264171004	-108.555886390562	-46.9643087912584	-122.700475010458	-20.5629275884134	-10.1597927217993	
2440666666.66669	-13.0687229977306	84.948301298369	-10.0727966446591	-110.799429852438	-47.1061697997348	-123.424002484449	-20.570693123612	-10.1289803083705	
2441000000.00002	-13.0799816730828	84.5478580676824	-10.0702119643827	-113.006715832935	-47.0471836995725	-126.592761756402	-20.599379836506	-10.3377890967316	
2441333333.33335	-13.0955190433295	84.1217316123218	-10.0639465368507	-115.226254057267	-47.1399886335143	-128.173927322356	-20.6381009979944	-10.0819653450728	
2441666666.66669	-13.0894033978834	83.6108491763909	-10.0551679052431	-117.454301952703	-46.8887260682619	-132.151993711409	-20.6767701844927	-10.0551494155515	
2442000000.00002	-13.10604819229	83.3081461903299	-10.0535503176786	-119.610017708617	-46.909331684748	-132.140363801861	-20.7211294121834	-9.69348912585462	
2442333333.33335	-13.1223110025045	82.9797539233168	-10.043244731789	-121.916706026052	-46.7962217601102	-136.941949743159	-20.7854356762285	-9.50028899569546	
2442666666.66669	-13.1475208398063	82.5517601720551	-10.0304019375583	-124.11183857416	-47.1416774442201	-136.656649256781	-20.8260918018087	-9.16863886631311	
2443000000.00002	-13.1626257530548	82.2244840086834	-10.0231429206982	-126.332924398719	-47.0724857844345	-139.814720999221	-20.8751316928921	-8.78641140846171	
2443333333.33335	-13.1773919357953	81.8235862125248	-10.0176506833724	-128.593718598139	-46.8264995712385	-141.487864546829	-20.9441472567091	-8.38051966921916	
2443666666.66669	-13.2222001928697	81.4480987032601	-10.0140429332873	-130.776936772455	-46.8368974631272	-141.88035452835	-21.0083775368564	-8.07981853861773	
2444000000.00002	-13.2339035531899	81.078552548194	-9.99982730043457	-133.032279952835	-46.7499717496472	-146.099876931186	-21.0551742610057	-7.5095987257238	
2444333333.33335	-13.263264914154	80.6374929922619	-9.99326624582656	-135.26390063936	-46.9467113679582	-149.058596613725	-21.1529598281465	-6.78433820647933	
2444666666.66669	-13.2911866693361	80.1400112224487	-9.98827517253253	-137.560783130629	-47.0228466817401	-149.762056957861	-21.2279684535274	-6.17378308044339	
2445000000.00002	-13.298160477229	79.8002870708683	-9.98142458211306	-139.810816117095	-46.8019476362459	-153.577310633578	-21.2915698776328	-5.62884451216359	
2445333333.33335	-13.3387519580541	79.3895300964526	-9.96870859548776	-142.061995048637	-47.1085020551648	-154.557097475196	-21.3577198275355	-4.68182622324768	
2445666666.66669	-13.3571371423491	78.9787291555837	-9.95922430926229	-144.278908274843	-47.0494724201858	-156.059789098652	-21.4154550517249	-4.01047166413374	
2446000000.00002	-13.3900201756729	78.5885139621722	-9.94519315746216	-146.558952100742	-46.8981224496562	-160.45968471243	-21.5022762820883	-3.1340164982129	
2446333333.33336	-13.4120675139415	78.1306273112865	-9.93942170966383	-148.833870738359	-46.7397445017595	-161.074468862976	-21.5675709458553	-2.16691632434659	
2446666666.66669	-13.4309344629727	77.6863424854597	-9.94324638336954	-151.104624253507	-46.7681982711878	-165.559176179246	-21.6538092341065	-1.29952766447897	
2447000000.00002	-13.4622985316332	77.1852368609184	-9.92707647273474	-153.376202170967	-46.7712849486171	-166.727703511994	-21.7136450233387	-0.244870968539855	
2447333333.33336	-13.4918267980644	76.7087229336811	-9.91699826077252	-155.607821643969	-47.0526249710173	-166.782165642701	-21.7641345584714	0.903027652733453	
2447666666.66669	-13.5219116022475	76.2282391824993	-9.91064976434568	-157.857197492419	-46.6216457230807	-170.48514470891	-21.8215655793722	2.04772062263638	
2448000000.00002	-13.5625493750611	75.76935788984	-9.90128640177143	-160.113128042003	-46.8912194589665	-172.734905607048	-21.8708845805744	3.16449976715836	
2448333333.33336	-13.5885391482554	75.3279763029767	-9.8961496117527	-162.407900722985	-46.759517108041	-175.099386591796	-21.8971132168616	4.43339747478163	
2448666666.66669	-13.6148693964623	74.8842499219409	-9.89060557432375	-164.694774398222	-46.8429422512277	-176.837402682739	-21.933846789855	5.70668970237211	
2449000000.00002	-13.6412375524968	74.3512527787067	-9.88343256528738	-166.93610155071	-47.1851591689776	-178.958229289853	-21.9650816147609	7.3197043323228	
2449333333.33336	-13.6752676283766	73.8465348562787	-9.87973855315009	-169.277841284788	-46.8803366322634	177.73987529539	-21.9842448362365	8.56804550007791	
2449666666.66669	-13.7073306805464	73.4305506949417	-9.87179403577654	-171.532404297024	-46.9225731814958	177.227732405767	-22.0056021096782	9.89261709212631	
2450000000.00002	-13.7459621092135	72.9055805028628	-9.87138179772577	-173.77670589339	-46.8308066940377	175.414486519322	-21.9594177022035	11.0476924902047	
2450333333.33336	-13.7639140232118	72.440957374634	-9.86391204359524	-176.073333587673	-46.7302666954071	171.121832851207	-21.9738512676258	12.7356290937918	
2450666666.66669	-13.8071594866115	71.9278727863124	-9.85403229317822	-178.351564222449	-47.0859857135098	169.874303137773	-21.9635768569856	14.2465120425424	
2451000000.00002	-13.8184061943544	71.3693313599676	-9.85461773538524	179.351615760076	-46.5129136609067	165.564955423969	-21.928645129877	15.4602821556564	
2451333333.33336	-13.8568086559322	70.9491692749871	-9.845664914503	177.084307942557	-46.8798205740116	164.880344457163	-21.9088050463766	16.8844392233856	
2451666666.66669	-13.8704618851932	70.4395899832907	-9.84181480887972	174.791889148888	-46.6107290173206	163.906866681233	-21.8543627273123	18.2455136626996	
2452000000.00002	-13.8948013257881	69.9380936042806	-9.83703805260734	172.561993154626	-46.6625338765112	163.025706963551	-21.7881923318026	19.5912482455227	
2452333333.33336	-13.9246406823796	69.3910152379246	-9.83405539369031	170.277355938333	-46.4577983623086	158.341235498231	-21.7438957902236	21.0045342708177	
2452666666.66669	-13.9255781104691	68.9311741150444	-9.83164698055161	167.997868080751	-46.9656215184834	154.562448284783	-21.6676808146638	22.2350370676748	
2453000000.00003	-13.9389578647453	68.346568261242	-9.82851300315124	165.714130742315	-46.8209013926659	154.837222424369	-21.5894830280426	23.4642286683686	
2453333333.33336	-13.9658851372952	67.8517309635736	-9.82893980073464	163.490551240268	-46.6029014665983	151.734142042763	-21.5094498545692	24.6163598324766	
2453666666.66669	-13.9765070652513	67.3666840102778	-9.82622793047607	161.19529677082	-46.653887444069	149.091245398231	-21.3998162726636	25.7689909392218	
2454000000.00003	-13.9726829542617	66.8066306735264	-9.82366256099122	158.901819067762	-46.5028940005011	145.563658351326	-21.298544885318	26.8869917191886	
2454333333.33336	-13.9872387667274	66.3208593697717	-9.81492858944953	156.62307474611	-46.8201959129029	144.079918832002	-21.1964003224237	27.9755878582611	
2454666666.66669	-13.9990110344952	65.7792944952562	-9.82144664431822	154.346382736704	-46.5400004019676	142.580860612119	-21.1082556358324	29.1331487193977	
2455000000.00003	-13.9972210319933	65.2762193741327	-9.82130378996701	152.056787704612	-46.7587133963953	138.46597511809	-20.9888544743199	29.7883752236987	
2455333333.33336	-13.9999063396356	64.7254409850827	-9.8193862855863	149.785549766412	-46.7596298612564	139.977456616083	-20.8941595704512	30.7806542466412	
2455666666.66669	-13.9939575903194	64.1995394303382	-9.81732480589467	147.520272306864	-46.5577008541549	134.46337029014	-20.8044261184752	31.6344813558019	
2456000000.00003	-13.9938520136398	63.6987046321297	-9.82281403642631	145.285507576485	-46.7344018546133	133.480839651507	-20.677132261154	32.4950647531429	
2456333333.33336	-13.9925071233873	63.1011712624751	-9.8181465473414	142.986711322707	-46.4656666335064	132.23806820959	-20.5854054388104	33.0890704111822	
2456666666.66669	-13.9756645484326	62.4834261198042	-9.81952184644241	140.728551692478	-46.7466486547877	131.831874488592	-20.4679171929716	33.7109266631411	
2457000000.00003	-13.9635328544196	62.0053283368172	-9.82442875389176	138.484807482905	-46.3628040139974	125.963318577431	-20.3584574957987	34.2340794553315	
2457333333.33336	-13.9413847288501	61.4402569517232	-9.8256158274388	136.233837544016	-46.7368084710699	124.309157968931	-20.2486900372053	34.8220095222204	
2457666666.66669	-13.9336452067885	60.8846356600801	-9.82951117106693	133.985966367386	-46.679836976846	122.743325922631	-20.1441886411641	35.3763759815998	
2458000000.00003	-13.9076785396104	60.3132328774331	-9.82493778430531	131.729762805207	-46.6449566382419	120.637294338575	-20.0419631243143	35.6885520101927	
2458333333.33336	-13.8783704825309	59.7394010671366	-9.83933385378049	129.433747221199	-46.2632548616785	116.41541944327	-19.9171540451386	35.8372730551836	
2458666666.66669	-13.854584428018	59.2468383622315	-9.83664071949691	127.16303272512	-46.8265363960813	116.060200267221	-19.8141795780933	36.2134647016818	
2459000000.00003	-13.8213068515101	58.6663311997493	-9.83297865953339	124.971152559905	-46.5605993185864	113.318219132288	-19.7495618231757	36.5104739221097	
2459333333.33336	-13.7942717778472	58.1320750548072	-9.84088313009125	122.730616834176	-46.5184524885932	110.189698527362	-19.6497578323344	36.6007434706152	
2459666666.6667	-13.7651238930138	57.5448883652498	-9.83425488487364	120.442633889383	-46.8766705050857	109.092212155705	-19.5776077755839	36.8848075903083	
2460000000.00003	-13.7383810044929	56.9983136921459	-9.84441014655059	118.219050472479	-46.4406292730123	103.616195194371	-19.4824296089045	37.0793678121782	
2460333333.33336	-13.7003357116796	56.4819483369885	-9.85115250453538	115.933443143395	-46.874825934917	104.69807441082	-19.3918343216189	37.0763574300047	
2460666666.6667	-13.666515187574	55.8219644988899	-9.85308596777449	113.727849939087	-46.6932137444383	101.629235179494	-19.3418293081028	37.1104134764276	
2461000000.00003	-13.6276971107133	55.2782236016115	-9.85198741494381	111.505978826271	-46.4892776374939	98.8787726659606	-19.275773963802	37.0126179169217	
2461333333.33336	-13.5813157934548	54.6818725959241	-9.86187217149673	109.200296470019	-46.6978352241758	95.4961367021045	-19.2206291754988	36.9522138383225	
2461666666.6667	-13.5405824981742	54.1993875900468	-9.86735598676835	106.941808589327	-46.631359892195	95.8507225734866	-19.1427373486607	36.8681275214715	
2462000000.00003	-13.5033843865752	53.5864408813762	-9.86998801018803	104.632979145693	-46.5294197514466	91.8858510611943	-19.0985122686942	36.8331731987621	
2462333333.33336	-13.4590275211136	52.9768937746433	-9.87089062271271	102.396514336814	-46.6282525736776	90.9047840324726	-19.0719978487305	36.5711600275035	
2462666666.6667	-13.4076143414453	52.3735715063459	-9.87672011339596	100.116364450867	-46.6510481338524	88.1373156103486	-19.0212630055515	36.5830816731232	
2463000000.00003	-13.3612461180395	51.8363061063692	-9.8829235719697	97.8775566559046	-46.5546694677177	84.5216972682931	-18.9742563642073	36.2438996295154	
2463333333.33336	-13.3106371597218	51.2859159061922	-9.88935582361995	95.6077465356944	-46.7543441568117	82.0504511870142	-18.938998104446	35.9690872234243	
2463666666.6667	-13.26162146447	50.720780455059	-9.895317499852	93.3452940226138	-46.7326833264477	80.8848088454638	-18.9177989759896	35.6609758206326	
2464000000.00003	-13.2123252535319	50.163708727694	-9.89884528107986	91.0913449685312	-46.6349586129608	76.5626546477959	-18.9147390934491	35.3592376964551	
2464333333.33336	-13.1673321680733	49.6027823925059	-9.9042674558237	88.8204428449197	-46.5851702153447	76.7696639900587	-18.8802403352054	35.1047055550213	
2464666666.6667	-13.1105746785739	49.0273707379221	-9.9097993400644	86.5231744414929	-46.7603401741842	73.1256300983754	-18.8620777510789	34.705695852056	
2465000000.00003	-13.0605733947923	48.5374067316579	-9.91386725292047	84.2783528708267	-46.6365960713417	70.6683994537076	-18.8573185189179	34.1282443983259	
2465333333.33336	-13.0150057832817	47.9926763975133	-9.91933929449924	81.9973186146055	-46.4449588394123	69.1487673442474	-18.8549032154432	33.8855970582129	
2465666666.6667	-12.9643962703937	47.5043499165915	-9.92562054462554	79.7147541357419	-46.4853562936937	66.4438007941204	-18.8381840292123	33.249977505398	
2466000000.00003	-12.916160423853	46.9224266876745	-9.9324590356947	77.4885734412946	-46.5536217577535	64.3677596613999	-18.8268914973877	32.8428495399864	
2466333333.33336	-12.8628964562695	46.4485974598974	-9.934553497085	75.1805186360096	-46.6140962568609	60.7540761382204	-18.8478717887816	32.2734267224709	
2466666666.6667	-12.8240940355346	45.9619822258913	-9.94258894377321	72.9350117219892	-46.3894591459221	59.9375778416399	-18.8593597888032	31.6782848569682	
2467000000.00003	-12.7680510494965	45.4669689937692	-9.95020145659732	70.6721651368332	-46.6231303015616	56.5920699375487	-18.8659242099335	31.0985045862958	
2467333333.33337	-12.7154963891909	45.0007418239822	-9.95314849889009	68.4068842725674	-46.6398419033986	54.5132857752906	-18.8941928744294	30.5437273783632	
2467666666.6667	-12.6655415594893	44.5602364547878	-9.95243902592743	66.1196428999419	-46.7297369294867	54.4596964141845	-18.9127340636316	29.9090730278578	
2468000000.00003	-12.6232010600284	44.0585146625999	-9.96117502786489	63.8363270150781	-46.889472760196	49.0717578760463	-18.9495272817658	29.2178099011789	
2468333333.33337	-12.565548590879	43.6295876151492	-9.96761077745299	61.620652328637	-46.8501010055461	48.1678445501697	-18.9661559439265	28.5612549369997	
2468666666.6667	-12.5098579024087	43.1921633020066	-9.97290960381059	59.306174954448	-46.3717878071962	44.8148487672168	-18.9985187748787	27.8024348428746	
2469000000.00003	-12.4718377623782	42.7738253381992	-9.97811180237718	57.040741129854	-46.3659132942236	42.9904633496195	-19.0100146263711	27.0010826127564	
2469333333.33337	-12.4257091028254	42.3314432065067	-9.98271256311766	54.766099215463	-46.7934673160123	41.0180116075646	-19.052298588041	26.2228781771544	
2469666666.6667	-12.378345999697	41.9258596940353	-9.98871141311273	52.5110918201364	-46.7610590067081	39.0696751276417	-19.0976197276111	25.4096791250184	
2470000000.00003	-12.3306893150367	41.5529026394748	-9.99061822819979	50.1891665979352	-46.6321023368829	37.2140744555831	-19.1267019595291	24.6757552394892	
2470333333.33337	-12.2827023023291	41.1511861228826	-9.99758897169418	47.9302753322116	-46.586633718521	34.228131450462	-19.1827710063131	23.7236131775746	
2470666666.6667	-12.2323142116868	40.7701534406837	-10.00366966885	45.649268968423	-46.3339780809561	34.0046534109446	-19.2177710382377	22.885880000126	
2471000000.00003	-12.1848428976381	40.3765507891724	-10.0093981136487	43.3686646001688	-46.5908489020767	31.9135547220436	-19.2508348451668	21.9309888518042	
2471333333.33337	-12.1437537825025	40.0115566773081	-10.0085860458298	41.0623388755586	-46.6402911376678	29.2529966172789	-19.3101121009312	21.1090893797367	
2471666666.6667	-12.0936169363993	39.6394007055811	-10.0204973264879	38.779305107232	-46.5391006274392	26.2030873955375	-19.3348957454006	20.1245222388336	
2472000000.00003	-12.0474416964897	39.3321079791947	-10.0187827135167	36.527270289649	-46.2941455644726	23.1093301193981	-19.3976170447186	19.0841885134535	
2472333333.33337	-12.002274243149	38.9493488889271	-10.0247522018179	34.1989212918311	-46.45492920172	20.4652902981718	-19.4611719379702	18.0171723905677	
2472666666.6667	-11.9514177743083	38.7697917494887	-10.0306840170791	31.8865262465775	-46.7215223966126	16.7610764764776	-19.4986707313111	17.0896784641313	
2473000000.00003	-11.9009983618793	38.4280608169413	-10.0361503842687	29.6498452774799	-46.6574089695845	16.7575109093979	-19.5573074400513	16.0059155770054	
2473333333.33337	-11.855809658618	38.1142997936562	-10.0378833011674	27.3054162305188	-46.6822612033041	13.292918882129	-19.625184508141	14.8540839062861	
2473666666.6667	-11.8046515282504	37.8448493501278	-10.0404774102334	24.9520525369511	-46.5901099473762	10.0151746383825	-19.6834427801221	13.7363755997127	
2474000000.00004	-11.7687970546094	37.5622253510869	-10.0500347227354	22.7140768340341	-46.74869440634	9.30791715006698	-19.7132366896656	12.5285721434181	
2474333333.33337	-11.7112967661488	37.2867126968301	-10.0460170168964	20.3551534734602	-46.3623512731656	6.66566203388663	-19.7784478086085	11.3863127990884	
2474666666.6667	-11.6710421967131	37.0035014111737	-10.0496709422398	18.001906684934	-46.3577337704421	3.5482019246834	-19.834427376226	10.1522906531127	
2475000000.00004	-11.6236862687828	36.7083788731003	-10.0581001013885	15.7621574944135	-46.4585618151647	3.91607786565356	-19.8769862397812	8.92786047512153	
2475333333.33337	-11.5843310679585	36.4491950514973	-10.0579841456245	13.4268610292927	-46.5271762800894	-0.865973330393981	-19.9503107540058	7.70846609440524	
2475666666.6667	-11.5355021820803	36.2008928740913	-10.0591584291089	11.1219878269053	-46.1544573395717	-1.98078345941684	-19.9881113902951	6.39329671305806	
2476000000.00004	-11.4958596736786	35.8976432828241	-10.0674352116417	8.78845467294039	-46.8353159332791	-3.5866751842517	-20.0272291500757	5.10652108836088	
2476333333.33337	-11.4495689661463	35.6412697155558	-10.0682837771987	6.4658785463104	-46.742005170864	-6.41336354395002	-20.0701680336094	3.82201284342689	
2476666666.6667	-11.4128382633177	35.4085199594282	-10.0713944280771	4.16088153796194	-46.6798635517635	-8.85951162642035	-20.117874620047	2.64314808705198	
2477000000.00004	-11.3745637699462	35.1059337404474	-10.0746948772946	1.81054730673533	-46.5663115531242	-11.4360104373473	-20.164035833002	1.36052440248402	
2477333333.33337	-11.3312430333023	34.8250481437448	-10.0782965363982	-0.533649127018147	-46.6049225591464	-12.3183363592706	-20.2050943812364	-0.0356756256061236	
2477666666.6667	-11.2927888522479	34.5774907452195	-10.0833071350567	-2.85108144443164	-46.7198099082962	-15.240737720826	-20.2214473446507	-1.380868109301	
2478000000.00004	-11.2487614349981	34.2453798366319	-10.0863760201253	-5.14093309646669	-46.4543732649439	-19.309993512601	-20.2566796703226	-2.63829520647658	
2478333333.33337	-11.2129881437514	33.9330458958247	-10.0882591181868	-7.44771351606908	-46.6751029627599	-20.8731106504034	-20.2911109522529	-4.10503496497358	
2478666666.6667	-11.1692736875247	33.6702439193102	-10.0941162220258	-9.78432353306941	-46.7675729884334	-21.3793668602444	-20.3057402824935	-5.45335525814951	
2479000000.00004	-11.1258962438612	33.4184061318673	-10.093436902381	-12.0843822165344	-46.5964356619246	-22.6301816736012	-20.3539073029054	-6.64438629257915	
2479333333.33337	-11.0969024174261	33.1022004434888	-10.0949933506789	-14.3893225770005	-46.4730801052654	-26.6184004326834	-20.3651846182469	-7.96734913511831	
2479666666.6667	-11.0605125948065	32.8210461932343	-10.1024654475912	-16.7050463227661	-46.6064136729459	-29.2434108249044	-20.3603515131359	-9.40029984144034	
2480000000.00004	-11.027100728029	32.5068629836153	-10.1047295726247	-19.0275771369723	-46.4980312295823	-31.6336136299934	-20.3833205276791	-10.7228489425827	
2480333333.33337	-10.9906729393143	32.1651450939203	-10.1019304715211	-21.3706877564507	-46.3183956331812	-34.4352431823175	-20.3945745306251	-12.0097195219148	
2480666666.66671	-10.9588561907222	31.8390210903787	-10.1049728979672	-23.6665526192155	-46.4464391942294	-36.3050279021157	-20.3965850967792	-13.3957522994319	
2481000000.00004	-10.9286693795603	31.5415648808121	-10.1041743656772	-26.010353481332	-46.5901300484625	-39.747021840082	-20.3908518919596	-14.6558162399751	
2481333333.33337	-10.9009331682582	31.1682476081746	-10.1054981556223	-28.2799765113159	-46.7502130569621	-41.4786689053753	-20.3824934192702	-16.002589648755	
2481666666.66671	-10.888935280323	30.8461538224314	-10.106012916457	-30.5483029559904	-46.4461115224558	-43.8920412443745	-20.4034120875786	-17.3517265632505	
2482000000.00004	-10.8570704648805	30.479907060081	-10.1136349758224	-32.9162821057387	-46.336539674016	-44.46728803066	-20.3802691501448	-18.559827505473	
2482333333.33337	-10.8260335592184	30.2064505285028	-10.1099027736739	-35.2276245668492	-46.8106603350966	-49.0091916496596	-20.363464297116	-19.7921410977206	
2482666666.66671	-10.8135363296492	29.765961949821	-10.1105650698463	-37.4939174492557	-46.6563943733847	-49.7110091856388	-20.3555503878756	-21.038149254965	
2483000000.00004	-10.7884451106216	29.3771141144061	-10.1081087506897	-39.8304372210881	-46.4923396370013	-51.3778786784427	-20.3524550882667	-22.3022683894694	
2483333333.33337	-10.7752880346375	28.9916218318135	-10.1124603318511	-42.0896077065719	-46.5854909005683	-53.938247647452	-20.3181929113493	-23.4296875797459	
2483666666.66671	-10.7620993709309	28.5557460792623	-10.1037124115829	-44.4097946302098	-46.6955181715827	-56.3317717645139	-20.3195220709962	-24.605375882848	
2484000000.00004	-10.7420649187858	28.2239882834126	-10.1084184260348	-46.7081625067672	-46.773281804647	-59.6634414842183	-20.2693526566447	-25.8185668753338	
2484333333.33337	-10.7184196291528	27.918957472941	-10.1010581584763	-48.9911229215135	-46.4153578965113	-61.2106066160793	-20.252601224365	-26.8789436566726	
2484666666.66671	-10.7090700417879	27.4709646713205	-10.095321179928	-51.2730711602647	-46.6769285991438	-63.96055095243	-20.2298109458735	-28.0602312993402	
2485000000.00004	-10.7049395095117	27.0619545358173	-10.0955859681666	-53.5890709799082	-46.477502547619	-65.3819474478301	-20.1982879567252	-29.045156904905	
2485333333.33337	-10.6841378718373	26.6660315042573	-10.0997495722471	-55.8658372746773	-46.2696708456891	-68.2539970400915	-20.1741739920243	-30.0498025348598	
2485666666.66671	-10.6776167631089	26.316890947215	-10.0906343887123	-58.1800814641789	-46.5849643985793	-70.0757284129682	-20.1605882424594	-31.0995948312775	
2486000000.00004	-10.6717308008721	25.8157068947865	-10.0844208128307	-60.439149240067	-46.6129143373338	-70.5222208737297	-20.1159990655575	-32.0501128871989	
2486333333.33337	-10.6640069247837	25.4446362816648	-10.0849487149284	-62.7482332046725	-46.718460964154	-73.5229479592963	-20.0873639328266	-32.9026889622292	
2486666666.66671	-10.6608868187952	25.0287347322818	-10.0779944891946	-65.006083607473	-46.3476641157422	-76.6711391768077	-20.0599170438064	-33.8615027583052	
2487000000.00004	-10.6749255161107	24.5766213144551	-10.0782959007035	-67.3164042891296	-46.6337354108232	-78.9535906032165	-20.0448009430714	-34.753565186943	
2487333333.33337	-10.6863351328961	24.1807468260839	-10.0635030536384	-69.6215451794803	-46.8080058466484	-79.300041684928	-20.0233293908673	-35.6543785682996	
2487666666.66671	-10.6710391532721	23.6688756604543	-10.062862281895	-71.9018066415909	-46.7574935911149	-84.5911250713096	-19.99762451533	-36.5177143327057	
2488000000.00004	-10.6758728806535	23.2910999175705	-10.0615140117819	-74.2077408513765	-46.8429351704432	-87.721091234661	-19.962621095405	-37.3076897146405	
2488333333.33338	-10.6827233415842	22.7938665530991	-10.0550310541561	-76.517948298885	-46.7695859419376	-89.6799189751668	-19.9411178803881	-37.9984532919755	
2488666666.66671	-10.7045315053269	22.3148351913159	-10.0520403382588	-78.7995011154084	-46.6505287310605	-91.4837272196275	-19.9342376156082	-38.8660741931217	
2489000000.00004	-10.7099043521477	21.8239214229546	-10.0453428358625	-81.0617254913661	-46.4814079002277	-91.938193134671	-19.9162930119324	-39.4517503282619	
2489333333.33338	-10.7201002184948	21.2972653657773	-10.0406168266535	-83.3457724396207	-46.4680388470896	-95.9382780343807	-19.9002715365416	-40.2796200625902	
2489666666.66671	-10.7363339074169	20.8582629221754	-10.0306333300502	-85.6561008215001	-46.9221542965308	-97.7775987291261	-19.9008679752623	-40.8625752128116	
2490000000.00004	-10.7454380361595	20.2936329140067	-10.0245051359574	-87.9394019874729	-46.4960334749672	-99.95238961258	-19.8760238360496	-41.5251515639448	
2490333333.33338	-10.7777927510591	19.8244651431048	-10.0235641876403	-90.1960443978896	-46.6089105480401	-102.78632632579	-19.8747422997391	-42.1404431138025	
2490666666.66671	-10.7921537596207	19.261714819546	-10.0144961953491	-92.4799253942898	-46.6414431212478	-103.605359796558	-19.8915374220276	-42.7416764411695	
2491000000.00004	-10.8079950645973	18.7508825951522	-10.0093027537794	-94.7906894980292	-46.4392558194491	-106.63037986332	-19.8727512628088	-43.3772508013711	
2491333333.33338	-10.8362248548883	18.2295460674612	-10.0015939737066	-97.1041977812276	-46.5286422435603	-109.693442856247	-19.8978255596279	-43.8249271229013	
2491666666.66671	-10.8533072782643	17.7459627687234	-9.9963273177978	-99.3974246140329	-46.7848833794929	-110.044476420131	-19.871825652019	-44.3605909699951	
2492000000.00004	-10.9054357250545	17.144303228736	-9.98852321726365	-101.658378936871	-46.59569257534	-112.653266353757	-19.9074376562833	-44.7514071184415	
2492333333.33338	-10.9298343007458	16.5694771087906	-9.98026267488226	-103.952746305133	-46.5968195579544	-114.202441229827	-19.9134758618626	-45.1613714807929	
2492666666.66671	-10.9612670894207	16.158929610278	-9.97689081972504	-106.266085529543	-46.8319914623213	-118.682268018689	-19.9280624623526	-45.6551192531862	
2493000000.00004	-11.0101878953059	15.5636712106191	-9.96714472684936	-108.544023041329	-46.808135960047	-122.264204462794	-19.9656837466388	-46.0157496727375	
2493333333.33338	-11.0364463735377	14.9494224906144	-9.96298005398126	-110.836197296777	-46.7350273524883	-123.350714175388	-19.9987350238985	-46.3391363654667	
2493666666.66671	-11.0765089692144	14.3589602231398	-9.95636710397417	-113.099074895469	-46.915956529839	-122.919819691623	-20.0368321125089	-46.5582420930251	
2494000000.00004	-11.1189640759865	13.8118491990186	-9.95205660352562	-115.417317892531	-46.4367859943395	-127.941634916037	-20.0737924580169	-46.9073746704914	
2494333333.33338	-11.148090429805	13.2675000859713	-9.94644284559949	-117.735475532185	-46.7822193309049	-128.991551859189	-20.1154477622729	-47.1313648226247	
2494666666.66671	-11.1874491109587	12.6374759844197	-9.93838843654693	-120.009618763352	-46.5589423855257	-132.477161125046	-20.1780731023779	-47.2693135281981	
2495000000.00005	-11.2331964660738	12.0920867631665	-9.93735381125283	-122.305840036116	-46.608658526514	-133.117160512675	-20.2271953522242	-47.4056730769329	
2495333333.33338	-11.2726164481115	11.4446511706617	-9.93184739384923	-124.602085664206	-46.6588151934642	-137.396767960302	-20.2700818277346	-47.6118700713617	
2495666666.66671	-11.3109951637186	10.9348685533635	-9.93267278468127	-126.903749543496	-46.8991884646156	-139.835430501955	-20.3616805141125	-47.8508270793313	
2496000000.00005	-11.3524206798015	10.2867241621068	-9.92384684312518	-129.211930946279	-46.4453409484805	-141.975264964918	-20.4227205279074	-48.017171131326	
2496333333.33338	-11.3917770835897	9.7341547195748	-9.92144396914483	-131.50945173038	-46.6436848218327	-145.168161869853	-20.4962504443997	-47.9307123856312	
2496666666.66671	-11.4226289984794	9.06100327198272	-9.92186335644548	-133.793857045251	-46.8415281688581	-145.296243515391	-20.5914596368952	-48.0242332658761	
2497000000.00005	-11.4749183651835	8.48809313905453	-9.92216191957553	-136.097094691509	-46.764879839342	-149.306713374056	-20.685686327655	-48.0377141186188	
2497333333.33338	-11.5076556573538	7.93722216294724	-9.92209137287369	-138.41240213155	-46.842474454034	-150.636635248477	-20.7876387553943	-47.855290371755	
2497666666.66671	-11.5629742137575	7.33152133991871	-9.91698338786756	-140.650534310364	-46.5325139518538	-153.0654462388	-20.8988378826553	-47.6303386638943	
2498000000.00005	-11.6083420945391	6.67644386223297	-9.9199865990015	-143.025614222864	-46.5288839820067	-154.503256332047	-20.9861110166616	-47.5560819019936	
2498333333.33338	-11.6413425838153	6.0637324236944	-9.92038755213737	-145.28110544287	-46.8541347647342	-156.373654042558	-21.1109911229099	-47.4538071903488	
2498666666.66671	-11.6772701685026	5.51306275234004	-9.9125298167204	-147.611427629752	-46.7427483978046	-162.569253456644	-21.2130239242522	-47.0927587632953	
2499000000.00005	-11.7152586387593	4.88227253603377	-9.92647513070693	-149.895492057403	-46.5364761086529	-162.270058899429	-21.3648133981013	-46.7954399855263	
2499333333.33338	-11.7714023843157	4.27202660613322	-9.92547942236472	-152.150372258992	-46.5403467627291	-164.055730887451	-21.4707687704623	-46.4743332782853	
2499666666.66671	-11.810444494643	3.65578862314804	-9.93014135969906	-154.484461227435	-46.9152021567313	-166.80073081477	-21.6532309867659	-46.024557994375	
2500000000.00005	-11.8341879693837	3.05762604901036	-9.93203886624555	-156.792084588221	-46.6298208112904	-169.044885690119	-21.7592445708341	-45.5707041158413	
2500333333.33338	-11.8704237892726	2.43455035861765	-9.93928523108525	-159.057736304352	-46.8949202154912	-170.420423673095	-21.9330554382974	-45.085502396198	
2500666666.66671	-11.9113006957635	1.86139411859896	-9.9397317442923	-161.358411107409	-46.7019945512267	-173.722520760421	-22.0667379889135	-44.5373094246063	
2501000000.00005	-11.9497613252236	1.19879815128055	-9.94055763407186	-163.70035812578	-46.7016213964701	-176.527251082504	-22.2314754591329	-43.6250671098977	
2501333333.33338	-11.983996548548	0.588155420562616	-9.95549080046593	-165.92699444939	-46.5395009659215	-177.182203490691	-22.3768419932737	-42.6854183813138	
2501666666.66672	-12.0209456896087	-0.0775180117378935	-9.96659613608561	-168.264223573093	-46.6173358516766	-178.208463151102	-22.5380911037457	-41.8696177959191	
2502000000.00005	-12.0583268444651	-0.691261619375673	-9.96304591997449	-170.519795374036	-46.8875635534057	178.164075094446	-22.7172957131096	-40.8996622312419	
2502333333.33338	-12.100560214131	-1.41361758286476	-9.97121366611045	-172.780035021029	-46.7912921270985	175.482980125379	-22.8716844546548	-39.8437694065003	
2502666666.66672	-12.133691456532	-2.07431099930571	-9.9757126578336	-175.09776863629	-46.7478064647947	172.925391390562	-23.0249494756339	-38.3917837988169	
2503000000.00005	-12.1661243648928	-2.77287390622804	-9.98906847048721	-177.399360547016	-46.6584279390441	170.326679865736	-23.1485752221359	-37.3438095823937	
2503333333.33338	-12.1895297937035	-3.45970739202902	-9.99274767096621	-179.668624545899	-46.5995733215166	167.738244626525	-23.3349724739471	-35.5052114925895	
2503666666.66672	-12.2247090738924	-4.14163366339237	-10.0011655539563	178.070878092243	-46.5269474244353	164.533326364037	-23.4595802808755	-34.1810067052862	
2504000000.00005	-12.2503398483642	-4.89061207884179	-10.00799919175	175.805206724394	-46.6552436355712	162.698662429541	-23.6466635776913	-32.4936950452819	
2504333333.33338	-12.2815408643727	-5.61872828428852	-10.0176033805871	173.540867275066	-46.6286200705382	161.231281300599	-23.780827713829	-30.762541128736	
2504666666.66672	-12.3048794320645	-6.32007038956763	-10.0312518762417	171.198714782806	-46.8484511529514	158.915079461627	-23.9076353062434	-28.8834380508466	
2505000000.00005	-12.3255427441025	-6.95656083232491	-10.0387439885967	168.980747820819	-46.6509773122093	155.239648443619	-24.0074259311058	-27.1266245449158	
2505333333.33338	-12.345446029756	-7.73632712306718	-10.0529735759706	166.716178839597	-46.6028074726043	155.76584776206	-24.1000372378272	-24.9296170371423	
2505666666.66672	-12.3738839096484	-8.44689459963043	-10.0594354248056	164.470650657028	-46.4063851544176	152.441846638456	-24.2210919824514	-22.859623189452	
2506000000.00005	-12.3891683237571	-9.17300496645072	-10.0709018000725	162.225999678423	-47.030328520649	150.152581002729	-24.2734184430144	-20.7278696930251	
2506333333.33338	-12.4047896814847	-9.88906193144247	-10.0850888290314	159.930397496075	-46.877735421571	146.034014611778	-24.3292148277675	-18.5494099667213	
2506666666.66672	-12.4174617722035	-10.6431414440681	-10.0965151859996	157.67281519125	-46.7301226410811	145.480132037806	-24.3551721478434	-16.2451927457934	
2507000000.00005	-12.4408421249669	-11.349856250832	-10.1073296518216	155.41327606902	-46.623827288244	142.725724544626	-24.3705551343823	-13.9964661994423	
2507333333.33338	-12.4460060389603	-12.1196860542616	-10.1188522247653	153.159096586719	-46.7657626674873	142.062845951685	-24.3555295033285	-11.7008728814283	
2507666666.66672	-12.466774047676	-12.8314363511134	-10.1320229776981	150.951218638354	-46.6468918994211	138.222805920565	-24.3063303285437	-9.47842388967767	
2508000000.00005	-12.4755740084684	-13.6183496124073	-10.1412916573233	148.653712673401	-46.5807791244145	136.613513817632	-24.2630956381346	-6.98789201090686	
2508333333.33338	-12.489385546348	-14.4053720309482	-10.1536916668942	146.432492244929	-46.6382169979676	132.910246058014	-24.179445932616	-4.96200241718147	
2508666666.66672	-12.4945376144181	-15.2743683397193	-10.1705487858534	144.167969303845	-46.6730274559515	130.797962858065	-24.1022063027627	-2.7604411454156	
2509000000.00005	-12.5102226114136	-16.0526197415263	-10.1844907383067	141.948761473941	-46.8193995388008	129.376433108646	-23.9609574343086	-0.66118885381468	
2509333333.33339	-12.5154737113819	-16.8506395769181	-10.1971602740878	139.697027263597	-46.785731087438	125.564042627691	-23.8609131213356	1.33854841355961	
2509666666.66672	-12.5213434908217	-17.6322326400645	-10.2071484030874	137.465129220889	-46.866737254364	124.514259815602	-23.7251488174055	3.08528083324135	
2510000000.00005	-12.5283501650713	-18.4542302920402	-10.2253828286312	135.193517765807	-46.8646506734951	121.341128194761	-23.578289556409	5.1699860137124	
2510333333.33339	-12.5348254936515	-19.2131610041052	-10.2363767630617	132.949336113885	-46.7453761851884	121.124753521123	-23.4265214944312	6.83519079152009	
2510666666.66672	-12.5350125469954	-20.0076534554917	-10.246023806982	130.724097507427	-46.778424077414	118.404689043151	-23.2601686528145	8.42060378170066	
2511000000.00005	-12.5325736003228	-20.7696770196603	-10.2646676782847	128.464814339034	-46.7334234167399	116.659332363844	-23.0956422220803	9.69147600334454	
2511333333.33339	-12.5388667951321	-21.5476001589215	-10.2725148396904	126.223461933085	-46.8320580922919	114.531089253776	-22.9142979585009	11.2338728119464	
2511666666.66672	-12.5389478332849	-22.3151149173331	-10.2944107711052	123.99063151541	-46.5383050213835	112.609172614729	-22.6957125174989	12.5286740398576	
2512000000.00005	-12.539552471235	-23.0059339665345	-10.3031004539393	121.787735782521	-46.7472503151543	107.752148992539	-22.5565484144293	13.6314990099433	
2512333333.33339	-12.5368464450718	-23.7543586826673	-10.3255172577093	119.525121377957	-46.7328230474902	106.353763298836	-22.3639888855239	14.6180534853682	
2512666666.66672	-12.529533054738	-24.5280296817058	-10.3372536491442	117.291485151624	-46.7893304868542	103.108782770388	-22.1841455965858	15.6042769179484	
2513000000.00005	-12.5280817163539	-25.2139846343758	-10.3445322967946	115.072999615368	-46.6749662355511	102.985089761968	-22.028072374693	16.7247877857907	
2513333333.33339	-12.5316385580603	-25.9643374879881	-10.3621030313542	112.838701812552	-46.621997610008	100.171637748867	-21.8356358515255	17.2399159530761	
2513666666.66672	-12.5232365988541	-26.691221764469	-10.3743539634935	110.602487529435	-46.713919442792	96.8278806365144	-21.6904179354081	17.9420139743435	
2514000000.00005	-12.5205627507463	-27.4074734627102	-10.3914907833023	108.328797858482	-46.9132206381836	95.9970502033344	-21.5143270960102	18.669727908976	
2514333333.33339	-12.519507469733	-28.1542562383185	-10.396215492396	106.086159604893	-46.8119129512908	91.5570584396508	-21.3435401614114	19.230278454802	
2514666666.66672	-12.5195711047527	-28.8517715585734	-10.4215284483817	103.855454421117	-46.6473384214503	92.2518446894523	-21.2048835722797	19.8169924528476	
2515000000.00005	-12.5120760540716	-29.6221287969296	-10.4309187541344	101.621092780407	-46.7313549916025	88.5897104380414	-21.0567361876189	20.0427683680965	
2515333333.33339	-12.5020638768416	-30.3060219496771	-10.4477562218394	99.4183484735314	-47.1589236743306	86.2110768288244	-20.9205375268826	20.5046129641915	
2515666666.66672	-12.4964273850274	-30.9968491397391	-10.4602306453635	97.1257896847236	-46.8549915860353	85.1933671565523	-20.7709819587022	20.8272537235694	
2516000000.00006	-12.5025888564724	-31.6657390622005	-10.4684919878303	94.9010901460261	-47.0351552516262	80.4219207361719	-20.6463624079228	20.9357741256012	
2516333333.33339	-12.4954789058486	-32.3423667225744	-10.4884581156693	92.6332863939629	-47.0823444316703	80.2092907113788	-20.516206763322	21.0309085955686	
2516666666.66672	-12.5036012807911	-32.9759405697486	-10.4938583085483	90.4170052069585	-47.1345640455116	78.73328122346	-20.438786137391	21.1893497242279	
2517000000.00006	-12.4907445178801	-33.601146260474	-10.5088472751742	88.1812624204409	-46.7701268521535	74.682880555837	-20.3080922758884	21.2095487175409	
2517333333.33339	-12.4920643966106	-34.2240396364379	-10.5254283014432	85.9179231170036	-46.8031675107958	71.9296310529325	-20.2130952656996	21.203611446398	
2517666666.66672	-12.4878270990587	-34.8447485854631	-10.5307732535654	83.6640445229261	-47.133587533277	72.7039688807604	-20.1125733606093	21.1794461263582	
2518000000.00006	-12.4904089948051	-35.5124807163502	-10.5435780238222	81.4331661022225	-46.8763841922712	69.6111258852653	-20.0461081337616	21.0861022512864	
2518333333.33339	-12.4947905283424	-36.0777442761169	-10.5625805662277	79.1853118649892	-46.9731208081431	66.3188347458099	-19.9690551105534	20.8857175828415	
2518666666.66672	-12.4951215069141	-36.6560081393449	-10.5703826153516	76.9404528032579	-46.7129719381661	63.6976064862906	-19.8820609441943	20.6533608975843	
2519000000.00006	-12.4954237712626	-37.1878821183368	-10.5774518442994	74.7218835502934	-47.2037387800678	62.8582045620593	-19.8520387030695	20.6645426489852	
2519333333.33339	-12.5068798505356	-37.7450963707864	-10.5884149638853	72.5055686458354	-46.8935445462529	57.8438656184328	-19.7841087211215	20.3167163212266	
2519666666.66672	-12.5077262526661	-38.2989856756374	-10.6031938774946	70.2456798168875	-46.7893770276984	58.3091390783778	-19.7347493891803	20.1201668401028	
2520000000.00006	-12.5105190828399	-38.798402787325	-10.6108770855005	68.0064833597927	-47.2034029950252	54.5385688769979	-19.7002511261352	19.6526924519874	
2520333333.33339	-12.5219848313283	-39.2823970604358	-10.6194007537283	65.7402655119444	-47.0562406316294	54.8469316175515	-19.6636680512441	19.3699467103203	
2520666666.66672	-12.5347908325867	-39.7645060474736	-10.6321070858684	63.4964397638384	-47.0801352443553	51.2912201132267	-19.631982226961	18.9322409634586	
2521000000.00006	-12.5363024075632	-40.2309717326486	-10.6355212070422	61.271955302792	-47.1983178232735	48.7049507843415	-19.6397314546349	18.6125436930678	
2521333333.33339	-12.5458729299221	-40.6698927533536	-10.6513320906059	59.0274094609992	-47.0757970160048	45.8722010710778	-19.6057057599462	18.055525461137	
2521666666.66672	-12.5655223120006	-41.1337967683859	-10.6587384275082	56.7967393153457	-47.1041490357522	43.8254840837398	-19.618631839777	17.4917052457618	
2522000000.00006	-12.5679707555528	-41.5347580710435	-10.667763313085	54.5142494561328	-47.0593269538371	41.2311696555701	-19.6098039915823	17.2158252971478	
2522333333.33339	-12.5783906270138	-41.96691882957	-10.678133750965	52.3006519921708	-47.0920385124644	36.9993871716488	-19.6309930979274	16.5990831057389	
2522666666.66673	-12.5883074820757	-42.3858511370798	-10.6873163134339	50.0497563898854	-47.2221483419508	38.8582341075197	-19.6475845144831	16.069814101485	
2523000000.00006	-12.6056166349726	-42.8218211215539	-10.7003431905179	47.7816398596353	-47.2438579599383	35.976814678964	-19.6866834742538	15.4062492209969	
2523333333.33339	-12.6272746916016	-43.1663328417371	-10.7062082913097	45.5472766044527	-46.9535671177096	33.1850009139924	-19.7030592281245	14.7585022140225	
2523666666.66673	-12.633462874385	-43.5195268488244	-10.7162403719895	43.3228530733586	-47.1715041503436	30.2883270467188	-19.7610272437472	14.1308187776037	
2524000000.00006	-12.6559605365596	-43.8234049950921	-10.7199154811029	41.1025960543145	-46.976849543846	29.2029954343583	-19.7872495118466	13.5216711201675	
2524333333.33339	-12.6685622642753	-44.1870384435783	-10.7354795619904	38.865550898693	-47.2494784212531	27.5903204192203	-19.8431889658044	12.6234425186832	
2524666666.66673	-12.6879807153368	-44.4569154693698	-10.7335602978466	36.613204978977	-47.2160876009307	25.943015461773	-19.9130438157995	12.0125397600465	
2525000000.00006	-12.7034091532702	-44.7130108802569	-10.7422309846032	34.3981041393161	-46.9127345640227	20.4526236150148	-19.9984307613206	11.1863800290092	
2525333333.33339	-12.7329035309416	-44.98510709162	-10.7433718347659	32.1871595941386	-47.2496955587597	20.7611993053038	-20.07708075707	10.3297332301081	
2525666666.66673	-12.751826284709	-45.2721417126395	-10.7489101518423	29.9927020587298	-47.016147211958	18.5045276028767	-20.1337523925929	9.46933821917228	
2526000000.00006	-12.7726288516176	-45.5687642214904	-10.7521720388323	27.7944829768592	-47.3195012446737	13.9363784732513	-20.2253214808756	8.67758611219132	
2526333333.33339	-12.7983299998555	-45.8312681702593	-10.7698190939646	25.5953160784486	-46.8500783135253	14.2599601130164	-20.3212768939521	7.83195948439953	
2526666666.66673	-12.8131526360329	-45.9856721329896	-10.7641132334953	23.3527269475068	-47.1710412624851	11.5672173779552	-20.4359522577913	6.91266208851654	
2527000000.00006	-12.8470592654961	-46.2207243842017	-10.7629949726147	21.1862887235451	-47.3372700775464	8.7901480889946	-20.5376110487579	5.95506892589087	
2527333333.33339	-12.8720874989564	-46.4093098307003	-10.7656436827856	18.964043947289	-47.0211753238859	7.49414144685127	-20.631551180889	5.07515004675042	
2527666666.66673	-12.9004682965669	-46.6527942137947	-10.7755309070916	16.7696960160502	-47.213589886596	3.26911862796293	-20.764997170287	3.92650810685908	
2528000000.00006	-12.9326946229548	-46.8740517666676	-10.7602889479442	14.5633159055767	-47.0892933863292	0.6808221591304	-20.8812103229433	2.94369042402929	
2528333333.33339	-12.9553854182215	-47.0171687212154	-10.7618367477583	12.3439246731572	-47.0200309946183	-1.49416423818962	-21.0378017737306	1.93248450911992	
2528666666.66673	-12.9776592138099	-47.2061575968888	-10.7623544408446	10.1296933938229	-47.3101305422232	-1.12427324874485	-21.1656611400299	0.842597493321543	
2529000000.00006	-13.0154698428634	-47.3950233540362	-10.758524855681	7.96512461475763	-47.1230504148551	-4.50884925509605	-21.29690029121	-0.278992922799338	
2529333333.3334	-13.0365946555915	-47.6582652122152	-10.7550290907526	5.72592173163006	-47.281719301743	-7.4217422848959	-21.4566651217834	-1.62390901006423	
2529666666.66673	-13.0674376546966	-47.7756415179296	-10.7486142644258	3.57090732500402	-47.173645049424	-8.86500122283701	-21.6025617965442	-2.70920826596198	
2530000000.00006	-13.1014753049962	-47.9505049121844	-10.7423278386521	1.33023981477829	-47.138952627893	-8.73438829883114	-21.7741686695302	-3.91627421095018	
2530333333.3334	-13.1464514548332	-48.1683702121809	-10.7303458017094	-0.847352490582197	-47.4050575458914	-14.4661964615884	-21.9350218772413	-5.26445040036584	
2530666666.66673	-13.174706020883	-48.397764790302	-10.7280648663706	-3.06142555337064	-47.1829294253765	-14.6430522418219	-22.1090373159159	-6.48250838274292	
2531000000.00006	-13.222019869233	-48.5521312420039	-10.7203491180048	-5.2192383311692	-47.1546354772983	-18.3783514453786	-22.2750921264236	-7.77529448237229	
2531333333.3334	-13.2533909128759	-48.7785560293645	-10.7144414240796	-7.46320726381793	-47.4118688669082	-19.9093828260085	-22.4600250510637	-9.24324126753419	
2531666666.66673	-13.2987910161095	-48.8944910615193	-10.7103934684984	-9.64019034897931	-47.0116315646371	-20.9205804624991	-22.6356571908217	-10.5653835057522	
2532000000.00006	-13.3439973317847	-49.0493652133722	-10.6921371987011	-11.8538535395435	-47.2690055910415	-25.3856244669262	-22.8314746365567	-12.1716540385236	
2532333333.3334	-13.3798552442033	-49.2390614835297	-10.6763462611066	-14.0558297299692	-47.2557947716288	-26.9695523715452	-23.0274554991819	-13.591208437207	
2532666666.66673	-13.4265055014585	-49.567751578723	-10.668036602262	-16.2657140083957	-47.195798005146	-28.7223698853114	-23.2261646588543	-15.1872773831642	
2533000000.00006	-13.4791917792732	-49.6054383568494	-10.6560686613913	-18.5066632889383	-47.3890623583327	-30.3017449676023	-23.4447050922042	-16.883854781673	
2533333333.3334	-13.5130608215527	-49.8702024342534	-10.6443972612132	-20.7105445588124	-46.9393966459031	-32.0535109764974	-23.6299816920023	-18.3206922957618	
2533666666.66673	-13.5711625960315	-50.059690928545	-10.6251935626428	-22.928354922607	-47.2231029020301	-37.5739276970454	-23.8403582858893	-20.0655042561747	
2534000000.00006	-13.6188084259633	-50.1734545965844	-10.6157980724592	-25.1891089064707	-47.1231014047212	-38.8756201179245	-24.0249443763751	-21.8686009605778	
2534333333.3334	-13.6670920295973	-50.4252777653464	-10.5984831682043	-27.4694791462974	-47.1911701937769	-39.4563568731829	-24.2696979022472	-23.3393122256429	
2534666666.66673	-13.7159942119904	-50.6188588273442	-10.5882361550221	-29.7016670364875	-46.9067219120913	-43.1125640881509	-24.4282349816284	-25.4581739129982	
2535000000.00006	-13.7761986882344	-50.7713237904702	-10.5753048457095	-31.9225979596389	-46.9825895306416	-43.3232328938832	-24.6351026217749	-27.0947404298334	
2535333333.3334	-13.8274188143281	-50.9171945893048	-10.5608674781445	-34.1832030461197	-46.7874528004766	-46.8742236874443	-24.8581522199282	-28.8868501840021	
2535666666.66673	-13.8589950003373	-51.3031065812188	-10.5449580305705	-36.4184494417772	-47.1181209948484	-48.2975546475159	-25.0718594762738	-31.1332011936145	
2536000000.00006	-13.9337187768907	-51.4262496479663	-10.535771096293	-38.7155864495212	-46.6675139419289	-49.92478787623	-25.2572112387115	-32.7737624403169	
2536333333.3334	-13.983319764742	-51.585311298499	-10.520914838098	-40.9679381939507	-47.248762047785	-53.1995387015445	-25.479375871137	-34.6358381540172	
2536666666.66673	-14.0293213706038	-51.8940207409067	-10.5141720529286	-43.2603841756323	-47.2757796672378	-56.0186430064426	-25.6527845625186	-36.4014006716203	
2537000000.00007	-14.1008491202669	-52.0378912540711	-10.4971239423526	-45.5502501983842	-47.0191423703548	-56.9448009895454	-25.8808193238868	-38.2528211698969	
2537333333.3334	-14.1465860010757	-52.2395270494894	-10.4875085685386	-47.8072506536363	-47.0882752625278	-60.4486093896928	-26.0780311861949	-40.1713129570861	
2537666666.66673	-14.2095404326594	-52.5097687292756	-10.4762422375416	-50.0679889410442	-46.7948675065825	-62.5568373780023	-26.2576613950097	-42.2186863699802	
2538000000.00007	-14.2885245521895	-52.7106053870019	-10.4627740942616	-52.407239777825	-47.1764523893865	-63.6879015649106	-26.4371903591113	-43.941004645532	
2538333333.3334	-14.3475621246731	-52.9315154034913	-10.4573543330524	-54.6958312703902	-46.884438933771	-65.1264222541529	-26.6411975465185	-45.8310603707764	
2538666666.66673	-14.4114502379529	-53.0665820365234	-10.4459238311275	-56.9775422531103	-47.1617686697894	-68.7197978834268	-26.8348518560646	-47.5573053429114	
2539000000.00007	-14.4804352709826	-53.1873671944197	-10.4409542291404	-59.2670845071403	-46.8156183694277	-69.7983238458262	-27.0501401672494	-49.1451495299657	
2539333333.3334	-14.5670130064478	-53.4949064248172	-10.4394930129846	-61.5793766697612	-46.8694254542764	-72.7574179375567	-27.1314846455026	-50.9541866944311	
2539666666.66673	-14.6338113593595	-53.7129652096063	-10.4267050394663	-63.8843437672391	-46.8553717437655	-75.4862971256052	-27.3837614943682	-52.5735139977439	
2540000000.00007	-14.7009482899893	-53.8620572616059	-10.4198157668698	-66.2129812053221	-46.923133959187	-80.5650589810486	-27.5326792700116	-54.204915805915	
2540333333.3334	-14.7788992815098	-54.2226256063703	-10.4125708442355	-68.5054440595893	-47.0678056737144	-81.1334208299236	-27.6959743748976	-55.9298021686042	
2540666666.66673	-14.8643751689709	-54.4632719514074	-10.4016209115042	-70.8245106192776	-46.7801984260358	-82.9730846097795	-27.8961728362596	-57.1805629087709	
2541000000.00007	-14.9291901679001	-54.7695055088742	-10.4039330105211	-73.0961658903397	-46.8380054313311	-85.7485100299595	-28.052194776169	-58.742612270759	
2541333333.3334	-15.0044636438778	-55.0477088561266	-10.396907951686	-75.4534003200965	-46.8579689877885	-86.7236096688559	-28.1921469901396	-59.7290741225176	
2541666666.66673	-15.0848370536071	-55.3440991316321	-10.3954420556363	-77.7749650664097	-46.7721934597935	-88.1774990700727	-28.3685063946913	-61.0731107420086	
2542000000.00007	-15.1615144960876	-55.6281133593183	-10.386709133005	-80.0276038242971	-46.9346068724784	-90.6972477576518	-28.532066705692	-62.0476577732658	
2542333333.3334	-15.241981085432	-56.0426719975274	-10.4000481952545	-82.3412105132227	-46.8440113920842	-94.2725682663852	-28.6572809538287	-63.1965083612609	
2542666666.66673	-15.3105408783826	-56.2999130053836	-10.3868051518997	-84.6426651496244	-46.7640149159177	-96.0180737901847	-28.859170134283	-63.9716537097096	
2543000000.00007	-15.4020223959638	-56.5230939832693	-10.3922488030329	-86.9647632038998	-47.0496254344776	-97.7827680352523	-28.9922488528484	-64.6728056968239	
2543333333.3334	-15.4644722283199	-57.0591024177598	-10.3906171355878	-89.2669967768465	-47.1932702874967	-100.592521852959	-29.1633568829602	-64.7400584061388	
2543666666.66674	-15.5591006420891	-57.3762740998025	-10.3924739960446	-91.5574074298674	-47.0577959757915	-102.23574341296	-29.3617506047473	-65.4160180032858	
2544000000.00007	-15.6614396430775	-57.6088452056627	-10.3877723680049	-93.8812966681209	-46.9473685273559	-107.381474340525	-29.4773052117452	-65.5073510059214	
2544333333.3334	-15.7459241482112	-57.9869068422685	-10.3862765945741	-96.1655599809149	-47.0665258111716	-108.299657148774	-29.6109359125393	-65.6280635817027	
2544666666.66674	-15.8507967926759	-58.3658403621353	-10.3935761387844	-98.4994029938003	-47.0492449687727	-109.585438037718	-29.7536433135186	-65.2739847160357	
2545000000.00007	-15.9368675711031	-58.5531646432571	-10.3933727242333	-100.799805753479	-46.9292310855873	-111.387073167562	-29.9009257980563	-65.3083825328301	
2545333333.3334	-16.0305912983119	-58.9819878163291	-10.3999558303216	-103.040849262088	-47.0732988273074	-115.996461706071	-29.9975559445115	-64.1036023514808	
2545666666.66674	-16.1480727209682	-59.4028900627598	-10.3975331049415	-105.369215034016	-46.7160960339065	-114.919063645417	-30.1079924905638	-63.9745092137482	
2546000000.00007	-16.2410863760127	-59.9188691440104	-10.3996118955527	-107.608709640174	-46.762985317337	-116.235446421921	-30.2607601875171	-62.8477795069341	
2546333333.3334	-16.3364961660347	-60.3322124283871	-10.4081622780024	-109.878892381672	-46.8233595127077	-119.571993447578	-30.318020709824	-61.5607422951559	
2546666666.66674	-16.4228160290815	-60.7496557385937	-10.4084782449163	-112.139566896783	-47.4083470531387	-124.885509386352	-30.3780425530753	-60.1393274883247	
2547000000.00007	-16.5298731083587	-61.2721275585766	-10.4125904171101	-114.415482975653	-46.9225243609499	-125.255940429288	-30.4874752512289	-58.6584952047211	
2547333333.3334	-16.6207407702743	-61.7931035120543	-10.4218272570213	-116.685625305868	-47.2293248937024	-128.045181396857	-30.4962191342634	-57.1714719114801	
2547666666.66674	-16.7138748571789	-62.330492478802	-10.4231831042495	-118.962785125842	-46.8142819684604	-130.095688084938	-30.5848810806012	-55.6811168386413	
2548000000.00007	-16.7930457922353	-62.8195576515496	-10.4324857115202	-121.20638959366	-46.8015495536088	-131.845997264537	-30.6410066355121	-53.6043523700719	
2548333333.3334	-16.9104466849584	-63.4141674421044	-10.4307769863185	-123.476939900937	-46.8088229202302	-133.312383309735	-30.5547490450383	-51.789192522869	
2548666666.66674	-16.9750373826042	-63.9812279250467	-10.4341816986682	-125.736161711234	-46.7569847136501	-134.834593502975	-30.5212827218312	-49.270052007731	
2549000000.00007	-17.0811048485348	-64.6784569606042	-10.4346025382998	-127.968569157971	-46.8189357112721	-140.473475192866	-30.4428215424738	-47.5778560439062	
2549333333.3334	-17.1608958106848	-65.2997021576518	-10.4392183262178	-130.228197925412	-47.1322946418324	-141.261343267482	-30.3167110737445	-45.5035319287878	
2549666666.66674	-17.2555261944229	-66.1216596151984	-10.4383658677923	-132.488828600285	-46.8216828344218	-143.799037528701	-30.1806936754925	-43.1965859172693	
2550000000.00007	-17.3409792504958	-66.7458972088553	-10.4494034167804	-134.735300053194	-47.0263660485179	-148.034648727166	-29.9891971898534	-40.8189764886808	
2550333333.33341	-17.450042947207	-67.5015225829253	-10.4447010223856	-136.91566619482	-46.8826313223267	-149.169314276243	-29.8526396663705	-38.8353294628773	
2550666666.66674	-17.5180577847518	-68.3838868074579	-10.4507047397982	-139.201537362243	-46.5094537865393	-148.498342653928	-29.5906571006959	-36.8618103117707	
2551000000.00007	-17.6142075348184	-69.0928423359048	-10.4555103697624	-141.395471458337	-47.0666526697624	-151.260207660115	-29.3661945630032	-34.8337032247582	
2551333333.33341	-17.7077040375045	-69.8985801590948	-10.4557669683377	-143.635306888499	-47.0334638666124	-153.593183202897	-29.0647327728558	-33.0611833924088	
2551666666.66674	-17.8079266890468	-70.7379585812501	-10.457255671685	-145.908132536265	-46.7052478602251	-154.595320828148	-28.8131040105638	-31.1251148853509	
2552000000.00007	-17.8961896644927	-71.6537288962714	-10.4575493674318	-148.089345702466	-46.6937360105455	-158.50204240308	-28.5465108461845	-29.3788618525302	
2552333333.33341	-17.9995826854113	-72.3586211181579	-10.4562327535669	-150.320977251621	-46.6816793037895	-161.21327859914	-28.2618972188909	-27.622323844102	
2552666666.66674	-18.0810779861641	-73.3259849957431	-10.4585032015249	-152.522849561172	-47.1041188739826	-165.78258937889	-27.9353096802821	-26.0666768008696	
2553000000.00007	-18.1846396995482	-74.1188468076755	-10.461452610726	-154.713798219968	-46.6742514686169	-166.752128737478	-27.6396361150187	-24.9351110458797	
2553333333.33341	-18.2638795147344	-74.9773826945471	-10.4662319756946	-156.940234768599	-47.0400893044646	-168.293181034174	-27.3137473381793	-23.7378533001606	
2553666666.66674	-18.3501292152808	-75.8929602764896	-10.4676890382319	-159.158190887975	-46.6854957566575	-172.530538354699	-27.0316588597298	-22.3070189243196	
2554000000.00007	-18.4454684208795	-76.8217655083007	-10.4677783143195	-161.394384568618	-47.0250285907172	-175.289259938756	-26.72914793983	-21.2559577827028	
2554333333.33341	-18.5182996997687	-77.6181861933019	-10.4587541996934	-163.581561410849	-46.705778081111	-172.888391788453	-26.4005360512181	-20.4179696273165	
2554666666.66674	-18.5965145021891	-78.5718201810168	-10.4613088256974	-165.784533723948	-46.8454081918202	-178.438037443439	-26.1225879567731	-19.5816897425931	
2555000000.00007	-18.6734368427193	-79.4543398654693	-10.4624356171875	-168.016316568488	-46.8980362826371	179.91117041964	-25.8622461137481	-18.8400667560773	
2555333333.33341	-18.7324597099755	-80.4048209096929	-10.4643698686038	-170.22417608086	-47.0251522440657	176.713050725869	-25.5422513880802	-18.1991467686971	
2555666666.66674	-18.8104611507731	-81.3079089054522	-10.4590376941264	-172.40491825862	-46.8738245400394	177.5836159719	-25.2682476985597	-17.6559112111502	
2556000000.00007	-18.8716627911074	-82.1911576100269	-10.4624609445233	-174.658145548229	-46.9286663120722	174.330277748575	-24.9882125669664	-17.0511775349137	
2556333333.33341	-18.9301154039728	-83.1486730615891	-10.4571545618803	-176.870036460229	-46.5564744972756	172.064265338177	-24.7250655705452	-16.7249088999476	
2556666666.66674	-18.9957373513608	-84.0259827644419	-10.4536186173257	-179.04306812223	-46.9957853214056	169.964229688372	-24.4788593530799	-16.031817303897	
2557000000.00007	-19.0390107023657	-84.9264593639374	-10.4488564066591	178.683002806209	-46.7012500009943	165.916229035987	-24.2357750282612	-15.7578687158517	
2557333333.33341	-19.0648875891169	-85.8464100999239	-10.4482706905838	176.473024012264	-46.8999485231659	165.729885495016	-23.9874808986364	-15.4463842598892	
2557666666.66674	-19.1160296915432	-86.6455397428403	-10.4406171792027	174.227130396141	-46.9530914708476	161.104625296413	-23.7890736338056	-15.4065550111715	
2558000000.00008	-19.1506359495403	-87.6094503403484	-10.4338352324249	172.012608316194	-46.6754729645196	160.280004091653	-23.5686072941673	-15.0866302698184	
2558333333.33341	-19.1762172027717	-88.4308114773653	-10.4330606189205	169.789730415809	-46.382296929287	157.102149070421	-23.329325488241	-14.888913564263	
2558666666.66674	-19.2091195708837	-89.3025804811182	-10.4289929208517	167.560951310756	-46.4664010522178	155.578718022291	-23.173664636411	-14.828771758899	
2559000000.00008	-19.2219781255817	-90.0970481330543	-10.4172818799212	165.353847165601	-47.0299396805243	154.067963215517	-22.9600121761763	-14.5674497553232	
2559333333.33341	-19.2328895385078	-91.0187487273159	-10.4177079118939	163.088445688438	-46.9386493196726	150.773966549397	-22.7994435061466	-14.3951439947723	
2559666666.66674	-19.2281473800826	-91.7845826605236	-10.3990060552786	160.802668058468	-46.7156118806108	149.437956755887	-22.6010558761896	-14.2598895706174	
2560000000.00008	-19.2360079180928	-92.527366282473	-10.4084518122729	158.563574895455	-46.5700535179499	145.997175731313	-22.4428419376116	-14.234179685181	
2560333333.33341	-19.2383646895426	-93.3281392688532	-10.3940831947315	156.29479129277	-46.6155049149628	142.609442760963	-22.2945086482265	-14.0306317660877	
2560666666.66674	-19.2373203302079	-94.1575227081783	-10.3862705343352	154.059133739272	-46.9986575619507	143.621915820105	-22.13582999183	-14.0545272438002	
2561000000.00008	-19.2112021558578	-94.9282952757851	-10.3781830523818	151.78264272867	-46.9746865089545	138.376454479954	-22.0073461799735	-14.2046844275789	
2561333333.33341	-19.1978234590683	-95.8089207086403	-10.3619038178975	149.498796762042	-46.6699997517238	136.835390935932	-21.8787015392072	-14.2094963759665	
2561666666.66674	-19.1701487660582	-96.5661640035613	-10.367405785316	147.225319848557	-46.6757323902682	135.638674652978	-21.7586605172135	-14.0168942463734	
2562000000.00008	-19.1411011878692	-97.3079434891806	-10.3515490172581	144.928355147282	-46.4735293923218	131.866378839292	-21.6408897886641	-13.9825386987788	
2562333333.33341	-19.0989981668692	-97.9875758178171	-10.3526217976082	142.63743293784	-46.9019044205902	132.414238827274	-21.5305151770808	-13.968006620602	
2562666666.66674	-19.042470237095	-98.6957126182041	-10.3492492223532	140.351654183966	-46.5185530464374	129.047765244717	-21.4304081027836	-13.9616483827101	
2563000000.00008	-19.0064045912873	-99.552556447382	-10.3383648107237	138.047021467165	-46.378357935508	125.705596584371	-21.3117399517384	-14.0740394725699	
2563333333.33341	-18.9459349246428	-100.133276884292	-10.3333526874046	135.717466872336	-46.1835585969682	120.170016954422	-21.2365196041491	-14.0021008390612	
2563666666.66674	-18.8991848525093	-100.768208159541	-10.3260922183757	133.424787900301	-46.6858735478824	119.80098896206	-21.1565304671619	-14.024124659754	
2564000000.00008	-18.8403732870004	-101.535125507588	-10.3200217056683	131.129078609814	-46.5538442858112	119.745043633537	-21.0741427078323	-13.8726802600017	
2564333333.33341	-18.7927960195154	-102.20262953749	-10.3153006265794	128.837322987079	-46.6101583336709	116.71279390021	-21.0362634017683	-14.0948789764519	
2564666666.66675	-18.730230589156	-102.825875903465	-10.310971640909	126.486887719164	-46.3956459505497	113.571818197916	-20.9639479513943	-13.8652384134277	
2565000000.00008	-18.671391194281	-103.475329188902	-10.3019148109047	124.164879352773	-46.3626763040096	113.116223640804	-20.913784482642	-13.9628880194079	
2565333333.33341	-18.603875849647	-104.154854535131	-10.3006202227576	121.830584824964	-46.5587262863719	109.437153609482	-20.8709147264451	-14.0614027034692	
2565666666.66675	-18.5404296062364	-104.848396337961	-10.2961742108592	119.494172287685	-46.5061064938091	107.628395425106	-20.8256958845265	-13.878025515017	
2566000000.00008	-18.4831189783252	-105.489017525551	-10.2937998965003	117.183218318225	-46.7232413214969	105.700506415476	-20.8111252889877	-13.9215336458084	
2566333333.33341	-18.4055446898978	-106.090152055252	-10.2820859891347	114.826771851789	-46.5178596611648	103.452076770714	-20.7849421092703	-13.8860493939052	
2566666666.66675	-18.3502348015773	-106.750249878072	-10.2810704920032	112.451967202634	-46.6058719153677	99.6948591791949	-20.7569233907571	-13.6657932406115	
2567000000.00008	-18.2842291083761	-107.398004064037	-10.2805778846629	110.113440222653	-46.5395787757863	98.6974846548537	-20.7764491031727	-13.8662896283217	
2567333333.33341	-18.2176363105263	-108.059225031583	-10.2763264945793	107.782110130928	-46.4221661863859	95.6604194606939	-20.7660242387875	-13.679770400184	
2567666666.66675	-18.140134840857	-108.672624130417	-10.2703199018346	105.380067376658	-46.4729474375564	93.3938589603848	-20.7559647827873	-13.5614138631756	
2568000000.00008	-18.0626874680165	-109.463497056851	-10.2697181240574	103.029925567026	-46.198256629172	92.0939496540386	-20.7894809647004	-13.403035388059	
2568333333.33341	-17.9920670793115	-110.07872336002	-10.269581479536	100.636603605553	-46.5173965596651	88.5307267511851	-20.7982308395699	-13.3684510493417	
2568666666.66675	-17.9120334267418	-110.676121576267	-10.2662395606843	98.2560450402918	-46.5249865715141	85.7994607738265	-20.8215162181547	-13.314118766282	
2569000000.00008	-17.8549280881488	-111.473452800477	-10.2678017771072	95.9099303989406	-46.616941032858	82.0234705596423	-20.8364486145947	-13.2205323068447	
2569333333.33341	-17.8009415123203	-112.092687144196	-10.2681525213583	93.5728265114361	-46.1969926595758	80.9511746601678	-20.8489312757847	-12.9984804619177	
2569666666.66675	-17.7295146585139	-112.724209121921	-10.2742536242634	91.1436541156066	-46.3080355374107	78.3511185137982	-20.9029355837688	-12.7445964491593	
2570000000.00008	-17.6651602676495	-113.421100272268	-10.2677237537448	88.7620017159106	-46.7553807246457	77.432512993861	-20.9708529371924	-12.5338637913525	
2570333333.33341	-17.5952995812444	-114.117147121856	-10.2800805185	86.4091849909295	-46.6103773619557	74.8351288110293	-21.0264748799348	-12.2095232420211	
2570666666.66675	-17.5507089193462	-114.813702656205	-10.272844376549	84.0365417325241	-46.124637706696	72.0164050771131	-21.0492716419845	-12.2034254302624	
2571000000.00008	-17.4980552311923	-115.453410650525	-10.2757901971245	81.6707852022891	-46.3940922400336	71.0066856738985	-21.1437584537136	-11.8043411809567	
2571333333.33342	-17.4588065128794	-116.282366286815	-10.2775473311439	79.2630606860573	-46.3007307918144	67.6840421057484	-21.2046424690461	-11.3551618314824	
2571666666.66675	-17.416991550107	-116.819098770524	-10.2889807536537	76.9593123108312	-46.3948824148262	65.7033459835722	-21.2621902855634	-11.3006308553397	
2572000000.00008	-17.3734136798293	-117.507907252114	-10.2866942836114	74.6083269377899	-46.4596172798329	62.0712256718226	-21.3359346664156	-11.0026747499074	
2572333333.33342	-17.3446593132189	-118.206209569348	-10.2932459163261	72.2559854016486	-46.3741624329941	62.23481046988	-21.4436909457711	-10.6505790936118	
2572666666.66675	-17.3155823943336	-118.91956390484	-10.2929360880819	69.9003526427669	-46.6784134815362	58.869809292717	-21.5414949160014	-10.1995993029016	
2573000000.00008	-17.2862898365769	-119.669318488886	-10.2996053834488	67.5045964015482	-46.6579553019877	55.4703774703324	-21.6256600105241	-9.66149831342276	
2573333333.33342	-17.2565250590066	-120.358335443485	-10.3093734576158	65.19052770821	-46.629950640583	54.3660632790171	-21.7150216868523	-9.31571879280415	
2573666666.66675	-17.241844460835	-120.973820329126	-10.3017470214268	62.8467255543961	-46.5925371036418	52.8825538526706	-21.8404659773513	-8.76002197007866	
2574000000.00008	-17.2109918694035	-121.80957968731	-10.3096571176117	60.5271402844558	-46.4704112066016	48.9753795558571	-21.925105867866	-8.40929620188854	
2574333333.33342	-17.1859369736885	-122.477731668211	-10.3094714174472	58.1682454138326	-46.5107096661805	47.5926149976472	-22.0432969577971	-7.46125592082825	
2574666666.66675	-17.1634636899768	-123.22987890642	-10.3149053924322	55.838883622322	-46.3242534659755	44.4469099614183	-22.1613134207309	-7.07319516680402	
2575000000.00008	-17.1597347750348	-123.911476020044	-10.3190854128559	53.5395806625992	-46.5548422149617	43.3525648112006	-22.2400791165407	-6.61626538574237	
2575333333.33342	-17.1470568630201	-124.66907514295	-10.3235152547975	51.2062491550804	-46.5727708354283	42.5498620458842	-22.3835257483342	-5.89746202926695	
2575666666.66675	-17.151120938844	-125.363802590539	-10.3243638321238	48.9065243790354	-46.5658045143876	39.4398421546893	-22.5139672150114	-5.12875249982194	
2576000000.00008	-17.1507450697391	-126.146337564997	-10.3232166415251	46.5485372577356	-46.3683329607524	34.6524806872281	-22.6293946694576	-4.46825200422861	
2576333333.33342	-17.161429320961	-126.910956463578	-10.3281358687391	44.2690609081796	-46.8658775187235	31.565414305124	-22.7551969014273	-3.83121795169331	
2576666666.66675	-17.1654080356481	-127.650998982774	-10.3286837484977	41.9291355081924	-46.5298397868978	31.0577091277823	-22.8678013408811	-2.86158225020659	
2577000000.00008	-17.2008354572943	-128.430598117482	-10.3267810191595	39.6235971381212	-46.0894070955367	27.6307264111758	-22.9900769676618	-2.08483451456634	
2577333333.33342	-17.2174699632954	-129.088584631017	-10.3307076118577	37.3287983822901	-46.5657394187806	26.8553016432273	-23.1393038612786	-1.18926378654144	
2577666666.66675	-17.2397236478673	-129.998439926292	-10.3292468293506	35.0166898966318	-46.5817705043715	25.7206023357365	-23.2557107740098	-0.16070485847618	
2578000000.00008	-17.2793598653425	-130.750560095711	-10.3277543032917	32.767655198743	-46.7948775426091	20.6066397509025	-23.3858013005795	0.485012664591121	
2578333333.33342	-17.3224691894637	-131.657076415917	-10.3314618851695	30.4554562905473	-46.7913238717731	18.049596104406	-23.5219687873421	1.53067611721636	
2578666666.66675	-17.3648456957933	-132.395412812501	-10.3346059412917	28.1673933303532	-46.6852342742472	15.9494028641321	-23.6562853649055	2.46625736945252	
2579000000.00009	-17.4242722359708	-133.141175997075	-10.331371046439	25.8907967513851	-46.4625047824408	14.7277260810494	-23.7949194557522	3.55301487016854	
2579333333.33342	-17.4808954018506	-134.131851004045	-10.3320405162205	23.6098129316831	-46.7729959735829	10.441127705461	-23.9510415938687	4.82996199158702	
2579666666.66675	-17.5406631806997	-134.94923909016	-10.3316788918308	21.3303546362942	-46.8121646498349	8.19577933290578	-24.0696826734711	5.83949932011625	
2580000000.00009	-17.6080723370674	-135.871773456465	-10.3288826003033	19.0883960372464	-46.5052011074822	7.35992346870874	-24.1896508146225	6.90939138604984	
2580333333.33342	-17.6873253865872	-136.557655688895	-10.3289110600614	16.8098343063204	-46.6230909023216	4.40184705276232	-24.3221892695612	8.17837191227455	
2580666666.66675	-17.7607376141614	-137.44468133147	-10.331826106264	14.5098080608056	-47.0837746396164	2.7154835419615	-24.4676979799926	9.30493710088597	
2581000000.00009	-17.8537645320641	-138.39258944705	-10.3300352621718	12.2880745094814	-46.6971868967814	-0.946557127091749	-24.6015126932754	10.7868487974233	
2581333333.33342	-17.9245109216756	-139.248362944502	-10.3357817554678	10.0037014346042	-46.6342027580072	-0.222721083167008	-24.6992319470216	11.8567212336628	
2581666666.66675	-18.0190648248134	-140.291018215755	-10.3238190050261	7.69024329123118	-46.8129708270113	-2.40667648620593	-24.8280347162884	13.0470832705756	
2582000000.00009	-18.1202534757812	-141.056119895963	-10.3311949583438	5.41565550533845	-46.6127822603362	-6.12549120763308	-24.9328586913866	14.3740178567783	
2582333333.33342	-18.2421741680735	-141.821926329801	-10.3216968174797	3.16172852297076	-46.8675080787407	-9.51241141901917	-25.0938301853371	15.9640827415104	
2582666666.66675	-18.3326411789119	-142.716009982969	-10.3267649101041	0.926149719736064	-46.8041861691543	-9.6011377423559	-25.195640710078	17.178338104365	
2583000000.00009	-18.4355669771207	-143.742326288629	-10.3200547069549	-1.32254564689538	-46.4185491621376	-13.4122752547495	-25.3071757269887	18.404078979306	
2583333333.33342	-18.5178240406118	-144.523426816462	-10.3282200469138	-3.61457410365434	-46.8659976519071	-14.7886178908673	-25.4242451297331	20.0738108530884	
2583666666.66675	-18.6438560995027	-145.62654984071	-10.3198602435757	-5.87125310241764	-46.639076067075	-18.4119435591459	-25.5245204436993	21.5006866562575	
2584000000.00009	-18.7591003933263	-146.424498787609	-10.3208014844868	-8.14429893368776	-46.7301921221808	-18.8421921587652	-25.6368299942643	22.7299486943136	
2584333333.33342	-18.922586792135	-147.184659160111	-10.3163139771036	-10.4389754065883	-46.7740014153732	-22.031981039381	-25.6903384682212	24.1047199800545	
2584666666.66675	-19.0228938015812	-148.209623437741	-10.3174622904342	-12.6699771437064	-46.6110285799113	-23.030439830549	-25.8084451395336	25.5884302962038	
2585000000.00009	-19.1418371076981	-149.199681148309	-10.3200381356706	-14.9153780500838	-46.6807112986162	-27.4693180970272	-25.8895651292248	27.089589000945	
2585333333.33342	-19.2975652458554	-149.916561963737	-10.3186240431985	-17.2131907448258	-46.6056965391333	-27.968195704405	-25.9982617529508	28.7525217471114	
2585666666.66676	-19.4165113078445	-150.861282589155	-10.3178521805908	-19.4176668201099	-46.7921681919544	-32.5227070620762	-26.0391579168044	30.1745636737545	
2586000000.00009	-19.5622542212983	-151.895240275386	-10.3188623005581	-21.7482255182341	-46.7688174833171	-31.7957989902118	-26.0994888216146	31.2475692537815	
2586333333.33342	-19.7102089977313	-152.764439193314	-10.3169002940607	-24.0067836481476	-46.6271891941564	-35.8377047698057	-26.1892145141752	32.7932401041549	
2586666666.66676	-19.8709695420743	-153.698548957711	-10.3116376820161	-26.1763987725781	-46.8304069993375	-38.9611151331945	-26.1900159120267	34.6163290081015	
2587000000.00009	-19.9908414930167	-154.677427887692	-10.3116924232629	-28.491031304554	-46.8132031427956	-39.9648143240237	-26.2313254629186	35.7931033213107	
2587333333.33342	-20.163769537452	-155.550461594857	-10.3098123721814	-30.7879251350436	-46.7423657062168	-41.7335343329936	-26.3132598234861	36.9393928837878	
2587666666.66676	-20.3055141784978	-156.525026031402	-10.3126972036391	-33.0423687799997	-46.6514272359871	-44.4738906822484	-26.3304189021134	38.5193991848493	
2588000000.00009	-20.4676622495326	-157.493812817869	-10.3169633515502	-35.2925019036186	-46.6472782486599	-46.6321555233576	-26.3726980787772	39.8282410474522	
2588333333.33342	-20.6088142990567	-158.325129501807	-10.31513136176	-37.5504566909156	-47.0419412447052	-51.4135305185417	-26.3721986110403	41.2090943409138	
2588666666.66676	-20.7872193557644	-159.590852642042	-10.3084147781594	-39.8221728521291	-46.6720552079332	-51.291172098793	-26.3959555130571	42.6646971652067	
2589000000.00009	-20.9111383137675	-160.513587778065	-10.3106683276992	-42.0744559029668	-46.573429398844	-54.3678940752947	-26.4202514501198	43.8271028511807	
2589333333.33342	-21.0581959355398	-161.489209348378	-10.3193852797926	-44.3684170444623	-46.6645103764866	-54.3024285593856	-26.4592581859115	45.087433018731	
2589666666.66676	-21.2100132257974	-162.359322615236	-10.3156991287619	-46.6369667593873	-46.7461847133898	-57.9788040299658	-26.4494361322856	46.1716623930414	
2590000000.00009	-21.3506543972171	-163.376843659384	-10.3173720225919	-48.8925200675252	-46.8949371086706	-59.9321726172094	-26.4089286508139	47.18112930555	
2590333333.33342	-21.4942463964314	-164.58233862411	-10.319072072602	-51.1544078804999	-47.0033632333266	-63.7061330152506	-26.3994445792176	48.4460120960551	
2590666666.66676	-21.6401164134046	-165.6939915457	-10.3215989259364	-53.4110279161539	-46.7072535582295	-64.2717410083404	-26.3821222446134	49.3457150869768	
2591000000.00009	-21.7698668444974	-166.737407396031	-10.3199055801978	-55.6878859534022	-46.7499405878022	-66.9759394268081	-26.3911134990063	50.3668085337991	
2591333333.33342	-21.92612222552	-167.891821424726	-10.3219712906092	-57.992739595726	-46.6325642039171	-69.3013975760328	-26.2979156196534	51.3161345670162	
2591666666.66676	-22.0553726275709	-168.981716198982	-10.318167939367	-60.2981176834205	-46.5485616101971	-71.2886818789966	-26.3264050703501	52.0132335826866	
2592000000.00009	-22.153092245457	-170.376895805483	-10.3190614517482	-62.5718417483942	-46.563266803449	-73.821219976859	-26.3489379327722	52.8369197570277	
2592333333.33343	-22.2701556239777	-171.563285784144	-10.318481244512	-64.8858893145977	-46.5145703648307	-76.6663151005572	-26.2912203370356	53.6205989839604	
2592666666.66676	-22.3966899490865	-172.804666115276	-10.3256209291722	-67.1336246312488	-46.6700341304642	-78.881061011233	-26.262894440718	54.1518942182269	
2593000000.00009	-22.5192314842268	-174.55145332399	-10.3221317154488	-69.4399185620366	-46.7618983714888	-80.5300733558678	-26.2366115608555	54.9825806716556	
2593333333.33343	-22.6234875308824	-175.506287736008	-10.3191361218638	-71.7227933798531	-46.6720402895963	-82.5344108350283	-26.2117824112653	55.4957879073931	
2593666666.66676	-22.7455184285343	-177.131939955391	-10.3234481296645	-74.0319282836298	-46.8606032472676	-83.9286413476896	-26.1995096270362	55.9499031334247	
2594000000.00009	-22.7986506731276	-178.502504746621	-10.321587121499	-76.3061440135217	-46.70753153328	-87.9849260254718	-26.1490877010764	56.6164752215554	
2594333333.33343	-22.8648550869296	179.94023554102	-10.3258768834206	-78.566746644396	-46.524997641865	-89.7589406244478	-26.1021528137664	56.7304407061152	
2594666666.66676	-22.9353297139051	178.277116195718	-10.3276266135673	-80.9210614893877	-46.5956851482952	-92.1739999025982	-26.0682988415225	56.9682261715512	
2595000000.00009	-22.99275660039	176.596451833865	-10.3292624500275	-83.2069904462189	-46.8076770287925	-92.4821729946123	-26.0480052943526	57.2469582448088	
2595333333.33343	-23.0054471338267	175.081031101851	-10.3279107657957	-85.4425090740841	-46.7664566869418	-97.8055094080917	-26.0191014261219	57.4677753773273	
2595666666.66676	-23.0481149016174	173.413512054576	-10.32593199647	-87.7444097249595	-46.7965565206172	-98.6115755380217	-25.9358800643815	57.4687755351408	
2596000000.00009	-23.036219217823	171.746925920618	-10.3308935752074	-90.034621416773	-46.4782566050998	-100.945730872787	-25.8956961847279	57.564330095319	
2596333333.33343	-23.0444234901872	169.798499012167	-10.3347816238527	-92.3522772728821	-46.4730122201469	-104.959543618922	-25.8764049173542	57.5880048491348	
2596666666.66676	-23.0339491358632	168.290871619427	-10.3291575549231	-94.6167690928198	-46.7251708756725	-106.737628316296	-25.8064399257895	57.4295003186314	
2597000000.00009	-22.9863599653168	166.310664179243	-10.341801148499	-96.9214464140328	-46.6934157285102	-106.780007600084	-25.7530708883321	56.9945974901271	
2597333333.33343	-22.9628374828679	164.62891774845	-10.3371145838061	-99.2036077985814	-46.6970145196362	-111.593487122731	-25.6905940486482	56.7165617066421	
2597666666.66676	-22.9045117371964	162.570726578781	-10.3430946335492	-101.447950855035	-46.4252059512627	-113.110911495469	-25.6262818080745	56.4121790188769	
2598000000.00009	-22.8374232037757	160.723054238934	-10.3378986843999	-103.798731222038	-46.514859265402	-115.011790875675	-25.5862557678764	55.9352775107304	
2598333333.33343	-22.7582674877206	158.68026407486	-10.3486004805865	-106.080870330182	-46.4462406760468	-117.15482365384	-25.5407105596382	55.627515754101	
2598666666.66676	-22.6627509471768	156.958656662028	-10.340340062451	-108.34469878397	-46.7666470464411	-118.71120121684	-25.4936507549896	54.9103967280447	
2599000000.00009	-22.54814418973	155.02408587626	-10.3473031026563	-110.610410427398	-46.6917104470157	-121.549279297672	-25.4386109247582	54.356489633793	
2599333333.33343	-22.4318699480977	153.077630615239	-10.3640707076257	-112.963653996848	-46.4643099808288	-124.435740633982	-25.3654254288267	53.6942820716544	
2599666666.66676	-22.2992316435473	151.273241499482	-10.3604568035083	-115.260010255728	-46.3821191180171	-124.681965390439	-25.3479317935095	52.713729048538	
2600000000.0001	-22.1582065525861	149.34508421294	-10.3668795793802	-117.587542657334	-46.9786680339816	-128.806582617413	-25.2886787550042	52.1959337258693	
