!Agilent N9923A: A.05.34
!Date: Friday, 25 March 2016 20:41:33
!Model: N9923A
!Serial: MY51491690
!GPS Latitude: 
!GPS Longitude: 
!GPS TimeStamp: 0001-01-01 00:00:00Z
!GPS Seconds Since Last Read: 0
!CHECKSUM:1216865211
!Correction: S11(ON U*)S21(ON U*)S12(ON U*)S22(ON U*)
!S2P File: Measurements:S11,S21,S12,S22:
# Hz S DB R 50
2400000000	-16.2948173945941	177.933353837304	-9.38009366756924	159.732150156483	-46.3811726112283	146.578727330099	-20.9862918381248	12.1662825957133	
2400333333.33333	-16.3083544827682	176.845795663693	-9.37938678035541	157.451588957738	-46.3342269123346	145.08473250896	-21.1110964825539	12.139156527739	
2400666666.66667	-16.2981080704325	175.967408304168	-9.37512783693124	155.115464186397	-46.2449317124494	142.319678949314	-21.1906165402626	12.1485561975579	
2401000000	-16.3244026807303	174.843117604495	-9.36920427122331	152.871524576432	-46.4377331869014	140.008528775094	-21.350200050293	12.1880762442671	
2401333333.33333	-16.3490900280938	173.721379544364	-9.37629870041848	150.572252841566	-46.3596211888735	137.739271672489	-21.4741321473034	12.0470378757307	
2401666666.66667	-16.3903422395441	172.549497083732	-9.37317221336405	148.258212521944	-46.2640831391709	134.51080983833	-21.5937813885105	12.1657469279126	
2402000000	-16.3945571923341	171.427640638022	-9.36954792273175	145.92622756281	-46.2575639241635	132.165526809832	-21.7474326890476	12.0535571331022	
2402333333.33333	-16.4210412631504	170.387374362775	-9.36791268050817	143.655964902579	-46.4225796205249	131.556741200023	-21.9012462380593	12.1641058912706	
2402666666.66667	-16.4470362812608	169.156835710805	-9.37263241065889	141.306530840931	-46.4920239990516	128.530059776813	-22.0485519428403	12.1081173437474	
2403000000	-16.4591361142894	168.105697155691	-9.36757898452053	138.98227100076	-46.4484075266571	125.588523105712	-22.1921800977751	12.1233366585909	
2403333333.33333	-16.479838679726	166.783019420896	-9.37349451802763	136.723492005825	-46.3545056437534	124.027498819338	-22.3725155214465	12.2739907830883	
2403666666.66667	-16.5282106001334	165.670876457632	-9.37122146960912	134.413077377597	-46.3383751181996	122.770404498658	-22.5256570816637	12.3134195863243	
2404000000	-16.5226358803136	164.442273676276	-9.37208269136442	132.141174942264	-46.1913771372545	120.756556902223	-22.7102623081246	12.4004930917099	
2404333333.33334	-16.5639237962462	163.183057906882	-9.37073319416497	129.835556749326	-46.5693186391545	117.585069432547	-22.8527311709437	12.4529469207339	
2404666666.66667	-16.5623137635109	162.061108496153	-9.37465396016361	127.525826006844	-46.4971325449119	114.864956071908	-23.0272969155045	12.5870916459955	
2405000000	-16.5746711983222	160.803275908704	-9.37947123133809	125.221466028455	-46.475807104166	112.136968125345	-23.2076357302605	12.6252979502833	
2405333333.33334	-16.5822745650702	159.674987191704	-9.38236262692701	122.919310497705	-46.5096510787521	110.004850142915	-23.3477695414622	12.7121841022516	
2405666666.66667	-16.5914514132995	158.436690271271	-9.38497992474239	120.673415101186	-46.434915806374	108.633030943263	-23.535170617724	13.0528521383173	
2406000000	-16.6019694360346	157.199501219924	-9.39059726899054	118.344134262485	-46.5851838979841	107.457286947635	-23.7084399747695	13.2217186754592	
2406333333.33334	-16.6125993604594	156.059756674084	-9.38672111298491	116.076853874062	-46.6120692666174	102.678264465396	-23.8820377937761	13.4884747353672	
2406666666.66667	-16.6129515974188	154.720304208545	-9.38798929990532	113.78687936621	-46.3098587894065	100.294727479735	-24.0911025921893	13.5009630120185	
2407000000	-16.6133196104527	153.520724425177	-9.39040119478399	111.522350118571	-46.3949200033218	100.805269984092	-24.2591085767609	13.8184346291457	
2407333333.33334	-16.6098486911254	152.320820164877	-9.39676867920802	109.241046267302	-46.5907462966341	96.2748084999956	-24.4699015422644	14.0955467390707	
2407666666.66667	-16.6075494337229	151.054464411752	-9.40523162192269	106.958367849737	-46.3811257765308	96.0248076542963	-24.6234457478355	14.4629529350874	
2408000000	-16.607294184131	149.954509491597	-9.40503286335806	104.727339818104	-46.4815380011482	90.7849083408581	-24.8193804345917	14.8575340745414	
2408333333.33334	-16.6000295929064	148.644052197476	-9.4138724494654	102.417383414717	-46.6586455409879	90.9179661730957	-24.9961388495278	15.1435985980093	
2408666666.66667	-16.5937674666084	147.503602832458	-9.41570100075282	100.190923269082	-46.3623609484382	88.9751490496273	-25.175696571537	15.4890591246289	
2409000000	-16.5780811007656	146.312400268181	-9.42384805146851	97.9358046802006	-46.4175928707759	86.675944262704	-25.3078125705311	15.9843169482917	
2409333333.33334	-16.5603762864076	145.115937485419	-9.42989723567123	95.6627404966235	-46.2218662965875	83.9096770901475	-25.5044217503288	16.3400829765085	
2409666666.66667	-16.5550499355865	143.918239066703	-9.43453520555238	93.3930818419363	-46.2661898732688	79.8444410104965	-25.6513316689523	16.7739234333989	
2410000000	-16.5260818931815	142.806932662107	-9.44218049072268	91.1531056101948	-46.8433790482672	78.8225556057566	-25.8216106639871	17.2602860150786	
2410333333.33334	-16.494739332095	141.785769899019	-9.44988906471201	88.8960753253778	-46.4565592415573	77.6550083471108	-25.964402812572	17.7310369911187	
2410666666.66667	-16.475048297061	140.562633170635	-9.45517952216279	86.6435523121792	-46.6016021441907	74.0266859760898	-26.1122430691306	18.192828069222	
2411000000.00001	-16.4376470513095	139.47927919959	-9.4689264832604	84.4034906105806	-46.448579965692	72.0435158940252	-26.2196773730988	18.8780298825813	
2411333333.33334	-16.4202317142041	138.28306746686	-9.47746527846462	82.1612235489211	-46.5264322463735	69.4410142616075	-26.3634400752781	19.4783707664207	
2411666666.66667	-16.3767883385521	137.239964805665	-9.4848126988351	79.8836414417685	-46.535975358888	67.4500553779126	-26.4399724688335	19.9284298544371	
2412000000.00001	-16.3466286159051	136.229157569431	-9.48826395978245	77.6553468717116	-46.6700145773381	63.981527534219	-26.5453926613822	20.3893749695652	
2412333333.33334	-16.3063738798268	135.033996878716	-9.49925230178429	75.4371364371892	-46.4676921745258	63.776385610329	-26.6864716417278	20.8636260354199	
2412666666.66667	-16.2515123352052	133.853675096361	-9.50437735600594	73.1834113629814	-46.5696652455377	59.4208377877044	-26.6964805715241	21.1673401217293	
2413000000.00001	-16.1993431618004	132.848162909314	-9.52250100627865	70.9200633744264	-46.581303827042	57.6740880423437	-26.8221985052083	21.7513293764252	
2413333333.33334	-16.1554118676013	131.666963526434	-9.52717991310461	68.6805878327053	-46.6571027595503	57.0932184759314	-26.8382595583016	21.9484403429244	
2413666666.66667	-16.0937193063172	130.574341201818	-9.53581611968718	66.4782293527809	-46.6131144935527	53.8524603021969	-26.8895423069194	22.7340317761554	
2414000000.00001	-16.0326620093902	129.489873428899	-9.54585317226781	64.2249018056803	-46.5746755582609	52.7774424358659	-26.9215660494376	22.8523475544426	
2414333333.33334	-15.9760735147256	128.416244501016	-9.55566904313661	62.0570812844924	-46.5304342106473	49.5734505600502	-26.8948826560696	23.4135750445631	
2414666666.66667	-15.9251409459422	127.358334044297	-9.5704846955316	59.8073535182059	-46.5639722122434	46.3946853474972	-26.9520303461554	23.526375470496	
2415000000.00001	-15.8466126513751	126.361836532842	-9.57876757365259	57.5543250490473	-46.4733704323236	44.5079731762439	-26.9236528790608	23.709677501471	
2415333333.33334	-15.7881480250251	125.361159893727	-9.59566198952105	55.3530918072195	-46.4810418121297	40.454760705499	-26.9118168614779	23.8260509066224	
2415666666.66667	-15.7172479475611	124.365324297864	-9.60424148948903	53.0899844647026	-46.8252568144339	41.3975489734129	-26.8553430495822	24.2267479185535	
2416000000.00001	-15.6386410865619	123.455617566505	-9.61789767365745	50.85593442831	-46.6005321576164	37.9954062694707	-26.841950047578	24.1992162013312	
2416333333.33334	-15.5790987377079	122.4925699233	-9.63457024677879	48.6662452019046	-46.6762162881692	36.7904410429886	-26.7596063441197	24.1968610099659	
2416666666.66667	-15.5141956660115	121.556418256516	-9.63840477188887	46.4728682177	-46.665075717839	34.1769043563484	-26.7081829930816	24.117683726394	
2417000000.00001	-15.4417409933113	120.677522248334	-9.65637943274286	44.2426496418655	-46.8341515841529	31.8914415836329	-26.6530068111197	24.0246328911259	
2417333333.33334	-15.3703014857059	119.788078375581	-9.66507986336618	42.0310344471091	-46.7654132935882	28.2384695514276	-26.5741828252857	23.6486726919816	
2417666666.66668	-15.2998783003788	118.974514723288	-9.67818760362439	39.8294193453843	-46.5762108565624	27.9176101253495	-26.4657023755284	23.3458892560515	
2418000000.00001	-15.2278684452542	118.08621661057	-9.68689039731275	37.6113391250922	-46.4344607616838	23.8234968130135	-26.3703727018644	23.1309629298749	
2418333333.33334	-15.1636138752899	117.207029572919	-9.70109169384258	35.4152861422169	-46.6587194551972	21.6336782503834	-26.2405058481566	22.7558917313819	
2418666666.66668	-15.0800854557977	116.378350397174	-9.71047667462834	33.1908492860028	-46.4751931623589	17.8523082449733	-26.1275676956186	22.227232989734	
2419000000.00001	-15.0085641202129	115.506627949022	-9.72444346781725	30.9686273698015	-46.5754904478172	16.1891868376841	-25.9924076900044	21.6413852075674	
2419333333.33334	-14.9373497618312	114.680764952475	-9.74043299572772	28.7754071787369	-46.7018331251159	15.0537437884825	-25.8356078765903	21.1255265626435	
2419666666.66668	-14.8544130099969	113.891988088462	-9.74505687237348	26.5222283823916	-46.7624594944191	12.2027681439009	-25.7219058198644	20.4168242200053	
2420000000.00001	-14.7860173516314	113.07052906893	-9.75678844415037	24.333859942751	-46.6186851677309	11.7457995403853	-25.5894925314978	19.8097113486275	
2420333333.33334	-14.7155601397631	112.314553383606	-9.76239601683661	22.1296222885735	-46.6480590817999	9.35929910227489	-25.4580315935836	19.1528870178666	
2420666666.66668	-14.6498362977004	111.532348351766	-9.76762271725051	19.9023295569307	-46.7293364394599	5.50122601838601	-25.3037112551992	18.4741225899279	
2421000000.00001	-14.576737823215	110.820627349477	-9.7832692227756	17.694910522069	-46.5500990018545	2.62417445675818	-25.1348431509846	17.4457271967945	
2421333333.33334	-14.5164614736654	110.119045865055	-9.79163155775619	15.4462812752754	-46.8842462241269	2.03578807908642	-24.9939460036846	16.6825288830973	
2421666666.66668	-14.4490456031864	109.336470210255	-9.80444561059125	13.2730014310588	-46.7683355031231	-1.15917260054	-24.8304233275025	15.7930800310196	
2422000000.00001	-14.3854727860312	108.679812950197	-9.80836174069491	11.0567751530312	-46.4883466478258	-2.0859482022728	-24.6602391611571	14.9762697343876	
2422333333.33334	-14.3217080090676	107.962449233183	-9.81328730500428	8.81547632100843	-46.7185736528307	-5.38265430472142	-24.5052864866303	13.9352660547433	
2422666666.66668	-14.2665115477713	107.294162944843	-9.82073577102701	6.59296342716264	-46.6448707373843	-7.06910001972746	-24.3310804639927	13.1290127562606	
2423000000.00001	-14.2071826530576	106.631214375577	-9.82898598878778	4.37481114865067	-46.56228910031	-10.1062968144127	-24.1811730661151	12.0706800826331	
2423333333.33334	-14.1502012021504	106.000090989528	-9.83628301488059	2.13491846618679	-46.6969228997464	-12.0585497559031	-24.009579914662	11.1259842823785	
2423666666.66668	-14.0942816492211	105.385564167049	-9.84647387924606	-0.105928815926525	-46.5131375872269	-13.762543720358	-23.8550403865502	9.98920842228174	
2424000000.00001	-14.0484507142468	104.771714430824	-9.84793325901667	-2.37959776360444	-46.6979334329579	-17.6182215174771	-23.6495331559884	8.9090825865981	
2424333333.33334	-14.0028052847927	104.199079208346	-9.85057157884031	-4.58348140687737	-46.8479349969721	-19.515031507555	-23.490068841245	8.05975941503161	
2424666666.66668	-13.9477408630474	103.585254571401	-9.85552134197582	-6.84416197282918	-46.5971328963102	-21.8280630524726	-23.3057398308755	6.947495480061	
2425000000.00001	-13.8940335603744	103.106841710932	-9.86429838121328	-9.07489026981304	-46.7138839329562	-21.9982552807441	-23.1151553982419	5.90805031221876	
2425333333.33335	-13.8537599983528	102.569931635858	-9.86777234611196	-11.2981251241271	-46.6446341426256	-25.0511223277377	-22.9658764013963	5.01571397159295	
2425666666.66668	-13.8073220946305	102.030878901901	-9.86235654947319	-13.5762588597077	-46.7990782441095	-28.1388228715174	-22.7817027846363	3.8662145764416	
2426000000.00001	-13.7770034586957	101.512027124448	-9.87447336884253	-15.8388861008611	-46.7013953683596	-29.7964135482717	-22.614923573882	2.8337505591328	
2426333333.33335	-13.7372455319062	101.062642632059	-9.88010530542458	-18.0381177398914	-46.8230758182771	-31.3084357553951	-22.451762048696	1.82695802290404	
2426666666.66668	-13.6967743843357	100.553400581308	-9.87617451430794	-20.3119939520704	-46.6491955593528	-33.8988510636818	-22.2995294818403	0.806895850150467	
2427000000.00001	-13.6636965527996	100.099134986444	-9.8815468644195	-22.5972017934205	-46.5934014464389	-37.1824279076166	-22.1380872413573	-0.0502681880268512	
2427333333.33335	-13.6331359585894	99.6081987848095	-9.89019308435011	-24.8881654183186	-46.6792062420799	-39.1174567180159	-21.9850018768016	-1.1963123494947	
2427666666.66668	-13.6013150536138	99.2115302675304	-9.89170032945646	-27.1487949927273	-46.8452443327662	-42.4083665520033	-21.8099218682982	-2.33826652109823	
2428000000.00001	-13.5723520597677	98.7746934700165	-9.89190400453685	-29.3735896800182	-46.7581732423413	-42.2121565344311	-21.6810647878213	-3.26230521776285	
2428333333.33335	-13.5340896922767	98.3299891988058	-9.89797367471513	-31.6309764776888	-46.6376602353126	-43.9691708391246	-21.5291185537261	-4.21650607586844	
2428666666.66668	-13.5044701328863	97.884229558265	-9.90153783619426	-33.9215238756992	-46.5716846392409	-45.1523561717184	-21.3784581726934	-5.13186653010088	
2429000000.00001	-13.4827290655321	97.5241520695972	-9.90184420943235	-36.1987610700807	-47.1031098746424	-49.7689267048769	-21.2269527160544	-6.11864922308982	
2429333333.33335	-13.4518181783844	97.1499392161218	-9.90416545023286	-38.4677297840211	-46.8496128459617	-51.1351169084093	-21.1137699467255	-7.06228128598637	
2429666666.66668	-13.426511127344	96.7258129326956	-9.90888713255406	-40.7390778004284	-46.8538841904419	-52.2941461688078	-20.9687922999958	-7.96008623002655	
2430000000.00001	-13.4146988026031	96.3713857898911	-9.91241571969147	-42.9585977926303	-46.5154441500314	-55.3154280345831	-20.86350976695	-8.94113251565432	
2430333333.33335	-13.3758451161953	95.9960205294927	-9.91829819866007	-45.2495742237862	-47.0611135037703	-57.9138895461811	-20.7165947578289	-9.92459559424992	
2430666666.66668	-13.3599008638349	95.6339262626389	-9.92742302217134	-47.5289265119432	-46.7291946246591	-59.0661898833522	-20.6039105665441	-10.877447876408	
2431000000.00001	-13.33169853026	95.3064962136341	-9.91891285015223	-49.7774138903741	-46.6533403448597	-63.0644883318496	-20.5285783748393	-11.8228497262685	
2431333333.33335	-13.3214641397567	95.0103558965593	-9.92581048983787	-52.0125038163598	-46.6462547278652	-65.6684286844439	-20.4189578415638	-12.6796248553393	
2431666666.66668	-13.2953247035748	94.7034666816688	-9.92156105440785	-54.2639782334745	-46.9875861581856	-66.8216817948552	-20.3036375071473	-13.5497404830667	
2432000000.00002	-13.2833777808447	94.4470549326791	-9.92875305755248	-56.4935327724112	-47.2045753907193	-68.5365090510556	-20.1841604578139	-14.3310762089041	
2432333333.33335	-13.2611945558873	94.1673011405272	-9.9328427776241	-58.8005129574982	-46.7771561677877	-71.4416832090728	-20.1047403900475	-15.1343111159613	
2432666666.66668	-13.2530829851633	93.8730508500847	-9.93165496976124	-61.0021363352213	-46.7582814196527	-73.5150435896577	-20.0110035902782	-16.0133474748273	
2433000000.00002	-13.2319695864415	93.5965442424211	-9.93952623497923	-63.256979886702	-46.8530261876843	-75.1966061377377	-19.9259365307408	-16.7531452201679	
2433333333.33335	-13.2244832573936	93.3567694705932	-9.9364821357239	-65.511476742181	-46.8652539699918	-76.9519077065064	-19.8649238471695	-17.5894603389238	
2433666666.66668	-13.203769729027	92.9755710215343	-9.93705397305919	-67.7537232390265	-46.7280171181673	-79.9489417354162	-19.7872689549097	-18.4160564829496	
2434000000.00002	-13.189631297692	92.6945413303764	-9.93894922680506	-69.986825413354	-46.5803625475879	-80.3530515572668	-19.7394010350771	-19.2441923752352	
2434333333.33335	-13.1778371689358	92.3947190292504	-9.94050598411261	-72.2239270647784	-46.939484376239	-85.281372164548	-19.6700105735465	-19.9763906986461	
2434666666.66668	-13.1710757287608	92.0134201156756	-9.94651559068428	-74.4488344809318	-46.5603849025975	-86.0342489502547	-19.6263033494255	-20.6307110503643	
2435000000.00002	-13.153908928331	91.6268079762695	-9.94135522103036	-76.6807103546509	-46.9614726513196	-89.7540776295942	-19.5854572313806	-21.5600738604784	
2435333333.33335	-13.1401889217856	91.3601186276716	-9.94360459241984	-78.9029433007066	-47.2111579142514	-89.4867016128132	-19.5505747371666	-22.0892905462676	
2435666666.66668	-13.1391667804172	91.0236663859833	-9.94359656534037	-81.1559926769696	-46.8171283881758	-94.3975606731703	-19.5184881596898	-22.8711773364731	
2436000000.00002	-13.1250845150823	90.6656236289825	-9.9420923532297	-83.380584219064	-46.9541611432667	-95.272874419265	-19.4971613368017	-23.5035350138092	
2436333333.33335	-13.1170214186336	90.3467012962213	-9.94614135673914	-85.5996882060327	-46.7637383834189	-94.9275404645361	-19.482130668252	-24.2480310482029	
2436666666.66668	-13.1081939577891	89.8512874267212	-9.94056405170871	-87.8344876780055	-46.6827664224608	-102.069581882131	-19.4846297076538	-24.977866329248	
2437000000.00002	-13.0895160439326	89.5384153244572	-9.9400689493899	-90.0322656083027	-46.9618545135038	-103.34081940768	-19.4777851408619	-25.6025037318073	
2437333333.33335	-13.0860941047335	89.1931536293111	-9.94049309192212	-92.2781201832028	-47.0818850904755	-104.571010419429	-19.4821476382834	-26.2597833397096	
2437666666.66668	-13.0867003809199	88.7630472465091	-9.93610246040894	-94.4878481872472	-46.742607263232	-108.256349286688	-19.5250385241919	-26.9339494737978	
2438000000.00002	-13.0775868887724	88.3920350626414	-9.93703166505612	-96.6829944049705	-46.9734818055131	-108.879015654473	-19.5258543098014	-27.4842082087155	
2438333333.33335	-13.0713921102518	87.9370657688542	-9.9327058509496	-98.9164340541089	-46.6383923391207	-110.346529332143	-19.5568030145088	-28.210384855841	
2438666666.66669	-13.0589828146118	87.5617191769337	-9.93272364813405	-101.155266169924	-47.0504214017397	-113.568650536755	-19.5771902609607	-28.6751859425965	
2439000000.00002	-13.0607254054301	87.1493098744633	-9.93048120205969	-103.317503074136	-46.7381470879048	-116.841786515528	-19.642779456846	-29.1144088991256	
2439333333.33335	-13.0494284544138	86.6666569860952	-9.92273911318477	-105.54019059587	-47.1247036671564	-117.845328902605	-19.698958259238	-29.8943512756767	
2439666666.66669	-13.0458830678907	86.2926350524157	-9.92148163918625	-107.783895446976	-46.5585697670369	-119.049338670595	-19.7662745147546	-30.2536536706419	
2440000000.00002	-13.0511374326893	85.9283253616859	-9.91991369279788	-109.952186599093	-46.7819406372832	-121.938856560336	-19.8340348648551	-30.8001713801717	
2440333333.33335	-13.0509848768166	85.4686290010399	-9.90896916611279	-112.199349339393	-46.7619986737516	-124.084515358796	-19.8891792320086	-31.1878826723041	
2440666666.66669	-13.0356250504396	85.0579988785757	-9.90507251588245	-114.427150940108	-46.9276733897224	-124.970431648891	-19.9848731321282	-31.8460328267845	
2441000000.00002	-13.0471791650978	84.6099625801479	-9.90342291885171	-116.621827964753	-46.6756597133982	-127.06856581096	-20.0781020469075	-32.1501673990144	
2441333333.33335	-13.0440095051661	84.1206145210269	-9.89546657574641	-118.844403113737	-46.7483305046545	-132.958259916865	-20.1856886591051	-32.5206151368679	
2441666666.66669	-13.0549172573898	83.658196478438	-9.88862120599711	-121.068831325797	-46.8324006511801	-133.382558328887	-20.2991331598066	-32.8813869148341	
2442000000.00002	-13.0518977751575	83.3428596456701	-9.87572157100634	-123.299260698181	-47.2708434964	-135.740920074375	-20.4274900430178	-33.2282718209772	
2442333333.33335	-13.0854190983279	82.8646311675946	-9.87029286686249	-125.479740728191	-46.9941526148286	-136.730656676839	-20.5349978423448	-33.5789027797151	
2442666666.66669	-13.0816633254099	82.5160185383447	-9.86444551433858	-127.693774848999	-47.0260581808281	-139.105593531857	-20.7020340736456	-33.8738890696597	
2443000000.00002	-13.0976875400096	82.0232875486731	-9.8600256787438	-129.911880977422	-46.7621611236684	-140.871247980413	-20.8535294539261	-34.0711156765052	
2443333333.33335	-13.104299392092	81.6092458626135	-9.85044807644293	-132.19285775402	-46.7464626353244	-144.256290038138	-21.0078940491866	-34.4722578973027	
2443666666.66669	-13.1359137372131	81.3413590261957	-9.84163524560866	-134.413177516119	-46.9427875139215	-145.74465093897	-21.1803001378408	-34.6236463781053	
2444000000.00002	-13.1589239564616	80.7887443849155	-9.84121199136131	-136.611019780494	-46.9657382064583	-148.075393477763	-21.3643462214363	-34.5419557198347	
2444333333.33335	-13.1803754916506	80.3323757509282	-9.83784035005124	-138.936729524186	-46.9816382981919	-152.114140364725	-21.5523513352369	-34.5362344125791	
2444666666.66669	-13.206151146369	80.0155861720221	-9.82693555536321	-141.114219718824	-46.9070246889171	-152.008183902453	-21.764157383587	-34.669697995108	
2445000000.00002	-13.2349589877379	79.4908607146757	-9.81063613612415	-143.382056391264	-46.7725798371672	-156.428393773916	-21.9696915545147	-34.6656759052799	
2445333333.33335	-13.2369731335025	79.1211797213222	-9.80591532121448	-145.611298671724	-46.7929503551789	-157.001208661136	-22.1861876293897	-34.6541822033498	
2445666666.66669	-13.2593344625208	78.7311758347781	-9.7967559940825	-147.83410574791	-46.6057092923949	-159.584080489129	-22.4169485814215	-34.4958339613226	
2446000000.00002	-13.2853709039905	78.1733748292853	-9.79492903468847	-150.134227778455	-46.7315202099147	-162.94257028277	-22.6826492923977	-34.2758975348895	
2446333333.33336	-13.3046804485011	77.895153527109	-9.7839900608753	-152.379872194509	-46.669378184789	-164.926253384218	-22.9404484772474	-33.7169776889916	
2446666666.66669	-13.3236727677485	77.3023810545381	-9.77199104271004	-154.632206359022	-46.5712916845393	-165.864482689976	-23.2090667365723	-33.5275784007337	
2447000000.00002	-13.3485072697539	76.8404883534782	-9.76963373663152	-156.89150296851	-46.6618538795121	-167.828800643206	-23.4995963199376	-32.6643206129596	
2447333333.33336	-13.3709843289173	76.4429072040196	-9.76367543796997	-159.101687678681	-46.9924848617137	-171.070496741021	-23.8006897800669	-32.3169355974494	
2447666666.66669	-13.3967178015985	75.9058522347185	-9.75577078174505	-161.345048514647	-46.7598573826278	-172.802601303715	-24.0883174682994	-31.3243211487245	
2448000000.00002	-13.4261964463879	75.4716261374804	-9.74876390690968	-163.598582788775	-46.8129472492073	-175.967978718905	-24.448466975327	-30.6558320577186	
2448333333.33336	-13.4462943707428	75.0902784308887	-9.74228862518421	-165.851651645685	-46.4968000776995	-175.893319387138	-24.7320783504565	-29.528439628934	
2448666666.66669	-13.4746637578986	74.6213679625381	-9.73954378146283	-168.133994999592	-46.6828499868699	179.51940926722	-25.070993838634	-28.4722905377512	
2449000000.00002	-13.4979404424788	74.1336854607079	-9.72991995136959	-170.371566700182	-46.6967989092702	176.285310314128	-25.4304579028651	-26.8243589469196	
2449333333.33336	-13.534927347875	73.6335800442303	-9.72182018773496	-172.68566484976	-46.8288725545065	175.42622857608	-25.7924971212545	-25.2413555104343	
2449666666.66669	-13.5451384543684	73.3050410663419	-9.71171937556718	-174.910717927189	-46.7409623025614	173.761901178759	-26.1082863985179	-23.4334867930939	
2450000000.00002	-13.5842607519735	72.7224367933906	-9.71163646449761	-177.153922827265	-46.5287647765508	173.198293919927	-26.4842604575811	-21.36060308187	
2450333333.33336	-13.6005437264294	72.2472456055516	-9.70150368287387	-179.395415655075	-46.5000133520021	169.987482987184	-26.845447215722	-18.795454350956	
2450666666.66669	-13.6315971986704	71.7861638004994	-9.69544982908973	178.321948169756	-46.5062562764533	166.569343267792	-27.2033050783523	-16.1074369784135	
2451000000.00002	-13.6524257894632	71.2893059599943	-9.68469405734981	176.087683319883	-46.8769573662876	163.740571609158	-27.4954000939757	-13.4969740259012	
2451333333.33336	-13.6581911004645	70.9224385122839	-9.68947122872869	173.810906732061	-46.6683436875278	162.120018077948	-27.8169231576824	-10.5526780527148	
2451666666.66669	-13.6739562852374	70.4150135588301	-9.67969972292955	171.595645037071	-46.828681658756	162.722118714965	-28.086965138085	-6.78825270985958	
2452000000.00002	-13.6927569764268	69.9011898084381	-9.67589223307806	169.331229031521	-46.718447633166	158.568474343728	-28.2896108838878	-2.98420679963864	
2452333333.33336	-13.6992599579067	69.3835889343767	-9.67405456990024	167.054703839487	-46.7413634506333	155.966449275874	-28.4694930391412	0.486032351976761	
2452666666.66669	-13.7188845565397	68.8855184953066	-9.66478622046405	164.82538450634	-46.9143732861395	152.476146576101	-28.5687995815566	4.51552114607149	
2453000000.00003	-13.7296718595599	68.4220134504577	-9.6600401921113	162.514122728013	-46.7400754960569	151.971029056624	-28.6275255154307	8.59960336796703	
2453333333.33336	-13.7319524327704	67.9711273664496	-9.65604655263775	160.324701026941	-46.6552137800966	150.508549568488	-28.6662604360151	13.1034274011039	
2453666666.66669	-13.7352835696058	67.5155769604505	-9.6502478999572	158.079564011359	-46.4661323144452	148.36664225854	-28.637736870224	16.7816250763476	
2454000000.00003	-13.7470690425219	66.9636784099807	-9.64359809808229	155.832774104688	-46.6886360878944	143.727508203959	-28.5406230687298	20.844355167608	
2454333333.33336	-13.7590293692766	66.4834342801871	-9.64796852010712	153.57529472374	-46.4766027696037	143.814499889423	-28.3983611658143	24.8938584105575	
2454666666.66669	-13.7516773683336	65.9645474131411	-9.63913657984968	151.303303207205	-46.4541541724911	139.734919443621	-28.143533098643	28.2980072937849	
2455000000.00003	-13.7573416141023	65.5393908911488	-9.63681101144409	149.083779027438	-46.3110847369952	139.015341025652	-27.8892791507346	31.7105189135465	
2455333333.33336	-13.7519586723509	64.957565962999	-9.63309011219937	146.781092725737	-46.4081591603092	135.653260693389	-27.6436692647425	34.7914918776295	
2455666666.66669	-13.7448640466191	64.4517975098417	-9.63097954739972	144.539058784653	-46.6117238677902	132.365795374009	-27.3773198091692	37.4404931468232	
2456000000.00003	-13.7326529603109	63.9687842101998	-9.62908998384268	142.317681179656	-46.4425303635325	130.489449141892	-27.0577280175398	39.8901788723297	
2456333333.33336	-13.7269950514793	63.4945282551322	-9.62199585300759	140.061253258703	-46.6589235367596	128.076818484055	-26.7314506284492	42.0670184478737	
2456666666.66669	-13.7152214846218	62.9796759676141	-9.6225902919428	137.815519698813	-46.2128948417752	126.399841622572	-26.4483068341404	44.260580754851	
2457000000.00003	-13.6912531105094	62.3807408109604	-9.61940043742901	135.566580418625	-46.6239710159457	123.296888573843	-26.1304988575851	45.931494624919	
2457333333.33336	-13.6714845843402	61.917823823011	-9.6180948199216	133.304013217837	-46.4887025626842	121.991689416805	-25.7934248831996	47.4687511125658	
2457666666.66669	-13.6603662737206	61.3350331230287	-9.61939073878432	131.049163868887	-46.3431941462384	118.977968547516	-25.5076450367798	48.8033308263624	
2458000000.00003	-13.6294283499708	60.8793375670872	-9.61251094257115	128.845458573716	-46.4380496682939	116.42748812985	-25.2159669852287	50.0060766428971	
2458333333.33336	-13.6163607725924	60.32215566819	-9.6165605393998	126.600387504182	-46.517298700657	115.764299418731	-24.9297415311165	50.8406552788009	
2458666666.66669	-13.5877659959736	59.7920388837759	-9.62118632689865	124.340934362735	-46.6115483920075	112.310121252402	-24.6247577870451	52.0292913618462	
2459000000.00003	-13.5608596686074	59.2262280399887	-9.61070103640195	122.114539001719	-46.5613631051298	109.317507384433	-24.381835984685	52.6892394385901	
2459333333.33336	-13.5252093609339	58.6768200113026	-9.61044917289353	119.809888742813	-46.3505417724901	108.084071578818	-24.1615079256631	53.2135042513451	
2459666666.6667	-13.5015173157846	58.2339705268649	-9.60679603221576	117.562485567515	-46.6490398516717	107.642624920713	-23.8464500799079	53.6432276347356	
2460000000.00003	-13.4769465406912	57.7041480654122	-9.60171751414564	115.366360871147	-46.4693043820638	103.070722231685	-23.6053596006635	54.1594816356857	
2460333333.33336	-13.4451512034006	57.1598561338985	-9.60412780955767	113.079353776147	-46.1920438171611	102.21414672782	-23.406348159434	54.5300157780984	
2460666666.6667	-13.4045048759305	56.6292766884639	-9.60237783063396	110.893981912419	-46.622606520012	98.8591365793392	-23.1951052186318	54.8396519720842	
2461000000.00003	-13.3835105753427	56.1293870052067	-9.60820936592708	108.62762815032	-46.3399962240578	99.0405831905839	-22.9770754721634	54.9154468752415	
2461333333.33336	-13.3407668548849	55.53144169606	-9.60001466801129	106.326659274462	-46.6822126959644	96.9464196832184	-22.7972102433828	55.1065371282772	
2461666666.6667	-13.300155805619	54.9950771564872	-9.60538203880803	104.073335914125	-46.4096360594225	91.7355982990273	-22.5898779225751	55.0349062033424	
2462000000.00003	-13.2621366521561	54.4743214241743	-9.60617471252712	101.792592251291	-46.3119082676346	92.4697509874951	-22.4687743461245	55.1841937386229	
2462333333.33336	-13.2132245593984	53.9138922385863	-9.60500101335921	99.5483869074655	-46.4249419431064	86.9961040988767	-22.317985069035	54.9651386626919	
2462666666.6667	-13.1772780161546	53.4022939519224	-9.60683944453497	97.2846621502332	-46.4262637728529	83.7435979100479	-22.1507202200559	54.9553273367225	
2463000000.00003	-13.1380332643248	52.8312863062742	-9.60917808231416	94.9955316028368	-46.3950422368449	83.584671122246	-22.0250720642021	54.7630777713596	
2463333333.33336	-13.090620795434	52.3021289990326	-9.61151036663249	92.6942519516254	-46.2973008971919	81.0817452155463	-21.8969258285754	54.6749731015747	
2463666666.6667	-13.0493754204373	51.7559869755358	-9.61499381251269	90.4212155428287	-46.4478595778234	78.372223308528	-21.8028667788277	54.4610695854815	
2464000000.00003	-13.0077866320806	51.2508380441752	-9.61661738037419	88.1295653381621	-46.5528650529705	76.4565953409839	-21.6679458677249	54.2115385181517	
2464333333.33336	-12.9559767881539	50.7160433936106	-9.61456228287186	85.8464973326183	-46.3434794153412	74.1703222706404	-21.5656804891504	53.7977139651166	
2464666666.6667	-12.9169032458481	50.2183352619617	-9.61682313262901	83.5995951522579	-46.3617169283342	72.7497590502823	-21.4933493714864	53.4797436135121	
2465000000.00003	-12.8744874416357	49.680069524795	-9.61942169187817	81.321872064227	-46.4065640904874	69.6880786017737	-21.392659132634	53.1403923263072	
2465333333.33336	-12.8358493962881	49.1720634780729	-9.61791700225475	79.0190999863775	-46.5266278434957	65.3948580753508	-21.3150611119627	52.7681720553573	
2465666666.6667	-12.7903534176165	48.6787669773829	-9.62326982582936	76.7772537304981	-46.0426584648972	64.6213719273707	-21.2466979418192	52.3421650559115	
2466000000.00003	-12.7502676447597	48.1786643822444	-9.62651999171682	74.4674154311724	-46.1687170209581	61.8029869047054	-21.1722720268421	51.9962288529254	
2466333333.33336	-12.7009168855092	47.7555135640884	-9.6300405735795	72.1987420543392	-46.4063819452852	61.3487615763512	-21.1258622832691	51.4055823454024	
2466666666.6667	-12.6581219192522	47.2297878016446	-9.63039762754553	69.9011660588162	-46.3139536835444	56.3208734965902	-21.0829195918866	51.0385762098311	
2467000000.00003	-12.6186725573487	46.7607270762949	-9.63532528487715	67.6284745869347	-46.4272062065236	56.4098334646981	-21.0130304668297	50.3403533229429	
2467333333.33337	-12.5741980056992	46.3345436832867	-9.63436870717146	65.3700628694929	-46.5820264093288	51.9874509749002	-20.9462401577089	49.7599819284095	
2467666666.6667	-12.5318398835569	45.8672635135531	-9.64105715083281	63.073945787847	-46.4892598993271	50.4451734123868	-20.9149371404129	49.282424196068	
2468000000.00003	-12.487030881741	45.3957183345456	-9.64232582652849	60.7791037503174	-46.5225388568174	49.2568466886226	-20.9053820138373	48.8795192143264	
2468333333.33337	-12.4444142022953	44.9620363062831	-9.64827815631926	58.4948950943335	-46.0882285463019	46.8447717527741	-20.8653270838638	48.0726185135465	
2468666666.6667	-12.399206821839	44.5652929110458	-9.6499160550665	56.1927160842135	-46.5471383773401	43.234867531996	-20.8523889029109	47.4381755496133	
2469000000.00003	-12.358564960577	44.1263933259953	-9.64820056422922	53.9317515620278	-46.289594263403	42.5167217891345	-20.8227116357912	46.65956229422	
2469333333.33337	-12.3160060401356	43.7484915743995	-9.65542705797788	51.637017679422	-46.5321802545185	38.9178442026088	-20.8025555526498	46.0019740885829	
2469666666.6667	-12.2677974219666	43.3651472130655	-9.65776453889056	49.3353413258758	-46.4236816593271	34.7469399686596	-20.7869774842387	45.4006638617304	
2470000000.00003	-12.2289172491159	42.985680847867	-9.65245760233926	47.0036583720947	-46.4421434246716	34.9306760892132	-20.8124813052831	44.5437505087525	
2470333333.33337	-12.1933844978298	42.5742382270513	-9.66134628919007	44.7492589194022	-46.2475866262462	32.4390411510859	-20.7894389490794	43.9857787586312	
2470666666.6667	-12.1569864136698	42.2067859555633	-9.66015715787815	42.4547390155465	-46.2963553317822	30.0372903391713	-20.79758399579	43.0609973253236	
2471000000.00003	-12.1125797453986	41.7998505300777	-9.67548578527625	40.131518314852	-46.3114053924631	27.2284166605187	-20.8057673488888	42.3868339679514	
2471333333.33337	-12.0680148099948	41.4819609163831	-9.67238923681102	37.7969461720776	-46.2430694722877	24.0993150006451	-20.801714009288	41.5741281611692	
2471666666.6667	-12.0289980199297	41.1398553540245	-9.67084728341476	35.4881591026862	-46.3794868886838	22.2073538494742	-20.8253138863199	40.7310834080923	
2472000000.00003	-11.9836666352577	40.8087239091396	-9.67490906563708	33.1680519156323	-46.2289532374054	21.0658883294002	-20.8319980913424	39.8750466228604	
2472333333.33337	-11.9389143141167	40.4715357695114	-9.68118399458159	30.9026737924811	-46.4465784466649	17.8998217695713	-20.836110537216	39.0426155875645	
2472666666.6667	-11.8955634014954	40.1565644106783	-9.6821485547171	28.5432658874737	-46.2332135536877	15.4725730832127	-20.8922761454155	38.1522642498448	
2473000000.00003	-11.8472729404456	39.8362833588014	-9.69161023562504	26.1952497936514	-46.2157439018077	13.9744050094413	-20.8878229242303	37.3258792145821	
2473333333.33337	-11.8044683622274	39.5778122303212	-9.69461261069389	23.8872192971243	-46.4159545343604	10.7363243447693	-20.9172169976861	36.4040352740177	
2473666666.6667	-11.7587279180928	39.2542116929607	-9.69327574129783	21.5552480807722	-46.171103514054	8.4463919315296	-20.961115016024	35.3370731133155	
2474000000.00004	-11.7166464257261	38.9846447166063	-9.70121301224367	19.1604904453736	-46.115385048414	5.10031126602516	-20.9847693861003	34.4680871452796	
2474333333.33337	-11.6727769632446	38.6852867759642	-9.7025703167971	16.8614860921716	-46.2873496241801	2.23087969417089	-21.0095847315014	33.5191975700636	
2474666666.6667	-11.6347094704394	38.3635024671109	-9.70544398923244	14.5668820732903	-46.4298488825265	1.3056111670348	-21.0444275667621	32.4344548819986	
2475000000.00004	-11.5870812601121	38.1324295217385	-9.71397399873612	12.2211273919272	-46.3059183276974	0.123243655880178	-21.0797317061292	31.480600276319	
2475333333.33337	-11.5522374812351	37.8533165962955	-9.7182731562372	9.8797068362893	-46.3507276787171	-0.846846891660317	-21.0962427175627	30.3327518710854	
2475666666.6667	-11.5049698603108	37.5631388621508	-9.71919468807457	7.51989874681514	-46.3948395039757	-4.56137647497489	-21.1320481154407	29.2450391156873	
2476000000.00004	-11.470646902628	37.238603429948	-9.72647629618701	5.17653790087833	-46.5280660793262	-5.88101651531225	-21.1641865054237	28.1821152410131	
2476333333.33337	-11.4289139601991	36.937345323189	-9.73189046628759	2.87986622570394	-46.2475686546482	-9.61052671827137	-21.1943255176335	27.0991650551823	
2476666666.6667	-11.3849105586199	36.6456495297839	-9.73770952902652	0.523724932818981	-46.2784002551742	-12.9121861337715	-21.1985985101215	25.9650830626215	
2477000000.00004	-11.3487159038892	36.3322389451672	-9.741323115772	-1.83784686200115	-46.0477132706183	-12.3715035815724	-21.2585174304705	24.7997082744611	
2477333333.33337	-11.3100941164638	36.0216083467108	-9.74788938893037	-4.17541738892412	-45.9924100314036	-16.5737564961716	-21.2836296134807	23.723185845941	
2477666666.6667	-11.2777974676894	35.6526418303833	-9.75252010235609	-6.50374222659127	-46.7432579622604	-18.1210445072103	-21.3034266826872	22.5224557652264	
2478000000.00004	-11.2346947868697	35.3910831016488	-9.76086077655996	-8.81110706799604	-46.2733522392578	-22.8200023034199	-21.296230241008	21.3142484968706	
2478333333.33337	-11.1964463430441	34.9992796919785	-9.76026874482424	-11.1622732193891	-46.3724148035168	-23.2927161413419	-21.3372515786972	20.0536846874401	
2478666666.6667	-11.169951579608	34.7178598310086	-9.77342200330522	-13.4414763760999	-46.3452453598208	-25.6612189575737	-21.3324097468462	19.0683237219515	
2479000000.00004	-11.1264371540375	34.3789691237856	-9.77604494762651	-15.780603892123	-46.2216971604245	-27.5430095118829	-21.365986025151	17.7586116817323	
2479333333.33337	-11.0943553814116	34.0714171491468	-9.78242764801403	-18.12978400848	-46.086495284531	-31.466203221221	-21.3980936057194	16.6133261680968	
2479666666.6667	-11.0583197720892	33.6963796391786	-9.78220235098933	-20.4068830738776	-46.3423685638903	-31.9001923688944	-21.3904771960871	15.337743063797	
2480000000.00004	-11.0279935247124	33.3358418845112	-9.79675361216547	-22.7185521141724	-46.4762239036787	-36.2850242047372	-21.3900249478114	14.1784609512473	
2480333333.33337	-10.9958594580203	33.0100770994048	-9.79765099082306	-25.0061406558677	-46.4257709295926	-37.2548828451769	-21.3981508669265	12.9121044957477	
2480666666.66671	-10.9705709393928	32.6994659752055	-9.79920853998672	-27.3379930442414	-46.338822748696	-37.6980111307373	-21.4069183098901	11.6814704569879	
2481000000.00004	-10.9417576118121	32.2679244320921	-9.80581097547283	-29.6641501202481	-46.1570472496828	-40.5140837324283	-21.4053515551572	10.4181178508211	
2481333333.33337	-10.9169890042064	31.9209514795344	-9.81032472179751	-31.9739726098055	-46.6084799557582	-43.2763821659196	-21.3801732253431	9.25543766242413	
2481666666.66671	-10.8902699286894	31.463409328867	-9.81650524113224	-34.2303463066767	-46.5880663610811	-45.4450981136485	-21.38311494823	7.92456121254305	
2482000000.00004	-10.869298453308	31.1373894195536	-9.81818130228845	-36.4715348222129	-46.487608058174	-49.15699069753	-21.3829117720802	6.76443710052993	
2482333333.33337	-10.8585015578749	30.7587795496155	-9.81458642900463	-38.8253760680764	-46.5782328601337	-49.7146321993294	-21.3875174214056	5.57446385876244	
2482666666.66671	-10.8265349547397	30.3944597001622	-9.81992041444152	-41.0942232872694	-46.2381781818969	-54.377793473034	-21.3624153931891	4.38198382525992	
2483000000.00004	-10.812451446365	29.9843202043983	-9.82242437302828	-43.3665298828819	-46.598398915823	-54.6182638900485	-21.3379525406711	3.13458825442253	
2483333333.33337	-10.7892683556599	29.5204572578548	-9.8246446469817	-45.6813361599126	-46.3305384232711	-57.5571281549266	-21.3278778341809	1.89841548208613	
2483666666.66671	-10.7777993999728	29.1978029194552	-9.82291361616611	-47.9479732645792	-46.1395830756903	-60.9657306438678	-21.3010856651592	0.863396335778033	
2484000000.00004	-10.7631015240888	28.7481586292783	-9.8254714627971	-50.2387982868878	-46.3517241143351	-60.8312669059804	-21.2653672254876	-0.423900855423483	
2484333333.33337	-10.7512138610824	28.3040604453994	-9.82430129494393	-52.4907532845069	-46.5835003951928	-63.1285543768978	-21.2428312092762	-1.57856284927208	
2484666666.66671	-10.7445747677707	27.8798052217413	-9.82566808464846	-54.7835416222661	-46.4138161545588	-66.8102747810891	-21.2069431858417	-2.6685737153591	
2485000000.00004	-10.7127817040642	27.4923465740103	-9.82587182444684	-57.0573370763431	-46.4757291620268	-68.7763667343528	-21.1749145138937	-3.85528542126792	
2485333333.33337	-10.7211655215068	27.0412413749031	-9.82213840879976	-59.273688883962	-46.4743544263801	-70.7798608599726	-21.1278288239407	-5.03876631441248	
2485666666.66671	-10.7040851364234	26.698087635538	-9.81999801687808	-61.5586087791921	-46.3044017577876	-75.637537012534	-21.0908238470776	-6.03252996576367	
2486000000.00004	-10.6939806745636	26.2550758569382	-9.82214334301343	-63.842947979143	-46.2626266345854	-74.7456200730877	-21.0705395928223	-7.07141765035148	
2486333333.33337	-10.6941029543684	25.7767819989081	-9.81068834435416	-66.1155226712608	-46.3589789081335	-77.6717341100588	-21.0138646593231	-8.3275933453481	
2486666666.66671	-10.6888422877058	25.2825593352694	-9.81107269781563	-68.4147557602664	-46.6181992820886	-77.6140813565386	-20.9941537261039	-9.25536466045192	
2487000000.00004	-10.6873428826608	24.8435414413094	-9.80562704688673	-70.6937248890219	-46.2648256024048	-82.76642598458	-20.9489043685528	-10.3306734373795	
2487333333.33337	-10.6892395663411	24.2950013618231	-9.80354957313932	-72.9218531638991	-46.641786147943	-86.0610383219862	-20.9250707453721	-11.3431392757833	
2487666666.66671	-10.6828431003244	23.8780496225336	-9.80034246714041	-75.2319262854205	-46.3800388404189	-84.8856441207711	-20.8871873057688	-12.2518135584475	
2488000000.00004	-10.7022238029449	23.3885320521048	-9.79456074010056	-77.4718770598402	-46.3850959959234	-88.9791307291479	-20.8430747069126	-13.1674303920525	
2488333333.33338	-10.7020317425701	22.8981214776424	-9.78859307253735	-79.7904917349717	-46.4981420337002	-90.6507362286224	-20.8068575828307	-14.0516452796285	
2488666666.66671	-10.707818670698	22.4028737032009	-9.79310921402543	-82.0831293509211	-46.5889672860338	-94.5968603434038	-20.7666159592074	-15.0403378200941	
2489000000.00004	-10.7114209521117	21.8956264002015	-9.77497721997507	-84.3093893809999	-46.5343786034812	-94.4311692678183	-20.7455588512422	-15.8145297142214	
2489333333.33338	-10.7320926423194	21.356912789397	-9.76956405542288	-86.6742998583088	-46.3414873283208	-98.6838634605781	-20.6986876974164	-16.6943203309743	
2489666666.66671	-10.7425540576338	20.8872412166807	-9.76838377433123	-88.8990929357269	-46.4206067723671	-99.2915636063893	-20.6822523261602	-17.5431636980858	
2490000000.00004	-10.7532134119741	20.2925020054109	-9.76405521153433	-91.2046115431694	-46.5366023470395	-102.797004891648	-20.6338956773576	-18.3950333383228	
2490333333.33338	-10.7741692705182	19.7612967968982	-9.75852784816758	-93.4728061076208	-46.559095166046	-104.502318044118	-20.6252147754143	-19.1110690273626	
2490666666.66671	-10.7869762014909	19.1900095122984	-9.75484518603203	-95.7401225023452	-46.4153710967373	-107.604251904722	-20.5919636881129	-19.7472488928909	
2491000000.00004	-10.8072600116872	18.6857286196981	-9.74768426991763	-98.0241680316832	-46.3246901304171	-107.018761574596	-20.5801421177151	-20.6033593157966	
2491333333.33338	-10.8372049562509	18.1118438722033	-9.74319041678497	-100.317755911189	-46.621699643675	-110.750766400721	-20.5610518622837	-21.2131101236467	
2491666666.66671	-10.8744736871931	17.5859637898201	-9.73755600936441	-102.552999746193	-46.3138644200793	-113.518206494207	-20.5522398566024	-21.9418576155354	
2492000000.00004	-10.8820945232125	17.0887764463316	-9.73070162780107	-104.822303583972	-46.6647257484866	-114.872052168659	-20.5309642225159	-22.521030347197	
2492333333.33338	-10.922938798807	16.4477180036337	-9.73003989108831	-107.09942583902	-46.4882963681971	-115.368593130618	-20.5120456653019	-23.1400076673801	
2492666666.66671	-10.9497876260927	15.8418117774272	-9.72354294952144	-109.378282038732	-46.5292129882039	-118.433054065834	-20.5043121613209	-23.6281507705318	
2493000000.00004	-10.9770793743346	15.3036351959218	-9.71933457635566	-111.653984020507	-46.3296308271262	-122.017787971922	-20.4843143406529	-24.2068565343014	
2493333333.33338	-11.0155066957963	14.7381162944841	-9.71402458212777	-113.929195107574	-46.5800758978219	-126.475467291202	-20.4943054512103	-24.7814247134775	
2493666666.66671	-11.0466669437309	14.1443153233974	-9.71121333062438	-116.200785555927	-46.3494214308004	-127.781056213167	-20.5116532931962	-25.222256391265	
2494000000.00004	-11.0701563052446	13.5014900769198	-9.70821429400225	-118.441311518626	-46.541643259848	-129.342703830792	-20.513676392853	-25.6826213566007	
2494333333.33338	-11.1096276838128	12.9319804604632	-9.70309246584198	-120.770640817208	-46.6151867402749	-132.789536030681	-20.53558795514	-26.1565364764553	
2494666666.66671	-11.1530107103301	12.3835608643471	-9.69735315074335	-122.979511739898	-46.4083606804756	-133.974607846478	-20.548574024382	-26.4314383500273	
2495000000.00005	-11.1766913870354	11.7559359136057	-9.69296476831244	-125.265709724141	-46.7602982027222	-136.701378369463	-20.5680266447628	-26.8370663057238	
2495333333.33338	-11.2253359842762	11.1452872596249	-9.68920600130321	-127.563431879741	-46.5364435124683	-138.024107540908	-20.6084128459475	-27.1452151833341	
2495666666.66671	-11.2569350979336	10.5645069254551	-9.68509598015784	-129.778800141543	-46.3638634683278	-140.367234157203	-20.6377302853672	-27.4716102748095	
2496000000.00005	-11.2896689949788	9.94878905066307	-9.68062470342029	-132.069059709351	-46.4629977489673	-142.538447514704	-20.6598315031717	-27.6811674599722	
2496333333.33338	-11.3283274208641	9.4082817088819	-9.68348887482227	-134.356608890132	-46.4793321351883	-143.749642953276	-20.6995793538217	-27.9119110532304	
2496666666.66671	-11.3771102016379	8.77749869296293	-9.67641111659371	-136.619950114724	-46.4273194486947	-146.80405901476	-20.7409593855362	-28.0888825513296	
2497000000.00005	-11.4069197633413	8.14845666768096	-9.67352971070865	-138.843359502863	-46.6224721662052	-150.799612320418	-20.7986935435912	-28.1950993823141	
2497333333.33338	-11.4556854869338	7.58251182614078	-9.67464601759474	-141.142310718584	-46.431093435122	-151.247804912003	-20.857985562289	-28.4661374522991	
2497666666.66671	-11.4897004898266	7.04780349955363	-9.68015463041427	-143.410094679812	-46.4545876718156	-154.146319136757	-20.9017553934524	-28.4594625455661	
2498000000.00005	-11.5226222561259	6.43244135090543	-9.67122914509791	-145.694667515026	-46.5491705999933	-155.720366922253	-20.9737746515731	-28.3165361883472	
2498333333.33338	-11.5631720631813	5.7487398505779	-9.67041622036665	-148.00337960087	-46.6988585383576	-159.210196734423	-21.0349358427629	-28.4828544316785	
2498666666.66671	-11.6088579978529	5.18529487411595	-9.67389853409999	-150.324942240228	-46.5506292118557	-160.517940462246	-21.1144120133281	-28.3358763007753	
2499000000.00005	-11.6379352325095	4.543757715955	-9.66779191103156	-152.559833932961	-46.4395161992559	-164.123425065503	-21.2064385037494	-28.1781821345103	
2499333333.33338	-11.6664539890471	4.00444801755752	-9.66755479596436	-154.784545049758	-46.7327019743738	-166.715890216272	-21.2906795530195	-28.2810190411031	
2499666666.66671	-11.7066305989696	3.45152136229687	-9.66019154007343	-157.110410759332	-46.4401894255494	-167.849829577175	-21.3534077973153	-27.8973317971313	
2500000000.00005	-11.745793589442	2.81364105181597	-9.67241791923058	-159.351887210802	-46.3343916063309	-169.132017779937	-21.4290922012178	-27.7546313012962	
2500333333.33338	-11.7826333442382	2.22012039921283	-9.67271695201843	-161.599014716816	-46.4087585746088	-172.12453130745	-21.5398663346489	-27.3912970900134	
2500666666.66671	-11.8114003915101	1.71426441619282	-9.67183689053502	-163.926413408874	-46.6101822887563	-175.51907027813	-21.6383598038879	-26.9567901198318	
2501000000.00005	-11.8461318567394	1.08305054928302	-9.67344500362233	-166.16533230732	-46.4769387082119	-175.978958635164	-21.7474970281699	-26.5205160516162	
2501333333.33338	-11.8715735057485	0.454115322366177	-9.67862206495581	-168.460865783507	-46.5752006223222	-178.827322888926	-21.8289736869967	-26.1041589038663	
2501666666.66672	-11.9048888712992	-0.120420178672657	-9.67858083183919	-170.706867586626	-46.5526416539711	177.465051404215	-21.9480478856729	-25.5262031606951	
2502000000.00005	-11.9444060771756	-0.706637075578936	-9.68765758653305	-172.935587529686	-46.3443537402029	175.242284781405	-22.0465905754509	-24.6349473594959	
2502333333.33338	-11.9724997277948	-1.33892985796194	-9.69153590513385	-175.272895757956	-46.3768795917036	172.81838521913	-22.1178885354461	-24.1055981513972	
2502666666.66672	-12.0041996894598	-2.0094655251627	-9.68958117029898	-177.523065407687	-46.6780417492647	169.915852125152	-22.2263757267479	-23.1986516551318	
2503000000.00005	-12.0296690361337	-2.61208192975071	-9.6998609829864	-179.783729351026	-46.5294949234697	169.713202111401	-22.3252608511619	-22.3422421042273	
2503333333.33338	-12.0525723226563	-3.25167909558811	-9.70386028722405	177.929023825766	-46.5368608756209	169.132092657835	-22.4082970855005	-21.4179386226844	
2503666666.66672	-12.0826663283132	-3.88819056888017	-9.70591855249302	175.639645795529	-46.915907364694	163.951356389842	-22.515618157901	-20.3020644917853	
2504000000.00005	-12.1025822652662	-4.58273164220255	-9.70641080032363	173.408943660858	-46.6255249758406	161.878311741393	-22.6047346711258	-19.2356032134057	
2504333333.33338	-12.1332041463309	-5.27860010343426	-9.71981360676267	171.158190236198	-46.4055712686327	162.167023951935	-22.6727960016085	-18.0549264373625	
2504666666.66672	-12.1540475344471	-5.96537135435038	-9.72743530552045	168.878628781761	-46.5073124428065	158.096590613585	-22.7667488335186	-16.7999745225759	
2505000000.00005	-12.1724409149822	-6.57648341356998	-9.73283440569163	166.612270762551	-46.4263995432026	155.440899233	-22.8303777669439	-15.562621758371	
2505333333.33338	-12.1942902325432	-7.28893295592424	-9.73894344833803	164.352181722338	-46.303522056435	152.819335303173	-22.8853327885795	-14.1888769020482	
2505666666.66672	-12.2015035827108	-7.92637172328014	-9.74102829381837	162.124899505351	-46.3887145660823	150.331633002339	-22.9473710600004	-12.8885955561387	
2506000000.00005	-12.2223042211251	-8.64780705633196	-9.7469208885497	159.844273579662	-46.3572776343151	146.416191315104	-22.9999219860242	-11.4178699162637	
2506333333.33338	-12.2349135599095	-9.27220692642061	-9.75840893268408	157.586805106593	-46.3683446175514	147.084932931138	-23.0268631596073	-9.81566487798789	
2506666666.66672	-12.2464643117492	-10.0054317889191	-9.76515635570763	155.346487937651	-46.2936890562415	143.577681948837	-23.075864144635	-8.39459089537379	
2507000000.00005	-12.2629965549824	-10.6697159830402	-9.77424092565953	153.08438573306	-46.2469432283159	141.51286052431	-23.0670634923747	-7.02339645321546	
2507333333.33338	-12.2696432039231	-11.4069789044699	-9.78298753696403	150.84273565573	-46.4761495024834	138.807255842911	-23.0767479360692	-5.17072566746096	
2507666666.66672	-12.2789645647708	-12.1187105388996	-9.79584187256825	148.577528469354	-46.5473259172894	137.378282897752	-23.0515916076454	-3.57972441855552	
2508000000.00005	-12.2898659596092	-12.8405459757982	-9.79841944276891	146.303740501527	-46.1177341310425	135.647519772985	-23.0395215768823	-1.90249600093959	
2508333333.33338	-12.3034548331411	-13.5695023583193	-9.80861710853247	144.050360733289	-46.3465252162043	133.598331326437	-23.0125465616714	-0.54845638626571	
2508666666.66672	-12.3121651440064	-14.3634187637399	-9.81589665465288	141.816221340462	-46.4053110245336	129.542892131839	-22.9666085407361	1.26417895096496	
2509000000.00005	-12.3183621761093	-15.1178398858284	-9.8293693101432	139.561678513919	-46.2543647311707	127.942488703165	-22.874294745822	2.5637949940092	
2509333333.33339	-12.3294500373532	-15.8837631992265	-9.84153930380216	137.334929174013	-46.3446596632868	126.898297352791	-22.7883801850656	4.22229291268407	
2509666666.66672	-12.3345327609669	-16.6621974696386	-9.84974442994229	135.044251522192	-46.5800050843389	124.437879825719	-22.7421319587902	5.46363888202111	
2510000000.00005	-12.3431477906508	-17.3940041784083	-9.85544130161455	132.843443550083	-46.5319541787977	120.806839468743	-22.6488245723331	6.86811773208659	
2510333333.33339	-12.3463903107001	-18.153322809535	-9.8627073379994	130.54975733518	-46.3951004795277	120.983027636085	-22.5314355127161	8.19186836553343	
2510666666.66672	-12.3521500895804	-18.920059113689	-9.87155203702626	128.32506030136	-46.4151775902305	115.274631820409	-22.4100353995002	9.50592555742061	
2511000000.00005	-12.3515377840774	-19.6696606045588	-9.88811242084138	126.068898182877	-46.3832405709304	115.171015183083	-22.3252756228685	10.6695768370941	
2511333333.33339	-12.3552037104136	-20.4502903497045	-9.89498472930512	123.791116550145	-46.303738256162	111.752193320638	-22.2001238353542	11.7458742603834	
2511666666.66672	-12.3572334449688	-21.1684527566463	-9.911752392362	121.583797652097	-46.3710594205848	110.423280525547	-22.0966246299374	13.0339636415148	
2512000000.00005	-12.3547470471152	-21.9004969959815	-9.92325641346615	119.340453356251	-46.7003271010788	107.097809815993	-21.9671378115818	13.8643837709036	
2512333333.33339	-12.3600257428316	-22.650735509555	-9.93199704457055	117.082627365872	-46.3751295834992	104.092383156713	-21.8144454564819	14.842722019937	
2512666666.66672	-12.3577197165179	-23.3778627163151	-9.93710305641259	114.829514776366	-46.2451712126057	103.491647324357	-21.7092108720771	15.6679848677401	
2513000000.00005	-12.3644175941288	-24.1230269554052	-9.95004190559554	112.544796499647	-46.5278976195691	98.7293441234655	-21.5666071440111	16.5362382496325	
2513333333.33339	-12.3602799147213	-24.840872823622	-9.95366845388494	110.342792106208	-46.4394753422654	98.2332390787489	-21.4445568767418	17.3688793929953	
2513666666.66672	-12.3635381717032	-25.5367583883556	-9.96660474473352	108.074568346644	-46.5641719504959	95.513694472354	-21.3185523128362	17.9680724263728	
2514000000.00005	-12.3696355869721	-26.2791347106031	-9.99062419153623	105.81726420688	-46.203007044791	93.7865022413074	-21.1595116734829	18.4462588226247	
2514333333.33339	-12.3707378027527	-27.0139548681669	-9.99573603540192	103.519371238045	-46.4860888292011	92.5681116018703	-21.0504909176281	19.2375927061558	
2514666666.66672	-12.3718547021625	-27.757737882527	-10.0040436777492	101.297490410552	-46.7031820676281	87.1005128127426	-20.9448038098869	19.4778848723256	
2515000000.00005	-12.3684628324277	-28.4595740558192	-10.0125901236472	99.0358980716133	-46.3093351390475	88.7209464202633	-20.8060878560767	20.006326611235	
2515333333.33339	-12.380162436067	-29.1825624517434	-10.0278202097868	96.7512040710652	-46.5496757171698	85.1994623349536	-20.6846230616543	20.3492257036213	
2515666666.66672	-12.3828778366626	-29.8696350671188	-10.0311760183438	94.4930614002938	-46.3505530487015	82.850324591653	-20.5922801623933	20.7999207724855	
2516000000.00006	-12.386637603815	-30.5730270809784	-10.0462543242772	92.2278967338671	-46.2611148153869	79.6094323037376	-20.4800816296694	20.7779477364303	
2516333333.33339	-12.390849500675	-31.2521567333235	-10.0563771692023	89.9479120414221	-46.5324122493995	78.5157287059121	-20.3525398926525	20.99498787021	
2516666666.66672	-12.405130216702	-31.8349559240035	-10.0640171780222	87.6798515217478	-46.6830989890285	75.4952743723781	-20.2649380313199	21.179428782284	
2517000000.00006	-12.4090013329531	-32.4722592389265	-10.0716139671427	85.4434998623537	-46.8034237966681	74.9178398828941	-20.1658501436952	21.2366456554307	
2517333333.33339	-12.4106927813425	-33.1251743806001	-10.0842277479833	83.1337869973084	-46.5144552415213	72.2941706327389	-20.0802190122903	21.4511324764401	
2517666666.66672	-12.4202132881038	-33.7984698534903	-10.0985977981178	80.8384934323495	-46.7593861473271	69.5753055150808	-20.0062098754954	21.3210605555421	
2518000000.00006	-12.4253763412832	-34.3718040173246	-10.1074719661573	78.6266352612106	-46.4936238515181	68.4200133555314	-19.910907821281	21.2630382150125	
2518333333.33339	-12.4321063239905	-34.9434953176413	-10.119401082274	76.3714620083827	-46.6737973828503	64.6075493943632	-19.8504913290158	21.1692391094492	
2518666666.66672	-12.4385857082268	-35.5705410481638	-10.1301698791419	74.0508226661955	-46.6994383726089	62.6614776951867	-19.7831431524882	20.9187891632895	
2519000000.00006	-12.4490758450974	-36.0314351093608	-10.1298107285086	71.7978602397347	-46.6999892094125	60.7140115013038	-19.7125797548703	20.9216406454152	
2519333333.33339	-12.4640559793444	-36.6016604643386	-10.1421647326159	69.4828377314083	-46.8143658912974	58.2565791407062	-19.6754848915629	20.7560887761757	
2519666666.66672	-12.4776244454125	-37.105931926202	-10.152890147922	67.2365427681841	-46.5812269232846	54.9839780989744	-19.6252095254471	20.5319826601792	
2520000000.00006	-12.4904020598593	-37.6593027142478	-10.163558491139	64.9753378708991	-46.9642814069489	52.1972733285467	-19.5775262701772	20.2453120593517	
2520333333.33339	-12.4992358301599	-38.1437698905744	-10.17640464366	62.6893402578122	-46.6582535543852	50.4303231616992	-19.562462987637	20.0441695757449	
2520666666.66672	-12.5165970851716	-38.6122567112629	-10.181145261913	60.4472200061435	-46.8035242322197	48.3616309516044	-19.5358260798211	19.5469851525875	
2521000000.00006	-12.5393968657843	-39.0618436220866	-10.1920784586493	58.1688627121234	-46.5807335252073	46.4970729268424	-19.4943790018045	19.2492788041017	
2521333333.33339	-12.5556813584808	-39.5355588021825	-10.2020819534863	55.9039773032075	-46.9507017032169	45.0130058347137	-19.4861098603276	19.0269013050285	
2521666666.66672	-12.5749182882858	-40.0419653749415	-10.2159696270098	53.6305040262021	-46.6172411209323	42.9584227224667	-19.4662038220514	18.3695203460434	
2522000000.00006	-12.5926287436873	-40.4915663428258	-10.2235168419557	51.3891849454176	-46.7519686737019	38.5988588324388	-19.4850545120559	18.1179732613702	
2522333333.33339	-12.5992154600632	-40.8514717194447	-10.233747900769	49.0958808303369	-46.8797611809062	39.0567356885589	-19.4848311144834	17.4160530067107	
2522666666.66673	-12.6199682597932	-41.3185642114351	-10.243933822673	46.8271923386654	-46.6504703415623	35.7564765663703	-19.4941465923858	17.0629013459891	
2523000000.00006	-12.6408122241868	-41.7308847831484	-10.2512273027263	44.5932748890098	-46.7628275515569	32.670503318873	-19.5121593313919	16.4158972104162	
2523333333.33339	-12.6686242759314	-42.1006772315271	-10.2608817367255	42.3380296234979	-46.9187975585569	31.7157615426832	-19.5371657367267	15.8660921124527	
2523666666.66673	-12.6851686704755	-42.4850200896846	-10.2766805938036	40.0850867818373	-46.9814503651084	27.999153513541	-19.5616030005573	15.3774968305058	
2524000000.00006	-12.706660592978	-42.7813676621943	-10.2801663538531	37.8544207908463	-46.6380183409744	25.5465628854551	-19.5875196298895	14.7733729923181	
2524333333.33339	-12.7299871668893	-43.0914632516596	-10.2850894640317	35.5902213079323	-46.7584777330001	23.6645491362964	-19.6300381161773	14.0534406393586	
2524666666.66673	-12.7520430055144	-43.49166422963	-10.3001911220839	33.3228461676122	-46.9440129176284	21.1728690350971	-19.6774259668966	13.4115335872809	
2525000000.00006	-12.7872591360804	-43.8377916715236	-10.311799765485	31.1494309082675	-46.5859424371497	20.0666041785877	-19.7487555036952	12.6555250377951	
2525333333.33339	-12.8048654101042	-44.053110572414	-10.3124807578548	28.891846743744	-46.9338399680539	18.1079597063954	-19.8029429524042	12.0812133984414	
2525666666.66673	-12.8316202813448	-44.3851334178349	-10.3334371663515	26.7118420326177	-46.7582044845349	14.9351827433117	-19.8682179419094	11.2460382819322	
2526000000.00006	-12.8563321834699	-44.5901075790859	-10.3324319793626	24.4349448402928	-47.2023950742744	11.5352590486527	-19.9549428516854	10.516203361008	
2526333333.33339	-12.8760180838669	-44.8756925006007	-10.3377130736224	22.2381765125111	-46.8409008191849	12.2539485921911	-20.01653515931	9.71252899527087	
2526666666.66673	-12.907768078247	-45.0648809635067	-10.3385014651846	20.0463757008052	-46.9427556185736	8.09678267565692	-20.1046874814468	8.98076363431667	
2527000000.00006	-12.939493043735	-45.3765961983859	-10.3452942085927	17.8454290888264	-46.8761645602567	7.0146191878602	-20.1993357943115	8.0099395579762	
2527333333.33339	-12.9672608310492	-45.5718609809722	-10.3491841372915	15.667688146725	-46.7647021797933	5.68947298681018	-20.2959535919486	7.30292582822333	
2527666666.66673	-13.0024341621842	-45.8182233493527	-10.3557326284048	13.4976406563052	-46.7457652618684	2.01812508110046	-20.3777296085802	6.52699911267127	
2528000000.00006	-13.0326805741578	-45.9376118922942	-10.3565939468399	11.2407858416773	-46.7467031438478	-0.421336530645532	-20.4987242005826	5.6198434902131	
2528333333.33339	-13.0585037022572	-46.2207380528729	-10.3599794646666	9.03143791889522	-47.0110265565665	-2.84194048659394	-20.6239225499469	4.6678818927143	
2528666666.66673	-13.0757412425343	-46.4622623289001	-10.3561516494547	6.84622116881069	-46.7539661098566	-4.20703257046602	-20.7363896938018	3.7622837024813	
2529000000.00006	-13.1173132474325	-46.6354595235177	-10.3503976179646	4.65262521960666	-47.106582647237	-6.84377571184147	-20.8596307622657	2.90542213821113	
2529333333.3334	-13.1540761977041	-46.8762683938347	-10.3483520920788	2.41361762535416	-47.057231593867	-9.78642707107627	-20.9828758230945	1.78129750993871	
2529666666.66673	-13.1847219499221	-47.0906846363321	-10.344165717013	0.281789401064947	-46.7719029501584	-10.2526632233212	-21.1346206754975	0.847160439303308	
2530000000.00006	-13.2099586490231	-47.2865791676435	-10.347277452476	-1.93631060095222	-46.8750122831526	-14.388679145107	-21.2845225989122	-0.101844240822248	
2530333333.3334	-13.248594264365	-47.5232973190381	-10.3356770743344	-4.12693256289153	-46.9314116654335	-17.0014147344057	-21.4304586851011	-1.17423575091971	
2530666666.66673	-13.2861296452087	-47.7651243189135	-10.3358646300305	-6.31859179171598	-47.0249156751039	-16.6877179186996	-21.585840161567	-2.25260266278573	
2531000000.00006	-13.3291821281364	-47.9415292724775	-10.323536150484	-8.49011570913747	-46.7874799445326	-18.5437206942348	-21.7548720710642	-3.18496336056184	
2531333333.3334	-13.3748182401132	-48.1905319596191	-10.3176747961574	-10.6949849326296	-47.0097151692389	-24.1340071334211	-21.9067069139434	-4.40835544685566	
2531666666.66673	-13.4162189163961	-48.2997231684357	-10.3119671861414	-12.8643096855966	-46.9890035485313	-24.4846913237981	-22.0744087267029	-5.42716388878749	
2532000000.00006	-13.4557891049875	-48.6198430417361	-10.3016520174246	-15.1362747836415	-46.7801514986703	-26.3325798026438	-22.2680007856858	-6.74145540830485	
2532333333.3334	-13.4916566416521	-48.7899679638559	-10.2853239281795	-17.349721252662	-46.7799544801738	-29.3234343205426	-22.436054202193	-7.87310495336074	
2532666666.66673	-13.5334833261902	-49.041549543551	-10.2738330359682	-19.5406997232477	-46.776277782282	-30.6143759691736	-22.6756603326853	-9.00566275088153	
2533000000.00006	-13.5888677919488	-49.2412211047673	-10.2626559334151	-21.7912461080392	-46.9176336419608	-32.0609795434684	-22.8482991402449	-10.1522232313697	
2533333333.3334	-13.6191074625784	-49.4593318982031	-10.2524640406008	-23.972333539518	-46.6619752347624	-35.5558395552628	-23.033899489035	-11.2959353302777	
2533666666.66673	-13.6842606063132	-49.7502924507435	-10.2359474843728	-26.1850584319676	-46.6229901093412	-35.8077315155106	-23.2779760065474	-12.8008209824846	
2534000000.00006	-13.7212134038894	-49.8712325055284	-10.2262790452856	-28.3970908624022	-46.8171910081922	-40.3706513063615	-23.4801634813603	-13.9943044088923	
2534333333.3334	-13.7751248421781	-50.1739390737402	-10.2138261801148	-30.6594295003833	-46.8202196109829	-40.4562041515745	-23.6757564731715	-15.2749060807199	
2534666666.66673	-13.8208437129764	-50.4198441691206	-10.2009571076071	-32.883647093439	-46.6534953343607	-43.7890962227569	-23.8896986348878	-16.5111714412349	
2535000000.00006	-13.8724788081415	-50.5906343379333	-10.18614814051	-35.1221317352505	-46.7106298015245	-44.4540087624675	-24.1305773077037	-17.9516958361517	
2535333333.3334	-13.9176056763118	-50.9235245192268	-10.170338311258	-37.3654711790489	-46.6583526702035	-49.0185598772601	-24.3573261033697	-19.0008084654934	
2535666666.66673	-13.981610783702	-50.9835975166935	-10.1582670530303	-39.6473398294166	-46.8757597229527	-49.9257387456985	-24.5782040371769	-20.4554678563039	
2536000000.00006	-14.0299204309602	-51.2491216006741	-10.1505119527171	-41.8854871767385	-46.979721875397	-53.0578527118544	-24.8196224692775	-21.8501740898755	
2536333333.3334	-14.0741014925105	-51.6281225131249	-10.1386844558584	-44.1295123837374	-46.6748143751473	-54.3026167105026	-25.0763378989416	-23.2840340860072	
2536666666.66673	-14.1364328009206	-51.8252809565453	-10.1237666025163	-46.4018492732351	-46.7530100905346	-57.1363301693356	-25.3106052478509	-24.5188880194973	
2537000000.00007	-14.1790683795772	-52.0549219399385	-10.1099327977307	-48.6645854619936	-46.6366783855125	-58.8839953896162	-25.5598663283661	-25.7129453344624	
2537333333.3334	-14.2307134900227	-52.3010357125201	-10.0965339553289	-50.9473661341306	-46.6579301297073	-61.0191258838936	-25.8175792995488	-27.1424348586301	
2537666666.66673	-14.2983733258493	-52.5289196672862	-10.0872051019545	-53.217676073802	-46.4796145150883	-65.5840522820916	-26.0521098729427	-28.4281514764119	
2538000000.00007	-14.355536297538	-52.8406355749534	-10.0712059666329	-55.476929153097	-46.5962486243976	-65.4180881840939	-26.3282427589763	-29.3997933875413	
2538333333.3334	-14.4168656265089	-52.9424053715139	-10.0669309142896	-57.7690244751603	-46.6771320337999	-68.1349849000351	-26.605371371729	-30.8140589470808	
2538666666.66673	-14.4622209230008	-53.1994532931093	-10.0495232059124	-60.0746275135251	-46.1672408083748	-70.7834928680551	-26.8575617388024	-32.1001234766845	
2539000000.00007	-14.5401056128999	-53.3961043679328	-10.0405524805352	-62.3453544121637	-46.6590516008219	-71.9785795953761	-27.1339135256492	-33.299914249223	
2539333333.3334	-14.6092581232519	-53.683458520608	-10.0348786088502	-64.6242951049359	-46.7613635573841	-73.710394244861	-27.3981730527362	-34.3773393932335	
2539666666.66673	-14.6777653301569	-53.9288314250668	-10.020351619726	-66.9166212458341	-46.3064256649865	-80.0155745591887	-27.6737202290655	-35.5880191314128	
2540000000.00007	-14.7488974141746	-54.2532356423833	-10.0110237056473	-69.2451267221423	-46.6568382121991	-79.5665673418945	-27.9754984495034	-36.8484425060629	
2540333333.3334	-14.7976673599419	-54.488110173486	-10.0025742259676	-71.5713447366262	-46.6337822524263	-81.4185056028307	-28.2460872920228	-37.3584815438121	
2540666666.66673	-14.8813664477668	-54.8385426357735	-9.99401396380511	-73.8560666182884	-46.5796197191553	-83.5596438661698	-28.5248075220978	-38.5442724040725	
2541000000.00007	-14.950583818614	-55.109997480452	-9.98678573790588	-76.1283696502642	-46.5800248347952	-85.8239325796175	-28.8238551232134	-39.416167303721	
2541333333.3334	-15.0054491469692	-55.4299854273577	-9.97986097064218	-78.4745028956263	-46.6568648213556	-89.039386916797	-29.1327368074674	-39.9268717667397	
2541666666.66673	-15.0628359664719	-55.7808338796588	-9.97543198910117	-80.7600366931902	-46.364335092416	-92.4602932387994	-29.4211051406277	-40.670933081076	
2542000000.00007	-15.1447222443954	-56.0726321364178	-9.96757057748137	-83.0830717191621	-46.4958763930867	-91.428055121542	-29.7639602305288	-40.9836372760576	
2542333333.3334	-15.2327572544785	-56.5131247199538	-9.95633182226564	-85.3722701967733	-46.7153466127557	-96.0273146024081	-29.999240767448	-41.4340668496643	
2542666666.66673	-15.2823271095674	-56.907367227728	-9.95158559970615	-87.7220576410988	-46.3685356410686	-97.0658027190938	-30.3281702111	-41.6072174510717	
2543000000.00007	-15.3646956943057	-57.285884785358	-9.94432940266333	-90.0105140064616	-46.4823081031774	-98.8727098804382	-30.6313004034755	-41.5690937726104	
2543333333.3334	-15.4233096574731	-57.6353461837597	-9.94271454945215	-92.3318578359059	-46.3927882172354	-103.592348393834	-30.9130354617628	-41.5201937720572	
2543666666.66674	-15.5092041357868	-58.0670926747224	-9.93990274900127	-94.6300242250447	-46.4531009078815	-102.565758418563	-31.1928447131981	-41.193448222321	
2544000000.00007	-15.5861031946825	-58.326479367034	-9.93486219004705	-96.9426227202246	-46.3517596112444	-105.481207110299	-31.4687284016116	-40.4318823290982	
2544333333.3334	-15.6847324405774	-58.8120213458831	-9.9431210489257	-99.2481286429165	-46.5730951657588	-108.932389070514	-31.6596734941384	-39.3032754546463	
2544666666.66674	-15.7747664085829	-59.1422749918067	-9.93226470713366	-101.557625978605	-46.2703888382854	-110.720937519383	-31.9980358283271	-38.5907155054038	
2545000000.00007	-15.8645211766742	-59.510248595039	-9.93362437110088	-103.900693934338	-46.6553899693544	-113.62276276171	-32.2037333630537	-37.3110442513532	
2545333333.3334	-15.950942469633	-59.8903338158728	-9.93025338210704	-106.201928187488	-46.4806437417061	-114.367715552703	-32.4175060254584	-35.1470635121936	
2545666666.66674	-16.0467355673679	-60.3790768097483	-9.92850702906252	-108.524016076992	-46.4552089967858	-118.034606274687	-32.5894046752593	-33.6607836658541	
2546000000.00007	-16.1211912634289	-60.8832518090462	-9.92827225440956	-110.819508820465	-46.6004940091908	-121.66733098588	-32.8399645805145	-31.5999940496155	
2546333333.3334	-16.2255861050031	-61.3610442936501	-9.93198405214295	-113.106397662814	-46.1238537683639	-122.188284002035	-32.923516945581	-29.7205585997171	
2546666666.66674	-16.3104292509211	-61.8020312385034	-9.93443798046554	-115.372626369865	-46.453458399108	-125.471433941063	-32.982463123149	-27.0324522319958	
2547000000.00007	-16.39149970557	-62.2674413477905	-9.93283579361658	-117.68752741537	-46.8535432479862	-127.706467935	-32.9911615619509	-24.4777099877117	
2547333333.3334	-16.489865872726	-62.8225480379114	-9.93232344894256	-119.946004186779	-46.572593048937	-130.111332672819	-33.0843101300693	-21.5707363557689	
2547666666.66674	-16.5613856700738	-63.3442291274185	-9.93425680748277	-122.259564746311	-46.4025255146882	-131.828475387953	-32.928473017049	-18.5780189561162	
2548000000.00007	-16.6548831802553	-63.8573977855708	-9.93751260705951	-124.543087143167	-46.5365456687344	-134.504348395743	-32.8294538131521	-16.0137704120041	
2548333333.3334	-16.7307557354762	-64.4497641353517	-9.93505695315169	-126.826439214661	-46.1918106145639	-135.795277147995	-32.6708544651377	-13.0288453815934	
2548666666.66674	-16.813597394476	-65.0129419220713	-9.93480836565627	-129.137741904175	-46.335797861696	-138.313455830362	-32.4802240404832	-9.96524783607524	
2549000000.00007	-16.899673263384	-65.6990958314824	-9.93553178364269	-131.40040774627	-46.3618152950574	-140.449013319044	-32.2222026367469	-7.74152926481036	
2549333333.3334	-16.9774663661824	-66.3756497757495	-9.93533105518623	-133.706870449704	-46.3992668278948	-143.761288938916	-31.9310883733816	-5.38895297587959	
2549666666.66674	-17.0628011886581	-67.0438227452388	-9.94003113970733	-135.949656462362	-46.3032626426401	-144.693077108389	-31.5686868561709	-3.04667574545602	
2550000000.00007	-17.1458486662061	-67.7114502176968	-9.93780551465725	-138.254518437353	-46.2741291551594	-148.023608121188	-31.2869441746431	-1.06832352518336	
2550333333.33341	-17.2307586398598	-68.4240649723883	-9.93795385456421	-140.50339295348	-46.547512208119	-149.801730351494	-30.9222949053846	0.817538264640169	
2550666666.66674	-17.3047537658689	-69.1755758417701	-9.93738043240168	-142.815086027893	-45.928477168407	-152.129442785978	-30.5112361643697	2.59506528890831	
2551000000.00007	-17.3765109121547	-69.9426759305317	-9.9402085576564	-145.088567758659	-46.4489219820298	-155.92469514112	-30.1519265101185	3.91630486392542	
2551333333.33341	-17.461949442738	-70.7409373002845	-9.93808414417334	-147.332765764785	-46.2589295351202	-157.681539089662	-29.752240120835	5.20013873227955	
2551666666.66674	-17.5481580033033	-71.4459541126519	-9.94768830591486	-149.616774802801	-46.2393109275762	-158.664809296975	-29.3391305766184	6.37530444146978	
2552000000.00007	-17.6482091214685	-72.2107486614691	-9.94856188790556	-151.826212608955	-46.5506661913411	-162.32735031673	-28.9357255397712	7.15797087357098	
2552333333.33341	-17.736756628475	-72.9610471090195	-9.9454799615905	-154.080904936031	-46.5249254027361	-163.861084904213	-28.5583088398754	8.32699907115301	
2552666666.66674	-17.811621004162	-73.7436386447027	-9.95665712849906	-156.359784466529	-46.4863521501879	-166.800625311258	-28.1300868161298	9.14545583801585	
2553000000.00007	-17.902232582397	-74.5677047507794	-9.95565214100979	-158.59237658853	-46.4891669477107	-170.326398466115	-27.7048588862586	9.86394049448281	
2553333333.33341	-17.9853964681864	-75.4568581888541	-9.96035837932228	-160.85491940002	-46.3551398302619	-171.630338483089	-27.4127336926067	10.4146778454873	
2553666666.66674	-18.0738460499005	-76.3068258589339	-9.95327101938488	-163.114145959681	-46.338794320986	-173.594809407891	-26.9975247477722	10.7164867714334	
2554000000.00007	-18.1516371255834	-77.0953118395918	-9.96324135686049	-165.364799331271	-46.0573683668559	-175.070327587331	-26.6733958177929	11.2878158299475	
2554333333.33341	-18.235423220158	-77.7822583743822	-9.96615973459713	-167.608766203508	-46.3759780708195	-179.119491076109	-26.3339403511059	11.4899487513085	
2554666666.66674	-18.2995136570175	-78.7176409108946	-9.96686915141952	-169.811885236048	-46.1542039420184	178.848864370066	-25.9978897549137	11.5877398187942	
2555000000.00007	-18.3752626353951	-79.5365343688328	-9.97144573179742	-172.062821316628	-46.2938573989795	178.82964292586	-25.6619337734636	11.9179434631583	
2555333333.33341	-18.4407817050779	-80.232425073679	-9.97332665843366	-174.314346220238	-46.19785736257	175.891468509233	-25.3380754584569	12.0606568570512	
2555666666.66674	-18.5091325443009	-81.0347705540018	-9.96903625881962	-176.560362604203	-46.3137690703976	174.175540092719	-25.0127646298053	12.124952967715	
2556000000.00007	-18.5688839844442	-81.869919062026	-9.96720573901003	-178.825554855082	-46.2242336920892	169.42434331518	-24.7360345903973	12.2839488965035	
2556333333.33341	-18.6193826432555	-82.6390386486247	-9.97225831603473	178.954641841166	-45.982681652874	167.389922388857	-24.4494223889974	12.3522451279584	
2556666666.66674	-18.6693926457182	-83.5011728420091	-9.96686065714288	176.7075779272	-46.4784550854144	162.938955321719	-24.1912746507357	12.2746673025758	
2557000000.00007	-18.7194882251798	-84.1799931283236	-9.96765458450596	174.475818337101	-46.3040883404846	162.083825540364	-23.904349756522	12.3352243515088	
2557333333.33341	-18.7677419291051	-85.0336676770221	-9.96643321654676	172.252966149345	-46.4153089096254	161.857647271168	-23.6643975089166	12.371687315897	
2557666666.66674	-18.792993427268	-85.7843586351093	-9.96952947815106	169.980857919779	-46.2978477070951	158.728467028684	-23.4111578442254	12.0186369774143	
2558000000.00008	-18.8354511693271	-86.5236185762967	-9.96414167618096	167.739769652138	-46.2656175906511	157.029960889453	-23.189369470783	12.021367372451	
2558333333.33341	-18.8553813886795	-87.2305619618044	-9.96069221153572	165.474273326596	-46.4791782547394	152.895262458934	-22.9419617181189	11.7910466233111	
2558666666.66674	-18.8956832264757	-88.0828794353848	-9.96536706114759	163.244119583892	-46.1443767309173	152.010380579574	-22.725758050633	11.7850996134376	
2559000000.00008	-18.9058092868752	-88.7372925430093	-9.9577424124134	160.96650832865	-46.2804185956609	150.677762269381	-22.4849294852081	11.8362381777441	
2559333333.33341	-18.9245336120891	-89.4413806904778	-9.95873578744638	158.730790639229	-46.2027136829554	145.682458336865	-22.2847449587492	11.5683445443812	
2559666666.66674	-18.9371087296512	-90.1244475985486	-9.94553095049346	156.418821966551	-46.1518830620896	144.531973074221	-22.0777674216257	11.4135583152815	
2560000000.00008	-18.9426799737372	-90.9028769637222	-9.9448066937667	154.229975034707	-46.676586807246	142.486036054256	-21.8963581625703	11.359828952008	
2560333333.33341	-18.9462745124693	-91.6412736928827	-9.9425739277039	151.927747198554	-46.2872943588363	141.798142749591	-21.7233399619694	11.1000949929123	
2560666666.66674	-18.9316332526425	-92.352216843091	-9.94272401063756	149.631231495767	-46.16837916582	138.169287017204	-21.5553136202424	11.0481087167515	
2561000000.00008	-18.9289373489468	-93.0226453661799	-9.93718066717823	147.407056543474	-45.9898222546328	136.156747076843	-21.3726912773519	10.8670155571012	
2561333333.33341	-18.9130655043728	-93.6608327305518	-9.93424654488072	145.124945079509	-46.1927631888952	133.16793828394	-21.2007591115982	10.6738309265546	
2561666666.66674	-18.8926452043476	-94.4029883525503	-9.93726671206499	142.819839401051	-45.9946017352849	131.729822590687	-21.0523818267333	10.3693260811852	
2562000000.00008	-18.8753909873534	-95.1365047313469	-9.92620928169521	140.525699290945	-46.2607041628342	129.92547298498	-20.8993184785629	10.4154530824878	
2562333333.33341	-18.8319281021621	-95.7276288165614	-9.92398459844689	138.241837150217	-46.1766063627601	128.605838947112	-20.7559503523772	10.1737447960639	
2562666666.66674	-18.7967122222529	-96.4872915306375	-9.91909444190927	135.934845618953	-45.9999573478453	123.67703310089	-20.6033956830309	10.0514566007878	
2563000000.00008	-18.7771797500512	-97.095532933769	-9.92409382618409	133.659204414764	-45.9773705777022	120.540495358788	-20.4878466927872	9.92053023485292	
2563333333.33341	-18.7231672350305	-97.7766900932685	-9.91575024651758	131.336142380857	-46.1403766372132	120.778794649976	-20.3556948501774	9.93886889070894	
2563666666.66674	-18.6905936836572	-98.3887289880951	-9.91480538909547	129.041546368894	-46.1696955405842	118.884389034353	-20.2271992930244	9.67295818929664	
2564000000.00008	-18.6339619878913	-99.1167520379962	-9.90807461955891	126.731865436462	-46.1001358605051	114.573764611841	-20.1006536913637	9.55918040330638	
2564333333.33341	-18.5816599788756	-99.7622117398631	-9.90902189253901	124.381335365684	-46.2273013521156	111.281428095467	-19.988065794296	9.35584784842728	
2564666666.66675	-18.524989457498	-100.417599268431	-9.90073815028428	122.080069216961	-46.3051385205922	109.58354218027	-19.8933544869629	9.23315591907978	
2565000000.00008	-18.4758432831728	-100.963543376088	-9.89855114863605	119.746961634425	-45.9123934955001	108.961564045794	-19.7980297683159	9.08347611746163	
2565333333.33341	-18.4370696971023	-101.670868645671	-9.89783199805809	117.414348074693	-45.9731515400969	105.61003390246	-19.7062663481561	9.03299382453022	
2565666666.66675	-18.3816059777721	-102.355427967138	-9.89786596064668	115.079009149681	-46.1440113925568	102.471588838742	-19.609279446445	8.80538614282545	
2566000000.00008	-18.3231312201914	-103.003655737088	-9.89859712605891	112.713549292491	-46.0691705308657	101.957505603968	-19.5312396011237	8.85403848931979	
2566333333.33341	-18.2714982338155	-103.620975906163	-9.89471636527999	110.3922607135	-46.2270304722691	100.722256006195	-19.4435526945817	8.80373790964848	
2566666666.66675	-18.1941094248922	-104.284332201392	-9.88846414420704	107.984560319651	-45.9271060147453	95.98138176816	-19.3567338147467	8.59132272728355	
2567000000.00008	-18.1595676406944	-104.962806138464	-9.89145595314153	105.655971281951	-46.063603043352	93.4911064484485	-19.293098406813	8.53705552490313	
2567333333.33341	-18.1004838974065	-105.667504646072	-9.88925717033689	103.246357592587	-45.8829046022488	89.8543058567882	-19.2309048211477	8.5777461085971	
2567666666.66675	-18.0333846621571	-106.376718727322	-9.8888619233807	100.941783798522	-46.0487716817091	90.4930309170186	-19.1503963451202	8.46962672136667	
2568000000.00008	-17.9723476600927	-107.105678362029	-9.89249156317852	98.5403251327708	-46.1908106353398	86.7712354081292	-19.098356358055	8.40108215155185	
2568333333.33341	-17.9082344729387	-107.733687344386	-9.89455885511538	96.1901564283923	-45.8596614899623	85.4262874848275	-19.0219236002864	8.3480108903869	
2568666666.66675	-17.845557199965	-108.445538851944	-9.89504933520177	93.8398018551878	-45.9369041306682	82.080083487837	-18.9902201821233	8.30843561762261	
2569000000.00008	-17.7855053073047	-109.111294543439	-9.90399650171646	91.4670037414043	-46.1975906138343	82.077644187884	-18.9321219881454	8.21745614820957	
2569333333.33341	-17.7145787172039	-109.847714902777	-9.90293788895698	89.0862971404583	-46.1343956121503	79.0748495522243	-18.8910546319817	8.21489496404092	
2569666666.66675	-17.6697908798235	-110.750480877734	-9.90840279875196	86.6653272926787	-46.2210757082789	75.3468505781017	-18.8484765836373	8.21008581579358	
2570000000.00008	-17.6092829166	-111.36658525775	-9.91003699341884	84.320276464251	-46.0554460242378	72.548479578389	-18.8037711408731	8.26441592999874	
2570333333.33341	-17.5809890821113	-112.208773348795	-9.91735278267927	81.8946873613308	-46.1075305027761	71.7815334579333	-18.7532652758209	8.12941113540916	
2570666666.66675	-17.5400501583712	-112.883222442066	-9.92437308596601	79.5171470935823	-45.9531329369535	69.164571818447	-18.7498074657934	8.14495728518608	
2571000000.00008	-17.4860815456844	-113.65883140258	-9.93115304289058	77.1698817487903	-46.4243911590089	67.3221451254398	-18.7000603885048	8.04897534981132	
2571333333.33342	-17.4526207096785	-114.3475180729	-9.93603599752426	74.7859225228829	-46.193037253275	64.3444403821399	-18.6856589741181	8.193795499478	
2571666666.66675	-17.418642616021	-115.112493282919	-9.93997257868413	72.4160269259023	-46.2926912909807	60.9912499843864	-18.6661753824402	8.20196696635857	
2572000000.00008	-17.3974024155094	-115.911625658056	-9.95070241939644	70.1104941728499	-45.9614022658597	60.3811127143286	-18.6492643763506	8.09828724723304	
2572333333.33342	-17.3589984640955	-116.734889915954	-9.96125118035295	67.715230398204	-46.3202931879079	57.2205428149341	-18.6347159057693	8.23089492232746	
2572666666.66675	-17.3395696056757	-117.39787878582	-9.96759415638697	65.384593533264	-46.2461849718475	54.2471176146701	-18.6240933230043	8.20823579284632	
2573000000.00008	-17.3246613086033	-118.266270852982	-9.97526130650473	63.0813265479945	-46.0530122226987	52.3507598220515	-18.6078344293684	8.26008077190486	
2573333333.33342	-17.314870041081	-119.043522076775	-9.98725933811917	60.6839345305426	-46.1742722825316	50.7886688217029	-18.6061564956819	8.34047191679051	
2573666666.66675	-17.3033443600546	-119.905976821631	-9.98539792227031	58.3541774604107	-46.2236856480055	48.9350871623359	-18.6133802909372	8.43049152078039	
2574000000.00008	-17.2825397310966	-120.674927165177	-9.9998486100846	56.0314799650108	-46.5006858172718	44.7868194782607	-18.602716607826	8.28363047006591	
2574333333.33342	-17.2726460161912	-121.547588748894	-10.0056590755215	53.6980691664805	-46.385955242448	42.1696378711251	-18.5810361618859	8.51258302999052	
2574666666.66675	-17.2541327564271	-122.209493371978	-10.0113837620473	51.3811115112686	-46.3286322683397	40.3948851201881	-18.594303608735	8.53348262600943	
2575000000.00008	-17.2561169575993	-123.042316029628	-10.0140205184839	49.0839206531216	-46.5646920360209	35.7209294765749	-18.6243006644568	8.41216005843946	
2575333333.33342	-17.2535950743768	-123.905543762637	-10.0169727677684	46.788477418535	-46.4194843782598	37.5897404840474	-18.6185380191977	8.62300087128177	
2575666666.66675	-17.2734758122391	-124.72992056372	-10.0240717337985	44.4784296618698	-46.4195389299663	33.9295473502155	-18.6129525895633	8.52686863298829	
2576000000.00008	-17.2760586022774	-125.504406324306	-10.0334139101525	42.2010274184265	-46.4272195508017	32.6980191786884	-18.635643572842	8.63257734868817	
2576333333.33342	-17.3106193860849	-126.419548062657	-10.0421056648116	39.8944273961921	-46.1098981820692	30.3113229560207	-18.6674776433801	8.671231369864	
2576666666.66675	-17.3009343601502	-127.200769229779	-10.045746879251	37.5781884487885	-46.3306528293193	27.7380382744125	-18.6745702650146	8.74996749693798	
2577000000.00008	-17.3335814222587	-128.091561165926	-10.0438192083086	35.3496286929393	-46.1085284198757	27.1716808432605	-18.712815635882	8.79777458004126	
2577333333.33342	-17.374515293559	-128.900593247671	-10.0508800960428	33.0790757128567	-46.1439678880423	22.1752100847166	-18.7249989333379	8.92581151521813	
2577666666.66675	-17.4041108267882	-129.850661593979	-10.0547722495497	30.8032267591356	-46.3447059181063	20.114990115684	-18.7696198533556	8.95033908119203	
2578000000.00008	-17.4486041142248	-130.733343420417	-10.0516438034557	28.5375238823448	-46.4939565924198	17.4949954855844	-18.7746663849192	9.04188242746658	
2578333333.33342	-17.4968192903485	-131.687727089532	-10.0505654206042	26.290776367619	-46.248049653312	16.3703355805219	-18.8312911294283	9.01692999631773	
2578666666.66675	-17.5352859378358	-132.384441703747	-10.0581106170385	24.0515932295137	-46.2390408218422	13.5751547148815	-18.8756551859774	8.99924365735369	
2579000000.00009	-17.6133854310733	-133.253200939784	-10.0591850381809	21.7750306185751	-46.2991222435438	9.86740914263008	-18.9013959274646	9.25268797700529	
2579333333.33342	-17.6631190736431	-134.304315339647	-10.0560877432134	19.5247942252448	-46.2515005964413	9.14185274124096	-18.9641296563754	9.23935462419986	
2579666666.66675	-17.718046354454	-135.217436910417	-10.0596214233723	17.3033709356729	-46.3080199200333	5.86530938483231	-19.0034714516975	9.2156212490391	
2580000000.00009	-17.8103089504272	-136.073235378109	-10.0524429430704	15.0175081007126	-46.5093031781759	4.19242251650563	-19.0533991192428	9.27569444817608	
2580333333.33342	-17.8934376083604	-136.977031959047	-10.0582730023015	12.8181428491877	-46.4450794707567	0.53671499156345	-19.1181949913776	9.46347316086528	
2580666666.66675	-17.971115600617	-138.04067366724	-10.0573811569058	10.5585302318373	-46.6828764136755	-1.51275244510173	-19.1601996962712	9.33526465658504	
2581000000.00009	-18.0601049053776	-138.971831054629	-10.0583211037546	8.28781860591621	-46.4143882135308	-3.7799403668695	-19.2300735936036	9.49068190759349	
2581333333.33342	-18.1187109913463	-139.86243122297	-10.0537949618964	6.10184276615188	-46.4843124021882	-4.50301961072918	-19.2912427638242	9.43513458201052	
2581666666.66675	-18.2394554131908	-140.881196088844	-10.0443156763821	3.81198255866721	-46.3726653640509	-7.81754175751608	-19.3512115989482	9.45100033503001	
2582000000.00009	-18.3264234131143	-141.709769501721	-10.0516962705989	1.61730883266487	-46.4164492358268	-10.3563334040731	-19.4130613663392	9.51279463639575	
2582333333.33342	-18.4041652315607	-142.73391974241	-10.0470519891631	-0.676009649612681	-46.4777121479471	-10.24984099312	-19.5018287046506	9.56009755943928	
2582666666.66675	-18.5000157284219	-143.514531524345	-10.0431743577311	-2.89097312299659	-46.7421924965854	-13.4167816813542	-19.5814258588855	9.46571726255884	
2583000000.00009	-18.6105522053086	-144.505247251646	-10.0406300524319	-5.09814151681131	-46.7845841985768	-15.2205319086645	-19.6472239610829	9.55682945356445	
2583333333.33342	-18.7158395681609	-145.389589912818	-10.0341411620751	-7.35059283783676	-46.3938778440469	-20.4451494641844	-19.7375648309818	9.55324979881853	
2583666666.66675	-18.8405638254657	-146.306241930215	-10.0318367883895	-9.6183095991811	-46.4588790996668	-19.3093014204526	-19.8108848329194	9.57170258984983	
2584000000.00009	-18.9559805707485	-147.325269621028	-10.0292293083131	-11.8711189088914	-46.5933309142597	-20.2948987396381	-19.9249653664142	9.6202633017223	
2584333333.33342	-19.0489112403486	-148.246849979779	-10.0303653719635	-14.1080008128578	-46.6230735919499	-25.0673685020977	-19.9901026059539	9.67598719311168	
2584666666.66675	-19.1871482679022	-149.096123074513	-10.0264655508173	-16.3302942249969	-46.6030188383375	-26.7115644861057	-20.1375276012392	9.7331676069641	
2585000000.00009	-19.2919213948711	-150.199576618243	-10.0179346607551	-18.6301862524825	-46.7891723129741	-27.729186445426	-20.2090862881255	9.88315636024349	
2585333333.33342	-19.4211317114817	-151.167476448466	-10.0110690068105	-20.8255217509326	-46.4907030373914	-28.6108698721861	-20.286905262444	9.94714734492561	
2585666666.66676	-19.5602974842541	-152.128569126537	-10.0055030708601	-23.0776791372352	-46.6349057811731	-32.9924292982895	-20.4009080095925	9.93295691332882	
2586000000.00009	-19.6709973450561	-153.110306137409	-10.0051067184565	-25.3225354247949	-46.5845474953509	-34.1943697447496	-20.5238770219448	10.1383000333969	
2586333333.33342	-19.7918857159836	-154.112145660037	-10.0048884222104	-27.563605508589	-46.7108199370382	-38.8932169568884	-20.6247919870849	10.114858091796	
2586666666.66676	-19.9190891485201	-154.95224779824	-9.99711501363608	-29.8728613584425	-46.745243019983	-39.7348695570725	-20.7433255643806	10.1816502198248	
2587000000.00009	-20.0561991566368	-156.021859881506	-9.9953386690108	-32.080377549092	-46.5802283105841	-41.4360341685659	-20.8672657680832	10.1558772416504	
2587333333.33342	-20.1981513645071	-156.93756707668	-9.99023848726835	-34.3199921098791	-46.5240441861694	-44.9548929261498	-20.9777690319571	10.4362634524315	
2587666666.66676	-20.3377276392539	-157.830349461316	-9.98443025164869	-36.5826916997348	-46.4520349171865	-48.0252412388562	-21.0801510930649	10.4667292996674	
2588000000.00009	-20.4704543769201	-158.8095751068	-9.98846064947145	-38.8533100657859	-46.6510475280932	-49.7225181278174	-21.2155440683368	10.5583466212852	
2588333333.33342	-20.5800728656328	-159.811576286605	-9.9842036761654	-41.1356309634898	-46.5869855017466	-52.2510341434464	-21.3050328285018	10.6785678429215	
2588666666.66676	-20.7269323408785	-160.74805050146	-9.9829266242304	-43.4167707129039	-46.3018328142795	-52.8774865022738	-21.432856352142	10.7571059348163	
2589000000.00009	-20.8283830562161	-161.840581035942	-9.97514140089427	-45.6657359249861	-46.3366888375034	-56.1116137328248	-21.5815696334056	10.9873400740681	
2589333333.33342	-20.9723149670483	-162.838726216188	-9.97172744315623	-47.9322785121145	-46.5030677289259	-58.1830054477394	-21.7008179594044	11.0310840835398	
2589666666.66676	-21.1181918376806	-163.655940205543	-9.9732062536352	-50.2429200218901	-46.2367333928331	-60.3320939865904	-21.7986950206287	11.1398829052564	
2590000000.00009	-21.2260092591917	-164.851998426287	-9.96897846115747	-52.5422317647023	-46.3080054349422	-63.1495907685198	-21.9479415984555	11.3194064989881	
2590333333.33342	-21.370505814582	-166.088306460411	-9.96973998846063	-54.8064991419262	-46.5976609266907	-64.6097851722274	-22.0657125458738	11.5246407140044	
2590666666.66676	-21.4664224005329	-167.031257352706	-9.96452063491257	-57.0771511954041	-46.2409750627569	-66.0509930670588	-22.2113251266929	11.8334375992615	
2591000000.00009	-21.585961902348	-168.010071220498	-9.96622264797958	-59.3778571968522	-46.5015438100082	-70.2902756761438	-22.3091733648078	11.9541065505165	
2591333333.33342	-21.7024009930699	-169.024446279947	-9.96388199347519	-61.6549812617773	-46.4086379043367	-69.2435463665552	-22.4583527593056	12.3752471274479	
2591666666.66676	-21.8090435883504	-170.348619883499	-9.96086119885449	-63.9994778556387	-46.4873492540347	-74.6012529674415	-22.5615646892833	12.4350430385915	
2592000000.00009	-21.9098763787435	-171.486438672058	-9.96207468831821	-66.2285335348383	-46.4042873097972	-72.1700854535897	-22.7051898303899	12.6733947595499	
2592333333.33343	-22.000665023464	-172.744355665472	-9.96066589538587	-68.5508313268721	-46.3140608302502	-77.2535005423489	-22.8307041646563	12.8809659276325	
2592666666.66676	-22.0798223758093	-174.037717544069	-9.95415420592703	-70.8506475009604	-46.3017331568985	-81.5065671998071	-22.940529800645	13.3373284096875	
2593000000.00009	-22.1666850714803	-175.305769545068	-9.95614149864388	-73.149475978677	-46.1342132069879	-83.1208614602737	-23.0195700689087	13.5026394271152	
2593333333.33343	-22.2418762052197	-176.480966624402	-9.95457852883034	-75.5243882992761	-46.2384978698346	-85.7559997557749	-23.1657024026609	13.8632589277588	
2593666666.66676	-22.3098726108884	-178.013650841069	-9.95575581704034	-77.757537480887	-46.3151085921945	-88.1456922484348	-23.2715297824909	14.0277184161424	
2594000000.00009	-22.377286102056	-179.151570981488	-9.95308305814593	-80.0927502855833	-46.321238696718	-89.4373787614726	-23.3727902270358	14.4713096172139	
2594333333.33343	-22.3961819891724	179.342773190451	-9.95429584482636	-82.4185249191708	-46.4240041318608	-91.2535285648833	-23.4611272922631	14.7565019176809	
2594666666.66676	-22.4687223188719	178.033303554177	-9.95330370761079	-84.7309277483836	-46.3918522281391	-94.0962404107252	-23.5539586451725	15.0120574880238	
2595000000.00009	-22.4730176256388	176.510454507213	-9.95424381460628	-87.0431045807542	-46.3994534427305	-94.6593110643134	-23.6401347402546	15.4004754998375	
2595333333.33343	-22.5076129215672	175.007046566778	-9.95188559629979	-89.3175097385387	-46.3317377409207	-101.263794827695	-23.7334569200941	15.644085345015	
2595666666.66676	-22.5391723307588	173.456683578814	-9.96128362054988	-91.69574003324	-46.4123195838529	-100.052823787893	-23.7442681015813	15.977045592494	
2596000000.00009	-22.5509737490784	171.875716440804	-9.95356559202554	-93.9543074258536	-46.4536293176803	-102.974994613901	-23.8362003382441	16.3351222288276	
2596333333.33343	-22.5114090487612	170.279006248127	-9.95728330593247	-96.2571940883424	-46.3033928670141	-106.74552598936	-23.8917857504343	16.6486128238094	
2596666666.66676	-22.4879940011982	168.715656328112	-9.96384593462366	-98.5767488179472	-46.3609486761023	-108.999492200788	-23.9227806986018	17.0372767355568	
2597000000.00009	-22.4580085083165	167.081813154084	-9.96045569375789	-100.906275472125	-46.1358069421571	-111.420020201749	-23.9442924230976	17.4873570112779	
2597333333.33343	-22.4253683078794	165.546617417182	-9.96388152915788	-103.213722735552	-46.2065100816434	-112.358168669476	-23.9938996856739	17.4132605729679	
2597666666.66676	-22.3705667068794	163.6024003813	-9.96255203609152	-105.477065087404	-46.052634666392	-116.034840982212	-24.0340960527718	17.8366077716841	
2598000000.00009	-22.2994608062355	161.935452521857	-9.97055222156363	-107.800984561049	-46.4214803264254	-117.689372246599	-24.0351860501931	18.1054156812057	
2598333333.33343	-22.2274872125567	160.275361148838	-9.97884057030873	-110.141606871873	-46.146320210278	-120.832640675355	-24.0409043197411	18.4930069391328	
2598666666.66676	-22.1325982011867	158.492225328683	-9.98266169357445	-112.425174415533	-46.3208903504787	-123.440895315615	-24.0141749822828	18.5335984418924	
2599000000.00009	-22.0561280837907	156.738361033574	-9.97754983706887	-114.759000452361	-46.2178378484481	-124.010119122048	-24.0243777350708	18.5906544452606	
2599333333.33343	-21.9419975765145	154.787698367286	-9.99877411160689	-117.05941244283	-46.2510611703145	-127.147379220332	-23.9623891424723	18.8491537362834	
2599666666.66676	-21.8487314053348	153.267992348782	-9.99276563069505	-119.379302316866	-46.1302558083296	-129.350809388389	-23.9668001086464	18.9260287757012	
2600000000.0001	-21.7186805964832	151.509541372972	-10.0063308891269	-121.683463188362	-46.3060032435338	-131.865412625393	-23.8908005030672	18.9787387248154	
