!Agilent N9923A: A.05.34
!Date: Friday, 25 March 2016 20:52:43
!Model: N9923A
!Serial: MY51491690
!GPS Latitude: 
!GPS Longitude: 
!GPS TimeStamp: 0001-01-01 00:00:00Z
!GPS Seconds Since Last Read: 0
!CHECKSUM:0972448783
!Correction: S11(ON U*)S21(ON U*)S12(ON U*)S22(ON U*)
!S2P File: Measurements:S11,S21,S12,S22:
# Hz S DB R 50
2400000000	-16.4782604738955	179.539630108922	-9.46978351165878	152.602604180762	-46.5131299260529	139.524482875158	-23.6939603232905	31.9111392678523	
2400333333.33333	-16.4736569719443	178.447535087722	-9.45804004177055	150.321778640461	-46.498834838795	138.310306307424	-23.736903614663	32.7478958962367	
2400666666.66667	-16.4854228165762	177.596000053585	-9.46208425352917	148.004550711709	-46.3882909386262	133.306557039837	-23.7999404208541	33.5270778586301	
2401000000	-16.5086762668377	176.604037257117	-9.44679415743804	145.695406480316	-46.1469032855851	132.486353048279	-23.8595813772595	34.3476541451294	
2401333333.33333	-16.5507506187745	175.499087238116	-9.44629252815136	143.402389461144	-46.1054270773579	128.353542348911	-23.9265846045507	35.306579400849	
2401666666.66667	-16.5819564557302	174.357361127203	-9.44724754336318	141.036408293921	-46.0836083876906	129.041205479769	-23.9898023886966	36.1001192967902	
2402000000	-16.6175175300314	173.174990790785	-9.44651738817952	138.693933127014	-46.1847045180854	126.448052141761	-24.0959131271967	36.7967839685063	
2402333333.33333	-16.6374727675046	171.995568027405	-9.43455354936491	136.345577745104	-46.5156745462789	124.022238376669	-24.1779587778904	37.4677598609483	
2402666666.66667	-16.690084476643	170.903708978047	-9.4377310270456	134.062796042782	-46.2438401665874	120.683899769543	-24.2101544403352	38.6653609907087	
2403000000	-16.7013615679495	169.86887825533	-9.43616430147979	131.718715307699	-46.4471156197896	120.332606701052	-24.2791763815301	39.422623642764	
2403333333.33333	-16.7436316490611	168.608404853023	-9.43576914657898	129.375691888742	-46.197639159054	115.619364007636	-24.3829554634334	40.3213455674743	
2403666666.66667	-16.7824942202388	167.343505313357	-9.42824654717726	127.035894139345	-46.1734422926638	114.721403584926	-24.4280057656923	41.2933719150279	
2404000000	-16.7828402558649	166.154752807889	-9.4288439759749	124.722178523961	-46.2766984006905	110.780308728891	-24.5129071121656	41.8165339910376	
2404333333.33334	-16.832274459047	164.934996408644	-9.42602658855689	122.383192549221	-46.5353207844247	109.624742196367	-24.5413778783375	42.7270781683276	
2404666666.66667	-16.850518659351	163.658777572567	-9.42618351899551	120.05631100568	-46.6345515560923	106.757934087015	-24.5945723750987	43.7786488899188	
2405000000	-16.8504664802688	162.465695588249	-9.42574436297239	117.736176776375	-46.1142582494739	104.678146806831	-24.6436499748625	44.5371486976632	
2405333333.33334	-16.8733570352918	161.200020513746	-9.42774240862	115.40898745452	-46.3783937221097	103.412771445046	-24.6704562761273	45.5542495240992	
2405666666.66667	-16.897315955913	159.987386721906	-9.43284100911118	113.065100233961	-46.2480116311795	100.750054995712	-24.7267662185661	46.2751566388684	
2406000000	-16.9301663310433	158.753878233021	-9.43385660995223	110.738822183775	-46.4030218189951	97.0866633839091	-24.7390298549312	47.2552996489389	
2406333333.33334	-16.9318575092443	157.393412954783	-9.43127564401067	108.439892019022	-46.416557382824	95.9666342535704	-24.7564871893938	47.8905168368983	
2406666666.66667	-16.95003657601	156.082935868174	-9.42583462704974	106.114843829734	-46.2312926395318	93.5816462791112	-24.8049079441639	48.7361647202717	
2407000000	-16.9591534681661	154.753734253169	-9.43244899847397	103.782481454191	-46.3236123744946	88.9953670533412	-24.8236211110059	49.4550520475262	
2407333333.33334	-16.9582485205612	153.506347411184	-9.43507963712905	101.475343851841	-46.2450528995311	87.1466253730021	-24.8446013288713	50.163757124199	
2407666666.66667	-16.9759558355173	152.267532582582	-9.43549137676354	99.1740798835481	-46.2879185818028	86.3270562972191	-24.8330703509236	50.809114250615	
2408000000	-16.9835576012004	150.901123022605	-9.44302682697511	96.869826966011	-46.393812876299	85.0303988990375	-24.8569953058547	51.4956659107182	
2408333333.33334	-16.9595893280488	149.665059435616	-9.44825458549592	94.5439981732258	-46.4540813793196	81.3653792607232	-24.8749581326074	52.2567145529963	
2408666666.66667	-16.9553148632285	148.422268674819	-9.45687126100098	92.2361285083812	-46.3983915685182	80.0816815977435	-24.8536591161926	52.6591449497293	
2409000000	-16.9382795912416	147.148374499011	-9.45409718476622	89.9689014066511	-46.2577433495186	77.6754635421154	-24.8428085449898	53.211021896812	
2409333333.33334	-16.9411962091863	145.902813164781	-9.46381611108806	87.6573389111897	-46.2961269979439	75.0125485834094	-24.8055919523197	53.5883857844965	
2409666666.66667	-16.9049379371531	144.704322165424	-9.4708597404372	85.3426924250872	-46.2492069309547	72.6467092036056	-24.7767962553809	53.9873768113946	
2410000000	-16.8864856149474	143.442149428518	-9.47516874436827	83.0536470478467	-46.2153416316975	67.7429321896961	-24.777396576415	54.5196911235928	
2410333333.33334	-16.8713752189082	142.132862027365	-9.48401682625618	80.7472210323224	-46.5289887251833	67.7139944947954	-24.7537853731554	54.8032163463712	
2410666666.66667	-16.8510630517742	140.914158668151	-9.4922441215857	78.4637688102972	-46.6039521450234	64.5296655129504	-24.7105257861318	54.8319927427468	
2411000000.00001	-16.8036996442946	139.618043076218	-9.50248744479899	76.194369847656	-46.4512088553945	63.8558517080485	-24.6499930835477	55.2037605406479	
2411333333.33334	-16.7766125663751	138.556013481701	-9.51077146863484	73.9076432131513	-46.6327076724963	62.2069801444856	-24.6217864074786	55.3427067518479	
2411666666.66667	-16.7315587412015	137.336110106587	-9.51801473635533	71.6363730453135	-46.4868719890505	59.6042709469784	-24.5746349383881	55.2724255314411	
2412000000.00001	-16.6953252879558	136.166932722615	-9.52773816757557	69.3684686112778	-46.4096644908647	58.1770564530361	-24.5076497312563	55.2557450243926	
2412333333.33334	-16.6563070303337	134.898235093923	-9.5383676392781	67.0920912166234	-46.3944067611255	54.0073863185128	-24.4859415813003	55.0514142385538	
2412666666.66667	-16.5919359774263	133.524876762	-9.5472657906793	64.8146955730161	-46.527061741624	52.5515750703838	-24.4109809394676	54.8813921703879	
2413000000.00001	-16.5366669884052	132.351377915676	-9.56193139002848	62.5477440599436	-46.3673866450534	49.2249654227653	-24.3447757014958	54.6193747291459	
2413333333.33334	-16.5037079245905	131.089107725427	-9.55378575263427	60.2508968916272	-46.4219262099226	46.2482430703374	-24.3193839885782	54.4212098250644	
2413666666.66667	-16.4339343357381	129.903562457308	-9.56662921324284	58.0373067951232	-46.4817602526459	45.4840179413593	-24.2357049207438	53.8331498117526	
2414000000.00001	-16.3603968007741	128.697298501407	-9.58353319072584	55.7289944438611	-46.671202135514	41.513499916145	-24.1610218395965	53.5532960001554	
2414333333.33334	-16.2901960555717	127.593477400589	-9.59229592155028	53.4529979586656	-46.6621847357801	38.3912815061376	-24.0754175042356	52.9155138722784	
2414666666.66667	-16.2241288724077	126.490037705875	-9.60755131596598	51.2471573767791	-46.5155404000953	36.0099556839346	-24.0019496694219	52.5318933207815	
2415000000.00001	-16.1565580851403	125.452443774162	-9.61879685018047	48.9933288950243	-46.636477059443	33.3791730140519	-23.9336093381264	51.5279614241891	
2415333333.33334	-16.0889672719113	124.312301515101	-9.63330451631506	46.7231435692939	-46.506017037117	32.0663470073934	-23.8643121609869	50.8791027803294	
2415666666.66667	-16.0078269697064	123.272035005358	-9.64476942436654	44.4834017826983	-46.5729943297582	30.7332509262405	-23.8045087296157	50.1339430790953	
2416000000.00001	-15.9419592976938	122.247813853064	-9.65913564151705	42.2667242704844	-46.6703373873175	30.2913899199556	-23.7283033953869	49.2647110079647	
2416333333.33334	-15.8594330195099	121.292266953505	-9.67254839429419	40.0273653562722	-46.260461627092	26.2153503070558	-23.6496183938802	48.3990024599665	
2416666666.66667	-15.7878065122648	120.354759716382	-9.68500054909341	37.7660461919155	-46.3831191800693	23.2077160531832	-23.5801991075824	47.3100839316311	
2417000000.00001	-15.7085033650277	119.408790466433	-9.69988754618652	35.5299752363052	-46.3428542251873	21.5252022143923	-23.4594641228631	46.3175894493087	
2417333333.33334	-15.634580160848	118.457244608927	-9.71141577834169	33.3004076378284	-46.7695413800804	18.8888392366261	-23.3662474687931	45.2301909563307	
2417666666.66668	-15.5551689375561	117.544152324256	-9.72719369195955	31.032472634722	-46.3700402995935	15.8053277331971	-23.2668168350877	44.008097183133	
2418000000.00001	-15.4825816204861	116.664004422768	-9.73796588572318	28.7812470811078	-46.6969515776569	15.8732010628005	-23.1810280398052	42.9689792438855	
2418333333.33334	-15.3978404754091	115.741501425822	-9.75125970231704	26.5947360419712	-46.4188338717888	12.4062930957837	-23.0680906555272	41.7697597327604	
2418666666.66668	-15.3193774243866	114.853906509127	-9.76910467715557	24.327079690401	-46.8770022404293	11.9422872026806	-22.9713291829627	40.3989545037658	
2419000000.00001	-15.2306948619758	114.015702253739	-9.78027538754332	22.0809036462067	-46.5182872977288	9.98094482787384	-22.8856374329106	39.0401244679351	
2419333333.33334	-15.14992594437	113.193529631737	-9.78779261070534	19.8470300953076	-46.388149152416	5.76079350723664	-22.7522912966716	37.7128416109026	
2419666666.66668	-15.0698026029252	112.36054709606	-9.81059284351991	17.6143307132138	-46.6206879445776	3.41589680774976	-22.6494683108238	36.4126715753882	
2420000000.00001	-14.9913141983977	111.557031817364	-9.81663866867465	15.3609270150055	-46.5111519822717	0.620226036730803	-22.5226033082384	34.9317768615363	
2420333333.33334	-14.9125066545179	110.791144797328	-9.82663735288019	13.1505340727025	-46.585386873325	-1.28977517729782	-22.4107007367568	33.587380226329	
2420666666.66668	-14.8391140708909	109.969655413176	-9.84271068314066	10.9051012251797	-46.5183971123764	-1.92547074623647	-22.2984337354919	32.1966920009348	
2421000000.00001	-14.763112622669	109.250700787045	-9.85337323071874	8.66771090412626	-46.6961077454161	-4.92118997695272	-22.1422469282213	30.6961694637253	
2421333333.33334	-14.6817479116999	108.53002523042	-9.86615979928041	6.45313960248294	-46.4696546829718	-7.14308429734123	-22.0250720211063	29.2720857835416	
2421666666.66668	-14.6100382502202	107.777754078533	-9.8792857279678	4.16844328672829	-46.6360518242268	-10.0097390145912	-21.8888948969009	27.7621787622718	
2422000000.00001	-14.542835189123	107.09501479543	-9.89131812756384	1.95945142759509	-46.7211792926838	-11.521662329473	-21.7462914412514	26.2940458883954	
2422333333.33334	-14.4738210952929	106.45791523156	-9.89770425674731	-0.314181637919022	-46.8381240642996	-14.2560615588705	-21.6322066725293	24.7542187130825	
2422666666.66668	-14.406384165055	105.749176602012	-9.90742676246069	-2.54409375260828	-46.7065473033939	-18.3933224507552	-21.4874540378046	23.3057025538256	
2423000000.00001	-14.3370512265524	105.13336639268	-9.9147627260742	-4.77983133542315	-46.4245253736612	-17.7499260529267	-21.3545308309751	21.8267554992182	
2423333333.33334	-14.2825669582096	104.487401265687	-9.92479238358369	-7.02925582795952	-46.6281001647788	-21.0825476605261	-21.207878148671	20.2998902533067	
2423666666.66668	-14.2200552132122	103.826021075783	-9.93879350410367	-9.28539441520615	-46.6339118148533	-23.3426535846038	-21.0601701743156	18.9044337741678	
2424000000.00001	-14.1688340064147	103.274210864767	-9.94955134898156	-11.510365813733	-46.7129887572739	-26.0211546949431	-20.9203986511454	17.469269409775	
2424333333.33334	-14.1151870899506	102.687050967113	-9.95620483263269	-13.7464625488693	-46.5011650840613	-27.4878747695351	-20.7702828007036	15.9274857263572	
2424666666.66668	-14.0531006620604	102.143735261335	-9.96271413052877	-16.0704567052963	-46.6832290049502	-28.7918894738818	-20.6162603703352	14.4642427540167	
2425000000.00001	-14.0053594418481	101.617701256285	-9.97275204656575	-18.2746695611602	-46.5982936762478	-30.813923213651	-20.4682057717901	13.1631473826922	
2425333333.33335	-13.9485777442054	101.079546787195	-9.97765141129505	-20.5054001805204	-46.618249787096	-34.5027034404378	-20.310510346394	11.7138580860901	
2425666666.66668	-13.9086983430475	100.640761919023	-9.98968199472435	-22.7865527705596	-46.5530695402435	-36.0954782598507	-20.1499729179895	10.3566939030063	
2426000000.00001	-13.8597280779923	100.111975707683	-9.99531108310824	-25.0259854555302	-47.0128143429967	-38.9840767564262	-20.0121625261523	8.92988483420537	
2426333333.33335	-13.8158641356251	99.6684976018945	-9.99800621641043	-27.3075140961319	-46.8170837079493	-44.486761473005	-19.848870801768	7.65121763410246	
2426666666.66668	-13.7820645123056	99.1556271320493	-10.007314965922	-29.5689474786834	-46.8669890360116	-43.8088477787591	-19.7045743137482	6.33802807402705	
2427000000.00001	-13.73627143489	98.7535762992282	-10.0150211131432	-31.8404436770252	-46.6157799409065	-44.9337174696093	-19.5627346511493	5.11300426538514	
2427333333.33335	-13.7006266488949	98.3240124731137	-10.0171221992921	-34.0753492347561	-46.7247665451261	-47.4066956497477	-19.4298573900872	3.80294610520372	
2427666666.66668	-13.6656546372171	97.9193069224479	-10.0275003188769	-36.3654244935701	-46.7830096153861	-49.6015719829906	-19.2652175616666	2.73357206161411	
2428000000.00001	-13.6253219139432	97.516085676571	-10.0346856743884	-38.5816251750768	-46.4558124021277	-51.8211765718502	-19.1331248217199	1.4391489334736	
2428333333.33335	-13.5977558078091	97.1151973048	-10.0400120729246	-40.8865840322961	-46.8934408077755	-54.1963509197047	-18.9946900942196	0.163430425596077	
2428666666.66668	-13.5673076642287	96.7076289219902	-10.039910298486	-43.134214759136	-47.00482666299	-56.3825216641138	-18.8693387490639	-1.01642249411738	
2429000000.00001	-13.530661841771	96.3389325927403	-10.0409751298573	-45.4011280743033	-46.78459788414	-59.4397120563852	-18.7208977606719	-2.17981466878186	
2429333333.33335	-13.4983690763249	95.971028124284	-10.0467821277888	-47.6538877626438	-46.7352809481093	-60.8714532043132	-18.5939526129215	-3.26972080544282	
2429666666.66668	-13.480006884664	95.6049561681168	-10.0498824183966	-49.9366057756904	-46.6044596241958	-63.8726338249084	-18.4742443534248	-4.45507992871476	
2430000000.00001	-13.4602864002425	95.2495877709219	-10.0635753519374	-52.1464154055552	-46.7845665964215	-64.9659218211339	-18.3646107598713	-5.51853210400072	
2430333333.33335	-13.4267786930884	94.9337079930353	-10.0640751273023	-54.3977518183545	-47.0319010580341	-68.3140116163649	-18.2395135246031	-6.62584592830785	
2430666666.66668	-13.4022665555585	94.5957094602225	-10.074121558382	-56.6516261807306	-46.8768758234374	-70.4380775442406	-18.1327151665932	-7.57449502770853	
2431000000.00001	-13.3737955656632	94.3687508684426	-10.0706563435223	-58.919692765438	-46.6465741790553	-72.9092007216136	-18.0108830058659	-8.55935478695323	
2431333333.33335	-13.3557825375569	94.055486914358	-10.0802917919463	-61.1484674555508	-46.7083718288275	-75.3069826123987	-17.9112675631513	-9.64787797290886	
2431666666.66668	-13.3373384307721	93.758915310531	-10.0851620286641	-63.3179434701256	-47.1454134204301	-76.7468407602867	-17.8067318018957	-10.659261057482	
2432000000.00002	-13.319992089839	93.5285596029375	-10.0859863284358	-65.5810544936391	-46.8321581224096	-79.5766516624633	-17.7036625878109	-11.5289161372307	
2432333333.33335	-13.3056686294057	93.2515105770226	-10.0911697557883	-67.8430138565976	-47.2058231265028	-82.2942453365458	-17.616220835728	-12.42979237341	
2432666666.66668	-13.291233085028	93.0434348937125	-10.0931270587944	-70.0515237694593	-46.821256279777	-83.313945041413	-17.5032864976829	-13.3307624080694	
2433000000.00002	-13.2701412464197	92.8435934417321	-10.0938881921628	-72.3008447321477	-46.6610848872693	-85.598144671951	-17.4217866137764	-14.1997088346771	
2433333333.33335	-13.2633026147745	92.5569914969255	-10.0968572948175	-74.5444392308437	-47.0001612055913	-86.6151521877561	-17.3333149571476	-15.0530969747395	
2433666666.66668	-13.2392747607411	92.3019059554135	-10.0997343819829	-76.7559359001155	-46.8309949599154	-90.9394135867869	-17.2522459841721	-15.8944671075197	
2434000000.00002	-13.2372077151397	91.9907945220943	-10.104685927577	-78.9924655361712	-46.7133539146729	-92.2174500114959	-17.1759904452169	-16.6771431437845	
2434333333.33335	-13.2201486413982	91.7393500487077	-10.1047706972975	-81.1775145142842	-47.0629371938589	-93.292283114372	-17.1217152419022	-17.5188037653625	
2434666666.66668	-13.1988208416483	91.4469893135283	-10.1026049123106	-83.4122606420816	-46.8225442200895	-97.4847094097119	-17.0440252972703	-18.2638419753353	
2435000000.00002	-13.1920510406014	91.1261027653357	-10.1065484922013	-85.6339535440369	-46.818949643746	-100.100949788969	-17.0025452527405	-19.127227299188	
2435333333.33335	-13.1758585135758	90.9141720322172	-10.1013140651996	-87.8672212316775	-46.8395391492157	-100.331650262605	-16.9532073137744	-19.838946631626	
2435666666.66668	-13.1767617184865	90.5636145425787	-10.1049824323784	-90.1322381892652	-47.0526966295409	-101.570520127483	-16.8956818215629	-20.6052532415665	
2436000000.00002	-13.1649265046987	90.2898319559987	-10.0997414007621	-92.336936729897	-46.9291736614115	-103.94996775382	-16.8548274966399	-21.2493063618155	
2436333333.33335	-13.1473364968996	89.9277218312293	-10.104741949999	-94.5336897368176	-47.1341478320273	-108.441331741018	-16.8287872844844	-21.9470425282861	
2436666666.66668	-13.1523700955399	89.6255407079157	-10.100128161602	-96.7411484753647	-47.0699617924348	-109.70435304521	-16.7790511338514	-22.6761843738077	
2437000000.00002	-13.1324934543585	89.2652103107191	-10.0960837766035	-98.9654390466148	-46.7537035920213	-112.743061327517	-16.7596275396641	-23.3223350572169	
2437333333.33335	-13.126449281064	88.9320418334377	-10.0971025441641	-101.227356550245	-47.2635984441192	-113.750128828465	-16.740810369192	-23.9956538915823	
2437666666.66668	-13.1277048608587	88.5435804173991	-10.0908814715894	-103.435004602039	-47.1403369005786	-116.745224231344	-16.7254640054515	-24.5970845427024	
2438000000.00002	-13.1230432689425	88.2303203561568	-10.087805261442	-105.646751994802	-47.0325576470302	-118.479058070201	-16.7080827376512	-25.2544589000216	
2438333333.33335	-13.113520759611	87.7958726452654	-10.0860060620542	-107.881894193991	-46.9361321305902	-122.305684821216	-16.7038479932153	-25.8473006575025	
2438666666.66669	-13.1101179701644	87.5639966165949	-10.0844198912348	-110.120771042251	-46.750501376501	-121.94705979624	-16.7114989444275	-26.4163785735697	
2439000000.00002	-13.1012616618142	87.1014704479026	-10.0785985331175	-112.298294455176	-47.1962405032677	-125.621041839355	-16.7217107116856	-27.0339793546971	
2439333333.33335	-13.1087210736851	86.7270905143081	-10.072709045786	-114.526191257204	-46.9835918618624	-127.119576855304	-16.734094655308	-27.6092197493307	
2439666666.66669	-13.0998316302391	86.3211960103738	-10.065449356337	-116.723435807287	-46.7045298899392	-130.63120523009	-16.7418087819387	-28.025824690696	
2440000000.00002	-13.0912029830094	86.026706697988	-10.065380801904	-118.954585538582	-47.0216566027552	-132.549959383938	-16.760455096896	-28.62075415543	
2440333333.33335	-13.0937802711682	85.5461022102403	-10.0611982456836	-121.203975729505	-46.9330885392689	-134.7058481307	-16.7946927563578	-29.1996309852041	
2440666666.66669	-13.0973333011057	85.1826473395743	-10.0562769713966	-123.371649246831	-47.0840417161177	-134.873757708532	-16.8322869168865	-29.5565119405286	
2441000000.00002	-13.1082612154704	84.7564187313379	-10.0435497274532	-125.624002389497	-47.1869011733209	-138.227993783148	-16.8676899802707	-30.1536485077047	
2441333333.33335	-13.0997679168992	84.3111730207596	-10.0395936260191	-127.807227853254	-46.7729367825925	-142.710491703963	-16.9098830698629	-30.5726548982273	
2441666666.66669	-13.1305530116301	83.9935943733154	-10.0371323931908	-130.036759303447	-46.9825077093465	-141.7135898876	-16.9472292236965	-31.0796609518312	
2442000000.00002	-13.1345605594699	83.5858412523543	-10.0293301469686	-132.263787091439	-47.0188839506124	-144.12616164523	-17.0331461514332	-31.4258084320889	
2442333333.33335	-13.1357631279868	83.2903115641749	-10.0225949557433	-134.522167449089	-47.2058582012104	-147.697349911552	-17.0830231403103	-31.8688220917445	
2442666666.66669	-13.163306066336	82.8282312682617	-10.0057625080101	-136.714965847363	-46.8208339738719	-150.552237571601	-17.1520930368592	-32.2550557972121	
2443000000.00002	-13.1605223362149	82.4484012309991	-10.0020620500348	-138.998618800755	-46.4245264097255	-152.622556945011	-17.2320079164157	-32.5692890919275	
2443333333.33335	-13.1938316022854	81.9796313079523	-9.99450083454657	-141.176627243005	-46.8619840725563	-155.200991715215	-17.2989856990873	-32.8263902806769	
2443666666.66669	-13.2057148792117	81.5882491828873	-9.98580956204953	-143.377884923551	-47.0683304787204	-157.953789339061	-17.378640663687	-33.2102178168544	
2444000000.00002	-13.2382277721426	81.2186493262027	-9.98074080551967	-145.648612172808	-46.8060967218039	-158.940287448186	-17.4837690333347	-33.473260564946	
2444333333.33335	-13.2471414228247	80.8360006543274	-9.96823762383207	-147.93584588006	-46.9881311730149	-161.279569161698	-17.5629708914654	-33.7884317221138	
2444666666.66669	-13.2754685724497	80.3349009856184	-9.96296516567566	-150.165840581751	-47.2216476877527	-163.132335151421	-17.6736158558418	-34.0492821169404	
2445000000.00002	-13.2995732153906	79.8722188436572	-9.95416911263849	-152.401884608265	-46.7070786776867	-166.870384211453	-17.7640294552538	-34.2274637967745	
2445333333.33335	-13.3129431309472	79.4244048851561	-9.94579871957738	-154.683924847448	-46.8899029503366	-168.17450285011	-17.8676276208149	-34.3784411081385	
2445666666.66669	-13.3430217824609	79.0241425186964	-9.93658957870833	-156.953094170718	-46.8408498582935	-170.385291747355	-17.9861817368256	-34.5594743256903	
2446000000.00002	-13.3533265778677	78.5140868898266	-9.93345115213547	-159.149144887489	-46.8000512204064	-170.750525556966	-18.1309057335368	-34.6685625002968	
2446333333.33336	-13.3876050229664	78.0626243941296	-9.92971086375727	-161.451405485645	-46.6751290803123	-173.990198385055	-18.2719536151093	-34.8394078480317	
2446666666.66669	-13.4157200778881	77.6116628236478	-9.91347454406214	-163.678007572474	-46.972334593391	-177.25876890084	-18.3930071725008	-34.8558406922778	
2447000000.00002	-13.4394482297959	77.1302254052541	-9.90392178878406	-165.936219505312	-46.8593661954386	-178.938516428273	-18.5156636862013	-35.0347564813642	
2447333333.33336	-13.4758766009074	76.6739606357083	-9.89233078016963	-168.215361926455	-46.8227038172413	177.185553177482	-18.676509956854	-34.9738976408749	
2447666666.66669	-13.498713172241	76.1738643103868	-9.88785619831341	-170.491514548751	-46.8286776103845	178.553021790235	-18.8374115457722	-34.9113259416155	
2448000000.00002	-13.5173877405708	75.748207104929	-9.88192895064922	-172.74283523602	-46.8322367004077	173.977278225374	-18.982731846797	-34.9086105862846	
2448333333.33336	-13.5570758598952	75.2997966050738	-9.87535707036317	-175.005131248697	-46.722132441209	172.587813919571	-19.1485569635162	-34.919090427471	
2448666666.66669	-13.5731688082193	74.7373559226205	-9.86798468346055	-177.304845406715	-46.8186980592567	170.43244595075	-19.2971236797336	-34.7441121093077	
2449000000.00002	-13.616593271639	74.2390682196414	-9.85962755528596	-179.588950379026	-46.6382579526939	167.084812024287	-19.46680061889	-34.593791479742	
2449333333.33336	-13.650591545846	73.7442108501772	-9.85153033620651	178.124467150557	-46.7207475221189	164.85300613871	-19.6233678810923	-34.3539226390524	
2449666666.66669	-13.6742174557654	73.2559735420813	-9.84575866973207	175.903401881402	-47.0343436419739	162.741360118257	-19.833956753581	-34.1366209766072	
2450000000.00002	-13.6968521384853	72.7473711888941	-9.84009657790464	173.610173272853	-46.6960208714339	163.458827097599	-19.9784611502195	-33.7827725418689	
2450333333.33336	-13.736228741254	72.3038473408992	-9.83392742183922	171.308095786663	-46.3182641114706	159.051205870909	-20.2054805898539	-33.4309195566507	
2450666666.66669	-13.7627065750902	71.7047034022465	-9.82931657910504	169.036696511484	-46.7334584487742	155.594516505371	-20.3887222240709	-33.0165025249176	
2451000000.00002	-13.7898522445088	71.2457827575049	-9.82657933309905	166.760939622423	-46.5179951418652	154.040129874678	-20.5696649298334	-32.5132069879251	
2451333333.33336	-13.8153726257595	70.6683090009899	-9.81858590895913	164.472603865245	-46.7567003704864	153.572601597433	-20.7621651150003	-32.0421682183366	
2451666666.66669	-13.8394739984237	70.2726254896076	-9.81501007039358	162.208831218317	-46.5761902994502	149.598458029523	-20.9649049814407	-31.6901355204333	
2452000000.00002	-13.8572403406855	69.6399470887835	-9.81289367751832	159.976545873476	-46.8833478764408	147.764764484121	-21.1378253225786	-30.9620698426418	
2452333333.33336	-13.8816264079468	69.144561747974	-9.80891970088526	157.679376116594	-46.6791762488968	144.936537274344	-21.3553674544924	-30.3332117858202	
2452666666.66669	-13.9066362877768	68.6265972748858	-9.80933721771135	155.447045660627	-46.6642320377783	144.251051979218	-21.5360631518922	-29.6691510085339	
2453000000.00003	-13.9208894594543	68.1458507142573	-9.80300230222083	153.107273693081	-46.8109732783339	140.447830814922	-21.7797093467162	-28.9369577121787	
2453333333.33336	-13.9209599795611	67.5685926813798	-9.80651084762225	150.869515190745	-46.7810665918282	139.822882241776	-21.9795939636425	-28.2741170572087	
2453666666.66669	-13.9372161575878	67.0284760473411	-9.7966692334755	148.634360136041	-46.7299142418952	137.694600525929	-22.1462323688071	-27.2373833176616	
2454000000.00003	-13.9555508852312	66.5182491057369	-9.79510726813947	146.338495558768	-46.7438544362068	135.465290271877	-22.3679530669571	-26.3754108974034	
2454333333.33336	-13.955941847066	66.0012475392105	-9.79690137819368	144.101764884227	-46.6787694860517	132.471516163555	-22.5548631464774	-25.2301422148413	
2454666666.66669	-13.956949660138	65.4324236700686	-9.79369311031239	141.777474352205	-46.6914415312534	130.570509053609	-22.7823085389039	-24.3734527784158	
2455000000.00003	-13.9720475090301	64.8682130241285	-9.79476642192162	139.540311812445	-46.6467374195254	128.594738220221	-22.9560972707645	-23.4303198259935	
2455333333.33336	-13.9665317173863	64.4106468547582	-9.79238826382914	137.270867846839	-46.3389218007498	123.997637549143	-23.1524749212174	-22.3980188496532	
2455666666.66669	-13.9778754591752	63.8146289801773	-9.78741653244257	135.010413601286	-46.2858467222545	123.039432920861	-23.3335614856944	-21.176805337645	
2456000000.00003	-13.9732472389812	63.3217398688442	-9.79983163260753	132.728934353366	-46.6166091540226	119.718848836891	-23.4989391010271	-19.8158728389364	
2456333333.33336	-13.963157376857	62.7344674959545	-9.79918855903691	130.528133216972	-46.523906231811	118.247308409091	-23.6639192586815	-18.6393038937478	
2456666666.66669	-13.9648381794134	62.2575764654595	-9.78845921200863	128.26703068759	-46.5053923988732	115.957202604247	-23.8301615070819	-17.3307795613043	
2457000000.00003	-13.9480582527304	61.610985482586	-9.78870381524349	126.01504266179	-46.3724961576634	117.953449565252	-23.9932653931913	-16.1226628011914	
2457333333.33336	-13.9324686776475	61.1063323192746	-9.79304765568868	123.780454619426	-46.6228293911405	113.100636639377	-24.1679200590315	-14.7327978766244	
2457666666.66669	-13.9172836714081	60.5694676429362	-9.79404331369947	121.479611781927	-46.396459410522	109.292229653414	-24.2744184167671	-13.4128817450624	
2458000000.00003	-13.9087896015771	60.0716932922443	-9.79308765632753	119.256202243141	-46.5920882557637	107.476614141913	-24.3918381181309	-12.1130976885199	
2458333333.33336	-13.8739577418375	59.467559819007	-9.79868070142784	117.032549050794	-46.7900064492839	103.939162953402	-24.4944140311884	-10.8346152740049	
2458666666.66669	-13.856531210258	58.9390917258504	-9.79966752909368	114.821338571151	-46.6577990695261	103.325632163056	-24.5686343866615	-9.31634078654056	
2459000000.00003	-13.8251136120042	58.4192194685472	-9.79330731742479	112.55807616205	-46.4530315920747	101.534882802166	-24.7621519051739	-8.02581749139606	
2459333333.33336	-13.7971521689363	57.9079686989185	-9.79770144634258	110.318698313459	-46.5229327931238	98.3040923955811	-24.8254011614525	-6.73784943965777	
2459666666.6667	-13.7690154863214	57.3756258389691	-9.79564785512819	108.063585582871	-46.3109842322198	94.7423102912284	-24.9118383138025	-5.35451903354869	
2460000000.00003	-13.7446567296405	56.8309296719234	-9.79898293932597	105.79586560501	-46.6067789802966	93.2939180318817	-24.9494630631269	-4.153198054796	
2460333333.33336	-13.7054758412924	56.2798355998617	-9.8043272874903	103.569239247572	-46.3633188935541	90.1202232232479	-25.0236643466811	-2.90866661452085	
2460666666.6667	-13.6695841705815	55.7561881899737	-9.80233121544746	101.387665952774	-46.5309043090669	86.7713122392911	-25.0552373085605	-1.52877700326842	
2461000000.00003	-13.6346549124354	55.2124328372687	-9.80608340437044	99.0873527282771	-46.5220513950221	87.0611619888805	-25.1248524845781	-0.705686157999396	
2461333333.33336	-13.5922676309425	54.5978489026708	-9.80685028731761	96.8672812637203	-46.7559089806241	85.5679968516643	-25.1412092906037	0.429660538681894	
2461666666.6667	-13.564318785804	54.111507986785	-9.8051311835142	94.5761756608341	-46.6643184453552	82.7178218304288	-25.2377309415132	1.27575410359297	
2462000000.00003	-13.5199427808422	53.5713362547098	-9.80790344762699	92.3282832126099	-46.676593926525	78.5259744542699	-25.2595535864517	2.49093397361226	
2462333333.33336	-13.4671132365011	53.0235451608801	-9.8099228013569	90.0606869821686	-46.6464864040674	78.0700735059675	-25.2734218828465	3.25794569070744	
2462666666.6667	-13.4250362275146	52.4286284932703	-9.80916893799863	87.7918065101669	-46.4607989697328	76.8849950189656	-25.3217245214778	4.42925520428912	
2463000000.00003	-13.3733063277089	51.9378778261032	-9.80952545314933	85.5354086340507	-46.6846545495657	71.5944101854111	-25.3489679102364	4.91815474004701	
2463333333.33336	-13.327374410032	51.3343640472635	-9.80983593192609	83.2350146556697	-46.8180295643608	70.9760297176199	-25.376826995726	5.60831399658045	
2463666666.6667	-13.2807972659832	50.7992760298779	-9.8158287707195	80.9769960490378	-46.6625393102489	67.7889194628264	-25.3750620387976	6.35232618626512	
2464000000.00003	-13.2341153606149	50.3148852976677	-9.82226515740995	78.7107064978314	-46.9689019987003	66.7903684226727	-25.3771240463865	6.72471234325393	
2464333333.33336	-13.1849671793388	49.8224097064805	-9.82106745333986	76.4225217759589	-46.6727667344396	62.6309739958166	-25.427631149457	7.40152803072933	
2464666666.6667	-13.1333352808511	49.2611478753116	-9.8224580742215	74.1721496499317	-46.5623304527376	61.3738746734997	-25.4301520684328	7.7878658773767	
2465000000.00003	-13.0869539240946	48.7212311565055	-9.82983313355156	71.8968909964501	-46.5071897873953	59.1854601889014	-25.4384094246249	7.82792669588936	
2465333333.33336	-13.0318282457783	48.23342080936	-9.82996655186886	69.6178043062254	-46.8315063240952	57.9580192895573	-25.4255603011674	8.1852113892418	
2465666666.6667	-12.9844247970676	47.6997160131797	-9.83348247433232	67.3415986866806	-46.815185795402	54.4630024453488	-25.4199632570122	8.36536530068677	
2466000000.00003	-12.9316287272925	47.2055100965062	-9.83464269072714	65.0619536758551	-46.8801975513974	50.8032683398218	-25.4316405859808	8.68109052903435	
2466333333.33336	-12.8805945199021	46.7265448394403	-9.8389566756012	62.7585202391564	-46.2999697991373	48.3700911427403	-25.4392627800463	8.78058950652254	
2466666666.6667	-12.8314461037637	46.2128855708722	-9.83959153874767	60.5323504058944	-46.5492571919211	47.5108569875079	-25.4381226898062	8.52975375989837	
2467000000.00003	-12.7802004560558	45.8321252823955	-9.84546214821951	58.2144661456915	-46.3641141123183	45.7407433676302	-25.4629041247689	8.660821763568	
2467333333.33337	-12.7315873301502	45.3005367311499	-9.84832504455354	55.9463711244121	-46.5033472246754	42.3727269970328	-25.4605717669536	8.40999176827887	
2467666666.6667	-12.6809642927194	44.8278351925049	-9.84784742710936	53.6344114038183	-46.5461577202823	40.2757215326236	-25.4555749675203	8.23166748592863	
2468000000.00003	-12.6283014823034	44.3890841598854	-9.85098136022471	51.3562115641775	-46.3272696957046	36.8248127605553	-25.4741234563491	7.84730542581566	
2468333333.33337	-12.576101367303	43.9648234157938	-9.85649123564501	49.0634533502544	-46.4680647059588	36.1122254163447	-25.465777385656	7.46475626053427	
2468666666.6667	-12.5306791726259	43.5443858726311	-9.85651175334038	46.7910139576525	-46.4031175927177	33.095341295201	-25.5040285407736	6.96723926614197	
2469000000.00003	-12.4753346147494	43.1116342836949	-9.86314412634656	44.4841102798999	-46.5228608009736	30.1733010213438	-25.4509210856544	6.59193861302148	
2469333333.33337	-12.4339607353572	42.6562637131352	-9.86537181709478	42.2522057610603	-46.4526188277922	29.9819287982422	-25.4778214748277	5.79878819279099	
2469666666.6667	-12.3775667234692	42.2668092790119	-9.86366692349504	39.9617980636239	-46.3293997254236	27.6847024295447	-25.4645436930057	5.36857023163775	
2470000000.00003	-12.3303558308761	41.8662254609048	-9.87382457972038	37.6295399045383	-46.6268704646989	24.4370553134846	-25.5228698026396	4.79525287569873	
2470333333.33337	-12.2842560922282	41.4656709705793	-9.87287199223514	35.3023299847426	-46.6837511566954	21.8355812621241	-25.5032619762653	3.74945614138014	
2470666666.6667	-12.2403483590148	41.1156757017859	-9.88121808255357	32.991076215368	-46.5603033538724	20.4207303224762	-25.4893375837727	3.11145194545716	
2471000000.00003	-12.1886298876732	40.742697844441	-9.88583195573213	30.7084594339325	-46.5185241838152	16.0136079819884	-25.4526508557171	2.28204525399489	
2471333333.33337	-12.1453134951709	40.3223331932105	-9.89067637334309	28.3543892144967	-46.5834683076641	14.1880397566378	-25.4817209093287	1.46243765820741	
2471666666.6667	-12.0984720064226	40.0084053635081	-9.89509857397466	26.1324600977048	-46.6343134361401	9.93050614752162	-25.4554947309205	0.586104203392301	
2472000000.00003	-12.0497098962432	39.6449888848918	-9.89739589975603	23.7971335068534	-46.4652032713842	9.15370294385545	-25.452781549686	-0.422292721471562	
2472333333.33337	-11.998084120711	39.3712432723869	-9.89120388669627	21.4411872076022	-46.7158540918325	7.56679744671279	-25.4459003689819	-1.66685249300881	
2472666666.6667	-11.9444453512776	39.0041653042869	-9.90236039586465	19.136249198626	-46.4346774355116	4.96266504807721	-25.4098512944847	-2.60504504664175	
2473000000.00003	-11.8959243007514	38.7251622287282	-9.90471378512752	16.819241461887	-46.5250764216502	2.34241049027532	-25.4275125509558	-3.85604045750634	
2473333333.33337	-11.8424302366288	38.4264951823062	-9.90618977159638	14.4803391790797	-46.4677707906209	1.53650938823338	-25.3955385382429	-5.19209408901389	
2473666666.6667	-11.8013380954871	38.1090105546091	-9.90729660388402	12.2011589677906	-46.4038638696275	-2.25828720449094	-25.3654748456228	-6.49891277809543	
2474000000.00004	-11.7444117882511	37.8348031112537	-9.91559507874422	9.85834683482378	-46.4605314368357	-3.84791812380277	-25.3260190774904	-7.93723134695953	
2474333333.33337	-11.7006008559603	37.5377179765537	-9.9209836083815	7.55241064912379	-46.4768187962467	-5.22666925289926	-25.2780851560898	-8.98151302643546	
2474666666.6667	-11.6519487736175	37.2423001221299	-9.92960094452363	5.15929437171335	-46.5222489701023	-8.19423033004148	-25.2531319386981	-10.3896190262716	
2475000000.00004	-11.6107934351955	36.9670653756362	-9.92823257680087	2.83857529989682	-46.5213397376002	-9.5900727900795	-25.1973336496943	-12.0447880813985	
2475333333.33337	-11.5593612416077	36.7155540312437	-9.93343090856921	0.511763280926274	-46.5312854423367	-12.8817375824735	-25.1595358011817	-13.0804981939039	
2475666666.6667	-11.5200916111602	36.3516905317775	-9.9369412553521	-1.84012113433289	-46.472221543959	-15.2320505523036	-25.0732861762763	-14.7275745997683	
2476000000.00004	-11.4774355198121	36.0561309648525	-9.94183231241067	-4.17265422738287	-46.5481653175223	-17.6144686849471	-24.9855383184637	-16.0698864815487	
2476333333.33337	-11.4370070059187	35.8095400118892	-9.94412818657403	-6.50006511224613	-46.2662229949328	-19.4107048942097	-24.9419991462073	-17.6125523410953	
2476666666.6667	-11.3973783268185	35.5176108168738	-9.94308511200963	-8.83465656489803	-46.2586833632174	-23.0584528204063	-24.8504086037625	-18.9933561995911	
2477000000.00004	-11.3474891076052	35.2046172921322	-9.94929633807382	-11.1955184121611	-46.3349174468943	-24.2906508992197	-24.7606510790121	-20.3830346033139	
2477333333.33337	-11.3162696126928	34.9173692537021	-9.95105495870468	-13.5725971316743	-46.748647068683	-25.9875591709154	-24.6865153507102	-21.8019028576403	
2477666666.6667	-11.2751350415938	34.6068683324884	-9.95975596810212	-15.9002977070035	-46.2036032610516	-28.469794577253	-24.5881473383082	-23.3062517696689	
2478000000.00004	-11.236983938328	34.2671049782462	-9.96993784575534	-18.2051797706381	-46.5179801508498	-31.3617522473475	-24.4602885765516	-24.653693202466	
2478333333.33337	-11.1911725392568	33.9676785332456	-9.97110993341706	-20.5570731239574	-46.6722066156176	-33.7659082824355	-24.3537270113201	-26.1356956842708	
2478666666.6667	-11.1495127794326	33.6819740894024	-9.97646726335939	-22.895602449177	-46.4939479634001	-34.7720632194718	-24.2559406895371	-27.2908804844913	
2479000000.00004	-11.1165648950398	33.3654626423527	-9.98219405787106	-25.2490357905587	-46.3977158445737	-38.3638516229421	-24.1288208344281	-28.8394184354641	
2479333333.33337	-11.0826511323096	33.0657005366039	-9.98181952835006	-27.6005113244449	-46.4945787247912	-40.5129874123636	-24.0155697404585	-30.1497038480265	
2479666666.6667	-11.0501057747195	32.7509037677121	-9.98699020399327	-29.8657683641567	-46.4946949689238	-42.9497060479546	-23.914073711841	-31.457520538022	
2480000000.00004	-11.015600159	32.3951333250151	-9.99076114749841	-32.2015017611673	-46.4378397253999	-45.4780162300247	-23.7625026639908	-32.9355724101674	
2480333333.33337	-10.9867922392279	32.1058566142816	-9.99587112203335	-34.5477603846091	-46.318125900936	-48.4571173822294	-23.6488632854735	-34.0006095947638	
2480666666.66671	-10.960483782018	31.7628179802342	-10.0026973670333	-36.8737966709902	-46.2756878634111	-48.0704697896477	-23.5077869373992	-35.4851786218128	
2481000000.00004	-10.9329150881095	31.4278668068319	-10.0039487270875	-39.2104374153593	-46.6493658371478	-51.2576742192302	-23.3991645144434	-36.5670227847622	
2481333333.33337	-10.8979333154818	31.0068596052054	-10.010723041728	-41.4806452385818	-46.6409724199152	-53.9866403624907	-23.2663321003141	-37.6873736177151	
2481666666.66671	-10.8811686664837	30.665861910119	-10.0086910709584	-43.8428788803457	-46.6900838033537	-56.7204473019063	-23.133371992065	-38.8921461549725	
2482000000.00004	-10.8539984078692	30.3381802405663	-10.0099845239778	-46.143645785827	-46.4519314125238	-57.9514727843884	-22.9944929210439	-39.9710066070221	
2482333333.33337	-10.8346264586874	29.9314050540739	-10.01603491224	-48.4378636223195	-46.5166625239944	-61.8901787174957	-22.8641867630632	-41.1319352543402	
2482666666.66671	-10.8183872968267	29.5478366839397	-10.0211548272533	-50.7402299000071	-46.3212580988204	-63.2162966335384	-22.7354544843378	-42.1566908711406	
2483000000.00004	-10.8026255941644	29.158707266385	-10.0149019246561	-53.0552792361847	-46.3457544321675	-67.3342938414835	-22.5862384415504	-43.3325487634339	
2483333333.33337	-10.7811451355229	28.7965831399941	-10.0178004168223	-55.3751780262141	-46.6814078329931	-67.3539682422704	-22.4688817569325	-44.2557119293204	
2483666666.66671	-10.7681973274191	28.4158920973514	-10.0239876120226	-57.6475491501732	-46.2844442384873	-68.5755556067863	-22.3241253346011	-45.2858836788985	
2484000000.00004	-10.7621570921913	28.006892132236	-10.0211607618914	-59.9840037138262	-46.4076684657331	-71.5420799674819	-22.2087741557866	-46.1249782706187	
2484333333.33337	-10.7396238767534	27.5898570985078	-10.0280932061764	-62.2535412935455	-46.8402543695568	-74.1511489583434	-22.054797076069	-47.2284494314986	
2484666666.66671	-10.7252409872477	27.2809442709361	-10.026035020484	-64.5843815010568	-46.5170999108203	-76.6475017882125	-21.9449299665516	-47.9958072141146	
2485000000.00004	-10.7143840964452	26.8581633792552	-10.0212615935854	-66.8344667079853	-46.6259554018851	-78.3581467346398	-21.8253884208578	-48.9361446403192	
2485333333.33337	-10.7107027478725	26.4320955424297	-10.0202534843551	-69.0930296091959	-46.6441020759733	-80.4227677417589	-21.6988583701185	-49.7703374241724	
2485666666.66671	-10.7062819166875	26.0384670456472	-10.0154411848132	-71.4590880280526	-46.6868412189141	-84.314239314541	-21.5824728365291	-50.5823537731992	
2486000000.00004	-10.7027235981307	25.6632858327649	-10.0153340917785	-73.7297983815814	-46.6686596002446	-84.9337152379529	-21.4765548237426	-51.4202482886568	
2486333333.33337	-10.6992752560573	25.275917627902	-10.0115513273976	-75.9959048359546	-46.8220480121738	-87.448338388758	-21.3524798594262	-52.1552814410283	
2486666666.66671	-10.6985818779823	24.8094560652047	-10.0097068404763	-78.3006480441024	-46.6728508076782	-89.9862878143105	-21.2451081751281	-52.8749591741197	
2487000000.00004	-10.6939074569024	24.3724719862781	-10.010021607963	-80.5411092240922	-46.6189126731976	-92.2465332050749	-21.1546920033671	-53.7046612106892	
2487333333.33337	-10.7009302032851	23.9508985103023	-10.0079140144653	-82.8468520530883	-46.4771568990647	-93.7652578539874	-21.0365854498285	-54.4319678425289	
2487666666.66671	-10.7083843837019	23.5424873629548	-9.99949913880365	-85.1291898183407	-46.4285998260251	-99.5028295804257	-20.9640123930521	-55.1370154226192	
2488000000.00004	-10.7168475049192	23.0523093052505	-9.99715130562175	-87.4188701980526	-46.5776602102632	-99.9733384669107	-20.8801925815854	-55.7064370594736	
2488333333.33338	-10.7228873664112	22.6062258764305	-9.99574245730043	-89.6980574403182	-46.4421313118886	-102.155045986185	-20.804760176927	-56.47017853302	
2488666666.66671	-10.7220620991829	22.1569590204761	-9.98739064990869	-91.997405186561	-46.371205632314	-105.473785759918	-20.7189570616042	-57.1067112082741	
2489000000.00004	-10.7395644655669	21.6836820965864	-9.98344193556975	-94.2820837632312	-46.5514524519225	-105.36781736965	-20.6507807216942	-57.7151388805961	
2489333333.33338	-10.7430331065996	21.1512867462645	-9.98072414176711	-96.5555248288391	-46.750100658941	-105.903439755591	-20.5905251695919	-58.4270809593572	
2489666666.66671	-10.762902540758	20.6642020475644	-9.96815037212636	-98.8632049530911	-46.530955922563	-110.532331008875	-20.4982389252403	-58.967034625929	
2490000000.00004	-10.7746586339561	20.1603673705942	-9.96964634208474	-101.133695545103	-46.4355044675652	-112.053360082886	-20.4464135988375	-59.5850870578071	
2490333333.33338	-10.8068546071917	19.7736790716059	-9.96648912206971	-103.468371657298	-46.8849744696445	-113.872223648775	-20.4089920667214	-60.1774212085907	
2490666666.66671	-10.8183064611143	19.1370615426012	-9.96148338369401	-105.739541570991	-46.6968328476084	-115.071419775112	-20.3589832253026	-60.6891149770789	
2491000000.00004	-10.8419186368593	18.6958654648386	-9.95378352555646	-108.008231079922	-46.7456132173072	-120.473700830994	-20.319133266632	-61.3650272315759	
2491333333.33338	-10.8706332085024	18.1249851277106	-9.95075679810286	-110.309118037665	-46.7342487273046	-122.668838615189	-20.3094133840209	-61.8635693951257	
2491666666.66671	-10.8997518041844	17.6752827821338	-9.94135178703074	-112.576468112718	-46.5942020008688	-124.66361270324	-20.2592240296908	-62.2564529345831	
2492000000.00004	-10.9262626946826	17.0966153839312	-9.93834163680252	-114.863035054422	-46.673779652486	-126.398899647265	-20.2296822596578	-62.8406179651425	
2492333333.33338	-10.9606149648942	16.6076574040734	-9.93524647918816	-117.14695690186	-46.58753414988	-128.334693943325	-20.2379075188443	-63.1795894199646	
2492666666.66671	-10.9959556565613	16.0248088680074	-9.92864761253915	-119.448931491165	-46.623526469776	-130.701356468995	-20.2320990196096	-63.6701046425883	
2493000000.00004	-11.0283348473987	15.5200924370372	-9.92219513398694	-121.734505397386	-46.9066405082899	-133.073954828661	-20.2303854927373	-64.1237234413423	
2493333333.33338	-11.0526677443696	14.9655853260104	-9.91306192018554	-124.004078037141	-46.6124535189418	-135.972836813088	-20.2373071332348	-64.413019149885	
2493666666.66671	-11.091985456928	14.3726724424068	-9.91682569097849	-126.277127543725	-46.653713492847	-137.016559919642	-20.2489177559534	-64.9542037892639	
2494000000.00004	-11.138035144128	13.8036809038858	-9.90760398461151	-128.55866284721	-46.3646608538613	-140.511383451671	-20.2693993773718	-65.3622033945362	
2494333333.33338	-11.1654038322202	13.2370487620697	-9.90761493431418	-130.910906588995	-46.6786559067628	-141.333646794542	-20.2976272259871	-65.7526052316474	
2494666666.66671	-11.1948913277435	12.6736488391962	-9.89772610056925	-133.197769530976	-46.5323507061447	-144.281609565966	-20.3271279280826	-65.9796017298847	
2495000000.00005	-11.2440758764653	12.0638977485866	-9.89616031437137	-135.492092787004	-46.4720777357678	-146.667269067046	-20.3726002343719	-66.3557275152634	
2495333333.33338	-11.2871078091281	11.5653538086841	-9.89338696400968	-137.737240067831	-46.6060300680187	-150.373607258304	-20.421964234708	-66.6912268755434	
2495666666.66671	-11.3085944698696	10.9594069549833	-9.89121902695304	-140.054466707968	-46.6301651360432	-150.597946762375	-20.5003934120882	-66.9975019461928	
2496000000.00005	-11.3581847848095	10.35443699057	-9.8840010562323	-142.365075119953	-46.8886165918485	-154.212688450854	-20.5643281995619	-67.3603990146014	
2496333333.33338	-11.3928678275225	9.77719361134699	-9.8857192409898	-144.658548480407	-46.6241693664863	-156.795936560979	-20.6481419603585	-67.4337545787273	
2496666666.66671	-11.4397033749385	9.14891728445384	-9.88315859083902	-146.906599423554	-46.8256700883996	-159.021245208492	-20.7249026469146	-67.8677679015252	
2497000000.00005	-11.4705254175811	8.59442415868715	-9.88096095582957	-149.239160662093	-46.7238983203798	-160.952643630978	-20.823424621207	-68.1450112614427	
2497333333.33338	-11.5166068540387	7.97412593367411	-9.8827720557004	-151.494775524862	-46.5134510830173	-163.862239001818	-20.9396046383222	-68.1737825103328	
2497666666.66671	-11.5474136478968	7.356006159702	-9.87710392043318	-153.80856615462	-46.8884428611634	-165.850226867167	-21.0414724694684	-68.1671755355282	
2498000000.00005	-11.5948864037815	6.74898718614509	-9.88053211742463	-156.103032220211	-46.8757007286582	-167.41262962247	-21.1737832868191	-68.3777699447526	
2498333333.33338	-11.6299737098136	6.12284933953342	-9.88366384195981	-158.423447371879	-46.7133396939049	-168.644889950966	-21.2814087866005	-68.4351187655825	
2498666666.66671	-11.679738880479	5.52595457943078	-9.88699913744053	-160.740428922356	-46.6653689203087	-173.016577072248	-21.4113850638268	-68.5278824415599	
2499000000.00005	-11.6979024576164	4.9581229696462	-9.88614878227811	-162.959414745829	-46.737438387696	-175.030209426946	-21.5651744966821	-68.6554784680394	
2499333333.33338	-11.7443821825319	4.30037670757969	-9.89368258339532	-165.288418177616	-46.7092837396944	-177.836339825199	-21.7523543893597	-68.4423296404567	
2499666666.66671	-11.7867846443615	3.74565425826117	-9.88752286363885	-167.584622574607	-46.4962401308815	179.849421570094	-21.9309233961482	-68.5313477687306	
2500000000.00005	-11.818402730861	3.08353333755379	-9.89428545685559	-169.86517830394	-46.5214253825931	178.356272953534	-22.0737960397252	-68.5853503407964	
2500333333.33338	-11.8536069767449	2.49159615461792	-9.89927176930263	-172.158456946599	-46.8228320025986	174.625501795908	-22.2680342496565	-68.1628681562106	
2500666666.66671	-11.8928904656989	1.84435592466979	-9.90661429372681	-174.394239608707	-46.5344420278951	174.549189766248	-22.4703708858179	-67.9302620307882	
2501000000.00005	-11.9263780664198	1.27369422293745	-9.90754009914069	-176.700840617542	-46.7633007855163	170.623680367975	-22.6937716871989	-67.7408089488437	
2501333333.33338	-11.952096723317	0.579261640784053	-9.9118128936657	-179.010130507025	-47.0398416643983	167.215291212476	-22.9309574534043	-67.2549397087747	
2501666666.66672	-11.9951476083717	0.00801478048280512	-9.92053813880434	178.694712242544	-46.2571312036041	166.176497070205	-23.1609386541765	-66.7592196966969	
2502000000.00005	-12.0279501393545	-0.692348412625946	-9.92403749574902	176.439427225722	-46.5360491381392	164.324657085086	-23.408579141845	-66.3616056944206	
2502333333.33338	-12.0699124180845	-1.31064969085481	-9.93144774767402	174.138368189506	-46.3555374987321	162.414732286466	-23.6450264789735	-65.5200630402102	
2502666666.66672	-12.1001674550009	-2.07567931326968	-9.93565414785886	171.89263992235	-46.7132389943776	160.511335737573	-23.9119235521109	-64.7724472269991	
2503000000.00005	-12.1205418751201	-2.74943765927586	-9.94334407275683	169.594437611116	-46.4941564663983	157.184505212827	-24.1477546825556	-63.9564397497246	
2503333333.33338	-12.1518825278801	-3.45350773176009	-9.94997414450982	167.296826760304	-46.5152851135965	155.881410583612	-24.4640892202567	-62.8339057886072	
2503666666.66672	-12.1822164788199	-4.21658307944896	-9.95861279240396	165.039676350477	-46.8970562376794	153.63991670056	-24.7205229672521	-61.5617546730249	
2504000000.00005	-12.2095432747111	-4.87175442716424	-9.96592771796403	162.776479447591	-46.4587099585834	150.301817153627	-25.0631581925534	-60.2021214398711	
2504333333.33338	-12.2351743890091	-5.5274442201738	-9.9769086182601	160.50388297449	-46.6477620680113	147.152071833375	-25.3749902733068	-58.6195796694853	
2504666666.66672	-12.257192045031	-6.36246691597261	-9.98385025502894	158.229526777383	-46.5649155302821	147.202832827674	-25.667139780776	-56.8109330399069	
2505000000.00005	-12.2856940370283	-7.03309090653166	-9.99402570160896	155.969333591294	-46.3582869133855	143.119447774969	-25.9499167035386	-55.0029949408415	
2505333333.33338	-12.2976354464403	-7.76916602743152	-9.9986999051811	153.677943684886	-46.5835525012507	141.852658635462	-26.2569362752604	-52.8521121383445	
2505666666.66672	-12.322736415693	-8.50187959176857	-10.0149680689066	151.448547388881	-46.7983314534349	139.005971180243	-26.5702900660066	-50.4094779986337	
2506000000.00005	-12.3424604478793	-9.21375862506751	-10.0243186608415	149.191451470153	-46.5111894276649	138.130441425222	-26.8266979927172	-48.0101917067368	
2506333333.33338	-12.3552065706107	-9.98682111690037	-10.0297741455922	146.90370426931	-46.7180137013634	134.65403056448	-27.134021299758	-45.1730632779992	
2506666666.66672	-12.3754147502803	-10.6790274410608	-10.0458147382703	144.647639391832	-46.7806766597664	133.357204232729	-27.3381867402342	-41.9304196497187	
2507000000.00005	-12.3867114880454	-11.4820173966194	-10.0522112687154	142.426677440524	-46.610876544314	130.005868082026	-27.5165046607883	-39.1423783244016	
2507333333.33338	-12.4036828584487	-12.2274862414147	-10.0682777907409	140.186579985239	-46.8593581312989	127.913555992648	-27.7133425066627	-35.778117959538	
2507666666.66672	-12.4179726728754	-12.9868629537398	-10.0799991339834	137.936132528689	-46.7290751234955	126.113955198353	-27.8264767272251	-32.1734103518899	
2508000000.00005	-12.4324873672673	-13.7949792986155	-10.0939512425099	135.632869254111	-46.4557946413771	124.860091799879	-27.9303956499979	-28.4791594721998	
2508333333.33338	-12.4535979442481	-14.5526631072277	-10.0954711268919	133.395075915549	-46.7102803089348	119.865331285409	-27.9416916940871	-24.727903022778	
2508666666.66672	-12.4564376767108	-15.3648300101902	-10.1146167970234	131.14050581825	-46.7043149476825	119.093487208108	-27.9301240077643	-21.2944062305976	
2509000000.00005	-12.4596472898661	-16.1946726905478	-10.126234954355	128.932960847906	-46.6377385911523	117.130858407222	-27.9094380098982	-17.6377403345604	
2509333333.33339	-12.4727731093569	-16.9710234622952	-10.1353375844063	126.68030313265	-46.3386568551644	114.275200313177	-27.7503471037789	-13.927414292293	
2509666666.66672	-12.4842490905153	-17.7804316127869	-10.1530077039545	124.406191410624	-46.5771675724234	112.078166646178	-27.6492302383616	-10.7285016811474	
2510000000.00005	-12.4874894106755	-18.5515583476567	-10.1621207296783	122.166296240604	-46.4518123461529	109.040348615378	-27.4282965287544	-7.81316445649032	
2510333333.33339	-12.4914368891564	-19.3562674342394	-10.1784391541116	119.95765008092	-46.6579810480421	106.898758412889	-27.2245959867621	-4.44187995152289	
2510666666.66672	-12.498252681213	-20.0974849403694	-10.1890307214817	117.696538539503	-46.5340642735944	106.083973897123	-26.9179298959003	-1.6662095742656	
2511000000.00005	-12.4980238968537	-20.9034225561002	-10.2069641444689	115.443919299739	-46.8571555775735	103.215535578538	-26.7300253222292	0.515062196117769	
2511333333.33339	-12.5039624929642	-21.6534339468345	-10.2150755081843	113.17210719417	-46.6642047160732	101.12019920846	-26.4732430978725	2.62790458102775	
2511666666.66672	-12.5028691629267	-22.4546649638808	-10.2322891866354	110.977499575844	-46.6966302766897	98.6277441056822	-26.2086948508035	4.91276721088812	
2512000000.00005	-12.5062223497972	-23.1885895878691	-10.24200889619	108.744960902661	-46.9579436274676	96.0104761188358	-25.9100725877435	6.58936499770588	
2512333333.33339	-12.5111007167745	-23.9089973919808	-10.2541859941867	106.511049423488	-46.3533599907175	93.2070916525428	-25.643626584378	8.08925785093026	
2512666666.66672	-12.5067908888965	-24.6492037233948	-10.2686647490023	104.274010295397	-46.5547937895122	90.379901671052	-25.3581997493796	9.55338052443966	
2513000000.00005	-12.5083711153984	-25.4099604415897	-10.2827408102033	102.020295330449	-46.7012255743956	87.6233287086913	-25.1195628118944	10.7364461323628	
2513333333.33339	-12.5110949326782	-26.1112316944443	-10.2924255802502	99.8490652098535	-46.758567159335	86.4652070847642	-24.820152744427	11.7395662512441	
2513666666.66672	-12.5038343754874	-26.8151159120833	-10.3013128766184	97.5661757002432	-46.8772858878538	85.2823400763583	-24.5818779400436	12.7879210918033	
2514000000.00005	-12.5065865637745	-27.5735900115476	-10.3199748904886	95.3138955256186	-46.6431323857349	82.8686931722599	-24.3406092187587	13.4660269851967	
2514333333.33339	-12.505441799615	-28.3386623154552	-10.3256483927879	93.0305451040264	-46.8925761872855	78.4732585496058	-24.1142373976575	14.0685374470203	
2514666666.66672	-12.5036138488801	-29.0042175523268	-10.3389690672787	90.7988124437493	-46.7608531847734	77.0292213803245	-23.8566255503171	14.6114223063876	
2515000000.00005	-12.4982878652134	-29.7723782561768	-10.3546292102964	88.5519561720043	-46.9723941079289	76.0154248752808	-23.649865091749	15.1871460703816	
2515333333.33339	-12.50360938141	-30.4611236136938	-10.3658285469898	86.2928854492778	-46.5271701450473	73.4683510331705	-23.4359333194674	15.2608042746485	
2515666666.66672	-12.5008326223906	-31.1377667121007	-10.3775259277477	84.0407710041496	-46.9065132068531	70.2506158707199	-23.2590186860252	15.7836693629535	
2516000000.00006	-12.4969603114681	-31.8116351730656	-10.3908799299757	81.7726431721664	-46.8198264839326	68.0131322046711	-23.0928682558121	15.976837325263	
2516333333.33339	-12.4936316071674	-32.4597888919662	-10.4075136835981	79.5516015830474	-47.0419919163763	68.8352182391568	-22.8902345294071	15.9398485428086	
2516666666.66672	-12.4997255501456	-33.0994342962785	-10.4089340912988	77.2868070115147	-46.6565935343821	64.1619744701869	-22.7637000493915	15.869859329425	
2517000000.00006	-12.4984721156512	-33.768805552527	-10.4248775042539	75.0044316096072	-46.9003803091682	63.5347665231424	-22.6129933908236	15.697352460132	
2517333333.33339	-12.4965120952511	-34.3909815219121	-10.4379723856074	72.7886954881737	-46.9208908208725	60.6612601559213	-22.438283992694	15.7037527914848	
2517666666.66672	-12.5049109921838	-34.9595437983808	-10.4428382000898	70.5481816499813	-46.7149450858659	57.3269494827515	-22.3138584910964	15.2730564768733	
2518000000.00006	-12.5079702674522	-35.6037353034406	-10.4587798592145	68.2576572764506	-47.1487768131042	55.2210966572505	-22.2104937999102	14.9765499219495	
2518333333.33339	-12.5077070036529	-36.1606691037904	-10.4772453966105	66.029570976923	-46.7680505991004	53.9709930277975	-22.1079662741966	14.6597182357709	
2518666666.66672	-12.5168547075668	-36.6807807612992	-10.481052054697	63.7765278411182	-46.7625463870457	50.1374542556809	-21.9927552647127	14.0974877855226	
2519000000.00006	-12.5173479329562	-37.19309200345	-10.4914276046273	61.4812461197732	-46.8071109364707	47.2660769048972	-21.9478824955432	13.8561716451383	
2519333333.33339	-12.524253660823	-37.738994090856	-10.5016713183855	59.2357206794504	-47.0871462677152	44.0958243094746	-21.8555468482702	13.2957154107975	
2519666666.66672	-12.5279988734254	-38.237409965865	-10.5143487506663	56.9867887170056	-46.9156588689079	44.4851551095463	-21.7818567975145	12.852397758678	
2520000000.00006	-12.5386588638025	-38.726788498556	-10.5297004431357	54.7317293882346	-47.1687694394739	41.3259610224295	-21.7133612762039	12.146637059767	
2520333333.33339	-12.5528123754961	-39.1996871159552	-10.539942435077	52.4788033952594	-46.8177844273127	40.0898096251395	-21.6843917629176	11.57339831084	
2520666666.66672	-12.5541649291843	-39.6871458344501	-10.5459407342984	50.1818501992636	-47.1018093572707	39.2029349074035	-21.6684485540808	10.9193005840744	
2521000000.00006	-12.5675973120234	-40.0921756387617	-10.5544172603083	47.9716591337461	-47.2059179515971	35.1452957159061	-21.6011649124742	10.1827529978581	
2521333333.33339	-12.5693973263987	-40.5638645288362	-10.5704678434769	45.7057574157216	-47.0738785641314	33.4331779186196	-21.5991688225425	9.5509847418959	
2521666666.66672	-12.5924119456012	-40.9800119358268	-10.5772853907255	43.4403682542388	-46.8686198084319	30.3923593290968	-21.5745139656152	8.53258390234817	
2522000000.00006	-12.592959109523	-41.3916821430852	-10.5901594448551	41.1907160945477	-46.9200173390622	28.3610007358657	-21.584659914228	7.74198763235172	
2522333333.33339	-12.6051108507642	-41.8421574016616	-10.5956665647229	38.9438619901699	-46.9690826522067	28.61198704629	-21.5748899610909	6.65533065717944	
2522666666.66673	-12.6175322920687	-42.1859511257642	-10.6118784800391	36.6667615152314	-47.0057732353458	24.3582831523616	-21.5983741536436	5.93501226529214	
2523000000.00006	-12.6360212597097	-42.6032316943194	-10.6226171929532	34.4367343388227	-46.7761160957894	22.0874582676218	-21.6257383790697	4.95181806594889	
2523333333.33339	-12.6397966727483	-42.8967672253407	-10.6314896447058	32.168282889347	-46.9822549911609	19.4098069629514	-21.6501585781844	3.94641469943158	
2523666666.66673	-12.6557392601931	-43.2031642261573	-10.6376130435442	29.9117495674718	-47.3875127863958	17.2828188281097	-21.6676057037397	2.72123961383878	
2524000000.00006	-12.6756361431147	-43.543855391357	-10.647498745811	27.6571175363505	-47.2080372863967	15.8236609620832	-21.7462666504438	1.66074946038804	
2524333333.33339	-12.6911074034183	-43.8799588416463	-10.6634314456678	25.4520855298466	-47.1115554645573	12.0592732075972	-21.7805262304952	0.55767791474452	
2524666666.66673	-12.7110819758198	-44.1996767048355	-10.6692301246195	23.1918953225869	-47.2339209964706	11.5622928917713	-21.8293798662672	-0.754893145338783	
2525000000.00006	-12.7254017495214	-44.4478522962849	-10.6734744408599	20.9407759378444	-47.2650868468293	8.6072576242458	-21.8719813808367	-1.96356567082986	
2525333333.33339	-12.7463554181942	-44.7647573433657	-10.6868852864854	18.7325623918002	-47.0460237620666	6.53094257748574	-21.9892923268852	-3.28994463532846	
2525666666.66673	-12.7649455711243	-45.0230620937817	-10.6899172061058	16.512529633967	-47.0385760898773	5.68078254890341	-22.0378696649995	-4.61093315353572	
2526000000.00006	-12.7890883748744	-45.3293337135814	-10.6946589885034	14.3169064895161	-47.3201292725724	1.74795362370771	-22.1462628123012	-6.12074780720448	
2526333333.33339	-12.7968986958435	-45.4732879844258	-10.7006742607564	12.0775149203004	-47.3708818181355	-1.61118556344109	-22.2114413298704	-7.44312315039371	
2526666666.66673	-12.8361765946733	-45.7207167378466	-10.7115172618621	9.84953002168008	-47.5147907656676	-3.27974408387563	-22.2819831214881	-8.89331319340819	
2527000000.00006	-12.8525701313204	-45.914680404024	-10.7136481955469	7.64195182903756	-47.2226430195409	-6.30496688139511	-22.4001709013103	-10.4413424961862	
2527333333.33339	-12.8781032974099	-46.2033301955244	-10.7136530129081	5.4229155365567	-47.1470420665745	-8.07497913922249	-22.5062935224674	-12.1505795967565	
2527666666.66673	-12.9155096251216	-46.3937660679517	-10.7181077896893	3.20333241682662	-47.1704810936501	-8.4650529341881	-22.6322836260334	-13.815030254427	
2528000000.00006	-12.9318136198241	-46.5919505473938	-10.7163501686805	0.96638483287143	-47.1386714178698	-12.4004632220791	-22.725396307941	-15.4880071904047	
2528333333.33339	-12.9564301228436	-46.7380755977314	-10.719120293987	-1.18863104776432	-47.0406457446644	-13.5093597020656	-22.8172166355166	-17.2443385039656	
2528666666.66673	-12.9800441468928	-47.0218297616516	-10.7119525536129	-3.4002816653382	-47.0369283170296	-15.5648706520448	-22.9310470091499	-19.2674836203971	
2529000000.00006	-13.0155228799572	-47.1645412966652	-10.725751783809	-5.58658595075927	-47.1596481277203	-16.2221529665857	-23.023470565067	-20.9779275212844	
2529333333.3334	-13.0348289334745	-47.3551870069254	-10.7110401836182	-7.79053369711401	-47.0464095430294	-19.9269810083493	-23.1507306581627	-22.9443052818612	
2529666666.66673	-13.058697986777	-47.635769778783	-10.7122345064232	-9.93343315618608	-47.0363210064392	-23.7529424362795	-23.2659215541315	-24.9007335237431	
2530000000.00006	-13.0907987395988	-47.7766820649694	-10.7086401305066	-12.141848539305	-47.2502637694059	-23.6849433974657	-23.3745892537865	-27.0064449418865	
2530333333.3334	-13.1459805564648	-48.0201091185044	-10.7040962780045	-14.3893899370358	-46.9409285723819	-26.7840521107737	-23.4819615632887	-29.1086641549572	
2530666666.66673	-13.1619764203633	-48.2028070747864	-10.6987655308332	-16.5740428528426	-46.9648779329945	-29.7832274662139	-23.5974880525183	-31.0453714720533	
2531000000.00006	-13.2025996344355	-48.4203542446069	-10.6897501282603	-18.7296749815561	-47.2060929628	-30.2474408091779	-23.6732399583572	-33.3274678177852	
2531333333.3334	-13.2453493857244	-48.7014230599425	-10.6858592997376	-20.9950572741986	-47.1864080509357	-33.3726117839084	-23.7916786885759	-35.5830529526546	
2531666666.66673	-13.2906917557264	-48.7547925142897	-10.6790824322073	-23.1338765835582	-47.0412945846855	-34.9726359736047	-23.9200442295459	-37.8582732685989	
2532000000.00006	-13.3256124795872	-49.1178996296495	-10.6699448179982	-25.3324607524494	-47.4751660470702	-38.2458679584572	-23.9782553406334	-40.2409127863971	
2532333333.3334	-13.37726003553	-49.2289935475422	-10.6641568306163	-27.5358731989849	-47.1566435988273	-39.3162634560794	-24.0880323553577	-42.4353331626204	
2532666666.66673	-13.4166452221211	-49.4411423332981	-10.6528293603613	-29.747322181176	-47.3956175753614	-42.7967268489581	-24.170273325945	-45.0853889854812	
2533000000.00006	-13.457189138778	-49.6306781597804	-10.6380462341474	-31.9917316666799	-47.1133217575048	-44.7809172520158	-24.2268063364294	-47.5122731172413	
2533333333.3334	-13.5071777353101	-49.8409836030115	-10.6322487569353	-34.1955267782133	-47.0512839963686	-46.8901268404046	-24.2803804636543	-49.9069675105666	
2533666666.66673	-13.5615857924054	-50.0255154532387	-10.618772866263	-36.4413009332574	-46.8274780444814	-49.4519529730554	-24.3569929148585	-52.4711103570122	
2534000000.00006	-13.6171802588983	-50.4123848602571	-10.6087974816911	-38.690163034671	-46.9521215306061	-51.3396284245742	-24.4127273131803	-54.7286005062123	
2534333333.3334	-13.6483118839407	-50.4896542686954	-10.5967005339397	-40.8635448941723	-47.1682699532395	-53.6448528440126	-24.4514548835087	-57.2814856155699	
2534666666.66673	-13.7091498012606	-50.7263475386091	-10.5875387927567	-43.0617048647838	-47.1927047344689	-56.5065790211485	-24.5124357981348	-59.6027498883125	
2535000000.00006	-13.7658034269575	-50.9178260947176	-10.5739959140287	-45.3182705725231	-47.1970561656838	-58.1431668483924	-24.506990085392	-61.9875869150755	
2535333333.3334	-13.810889041611	-51.2114617143629	-10.5591043124698	-47.5914716549949	-47.070871651275	-59.7661898184675	-24.5523400467709	-64.412209767951	
2535666666.66673	-13.8639751130785	-51.3546429681665	-10.5496422457087	-49.8120145819063	-46.9906017092134	-62.567447693077	-24.5738876892135	-66.7705273531656	
2536000000.00006	-13.9333486210537	-51.6449745483249	-10.538539467803	-52.0511182689199	-46.9563610926645	-63.0306490014357	-24.5658633315288	-69.1066077676426	
2536333333.3334	-13.9814319162934	-51.8952590061384	-10.5261148933935	-54.2862305170239	-47.039019462189	-67.5419270004248	-24.5541482247912	-71.6090730631457	
2536666666.66673	-14.0280044724344	-52.0873349990855	-10.5152255296637	-56.5460191093871	-46.7916152809236	-68.4498882092092	-24.554419598137	-73.7612900574112	
2537000000.00007	-14.0788079955988	-52.3557481794694	-10.5025748238334	-58.814092295255	-46.8605091579186	-71.0901997902749	-24.5807067604778	-75.9370627151475	
2537333333.3334	-14.1411845947068	-52.536003293647	-10.4902320464708	-61.0636063630359	-46.9280132105291	-74.305150771728	-24.5623645279993	-77.9520577705818	
2537666666.66673	-14.2041001032947	-52.7144831651803	-10.4794779109848	-63.3624656510001	-47.1804265820651	-76.8700752686411	-24.5136354063824	-80.0241442131824	
2538000000.00007	-14.2811639792356	-52.8724968888807	-10.4745536927262	-65.6340790586758	-47.0897460191578	-76.5446586763619	-24.5161923349709	-82.1569733795205	
2538333333.3334	-14.3489726662142	-53.2263324815095	-10.4699809658522	-67.9002101825557	-46.963209812473	-78.9334003790477	-24.5333356890919	-83.9004728658371	
2538666666.66673	-14.4046354266063	-53.391570487788	-10.4538545740894	-70.1822342377205	-46.9606818773572	-81.4769516200178	-24.5047283965312	-85.676262026035	
2539000000.00007	-14.4681297667312	-53.6691940337142	-10.4393297070545	-72.4114390809097	-47.1293667076934	-83.5574674929322	-24.4722334030799	-87.6005994948182	
2539333333.3334	-14.5412743700774	-53.9464251049559	-10.4439029282863	-74.6873240005151	-46.8480008723597	-87.1004901578963	-24.4800344480065	-89.4441630253125	
2539666666.66673	-14.6328765124774	-54.1039241919663	-10.4234110350898	-76.9909221661781	-46.8652300639802	-87.9843791566698	-24.4629175506412	-90.8212647926034	
2540000000.00007	-14.7001066412944	-54.3870196240011	-10.4254025736066	-79.2900332429302	-47.0974146280059	-92.3159771377661	-24.4543535959937	-92.6794582947564	
2540333333.3334	-14.7742679482294	-54.6010735947303	-10.4155075069088	-81.5662540378674	-46.5942747442604	-91.9248245848982	-24.4301984034209	-93.9846424713168	
2540666666.66673	-14.8642358514974	-54.8487298287153	-10.4132498901558	-83.8580075348076	-47.0449330900299	-96.4824134600289	-24.4527706397294	-95.4721910451394	
2541000000.00007	-14.9327388898949	-55.1703869088969	-10.3942989770274	-86.1394216610678	-46.6914597470605	-96.752780778862	-24.4177735393784	-96.7086729678486	
2541333333.3334	-15.0105125950422	-55.4630119922912	-10.3973034107621	-88.4232837779503	-46.8836168638155	-99.6217407957262	-24.4560253734094	-98.1464114067608	
2541666666.66673	-15.097871532903	-55.799822594736	-10.3866824015685	-90.7006314583095	-47.1710291856689	-103.280116890001	-24.4672178325901	-99.2731853159444	
2542000000.00007	-15.1837165709318	-56.1269445486669	-10.3828327451161	-92.9720784934657	-46.9558780398664	-104.349877164074	-24.4793329039752	-100.472917991589	
2542333333.3334	-15.2652124252407	-56.3319429634044	-10.3754250007033	-95.3069703006436	-46.731483009793	-107.733360030322	-24.4774460014689	-101.417754440518	
2542666666.66673	-15.3239476758241	-56.7143036614726	-10.3819829095079	-97.5724233490763	-47.1056398623499	-109.473699198175	-24.4925362523066	-102.391913304974	
2543000000.00007	-15.4225593427609	-57.027852314706	-10.3755779664898	-99.8722268959955	-46.9146172646583	-112.375513526468	-24.5325942994273	-103.22305847567	
2543333333.3334	-15.486338225897	-57.4940211260484	-10.3750569732032	-102.162166838875	-46.8853396447481	-112.490843224506	-24.5738892786809	-104.152595540267	
2543666666.66674	-15.5722930864441	-57.8519151981047	-10.3716010620824	-104.443466414574	-46.6298271563261	-115.351106533238	-24.576865790428	-104.882548840658	
2544000000.00007	-15.6675637572295	-58.1197477745064	-10.3633764773631	-106.733975349212	-46.7384184888284	-117.695348663621	-24.6538230768998	-105.502859067179	
2544333333.3334	-15.7774013713982	-58.3616933686909	-10.3606214940604	-109.000389471766	-46.8230694423708	-118.000570268917	-24.6825021785488	-106.191314580672	
2544666666.66674	-15.8691908827124	-58.7452486332412	-10.3601077643044	-111.314057999375	-46.5375672596851	-123.38819659357	-24.7915315802546	-106.719228356267	
2545000000.00007	-15.9632672310168	-59.1394538741488	-10.3647712594546	-113.590497379926	-46.6597444023371	-124.060710388988	-24.7919760104605	-107.154851386276	
2545333333.3334	-16.0487479966802	-59.40738860095	-10.3581529837384	-115.895634418476	-46.9839232471205	-127.567391044014	-24.886420147165	-107.432504957084	
2545666666.66674	-16.1472021793439	-59.8701120625243	-10.3612433731611	-118.132672680971	-46.9226463148418	-127.204667747236	-24.9828972993216	-107.506903377629	
2546000000.00007	-16.2458763820251	-60.2951501209854	-10.3622491333177	-120.42622095126	-46.8604678801592	-132.004022759464	-25.0628863891959	-108.053831685769	
2546333333.3334	-16.335089696289	-60.6706545517447	-10.3589646095796	-122.689748199638	-46.5485527875013	-133.119310219433	-25.146282485132	-108.109164810731	
2546666666.66674	-16.4373663006865	-61.1434666650204	-10.3555805986938	-125.003692368483	-46.853186580007	-135.360241728189	-25.2535143122515	-108.09695362643	
2547000000.00007	-16.5257914499106	-61.5523965396362	-10.3542926642954	-127.2729918605	-46.7553907953273	-136.216939735854	-25.3484386183123	-108.109944105796	
2547333333.3334	-16.6306063535401	-62.064922812841	-10.3621513281794	-129.550889525294	-46.8262754448541	-141.811912012991	-25.4400152298482	-107.960773459005	
2547666666.66674	-16.716832978936	-62.5532492523253	-10.3609433046006	-131.764847620925	-46.8179517659581	-141.294729205416	-25.5873502894101	-107.59221388105	
2548000000.00007	-16.8278627283671	-63.1506504383559	-10.3600262393967	-134.062296236833	-47.1343845369362	-144.089018836536	-25.6924466546063	-107.778817584838	
2548333333.3334	-16.9118957887967	-63.6551107774916	-10.3594918675769	-136.341080877565	-46.8280106247111	-147.89068050537	-25.8272897249606	-107.178888608762	
2548666666.66674	-16.99287023067	-64.1064697963405	-10.3563993911312	-138.58260193643	-46.8343202949013	-149.753626557341	-25.9586249120432	-106.673082509736	
2549000000.00007	-17.0757017667327	-64.8972014476073	-10.3571052825983	-140.84414819214	-46.441596146689	-153.285731113118	-26.0648400421155	-106.12719051866	
2549333333.3334	-17.1715449637538	-65.5011500751903	-10.3595869097472	-143.101170833864	-46.84463395075	-152.882075773962	-26.2009553561361	-105.589524225886	
2549666666.66674	-17.2642241791673	-66.1514054086027	-10.3560398277602	-145.374375888174	-46.7286606083502	-156.793542499009	-26.3261490144763	-104.773411522762	
2550000000.00007	-17.3423816849934	-66.8490658527297	-10.3548013437892	-147.612832317175	-46.7290564761346	-158.389472044454	-26.5195758931747	-104.098875366742	
2550333333.33341	-17.4191555761127	-67.5615468019323	-10.3551019416226	-149.883103737125	-46.6485488066468	-161.095982368664	-26.6183820016582	-103.32293056341	
2550666666.66674	-17.517948823707	-68.2632927238827	-10.352903319878	-152.099643626534	-46.7295050924336	-162.51353879327	-26.7301980086447	-102.183644395129	
2551000000.00007	-17.5977283188052	-69.0999883419267	-10.3532269319734	-154.394648093247	-46.9518498767952	-165.469195786452	-26.8899995314905	-101.04386962276	
2551333333.33341	-17.6807539594323	-69.8254293093508	-10.3534195341132	-156.649532327818	-46.7228123556291	-168.112681465355	-27.0341604945823	-99.6230163073608	
2551666666.66674	-17.7864737522446	-70.6439488077841	-10.3506397231688	-158.863950964216	-46.5062123275025	-169.343455356244	-27.1854107367855	-97.9557235789615	
2552000000.00007	-17.8737579224924	-71.3980494982742	-10.3544186058037	-161.09858902363	-46.9636380962131	-173.330601632134	-27.3315142651036	-96.6651412984221	
2552333333.33341	-17.9722829315252	-72.239968976621	-10.3575132614543	-163.330618958905	-46.8916916348493	-172.867190878847	-27.4577219564715	-95.2085075581016	
2552666666.66674	-18.0551787408355	-73.0532355826802	-10.355348778158	-165.598130987807	-46.7308149882451	-176.182315512915	-27.5425972710809	-93.5001394976365	
2553000000.00007	-18.1442002534216	-73.9421700007111	-10.3507298898391	-167.857816473288	-46.7202853171182	179.450987292692	-27.6927192630798	-91.6539932388011	
2553333333.33341	-18.234897863205	-74.7702788378273	-10.3513677380241	-170.012469786704	-46.965614467051	177.06983211219	-27.7884681944476	-89.6274219691912	
2553666666.66674	-18.2970403470226	-75.6583389760771	-10.3489976982741	-172.303581414187	-46.7662964701288	176.743900100761	-27.8311110459319	-87.7391005352399	
2554000000.00007	-18.3879600800946	-76.4775205726902	-10.3475149128072	-174.561888920761	-46.8311556711968	173.864019025264	-27.9206608511354	-85.6790467902276	
2554333333.33341	-18.4685665441489	-77.3667790514199	-10.3381665206829	-176.760653162064	-46.8189874790521	171.380116308321	-27.9702988133901	-83.4714252303996	
2554666666.66674	-18.5515216164316	-78.2826230823995	-10.3491423055417	-179.010902581245	-46.862704289523	169.213233781748	-28.008276674394	-81.4815757570709	
2555000000.00007	-18.6093143382213	-79.1012171456941	-10.3425721620695	178.766902261845	-46.8739382042736	167.186154158986	-28.0410679919299	-79.2480491752387	
2555333333.33341	-18.6862913550178	-80.1132649857325	-10.3450878261413	176.536860054434	-46.9471965475862	167.01748248876	-28.0550910269689	-77.3376127419718	
2555666666.66674	-18.7528536291241	-80.8752829808816	-10.3414464955446	174.282932753798	-46.3625883358776	163.670236753816	-28.0846875788931	-75.1997315324343	
2556000000.00007	-18.806092226594	-81.7676477418089	-10.3352599648613	172.013125350075	-46.7739892429701	160.32069527579	-27.9896192047943	-72.8614087704393	
2556333333.33341	-18.8491893943424	-82.7269835873379	-10.3348738399205	169.781709850029	-46.6521088589849	157.273408274654	-28.0072483453895	-70.8197348944099	
2556666666.66674	-18.9201677452113	-83.6221194807675	-10.3321010070723	167.540173882951	-46.8666380370323	155.58269285705	-27.9417087983232	-69.0318391736105	
2557000000.00007	-18.9528980879589	-84.5384712834102	-10.3295874043257	165.292759184031	-46.7104858291278	153.79280476609	-27.8859707663427	-66.9952971042074	
2557333333.33341	-18.9897367720943	-85.3024732952467	-10.3214155639117	163.05426124117	-46.4555489685346	151.169290885385	-27.8306637256707	-65.0273583330407	
2557666666.66674	-19.0123221054396	-86.2518434034605	-10.3236240087831	160.73974524426	-46.6304003318963	146.983566171267	-27.7191322878011	-62.7807107100141	
2558000000.00008	-19.0487831329818	-87.1704514511937	-10.3179710303563	158.486947883238	-46.7463606161189	147.395532221253	-27.618725539193	-60.9380282314816	
2558333333.33341	-19.0785767731761	-88.0934830944299	-10.3138135961162	156.232760546136	-46.6077999930025	143.85349661002	-27.5062175721104	-59.2794026959176	
2558666666.66674	-19.0980790914755	-88.8743977176836	-10.3086176754429	153.98537675606	-46.4342861684243	141.3393684035	-27.3873900611647	-57.7569690135403	
2559000000.00008	-19.1274431557129	-89.7957944318165	-10.30501788244	151.71667285321	-46.7938687404003	139.560168064885	-27.3117259542768	-56.3023284841075	
2559333333.33341	-19.1484404242947	-90.5560640471971	-10.304515364085	149.467621174303	-46.5788049081347	135.725633739504	-27.2516712019487	-54.4174036676764	
2559666666.66674	-19.1407034288427	-91.4566022513158	-10.3004220059431	147.16619865314	-46.5618157245067	134.42468774009	-27.104507968983	-52.9510878980967	
2560000000.00008	-19.1317437859477	-92.1844624977012	-10.2969542780403	144.930739550205	-46.2786208971833	131.552425296512	-27.0147144075523	-51.8272651383943	
2560333333.33341	-19.1430277143683	-93.023222350695	-10.2933437237659	142.595059134104	-46.7307246073621	130.91534601144	-26.8710775516448	-50.3955293703471	
2560666666.66674	-19.1362951309862	-93.7136572549986	-10.2897837319805	140.346005906046	-46.6193597897142	128.445683479691	-26.8016970237574	-49.1353328067804	
2561000000.00008	-19.117747449674	-94.5980709815333	-10.285618397266	138.058737896222	-46.6287914140385	125.443872454125	-26.624043381912	-47.8847298143255	
2561333333.33341	-19.0892153340123	-95.2309417625049	-10.2824799588822	135.764641795018	-46.5169345494746	122.256443891219	-26.5312846621735	-46.6889551197705	
2561666666.66674	-19.0617736921634	-96.165922206162	-10.2818387229794	133.48456645465	-46.4717939388392	121.034627852969	-26.4426505353518	-45.7054627466976	
2562000000.00008	-19.0391062963167	-96.9078288159913	-10.2778851362949	131.166274245074	-46.6357199621797	118.677747511557	-26.3271915496204	-44.521590786307	
2562333333.33341	-18.9983773499612	-97.6672447325657	-10.2728737227194	128.888332621085	-46.4829969519778	115.14538610447	-26.2276866826573	-43.6941940582026	
2562666666.66674	-18.9405375739462	-98.3967375407188	-10.2762078310009	126.594830969165	-46.5010484679758	113.68564204361	-26.1116565480282	-42.6759775757165	
2563000000.00008	-18.915920851569	-99.1845205009008	-10.2735198034646	124.262282893695	-46.6031533548241	111.706383597385	-26.0365953893305	-41.3141676143787	
2563333333.33341	-18.8539050526677	-99.9172581435395	-10.2685561695321	121.94013773009	-46.5053927197984	109.543890847527	-25.9933732641521	-40.4556217801807	
2563666666.66674	-18.7903429217171	-100.706717999341	-10.2650682546439	119.695126099188	-46.7844151772745	107.612335105111	-25.8774845707915	-39.8317189263154	
2564000000.00008	-18.7484747831372	-101.28961649718	-10.26072781925	117.340149388585	-46.2935911818623	106.382842816747	-25.8233145535099	-39.0469073292633	
2564333333.33341	-18.7005192681664	-101.944411453618	-10.2620932055727	115.040525524767	-46.4932296587653	102.278139037701	-25.7413064754144	-38.2090585436055	
2564666666.66675	-18.646913217808	-102.620222872274	-10.260784844292	112.690807903844	-46.6368830817707	100.833655376086	-25.699154667064	-37.5258597768336	
2565000000.00008	-18.5931156336364	-103.268704501515	-10.2622812709624	110.38664488352	-46.3835941069426	97.1927201292432	-25.6484826821466	-36.650372972109	
2565333333.33341	-18.5278446688073	-104.041851007758	-10.2584784027866	108.056945445276	-46.2377891599986	94.9265462983937	-25.5945768210757	-36.1048691039928	
2565666666.66675	-18.4771283318456	-104.720239857989	-10.2626261700211	105.747795346917	-46.5391417353809	92.4056709259502	-25.5507501282095	-35.6916721783349	
2566000000.00008	-18.4130970507089	-105.315260323561	-10.2576698956722	103.439240235271	-46.2740554271659	91.551272756438	-25.5447717262093	-34.7151767160614	
2566333333.33341	-18.3529778618428	-106.160888949446	-10.2618043961467	101.073974495613	-46.5050355340318	88.4895753738803	-25.5115413975312	-33.8935512381207	
2566666666.66675	-18.3024656416401	-106.726900978233	-10.2612590559008	98.7751764349883	-46.7541014826797	87.6273803328736	-25.4912252992737	-33.3919565876965	
2567000000.00008	-18.2196493778465	-107.401806433503	-10.2599192486643	96.4200487458327	-46.4482019510738	83.6539083806124	-25.4614186485093	-32.8947967833894	
2567333333.33341	-18.165552767219	-108.058940280884	-10.2571466184891	94.0785981104418	-46.4425248726004	81.9409089188779	-25.4770622814154	-32.1002701251005	
2567666666.66675	-18.0897667463522	-108.75091207379	-10.2610808900519	91.6649979434273	-46.5281765289992	80.6693897823954	-25.468532137358	-31.6104866054145	
2568000000.00008	-18.037042066304	-109.462679433078	-10.2617358921175	89.3485664430356	-46.2604101669816	75.1249548626497	-25.4940137416202	-31.057431570713	
2568333333.33341	-17.9741336388148	-110.122341627958	-10.2625618559555	86.9845869414443	-46.4984493559634	76.4714124857949	-25.4477742160647	-30.1006556451165	
2568666666.66675	-17.8993491334836	-110.770841852011	-10.2626351829915	84.6303438469122	-46.3998081380926	73.9885161373549	-25.5030817656612	-29.7908769156494	
2569000000.00008	-17.8263206056057	-111.487235673493	-10.2739009159386	82.3296008175535	-46.786183942399	71.0369585139885	-25.5317542469277	-29.4722672554976	
2569333333.33341	-17.7717045891054	-112.15014908169	-10.2677501070427	79.9702090671641	-46.3358966571703	67.2561275950307	-25.5536083409375	-28.9995968966391	
2569666666.66675	-17.7221627285516	-112.74733318512	-10.2663221018587	77.631391988246	-46.3114195691097	64.6305583502599	-25.5992245575199	-28.4230802846388	
2570000000.00008	-17.6582992445525	-113.552572423096	-10.2684984930707	75.2900358900845	-46.7639310607349	63.2821896363664	-25.6395011929968	-27.6439136339635	
2570333333.33341	-17.6176310505602	-114.182411339457	-10.2778575828717	72.9141683393113	-46.3381878837795	61.5481203202913	-25.6792296283786	-27.1948515321445	
2570666666.66675	-17.5620009082213	-114.943359827157	-10.2878787938321	70.568811501879	-46.5032451068856	60.1513185180666	-25.7178521870958	-26.4433539716786	
2571000000.00008	-17.5126562766249	-115.39869879232	-10.2854307155856	68.2444568017149	-46.3393750744764	57.9569329924305	-25.7718999926397	-26.0230696781341	
2571333333.33342	-17.4694900921549	-116.189807546143	-10.2799259332698	65.9064523532654	-46.398513569314	52.1584350528859	-25.865447877273	-25.4295875968805	
2571666666.66675	-17.4503302944233	-116.816022456539	-10.2888150452404	63.5145162425133	-46.5741058986935	51.9717165634215	-25.9375310627357	-25.045286258023	
2572000000.00008	-17.4087308800717	-117.504571985201	-10.2962484807759	61.1873796958855	-46.5665730179889	48.8409872245052	-25.9836101323391	-24.4096067608417	
2572333333.33342	-17.3559386666757	-118.336473730063	-10.2958308247736	58.8781969129434	-46.6393842714886	47.383041775199	-26.1498405092869	-23.7133905088643	
2572666666.66675	-17.3417571100823	-118.865521065436	-10.3012235659116	56.529301996487	-46.4125420447943	44.5315749597722	-26.2364608899807	-23.2089510124677	
2573000000.00008	-17.3212169902377	-119.611295084477	-10.3000762837384	54.1961699071204	-46.4449415401989	42.3663650126942	-26.3121156408193	-22.7561972098152	
2573333333.33342	-17.2916508934533	-120.325725024643	-10.3051692198505	51.8905604732762	-46.8245378393986	38.8810160217614	-26.4170784443168	-22.1924418587029	
2573666666.66675	-17.2713952914609	-121.011578448471	-10.3144791432859	49.6001227550468	-46.4897502139344	36.7539324574836	-26.596114425094	-21.6931932424159	
2574000000.00008	-17.2628483480732	-121.794100412578	-10.3128727795234	47.2800184781857	-46.537023548639	36.3106936488305	-26.6826384342084	-21.0770277871391	
2574333333.33342	-17.2274310204529	-122.542282411383	-10.313470408669	44.9245374177391	-46.5461834123931	34.9183503698044	-26.8274542069664	-20.4491133252395	
2574666666.66675	-17.220849941878	-123.081510807005	-10.3134637299338	42.602385831624	-46.7044158360439	32.4280479639357	-26.9082676563807	-19.4347440927176	
2575000000.00008	-17.2114968360604	-123.847068120764	-10.3210320715726	40.3030005776152	-46.7228780476316	28.3840435302093	-27.1412084847834	-19.0396130985181	
2575333333.33342	-17.1986708685797	-124.554068117189	-10.3110046106625	38.0043982775709	-46.2747801169329	26.6189851545427	-27.2766045199474	-18.2270676566004	
2575666666.66675	-17.1949430305194	-125.337241107599	-10.3220375827102	35.6854128671574	-46.7462656911648	23.7422946959171	-27.3798492264322	-17.5294224420523	
2576000000.00008	-17.2107037057202	-126.045372350771	-10.3197861859571	33.3930912267247	-46.3510280033413	23.8948480098001	-27.6084440746099	-16.8136914244825	
2576333333.33342	-17.2102262904379	-126.913106315929	-10.3180171710142	31.1241066214219	-46.2842552978488	18.4113025288561	-27.7306748653358	-15.8944894604999	
2576666666.66675	-17.2292253839121	-127.600096103459	-10.3146777465919	28.7956372222452	-46.6400354206583	17.5511798248641	-27.9556274601219	-15.6074379042865	
2577000000.00008	-17.2540518973495	-128.300054872724	-10.3138099608926	26.5314214433124	-46.2809609357827	14.5984832892855	-28.1262792205806	-15.0543298309065	
2577333333.33342	-17.2638561943688	-129.065988530189	-10.3147908209839	24.241969821219	-46.6782126399977	12.6914225761605	-28.3833158830313	-13.8321977112966	
2577666666.66675	-17.2837573282245	-129.873250495735	-10.313217008161	21.9530373099361	-46.7924030870702	10.6053652141025	-28.5423313950346	-13.7395739354818	
2578000000.00008	-17.347753056965	-130.650536316417	-10.307127160236	19.6852540234137	-46.4812808325799	7.65602540219632	-28.7930078717312	-12.7567329190828	
2578333333.33342	-17.359886911685	-131.408459355281	-10.3101385411655	17.4158551970169	-46.5314944078548	5.17977315015625	-29.0417919498357	-12.2078255465715	
2578666666.66675	-17.4205507222866	-132.263307404543	-10.3008050560047	15.1460716346775	-46.8497015912276	5.07090699068189	-29.3153273001793	-11.4786337633465	
2579000000.00009	-17.4637640679618	-133.144300412378	-10.3007863755991	12.8262780223481	-46.8229846534852	1.88088393232603	-29.5913993633178	-10.1334271159026	
2579333333.33342	-17.516419506085	-133.831688574423	-10.2987607822504	10.5599774987841	-46.5658160383312	-0.92174469184058	-29.9311259422355	-9.24023784616607	
2579666666.66675	-17.5965766681085	-134.730510748315	-10.2999281753342	8.32786405661159	-46.7789204808799	-4.18341395058492	-30.2226145433575	-8.19059168276701	
2580000000.00009	-17.6540864420218	-135.617777736798	-10.2946684348955	6.02976453694526	-46.8410145118198	-6.09817922007337	-30.5136194471594	-7.37669480672864	
2580333333.33342	-17.7230070999718	-136.39044483806	-10.2931493026823	3.74706559464958	-46.70866913302	-9.4231461978224	-30.8950815467228	-6.67664326008769	
2580666666.66675	-17.8217743229417	-137.28616921345	-10.2826617434761	1.50230594486244	-46.3621598897395	-10.8145775963158	-31.2460104859986	-5.52393545307611	
2581000000.00009	-17.8929895200797	-138.181709370013	-10.2810996212316	-0.75887059647198	-46.4208446868216	-10.4795154826066	-31.7264597124395	-4.44933105489215	
2581333333.33342	-17.967634174071	-139.148362999347	-10.2757446518753	-3.01037628986728	-46.6455473880681	-15.5719553378299	-32.0563903204617	-3.02743102888621	
2581666666.66675	-18.0481970256279	-139.976428605389	-10.2729541731191	-5.28383385703501	-46.668058215032	-17.365884819703	-32.5790240244315	-1.71904655738905	
2582000000.00009	-18.1600716898022	-140.796461984277	-10.275738562804	-7.6277630342611	-46.4239939644985	-18.5188023330279	-32.953897919948	-0.874481399287145	
2582333333.33342	-18.2527919161762	-141.709534848584	-10.2714096462036	-9.8565549864001	-46.7947250498126	-20.4671564038229	-33.4583144019301	1.23887573940312	
2582666666.66675	-18.3562550360981	-142.497038721604	-10.2709878845807	-12.0997453785407	-46.4562965020372	-26.0676733594582	-34.0214755863811	2.56320035582695	
2583000000.00009	-18.4455287726191	-143.568174333747	-10.2627628622941	-14.3989866594863	-46.6553231161124	-24.9829637180497	-34.6399945763438	4.86891657758544	
2583333333.33342	-18.5625055919464	-144.273067428611	-10.2575495295299	-16.6756159343253	-46.6841932786491	-29.1117182497758	-35.1825457546837	7.01293869075844	
2583666666.66675	-18.6583719050448	-145.13008809573	-10.2589486132593	-18.9624811234208	-46.6888034285667	-30.5305919728474	-35.8593090267292	10.6149414339544	
2584000000.00009	-18.7892921673488	-146.066201042123	-10.2526259820114	-21.2224546365527	-46.7621936149436	-32.5084010072048	-36.5404297588257	13.3237257788846	
2584333333.33342	-18.8993408543178	-147.042510123093	-10.252995817698	-23.5139578996829	-46.627827766367	-37.3693002629637	-37.3044704225677	16.7541225670918	
2584666666.66675	-19.0202273993113	-147.984316731161	-10.2380226199246	-25.7834732002415	-46.7572850885845	-38.2229827330732	-37.9138755330818	21.8355412310317	
2585000000.00009	-19.1807607165197	-148.756790555915	-10.2503171456192	-28.0658855113885	-46.6774339649058	-40.342662707733	-38.7860990966242	25.5722748766752	
2585333333.33342	-19.2749261532987	-149.749323708014	-10.2419447633819	-30.3165675178406	-46.6297898245696	-42.6874972949901	-39.6769401998184	32.8031792351934	
2585666666.66676	-19.443928115873	-150.743034023224	-10.245127316887	-32.5842121544367	-46.6814563378901	-42.7328823764033	-40.4102405693071	39.3213270003137	
2586000000.00009	-19.5615276946327	-151.59782497145	-10.2443256709381	-34.8319958726804	-46.5088692847341	-45.3091292981065	-40.8625559163895	47.7136305439316	
2586333333.33342	-19.7092869995124	-152.587745396874	-10.2327332002438	-37.0742258168715	-46.5051737632092	-49.2865557444274	-41.2852807326354	58.0363071349685	
2586666666.66676	-19.8432912579577	-153.410915322097	-10.2397214805032	-39.4268013379454	-46.5330782408403	-50.5543822302136	-41.3483231079227	69.6026258181233	
2587000000.00009	-19.9963487594255	-154.376696970517	-10.2304732237369	-41.6718429891395	-46.8489948187118	-52.554390267808	-41.0858292281379	80.0889155385969	
2587333333.33342	-20.1197803263831	-155.394010270612	-10.2316741846414	-43.9874064739159	-46.6783026310705	-55.2902373037512	-40.8660810222425	90.2725194363435	
2587666666.66676	-20.2717287929125	-156.456434402652	-10.2367670611828	-46.2257339294048	-46.4232678567092	-57.5874804301229	-40.128899829434	96.3219079935799	
2588000000.00009	-20.4033009288389	-157.427279481843	-10.2334260299497	-48.5356227753481	-46.5714981084469	-57.6035252799286	-39.4134456454554	103.965717874532	
2588333333.33342	-20.5686302373705	-158.310112086296	-10.2300160793121	-50.8336707331573	-46.6739778014244	-62.4634511247431	-38.666642226551	109.631444917737	
2588666666.66676	-20.6902808667673	-159.350100702121	-10.2286976633789	-53.1029892878019	-47.0161496914756	-62.2991948944203	-37.8122666865132	115.446005360028	
2589000000.00009	-20.8309791803455	-160.32765279957	-10.2279829140508	-55.3751637211644	-46.8261105826782	-65.610603899588	-37.0718960167779	119.239483659559	
2589333333.33342	-20.9651415835244	-161.415205024379	-10.2241400037007	-57.6392150181047	-46.4620000054927	-69.795052510896	-36.32414855805	122.864674839752	
2589666666.66676	-21.1512579426514	-162.426258718793	-10.2322682426264	-59.9529357949112	-47.0458521792905	-70.0365469673929	-35.620641792214	125.857290858741	
2590000000.00009	-21.2704114781477	-163.400914122023	-10.2250230696382	-62.210140183608	-46.4823829771478	-73.7767102128922	-34.9575010496008	127.585667257599	
2590333333.33342	-21.3867055878461	-164.700144999186	-10.2294550539118	-64.4873776961125	-46.5672762056618	-78.2087827025554	-34.366845974676	129.289993801597	
2590666666.66676	-21.5502028837913	-165.680912778207	-10.2287052169017	-66.7440566499915	-46.8816103976974	-77.4839907518964	-33.7884695767337	130.84415480745	
2591000000.00009	-21.6815679417469	-166.749562545364	-10.2322696176385	-69.0698786043074	-46.5741369314485	-80.070657838873	-33.250162683227	132.430765321129	
2591333333.33342	-21.84151254475	-168.125614084466	-10.2329486932571	-71.3823450620587	-46.8819937771276	-83.844187865137	-32.7568962085771	133.273405104852	
2591666666.66676	-21.9642667512348	-169.252993312485	-10.2343197584331	-73.6351742103776	-46.5498560670043	-85.4367923069168	-32.2707527358498	133.833953546083	
2592000000.00009	-22.0809715267183	-170.569746723527	-10.2345867041792	-75.9440688485799	-46.4182518148165	-87.2808019579773	-31.8405354472662	135.191655865916	
2592333333.33343	-22.1713965419817	-171.813629461165	-10.2310386812627	-78.2645510092442	-46.834202199051	-89.4609624789836	-31.3978860804132	135.300343832935	
2592666666.66676	-22.296852157651	-173.140856816154	-10.2369781559971	-80.5473883994739	-46.8841021946302	-90.774574723416	-30.9808168684654	136.330634622387	
2593000000.00009	-22.4300554838905	-174.432667360334	-10.2319430944246	-82.8312792687895	-46.6658498978393	-94.6288875734657	-30.6243173701837	136.188027539403	
2593333333.33343	-22.5034711007589	-175.913758463149	-10.2372030778552	-85.1317912489859	-46.724197345454	-94.8435821330736	-30.3066566506288	136.608616976433	
2593666666.66676	-22.5937221403769	-177.453255389515	-10.2374532629968	-87.4148777561185	-46.4747972360305	-98.9966953535965	-29.9312290605334	136.427655430061	
2594000000.00009	-22.6901806554246	-178.876075026962	-10.247702700318	-89.7406421495633	-46.3992462365885	-100.799889232024	-29.6838776170857	136.818065846574	
2594333333.33343	-22.7550610630741	179.442237539656	-10.2469422946917	-92.0572376944224	-46.4156081241661	-102.066461998774	-29.3964250148786	136.517609725866	
2594666666.66676	-22.7887284844776	177.873890915387	-10.2489922785388	-94.3310362102563	-46.5770058785975	-104.758026270877	-29.1389731029221	136.854199800767	
2595000000.00009	-22.8388570706135	176.29942072883	-10.2494113034163	-96.6252525431348	-46.7868078268381	-107.267568665863	-28.8880658878242	136.636308801422	
2595333333.33343	-22.9241154803336	174.658679266977	-10.2461078753818	-98.8741528194275	-46.4944368714115	-109.253345625775	-28.6778180315096	136.586074502797	
2595666666.66676	-22.8885364571743	172.966950127145	-10.251975354745	-101.192422951653	-46.4728724259537	-111.944642840584	-28.5342064619805	136.034660056387	
2596000000.00009	-22.9169456820746	171.15197466327	-10.2498911466468	-103.502461314733	-46.5979855981356	-112.953405436269	-28.3488630252812	135.883049809307	
2596333333.33343	-22.9175333758499	169.425561121994	-10.2566785980923	-105.783208392541	-46.4755651517323	-115.620099788975	-28.1404581373507	135.10172549014	
2596666666.66676	-22.9139314919135	167.767945726396	-10.2629233348425	-108.070221450776	-46.6079030084365	-120.407873453879	-27.9816839654638	134.959795914184	
2597000000.00009	-22.8621206397986	166.01702583203	-10.260208328908	-110.331531117719	-46.5910093882542	-122.009693189013	-27.8175464859328	134.194143933141	
2597333333.33343	-22.852669121932	164.156787795	-10.2648917791201	-112.63006539651	-46.4824845173216	-122.479378807066	-27.7236992322825	133.830634250191	
2597666666.66676	-22.7904339005295	162.107834110056	-10.2655372698648	-114.9203994333	-46.3826273595369	-127.944115388776	-27.6201631876063	133.213380455242	
2598000000.00009	-22.760509531985	160.211826380547	-10.2654635943309	-117.205491449421	-46.3668411220107	-129.038779513991	-27.5079497332666	132.697020647134	
2598333333.33343	-22.6546020039789	158.377495992513	-10.2698917126797	-119.477624701043	-46.772846228414	-131.428396385807	-27.425246365045	132.043354622115	
2598666666.66676	-22.5493380873154	156.419686059361	-10.2737277042578	-121.840511851758	-46.5782267777701	-131.575101818566	-27.3629698080084	131.358717731688	
2599000000.00009	-22.4802885720432	154.721160077056	-10.2783783597103	-124.037735301084	-46.5194864916702	-133.101672387736	-27.2977564012745	130.335066259338	
2599333333.33343	-22.3677463815048	152.771285653231	-10.2849263032282	-126.317470527213	-46.5036062154612	-135.544175104104	-27.2874177496598	129.712284312785	
2599666666.66676	-22.2460439912615	150.950655467014	-10.2855317506486	-128.598881174678	-46.9602252962704	-140.194188359434	-27.2159600397637	128.547950949435	
2600000000.0001	-22.1115779448556	149.028929133381	-10.2889565811385	-130.866112251717	-46.6898233072429	-143.025607869135	-27.2173137116707	127.758316002335	
