!Agilent N9923A: A.05.34
!Date: Friday, 25 March 2016 21:00:10
!Model: N9923A
!Serial: MY51491690
!GPS Latitude: 
!GPS Longitude: 
!GPS TimeStamp: 0001-01-01 00:00:00Z
!GPS Seconds Since Last Read: 0
!CHECKSUM:0920392078
!Correction: S11(ON U*)S21(ON U*)S12(ON U*)S22(ON U*)
!S2P File: Measurements:S11,S21,S12,S22:
# Hz S DB R 50
2400000000	-16.4338832706328	179.5341224094	-9.14272872201361	177.744279161037	-45.9211912466661	162.815576618338	-20.0954222155348	7.88601733982782	
2400333333.33333	-16.4481297499285	178.466807298623	-9.14067671104591	175.409790900744	-46.0804063724699	162.097128401844	-20.243644281939	7.60912934763287	
2400666666.66667	-16.4881617353194	177.461092826177	-9.12761166035579	173.147722177963	-45.8597128312134	158.12015069418	-20.3694765372888	7.59249220769639	
2401000000	-16.5151240318443	176.442892900193	-9.13159334611678	170.833440809101	-46.0261909312253	158.198413074646	-20.5322216861642	7.16495099380646	
2401333333.33333	-16.5562266628807	175.312915110588	-9.11982504121042	168.502100423604	-46.1328736121858	153.715200160717	-20.6839348241782	6.90544788284163	
2401666666.66667	-16.5915275439046	174.374397050463	-9.11877861384855	166.179686644246	-45.9799989020889	152.71475113296	-20.8558439714986	6.67881256899961	
2402000000	-16.6302966405386	173.13239381869	-9.11036994036276	163.907649723474	-45.9637396053731	150.774144392082	-21.0345820599595	6.46324664931177	
2402333333.33333	-16.6426412658246	171.985287459818	-9.11792259308057	161.57191780694	-45.8883958021801	148.007749075344	-21.2256657271071	6.18206258957144	
2402666666.66667	-16.7017400962131	170.821574001887	-9.10885268408935	159.197967219369	-45.7206721930237	144.931748507509	-21.4291033327378	5.875907482114	
2403000000	-16.7378222113141	169.545556095231	-9.10565657111428	156.945178753685	-45.8575033939154	142.540667669706	-21.6238139853674	5.63401471938891	
2403333333.33333	-16.7935811977663	168.341759669813	-9.10131139566654	154.625956640968	-46.0401377260947	142.654853161147	-21.8233078146572	5.40991060846446	
2403666666.66667	-16.8197588509799	167.199362520162	-9.10880564675594	152.285357692679	-46.2992021042342	140.570460874407	-22.0390043086697	4.98690964853601	
2404000000	-16.8404853733267	165.934300861718	-9.09337553268338	149.986277600067	-46.0558761589392	138.503310498956	-22.2535979220177	4.65356321990884	
2404333333.33334	-16.8613437993756	164.74214307039	-9.09556147124955	147.6388920086	-46.1178892035988	133.768773827869	-22.5031613538282	4.46497669463925	
2404666666.66667	-16.8964229542941	163.471637152565	-9.0956980814958	145.344501580708	-46.0206666988539	131.622925833013	-22.7355866470371	4.18027840171008	
2405000000	-16.9353839290863	162.110575031197	-9.09388634500689	143.0082779274	-46.105274747078	131.291006014511	-23.0016020228401	3.77217746108198	
2405333333.33334	-16.9506310556082	160.862245743035	-9.09623586309686	140.721264067591	-46.1334968507986	127.135857377452	-23.223204939921	3.494187654859	
2405666666.66667	-16.978678424162	159.584072808031	-9.1010572226506	138.395649288001	-46.0448949399601	125.561335980333	-23.4886583569182	3.23339261859408	
2406000000	-17.0045164277553	158.27527820704	-9.09594458029599	136.105092637371	-45.8412224319607	123.746179421455	-23.7779153178358	2.91283153746658	
2406333333.33334	-17.0258038011558	156.867402586745	-9.09714328421382	133.783183185082	-46.1110507999377	119.471881768313	-24.0817820054686	2.63470089404282	
2406666666.66667	-17.0382100160032	155.648499509736	-9.0917702862199	131.495830671875	-45.992312660146	117.129747447916	-24.3841539882573	2.38355843849298	
2407000000	-17.0558303919318	154.326186847983	-9.08532881352734	129.174264640615	-46.0445314092919	117.663904205648	-24.702866668309	2.08988751021153	
2407333333.33334	-17.0588638807141	153.014442973408	-9.09267302588837	126.916434982717	-45.7404122005874	113.165819348052	-25.0128103891467	1.85851757630086	
2407666666.66667	-17.0728761744339	151.594488107855	-9.09371640881371	124.603910665415	-45.9428253301622	112.872004003564	-25.3399525721111	1.5814854361637	
2408000000	-17.0662895298618	150.37703244369	-9.09467660898546	122.301671673067	-46.0329735685833	108.488588450102	-25.66110071653	1.38883098644567	
2408333333.33334	-17.0734965478017	149.004784456219	-9.09960511789808	120.033768843027	-46.0649496729944	107.49819317601	-26.0595179541433	1.12452079607433	
2408666666.66667	-17.0648678686637	147.773006163776	-9.10365117853183	117.718508341324	-46.1838824397786	105.956159000103	-26.4091636141758	0.956119905458216	
2409000000	-17.0615888948302	146.467168137794	-9.11150235792737	115.441831215918	-45.9478758954016	102.096461437173	-26.772090267006	0.915027321809881	
2409333333.33334	-17.0417105863543	145.143485860376	-9.11129712613579	113.142930437704	-46.1475634187014	101.134656240334	-27.1719982908758	0.920731364112429	
2409666666.66667	-17.0536492218032	143.878713478271	-9.11460556139769	110.880719647575	-46.3995408559803	97.4031167906126	-27.5562258222059	0.777587920460741	
2410000000	-17.0206644627389	142.54918401949	-9.12591023069887	108.570048690217	-46.2451175817299	94.9144510978723	-27.9442237279069	0.643390289994448	
2410333333.33334	-17.0010596613644	141.338622524046	-9.13013556626011	106.288817493945	-46.0217591963655	91.9023958812024	-28.4349550800562	0.851347296145563	
2410666666.66667	-16.9682637630139	140.140638160165	-9.13814385245685	104.024782252862	-46.2382926904554	92.6588783667306	-28.8872581109445	0.860079756599932	
2411000000.00001	-16.9303813905109	138.806248426269	-9.14028060661158	101.747514987964	-46.0315079175102	88.6535198220263	-29.3533203858459	1.26865392960941	
2411333333.33334	-16.9096136135421	137.621356605086	-9.150929062321	99.4927583444289	-46.174259608025	84.7149948165959	-29.8328268268883	1.61840008463734	
2411666666.66667	-16.859899142857	136.325289098068	-9.15099073760256	97.2070810117022	-46.0622397093463	84.4132729872987	-30.3458053678343	2.25623694796141	
2412000000.00001	-16.8375491732363	135.164290699259	-9.15986662960908	94.9334808704923	-46.1171294921571	80.7808171063801	-30.7566692599895	3.14811011132853	
2412333333.33334	-16.7908023081539	133.836562661656	-9.16757739472734	92.6924068082511	-46.3368503015908	80.1064591541026	-31.2524914679745	3.5333142132401	
2412666666.66667	-16.7316869328488	132.674905325349	-9.1759036364643	90.3970858045024	-46.0701693263078	77.1862681463363	-31.7789724413359	4.29229814972499	
2413000000.00001	-16.6738348701544	131.412000606659	-9.18606074515275	88.1488645205586	-45.9629421163847	73.7803323156951	-32.3296713416199	5.41268319381514	
2413333333.33334	-16.6084439093817	130.033288115737	-9.19463037331623	85.8667134920696	-46.0849092008268	73.3109713817434	-32.7886949676795	7.05530077088835	
2413666666.66667	-16.5538963403734	128.986981015582	-9.20045701360489	83.6412025075993	-45.9463355538872	70.2762992938279	-33.2981660875418	8.58910346876394	
2414000000.00001	-16.4855563519776	127.77609653428	-9.21886505024134	81.4058051008213	-46.2823482352586	67.198148418314	-33.7927163931403	10.5052884177243	
2414333333.33334	-16.4223493661005	126.607153453866	-9.2289948520313	79.1308361067394	-46.2840056884707	66.7609817376567	-34.3002160499924	12.212021746368	
2414666666.66667	-16.3499203211371	125.505501871108	-9.23772866474008	76.8725696559648	-46.1434387611196	63.9713418853396	-34.6672390148333	15.2800778422302	
2415000000.00001	-16.2699796571027	124.458442284577	-9.24294612104574	74.6184229535074	-46.0914198030561	60.4152481861349	-35.1305132571496	17.9473470788752	
2415333333.33334	-16.1915987100403	123.365355738144	-9.25641358704174	72.3572005747987	-46.0724064484183	59.8932931391197	-35.4771833023518	20.5848490354033	
2415666666.66667	-16.1079262875942	122.246583713863	-9.26675505827648	70.0673448268491	-46.2324903016481	56.1663129037332	-35.6654371057153	23.6637928889014	
2416000000.00001	-16.0380005986791	121.287712539166	-9.27621118307645	67.8639373218433	-46.2515736480674	54.8670229450716	-35.9642757682606	27.3010971746401	
2416333333.33334	-15.963679650304	120.291406346516	-9.29586283045002	65.6018391013616	-46.0756018634579	53.0135501142401	-36.0686693635092	30.8612698961058	
2416666666.66667	-15.8779335396226	119.278893981898	-9.29943501078031	63.3970122571059	-46.2062744406662	49.2984502131793	-36.1236621547321	34.5908768352041	
2417000000.00001	-15.7974017951019	118.342079183553	-9.31224632644278	61.1374856536603	-46.1380771566155	46.5874863479569	-36.0998694734473	37.1821346850371	
2417333333.33334	-15.7150189440813	117.399061915994	-9.32754345544425	58.9420856571602	-45.9994919140967	45.2381937236438	-36.035394707082	41.2285583818681	
2417666666.66668	-15.6318723704941	116.482785926142	-9.33725284590512	56.6673062107587	-45.8452860556632	40.5558600574674	-35.8144656716332	43.1390145403595	
2418000000.00001	-15.5607102429208	115.623272964381	-9.34856668661244	54.4099860173561	-46.1261449501813	38.8064449172721	-35.6176421675723	45.6612513850072	
2418333333.33334	-15.4719123206615	114.626225384322	-9.35891994949207	52.2251678276666	-46.3015574376014	37.3877376435339	-35.2459579648267	48.4650684501222	
2418666666.66668	-15.3791313192355	113.719273604388	-9.37309720591052	49.9674392412431	-46.2716331709841	35.4647675234219	-34.9977753591627	49.8344029718328	
2419000000.00001	-15.2929847199936	112.89719052587	-9.3853902596326	47.6699546790931	-46.1827652707959	33.2706248071138	-34.6560432033328	50.6627551954804	
2419333333.33334	-15.2133086656589	112.088439662354	-9.38871439622331	45.4552641125181	-46.0299972528353	31.7114711922441	-34.32195400514	51.2214636896008	
2419666666.66668	-15.1281270636317	111.260045067568	-9.40424975663813	43.2522441139442	-46.2196446285816	28.0538214384346	-33.9474021931263	52.6654491166776	
2420000000.00001	-15.070062462028	110.387191762565	-9.40050694063744	40.9053421537802	-46.1859028670205	27.6077169881528	-33.4310917369925	52.7485256604177	
2420333333.33334	-14.9863630493414	109.602304994403	-9.40803998781792	38.6641822758237	-46.2307212850743	24.4897176220106	-33.1228113743798	52.6159057827663	
2420666666.66668	-14.8939697857494	108.882266368042	-9.42309401566768	36.430626229259	-46.1623025830319	23.46264785333	-32.6552271537933	52.507311674528	
2421000000.00001	-14.8254916734915	108.132167939397	-9.43070871381646	34.197163070392	-46.345326867325	20.4287613733467	-32.2755178379359	51.6004776091292	
2421333333.33334	-14.7487362946809	107.406313534695	-9.4438945574455	31.9438575877556	-46.1879777183649	17.4867596752829	-31.9131079750296	51.7439998443443	
2421666666.66668	-14.6756963631265	106.685433400907	-9.44961794113272	29.7160042724309	-46.099619732646	14.6754121982555	-31.5089945370306	50.838824916997	
2422000000.00001	-14.600132748264	106.011207536372	-9.45584709041083	27.4517178016582	-46.4383235736672	12.5010352439448	-31.0755211103309	49.8256034809032	
2422333333.33334	-14.5357274693671	105.351562647222	-9.46935973210254	25.1885550780014	-46.2468450751169	11.5643188224052	-30.6755005424019	49.1541065887099	
2422666666.66668	-14.4714066182721	104.736799190818	-9.47663635680614	22.9557349537863	-46.3335585927683	8.68025033605553	-30.361897378327	48.4139073615165	
2423000000.00001	-14.3964032780854	104.104933658052	-9.48847028672133	20.7245801326568	-46.2239631038173	6.26500299466814	-29.9655415974125	47.4178244522929	
2423333333.33334	-14.331820563743	103.517844029901	-9.49494040291236	18.4385517113891	-45.9585901316922	4.06444961876471	-29.5771087468762	45.7156597723194	
2423666666.66668	-14.2755198314106	102.944312636561	-9.50347504138823	16.1825340692527	-46.3850439164925	3.35514139331438	-29.2113867758737	44.6043327193559	
2424000000.00001	-14.2194345729026	102.31920334677	-9.50891187436829	13.9376037941288	-46.1340648580374	-0.108161502529411	-28.7996616795149	43.3304647954593	
2424333333.33334	-14.1560537142638	101.770838807499	-9.52147891397675	11.6877893376987	-46.2291585515575	-0.916340780646961	-28.4310665562714	42.0331091823114	
2424666666.66668	-14.0983010539665	101.289525131971	-9.52679457435966	9.42672581653384	-46.2875607710672	-5.10177395406484	-28.0160274233386	40.4681181186558	
2425000000.00001	-14.0470749818787	100.758989439478	-9.53627565846403	7.16812535927367	-46.4510189166825	-6.5730832275868	-27.6940707218571	39.2948021628194	
2425333333.33335	-13.9973247410508	100.243076400385	-9.53543828939213	4.86988281746897	-46.2310135859936	-6.53027266002286	-27.3008853784571	37.9318806648383	
2425666666.66668	-13.9405539543302	99.8043785983612	-9.54120913441158	2.64348726184746	-46.1660434315677	-11.74811192912	-26.950086369053	36.6115885510374	
2426000000.00001	-13.8931311029589	99.3700620616858	-9.54804549407782	0.369774495777116	-46.2588605085294	-12.2770679276782	-26.585801214969	35.5311773595311	
2426333333.33335	-13.8459708158102	98.9133089847631	-9.55382345303291	-1.88808703809725	-46.2351634795788	-16.4609075743131	-26.2479373998401	34.2088704847269	
2426666666.66668	-13.8013229635844	98.4871225995791	-9.56423612303872	-4.2125247625189	-46.5446882053933	-18.162066637008	-25.9001333410631	32.6006372250841	
2427000000.00001	-13.7696150397197	98.1127765063623	-9.56506456094654	-6.45533649247424	-46.2924097888493	-19.9296441104111	-25.6021166550117	31.6063777264158	
2427333333.33335	-13.7233541774289	97.6657371314618	-9.57874999165949	-8.76336576050836	-46.3040739117551	-22.7243018674699	-25.3064084904078	30.4370862902784	
2427666666.66668	-13.6794786846909	97.2310786608411	-9.5801462636869	-11.0394117380987	-46.5006306724981	-24.8794425152519	-24.9654971057691	29.0988223003684	
2428000000.00001	-13.6422583953969	96.8443748323436	-9.58824346250905	-13.2886634178643	-46.7377052651461	-26.1690505011881	-24.6314719131713	27.8751032017991	
2428333333.33335	-13.6039210328443	96.5558689222755	-9.59391442769898	-15.5720917731564	-46.1491489204152	-29.8654485404206	-24.3258040486558	26.6602182066301	
2428666666.66668	-13.5666818276907	96.1511016058288	-9.59631550287683	-17.8244056180454	-46.6084675026202	-30.6029348869881	-24.0448206316414	25.4989493249647	
2429000000.00001	-13.5367763864506	95.7582435769367	-9.60139958659224	-20.1104692140957	-46.4152281567871	-33.8779756724717	-23.7480394593065	24.3259660660745	
2429333333.33335	-13.5071121830691	95.4094024342182	-9.60718942769531	-22.375492247014	-46.2292485580567	-36.6143872337586	-23.4634894956925	23.3550126403052	
2429666666.66668	-13.468049018927	95.1588648333335	-9.6168780422022	-24.6448192805904	-46.2509200121868	-35.9857913465782	-23.202883932253	22.3008007941454	
2430000000.00001	-13.450980160137	94.7970381602042	-9.62147247091051	-26.9450049060496	-46.3582194281635	-40.1885465177704	-22.930315733835	21.1342010790966	
2430333333.33335	-13.4188088466605	94.4886958912878	-9.62765332158318	-29.1722024495875	-46.5700028534505	-41.5965014911855	-22.6866177879595	20.0012490181938	
2430666666.66668	-13.3766025457729	94.1860956705802	-9.62755279715639	-31.4244130533035	-46.3029701843197	-45.1457876797108	-22.4216346297199	19.0169404313453	
2431000000.00001	-13.3579019267837	93.8567618876538	-9.6366612566379	-33.6939959741215	-46.5407607948481	-46.796864477987	-22.1977971296822	18.0321426329233	
2431333333.33335	-13.3291935854163	93.5688880647603	-9.64777514661201	-35.9273543523955	-46.2780025936697	-49.0042137658918	-21.972601530155	16.9717102634818	
2431666666.66668	-13.3095191335938	93.3481814456072	-9.64940179085216	-38.1880741365287	-46.40020393359	-52.2929022063469	-21.7089890426116	16.1751612073335	
2432000000.00002	-13.2878877484596	93.0984589440358	-9.65882967211813	-40.4149181438489	-46.4657365470788	-54.0915809358074	-21.484094911851	15.1977642713602	
2432333333.33335	-13.2670663934153	92.8125098482606	-9.66584043395261	-42.697940641755	-46.7001762604623	-56.7983485207329	-21.2446385863449	14.3655524662926	
2432666666.66668	-13.2457766515129	92.553218615459	-9.66481337374964	-44.9031415533589	-46.6743539009085	-58.7231754454077	-21.0311159919302	13.5147301904607	
2433000000.00002	-13.239523817213	92.3242527788123	-9.6763654215017	-47.1428470271104	-46.5852684657712	-60.2607483264075	-20.8215566357729	12.7170687852994	
2433333333.33335	-13.2193130294576	92.0708862082792	-9.67174078694	-49.4176872316078	-46.4507128067943	-62.5808629447639	-20.63830930509	11.8522700926905	
2433666666.66668	-13.1983031503483	91.7904753426634	-9.68245499461383	-51.6125815096678	-46.5434060900741	-64.8571006953159	-20.4316898638143	11.0377980380657	
2434000000.00002	-13.1816426237096	91.5899988957983	-9.68232452000668	-53.842966582823	-46.4447290230766	-66.8124523398297	-20.2596507182906	10.2402239101064	
2434333333.33335	-13.1671245691879	91.3197989709349	-9.68730644126857	-56.0639635394908	-46.7253465520674	-70.7295885362073	-20.0878225940743	9.4961449989027	
2434666666.66668	-13.1504327427024	90.9680494829463	-9.6894100319206	-58.2632915497794	-46.5829894461182	-71.742676248311	-19.9213388355265	8.83065517319092	
2435000000.00002	-13.1497480225969	90.6055982995068	-9.7000045407282	-60.4802226385961	-46.5342370202367	-76.0341557891905	-19.7537728371521	8.01429054725231	
2435333333.33335	-13.1267704189793	90.3598517544738	-9.69436401320907	-62.743460828492	-46.6543294888767	-75.3168341750951	-19.588365157655	7.39752142462232	
2435666666.66668	-13.1289414222193	90.0476201731761	-9.69720356726131	-64.9361782494336	-46.5549122093595	-77.3894828607056	-19.4589708693212	6.64779979014544	
2436000000.00002	-13.1138387736569	89.7170280241446	-9.69699832203137	-67.1154235724433	-46.7514747807235	-79.4143445096371	-19.3073249589064	6.03062676821193	
2436333333.33335	-13.0992716303548	89.4217408113706	-9.70276675571137	-69.3632816992795	-46.0824868508439	-82.2075484715634	-19.1741480500939	5.34986570018948	
2436666666.66668	-13.1034079531786	89.1470062081303	-9.69973770490371	-71.5689142592547	-46.4333387610231	-83.6575715022448	-19.0561963156155	4.7621045591522	
2437000000.00002	-13.0897314261487	88.7011623350212	-9.70013612227391	-73.7907572055971	-46.7389487212985	-87.7789735488387	-18.9405479182111	4.15596817264718	
2437333333.33335	-13.0825875833455	88.3885446460303	-9.69747704081156	-75.9916680213644	-46.4230782192639	-90.251772129576	-18.8295897645149	3.60036291992609	
2437666666.66668	-13.0837589960184	88.0223321024356	-9.69656842968939	-78.2162347423138	-46.64659636621	-93.4557065302321	-18.7312480510296	3.00935988342672	
2438000000.00002	-13.0880807849294	87.702873336957	-9.69710201394269	-80.3918190759015	-46.7848951932385	-92.562459384994	-18.6165700749271	2.47304027578935	
2438333333.33335	-13.0747878519375	87.2657735609542	-9.69079508847851	-82.6076040216553	-46.6506986163385	-95.7106511558535	-18.536470039571	1.8745309324237	
2438666666.66669	-13.077550724042	86.969838090235	-9.6926201109298	-84.7925932815714	-46.7219046134669	-98.1668137186895	-18.4459711064198	1.43111073713686	
2439000000.00002	-13.0691330284618	86.5435562230268	-9.69214875699448	-87.0156513869399	-46.5319593265155	-101.240333995457	-18.376310249886	0.938254837979809	
2439333333.33335	-13.0772667333042	86.1594252673518	-9.68523868679797	-89.2233026253602	-46.698476831659	-102.03926698461	-18.3097090156851	0.512547971695993	
2439666666.66669	-13.0739612324994	85.8636521106265	-9.68084119237388	-91.4224169591121	-46.5481796880159	-104.532816902717	-18.233604790878	0.12211548953753	
2440000000.00002	-13.0877788088947	85.4215732317	-9.67708539758203	-93.628759837831	-46.5580870586527	-106.079315604212	-18.1713730894087	-0.530431694346372	
2440333333.33335	-13.0839657152812	85.0553027376359	-9.67084282213915	-95.8039551101921	-46.9157081997594	-108.806769884492	-18.1235049607643	-0.871230992832149	
2440666666.66669	-13.0813157195977	84.7095231316124	-9.6712658756757	-98.022700455475	-46.4969612498712	-110.769203728498	-18.075428264698	-1.20194810495427	
2441000000.00002	-13.0957542783627	84.2132752203631	-9.66622242279479	-100.206055134233	-46.6854979657947	-113.894545535655	-18.0375149369535	-1.58146465691889	
2441333333.33335	-13.1014976465531	83.8504200346273	-9.66179587076359	-102.433404986374	-46.4398388852014	-115.718768917467	-17.9948219173504	-1.91910210288589	
2441666666.66669	-13.1094126097279	83.3684772443549	-9.65760970775686	-104.667259156678	-46.6512563332688	-118.387895795095	-17.9688596813295	-2.26607872018781	
2442000000.00002	-13.115780152347	83.0889730376068	-9.63965551965443	-106.817915862553	-46.5039195561795	-119.775247574043	-17.9430375352048	-2.60747114655039	
2442333333.33335	-13.1536654019439	82.6619044030554	-9.63890602793644	-109.032122117256	-46.4456617231794	-124.153762545718	-17.946582817941	-2.9859586666347	
2442666666.66669	-13.154211303206	82.3504848213435	-9.62561916036019	-111.287754002911	-46.420437266982	-124.914125508732	-17.9219861850713	-3.25419877981579	
2443000000.00002	-13.1912254549095	81.8703357173127	-9.62807917807966	-113.509605546647	-46.6051016216822	-125.853652643543	-17.908655370246	-3.48936276574008	
2443333333.33335	-13.196697312303	81.6018937445072	-9.61338068587535	-115.736117272398	-46.6535027023329	-128.521121744508	-17.9090022668769	-3.69105476002596	
2443666666.66669	-13.2338011431182	81.2292832371114	-9.60371471883166	-117.96079405711	-46.5378408729347	-131.172880202184	-17.9180590567092	-3.89363670003278	
2444000000.00002	-13.2580677345516	80.7692798040217	-9.59429945011443	-120.157246635612	-46.5785462570486	-131.523684193321	-17.9271618375526	-4.12426350180289	
2444333333.33335	-13.2775199039358	80.2860774146618	-9.58651948043194	-122.452172707058	-46.5417762957798	-134.235635884882	-17.9358239973484	-4.20724107444734	
2444666666.66669	-13.3152692745949	79.9604395617442	-9.58359004794998	-124.661752373304	-46.596690049087	-138.078455352613	-17.9510859467635	-4.36487127575487	
2445000000.00002	-13.3241249196013	79.5994132877585	-9.57077574828534	-126.873969837298	-46.4652683281124	-140.097155360373	-17.9944713521087	-4.5006428391316	
2445333333.33335	-13.3608854383117	79.0006787227032	-9.55982282676913	-129.105836090947	-46.6900666741472	-142.312048711623	-18.0225656460085	-4.47683349628218	
2445666666.66669	-13.391084882483	78.7084562966576	-9.55138645569476	-131.364364641781	-46.3989735806542	-144.008113430859	-18.0595752405236	-4.58330869160424	
2446000000.00002	-13.4198168411206	78.2155061162125	-9.5355593909234	-133.603988298522	-46.5212022988301	-147.257179662882	-18.0920255087053	-4.55926120546071	
2446333333.33336	-13.4501675298246	77.8035281192056	-9.53217553177505	-135.891899458038	-46.6358778562633	-149.31986209197	-18.1378150128664	-4.60427617144143	
2446666666.66669	-13.4638853157308	77.3534324430514	-9.52379999891551	-138.142524439965	-46.3407194742803	-150.685232615937	-18.1792726728901	-4.64186583632324	
2447000000.00002	-13.4984291036253	76.8350445311826	-9.51205644084474	-140.355484160498	-46.475731229402	-152.421988730487	-18.2380433444029	-4.51947665537212	
2447333333.33336	-13.5390475329489	76.4517718432639	-9.5110303535818	-142.650185505414	-46.652474046797	-155.748229235849	-18.2983057835301	-4.48356232525846	
2447666666.66669	-13.5482309826887	75.8452775176644	-9.5017917555642	-144.905549131198	-46.3529283048699	-159.164311181621	-18.360105288314	-4.26331434735909	
2448000000.00002	-13.5879605690303	75.4611508141887	-9.49665497869706	-147.130418731062	-46.5164554582636	-160.786051353028	-18.432591315671	-4.15056553737198	
2448333333.33336	-13.6138384331518	74.9599434494335	-9.48593177737355	-149.433986194452	-46.6465295203358	-161.768662818291	-18.4934889076378	-4.02791022505336	
2448666666.66669	-13.6637154271003	74.5212510257371	-9.4813210983512	-151.656778767556	-46.4679139479794	-165.31564994854	-18.5762938828398	-3.81482947952235	
2449000000.00002	-13.6991502311067	74.006869983672	-9.46710022975813	-153.996088073026	-46.2280327280264	-165.675157637862	-18.6373574169092	-3.55270537670443	
2449333333.33336	-13.7245105459361	73.5490410569614	-9.47209720906486	-156.233037020246	-46.2630183292576	-168.73185582973	-18.696388816915	-3.29640095632807	
2449666666.66669	-13.7631891890211	72.9585671856768	-9.45860701075177	-158.506666713284	-46.6306005493975	-172.748492126791	-18.8028922097783	-2.84649737480678	
2450000000.00002	-13.7907983262162	72.4807502224543	-9.45330897972706	-160.791750971458	-46.128912178336	-173.832143191929	-18.8645845085021	-2.54006523656437	
2450333333.33336	-13.8364525041127	72.0952366063996	-9.44386193126711	-163.063418165035	-46.3146296528587	-176.568535626439	-18.9653648268957	-2.21012904176468	
2450666666.66669	-13.8602550078407	71.5398628163629	-9.43652024380176	-165.324353583699	-46.2977791591881	-176.83234098926	-19.0428148039433	-1.90349854664457	
2451000000.00002	-13.8778876093326	70.995576527035	-9.43305004864833	-167.59622974299	-46.3904907682918	-179.078542018393	-19.1489474866768	-1.17213539574261	
2451333333.33336	-13.9087487328135	70.5296931656167	-9.42623908712349	-169.893894426729	-46.5281393895536	176.437332593533	-19.2397233378371	-0.799597797423265	
2451666666.66669	-13.9140009676619	70.0235136682205	-9.42498194096722	-172.140014883849	-46.417844868807	175.712755726042	-19.3245069147348	-0.25468760178707	
2452000000.00002	-13.9620377104221	69.4532198572736	-9.41908889503719	-174.433432968092	-46.339339504127	173.896587920315	-19.377775511429	0.291209733053692	
2452333333.33336	-13.9742461347386	68.8520974103607	-9.41765527117965	-176.698039616761	-46.2406582774668	169.659347092882	-19.4981470943242	0.899726094228027	
2452666666.66669	-13.9910204261054	68.3952332235131	-9.41209538440333	-178.956772723025	-46.3360727760978	169.950499750177	-19.5584361691304	1.50658899092829	
2453000000.00003	-14.0194784372852	67.9189787480649	-9.40823034984917	178.792118017925	-46.2355391476121	167.779356560536	-19.668299089866	2.26684564586618	
2453333333.33336	-14.0273423347704	67.3547924169378	-9.40919213624786	176.512035214237	-46.3620091166808	165.461481350755	-19.7650042327866	2.97168759571074	
2453666666.66669	-14.0371859596337	66.9095028828551	-9.40619089444385	174.261279370965	-46.3559688601784	162.940378066502	-19.826729444285	3.6730494656249	
2454000000.00003	-14.0441308503885	66.3023066938303	-9.39862601665055	172.006112643464	-46.2754984607957	159.93094146468	-19.9107359461159	4.41287663144149	
2454333333.33336	-14.0580955304895	65.7575619350435	-9.40137143038911	169.702090376646	-46.1831317825434	157.881530198175	-19.9991255697451	5.10299264382374	
2454666666.66669	-14.0663171730751	65.1912006717282	-9.40405791735958	167.458370018389	-46.4354171559741	156.724955206196	-20.0691466840297	6.06377320226149	
2455000000.00003	-14.0794219586172	64.6715589274185	-9.40171810915305	165.176792834513	-46.0886264222398	152.360920091445	-20.1473741532561	6.67461962442227	
2455333333.33336	-14.0797601753153	64.0947789653561	-9.40086142191161	162.932809412995	-46.130389350941	150.938146462294	-20.2196569367805	7.66126615564441	
2455666666.66669	-14.0702956442907	63.5616039943164	-9.39736342968054	160.668049737397	-46.394242493438	147.498272937584	-20.3215754906902	8.53080217142969	
2456000000.00003	-14.0752561632701	63.0364563109369	-9.40199290974513	158.424298531598	-46.1239940811235	146.755265837497	-20.3646961091177	9.23916612459539	
2456333333.33336	-14.0614932941826	62.410576165528	-9.40535545235131	156.156418338438	-46.0895481934654	145.522059362945	-20.428558967664	9.99168738523481	
2456666666.66669	-14.0566245351984	61.873044298943	-9.39672579734734	153.936092992346	-46.2327979780671	141.79533964501	-20.4890347834418	11.0365943467214	
2457000000.00003	-14.0509066288223	61.2779268716561	-9.40380145451605	151.666888767274	-46.0076534724796	139.331517167058	-20.5498111761032	11.8562161085072	
2457333333.33336	-14.0281534427398	60.8038265522815	-9.40389775763172	149.446979054802	-46.262123244297	137.322359587109	-20.6167857890196	12.7808378933047	
2457666666.66669	-14.0273158251469	60.245480976271	-9.40189857883843	147.19668222059	-46.3407047496568	136.356626785469	-20.6429574299339	13.7524657340779	
2458000000.00003	-14.0029847470862	59.636964917498	-9.40245986062859	144.931532075423	-46.0170994576425	131.924147774218	-20.6914682180288	14.5544876454707	
2458333333.33336	-13.9722077775324	59.0206792748338	-9.41101278102179	142.712659635981	-45.9798006300314	129.15899434238	-20.7111855692851	15.4590713631956	
2458666666.66669	-13.9505812639279	58.5174547508646	-9.40904063561426	140.474328990351	-45.9870003653215	128.631433057025	-20.7455493054607	16.3090920866983	
2459000000.00003	-13.9165084716202	58.0063529360196	-9.41287704181555	138.185121814866	-46.1114572616454	125.779958893691	-20.7939036164587	16.9470868792088	
2459333333.33336	-13.897808422631	57.4092709627339	-9.40938642840701	136.000656684986	-45.9747738198205	122.780104184468	-20.7994011661197	17.7032461816908	
2459666666.6667	-13.8631063145062	56.8370369592307	-9.40750821565079	133.695201137589	-46.290221837721	121.919074133074	-20.8536499654516	18.595593711598	
2460000000.00003	-13.8334326285079	56.3185839366985	-9.4145730876723	131.481421106184	-46.015793896583	119.24050569422	-20.8719139887577	19.262951137883	
2460333333.33336	-13.7929062742682	55.7058021249545	-9.41501958860606	129.218325920375	-46.0824317421748	116.394362138481	-20.8718056281111	20.0404662707659	
2460666666.6667	-13.753784995449	55.1382200944565	-9.41459917271783	127.034421420107	-46.1187040419444	114.493625474055	-20.8968339825897	20.7566264332919	
2461000000.00003	-13.7207821440096	54.6046532460213	-9.42113591464832	124.763508460417	-46.1641841080314	112.154439369587	-20.9136011058688	21.4858927744498	
2461333333.33336	-13.6785281389755	54.0313572126018	-9.41476962900141	122.465457472069	-45.9867067993929	110.302364026661	-20.9202837437964	22.0057931413967	
2461666666.6667	-13.6389598367551	53.4559573338284	-9.42205943245856	120.223603136325	-46.1659060858074	106.706657904461	-20.9154200036393	22.5866045825888	
2462000000.00003	-13.5899981485832	52.8493135171791	-9.41674537694298	117.96966013229	-46.1849074349154	104.90542595458	-20.9628716082585	23.2534225213083	
2462333333.33336	-13.5366102148624	52.3192256969075	-9.43362418941926	115.699944318338	-46.1691493421384	104.530630367419	-20.9685892976858	23.7666481576294	
2462666666.6667	-13.4961959424191	51.7377413879371	-9.4315622775072	113.416946017635	-45.9692620248699	100.114680601047	-20.9783625201378	24.2209895008102	
2463000000.00003	-13.4475514995641	51.1774872919722	-9.4338482090406	111.168282746921	-45.9807454099309	96.6156603010237	-21.0045501064553	24.5890305079299	
2463333333.33336	-13.3935031136559	50.5687973494175	-9.43448388377083	108.918301028313	-46.102906003921	96.5065179480816	-20.9871897202361	25.1416243684845	
2463666666.6667	-13.3465922271801	50.0622558906956	-9.43669012292116	106.641016412649	-46.1693507536324	92.3230983247912	-21.0190756590857	25.5447429525565	
2464000000.00003	-13.3029836537564	49.5395779361956	-9.44126664952153	104.393490646954	-45.8442751893424	92.2595242750503	-21.032558726427	25.8597890393226	
2464333333.33336	-13.2433123511831	48.9670095189303	-9.44800758312919	102.066604786611	-46.1427330647518	89.6570037061148	-21.0477288780855	25.9983589850248	
2464666666.6667	-13.1986510133047	48.4020275419383	-9.44431217536814	99.8529526048741	-46.1323804969241	87.3201873288648	-21.0476894158635	26.2794590062341	
2465000000.00003	-13.1454596231876	47.8771632717417	-9.45505201933321	97.5637547300998	-46.30988670221	82.9132314773576	-21.0547067068432	26.4112306814493	
2465333333.33336	-13.0920239649187	47.3802625191433	-9.45360243326074	95.2850216963855	-46.2997958443669	81.8009311327048	-21.0864300950636	26.6823453759028	
2465666666.6667	-13.0412341461243	46.8449654738589	-9.46569863052417	93.0081111905582	-46.1095102297306	80.2747857861454	-21.0768953784385	26.8207480849451	
2466000000.00003	-12.9900622689446	46.3388663311487	-9.46215902119451	90.735384448024	-46.0380744632953	78.116254041113	-21.1282834411669	26.871662405533	
2466333333.33336	-12.9351482913016	45.7972516271239	-9.46187677972734	88.4760239091938	-45.9822925961297	74.8286523818075	-21.1232934208486	26.9909022713647	
2466666666.6667	-12.8810621660026	45.3004256682109	-9.47045155674212	86.2049464978511	-45.9918979616176	73.2905264224293	-21.1477806554774	27.0024120541244	
2467000000.00003	-12.8244193465132	44.8594389712012	-9.47357462453603	83.9117847482829	-46.0519999566424	69.5922422571738	-21.1711077684211	26.8079486144392	
2467333333.33337	-12.7725176118338	44.3721552207979	-9.48096176230221	81.6097022144363	-46.1063207511938	67.7657701007418	-21.1705646571889	26.7977880643398	
2467666666.6667	-12.714215030554	43.8680037882115	-9.48063143694143	79.3983257949898	-46.3851736855168	67.0249596700697	-21.189786560276	26.8069706471344	
2468000000.00003	-12.6706638468974	43.4520948365219	-9.48868139483019	77.0852952055942	-46.5052252819062	63.9381445916065	-21.2045896027354	26.6454543256382	
2468333333.33337	-12.6106077557242	42.9727488129676	-9.48935113155553	74.818639033304	-46.1038016063288	60.5753563080078	-21.236059583588	26.2824851930507	
2468666666.6667	-12.5623768178684	42.5730029291393	-9.49712417589458	72.5202151985629	-45.8763840171805	58.8042034500267	-21.26274949089	25.9516815196192	
2469000000.00003	-12.5123053258671	42.1417944403416	-9.49981984136009	70.2532566523641	-46.2597570720298	55.9811852703968	-21.2523107397402	25.9098383060146	
2469333333.33337	-12.4663036691789	41.7152757807137	-9.50646355304321	67.9484346920597	-46.0006245367801	53.2302681194497	-21.3037730665426	25.6153756025719	
2469666666.6667	-12.4067565197302	41.3353109831874	-9.51053417456542	65.6599221314146	-46.2020106488439	53.1059942129686	-21.3268830852489	25.1948412490837	
2470000000.00003	-12.3641611571863	40.9144803300111	-9.51002552585493	63.3538550806674	-46.2327173259522	49.1928196524824	-21.3478566119799	24.7565074848993	
2470333333.33337	-12.3056970488472	40.5279259824336	-9.5202163232053	61.0786372074522	-46.2358560693407	45.9908948116226	-21.3869360877332	24.4015005190882	
2470666666.6667	-12.2589665526301	40.1298588995631	-9.52404203563024	58.8112242740825	-46.1142412740681	44.8087071961867	-21.4090860338775	23.8586929207524	
2471000000.00003	-12.2167044162215	39.7498247573033	-9.52775447243507	56.4994474954141	-46.0822401784614	42.6241385147505	-21.4494115984202	23.3584545411379	
2471333333.33337	-12.1685342695517	39.3762914576584	-9.52738233736719	54.2003285177295	-46.0780320616654	40.7019290225754	-21.4846020209364	22.8547586104183	
2471666666.6667	-12.1172234655024	39.0409990581823	-9.53022638092755	51.8826999683281	-46.3639427340456	37.3025161455334	-21.5092475639249	22.3078090042568	
2472000000.00003	-12.069666491769	38.6937465566	-9.53491267057513	49.6003879153452	-46.3885902590707	36.856360610542	-21.543617489748	21.608364034457	
2472333333.33337	-12.015553387792	38.3306727454456	-9.5388834602431	47.2890383038438	-46.4973795793675	34.6405599803148	-21.5747776525021	20.9961164282716	
2472666666.6667	-11.9599634692962	38.0727558721437	-9.53813781113147	44.9644376927535	-46.1246426954326	31.798069005343	-21.6243849104616	20.1651968902038	
2473000000.00003	-11.9120058376756	37.7889127459419	-9.55350077192902	42.6361954540574	-46.1877621299784	29.0368554402317	-21.6590212217352	19.5350924947092	
2473333333.33337	-11.8673842170852	37.4863428604633	-9.55174258768868	40.3267957576311	-46.1405654039331	27.3415493507219	-21.6860281519462	18.7349179823961	
2473666666.6667	-11.8084596326965	37.1661109845159	-9.55750773946342	38.0069850845602	-46.2818578900558	24.5505391707248	-21.6931861523785	17.8782520777418	
2474000000.00004	-11.7566686387485	36.9406182350397	-9.56469263217789	35.6830536916355	-45.9345989735184	21.1752005986215	-21.7475033911934	17.0100500800159	
2474333333.33337	-11.7223224021823	36.6243679371635	-9.56671873586261	33.3256744168312	-46.2205180701303	19.8606439498605	-21.774726366273	15.9986554609198	
2474666666.6667	-11.6651373905541	36.3116769765646	-9.57487920267018	31.0715363932867	-45.9979549767799	17.5463844227945	-21.8172131638903	15.0548635270537	
2475000000.00004	-11.6251446703465	36.0547059107193	-9.57467526349951	28.7375541652051	-46.193038125722	14.3944103276087	-21.8342560188496	14.2601905900574	
2475333333.33337	-11.5762463833683	35.7757826414608	-9.58666575463692	26.3941533291951	-46.2420712271172	11.8282559119362	-21.8561788742952	13.2882226115062	
2475666666.6667	-11.5345733162802	35.5176460862202	-9.58399733965738	24.0462635901624	-45.9749344984554	10.7686014807605	-21.8831262911104	12.3350406606534	
2476000000.00004	-11.4955973845694	35.2097436469588	-9.5885964747187	21.7345598523512	-45.9517191453779	6.7026706905457	-21.9058648520962	11.1751681581221	
2476333333.33337	-11.4535554889398	34.9481855974548	-9.59467088484427	19.3943407715482	-46.2503984083582	7.56814705231238	-21.8996221539486	10.2209566842705	
2476666666.6667	-11.4128924759399	34.6880376151742	-9.59364737903339	17.0510790839189	-46.081435306592	2.54758109160789	-21.9333718374773	8.99376831615398	
2477000000.00004	-11.3687210483802	34.4105419522762	-9.59705100852378	14.7385944705225	-45.8709400099239	1.50053418185734	-21.925134494253	7.81302673900395	
2477333333.33337	-11.3306829252296	34.1004078419198	-9.60525319293233	12.4081639682398	-46.0956575246317	0.447327530191247	-21.9253814389272	6.7438409593994	
2477666666.6667	-11.289629432204	33.8475546428677	-9.61034015464966	10.0374982143019	-46.1387922302295	-1.63212215479795	-21.9392196835289	5.59727450754984	
2478000000.00004	-11.2519825517782	33.5338045245464	-9.6147911597984	7.73735698345053	-46.3450307819289	-6.20841112812426	-21.9257075727745	4.57254848287594	
2478333333.33337	-11.2136460423699	33.2817590854218	-9.61798830465724	5.42970935637481	-46.0944212125577	-6.56104862853448	-21.9216659413936	3.26741825652512	
2478666666.6667	-11.1684750156659	32.9744945613672	-9.62476154924397	3.07269134918269	-46.3452141858866	-8.48529599770483	-21.9062734966531	2.04692568464743	
2479000000.00004	-11.1280820433199	32.7292040081477	-9.62355437002832	0.770286134529382	-45.9767814363853	-9.93493486129602	-21.8942934556044	0.844265296059706	
2479333333.33337	-11.0974134084028	32.390590820484	-9.62471878969737	-1.57595510257518	-46.1083899224049	-13.8967892742305	-21.8522460169863	-0.326785037918343	
2479666666.6667	-11.0692927321479	32.1162540481638	-9.63310314482435	-3.88664287246098	-46.0419048562971	-16.9488214921741	-21.8454443938627	-1.46324980329073	
2480000000.00004	-11.0301316444144	31.8588398006761	-9.63681677737424	-6.21438133931642	-45.9481580962365	-18.5767683859697	-21.8143926617171	-2.81538919509603	
2480333333.33337	-10.9980505850687	31.5076631993724	-9.64024768338648	-8.54611184106359	-46.0801884064499	-20.3114510519912	-21.7852456928381	-3.97223809490696	
2480666666.66671	-10.9704625607537	31.2060558089602	-9.64807125335076	-10.8548796736253	-46.3184856102002	-23.6409423207529	-21.7309768623818	-5.23647881674221	
2481000000.00004	-10.9387846960896	30.8470096777708	-9.64951342388014	-13.134653973722	-46.2113556846908	-24.6717590508514	-21.704824203497	-6.42885397801939	
2481333333.33337	-10.9107075512815	30.5381606144484	-9.65459700988601	-15.4786942810948	-46.029526792219	-27.8613198868268	-21.6393847791904	-7.58442568690805	
2481666666.66671	-10.8772309094591	30.1901013441749	-9.65664381074505	-17.7959772417448	-46.1484193944158	-31.3550317302574	-21.5864288308137	-8.80323533277331	
2482000000.00004	-10.8591228002534	29.8665609838026	-9.66263435329646	-20.0938177578621	-46.0221530246771	-31.0972320222524	-21.5414302148627	-9.95494339607083	
2482333333.33337	-10.8448719884463	29.4804477126766	-9.6630634763176	-22.4124701145339	-46.1117860509556	-34.1510199776375	-21.493368427437	-11.1067346513668	
2482666666.66671	-10.8163874485315	29.1407293906406	-9.66131535461352	-24.7169209040028	-46.394779241784	-37.4507710049026	-21.4007310713538	-12.3435170121788	
2483000000.00004	-10.8060654171975	28.7665187815809	-9.6664679387715	-27.0166714724034	-46.009009553814	-39.6801856257543	-21.3367909914784	-13.5840168310429	
2483333333.33337	-10.7738237276098	28.4511210917243	-9.66181824475527	-29.3503877083592	-45.9232905527075	-41.7316462586153	-21.2671275334208	-14.6698028637541	
2483666666.66671	-10.7576639240003	28.0908787035345	-9.66784591799835	-31.6275263070567	-46.2261561895009	-43.2133721568069	-21.1870605136881	-15.7735457466514	
2484000000.00004	-10.750507394603	27.7208964970688	-9.66206623182746	-33.9195427740043	-46.2313567762486	-46.7198291050421	-21.1078078456339	-16.9264984951412	
2484333333.33337	-10.7294177292329	27.2812599280729	-9.6606079670571	-36.1882816390653	-46.254457642855	-49.6164115770373	-21.0302711361336	-17.9788472629384	
2484666666.66671	-10.7226421161904	26.9663106908795	-9.66674809171271	-38.4734515374805	-46.2688093363928	-50.7870075930231	-20.9573891176182	-19.0546893459458	
2485000000.00004	-10.7049100434954	26.5715432890174	-9.66660030230868	-40.7693601097008	-45.9984101151336	-52.6264038434382	-20.8648927191025	-19.9325669895862	
2485333333.33337	-10.701957485943	26.1622502804228	-9.66317014039183	-43.0505240393734	-45.9713498749697	-54.673026288794	-20.7812710435995	-21.0931951630161	
2485666666.66671	-10.6929307198656	25.8838543555241	-9.66276785337449	-45.3478712491028	-46.0564110716918	-55.9858741645144	-20.6990021260832	-22.094404787014	
2486000000.00004	-10.688395887236	25.386924237348	-9.66767381454377	-47.6225055678252	-46.1207071367644	-58.6453476219446	-20.6113252887569	-22.9832679499637	
2486333333.33337	-10.6838718446579	25.0612474357269	-9.65633514496813	-49.8974526758908	-46.0734085231542	-63.0529572666654	-20.5280648296601	-23.9865376744337	
2486666666.66671	-10.6763596644306	24.5675442926439	-9.66260726349735	-52.1807488188813	-46.3803952759438	-63.4591969838291	-20.4375213884604	-24.9776358830036	
2487000000.00004	-10.6835939306053	24.1480387709076	-9.6583891539279	-54.5140680533214	-46.4814584369821	-66.4257097111214	-20.3659996168336	-25.7362134042928	
2487333333.33337	-10.6815445945785	23.7251521516024	-9.65568610488449	-56.7532245469203	-46.2128105128347	-69.2996206353431	-20.2508811425075	-26.6850024490674	
2487666666.66671	-10.677907244415	23.2875143762345	-9.65531196691892	-59.0696044473667	-46.2814831568765	-70.0982476892209	-20.1899871457509	-27.5422945818968	
2488000000.00004	-10.6944313439782	22.7953759681475	-9.65187036820433	-61.3462214327995	-46.3386835553006	-73.5115762935883	-20.1119232411021	-28.4735643405042	
2488333333.33338	-10.7035887989397	22.3661752519927	-9.64963723347275	-63.6305669252172	-46.2565453968845	-75.7875251289029	-20.0292023991634	-29.1891017394379	
2488666666.66671	-10.7101140386516	21.9345749958058	-9.65419359880871	-65.9112475794097	-46.3391371975618	-77.5004436153002	-19.9391716951898	-29.9992985107912	
2489000000.00004	-10.7172545567658	21.461310596479	-9.64158405797862	-68.2073529194603	-46.503141819804	-79.1136313158542	-19.8643319667958	-30.7909553703037	
2489333333.33338	-10.7434254156435	20.9474162551321	-9.63923756442394	-70.453635120926	-46.1983970674145	-82.501989740732	-19.800590367859	-31.6641164196228	
2489666666.66671	-10.7510934396989	20.5484909363997	-9.63426095159619	-72.7585453029002	-46.0026719719917	-84.7221066376138	-19.7258307676738	-32.3631492100864	
2490000000.00004	-10.7710714091243	19.9435104170089	-9.62742126121155	-75.0612514368349	-46.0900190190995	-86.6149187830576	-19.6629414109751	-33.1104178974418	
2490333333.33338	-10.7877822042909	19.4133323236982	-9.62796847617977	-77.3175402636163	-46.2644544953851	-89.4520657250829	-19.5929251034491	-33.7700355348223	
2490666666.66671	-10.8087482332749	18.9387118198962	-9.61914142692482	-79.5909931879305	-46.1332231631518	-90.717260034931	-19.5286523937431	-34.585907992153	
2491000000.00004	-10.8370238803377	18.392412856831	-9.6162719940801	-81.907100090821	-46.34945851555	-92.8750160060185	-19.4698595828942	-35.3069269765994	
2491333333.33338	-10.8663968752349	17.8946549395793	-9.61264582495126	-84.1617838458778	-46.3503574184447	-95.8268095616451	-19.4196010999308	-35.9569306921549	
2491666666.66671	-10.8867861781589	17.3547928446288	-9.60989226628585	-86.4302372790128	-46.5429091752402	-97.8759373751458	-19.3651308587716	-36.4845223754431	
2492000000.00004	-10.9296130419384	16.8699718179663	-9.60267083711333	-88.7337944789709	-46.1895270569731	-100.400984448646	-19.3102211099272	-37.1116446005977	
2492333333.33338	-10.9613109378563	16.3014573644427	-9.60443910773582	-90.9653155605738	-46.2505952310619	-104.261981403473	-19.2739164610606	-37.7770248111047	
2492666666.66671	-10.9994993558759	15.7603576479256	-9.59812715531074	-93.2918257060263	-46.4342400800299	-106.084630656494	-19.2273692646745	-38.2866434356455	
2493000000.00004	-11.0327175494243	15.184348638113	-9.59480070631024	-95.505207675437	-46.1507952666538	-107.960673165281	-19.1878370025702	-38.8945351974519	
2493333333.33338	-11.0571618671169	14.6507646375452	-9.58845312056925	-97.8028263132189	-46.3386662161111	-109.266302849795	-19.1814207014396	-39.3937802604463	
2493666666.66671	-11.1060324459581	14.13097440661	-9.587337510721	-100.099662526022	-46.5519449392669	-111.269553282431	-19.1532806754043	-40.074552359506	
2494000000.00004	-11.1507852203433	13.5365815393901	-9.57758257964221	-102.352877990093	-46.2036198932707	-113.323883179854	-19.1247504247737	-40.5650125757336	
2494333333.33338	-11.1841684145833	12.9617205880824	-9.57777917939871	-104.622548995398	-46.51625474775	-115.434131809947	-19.1396550374723	-41.1335425234883	
2494666666.66671	-11.2175131523012	12.4040770457763	-9.57610159209856	-106.876456065839	-46.4038217389053	-119.335544175653	-19.1205041446087	-41.5687639607828	
2495000000.00005	-11.2621481039273	11.7471562189858	-9.57108068719877	-109.171352715512	-46.2499663785729	-120.794138181438	-19.0964604508026	-42.1167347130866	
2495333333.33338	-11.3018492001368	11.2848763453368	-9.56707146969666	-111.43766857475	-46.4004501584049	-124.591929199551	-19.0987225574176	-42.4401846659089	
2495666666.66671	-11.3436168712622	10.6011418859294	-9.56528335810746	-113.702481046889	-46.4177431318423	-124.768858701422	-19.1117678845174	-42.9889703984134	
2496000000.00005	-11.3932631832765	10.08685048265	-9.56004945389158	-115.957096683075	-46.0958598329992	-125.314856218182	-19.1424028116523	-43.3720979391813	
2496333333.33338	-11.4371246904767	9.45120093031359	-9.56045669930644	-118.237406537975	-46.4096102871269	-128.033158133483	-19.1655377941733	-43.7993568087942	
2496666666.66671	-11.4883310428229	8.85549658569781	-9.55909264894454	-120.527742430648	-46.2192219624076	-130.89685937784	-19.1913857970182	-44.2651803860101	
2497000000.00005	-11.5258377113465	8.33598120596961	-9.55672129668945	-122.812027431092	-46.3902743984728	-135.533924018966	-19.2436632723893	-44.6262359238868	
2497333333.33338	-11.570365521165	7.75548652185353	-9.55667947805525	-125.093904872085	-46.1206886164152	-137.313669474637	-19.2710936244973	-45.102146064251	
2497666666.66671	-11.5999604542545	7.08402039864038	-9.54942656252095	-127.376560791108	-46.1299834839546	-140.367989474658	-19.3531906988802	-45.4905590127587	
2498000000.00005	-11.6522592551729	6.51303329208789	-9.55234868352126	-129.683466305798	-46.1634075542587	-141.232585993719	-19.3994878613399	-45.8612838586477	
2498333333.33338	-11.6866854993005	5.85876375625327	-9.55436547282918	-131.915825607832	-46.3565090469744	-144.559174492206	-19.4422427797405	-46.2285571951158	
2498666666.66671	-11.7335680845531	5.26050440948561	-9.55441999513038	-134.202099079614	-46.4111879020561	-148.109206024159	-19.5278562146173	-46.579635434302	
2499000000.00005	-11.7692325052717	4.66408575562733	-9.55571113794334	-136.426116755021	-46.3013658955944	-147.535406741287	-19.6308059137696	-46.8200124869228	
2499333333.33338	-11.8001018668305	4.10215388349033	-9.55523128884889	-138.740946462076	-46.2167904798289	-151.020454785428	-19.701801106395	-47.2616554318126	
2499666666.66671	-11.8561442346985	3.49416103592334	-9.55221136013134	-141.018079680874	-46.3114325351234	-152.381271537493	-19.8081065822236	-47.4458265796465	
2500000000.00005	-11.8961394698091	2.78733924424516	-9.56294047108287	-143.289851677525	-46.1571273739909	-155.189123639232	-19.9160252743528	-47.5464132737142	
2500333333.33338	-11.9257798026232	2.24418029186903	-9.56552486176597	-145.533928339807	-46.2381389323806	-157.359926178044	-20.0489052033003	-47.8521153134533	
2500666666.66671	-11.9653680340333	1.63989960273881	-9.56529479176848	-147.858495672339	-46.4318721884431	-158.955545865889	-20.1517650802583	-47.9896933055295	
2501000000.00005	-12.0019606797754	0.983150534043358	-9.570459017641	-150.15929715703	-46.3954649048032	-163.165142519026	-20.2990126918112	-48.2439425252941	
2501333333.33338	-12.0351684265962	0.323538807921428	-9.57571050763437	-152.427365854827	-46.4451280651981	-164.407400626436	-20.4484563581696	-48.1482239691014	
2501666666.66672	-12.0689054518442	-0.312964886587661	-9.58100553787039	-154.709579088035	-46.3645811828588	-167.376699771355	-20.5918711922789	-48.4689993035425	
2502000000.00005	-12.1080948220828	-0.983109498402467	-9.57851252124189	-156.937223967291	-46.4183172086542	-169.538662400678	-20.7660488220842	-48.2910175959119	
2502333333.33338	-12.1476373532165	-1.69725786613674	-9.58363833667341	-159.210952973379	-46.1604730810803	-170.605177412987	-20.922727323453	-48.3040316160831	
2502666666.66672	-12.1766345528141	-2.40411117742761	-9.58901631306067	-161.500984687435	-46.3798898835585	-172.615902971667	-21.1351611871964	-48.2119082706436	
2503000000.00005	-12.2129960085572	-3.05788776960584	-9.59705488676507	-163.750566769293	-46.1615064427187	-174.630820983115	-21.3375486915334	-48.1226773259599	
2503333333.33338	-12.2395128455141	-3.8026206830598	-9.60428761425795	-166.022590818523	-46.170808519731	-177.912498007981	-21.5298337720586	-47.7060628625617	
2503666666.66672	-12.2716098720804	-4.53650063181331	-9.60884608517648	-168.31697384923	-46.5423342842252	-178.701557678771	-21.7529584936972	-47.5786891670181	
2504000000.00005	-12.3024134445915	-5.24341503757301	-9.61709243637162	-170.574429722317	-46.4335713359257	179.890808629207	-21.9822961292087	-47.3122110803422	
2504333333.33338	-12.3233705931953	-5.97254676448228	-9.6276311790258	-172.78600999864	-46.2904250477581	174.224905011144	-22.2495674726514	-46.8471760504759	
2504666666.66672	-12.3541045458487	-6.70953074279894	-9.63321007952213	-175.083239105802	-46.1541594705114	171.609256082675	-22.4928864258648	-46.3332237534857	
2505000000.00005	-12.3722623129151	-7.39258751349987	-9.63994967981126	-177.340511242852	-46.2940434079011	171.643261460441	-22.7992347131978	-45.7814300753076	
2505333333.33338	-12.4067809039689	-8.13857720469389	-9.65271068180973	-179.57806101187	-46.3552484968634	167.638015462725	-23.0733700225983	-45.1800815258893	
2505666666.66672	-12.4264351764148	-8.86569896841057	-9.65794934192498	178.143763687747	-46.1057051722765	166.347158126355	-23.3357466477541	-44.3919761180926	
2506000000.00005	-12.4388021437981	-9.68550285136377	-9.66362831955086	175.892760730016	-46.3446887801321	162.953220346748	-23.6431932974279	-43.1476065061529	
2506333333.33338	-12.4573279110134	-10.4102969253928	-9.66943296925605	173.650092865593	-46.5996466522591	160.463059785241	-24.0311951456764	-42.1909222348065	
2506666666.66672	-12.4767844967582	-11.1571190660576	-9.6796419081693	171.400366257594	-46.3714534189772	159.911651565771	-24.3492467541051	-40.9521770705117	
2507000000.00005	-12.4954328909526	-11.864863361134	-9.69244142079875	169.085350079968	-46.4255797783532	158.210378400201	-24.6437440904245	-39.504626331498	
2507333333.33338	-12.5090596934799	-12.6842277956766	-9.69541216356749	166.889576102732	-46.3308425050783	154.993319365862	-25.0072609585839	-37.9618880809108	
2507666666.66672	-12.5138445615579	-13.3897647823553	-9.70880800543409	164.624117285191	-46.301583524889	153.448646713193	-25.3842960080931	-36.1383910883203	
2508000000.00005	-12.5289241837647	-14.2394983982115	-9.72341059846765	162.394157414933	-46.1982326496815	150.721505822996	-25.7436147636812	-34.1216188347839	
2508333333.33338	-12.5468855093895	-15.046613079317	-9.72909353358855	160.147242932405	-46.3648679329383	147.536277322576	-26.0960328891801	-31.7784011251231	
2508666666.66672	-12.5539171510829	-15.8431300113011	-9.73976809396718	157.878971697101	-46.5033801014464	145.616543546492	-26.4468796581603	-29.1594119228136	
2509000000.00005	-12.559587833096	-16.6714879519589	-9.75273321488746	155.629196448231	-46.1059017511275	142.821938687522	-26.7912757707315	-25.8783467310007	
2509333333.33339	-12.5683875520788	-17.5354213688665	-9.76331197613895	153.391845611325	-46.3941106526722	140.550406217049	-27.1185731456577	-22.9589730248318	
2509666666.66672	-12.5756356983462	-18.2935217054618	-9.77554711392672	151.172553506979	-46.3746827893495	140.24004398525	-27.354569572228	-19.5127139734626	
2510000000.00005	-12.5816349701694	-19.1478710968717	-9.78437479564314	148.884659276448	-46.4051751673088	136.243356526466	-27.6387407289834	-15.6925854537239	
2510333333.33339	-12.5853138524689	-19.9476873107981	-9.79575272980824	146.6412264772	-46.2792290552933	133.257084208425	-27.8991573641499	-11.351249252325	
2510666666.66672	-12.5861635770608	-20.7035132121204	-9.80716028147364	144.418392744903	-46.2677503539078	131.911357437204	-28.0550582135531	-7.31334960618316	
2511000000.00005	-12.5854183346828	-21.4741254543019	-9.81508304212942	142.16763516995	-46.0611863476078	130.445713048121	-28.0834264525715	-2.72499612366566	
2511333333.33339	-12.5851409635464	-22.3056860945642	-9.82884284651362	139.892124817839	-46.296913392193	128.221885369687	-28.1541687043247	1.98538632975889	
2511666666.66672	-12.5879381942173	-23.0791597963962	-9.84281023313354	137.691474844196	-46.3815215883015	125.261732846206	-28.0877033010472	6.38633002587761	
2512000000.00005	-12.5951631422907	-23.8362433672835	-9.85552790681082	135.429670831467	-46.5046079178027	121.144783726486	-27.985638292288	10.7739803901379	
2512333333.33339	-12.5835218279524	-24.6328776504505	-9.86729619853229	133.196970888293	-46.3375059541249	119.881507683937	-27.8021544721097	15.0407982648669	
2512666666.66672	-12.5809688899611	-25.3408073037243	-9.87778319688586	130.933568349539	-46.5560420076877	117.891835233068	-27.5701266127319	18.6800052004573	
2513000000.00005	-12.578737154821	-26.0852660963941	-9.89122752845418	128.677718682718	-46.2705770575881	115.684865929589	-27.3264007800137	22.6571423587092	
2513333333.33339	-12.575453356967	-26.7829276337856	-9.90745419942927	126.445282139275	-46.3624623798479	115.038727780384	-26.9959997248988	25.994995232132	
2513666666.66672	-12.5739902670494	-27.4985234717475	-9.91148528021052	124.197347797491	-46.1308034495076	111.259703032883	-26.7118575036771	28.8644237711726	
2514000000.00005	-12.5728623635366	-28.2972026470667	-9.92266682832054	121.94254553572	-46.23422259357	107.650593459	-26.3675162657095	31.9049996440338	
2514333333.33339	-12.5719871558014	-29.0185450080993	-9.93820551491081	119.718871664421	-46.5783370625683	105.450827031235	-25.9895486101587	34.0036972203635	
2514666666.66672	-12.559801808852	-29.7531478089527	-9.95062349374848	117.462313201931	-46.3387651716027	104.065843647422	-25.604400863354	36.4232380147068	
2515000000.00005	-12.5608697262586	-30.474000289067	-9.96141648505754	115.159443006598	-46.4752280017438	102.010445341245	-25.3066210081117	38.4310986007748	
2515333333.33339	-12.5538197944597	-31.1524521234682	-9.97341824300705	112.91278562234	-46.5332974604782	100.052974540092	-24.9571548850967	40.2453647167883	
2515666666.66672	-12.553509012308	-31.8238460726629	-9.98258765615784	110.635913846201	-46.5718060105337	97.3407820811918	-24.622293886336	41.760974764383	
2516000000.00006	-12.5486618305955	-32.5239942470655	-9.99944445057659	108.352188888522	-46.4834859204036	94.9124350147666	-24.260964417546	42.9483550245889	
2516333333.33339	-12.5412949797128	-33.1848086205767	-10.0091994921516	106.1292762092	-46.5654358449151	92.9225774804335	-23.9388441953922	44.1706418973144	
2516666666.66672	-12.5378366596499	-33.8196234502588	-10.0236149414358	103.846902985407	-46.4661754881393	90.4265737248929	-23.6510514218128	45.1380727650675	
2517000000.00006	-12.542623007119	-34.4586910434537	-10.0300993516104	101.51945731413	-46.4120083472411	87.973136179838	-23.3294627632418	45.8459410029338	
2517333333.33339	-12.5399758564192	-35.1173355373763	-10.0410587210471	99.3228266652902	-46.4438679153918	86.8230891535126	-23.0666490693512	46.7139385555528	
2517666666.66672	-12.5364892970625	-35.7047215758424	-10.0540788149436	97.054094260234	-46.40327533379	84.6960592034733	-22.7774320504271	47.2534773159897	
2518000000.00006	-12.5382845763164	-36.2549333433939	-10.0711594441687	94.7976489699281	-46.5420194277479	81.3176631769426	-22.5363429765887	47.628301352026	
2518333333.33339	-12.5374091295873	-36.849202643538	-10.0838924574327	92.5086545112168	-46.7003324293911	79.0072483150626	-22.2815152418052	47.8462884791036	
2518666666.66672	-12.5357200103746	-37.3936603515621	-10.1025743094148	90.253357565008	-46.8286839191634	78.2318235777607	-22.0556137496947	48.1732661381647	
2519000000.00006	-12.5432527576091	-37.9616753230409	-10.1106061611732	87.9630579718181	-46.5244310355854	74.4492075511736	-21.8545652985451	48.6210386503152	
2519333333.33339	-12.5383961672419	-38.4638910526048	-10.1218582661897	85.7220820796797	-46.6091971824206	72.670133695594	-21.6751129181272	48.5139225432119	
2519666666.66672	-12.5438855122867	-38.9214024664155	-10.1263013369545	83.3843075866321	-46.7226676817576	70.1023830014484	-21.4598054587408	48.8592201088167	
2520000000.00006	-12.5478124666202	-39.4657355032211	-10.1480583461224	81.1963988973708	-46.6606723212575	66.3567268621278	-21.2620372277213	48.7055978835541	
2520333333.33339	-12.5521999387308	-39.9326853501775	-10.153208082135	78.9253693188329	-46.4222535169392	66.2604286428755	-21.1171418104018	48.668736735094	
2520666666.66672	-12.5603601300424	-40.3543524288385	-10.1713172710014	76.6659880228667	-46.7803157858796	64.0994882166063	-20.9669914659813	48.8803958594113	
2521000000.00006	-12.5728196194102	-40.8461081427942	-10.1842829400003	74.3980963049995	-46.5625200936185	61.8467361332247	-20.8193640024823	48.5706453495355	
2521333333.33339	-12.5735126676754	-41.2604094752259	-10.1939482511723	72.1669339158048	-46.5313172796515	58.7809530495494	-20.6796942881733	48.4518147472367	
2521666666.66672	-12.5794093172823	-41.718865950922	-10.2077519155297	69.8815328598589	-46.6517706108131	58.8400132553322	-20.5638821271131	48.1159167495771	
2522000000.00006	-12.5877907121032	-42.1487902311619	-10.2187667542958	67.6296135469073	-46.5383398161169	54.2137206013345	-20.4690711814166	48.0053159455288	
2522333333.33339	-12.595462851512	-42.4716866717772	-10.2335018080143	65.359352817246	-46.654331015324	53.8893476852305	-20.3483394098097	47.5795562329908	
2522666666.66673	-12.607440572393	-42.9303774598522	-10.2431549085934	63.1204229265081	-46.7501606295443	51.1828991501486	-20.2676430065984	47.427174352841	
2523000000.00006	-12.6201420521995	-43.2774756330628	-10.2541626979338	60.8315549734243	-46.6534384395658	47.6665564043823	-20.1707154272647	46.9691069474645	
2523333333.33339	-12.6301121833844	-43.6673749999849	-10.2675842064617	58.6007578458607	-46.5035513809328	45.2944084762273	-20.1098841926749	46.8167943029821	
2523666666.66673	-12.6450907102409	-44.0493276538796	-10.2762553049774	56.3299430269577	-46.7899718926123	44.4835763451128	-20.0306682673732	46.2270980085527	
2524000000.00006	-12.6588176420026	-44.325063261149	-10.2899250189585	54.0803152460767	-46.8153457788378	41.2302344348175	-19.977848684997	45.9596055978566	
2524333333.33339	-12.6721945783387	-44.6026703196628	-10.3046310469142	51.83402848523	-46.5173767106185	40.2797766124341	-19.9373613679706	45.3948754015539	
2524666666.66673	-12.6918355144705	-44.9353624477126	-10.317245767216	49.5927863281403	-46.7024960974635	38.7082782208401	-19.9240166673728	44.9366593101616	
2525000000.00006	-12.7056400540039	-45.3375126830759	-10.324043460949	47.3841897336993	-46.7253847939897	34.8741676938043	-19.867639962924	44.6085157763483	
2525333333.33339	-12.7245476331817	-45.5153410244744	-10.3356969133763	45.1546802717174	-46.5978611328713	34.2456162436536	-19.8598151338074	44.0419890534904	
2525666666.66673	-12.7427913621819	-45.80368395691	-10.3514577629372	42.9487125349826	-47.0782275437962	31.0452702833545	-19.839703914584	43.3917288689167	
2526000000.00006	-12.765088451591	-46.0482558402177	-10.3527802015674	40.7255490365773	-46.7350306268615	28.2466755479932	-19.8569601629935	42.8833634511037	
2526333333.33339	-12.7846258318654	-46.2533457436563	-10.3620811586089	38.4912707427391	-46.9072544778185	26.6624005871755	-19.8367318156092	42.3503381337701	
2526666666.66673	-12.8144812796783	-46.4898494492883	-10.3621632253171	36.2831705548804	-46.7669621425738	23.9324328111067	-19.8511356383493	41.7312943089375	
2527000000.00006	-12.8436522626408	-46.7836382819406	-10.3742741160583	34.0861690063435	-46.9915497988254	22.6903209979016	-19.8708419561166	41.1218378923321	
2527333333.33339	-12.8688119976358	-46.9958035015207	-10.3773629737758	31.924787769534	-47.0833278210355	18.9609273183875	-19.89587580993	40.5303586443742	
2527666666.66673	-12.8883726882923	-47.181809469027	-10.3892677088422	29.7395401602346	-46.9848417905041	19.6112804297923	-19.9200744438292	39.7785522140395	
2528000000.00006	-12.9122351468958	-47.3238525429031	-10.3900861309083	27.5292086696206	-47.104521581049	15.5703097386726	-19.9672126675016	39.2392813575502	
2528333333.33339	-12.9347262228127	-47.534964368297	-10.3923792689088	25.3284692353657	-46.8552808208551	13.8467975901996	-20.0191196615016	38.5346456711343	
2528666666.66673	-12.9657147794595	-47.7502654902487	-10.390324865445	23.1527670897498	-46.819736417733	10.3246411502205	-20.0682597630182	37.8207976124315	
2529000000.00006	-13.0017491012519	-47.9552421097882	-10.3990520678656	20.9932624863055	-46.8898831722835	8.33736801789559	-20.1240120380472	37.1795177865262	
2529333333.3334	-13.0335033893081	-48.1070487715014	-10.3963630689303	18.8019893713544	-46.8629809852101	5.08888988463247	-20.2107528893246	36.3512474179389	
2529666666.66673	-13.0573417302057	-48.3055560367098	-10.3902729635596	16.6650589884838	-46.9630227729475	4.7297128377369	-20.2810408491402	35.5537374476792	
2530000000.00006	-13.0866788459423	-48.5175638935549	-10.3878555624359	14.4500933365435	-46.7036694608016	1.0094805282594	-20.3669681458568	34.8697678941063	
2530333333.3334	-13.1375645781141	-48.6605897864475	-10.3829853651946	12.2363797803045	-47.0626899031962	0.70685494921669	-20.4513640239263	34.1704187854249	
2530666666.66673	-13.1681713533123	-48.8855593474368	-10.3794994658006	10.1352079165177	-47.2894364075145	-1.12925912334428	-20.533724168951	33.3606390601898	
2531000000.00006	-13.2053211920809	-49.050736558073	-10.3752607934115	7.93876155601483	-46.8971107440328	-6.78331486796035	-20.6507602307785	32.5392118085081	
2531333333.3334	-13.2466961290232	-49.3158875518325	-10.3724627648804	5.7257254898939	-46.9062735534448	-6.36454105026466	-20.7471212975322	31.6755097199549	
2531666666.66673	-13.2814777715405	-49.4876546800269	-10.3649698982709	3.54350431618634	-46.7583964325691	-8.58196216427496	-20.8352433315987	30.8488626420431	
2532000000.00006	-13.331887995983	-49.565137390998	-10.3529891666339	1.32613068537871	-46.9192582576457	-10.6924302302692	-20.9789957514815	30.0613070827411	
2532333333.3334	-13.3766760822539	-49.8242544051592	-10.3477078806912	-0.81611001183451	-46.8883264207972	-12.5510331850111	-21.1029898862769	29.0724085970688	
2532666666.66673	-13.4202339471558	-50.0269101590937	-10.3360593863561	-2.98670129708413	-46.7903086231361	-14.5401618634192	-21.2120910878932	28.3225346693061	
2533000000.00006	-13.4698036966479	-50.1045762129882	-10.3255269519207	-5.21544821542271	-46.9114479394515	-17.5332612349808	-21.3663713436569	27.2663660567361	
2533333333.3334	-13.5087045580699	-50.4007434274053	-10.3155450685425	-7.40093927630767	-46.9651617971343	-20.7294549801717	-21.4968108572898	26.5020027712726	
2533666666.66673	-13.56439254698	-50.5218751623553	-10.3013453797021	-9.5950191308242	-46.9597834005877	-21.8741972601776	-21.6595304866582	25.4288901317781	
2534000000.00006	-13.6247980430832	-50.7415369786234	-10.2870629575161	-11.8247610113518	-46.6904951576768	-24.4200060949455	-21.8185375021253	24.4260220831931	
2534333333.3334	-13.6680971524661	-50.9423243655356	-10.2782017332791	-14.0312371485851	-46.8810130454332	-24.6315051446694	-21.9782845227016	23.4531137101639	
2534666666.66673	-13.7132655041402	-51.0718997462827	-10.2633826081511	-16.2239228706573	-46.540723312446	-29.0542876784253	-22.1290248916483	22.4693458876062	
2535000000.00006	-13.7680902048345	-51.2206907792282	-10.2567635706085	-18.451748811053	-46.7389037454185	-31.8054041143832	-22.2904891908371	21.4132626028082	
2535333333.3334	-13.8345385360356	-51.3961340774573	-10.2371473202444	-20.6840373844085	-46.6809882247126	-31.1231040714046	-22.4710583514965	20.5108540285548	
2535666666.66673	-13.8710531008496	-51.6677632547067	-10.2321582163508	-22.8994783187352	-46.6770612204931	-35.2538325129145	-22.6194115913317	19.533184065928	
2536000000.00006	-13.927370462036	-51.814044053271	-10.2160088290843	-25.1795788406019	-46.5753864390799	-36.1846402456592	-22.7987253631865	18.3721070647404	
2536333333.3334	-13.9873824356612	-52.0178351831447	-10.2049423508184	-27.3960594765623	-46.8683794242875	-40.0282791459348	-22.9708966326553	17.3904330197795	
2536666666.66673	-14.0516502910834	-52.2189859196151	-10.1923745802497	-29.6333315112668	-46.7658720534882	-39.9445129015345	-23.1658734674129	16.2181642694789	
2537000000.00007	-14.1003121301174	-52.404914734576	-10.1764534911865	-31.9183515368378	-47.0788447791721	-43.7163625911648	-23.3348878466279	15.1078042397196	
2537333333.3334	-14.1746413277125	-52.5780471170423	-10.1679753639236	-34.1401786877643	-46.6333557015751	-45.9913137378135	-23.5170212725188	13.9954743912115	
2537666666.66673	-14.2208512886557	-52.8284873338905	-10.1556413518703	-36.4014960604528	-46.7655441527726	-47.5192152564219	-23.7147224408852	13.0798455377252	
2538000000.00007	-14.302414729654	-52.9346967138489	-10.1451022224535	-38.69574144722	-46.7636448588451	-50.9807727720335	-23.9029467346614	11.9660505273745	
2538333333.3334	-14.3548490987829	-53.1864576248833	-10.1323612358504	-40.9510665776313	-46.8172901025775	-53.5678896749185	-24.0728003682949	10.9506242180355	
2538666666.66673	-14.4415355885273	-53.3959168097034	-10.1222370657164	-43.2354773334465	-46.6048447638972	-53.8388390932409	-24.2353995814532	9.87344330873762	
2539000000.00007	-14.4956380725523	-53.5782051468995	-10.1092569833372	-45.5044546144172	-46.8174276735036	-55.8660129926047	-24.4384780239003	8.9078469870284	
2539333333.3334	-14.56767634608	-53.7755009928805	-10.101895998176	-47.7876743903439	-46.6921926100157	-59.5043475098201	-24.5997199872316	7.69239188417043	
2539666666.66673	-14.6457137562387	-54.0245792806769	-10.0969193600224	-50.0451520963391	-46.6074571141528	-60.3979430703377	-24.7700836468719	6.7085525986434	
2540000000.00007	-14.7185387718066	-54.2489306752739	-10.0844598808639	-52.3722465974554	-46.6052560593483	-62.7489727047549	-24.9276869601071	5.72140635188182	
2540333333.3334	-14.811325770749	-54.4996075238112	-10.0722276748142	-54.6428872426622	-46.7220310812284	-66.5478639672549	-25.1090304114141	4.86886359151754	
2540666666.66673	-14.8895401963627	-54.8257949353117	-10.0764399916626	-56.90074971617	-46.7046703485047	-67.6844488950093	-25.2811072429961	3.77502984855415	
2541000000.00007	-14.9710919624772	-55.0649036978851	-10.0683037197582	-59.1941372948187	-46.8188106979275	-70.7896693636543	-25.4293077974898	2.77939715432867	
2541333333.3334	-15.0221242925946	-55.3400565678643	-10.061419125953	-61.4366880458593	-47.1464466739585	-71.0155017228611	-25.6078871495603	1.8626806516444	
2541666666.66673	-15.1179161600369	-55.6951420286636	-10.0554952622255	-63.7987709114706	-46.533489389513	-74.3506445817398	-25.7090275525847	0.980211013410883	
2542000000.00007	-15.2059707112156	-55.8854788289592	-10.0474830880748	-66.0731097950679	-46.5067327509382	-78.0916102495436	-25.8777781470432	0.218034585415705	
2542333333.3334	-15.2643089992654	-56.2384764105591	-10.044043483263	-68.3372362874217	-46.3656631899807	-78.6092737050365	-25.990241604772	-0.658363802578941	
2542666666.66673	-15.3648543278575	-56.5840568256954	-10.0411446535512	-70.6596132530842	-46.75075515589	-81.9438189350462	-26.1412535208341	-1.18331318183015	
2543000000.00007	-15.4538700447784	-57.0125848582208	-10.0329990832318	-72.9333973280114	-46.3833296344049	-84.5955189517581	-26.2363255754941	-2.09156920241752	
2543333333.3334	-15.5265465780803	-57.2940552238527	-10.0223619558106	-75.2715409318378	-46.3592194032643	-87.0340451011568	-26.3458531308207	-2.53430485461482	
2543666666.66674	-15.6078841892048	-57.6683698078685	-10.0326587759367	-77.5139355342257	-46.6549768984643	-87.5700057707294	-26.4338835540432	-3.06650463194027	
2544000000.00007	-15.7205549949513	-57.8847190039768	-10.0282496853662	-79.8443258016036	-46.6249141352151	-90.7663826485423	-26.5367824386395	-3.70833645610165	
2544333333.3334	-15.8168462787913	-58.2501610580275	-10.0188304800374	-82.1039112779397	-46.3352394606285	-94.1014956495834	-26.5721976519778	-4.13166734102586	
2544666666.66674	-15.9194538448961	-58.5319450468134	-10.0202877809893	-84.4044604660052	-46.5938967489815	-94.7730194013589	-26.646128502511	-4.46117687544623	
2545000000.00007	-16.0174144142578	-58.8708209090381	-10.0220791066953	-86.6724993972526	-46.5819026815783	-97.3337961189568	-26.6783952541245	-4.77769434498061	
2545333333.3334	-16.1017523111596	-59.2764602423817	-10.0130564981539	-88.9792976955737	-46.305208655797	-99.0408900676447	-26.7049786971493	-4.97863806210432	
2545666666.66674	-16.2000095103258	-59.6115580521719	-10.019718592299	-91.2546407556044	-46.4813649385156	-101.974677124232	-26.7640406967473	-5.33372026968243	
2546000000.00007	-16.3032891662684	-60.1150857003329	-10.0108693004391	-93.5300028986431	-46.5016711046099	-103.584560737177	-26.7394151207462	-5.28145468328802	
2546333333.3334	-16.4185732977729	-60.488712101251	-10.0157564702719	-95.8292307728295	-46.1679092994966	-107.592027870666	-26.7338564254563	-5.43022086329442	
2546666666.66674	-16.5044142744439	-60.929872986778	-10.0233205568237	-98.0874325489279	-46.3449742349494	-108.890189441554	-26.7139784196048	-5.38118191411974	
2547000000.00007	-16.6027372101726	-61.42264157295	-10.0152164590699	-100.371059314283	-46.7388780711165	-108.821985986225	-26.6939859009681	-4.99087440224824	
2547333333.3334	-16.705707146937	-61.8996751013319	-10.0181855622629	-102.653412326659	-46.6115249764419	-113.860590228941	-26.6423247305663	-5.01398019517483	
2547666666.66674	-16.8103748017061	-62.4339055890384	-10.016522697969	-104.901900746553	-46.6495165204565	-116.019778437826	-26.5558655984957	-5.01538857811782	
2548000000.00007	-16.893853301028	-63.0819932173539	-10.0195785939654	-107.158193171631	-46.3042419385709	-117.399165641295	-26.532571298063	-4.40604079874038	
2548333333.3334	-17.0057370047135	-63.5468564433069	-10.0239608980727	-109.452972814055	-46.2507792037273	-118.059085575882	-26.3983398522891	-4.11440272082306	
2548666666.66674	-17.0786235071051	-64.1961859672089	-10.0173791484852	-111.694112714891	-46.3613598705805	-123.061744164852	-26.3211285300536	-3.82844525474898	
2549000000.00007	-17.186286109281	-64.7755388401247	-10.0246234149246	-113.988911491988	-46.3864036851048	-126.257048102472	-26.2009733158485	-3.72932501589975	
2549333333.3334	-17.2699683433589	-65.5531511927125	-10.018336282961	-116.253754380913	-46.7890494692183	-127.489229792773	-26.0781158622484	-3.30736196318032	
2549666666.66674	-17.378018385146	-66.1674050477937	-10.0122045893419	-118.487126464353	-46.4670306119738	-130.408524468506	-25.9354241163898	-2.60734151742709	
2550000000.00007	-17.4535286269361	-66.953566771486	-10.0204379332101	-120.785459351742	-46.3888760154467	-132.260260638609	-25.8076445730027	-2.36930083130574	
2550333333.33341	-17.5492995278179	-67.6795773494332	-10.0197856407168	-123.022582188135	-46.3289133900787	-135.44457819376	-25.6842084053492	-1.79713709593981	
2550666666.66674	-17.6366853671916	-68.4462120501029	-10.0226577741473	-125.273135791282	-46.3431633325065	-137.296575212563	-25.5165329167173	-1.38853216052901	
2551000000.00007	-17.730545737361	-69.2422111216371	-10.0204097682232	-127.522693105986	-46.2548495548412	-139.081622825159	-25.3478868251547	-1.15278879958381	
2551333333.33341	-17.8194947379444	-70.0623954581908	-10.0217102263296	-129.803596679824	-46.2969768912013	-141.932806690525	-25.1765307329117	-0.711760113575794	
2551666666.66674	-17.9297807278538	-70.8407777702136	-10.0211089547097	-132.034905176015	-46.1862393898511	-142.826210637853	-24.9885154153907	-0.209473963186939	
2552000000.00007	-18.0129337979429	-71.6302796193825	-10.0199639009108	-134.266853532776	-46.2057194654842	-145.504849254157	-24.7700027203427	0.264945359670144	
2552333333.33341	-18.112917074287	-72.4991118136015	-10.0237427073481	-136.49137297487	-46.5407137870653	-145.716974294087	-24.5731907579192	0.660082636561428	
2552666666.66674	-18.2108771100314	-73.3585086417267	-10.0248885472918	-138.753641791776	-46.4921801585846	-150.441165485801	-24.3550707192265	1.02343953720199	
2553000000.00007	-18.2994345796605	-74.2685215374883	-10.0253801867918	-141.009603387618	-46.4209294460666	-152.198146474269	-24.1335976445908	1.40688749570605	
2553333333.33341	-18.391359572971	-75.123351983191	-10.0321967297272	-143.229914007379	-46.1864457890406	-153.620799220448	-23.9443645289863	1.81580170374957	
2553666666.66674	-18.4812528271704	-76.0779389928171	-10.0303349651109	-145.456391977788	-46.601913565764	-155.607738819772	-23.7163617813608	2.18093660160352	
2554000000.00007	-18.5778960691569	-77.1396768871959	-10.0340175039801	-147.71505610741	-46.3139284775915	-159.254186625736	-23.5060787576288	2.48929247826894	
2554333333.33341	-18.6488776245215	-78.0171425669941	-10.0269760920013	-149.944126004779	-46.4625481216057	-161.401263772388	-23.2907401930058	2.85940070474026	
2554666666.66674	-18.7260619792212	-78.8644066843283	-10.0259746080876	-152.208274991108	-46.2200197897141	-163.661444506656	-23.0622161751731	3.15862022045385	
2555000000.00007	-18.809668491808	-79.849075459524	-10.0317955421094	-154.403763359873	-46.5069627644343	-165.608000977049	-22.86350929635	3.32271846390959	
2555333333.33341	-18.8651758749101	-80.6724121763572	-10.0309370728763	-156.646147945255	-46.2949979096173	-168.653673385766	-22.6755620805913	3.65625296098534	
2555666666.66674	-18.9476376771566	-81.5974068695948	-10.0238360757588	-158.917421354647	-46.6986803982612	-171.902196711827	-22.4476882682076	3.82542666022432	
2556000000.00007	-19.0134985331928	-82.5405179208734	-10.0260883108814	-161.152471398002	-46.3781780687798	-173.825927070446	-22.2277210977693	3.96600158145522	
2556333333.33341	-19.0759967058815	-83.5426768308488	-10.0247759879958	-163.395979214862	-46.3701202223484	-174.591610792671	-22.0239596998594	4.20330995559769	
2556666666.66674	-19.1131309987824	-84.5568606245355	-10.020725679539	-165.591706403803	-46.2131718378604	-178.113105830269	-21.8279102055166	4.40127189082179	
2557000000.00007	-19.1677332418449	-85.4542012909113	-10.0271933863542	-167.838488537601	-46.3381148518356	-178.414416362005	-21.6091305653904	4.39779003771284	
2557333333.33341	-19.2061277600351	-86.3748781639737	-10.0267687689415	-170.135743509108	-46.2603858616143	176.464935838809	-21.426380889761	4.63055597912004	
2557666666.66674	-19.2469147814349	-87.1678110020423	-10.0263201993516	-172.341475655259	-46.4345468753812	175.145984160672	-21.2287240715194	4.81260338793642	
2558000000.00008	-19.2708676056299	-88.1690644072598	-10.0250717535583	-174.620924805015	-46.1542087239293	174.006782448004	-21.0493315462469	4.83758592481979	
2558333333.33341	-19.3011470132777	-89.0857913147487	-10.0210204701424	-176.855842430468	-46.1705345298814	170.055367392548	-20.8605269976737	4.99353557288361	
2558666666.66674	-19.3267864173932	-89.9067198358799	-10.017911043039	-179.138589435589	-46.3953284355974	168.088598707286	-20.6811566169275	4.94159789832314	
2559000000.00008	-19.3421791745578	-90.8317447969887	-10.014631014888	178.601626178301	-46.3380219578668	167.331483402386	-20.4849447551305	4.9866723262813	
2559333333.33341	-19.349114898986	-91.6485708555775	-10.0131606788726	176.335995811574	-46.4085042681954	163.836887844149	-20.3324716572287	5.01848786274341	
2559666666.66674	-19.348114970342	-92.468719544401	-10.0069409674412	174.118996777915	-46.1741911437476	161.680413913007	-20.1470627064558	5.10149415830406	
2560000000.00008	-19.3591928127966	-93.3469358449931	-10.0104630009274	171.801490849934	-46.1789449005899	161.319121536295	-19.9994983535197	5.11145451845029	
2560333333.33341	-19.3540875957343	-94.0740678081654	-10.0055774314954	169.534164381552	-46.5578657283768	157.50296544413	-19.8249856411139	5.08611182587626	
2560666666.66674	-19.3360516398975	-95.0427265678088	-10.0054950768413	167.268964421193	-46.3207355978336	154.872897460121	-19.6705102845943	5.04211212812176	
2561000000.00008	-19.3286386862747	-95.7746889302675	-10.0056371962728	165.020490007975	-46.2702349419376	154.152145254843	-19.5489918472007	5.06301518023411	
2561333333.33341	-19.2746823928342	-96.5962459416563	-9.99576251891732	162.722503138961	-46.089467667385	149.149680266556	-19.3872330563169	5.05148256819228	
2561666666.66674	-19.2660228668788	-97.3946250116519	-9.9948599160658	160.404862714185	-46.3540069504401	146.294112614667	-19.2516235669602	5.08640544537052	
2562000000.00008	-19.217927710115	-98.1449700641121	-9.99372631540293	158.123910702867	-46.4630239141998	144.832811406915	-19.1082070885401	5.01368301766013	
2562333333.33341	-19.1692992407825	-98.9225322159824	-9.99840939560896	155.841598423557	-46.1207855149949	141.945249116367	-18.9798479116925	4.96133585101666	
2562666666.66674	-19.1341196625131	-99.6834930776025	-9.99750175965779	153.535957737152	-46.3502393012328	140.622845596901	-18.8421144936684	5.12232127583657	
2563000000.00008	-19.093415841298	-100.432120656154	-9.9931566767981	151.260741833269	-46.3225755165195	138.912140289997	-18.6987287365222	4.95346369495123	
2563333333.33341	-19.0215448254739	-101.050491441815	-9.98910121999537	148.945902421621	-46.23548628614	137.464608001252	-18.5787358356306	4.99791068801661	
2563666666.66674	-18.9764610146877	-101.784828547098	-9.99363522784126	146.653161212548	-46.3472815075027	135.614943341623	-18.4664608010929	4.94585780630354	
2564000000.00008	-18.9050321348959	-102.427871213079	-9.99352791040465	144.3238008822	-46.4205269790344	131.603780059123	-18.3642647308084	4.87377470503757	
2564333333.33341	-18.8493359925312	-103.231083775099	-9.9951583380949	142.007398209835	-46.3337450716571	129.934538930129	-18.2438691677687	4.98222935285509	
2564666666.66675	-18.7854240848517	-103.85252330142	-9.99078592200347	139.685198123601	-46.4648980283544	127.737795888076	-18.1629623356391	4.85597021496927	
2565000000.00008	-18.7222007462743	-104.456512484519	-9.99531907066493	137.38508685549	-46.073580367705	126.596010162605	-18.0502279175627	4.8996916373034	
2565333333.33341	-18.6427971244153	-105.160649019686	-9.99447256463432	135.066383710543	-46.1808354038413	121.263235406224	-17.9602954072175	4.7423931593688	
2565666666.66675	-18.5731585567407	-105.887822653792	-9.993792617893	132.767567070708	-46.1470813430252	121.274708308928	-17.8637506192158	4.64639444874823	
2566000000.00008	-18.5072651905856	-106.542634124738	-9.99951909284621	130.433817261678	-46.1144722364251	118.504970274734	-17.7843260520535	4.73427250010365	
2566333333.33341	-18.4552696318698	-107.150176119055	-9.99938861794151	128.138983782964	-46.4502906146105	115.490930404775	-17.6827494963156	4.70314177791625	
2566666666.66675	-18.3711744630332	-107.900834419216	-10.0001969011536	125.769001022327	-46.0892172274568	113.235089565124	-17.6325514836058	4.60192767193375	
2567000000.00008	-18.3074115822507	-108.520415816027	-10.0009909005257	123.456232879299	-46.1689162323491	110.368810686749	-17.5533167569039	4.4685842072448	
2567333333.33341	-18.2412181629712	-109.165608347534	-10.0008491096732	121.12907834662	-46.1302741979085	109.667232297952	-17.4761406878314	4.56556709850282	
2567666666.66675	-18.1802289278697	-109.860014839958	-10.0100940686589	118.804610566493	-46.2943768839066	106.466182276162	-17.407113625784	4.55564727892598	
2568000000.00008	-18.0883529217163	-110.62951265421	-10.0035754926358	116.430102386736	-46.2684436123616	103.990079845167	-17.3457662859599	4.57752945604184	
2568333333.33341	-18.0304575728046	-111.172925649654	-10.0119795817252	114.101366550749	-46.2615129940743	103.133037558751	-17.292139029515	4.5342837401665	
2568666666.66675	-17.9585694395019	-111.894814218003	-10.0136615606178	111.753658944324	-46.1483402035046	99.2458562142643	-17.2273381749404	4.50425650643667	
2569000000.00008	-17.8872628447217	-112.549113165724	-10.0181665901627	109.409694397213	-46.3728680838734	97.4463434445581	-17.1855592467031	4.36426343307401	
2569333333.33341	-17.8164804497891	-113.225946591608	-10.0183973348439	107.076360265376	-46.527755658872	96.8919111491648	-17.136211071795	4.35450104371057	
2569666666.66675	-17.7525656857221	-113.885291819044	-10.0277907442499	104.764324872021	-46.3224414531828	93.0574685945264	-17.0856728311386	4.33654228337098	
2570000000.00008	-17.6851805714386	-114.529676138947	-10.0272448602798	102.389460066863	-46.0048329564307	90.8959936834173	-17.0516574747636	4.3629047916565	
2570333333.33341	-17.6367632184295	-115.205261191167	-10.0352536703547	100.036161620785	-46.2288326636999	88.5817186401151	-17.035920865183	4.38412429902083	
2570666666.66675	-17.5742058315148	-115.907494478951	-10.0319259155937	97.7068707517074	-46.3240424327438	86.3210750840671	-16.9873523750522	4.25489439823247	
2571000000.00008	-17.5294675392471	-116.506797445595	-10.0384189484918	95.3816167511046	-46.5380214567763	84.9676380951249	-16.9367090944293	4.23414696893824	
2571333333.33342	-17.4762260994633	-117.17692312644	-10.0562065171611	93.0377173591975	-46.4554890911706	82.2383039316213	-16.9104686515063	4.27947160052703	
2571666666.66675	-17.4526979713836	-117.887369025484	-10.0571795522537	90.7334513035798	-45.9972358751636	78.6244570562841	-16.8938907308236	4.1860446547153	
2572000000.00008	-17.4047997627994	-118.509405002107	-10.0587636588274	88.3638511264047	-46.3057720818971	77.4634894050043	-16.8781957754354	4.09230533889264	
2572333333.33342	-17.3729634111546	-119.153893776352	-10.068066864327	86.1136256255245	-46.2161386447125	75.3016660217699	-16.8585321609766	4.14624813180859	
2572666666.66675	-17.3292076536911	-119.814423457235	-10.0732802120395	83.7892355510491	-46.3618728036028	72.7578489903747	-16.8455790530894	4.12671749048962	
2573000000.00008	-17.3179394087388	-120.620457077413	-10.0730519453718	81.4774143263403	-46.1103841783705	70.7976219174899	-16.8173366661683	4.14971903750016	
2573333333.33342	-17.2804045999207	-121.223567411474	-10.0740240676449	79.1564186673474	-46.2664032878449	69.0799876331942	-16.8171535625407	4.1410908598186	
2573666666.66675	-17.2532459403876	-121.851599496452	-10.0837366031945	76.8893891007527	-46.4087336864956	67.2489608111908	-16.8257131057916	4.04467893350233	
2574000000.00008	-17.2169536877847	-122.479843221291	-10.0872007136168	74.5720020323156	-46.4314383168259	63.5283349411	-16.8181219283486	4.03905363271009	
2574333333.33342	-17.1984383119749	-123.297543733178	-10.0810128407414	72.2237393178402	-46.1894267954094	60.599426295005	-16.8210451152653	3.93083505180087	
2574666666.66675	-17.1888152727728	-123.907390470462	-10.0930422554772	69.9539235865048	-46.3162083906718	57.2768907267178	-16.8093762552394	4.046385786178	
2575000000.00008	-17.1704515287212	-124.741478154087	-10.0970685955458	67.6886025190841	-46.2993241031019	57.7446453630293	-16.8036614669288	3.98097756311622	
2575333333.33342	-17.1534962081164	-125.242584895994	-10.0960247145835	65.3845572045127	-46.3306089725938	54.2576392560421	-16.8164597303021	3.88931017655048	
2575666666.66675	-17.1487790737499	-126.108278309607	-10.0945041308033	63.0951799162557	-46.3088286853945	48.9193219994696	-16.8212190607205	3.91571975833248	
2576000000.00008	-17.153507852106	-126.772810938758	-10.0988867915027	60.7958823475089	-46.2639795875821	50.6683682223127	-16.8378971005271	3.76484150818527	
2576333333.33342	-17.1541570855503	-127.539245307001	-10.1000364707318	58.5650364197809	-46.4579045408272	46.1426116672878	-16.8450694221713	3.83864220824263	
2576666666.66675	-17.1711431395765	-128.306615507244	-10.0989449656904	56.2487633123566	-46.2509305937707	44.6334372261314	-16.8888740293005	3.72798294934911	
2577000000.00008	-17.1964147093576	-129.003131880603	-10.1017942617496	54.0156407369827	-46.0766353942123	42.7390938804986	-16.8995431511112	3.63335190621422	
2577333333.33342	-17.2149054237514	-129.718660969525	-10.0990256170428	51.7386430456756	-46.4739503629605	41.0325802507929	-16.9233505543294	3.63609440670057	
2577666666.66675	-17.2486828992996	-130.650459074182	-10.0978180614713	49.473194651976	-46.5201738565498	38.8446694547252	-16.9385732642766	3.43658876173849	
2578000000.00008	-17.2770896782646	-131.423066827577	-10.0947482599108	47.2090762369294	-46.462933987539	37.0850978846481	-16.9635734060956	3.33381094758088	
2578333333.33342	-17.3098710189039	-132.273653041068	-10.0926054293238	45.0118530240048	-46.5638753888607	34.1668044797676	-16.9991315226695	3.17607030610398	
2578666666.66675	-17.3653864795933	-132.792525410249	-10.0924533134594	42.7315148886815	-46.3299782871734	32.3554919274601	-17.0486863402328	3.0792006880725	
2579000000.00009	-17.4311798423944	-133.791161141535	-10.0890582974624	40.4612347203305	-46.7345945072531	28.3760841862009	-17.090381305065	3.13176643888304	
2579333333.33342	-17.47634964453	-134.542622049058	-10.0888467430084	38.2350977512698	-46.5438399630217	26.5461697656052	-17.1401718414521	3.04079455739622	
2579666666.66675	-17.5416815537295	-135.503729724553	-10.0840321232096	35.970828451641	-46.7318612212796	26.7301089519442	-17.1674592392517	2.84061361710191	
2580000000.00009	-17.6183975149991	-136.174498908952	-10.0805519929536	33.7273250873695	-46.5907672886172	21.1287325434677	-17.2318707052312	2.73930743632018	
2580333333.33342	-17.6919280508248	-137.0707828568	-10.0760856596074	31.4702815357848	-46.5144936586106	22.0688603784699	-17.2849129750986	2.52856009268731	
2580666666.66675	-17.7714563220472	-137.989630752033	-10.0732629524103	29.249892845213	-46.4384941804769	16.9926052058991	-17.3447233215287	2.41611343380626	
2581000000.00009	-17.865079080044	-138.879061148926	-10.0715624002851	26.9858791535298	-46.1996655571049	15.4985583970974	-17.3850610476894	2.15925525910533	
2581333333.33342	-17.9318143284882	-139.552584405533	-10.061411474053	24.7442439855909	-46.5430698880479	13.9874548361607	-17.4519042538869	1.99265775278139	
2581666666.66675	-18.0323857028341	-140.433352872936	-10.0610302647044	22.4920057441391	-46.5765287573256	11.8027300602597	-17.5252922612386	1.83475509780362	
2582000000.00009	-18.1345225088694	-141.310529833134	-10.0593984865381	20.2629510232496	-46.3433644421207	10.5429179359626	-17.5902799543183	1.62740065848301	
2582333333.33342	-18.2223073422712	-142.273774669319	-10.0581514443208	17.9878135051731	-46.3295550482857	5.89796240195036	-17.6801797068332	1.22663628089001	
2582666666.66675	-18.3230068998584	-142.98811969273	-10.0486985200274	15.7305490601508	-46.79192245053	5.27558652629428	-17.7469538949715	1.01216804686343	
2583000000.00009	-18.4386080486276	-143.998452482684	-10.0460921203139	13.5347530157103	-46.5846620207812	2.1356032416943	-17.8269168041739	0.742864602016246	
2583333333.33342	-18.5614915808187	-144.707149450998	-10.0329377382576	11.2706077917911	-46.5001885240315	0.732659073466613	-17.9040698168012	0.531912530345646	
2583666666.66675	-18.6782073517562	-145.56566319158	-10.0365674643257	8.96741260497328	-46.4114442379153	-3.23345736634093	-17.9971786306037	0.0779078201182927	
2584000000.00009	-18.8151503415981	-146.508850289944	-10.0255032820016	6.72450750662792	-46.5949826300775	-2.96169336271097	-18.0930699439625	-0.0595319437333294	
2584333333.33342	-18.9310576854062	-147.410473441832	-10.0202050640566	4.5252760028547	-46.6104560997947	-7.15459041383858	-18.1738923543923	-0.549896107484935	
2584666666.66675	-19.0575466290759	-148.159376650259	-10.0223999619512	2.26085187416217	-46.5431327254961	-8.89810988727005	-18.266099327666	-0.938003746333098	
2585000000.00009	-19.1781359864166	-149.090716934067	-10.0171403079616	0.0236745600884404	-46.7086917961644	-11.7522847081479	-18.3725938995892	-1.31794381445936	
2585333333.33342	-19.3258022987764	-149.974413697568	-10.0085632800038	-2.27923547034515	-46.79844299418	-12.3209541446026	-18.4854762972029	-1.76484896479402	
2585666666.66676	-19.4716783893676	-151.067551145876	-10.0028163994836	-4.4944828011326	-46.7645898817288	-14.2400003809138	-18.5874525493129	-2.21900123418456	
2586000000.00009	-19.603570866624	-151.887379182866	-10.0062368606238	-6.74876020185463	-46.2794175383393	-19.6364672492923	-18.7063907546894	-2.72067801574757	
2586333333.33342	-19.78456455771	-152.695507975805	-9.99390226855047	-9.00720625258046	-46.9116130405753	-21.2770358890216	-18.8155902809382	-3.16125448178191	
2586666666.66676	-19.9217138038316	-153.530552840403	-10.0006323194281	-11.2971817974649	-46.2109915359903	-23.8266178835874	-18.93837261448	-3.51594009315568	
2587000000.00009	-20.0647737947918	-154.526952446983	-9.98364318031486	-13.5465203808366	-46.465689979426	-25.627570344886	-19.0681636020322	-4.1891443748249	
2587333333.33342	-20.2041665737233	-155.534710802121	-9.98437948534655	-15.7649581894115	-46.4216998366776	-25.2761015580668	-19.1906341022319	-4.73192943801969	
2587666666.66676	-20.37431834036	-156.421988168811	-9.98303161139505	-18.0541840162019	-46.2897676197559	-27.902939212699	-19.3161183715168	-5.20104802554531	
2588000000.00009	-20.5065697741211	-157.559455488013	-9.97925894756118	-20.3636560505622	-46.5816882503929	-31.4741741703901	-19.4474811025019	-5.82783185284819	
2588333333.33342	-20.686175267728	-158.28790415979	-9.98066105307484	-22.6398595631974	-46.6061570255509	-34.0674495324247	-19.5862381812297	-6.37884359795215	
2588666666.66676	-20.8352260877589	-159.311858102884	-9.972256225885	-24.8636333537478	-46.718908414977	-37.6468596599333	-19.7335671548717	-6.99989175907135	
2589000000.00009	-20.9656843739813	-160.2944176471	-9.96888266143497	-27.1300823030403	-46.3391581960601	-39.1858489581215	-19.8686104649055	-7.87804667952034	
2589333333.33342	-21.1604969215202	-161.385132039533	-9.96936295869963	-29.3926354518934	-45.9830545218831	-40.7325845591932	-20.0223580996206	-8.48246268900225	
2589666666.66676	-21.3128560314522	-162.434843797735	-9.96582574212728	-31.6668859053735	-46.3837991483993	-42.8460337014895	-20.1806164894303	-9.124281508753	
2590000000.00009	-21.4447836163798	-163.477001199482	-9.96199795030696	-33.9615871505683	-46.3794888833393	-44.5340777947221	-20.3309340218434	-9.73982294117668	
2590333333.33342	-21.5823291513484	-164.465846448445	-9.96231614474552	-36.2479700984257	-46.4341911605072	-46.6870681108008	-20.4917874080133	-10.6545020488598	
2590666666.66676	-21.7425392032847	-165.677331967452	-9.95664658677902	-38.5267172076057	-46.3080912772603	-50.1233065451714	-20.6650269104523	-11.3997357097175	
2591000000.00009	-21.875366314215	-166.880078029198	-9.95920151848106	-40.8161605398263	-46.725655134539	-52.9162647301404	-20.8439453006871	-12.263125678955	
2591333333.33342	-22.0332658467287	-168.061506434955	-9.95532667782509	-43.0709974591159	-46.3758562159395	-54.2183553326094	-21.0101888056193	-12.9002102065609	
2591666666.66676	-22.1837022367699	-169.202455656778	-9.95232284145841	-45.3665801740025	-46.4424528571898	-56.8392714145073	-21.1861237401079	-13.8679481799673	
2592000000.00009	-22.3026829308139	-170.507216940281	-9.95319557135817	-47.6673596908771	-46.4137890923499	-57.6465314725301	-21.3723275026666	-14.7414588771849	
2592333333.33343	-22.4114924924079	-171.876327787121	-9.95166319429258	-49.9745082472305	-46.4350911815212	-59.9466644222575	-21.5469428906913	-15.8504697506821	
2592666666.66676	-22.5550585325402	-173.182775407821	-9.94788609588904	-52.2437946248823	-46.3644314169342	-64.6503624826922	-21.7269048934865	-16.6416399669651	
2593000000.00009	-22.6820068100296	-174.540909331294	-9.94954288380969	-54.5704581081034	-46.0513853498315	-64.6363907249749	-21.9237603411118	-17.7357530345208	
2593333333.33343	-22.7910527634032	-176.081402565881	-9.94530898838093	-56.8392484378092	-46.5202577954191	-69.302715396095	-22.1132470665054	-18.8190512473694	
2593666666.66676	-22.8892876705605	-177.534446250694	-9.94419696375379	-59.1403692323163	-46.4062959350393	-69.6245321334913	-22.3330682173027	-19.7865755445494	
2594000000.00009	-22.9713040718114	-179.156398465261	-9.95030912221672	-61.45255696816	-46.0049337692192	-72.662590891712	-22.5213546162328	-20.9629697044079	
2594333333.33343	-23.0663404726302	179.321734814358	-9.94633991954203	-63.7224564748021	-46.4596151747596	-75.8371127876745	-22.7036691960792	-22.0069147203331	
2594666666.66676	-23.094341781532	177.701064017281	-9.93818976672509	-66.0579837740352	-46.2495492979981	-76.5306533506357	-22.8807090841896	-23.1051990894558	
2595000000.00009	-23.1510356466059	176.264735357461	-9.94280514700725	-68.3462799167369	-46.6169605575542	-80.1681892076987	-23.110226367822	-24.3648464731611	
2595333333.33343	-23.2047874660673	174.268373004754	-9.94407530803595	-70.6410756663357	-46.3993300948575	-80.8166006818784	-23.3125327289763	-25.4903209737293	
2595666666.66676	-23.2360713881924	172.733518819994	-9.93588061943828	-72.9336200278426	-46.0619530194856	-83.7114759726724	-23.5203832592069	-26.536226921426	
2596000000.00009	-23.2650552442864	170.917781953581	-9.93925472586943	-75.2538346682131	-45.9726061197386	-85.4623014480805	-23.7173852757674	-27.780168458939	
2596333333.33343	-23.2559908136593	169.226760627838	-9.94449734959998	-77.5378993490754	-46.3824177629053	-88.4183347828995	-23.9224687742063	-29.0086194339458	
2596666666.66676	-23.2232159771099	167.279634453307	-9.94073817450762	-79.8422539016466	-46.3658860801878	-91.5266784647995	-24.1328816501511	-30.0501103657327	
2597000000.00009	-23.1973243787176	165.431390575572	-9.93619111205138	-82.120762453497	-46.170527811955	-91.7112006141977	-24.30471774455	-31.6052736795734	
2597333333.33343	-23.1677087694784	163.34347562716	-9.94398825668483	-84.4208655138901	-46.2194068766789	-95.6648520510845	-24.5324659215776	-32.6949286395198	
2597666666.66676	-23.0931294833133	161.623304690816	-9.9384730708762	-86.7137429257791	-46.3725002029419	-96.8468744155635	-24.7461040662693	-33.9169334609464	
2598000000.00009	-23.0319840189368	159.626772664476	-9.94386507047523	-89.035877472607	-46.2549375752185	-100.93087795072	-24.9095045978259	-35.1602561072707	
2598333333.33343	-22.9200131638798	157.631716479518	-9.94632311372163	-91.3157303908737	-46.1830487357685	-100.995769311985	-25.1291320111087	-36.4620836463799	
2598666666.66676	-22.8075404666133	155.647904218388	-9.94282974274034	-93.632994913702	-46.0884232460288	-103.811701045266	-25.3508619650245	-37.7203164484278	
2599000000.00009	-22.7254211630573	153.865185850843	-9.94415662592213	-95.9202009929639	-46.050448456547	-106.115116598245	-25.5042270051156	-38.854651832866	
2599333333.33343	-22.5890741149626	151.836465516153	-9.95174719197182	-98.2292221586017	-46.4568890971758	-109.72203023544	-25.7210715949004	-40.003597623373	
2599666666.66676	-22.4760285814434	150.010716111404	-9.95440886456785	-100.478630914238	-46.217199392111	-112.582879939489	-25.9483984530517	-41.0735671430685	
2600000000.0001	-22.2975043442468	148.206016407475	-9.956086391199	-102.778944980291	-46.2247804411366	-112.321283687915	-26.1158650568137	-42.3345296982373	
