!Agilent N9923A: A.05.34
!Date: Friday, 25 March 2016 20:35:52
!Model: N9923A
!Serial: MY51491690
!GPS Latitude: 
!GPS Longitude: 
!GPS TimeStamp: 0001-01-01 00:00:00Z
!GPS Seconds Since Last Read: 0
!CHECKSUM:0073675840
!Correction: S11(ON U*)S21(ON U*)S12(ON U*)S22(ON U*)
!S2P File: Measurements:S11,S21,S12,S22:
# Hz S DB R 50
2400000000	-16.3123727434666	177.758139474333	-9.30893319920569	155.671804678753	-46.3443454490858	144.698997071263	-26.2096089355029	15.0791367909564	
2400333333.33333	-16.3115956175929	176.630987087787	-9.31052297911356	153.372456031648	-46.1697038057713	140.673725499812	-26.4362170351375	15.7845089854861	
2400666666.66667	-16.3066404283482	175.61010817891	-9.32071854418277	151.045088372556	-46.4125807470976	137.821808008457	-26.6708815092955	16.3274626943518	
2401000000	-16.3196695057544	174.60564600402	-9.30794559455021	148.75106999086	-46.2515887471546	136.746896477575	-26.9284740853259	16.979051219985	
2401333333.33333	-16.3462842496965	173.463809664007	-9.31592139986046	146.435076558283	-46.2991377107228	133.897659146769	-27.1519633841081	17.7470316835274	
2401666666.66667	-16.3821374363077	172.306168877018	-9.31447859172706	144.09984160109	-46.5480282564256	131.615271635273	-27.4126291985275	18.6134695537838	
2402000000	-16.3738245714853	171.206650017299	-9.31479078145728	141.784822078273	-46.1770166142939	129.772387640467	-27.6716918821918	19.8292611738712	
2402333333.33333	-16.3885230620964	170.073343322813	-9.31466040407402	139.486131026862	-46.2354373118745	126.683978977619	-27.958482750213	20.6060040013649	
2402666666.66667	-16.4013925304519	168.831396681802	-9.31705472476524	137.133789191002	-46.4031430221367	124.245844571449	-28.2478786713843	21.659989503084	
2403000000	-16.426217451111	167.563474633427	-9.31953002269654	134.832526345754	-46.5320357668032	124.097845254904	-28.5146305041425	23.1580603694644	
2403333333.33333	-16.4369743547219	166.456456856594	-9.32011227816968	132.521575295747	-46.3781884856991	119.802552409279	-28.7899681381031	24.4460858347757	
2403666666.66667	-16.4277060619938	165.371997196751	-9.32433617370017	130.194835546006	-46.5734151283836	119.409181247894	-29.0725436766488	25.8088448216882	
2404000000	-16.462228233696	164.125156804663	-9.32684464049897	127.861695290919	-46.3647812642669	115.237069876895	-29.4059399303291	27.1999495233915	
2404333333.33334	-16.4599882818032	162.870513485552	-9.34012221378244	125.598945304673	-46.5323118996059	114.516457793854	-29.6742702815308	29.3923342721689	
2404666666.66667	-16.482741649068	161.621249062693	-9.34033394482556	123.276211943913	-46.6216835137059	112.112879574772	-30.0020896281504	31.063205701425	
2405000000	-16.4862307992491	160.48596856753	-9.34186376450156	120.965371878339	-46.3705440458591	108.18149109605	-30.2557926220913	33.055030917316	
2405333333.33334	-16.4879607123632	159.278569570236	-9.34979588812897	118.64919742599	-46.3063922313118	106.663735550095	-30.4263342415205	35.2417058898567	
2405666666.66667	-16.4927169845215	157.988920165101	-9.35125613836209	116.381574121129	-46.5180925488881	105.271813092275	-30.7497492668719	37.4923037454895	
2406000000	-16.4958388975754	156.74576206872	-9.35659597536809	114.092241239422	-46.4391672771888	100.631582718814	-30.9021451760449	40.5800761032226	
2406333333.33334	-16.4822136354697	155.540623208114	-9.36482498721809	111.827916970372	-46.7068005460538	99.4305187058329	-31.1246494335416	43.0739078455297	
2406666666.66667	-16.5012609120198	154.31339280973	-9.36416436209459	109.52564193289	-46.4635951759743	97.0460323606704	-31.2454873891402	45.4120512606769	
2407000000	-16.4926654786107	153.034079917382	-9.36580036162145	107.252756042575	-46.7109603410745	94.9197807964869	-31.4100764773254	48.2526375055917	
2407333333.33334	-16.4920524079072	151.856968434079	-9.37629144823505	105.001547490433	-46.6370171634815	93.1744180925746	-31.5192307971177	51.5025989936601	
2407666666.66667	-16.4707905095328	150.637172899498	-9.38648752146531	102.725026441402	-46.4901961609041	91.4413154627887	-31.5713661374027	54.2231385471305	
2408000000	-16.4674189979039	149.475607817872	-9.39650444311403	100.487478577305	-46.5930771116139	89.0336832072204	-31.5820502614817	57.2906298329336	
2408333333.33334	-16.4618214777142	148.215064871784	-9.40227409161569	98.2240662014233	-46.4762655978915	84.604751536257	-31.5521720547821	59.7362692888266	
2408666666.66667	-16.4495938591483	146.980390896687	-9.40800304240115	95.9641206808703	-46.3509704204287	84.0428502338907	-31.4988208202033	62.2257119927979	
2409000000	-16.429495227791	145.876015222215	-9.412586468554	93.6852706428683	-46.6096598231687	78.6692705300713	-31.4531854813462	64.7855335726357	
2409333333.33334	-16.4053429335446	144.687143945817	-9.42627805041301	91.4540223425799	-46.6602906890863	79.4058873488197	-31.3108672695018	67.0846763116192	
2409666666.66667	-16.3965070519111	143.529820542219	-9.43191207075293	89.2255368039982	-46.527723708519	75.1096368751133	-31.1944483127125	69.5362953030267	
2410000000	-16.3690289561838	142.394803857771	-9.44162013478873	86.9680627674862	-46.4315162457767	73.7725623424898	-31.045451504225	71.4260429482212	
2410333333.33334	-16.3532297715781	141.348932122352	-9.44967816754509	84.7374918349013	-46.7018977016778	73.4114420136098	-30.916223875816	73.5504456680467	
2410666666.66667	-16.3325105228439	140.193996309741	-9.46323680503651	82.4717271141746	-46.5977329072462	70.8819596511697	-30.6884416640936	75.0178941169308	
2411000000.00001	-16.3012869707776	139.099062075032	-9.46286046092547	80.2784661230496	-46.6079919642436	68.3308244701143	-30.4845426647326	76.388916866778	
2411333333.33334	-16.266947580774	138.022544869354	-9.48235585370004	78.0316854490034	-46.6146243484921	65.1385409786422	-30.3644466557571	77.6941378571733	
2411666666.66667	-16.2367018819793	136.940157184896	-9.49518428674628	75.8304726403763	-46.4938031516966	63.9549760263764	-30.0575873335364	78.7032789258807	
2412000000.00001	-16.2014452479761	135.894450802808	-9.49742866706451	73.5649521839119	-46.4526258590555	60.0045162134758	-29.8921330279896	79.4448478838464	
2412333333.33334	-16.1679146607999	134.720860303772	-9.50828050558965	71.3746959525221	-46.4689454597475	58.4895353215249	-29.705458722743	80.2727659454781	
2412666666.66667	-16.1132607815471	133.62110268598	-9.52230336455154	69.1516092122313	-46.379801579943	55.2155759886945	-29.5189510254511	80.7549468356288	
2413000000.00001	-16.0718494668025	132.527211662937	-9.52701347400425	66.8990821773836	-46.6677107325169	54.2790222643695	-29.2442410086754	80.9217388549869	
2413333333.33334	-16.0241703404995	131.469300047481	-9.53660215420559	64.7444696038455	-46.6091394750145	52.095258922675	-29.0784216999673	81.8028865507938	
2413666666.66667	-15.9755363429747	130.391175357527	-9.54639531200977	62.4451132915834	-46.4511783654112	50.5343037362148	-28.8964797573739	81.3267103816861	
2414000000.00001	-15.9285593397143	129.375187362813	-9.56133509092092	60.2942439124722	-46.6754224738235	47.8510839585914	-28.716733985946	81.3086317193119	
2414333333.33334	-15.8691941036072	128.298703151979	-9.5743461405372	58.0439225138605	-46.5032411262053	44.7078397574236	-28.5196089698716	81.0268544705614	
2414666666.66667	-15.8122576638751	127.380956784373	-9.57917889712677	55.8619828818602	-46.5075913494125	43.9658433033635	-28.329762168576	80.9319086811623	
2415000000.00001	-15.7495916312415	126.378806699786	-9.59470233508854	53.6159187014466	-46.4936372029001	40.4802019600118	-28.1564685254977	80.3055344202158	
2415333333.33334	-15.6997221879847	125.474306137924	-9.60321777933672	51.4206377726489	-46.7906085107462	39.7111081190884	-28.0163733667445	80.0430925760035	
2415666666.66667	-15.6366898752022	124.519129022337	-9.60888485298829	49.1681058900165	-46.4122332857915	35.8134884847444	-27.8501126384016	79.3933744517203	
2416000000.00001	-15.5734268544569	123.633819344575	-9.62465419227665	46.9951957769752	-46.6502813530737	33.6596389630759	-27.7110305610239	78.6360693304881	
2416333333.33334	-15.512214464803	122.730225108218	-9.63615714426645	44.760639468304	-46.6462581314834	31.8782250468746	-27.5746632575129	77.6951653528084	
2416666666.66667	-15.4477236252593	121.798788112067	-9.64474724762198	42.5313403143417	-46.7286791608592	30.1732446883889	-27.3861952033708	76.77927768987	
2417000000.00001	-15.386183576728	120.975819335411	-9.65450132111187	40.3454836380097	-46.5324990699694	27.4511111979058	-27.2682765439282	75.8550119654976	
2417333333.33334	-15.3309171416377	120.100734208827	-9.66475552931466	38.118704559964	-46.6076884290017	26.1255208212097	-27.0935696314313	74.7635723456784	
2417666666.66668	-15.2555608283752	119.27890855166	-9.6736534427757	35.9198538436976	-46.4948577183609	22.7466146431206	-26.9698942629415	73.6149384974241	
2418000000.00001	-15.1934703178347	118.456444257957	-9.69036688161241	33.7436995800457	-46.6216913799613	18.9906148033788	-26.8436343150103	72.30536111658	
2418333333.33334	-15.1243113673682	117.678114176013	-9.69028394056469	31.5710593082356	-46.8211819642438	20.0879743148192	-26.7305610139091	71.1053732693683	
2418666666.66668	-15.055554091994	116.85339947887	-9.70970750472508	29.3302947294503	-46.526322800161	15.0831648338217	-26.5879521486087	69.544672984328	
2419000000.00001	-14.9842863600514	116.002050150887	-9.71305435347922	27.150336768353	-46.6912397118883	13.4987821990501	-26.43209158633	68.2488204206864	
2419333333.33334	-14.9190189503643	115.192446977558	-9.7195853433284	24.9036384854933	-46.6205084600005	11.8656734345565	-26.366544261593	66.7373172271486	
2419666666.66668	-14.8523652300803	114.389293742112	-9.73780962487416	22.7128910641138	-46.7368599498345	10.7632223900139	-26.2216611002302	65.1034892757925	
2420000000.00001	-14.7823352436984	113.685163701786	-9.74196977389252	20.4901848139986	-46.5882366206248	7.71916301034809	-26.0891959299362	63.6040315335207	
2420333333.33334	-14.7166646993753	112.880998962406	-9.75373154831315	18.2734835778567	-46.4984311009952	5.46080179436378	-25.9923741986441	62.0873269668005	
2420666666.66668	-14.6461232069551	112.151358867577	-9.75816731951642	16.0422051238697	-46.7125797906906	3.17210173473162	-25.8667548529175	60.3868133130959	
2421000000.00001	-14.5804873203027	111.437713876832	-9.76573193263294	13.8374152468177	-46.6122489668808	1.06359906327889	-25.7293351077514	58.8645522916995	
2421333333.33334	-14.5239438210777	110.703286013774	-9.77177737759251	11.6017451931268	-46.6805934309896	-2.76722310315598	-25.5980363094042	56.7680073817956	
2421666666.66668	-14.4663149308777	110.005694151572	-9.7879764972649	9.4095638158396	-46.6838701842453	-6.68100502976178	-25.4803433667677	55.2340458867042	
2422000000.00001	-14.4083510054992	109.358494335821	-9.79230550942455	7.20247612956224	-46.716604965161	-5.84674827218423	-25.3607963348941	53.4910825591354	
2422333333.33334	-14.3387510397869	108.583466483802	-9.80196571917732	4.935389737769	-46.5372089413407	-9.0272236786305	-25.2188194609885	51.3317703913679	
2422666666.66668	-14.2858244990581	107.975499932577	-9.80138655690959	2.752612772001	-46.4792553501912	-11.8079797674119	-25.1068939024622	49.800837947561	
2423000000.00001	-14.225217300043	107.313802685422	-9.81006810075515	0.498200239421583	-46.9250441365424	-12.615754334326	-24.9568824263678	47.9020027058277	
2423333333.33334	-14.1851507368339	106.678285701533	-9.82164162035778	-1.71323342821874	-46.6823161965726	-16.9337460355137	-24.8571789945455	45.9401169742251	
2423666666.66668	-14.1372274981471	106.042101634827	-9.8194609847818	-3.96091108890444	-46.6475815323216	-17.854426546496	-24.7575600265875	44.0844527484961	
2424000000.00001	-14.0828325569219	105.446869201112	-9.82874627542215	-6.20886296041883	-46.5329317260906	-20.7485739824881	-24.6141943419584	42.2900995844464	
2424333333.33334	-14.0297169631693	104.874218727021	-9.83347898584487	-8.46501269461718	-46.4119351299272	-22.5673591110151	-24.4566684815426	40.4458826144502	
2424666666.66668	-13.9861604914881	104.341916406097	-9.83883572494728	-10.6594479399976	-46.6863663054284	-24.1509106804381	-24.3104307266958	38.4348693595999	
2425000000.00001	-13.9464725701478	103.825330200551	-9.83955679484398	-12.9508046417186	-46.6475841727139	-25.9501983862364	-24.1803070326909	36.4383187898553	
2425333333.33335	-13.9014775423816	103.276692752474	-9.84536638725365	-15.2023831611698	-46.4631393608248	-29.4292382531331	-24.0382508449388	34.5942725128758	
2425666666.66668	-13.8589033001362	102.722705591618	-9.84424751452156	-17.4327344923232	-46.7522904323177	-29.9999744309575	-23.8896370334607	33.0101908868148	
2426000000.00001	-13.8303305806586	102.164445027078	-9.85070315339176	-19.729385864535	-46.7951740380476	-32.3313866894354	-23.7199979108854	31.0193789182899	
2426333333.33335	-13.7824613103805	101.743279954282	-9.85495194616414	-21.961107808593	-46.6069796362364	-34.7503704934651	-23.5888814920993	29.3541355612917	
2426666666.66668	-13.7490497505499	101.192410890607	-9.85863214021824	-24.2508447402971	-46.4652054616105	-36.8326406005684	-23.4423693619823	27.5015354484175	
2427000000.00001	-13.7167295383658	100.730543572463	-9.85634670256942	-26.5114609563741	-46.5727530805726	-41.3161222152767	-23.3014073298754	25.7351348334473	
2427333333.33335	-13.6813631274365	100.278725506822	-9.86127771461038	-28.8046952951485	-47.0145662519239	-41.2107761191386	-23.1721926994662	23.887467543043	
2427666666.66668	-13.6540884091131	99.7783661251313	-9.86342139681333	-31.0740244255224	-46.6453197141086	-46.3234788758265	-23.0127557338421	22.2436187709809	
2428000000.00001	-13.6213292541992	99.3582994857184	-9.86764769632401	-33.3255477550387	-46.8652565382202	-46.366039452301	-22.890276665066	20.7501465627719	
2428333333.33335	-13.5895949810302	98.9313712508654	-9.87125628608273	-35.6059922974084	-46.7544042295292	-48.2645966745981	-22.7609304022314	19.0520925562057	
2428666666.66668	-13.5641221872313	98.4671288585212	-9.87066478009313	-37.8502951641484	-46.5315072265494	-50.2268032908452	-22.6405850319455	17.3725643665446	
2429000000.00001	-13.5347041533252	98.0527011790947	-9.87202053491508	-40.1559127247989	-46.5725743371809	-53.9915981674012	-22.5021612995418	15.6848192912053	
2429333333.33335	-13.5051844131566	97.6913719566071	-9.87687900456246	-42.3897578004162	-46.8808090896662	-55.7068890046732	-22.3674848488481	14.0869251511512	
2429666666.66668	-13.4732685826409	97.2708008541514	-9.88318078553396	-44.6676090148419	-46.7197449933282	-58.36240489432	-22.2565195396945	12.7892533175979	
2430000000.00001	-13.4610403072102	96.8115337810429	-9.89103890341205	-46.9685846334633	-46.746104711656	-60.1979914015937	-22.1252384299991	10.9706557454906	
2430333333.33335	-13.4267538458357	96.4164213641214	-9.89347952549725	-49.2115519728299	-46.7658535673163	-62.5725106020353	-22.0098449282036	9.67377360909608	
2430666666.66668	-13.4098550119999	96.0501216900895	-9.89855673703596	-51.4958504887837	-46.8760030583707	-65.9942362011714	-21.8967498118768	8.11040929678592	
2431000000.00001	-13.3833258772809	95.6497166782045	-9.89619048440487	-53.7559293410282	-46.9174077689071	-67.8410605324436	-21.7806518620234	6.74160289764996	
2431333333.33335	-13.3585296950367	95.3272238074013	-9.90757683476667	-55.9788490147723	-46.7807981504044	-68.1490976754461	-21.6775776518809	5.36338665828106	
2431666666.66668	-13.3422517405021	95.0202624839662	-9.90125498237149	-58.2711598688698	-46.6033063886707	-70.1692526116003	-21.5682099780636	4.05655863211106	
2432000000.00002	-13.3258760022817	94.6426785954081	-9.90840458519122	-60.4986504809461	-46.9810545429233	-75.0205774415188	-21.4626124120203	2.82587340580808	
2432333333.33335	-13.3108626429804	94.3491914357029	-9.9132231444828	-62.7250612101635	-47.0416813788621	-77.0066501391065	-21.3620246166745	1.51917264031876	
2432666666.66668	-13.282217170548	94.0333769651403	-9.91535332831321	-65.0101784870917	-47.1525840252896	-78.0130941088858	-21.2907412393976	0.28312384086198	
2433000000.00002	-13.2804073971211	93.7662739997582	-9.91751879664708	-67.2358300476823	-46.7941799250958	-78.5073005080637	-21.1890916813075	-0.888315628214566	
2433333333.33335	-13.2619218134921	93.4168571166968	-9.92257743437097	-69.4871494822215	-46.884023860164	-81.8119448872927	-21.1066682255356	-2.12163140477293	
2433666666.66668	-13.2371159963952	93.0642655860284	-9.92896809457712	-71.7234787537979	-47.0118956338763	-83.8723120210915	-21.0272528727415	-3.34228738664602	
2434000000.00002	-13.2334185279128	92.7316257629083	-9.93129557155901	-73.9218511328264	-46.971390616593	-87.4913747474366	-20.9562827431996	-4.47977409334009	
2434333333.33335	-13.2172982210174	92.3483696863502	-9.93799132016062	-76.1881999700647	-46.9403593810871	-89.2609209133681	-20.9026004694342	-5.4553542565214	
2434666666.66668	-13.2055033877241	91.9974840551928	-9.93639512124876	-78.3898606623021	-46.7327628673361	-90.9656759006723	-20.8437334434964	-6.51328178806292	
2435000000.00002	-13.1933309256884	91.68864335349	-9.93233164338485	-80.6321560483041	-46.6014662796264	-93.289165696332	-20.7884162298516	-7.59024404551084	
2435333333.33335	-13.1922417798214	91.2752697830161	-9.93719875738671	-82.8803601867711	-47.000313345168	-94.8933140179722	-20.744300327613	-8.66283375257781	
2435666666.66668	-13.1644492318074	90.8834829943334	-9.93665002051692	-85.0912655316227	-46.7530323144624	-95.3978655460815	-20.7000019920591	-9.64974264410942	
2436000000.00002	-13.1653285964115	90.5704639857099	-9.93578351781376	-87.3015378944855	-46.9219902069717	-99.4867130577576	-20.680393756063	-10.5248879783709	
2436333333.33335	-13.1622828424454	90.0862528910572	-9.93687707823111	-89.5238098899871	-46.9806991775954	-101.108546169499	-20.6447937280187	-11.4837168342814	
2436666666.66668	-13.1511687911835	89.7631056891778	-9.93714933875669	-91.7162454010491	-47.1359771268139	-104.293951754771	-20.6184735384683	-12.4213108171217	
2437000000.00002	-13.1382537595642	89.3502432431487	-9.93909932248354	-93.9040456791923	-46.7508088282559	-107.900498008603	-20.622454926068	-13.4163229387756	
2437333333.33335	-13.1229917310261	88.9322065125066	-9.93504561784818	-96.159750139311	-47.1136806853557	-111.669632913492	-20.6041522888411	-14.2146859464656	
2437666666.66668	-13.1202101926683	88.4679277080307	-9.93430348679277	-98.3686124273117	-46.7626948307188	-111.283647035223	-20.6063312185837	-14.9824978468542	
2438000000.00002	-13.1153572554204	88.0984269416547	-9.93511405499812	-100.583371589389	-46.7993453667187	-115.532544011247	-20.6387493310363	-15.7474926581483	
2438333333.33335	-13.1138964029936	87.5681873733942	-9.93408140040844	-102.751031037095	-46.7093358793323	-116.15058285979	-20.6415404489173	-16.6376632813573	
2438666666.66669	-13.0956291629524	87.1316063637751	-9.92756517949089	-104.99147694278	-46.8398988225551	-116.036685052282	-20.6728079303131	-17.3364764586119	
2439000000.00002	-13.090311746037	86.72548357983	-9.92563503903668	-107.192009514696	-46.9378952357428	-117.9522250415	-20.7001759103602	-18.0451092378568	
2439333333.33335	-13.0914681832628	86.3139420276355	-9.92214645196215	-109.349415662292	-47.1972183846515	-123.496056177493	-20.7539967216621	-18.7219870228976	
2439666666.66669	-13.0952109064988	85.8853813872304	-9.9196265329433	-111.550882191258	-47.0176229049482	-125.197860480054	-20.7841454226639	-19.2689528905816	
2440000000.00002	-13.0849941441479	85.3693609482148	-9.91580158644788	-113.78844417441	-46.7158263633852	-126.515768103751	-20.8398590428203	-19.9608781642369	
2440333333.33335	-13.0871615477964	84.979201427416	-9.90529312916473	-115.987863441808	-46.7892922037046	-128.565371011536	-20.914530095153	-20.789034418773	
2440666666.66669	-13.0871436916405	84.5384697477727	-9.90009136434765	-118.178507944495	-46.98442345996	-130.47699641946	-20.9579860017191	-21.344121917137	
2441000000.00002	-13.0934313033629	84.1336956118792	-9.89656780140739	-120.341876185	-46.8266711898522	-131.77009525374	-21.0483732789876	-21.8525603294443	
2441333333.33335	-13.0837497934249	83.549647957016	-9.89395955666456	-122.587492392019	-46.8374920262572	-135.179406305928	-21.1013342528096	-22.4677810000519	
2441666666.66669	-13.0864423033776	83.145102848024	-9.89127384187699	-124.778798302258	-47.0713057608007	-138.129370894858	-21.2045837891673	-22.9165339171644	
2442000000.00002	-13.0991580490366	82.7553760828918	-9.87441228864256	-126.977826941347	-47.1777162612995	-141.913198725041	-21.3181633614747	-23.40651219003	
2442333333.33335	-13.1216617811054	82.3473372528189	-9.86257187984783	-129.212770921218	-47.0352791830206	-142.332373624819	-21.435452505049	-23.7603359496045	
2442666666.66669	-13.1310180499606	81.9428360178888	-9.86071117575781	-131.393598192506	-46.7643106560916	-144.103160564011	-21.5251136260149	-24.1654307602156	
2443000000.00002	-13.1476124310087	81.5542365716449	-9.84630316569102	-133.644572049878	-47.0166438810768	-147.053737600321	-21.6854404021824	-24.537372360172	
2443333333.33335	-13.1665052559638	81.1420260533832	-9.8473224870491	-135.83198244696	-46.9010918727935	-146.050423889153	-21.8054974494055	-24.9115876038356	
2443666666.66669	-13.1838052204393	80.6715097943807	-9.82952832818341	-138.083119559923	-46.8121524352069	-150.724427174588	-21.9318115356242	-25.0391505479388	
2444000000.00002	-13.1925453991379	80.3296883305061	-9.81933540545723	-140.353201274205	-46.8707828811283	-154.289332372212	-22.1008745575258	-25.3350888925189	
2444333333.33335	-13.2173868899077	79.8309514525549	-9.80895908153483	-142.553604495269	-46.7388046987188	-155.054203411564	-22.2687663009428	-25.4691990623248	
2444666666.66669	-13.2369240557708	79.4476379720382	-9.79869406075069	-144.790787916229	-47.0816051054789	-157.04890162859	-22.3975610467445	-25.724941463912	
2445000000.00002	-13.2475574702886	79.0356521780111	-9.79257609843576	-147.028289682851	-46.7260069093395	-158.098437895967	-22.5815221517506	-25.6514201426522	
2445333333.33335	-13.2682782357809	78.6275189181644	-9.78149498448881	-149.248041709525	-47.0566703091609	-161.629134313852	-22.7693968616597	-25.5216688684221	
2445666666.66669	-13.2806445480307	78.1351751476494	-9.77279210933654	-151.518757782355	-46.8872455427205	-163.448221179208	-22.9335144498259	-25.6334577991241	
2446000000.00002	-13.309644348845	77.7641156971608	-9.7670944625521	-153.773968342037	-47.2284787787477	-166.455020227745	-23.168852443983	-25.307511688236	
2446333333.33336	-13.3281965415981	77.4167833369509	-9.75608068101555	-156.048939830893	-46.9928945336781	-168.54029103953	-23.3403664750155	-25.1900320020011	
2446666666.66669	-13.3577932886569	76.8568699215523	-9.74586959445343	-158.274893665615	-46.6542643248002	-171.116989229133	-23.5856586138436	-24.9102916038818	
2447000000.00002	-13.3775270284237	76.4967493317302	-9.73589130729694	-160.527284437574	-46.6913674961825	-172.556099252886	-23.7959790665365	-24.797466704874	
2447333333.33336	-13.395918241892	76.0282383925022	-9.73184412681717	-162.788591673708	-46.9000295441526	-174.503728657671	-24.0296845913639	-24.0496770026754	
2447666666.66669	-13.4128914874817	75.619060223134	-9.7172026000661	-165.047157872454	-46.7104862771324	-176.300648873419	-24.2845688602639	-23.8327344828951	
2448000000.00002	-13.421185818286	75.1433630606974	-9.71066522172249	-167.265830505007	-46.6869740610897	179.932193727693	-24.5215393558885	-23.0367160440113	
2448333333.33336	-13.4427811817387	74.7545634082918	-9.69915701865446	-169.499810579993	-46.956531807796	178.887951418656	-24.7786599221279	-22.0901868289242	
2448666666.66669	-13.4605439752264	74.3117124112462	-9.69506270422763	-171.786504133685	-46.4767142777216	177.394604317841	-25.0607141202543	-21.5889630472779	
2449000000.00002	-13.4912791509032	73.8753336041346	-9.68095270318672	-174.089603527573	-46.6695651286969	175.24273887603	-25.2733858231099	-20.4371366638353	
2449333333.33336	-13.521124711349	73.3480506800069	-9.67917453340142	-176.337507279756	-46.5767693910379	171.200661702285	-25.5509870749537	-19.3783471469402	
2449666666.66669	-13.541496383873	72.8800437438788	-9.67391833084755	-178.615828649616	-46.7016117681968	170.908363609163	-25.8318843839195	-18.0268687567871	
2450000000.00002	-13.5465444459518	72.4639003122981	-9.66031804815254	179.147752374083	-46.4995441785466	166.335481824599	-26.1009259816325	-16.7359446582568	
2450333333.33336	-13.5744308823093	72.0334403131134	-9.65659461125542	176.864513592819	-46.6217813892907	164.896366893018	-26.3645013069873	-14.9513746909555	
2450666666.66669	-13.6007119001755	71.5503733142045	-9.64756246761917	174.623760979682	-46.629912574914	161.32134993577	-26.5921138127092	-13.1056238009668	
2451000000.00002	-13.6050062202305	71.1676427287935	-9.64047852005845	172.350040686342	-46.7056246251786	160.564800261492	-26.8373686762361	-11.3894889368716	
2451333333.33336	-13.6350209110625	70.6388969105083	-9.63189099748413	170.091053800421	-46.6923955262201	158.367993585691	-27.0827213721826	-9.42446536680456	
2451666666.66669	-13.6316806321524	70.2886439389712	-9.62612233489694	167.769482143043	-46.7322927830081	156.637103110358	-27.2902272379645	-7.58887736764765	
2452000000.00002	-13.646887011335	69.7087686305397	-9.61946227321775	165.541523852111	-46.7309464825942	154.26167920001	-27.4857250927439	-5.0468235867287	
2452333333.33336	-13.6463519691957	69.3610535710166	-9.61268221807253	163.269030115864	-46.4807877573696	152.08313376304	-27.7114514020505	-2.51310116294146	
2452666666.66669	-13.6657059833366	68.7897051359513	-9.60353319314634	161.039839560504	-46.5682939069941	151.002972253127	-27.8776297215519	0.0420904154184211	
2453000000.00003	-13.6565802185572	68.3536085811179	-9.60448509196312	158.756408974253	-46.6337543087782	148.564929125686	-28.0057527560059	2.83712309816849	
2453333333.33336	-13.6749218368358	67.8922656085882	-9.59620969130599	156.489287739105	-46.4201058739548	143.944913882077	-28.0832026213667	5.35242243547575	
2453666666.66669	-13.6776358461709	67.4021830508099	-9.59126798906292	154.226414637662	-46.4307340850449	141.311416094696	-28.1960069432088	7.96681687940612	
2454000000.00003	-13.667387142801	66.9667603094168	-9.5817053069187	152.003576090027	-46.5131219845948	140.305852215224	-28.2431660971958	10.9235185836608	
2454333333.33336	-13.6662988585797	66.3906804612871	-9.58371742330369	149.741681136165	-46.264414435391	138.941921463589	-28.2847992157127	13.9088429645966	
2454666666.66669	-13.6567908372395	65.9089293506737	-9.58456348228113	147.441125538361	-46.6580121874431	136.400526894945	-28.2257491413018	16.2666760031089	
2455000000.00003	-13.6646848392353	65.4353247742712	-9.57895361098271	145.154834069065	-46.791679852743	134.090835451678	-28.1919441513748	19.0919225258808	
2455333333.33336	-13.650910979353	64.9736850701286	-9.57242993030507	142.945782306821	-46.574993574912	129.876856502983	-28.1058354929559	21.734649251765	
2455666666.66669	-13.6391510499163	64.389651928967	-9.56348985399894	140.643396768697	-46.2846874070421	129.808814017764	-28.0521861751855	24.0183977030456	
2456000000.00003	-13.6288480017443	63.9389871110135	-9.55943072306799	138.393123309349	-46.652251442345	126.827488861109	-27.9726289789524	26.5932912296916	
2456333333.33336	-13.6140612053006	63.4262669768781	-9.5746097823705	136.163790667058	-46.242163388675	125.305759576939	-27.8430893174684	28.8361224905915	
2456666666.66669	-13.6019712925633	62.9099250005481	-9.56172484285835	133.886754880034	-46.3898144230905	122.421521414975	-27.7070329139869	31.0852254017486	
2457000000.00003	-13.5825430963543	62.4114216150587	-9.56101598192222	131.634485590513	-46.6260764935854	121.028052915914	-27.5576555885745	32.9331083943473	
2457333333.33336	-13.5605157368518	61.8656449164714	-9.5622551702559	129.370107780702	-46.1645100079022	117.622486675203	-27.3566173794563	34.6333279652179	
2457666666.66669	-13.5474222179306	61.2982767037716	-9.56714276616868	127.106541982845	-46.6291220879282	117.961580511907	-27.211310996741	36.2462582510921	
2458000000.00003	-13.5304050939522	60.8075145670188	-9.56394972586729	124.870234268408	-46.5854214453389	112.283372826635	-27.0534606901714	37.7975875777045	
2458333333.33336	-13.506900429163	60.2632910423075	-9.56471005482847	122.654029635671	-46.3748673415414	109.895086323087	-26.8686920399496	38.8485835670889	
2458666666.66669	-13.4802869283138	59.7717406925675	-9.5646606754684	120.391864389004	-46.2911671834943	109.64922213957	-26.7263403814829	40.1921435325742	
2459000000.00003	-13.4511187570778	59.2554861735522	-9.55734722209685	118.158282356097	-46.5193594294456	105.256142268665	-26.5017564955164	41.6094510995823	
2459333333.33336	-13.4189170866351	58.7003193363487	-9.56313280839692	115.875732900837	-46.2994081854253	103.652895400049	-26.3615730777103	42.4909045324685	
2459666666.6667	-13.3922761897354	58.1671640934878	-9.55568420602231	113.65349861908	-46.2491461255032	101.267519233862	-26.2221636621109	43.4692272930722	
2460000000.00003	-13.3690559367255	57.6568580158203	-9.56111793123056	111.413399072883	-46.2470613228655	99.5472591092437	-26.029783443601	44.0679521972888	
2460333333.33336	-13.3303732030964	57.1629289553807	-9.56469125807145	109.164275094601	-46.6664049288471	98.2575664797031	-25.9053792753182	45.2864602383743	
2460666666.6667	-13.3028774169717	56.6588425399406	-9.56071537417966	106.93392785226	-46.3573522235473	94.7860365739714	-25.7286656066304	45.5124996214651	
2461000000.00003	-13.2704494234803	56.1182882638757	-9.56334062268462	104.672588682686	-46.1311479389914	93.2216370875005	-25.6196981642978	45.9486323690004	
2461333333.33336	-13.2430998740843	55.6116576871639	-9.56013268046694	102.410521742499	-46.385321691442	90.7186966985613	-25.4722897929624	46.5072851722178	
2461666666.6667	-13.212813675718	55.0926489080862	-9.56269845265869	100.143825712302	-46.3478283757553	90.0476069897012	-25.3737136607179	46.9709900580877	
2462000000.00003	-13.1694353013809	54.5606755685717	-9.57019133795015	97.8931954555517	-46.3827679907822	86.8400729896923	-25.2734017613279	47.4746819531325	
2462333333.33336	-13.1276452396296	54.0346076351748	-9.57187103076221	95.6190157238726	-46.3189451010602	82.123177913392	-25.1732360416416	47.5586000207092	
2462666666.6667	-13.089403402647	53.4536515750291	-9.56862753661763	93.3518503187956	-46.410201995339	80.9616205949364	-25.0629758484709	47.7697368762891	
2463000000.00003	-13.053014143552	53.0083553571429	-9.56977964483968	91.1036444980547	-46.6527732821375	79.800136513768	-25.0064886152901	47.9748095004064	
2463333333.33336	-13.0140222148269	52.4860916328898	-9.57185536032579	88.8339027172711	-46.4208449262278	75.9712401113092	-24.9123570349722	48.3272228478167	
2463666666.6667	-12.9758121427151	51.9901159052964	-9.57174752755436	86.5494866654188	-46.5384509802454	73.8916306975264	-24.8182527893731	48.3133531136005	
2464000000.00003	-12.9302452600635	51.4702750232775	-9.57564678399262	84.3069535460183	-46.5578913914622	72.1667086251522	-24.8191894309861	48.2208265095916	
2464333333.33336	-12.8932803767097	50.9783451180762	-9.57533070427238	81.9870456973214	-46.3832898839611	69.3751417475517	-24.7549989376478	48.229346656666	
2464666666.6667	-12.8576173651383	50.4789498095015	-9.5726236803721	79.7288597671532	-46.5658981200506	67.3033233910753	-24.7188248796714	48.1819838563437	
2465000000.00003	-12.8148973496679	49.9672226961195	-9.57425970048982	77.444554833351	-46.4081156788309	66.3483622970568	-24.685209830283	48.2520642564912	
2465333333.33336	-12.7758378880264	49.5015912792583	-9.57780599112778	75.195590346992	-46.4399650907068	63.8755394850072	-24.6354960019839	48.084239485273	
2465666666.6667	-12.7310319709833	49.0211528538567	-9.58645945945447	72.9215347117693	-46.5874095168411	59.7227647621012	-24.6285018205535	47.8934885419921	
2466000000.00003	-12.6929613383032	48.5385660176792	-9.58437401498964	70.6746353585067	-46.4596956424832	57.7180318858617	-24.5880546721392	47.7728060149222	
2466333333.33336	-12.6552463713176	48.1136739801318	-9.58304825858389	68.3937136887639	-46.4773747483571	55.9588029079756	-24.6026239698488	47.2497346397901	
2466666666.6667	-12.6157897664242	47.6470461639523	-9.58838132356872	66.0770687060287	-46.4907208064331	55.1931710800395	-24.5947714934548	47.1507324339997	
2467000000.00003	-12.5743298281031	47.2006038969001	-9.58874568735412	63.8012683970599	-46.4810855991206	51.4627296060547	-24.6086714135023	46.8752642382552	
2467333333.33337	-12.5437130886627	46.7753820678688	-9.58732451088952	61.5518890737025	-46.4371368147315	48.1926032266827	-24.5798334933468	46.6144190603993	
2467666666.6667	-12.4936052862812	46.2815632640055	-9.59288229282351	59.2566593874603	-46.4337012702464	46.0086606509398	-24.5827713689961	46.3606493247839	
2468000000.00003	-12.4554247225495	45.8830182896464	-9.60020795126114	56.9537413070707	-46.5977300579178	45.0067886221488	-24.6170782387533	45.8625808886856	
2468333333.33337	-12.4142728468632	45.4758528955172	-9.59695808315057	54.6894138605859	-46.4633106400981	41.5829303960559	-24.6575964906305	45.4851269411984	
2468666666.6667	-12.3727261133862	45.0757582296959	-9.60122059173641	52.406587794342	-46.4846063897654	37.2995584744423	-24.6798726282317	45.0234455002342	
2469000000.00003	-12.3359628046673	44.658764463909	-9.60168032699578	50.1134549430924	-46.12564622897	38.2500362714082	-24.6731012309586	44.5083523409065	
2469333333.33337	-12.3015308216656	44.2474367399346	-9.59619354700769	47.8144213321616	-46.4155887962728	36.2195756140204	-24.7381241568613	44.1929955640836	
2469666666.6667	-12.2531138598798	43.8885864052634	-9.6000800335754	45.5317031865565	-46.2444236285175	31.9618325438102	-24.8067920315229	43.6167499140575	
2470000000.00003	-12.2156578968787	43.5104238324414	-9.60340255633782	43.1757595461534	-46.5615910452419	30.3552141918655	-24.8208731850112	42.9399828654374	
2470333333.33337	-12.1797618854056	43.0746335037803	-9.60239254670585	40.8982034883788	-46.2999444373141	29.3471223693426	-24.89551645309	42.5970561534397	
2470666666.6667	-12.1378215875189	42.7541430066438	-9.60002850123145	38.5916881569787	-46.2504542572868	27.6647321445626	-24.9327256436322	42.0664707417965	
2471000000.00003	-12.0987545635562	42.3897067279158	-9.61139194120975	36.306169687681	-46.4901641470465	22.5068706193259	-24.9957412179254	41.5904650506806	
2471333333.33337	-12.0608747099785	42.0008398519425	-9.61536766654903	33.9742792207482	-46.225916131012	23.5620618731152	-25.031579235542	40.9107708088684	
2471666666.6667	-12.0173752887871	41.6880483379245	-9.60926610723847	31.6857627644064	-46.4465928699493	18.8474645314908	-25.094135951642	40.2317269540062	
2472000000.00003	-11.9777558148743	41.344872393402	-9.61087283544033	29.4090200292842	-46.3118618244248	16.3264735087702	-25.1519016128768	39.5623267574672	
2472333333.33337	-11.9324847497196	41.0313077874174	-9.60905706468532	27.0651000268208	-46.3199664048055	14.5445184994419	-25.2474870589213	38.946013516832	
2472666666.6667	-11.8908013017027	40.7119226810897	-9.61935528338937	24.7432350546949	-46.3638655438649	12.1231208131777	-25.3116614705513	38.05036968286	
2473000000.00003	-11.8415150257736	40.4235279509897	-9.61982499164934	22.3762725630035	-46.1845952151985	9.72556778675068	-25.4206126400467	37.4641658504915	
2473333333.33337	-11.8105820644646	40.1133309436354	-9.62463834180398	20.0500124769225	-46.0635497901124	5.55758020387942	-25.5311624121269	36.5569762252121	
2473666666.6667	-11.7627512030072	39.8051891336692	-9.62453937298817	17.7224130540111	-46.3112390752747	5.14291496107147	-25.5887891779624	35.8785415969031	
2474000000.00004	-11.7225676628658	39.5227862151958	-9.62950929710875	15.3834499599786	-46.2649414657928	2.92044175122515	-25.6688714705526	34.9915804606444	
2474333333.33337	-11.6809888940038	39.2430715870949	-9.63358489734974	13.0726687040247	-46.4180340308943	0.804650650710084	-25.7779408167124	34.3610978103148	
2474666666.6667	-11.6355641092386	38.9165230135273	-9.63233724225024	10.7108191802558	-46.2459318522038	-3.07596374403778	-25.8851896445431	33.16920773197	
2475000000.00004	-11.5974763939814	38.6281485695385	-9.63264394997962	8.38302363693185	-46.297327543875	-6.40416782115195	-25.9720921724286	32.3458559865095	
2475333333.33337	-11.5571016446264	38.3383581218546	-9.64386733854476	6.01521071020449	-46.3507876339191	-5.85350381418465	-26.0218653010245	31.2820904666611	
2475666666.6667	-11.5244231721938	38.034844420439	-9.64211588162999	3.69123706152237	-46.4283086729758	-7.38630730788704	-26.1366401622367	30.5201831160423	
2476000000.00004	-11.479557946101	37.7178126570483	-9.65505570946272	1.33152784654368	-46.3788910216874	-10.5009480339548	-26.2001575516159	29.2553247895429	
2476333333.33337	-11.4433339032539	37.385381947721	-9.65384627314186	-1.0052630241519	-46.4135909595306	-13.8090874131765	-26.2655891672006	28.263996051713	
2476666666.6667	-11.4035067009558	37.0500918649299	-9.6602062399651	-3.36350731524852	-46.2490259921414	-17.0100489002715	-26.356521931691	27.2752484187544	
2477000000.00004	-11.3684818559222	36.7706767172225	-9.66542526148146	-5.73213843367675	-46.375754890415	-19.1915151281401	-26.4291552920723	26.2013350664883	
2477333333.33337	-11.3322845967577	36.4831406040544	-9.66459317061191	-8.03459622429527	-46.0798906459423	-22.7945004732982	-26.5309816120514	24.958148081815	
2477666666.6667	-11.2997623750923	36.1078703021063	-9.66942345900184	-10.382711653518	-46.3257891814505	-22.4672051345669	-26.5810011091354	23.9259242158308	
2478000000.00004	-11.2543925083507	35.77822876265	-9.67990380633366	-12.6875456924079	-46.9717492420566	-25.8013439923708	-26.6483281931589	22.5548648025288	
2478333333.33337	-11.2220760353087	35.4261063934349	-9.6839661757921	-15.0455589309796	-46.3397864351818	-27.0226974002667	-26.7118353463069	21.3475079425956	
2478666666.6667	-11.1908761219163	35.0811516935978	-9.68363872230799	-17.3516551981712	-46.2636190128575	-27.3732765619128	-26.7816920313964	20.282957190658	
2479000000.00004	-11.1542031821075	34.7131716859072	-9.694668431153	-19.7032201295527	-46.4217466728492	-31.3972670401311	-26.8187598050069	19.1418640557198	
2479333333.33337	-11.1208876395223	34.3883212559483	-9.69828510706785	-22.0596437109551	-46.1067718536418	-33.2338764567507	-26.9005475259839	17.6890972192479	
2479666666.6667	-11.0848644381946	34.0695037897089	-9.70420970161105	-24.349181405621	-46.5211681730271	-38.3339949011727	-26.9336436972405	16.3435295778597	
2480000000.00004	-11.0640881457469	33.6586548413158	-9.70568098187223	-26.6729379098811	-46.2069779254647	-39.2088330217431	-26.9799642798041	15.0990974201059	
2480333333.33337	-11.027102367161	33.2981564013947	-9.71377535657562	-28.9832575718577	-46.3573010856484	-40.3870405701258	-26.9879445342489	13.8938474266749	
2480666666.66671	-11.0044594649273	32.9754787065654	-9.71257009240247	-31.3114065976056	-46.2044816568898	-42.9063486762519	-27.0363488154765	12.702440797428	
2481000000.00004	-10.9787134220951	32.575980336393	-9.72308124063253	-33.5961674141273	-46.2695368456841	-45.7669631830392	-27.0336077663412	11.1409791338895	
2481333333.33337	-10.9489411336062	32.168506339875	-9.7274490999759	-35.8868210165925	-46.2027234826035	-48.1191745471029	-27.0553059101823	9.99549081753847	
2481666666.66671	-10.929707487041	31.7810097226364	-9.72257682039245	-38.2407153689099	-46.2435763168685	-49.9231830603357	-27.0447303480521	8.35720303535136	
2482000000.00004	-10.9108940945441	31.3852684970202	-9.73451086098792	-40.5261646453552	-46.2891709962262	-52.5352668286441	-27.0510957325637	7.206732028191	
2482333333.33337	-10.8876050161897	31.0306445759602	-9.72678519013064	-42.816999691068	-46.2796167858575	-53.2640874121903	-27.0426921733704	5.7603105957804	
2482666666.66671	-10.8696704210728	30.6045595124859	-9.73248594677246	-45.0944335986311	-46.0758701925174	-57.4763191271439	-27.0380942611217	4.42584675801033	
2483000000.00004	-10.8465367283259	30.1249884769392	-9.73186443370837	-47.4288261316869	-46.2514839713402	-58.968654708479	-27.0155313075474	2.9186149222335	
2483333333.33337	-10.8327437620768	29.6903557797857	-9.73585336670434	-49.686025548265	-46.5483660491829	-62.504817084698	-26.9710201704901	1.55319081203544	
2483666666.66671	-10.8234557790399	29.2548280204108	-9.73713309089948	-51.9955196221852	-46.2850725471144	-62.6030379255246	-26.9339819647157	0.357413908075755	
2484000000.00004	-10.8002730518181	28.8082975782711	-9.73666929100293	-54.2447762305746	-46.3927513556595	-65.7061218198701	-26.9320337555201	-0.909648401027995	
2484333333.33337	-10.7809754800248	28.426263514624	-9.73454425224103	-56.5217501741514	-46.2379058376112	-68.6600705692196	-26.8722502070795	-2.36901850613279	
2484666666.66671	-10.772393947056	27.9991790484616	-9.73428901295367	-58.8458536895809	-46.1044263151289	-71.9852308903162	-26.8452284416217	-3.64346788310963	
2485000000.00004	-10.7552638651654	27.5617815588558	-9.72756083654373	-61.1165431239117	-46.6135524302013	-71.9678304224947	-26.7354302266339	-4.80453429804002	
2485333333.33337	-10.7436130228139	27.0953392224293	-9.73440930558274	-63.386218525455	-46.4128648560883	-75.0505916785737	-26.6899380380807	-6.05299125363776	
2485666666.66671	-10.7415624904973	26.6657717685629	-9.72248885533406	-65.6755717124789	-46.4898644461855	-79.1868615194547	-26.6266816836796	-7.15891594977024	
2486000000.00004	-10.7227175708497	26.169585705412	-9.73030864851572	-67.9431284202065	-46.3721893147573	-79.7148673952025	-26.5360120110743	-8.26104761454152	
2486333333.33337	-10.7160162828075	25.6895465829457	-9.72475353532736	-70.1966493714409	-46.2443347426332	-80.5061372585594	-26.4695387940112	-9.37194811878078	
2486666666.66671	-10.7231536051584	25.3196947720482	-9.72030091351554	-72.5035968540969	-46.2062614951957	-84.5192670391082	-26.4388520786983	-10.4889994715416	
2487000000.00004	-10.7222712451245	24.7892149823911	-9.71122724307755	-74.7936609232778	-46.3050193530558	-87.1020308110159	-26.3528585711003	-11.6224283044073	
2487333333.33337	-10.722650094035	24.2652190018383	-9.71441857256393	-77.0692574159489	-46.4224344533767	-87.7170147755527	-26.2561624920419	-12.7349100526052	
2487666666.66671	-10.7137442060234	23.7565171341614	-9.706517913706	-79.3437213050589	-46.5465574348173	-89.4703766303496	-26.1992032475679	-13.757251468566	
2488000000.00004	-10.7346892580731	23.313812321142	-9.70503234788855	-81.5808750589886	-46.2023157024749	-93.4268360874964	-26.1352380308537	-14.7611143127221	
2488333333.33338	-10.7284748205742	22.8178342840333	-9.70248983971489	-83.9164678402869	-46.3796872759758	-97.7841655676335	-26.0665135199642	-15.6016845783814	
2488666666.66671	-10.7304984639531	22.3035323727408	-9.69683734272876	-86.2087197259878	-46.2162017847051	-97.4314962165427	-25.9894880812623	-16.6184118174556	
2489000000.00004	-10.7430503684621	21.7065988785117	-9.68624595045757	-88.4856186507944	-46.6263107223598	-99.3633358003525	-25.9116475809191	-17.5677305796111	
2489333333.33338	-10.7622674382216	21.2679829991976	-9.68227645972937	-90.7629670272615	-46.3693722869429	-103.57476511529	-25.8549832400447	-18.410390620289	
2489666666.66671	-10.7676135581525	20.750386355499	-9.67787086748621	-93.0244382615611	-46.4898925859785	-104.591620665484	-25.790316544192	-19.235459993387	
2490000000.00004	-10.7767477940651	20.0945071490507	-9.67501380731444	-95.3450817886199	-46.2317985990689	-105.476047374298	-25.7043765946187	-19.7837686445326	
2490333333.33338	-10.7935218878469	19.6005575174465	-9.67135830415727	-97.6573254773953	-46.4974616690842	-110.019748398814	-25.6950651515292	-20.771526509203	
2490666666.66671	-10.8123032813348	19.0001803206607	-9.66768200759506	-99.957811071383	-46.4529993084216	-109.988259562396	-25.6213418723855	-21.4416451997581	
2491000000.00004	-10.8246596833666	18.4883244814645	-9.65958254236439	-102.210774923705	-46.4020886022959	-114.706217147254	-25.5393209503289	-21.8928886054784	
2491333333.33338	-10.853280920012	17.9152328921278	-9.6528205450522	-104.5256934067	-46.4323775897589	-115.51247238384	-25.5016038366282	-22.6675430925894	
2491666666.66671	-10.8712587339127	17.3610224324826	-9.64418409921761	-106.778362037871	-46.3853177282417	-118.278433824903	-25.4738100624429	-23.1906385259573	
2492000000.00004	-10.904533691571	16.775279191217	-9.64625563099256	-109.075538119129	-46.5135410871319	-120.594548157362	-25.4113167105304	-23.6997178044157	
2492333333.33338	-10.9309965800434	16.2016568802119	-9.63954180432236	-111.348741710336	-46.7527721992871	-122.527598941205	-25.36251772816	-24.3362310293924	
2492666666.66671	-10.951907057452	15.6205931911128	-9.63771776060765	-113.662220689544	-46.5075864620051	-124.777374156574	-25.3375449635645	-24.6158720262995	
2493000000.00004	-10.9779946294277	15.067273379189	-9.63248056546457	-115.926718310167	-46.5154700986186	-126.514038464694	-25.2788448937906	-25.0225047014004	
2493333333.33338	-11.0129242712788	14.4536805754163	-9.63378237240283	-118.204074521961	-46.4439225475929	-129.380692160657	-25.2854484853862	-25.5629947265956	
2493666666.66671	-11.0291517846366	13.9061408616806	-9.62488662215209	-120.478673502417	-46.6219867060068	-131.521836012143	-25.2665231153826	-25.904638019665	
2494000000.00004	-11.0804704304525	13.2451223077923	-9.62528650336304	-122.774141516536	-46.1282707033221	-134.291646470799	-25.2496139257047	-26.3261960360212	
2494333333.33338	-11.1020299485233	12.631485410401	-9.618213197048	-125.011619006147	-46.4216468400946	-136.405446512926	-25.2017434292907	-26.4335195009833	
2494666666.66671	-11.1371774915994	12.0488072841696	-9.61610207812296	-127.328768765914	-46.8590285764731	-138.721033992342	-25.2486433455649	-26.4770435981388	
2495000000.00005	-11.1687093271151	11.5084394896431	-9.6151962188099	-129.59067307711	-46.591723869911	-140.43736314156	-25.2319348971274	-27.0937551378189	
2495333333.33338	-11.2017638841743	10.8603333846218	-9.61355246540247	-131.874893776604	-46.348676125297	-142.002734230848	-25.2227806217224	-26.9543817667601	
2495666666.66671	-11.2387596363152	10.2990710283978	-9.61092416626545	-134.122019539812	-46.3997177798578	-147.561197878429	-25.2203435117029	-27.1965497524453	
2496000000.00005	-11.2650851543841	9.67663019971487	-9.60998742515036	-136.449409754566	-46.412507984252	-147.898352477741	-25.2797481381955	-27.0154097674148	
2496333333.33338	-11.3044758172636	9.00333761588903	-9.61038331353377	-138.704505049424	-46.4423714883682	-150.542155786381	-25.2809049726779	-27.093563108545	
2496666666.66671	-11.340097519266	8.38635545747555	-9.60806660378535	-140.973783553269	-46.5045296461529	-152.747642864829	-25.3253251843169	-27.3222638740671	
2497000000.00005	-11.3818895668076	7.78782940029576	-9.60988535222813	-143.231202055167	-46.6215665578538	-154.596364211333	-25.3820817161948	-26.966277967388	
2497333333.33338	-11.4063103803703	7.23058461419205	-9.60856069635875	-145.545334014789	-46.7087872666502	-158.206655037165	-25.4104773325115	-26.7443605915191	
2497666666.66671	-11.4488036922584	6.57401236053945	-9.60196275315955	-147.816668335232	-46.4908306221943	-159.128329552437	-25.4604480522455	-26.8526226851513	
2498000000.00005	-11.4953724901019	6.02522792027844	-9.60426705678182	-150.066350513993	-46.3886441315592	-160.405144783361	-25.5052738354271	-26.6152711381485	
2498333333.33338	-11.5222484318796	5.41122115955294	-9.61156660525948	-152.307105275838	-46.2730598593987	-163.384421026792	-25.5650757787469	-26.1713150033761	
2498666666.66671	-11.5550287639319	4.80169136652859	-9.60983337216255	-154.620886376367	-46.5779937623371	-165.179434808003	-25.6347080835933	-26.1410487761583	
2499000000.00005	-11.5856072148323	4.26421385642348	-9.60864225328253	-156.831723429447	-46.5628757555383	-169.186891620782	-25.6476497389593	-25.4942242584439	
2499333333.33338	-11.6241307841389	3.64599034774149	-9.61971043502024	-159.118204153912	-46.4171827814608	-170.637302146604	-25.7630043459655	-24.9638504018075	
2499666666.66671	-11.6626962616117	3.10338164371683	-9.62139996897342	-161.405367437519	-46.4977388704273	-173.979260322425	-25.8274904527693	-24.4964463153379	
2500000000.00005	-11.6966131711976	2.47816748994661	-9.61598931501014	-163.710991716961	-46.5206628777951	-175.773632883153	-25.9296879321898	-24.0656243293165	
2500333333.33338	-11.7178915390926	1.9274412955535	-9.62285616947874	-165.973513686367	-46.4738022544611	-176.643434202521	-25.9835526684745	-23.1059465471157	
2500666666.66671	-11.7607835714091	1.35114749273353	-9.62209866038122	-168.184970085206	-46.423457260177	-177.680528165259	-26.0754183950341	-22.5589645487229	
2501000000.00005	-11.7902573808317	0.798821380314672	-9.62848340051704	-170.555274941551	-46.6101399161769	178.176403458054	-26.1085681506255	-21.7376906189511	
2501333333.33338	-11.8097555592395	0.169648763504254	-9.62400436431399	-172.785640012548	-46.3910692039465	176.456792225635	-26.2015196114208	-20.7189844606695	
2501666666.66672	-11.8448455262712	-0.372231765106986	-9.63761413292059	-175.055167843618	-46.2959547509943	174.481049108611	-26.2631468140287	-19.7445629311699	
2502000000.00005	-11.8720460610375	-1.02435787564851	-9.63854531246697	-177.354225186755	-46.184244901683	171.467821095554	-26.364849505024	-18.3545453345444	
2502333333.33338	-11.9004898007913	-1.56451538435928	-9.65077488245079	-179.59917061656	-46.3085212062184	171.027353697327	-26.450058515977	-17.1935551324353	
2502666666.66672	-11.9303156628896	-2.27846682050416	-9.658216613645	178.16873663318	-46.3856312738294	166.455479199268	-26.4765417938612	-15.8242068485603	
2503000000.00005	-11.9587163615844	-2.88615383524308	-9.6570195099753	175.858910653603	-46.4839634911391	165.41123634081	-26.4871531742634	-14.6256018284014	
2503333333.33338	-11.9814210889484	-3.54013462322066	-9.66206623874777	173.661061918017	-46.2269247329451	163.616411495242	-26.5706574626152	-13.5655669541958	
2503666666.66672	-12.0093035770472	-4.19206278935348	-9.66834839997802	171.33884436703	-46.3872118411432	160.239726129557	-26.6032003975879	-11.6170874457695	
2504000000.00005	-12.0275400029889	-4.79802901995383	-9.67205723094129	169.115791187605	-46.4206263903177	157.094896365115	-26.5942361580761	-10.2499599155333	
2504333333.33338	-12.0448064502714	-5.38959081865046	-9.67997212080456	166.83503484981	-46.3878414890163	155.841719010476	-26.6446015014378	-8.59255677035162	
2504666666.66672	-12.0756288698386	-6.07377780635022	-9.68475954801176	164.579986549545	-46.5102431984109	152.992299015972	-26.6838216479746	-7.04069059191827	
2505000000.00005	-12.0872307543115	-6.7847148150571	-9.69309324443555	162.350347403196	-46.300558947218	150.746705099813	-26.6602179912992	-5.16755635070209	
2505333333.33338	-12.1049439782305	-7.39110223685271	-9.70679980460345	160.098405480328	-46.1607074048293	149.282393074584	-26.6394976403532	-3.30813904335798	
2505666666.66672	-12.1222627183048	-8.00090005072453	-9.71871863708146	157.865188669209	-46.094002178267	146.041591200278	-26.6020473765464	-1.64429453625739	
2506000000.00005	-12.1317920900188	-8.70425911424221	-9.72235291345605	155.613268285312	-46.6775316307509	146.193041922987	-26.5914470727377	0.0637100157833407	
2506333333.33338	-12.1501409085188	-9.40239623399875	-9.72510914445909	153.334505897612	-46.1714827895125	142.130277112765	-26.5093146127167	1.55454282315948	
2506666666.66672	-12.1651209647789	-10.0280335087592	-9.73821954977736	151.119607865984	-46.4761322624086	137.088362901229	-26.4008406530058	3.22059745771225	
2507000000.00005	-12.1777547439235	-10.7136194874347	-9.73991433373629	148.84793192681	-46.2883761569353	135.676521066185	-26.3303906380668	5.10631888569367	
2507333333.33338	-12.1853936537114	-11.4076602249015	-9.75128528440163	146.590610966893	-46.4643546480399	134.74313078124	-26.2924994219616	6.85182373295788	
2507666666.66672	-12.1955812517242	-12.0210758617004	-9.76227851971625	144.355484440645	-46.5455736167487	133.101449988476	-26.1712331717941	8.32882258962746	
2508000000.00005	-12.2114999045756	-12.7801030723591	-9.76666477878736	142.120754865851	-46.4187476108566	131.275519173182	-26.065547390232	10.0768276114036	
2508333333.33338	-12.2169269795787	-13.4976739180058	-9.77858985501556	139.842895375875	-46.5032803241996	126.0478575857	-25.9207666530303	11.2923768595399	
2508666666.66672	-12.2283160719973	-14.2622863421327	-9.78707292909734	137.624022536424	-46.6042761243414	125.943604326501	-25.7806993802246	12.8026589255863	
2509000000.00005	-12.2378779456793	-15.0142855194156	-9.796634223296	135.373845103452	-46.3358455884499	123.305761061806	-25.633909295601	14.2842782454228	
2509333333.33339	-12.2395831066451	-15.7113088638332	-9.81077483827353	133.123241666998	-46.2626278112941	121.625181549156	-25.4645577921921	15.567306063363	
2509666666.66672	-12.2505511016428	-16.4315241899613	-9.81636093547176	130.851110717452	-46.5025629652784	121.019515596358	-25.3558791109563	16.6668251867618	
2510000000.00005	-12.2564096054846	-17.2072775541172	-9.82005678359336	128.614979025804	-46.2786764590217	116.98150544313	-25.1979843216825	17.8763095615982	
2510333333.33339	-12.2600238505645	-17.9130215063937	-9.83402058017382	126.377841949663	-46.1846268666807	113.6334751103	-25.0418372150835	19.0089273022905	
2510666666.66672	-12.2641377141795	-18.671024627663	-9.84595895944734	124.120971702378	-46.536430499839	113.386101478603	-24.8523138464752	19.845956891124	
2511000000.00005	-12.2691201295417	-19.4080748444847	-9.84728951057829	121.909409547984	-46.3841982573107	111.423882317476	-24.6999006568798	20.9336225218895	
2511333333.33339	-12.276441375945	-20.1165479299055	-9.86546181075172	119.652928816897	-46.2751770511489	108.322300486785	-24.5555471610461	21.7462760846614	
2511666666.66672	-12.2790666935136	-20.8233288581277	-9.87606785255147	117.421043488053	-46.2830848719031	106.967298626836	-24.3959355801669	22.689955795557	
2512000000.00005	-12.2732908186196	-21.5809897357694	-9.88076648840794	115.188145623962	-46.2714889393395	103.659534751793	-24.2367264635155	23.3926971387133	
2512333333.33339	-12.2860764830765	-22.2726930964039	-9.8916552564558	112.944982447966	-46.1815992444932	100.625357471062	-24.0864962171783	23.8514394509223	
2512666666.66672	-12.2934428056731	-23.0171048960397	-9.89777372069964	110.674129625099	-46.4314251279467	98.5254283183555	-23.9278079006413	24.4686470856304	
2513000000.00005	-12.2915225026736	-23.7016824766481	-9.90916212671815	108.409588519018	-46.4606579173556	96.3444662692626	-23.8018393728424	25.2199105091346	
2513333333.33339	-12.2932194382316	-24.3903935171195	-9.92681053986786	106.172987767732	-46.4024249527364	95.8165145768262	-23.6673496431813	25.5805669117995	
2513666666.66672	-12.2939397190059	-25.1249776545534	-9.92814583572691	103.933461324866	-46.2536876783143	92.0557774753091	-23.5225934915893	25.8732272778508	
2514000000.00005	-12.3010674172289	-25.8434440870618	-9.94198464268488	101.63572593759	-46.6871110995202	89.4927947108227	-23.3953741697626	26.3256801926428	
2514333333.33339	-12.3096827139894	-26.6160221622002	-9.95386847058864	99.4155096244604	-46.0902830621997	86.5397463976099	-23.2762747443543	26.5725765007717	
2514666666.66672	-12.3081377523655	-27.2853364394458	-9.95919226596831	97.1459234116967	-46.3695169985682	83.0029022443502	-23.1436176738088	26.8023100000966	
2515000000.00005	-12.3162625909493	-27.9973431799178	-9.97136571239701	94.8524752776406	-46.2490646486796	83.6313253036761	-23.0268605310971	27.1343169858475	
2515333333.33339	-12.3190629913664	-28.7168820904117	-9.97869441598804	92.6326499019567	-46.6341737715767	82.1177210634366	-22.9247341025122	27.1899434681561	
2515666666.66672	-12.3263926959267	-29.424139751258	-9.99438484898351	90.3274682850393	-46.7141076978438	76.3511299885508	-22.8120797586908	27.4356424906571	
2516000000.00006	-12.3369009947639	-30.0800672870522	-9.99669882960025	88.0972581235204	-46.5667162664139	76.5285243343698	-22.7384144668069	27.5608771527244	
2516333333.33339	-12.345504852165	-30.7092971266291	-10.0167691896656	85.8285826679438	-46.4061175511593	73.816516687676	-22.6421150212802	27.2177264368044	
2516666666.66672	-12.3549076824832	-31.3662472167226	-10.0141756541541	83.5474034497959	-46.3095146740074	72.2921784489166	-22.5706112545634	27.5115107442666	
2517000000.00006	-12.3560892745023	-31.996536346973	-10.0323394204569	81.2924149968366	-46.4291752788822	68.0287485700771	-22.4987359229049	27.5020653358125	
2517333333.33339	-12.3721506070331	-32.6402772737122	-10.0371908046959	79.0515131301258	-46.3402663197552	65.6873207893293	-22.4335303654574	27.4673414333657	
2517666666.66672	-12.3815400726342	-33.2486529337249	-10.0496802583591	76.7486697947663	-46.8905590293728	64.6920380419792	-22.3689473841959	27.295439102727	
2518000000.00006	-12.3933152957761	-33.8478120084628	-10.0554404198131	74.4593850278193	-46.6142907631198	64.0617997976542	-22.3100375548706	26.9320968375153	
2518333333.33339	-12.4101402541727	-34.4236410396619	-10.0622658524262	72.2014818678267	-46.5921358557714	61.0746298518448	-22.2993522521195	26.9757625792923	
2518666666.66672	-12.4152028219317	-34.9932843699273	-10.0729555495945	69.9727718985947	-46.4429707026285	59.5955500464837	-22.2464373586948	26.6352716333941	
2519000000.00006	-12.4362686908903	-35.5114457588895	-10.0798435594725	67.6591501131748	-46.5603145178187	56.2184408153502	-22.2130598768271	26.5718533092678	
2519333333.33339	-12.443437352935	-36.0643155476073	-10.0860453360808	65.3823108879096	-46.6636518430509	51.9884231112195	-22.2023390698445	26.218835561938	
2519666666.66672	-12.4578516006294	-36.5756784301252	-10.0975045127647	63.0874703430964	-46.6536240001109	51.2046420798497	-22.1854999771579	26.0857214295762	
2520000000.00006	-12.4792714201751	-37.1205263641385	-10.1056405628306	60.8575589531194	-46.5819544067426	48.4472070172955	-22.2162860010985	25.7128558922272	
2520333333.33339	-12.4985433775326	-37.6233498826905	-10.1149009902416	58.5805873039282	-46.6413921560293	46.9445786423594	-22.2016365604252	25.4412989682557	
2520666666.66672	-12.5120608797512	-38.0880994087295	-10.1203828191834	56.2857225327097	-46.7540858999073	44.1704662629241	-22.1855973818357	25.1195715527476	
2521000000.00006	-12.5394376398332	-38.5853842444737	-10.13324637096	54.0181325564831	-46.9569873875635	41.3760800139221	-22.2472107019444	24.7797412162982	
2521333333.33339	-12.546576185439	-39.0888866498051	-10.1398934396083	51.7591534303441	-46.8299065640587	40.8392326824408	-22.2880736349099	24.2194917070677	
2521666666.66672	-12.5710099620089	-39.5554603382231	-10.1513597719554	49.4699049752889	-46.5173820701193	37.9152181744187	-22.3068276679105	23.9751618408308	
2522000000.00006	-12.5921431914055	-39.9533627855373	-10.1605971492981	47.2031962644292	-46.9636735187046	34.8486267270339	-22.3664444567081	23.7764055401121	
2522333333.33339	-12.6169246739322	-40.39851553226	-10.1661895733836	44.9552804621275	-46.8881996533897	34.5471574403026	-22.4148679753181	23.2723993826739	
2522666666.66673	-12.6328918214787	-40.8658468995394	-10.1781560012385	42.6598877275413	-46.7486212429665	29.183768493293	-22.4875512999675	22.6834338654698	
2523000000.00006	-12.6572936605255	-41.2655100583734	-10.1893434141816	40.4339174999275	-46.7902100296304	29.1453738549633	-22.5444640138834	22.2652459362568	
2523333333.33339	-12.6741912208669	-41.5831699435718	-10.1944386667568	38.1356835591958	-46.744538968631	24.6150681554725	-22.625041290731	21.679065806651	
2523666666.66673	-12.6990619461461	-41.9959519778701	-10.2028404416534	35.9006579575228	-46.5443137748738	23.918244534159	-22.720832266365	21.2712728176656	
2524000000.00006	-12.7226757166603	-42.3710416671038	-10.2167652500368	33.6690653408904	-46.5445363086312	22.058182965434	-22.7978715036681	20.767590224578	
2524333333.33339	-12.7568661382435	-42.7173181631572	-10.2133468845329	31.3887830353082	-46.8836733471611	19.6212750497589	-22.9128876942538	20.3523605747217	
2524666666.66673	-12.7790668097024	-43.0609692315114	-10.2279630222971	29.1537531599589	-47.2391191748631	18.8783009665108	-23.0525458618757	19.781274965208	
2525000000.00006	-12.8024920950144	-43.3578916733263	-10.2337266002204	26.9109186474661	-46.9657155922552	16.5117619398766	-23.1426764222469	19.320113669482	
2525333333.33339	-12.8332679350037	-43.6351237849625	-10.2395634226142	24.7187406777831	-46.7544276788014	13.9593511619529	-23.2879721467959	18.7432075895788	
2525666666.66673	-12.8627563126509	-43.9391981188474	-10.2461787926905	22.4680452932607	-47.1113378620413	7.95659628716493	-23.427694276997	18.2264839252676	
2526000000.00006	-12.8842479796724	-44.2500582387568	-10.2531198016121	20.2609846143446	-46.7776323606743	8.90659713528056	-23.5970673573884	17.5220363240303	
2526333333.33339	-12.9283186362224	-44.5395506744537	-10.2656746445153	17.9995581512772	-46.7468050674683	5.88442272939781	-23.7079542068944	16.9280806668277	
2526666666.66673	-12.945295212163	-44.7243245481832	-10.2690398869964	15.8340579462916	-46.8352149119599	3.7610670311774	-23.8743306152641	16.5523985709987	
2527000000.00006	-12.9743643785295	-45.0190547132013	-10.2734123292373	13.6183551236619	-46.9534253140488	0.551477037619324	-24.0823189479174	15.8386163289781	
2527333333.33339	-13.0046484252475	-45.2673881275736	-10.2646460591576	11.3649289665719	-46.7165534076635	-1.75046972199149	-24.2831118349731	15.2855629889962	
2527666666.66673	-13.0402210366641	-45.4789454689843	-10.2734325547357	9.16710810316235	-46.8168963597333	-4.29044593891017	-24.4783489374523	14.5880202668522	
2528000000.00006	-13.0635779212006	-45.6586274192703	-10.2779270583341	6.90939965096133	-46.8214110969897	-4.79939483216244	-24.6977230871055	14.1165219210607	
2528333333.33339	-13.0977678035671	-45.9082660878062	-10.2721177564304	4.71589005166427	-47.0006759487472	-7.32274996862425	-24.9192180732185	13.6701511330179	
2528666666.66673	-13.1295752326828	-46.2035721746877	-10.2798302259098	2.5173346431179	-46.5463618698253	-9.92432700353645	-25.1569687867215	12.8219808950983	
2529000000.00006	-13.1647392512026	-46.4312790388681	-10.2667032492267	0.335843227116972	-46.8732225806114	-11.8874392127825	-25.3625535899489	12.3511121245957	
2529333333.3334	-13.1958019101966	-46.6530086577551	-10.2640701088731	-1.91397367796913	-46.9609358818814	-12.8030276767157	-25.6405062163294	11.7360923413658	
2529666666.66673	-13.2262610737952	-46.8194027036032	-10.260085026647	-4.12469894407934	-46.8090971336823	-16.3158370132563	-25.9029692726734	11.3088618126759	
2530000000.00006	-13.2660197795547	-47.1511714788054	-10.2667987007985	-6.30365329858249	-46.7343887191664	-18.2508376260646	-26.1824007960129	10.7912596609888	
2530333333.3334	-13.3017884690566	-47.3158870739153	-10.2626821509258	-8.54990173188967	-46.8217438877092	-19.5376436960496	-26.4852221238948	10.0241126281341	
2530666666.66673	-13.3368139442045	-47.6402686953345	-10.2623126257784	-10.7409721761218	-46.7018137601173	-22.2429558245804	-26.7680888277854	9.55508911854585	
2531000000.00006	-13.3730608716174	-47.8686092601849	-10.2505311114819	-12.8975644666515	-46.6383228532469	-25.1607997471466	-27.0811283687437	9.04208458211651	
2531333333.3334	-13.4146633301741	-48.1612026538128	-10.2463166497638	-15.1474030369551	-46.5278121318931	-28.4288849728898	-27.4058206381812	8.6102740427798	
2531666666.66673	-13.4609396789135	-48.3005788514097	-10.2351232341404	-17.3546062389431	-46.7087144190832	-29.2542191192189	-27.7658688977655	7.92992837843056	
2532000000.00006	-13.4951052090054	-48.5663845166003	-10.227696840897	-19.571988630441	-46.9281634541137	-31.8191855662959	-28.1591535761708	7.66187342157321	
2532333333.3334	-13.5260497328936	-48.8876137518895	-10.2173998532833	-21.7672425122436	-46.7404688914388	-33.5747136719567	-28.4903421565736	7.25457215702244	
2532666666.66673	-13.5810221764787	-49.1388639083822	-10.2052077662542	-23.9997918310369	-46.957838160876	-34.6470377491246	-28.8928880784892	6.64316307399132	
2533000000.00006	-13.6435524120951	-49.3039835511026	-10.1972422493965	-26.2286227585264	-46.6224028327141	-39.359253725771	-29.3420369189617	6.88019424355925	
2533333333.3334	-13.6681470299687	-49.5896783305437	-10.1916741144131	-28.4315464935036	-46.8557630535255	-41.0557364710989	-29.6710554230519	6.48300914133343	
2533666666.66673	-13.730698769946	-49.842797709329	-10.1723880253687	-30.6591357820655	-46.790978023686	-43.9683879305189	-30.2574162516057	6.43859467069746	
2534000000.00006	-13.7535729987306	-50.0984702066259	-10.1628193231998	-32.8832882156593	-46.666665780301	-44.0991473673884	-30.6491276059874	5.99603573768459	
2534333333.3334	-13.8169812899844	-50.3226368514056	-10.1521586390246	-35.1283083250093	-46.5747656183312	-45.5746084658362	-31.1655987989544	6.53987758977375	
2534666666.66673	-13.8676215896201	-50.5878500924573	-10.1365077268421	-37.3450384271827	-46.6508180314316	-50.2477944535668	-31.7263957531917	5.72866431129593	
2535000000.00006	-13.921372485982	-50.8689691989607	-10.129740890685	-39.5961000603133	-46.7907342623466	-51.5615803556459	-32.2025437542631	6.60953727362532	
2535333333.3334	-13.971904286691	-51.126311923557	-10.1115188188157	-41.8579481780273	-46.4998303251125	-54.2434258789315	-32.7378701069465	6.67921819499964	
2535666666.66673	-14.025914693494	-51.3208721125404	-10.1090193006359	-44.1044295246825	-46.428014751115	-57.4692206280882	-33.3316481451498	8.01189311975835	
2536000000.00006	-14.0708814503985	-51.6283747892729	-10.0926333238479	-46.3757302961107	-46.7426444057836	-58.1812923351889	-33.8224039525078	8.41550305046392	
2536333333.3334	-14.1176235631715	-51.9332614058229	-10.081861397843	-48.616375347501	-46.5276830273747	-58.7319556022052	-34.3847665719087	9.14864714347483	
2536666666.66673	-14.1666226462346	-52.2108535923979	-10.0621520257487	-50.8825366000946	-46.7369295053915	-64.2110352312283	-35.0615213748467	10.9918444593649	
2537000000.00007	-14.2262812583087	-52.4004042564446	-10.0559982157833	-53.1738397704873	-46.4536774244047	-63.7510725470967	-35.7142090650515	12.1402885502169	
2537333333.3334	-14.2736707484794	-52.6778945697555	-10.0453406482387	-55.4083565935128	-46.4549118755107	-66.2358349772159	-36.2956477906327	14.7906481454931	
2537666666.66673	-14.3414914188415	-52.9233797306952	-10.0337417474006	-57.7261815304742	-46.6975599910564	-68.0340572047653	-36.7805586719559	17.7661165662718	
2538000000.00007	-14.403660523543	-53.1719148356211	-10.0239698578002	-59.9534582849578	-46.7358519819507	-70.5147406730539	-37.2443553121772	21.1055876480906	
2538333333.3334	-14.4562059537385	-53.4600300450302	-10.0137679551968	-62.3144098065015	-46.7113479772223	-71.3541777339364	-37.75964287922	24.5769065322916	
2538666666.66673	-14.5237513942465	-53.6974969486931	-10.0032761050046	-64.5706635730353	-46.7323168118288	-75.8648232384462	-38.1943869169432	28.5399473798623	
2539000000.00007	-14.5590827402808	-53.8909686538798	-9.99146117807325	-66.8477978978533	-46.4447641495148	-78.2648680102407	-38.4062981723351	32.835404912652	
2539333333.3334	-14.6514865030354	-54.1580092818964	-9.98592384193036	-69.1322774469217	-46.6162930591117	-79.650678562424	-38.5797026356353	38.5865024628205	
2539666666.66673	-14.7197823754276	-54.3461267015212	-9.97146861815622	-71.461295802743	-46.6821451327921	-83.8012674668921	-38.7027437649811	41.6920421854511	
2540000000.00007	-14.7786150741855	-54.7275081352435	-9.96394149945648	-73.7661767311246	-46.4728446947598	-82.8054738943866	-38.6277339595643	47.1503759066302	
2540333333.3334	-14.8276046116856	-55.0156656444065	-9.95960565899655	-76.0374786880755	-46.6153479053104	-85.5199164759678	-38.4466182687312	50.934222221723	
2540666666.66673	-14.8992450260631	-55.3016347462872	-9.95247089486287	-78.3684928188093	-46.3969556163473	-86.815890933674	-38.144150385052	54.5825863156139	
2541000000.00007	-14.9731042705226	-55.6701753699719	-9.9439876360726	-80.6379961642032	-46.6899887183388	-90.2814617328475	-37.7731119993807	56.5521453011985	
2541333333.3334	-15.0280142964178	-55.9567877762262	-9.9396683180355	-82.990862043923	-46.4140554939836	-91.2584297349402	-37.4840598774555	60.6726721965748	
2541666666.66673	-15.0913340566883	-56.442454897965	-9.9275437524533	-85.3221165103046	-46.6781878566923	-96.4623864917638	-37.0104461612011	62.6814680611155	
2542000000.00007	-15.1697962138541	-56.7170601396999	-9.9288268724144	-87.5617480622561	-46.4292576293744	-97.1595262352626	-36.5612392652608	64.2606030416045	
2542333333.3334	-15.2360980128051	-57.1257319278473	-9.92602154577258	-89.9005409900533	-46.6489512160559	-100.120224113372	-36.0327274152268	64.709803210417	
2542666666.66673	-15.3013981356966	-57.443511165049	-9.91553723594503	-92.2398804770083	-46.3999146529851	-101.493722874353	-35.6109453640571	65.4759248442586	
2543000000.00007	-15.3530031432079	-57.9066048978539	-9.91073595004248	-94.5629753323714	-46.4251884439494	-103.036906468531	-35.1800298531722	66.0049422963027	
2543333333.3334	-15.4402324667937	-58.2126431647663	-9.91141391888426	-96.8707400686536	-46.3590277368486	-107.162685274054	-34.7062170604683	66.2019920850013	
2543666666.66674	-15.513568807041	-58.5090539714414	-9.90833477473438	-99.1630800035913	-46.4686680679576	-109.558304411263	-34.3084045686583	65.574881806512	
2544000000.00007	-15.5881785736123	-58.8938620634789	-9.90840665821653	-101.441713415305	-46.4945703288161	-112.960634863686	-33.7805572202275	65.3698521662456	
2544333333.3334	-15.6786640136984	-59.3006138595214	-9.90883657870644	-103.819313827634	-46.3494799521991	-114.811975433607	-33.3784397631236	64.0500949619242	
2544666666.66674	-15.7699531028441	-59.7775029203964	-9.91397318987177	-106.071767107206	-46.5244225572541	-116.136955251941	-32.9616147998802	62.9270894931479	
2545000000.00007	-15.8407576498545	-60.0639032422657	-9.91141464466385	-108.375034177988	-46.2358248611604	-117.984879655233	-32.4997569507666	62.5129268211688	
2545333333.3334	-15.9299268833698	-60.5394985142354	-9.90500945969555	-110.665226043233	-46.5380705367255	-120.084866945841	-32.1276338457835	61.2753448523354	
2545666666.66674	-16.0079858027122	-60.866934418345	-9.91257311112194	-112.98920620141	-46.4391944987261	-123.343287695956	-31.6738630257548	59.3032034607337	
2546000000.00007	-16.091639262851	-61.3115947677257	-9.90795207762418	-115.247205577998	-46.8036919772711	-124.570679791986	-31.265144616336	58.5056511850866	
2546333333.3334	-16.1778752770674	-61.7451400271634	-9.90915219397488	-117.581330524291	-46.2328331692519	-126.720498282534	-30.8312737537683	57.1991872096685	
2546666666.66674	-16.2510677155676	-62.3718075650883	-9.91098127407107	-119.827062486849	-46.3453220948557	-129.053340483862	-30.4660498948041	55.8920693724794	
2547000000.00007	-16.3332651210938	-62.8290541975138	-9.9110790887677	-122.141676843247	-46.3356086533192	-130.87034747157	-30.1222367379321	53.9474926847671	
2547333333.3334	-16.4288066282523	-63.30580186425	-9.91599717144358	-124.469186112192	-46.3418226142503	-133.030817786612	-29.7000583958655	52.5833674838057	
2547666666.66674	-16.4781899786919	-63.7886039269599	-9.91600084019762	-126.70085964599	-46.2446684621144	-136.43107050577	-29.3853722793258	51.0681984507559	
2548000000.00007	-16.5686809481131	-64.3482307491718	-9.91540967234819	-129.00502063108	-46.4728902881642	-137.581661027205	-29.0326510745015	49.630824692829	
2548333333.3334	-16.6505555897599	-64.9196400536864	-9.92093114260465	-131.290932489603	-46.6122351796327	-140.217429383958	-28.6733389182036	48.1344850410464	
2548666666.66674	-16.7110639087006	-65.5436414829232	-9.92386796599867	-133.565022802535	-46.207426164237	-142.788169461398	-28.302189456767	46.4267804274859	
2549000000.00007	-16.7904636068625	-66.141578545582	-9.92348580431291	-135.804510039165	-46.4649781115832	-147.286275731234	-27.9301237203634	45.0159182658041	
2549333333.3334	-16.8735139003272	-66.7499917490387	-9.92377306461629	-138.087438772802	-46.4315415073935	-148.037857219965	-27.6384837503626	43.3707269785562	
2549666666.66674	-16.9319173108979	-67.3498636402911	-9.92379575643479	-140.377766592809	-46.2034599848943	-151.282622717904	-27.2544459557665	42.0589714912605	
2550000000.00007	-17.0181288311419	-68.1531375671915	-9.92548431264426	-142.66283022302	-46.3035079908872	-151.325375120483	-26.9837489004892	40.6193585280087	
2550333333.33341	-17.1034923887936	-68.7834236307284	-9.93074027518146	-144.91876684656	-46.4989099567046	-155.417700479554	-26.6689567660481	38.7689987877958	
2550666666.66674	-17.16724962008	-69.5865825383703	-9.92782895008579	-147.214626628405	-46.4194487542441	-157.798712697292	-26.3232552002012	37.4836298957825	
2551000000.00007	-17.2392163149952	-70.2690507011718	-9.93512605266814	-149.443697376125	-46.2052304418694	-159.009720875433	-26.0362567557055	35.9618872708471	
2551333333.33341	-17.3103804895249	-70.9292005573496	-9.93727847454822	-151.697747988202	-46.3430043285123	-160.465928347466	-25.7483672634131	34.7467899457971	
2551666666.66674	-17.384664435009	-71.662757977691	-9.93483071134406	-153.982790466658	-46.6545096663146	-164.802294704473	-25.4425758609075	33.0981322726016	
2552000000.00007	-17.4755738069782	-72.5179508859834	-9.94056521405242	-156.208376660075	-46.4313299958418	-167.618345538833	-25.131485368206	31.8374360026514	
2552333333.33341	-17.5542274456921	-73.2591388468875	-9.93941518146601	-158.464268351589	-46.2920970643435	-169.05048332926	-24.8579791187585	30.5150142669351	
2552666666.66674	-17.6418958994242	-74.0674251411787	-9.94275421543786	-160.722562798711	-46.2677295773471	-172.490463125499	-24.6014701364114	29.2421954454212	
2553000000.00007	-17.712853481138	-74.7818551361547	-9.93926221767255	-162.973962090235	-46.4208718144302	-172.923980883837	-24.3054899566521	27.9558234718527	
2553333333.33341	-17.7986296371593	-75.6187205219189	-9.9466960349171	-165.230610383295	-46.2719616270365	-174.389501796334	-24.0451562192736	26.6554238235903	
2553666666.66674	-17.8706129470622	-76.2865827502811	-9.94986443354898	-167.500302090577	-46.2978266062912	-179.778837673269	-23.7760118350293	25.4565722924673	
2554000000.00007	-17.9417808660183	-77.0974897730882	-9.94858645572948	-169.723532153806	-46.1106152947894	178.174618349959	-23.5273359510396	24.3323378073115	
2554333333.33341	-18.0203233087655	-77.8931136921087	-9.95540325716824	-171.995372777068	-46.2884173683292	178.184698711918	-23.3143624569062	23.179829940606	
2554666666.66674	-18.08262711653	-78.6597472299421	-9.95556370662057	-174.19210713893	-46.3398601913164	175.096814301104	-23.0633253116862	22.0741933875416	
2555000000.00007	-18.1480674698301	-79.4188858855397	-9.95755649539861	-176.44062078894	-46.3211842859075	172.850420964588	-22.8471806634107	20.9881416355305	
2555333333.33341	-18.2125494730737	-80.2009606687996	-9.95752211724649	-178.719807807166	-46.4445101146618	170.700535721239	-22.6042304984132	19.8238773840918	
2555666666.66674	-18.2778551870423	-81.0935756759091	-9.95283447474653	179.101515091887	-46.5079913006294	169.905438806552	-22.398313373934	18.8025911272442	
2556000000.00007	-18.3449090026108	-81.7979640914704	-9.95580786501201	176.851053185607	-46.8438157857017	166.044146319582	-22.1874196633115	17.7109521387086	
2556333333.33341	-18.3993905815593	-82.4778129054793	-9.95494689360325	174.608931999834	-46.1761650561123	163.029666924284	-21.9959707309661	16.7550989518418	
2556666666.66674	-18.4420011645913	-83.2833217906584	-9.95697123333727	172.352997906406	-46.3169232107732	159.388621392559	-21.8090842398724	15.6576128267815	
2557000000.00007	-18.4922191507377	-84.0284806133053	-9.95723765199599	170.117658382251	-46.226570683467	156.952485959073	-21.5925093227135	14.6195690783003	
2557333333.33341	-18.5291996338797	-84.7748626584507	-9.96177350244735	167.856099681457	-46.4536978313324	155.849933154527	-21.4353638000249	13.7230817398959	
2557666666.66674	-18.5787092244337	-85.5104610676788	-9.95165602070305	165.61827168121	-46.1975060525452	154.071885993996	-21.2685855982899	12.9468894334987	
2558000000.00008	-18.6136744308226	-86.2507613070864	-9.95502132134621	163.353065097517	-46.5760329466415	152.10272945191	-21.1126865668595	11.9459251991706	
2558333333.33341	-18.6482872297525	-87.0131219247552	-9.95280072023223	161.109475372219	-46.3716348654469	149.910661591601	-20.948615043829	10.9418498080682	
2558666666.66674	-18.6624114502156	-87.6411242823213	-9.95008791473512	158.875859782869	-46.4856655842106	146.939113157974	-20.798771000542	10.1203282095294	
2559000000.00008	-18.6967010583728	-88.3883531975764	-9.95121272434121	156.61676241774	-46.2566543764411	143.485745622247	-20.6391554215917	9.29166165790247	
2559333333.33341	-18.710090769999	-89.1956236895713	-9.94622659718843	154.343783944096	-46.4616352073798	142.560645048425	-20.4995315499316	8.37744712989289	
2559666666.66674	-18.7122333332174	-89.7635177075815	-9.93883997554392	152.108349504084	-46.1599297062709	141.080281026701	-20.3706809177569	7.49739486895326	
2560000000.00008	-18.7369495903664	-90.4133260768058	-9.94227775526183	149.83824193219	-46.4918352583178	138.699034248893	-20.2294670097808	6.81874269951732	
2560333333.33341	-18.741373902329	-91.1429260848937	-9.94071400599922	147.572947288326	-46.3077338682819	136.060083946749	-20.1234646982413	5.97582739477913	
2560666666.66674	-18.7615513096166	-91.7577713937416	-9.93531192806111	145.340303915697	-46.2765275056183	133.318788436864	-20.0256751938903	5.07939242512654	
2561000000.00008	-18.740267817846	-92.4947990544861	-9.93193789193414	143.061806108624	-46.1364346199552	131.3066439489	-19.8994769260511	4.28027181255762	
2561333333.33341	-18.7458690687067	-93.1410543980317	-9.9273484352496	140.765479193465	-46.3063951663215	128.330597385352	-19.7957550787248	3.54536343739414	
2561666666.66674	-18.7304058941064	-93.8468903855809	-9.92107811453673	138.505260170441	-46.0909113468866	126.69588387894	-19.6815507423683	2.86071114152962	
2562000000.00008	-18.7048738215689	-94.3827096003222	-9.92666213119948	136.226312327138	-46.2419566512641	123.081351178283	-19.6051248512985	2.14822803175569	
2562333333.33341	-18.6891249747637	-95.07901229392	-9.92378070909432	133.918500317067	-46.2389083642655	121.838041792191	-19.5167389099347	1.25915161728562	
2562666666.66674	-18.6637185320537	-95.7801908146581	-9.91884812670979	131.598374166607	-46.2494305325305	116.705250430633	-19.4337912164346	0.706989275017852	
2563000000.00008	-18.6267172404657	-96.4348089155762	-9.91946948478909	129.320887887524	-46.3074459965582	118.613685228779	-19.3485465476275	0.0128889789153083	
2563333333.33341	-18.586725302742	-97.0712798905512	-9.91117916661015	127.01886816899	-46.0096659227754	113.601505869062	-19.2741857150367	-0.696977606984529	
2563666666.66674	-18.5643571588005	-97.6786829784988	-9.91285800231944	124.719390654911	-46.0888909884218	117.042925299534	-19.2211260567466	-1.29147743718303	
2564000000.00008	-18.5209912970151	-98.2705417932608	-9.90823687005653	122.410762100204	-45.9279128672988	110.311892553512	-19.1491080737985	-2.01943619423367	
2564333333.33341	-18.4797696200014	-98.858291696463	-9.9100727690719	120.084031171871	-46.0042512143949	109.013660348444	-19.0955959580872	-2.61893789804854	
2564666666.66675	-18.437963508623	-99.5287969846077	-9.90390403208749	117.788943505775	-45.986582479261	105.941073083492	-19.0570705818647	-3.0897356803329	
2565000000.00008	-18.3982213282295	-100.120318886512	-9.89850707465547	115.481601459286	-46.1895885559108	104.044464520653	-19.0157801818123	-3.93179247296874	
2565333333.33341	-18.3503738479996	-100.775461705045	-9.89625732965024	113.106405759516	-46.0528668444145	101.17264056664	-18.9833390857661	-4.44356927459638	
2565666666.66675	-18.2947855210097	-101.428134092789	-9.89826306580223	110.80707980323	-46.0712331116166	98.7143001814557	-18.9350126112451	-5.01880221195299	
2566000000.00008	-18.2602155997836	-102.063166303013	-9.88964220145028	108.411180799813	-46.1701725405673	97.3005577843721	-18.931110383403	-5.60938154810118	
2566333333.33341	-18.2026948705785	-102.723923795737	-9.89166907118122	106.071360841976	-45.9616719393423	95.4343701481432	-18.9114889830857	-6.22191909603133	
2566666666.66675	-18.1604864345816	-103.326923926172	-9.89234696139134	103.751510216445	-46.122214457465	91.42158777665	-18.8844385282711	-6.76520709390879	
2567000000.00008	-18.1158496496429	-104.011809438424	-9.88819979143063	101.403221645514	-46.0396427852573	88.8536441311748	-18.8757518387213	-7.41237156285234	
2567333333.33341	-18.077681786324	-104.662512220007	-9.89065022907718	99.0730208935703	-45.9529516771296	87.8556145952623	-18.8573081715748	-7.96793724936049	
2567666666.66675	-18.005243316089	-105.275654036453	-9.89056187225058	96.6961751212625	-46.094272327238	84.2003278710148	-18.8630662739134	-8.42436131262101	
2568000000.00008	-17.9718008805118	-106.047909321444	-9.8892213672935	94.319573979934	-46.349615190333	83.7056072916612	-18.8704569246989	-8.8679101056262	
2568333333.33341	-17.9084645273507	-106.744696551159	-9.88803267054043	91.941494934193	-46.1736072748009	79.7541274852449	-18.8633463117577	-9.43016365332226	
2568666666.66675	-17.8467296256896	-107.440233440859	-9.89379105812164	89.570580822826	-46.1391894799827	78.7502778341623	-18.8916449073967	-9.88400102177874	
2569000000.00008	-17.7935158337069	-108.245384662796	-9.89599046480351	87.2402991280879	-46.1829595613844	77.3429152431358	-18.9005132241816	-10.5195325142841	
2569333333.33341	-17.7406891975809	-108.904735038071	-9.89183407795581	84.8428726995971	-46.1432369388237	73.7125370864805	-18.9241017717151	-10.9871672715642	
2569666666.66675	-17.6934365595397	-109.540117290547	-9.90269522676612	82.4607852640259	-46.236721513054	70.7010571295466	-18.9464826356316	-11.406307779412	
2570000000.00008	-17.6418438409674	-110.350920633068	-9.90262093984775	80.0886946502548	-46.2782517952946	68.8972749516796	-18.9799109588249	-11.8103874254946	
2570333333.33341	-17.6143271295559	-111.114643136144	-9.90534581930263	77.6966690325749	-46.256240084878	67.5159941411423	-19.0236800814049	-12.2473080069897	
2570666666.66675	-17.5657241996888	-111.805042519627	-9.91209874322265	75.3182072317412	-46.0477644530464	62.661435950753	-19.0515727407418	-12.8306724532035	
2571000000.00008	-17.5378628584836	-112.506882859199	-9.92171989519128	72.985765292385	-46.4829980580897	60.8661603120292	-19.1090189227763	-13.3411140466038	
2571333333.33342	-17.5015261475769	-113.326936882419	-9.92419199459465	70.6001944635303	-46.3066499609858	59.2845012673275	-19.1646002826466	-13.7140664234224	
2571666666.66675	-17.4794051217071	-114.065185376469	-9.92428570750894	68.2139481218385	-46.2285202340593	57.2819850812424	-19.2167957849404	-14.1345703065027	
2572000000.00008	-17.4555487926439	-114.802598350961	-9.93624929588183	65.8811427079032	-46.0036498393116	55.0050808133986	-19.2755883380267	-14.6991768195193	
2572333333.33342	-17.422013132808	-115.687991355124	-9.94510239622907	63.5588233374363	-46.0656752578874	51.4565684485011	-19.3391476755869	-15.0507350987668	
2572666666.66675	-17.406855284389	-116.335878477048	-9.94948452331777	61.2261683253729	-46.1003479821938	51.1203523514704	-19.4247439957398	-15.3895784268618	
2573000000.00008	-17.3964951257256	-117.21083496848	-9.95741930793205	58.8136106724063	-46.2335161102858	48.7067996712642	-19.4696160495149	-15.9036620196885	
2573333333.33342	-17.3801234475919	-117.968866279527	-9.96093094364266	56.4793681667311	-46.1240218056465	47.036611801311	-19.562470740582	-16.2622411753389	
2573666666.66675	-17.3752059237448	-118.830700218761	-9.96976670930281	54.1510303105687	-46.2662782237594	44.9663396254216	-19.6588064371037	-16.6675565727558	
2574000000.00008	-17.3616376265102	-119.626542522118	-9.9693606096353	51.8188682044987	-46.126382121477	40.3341009516426	-19.7495931711623	-16.9125046884509	
2574333333.33342	-17.3335981428269	-120.529175380284	-9.98435839408148	49.5230019078749	-46.5468425471208	38.6751892893678	-19.8321415104518	-17.3134444152289	
2574666666.66675	-17.3240239701698	-121.381398520611	-9.98679180194504	47.181092795661	-46.3319508897921	38.7483611772146	-19.9297330535123	-17.8330847326174	
2575000000.00008	-17.3203744056818	-122.093498718698	-9.99650362538156	44.8696377269251	-46.4978498602383	36.7544450199628	-20.0296955211127	-18.1649432039486	
2575333333.33342	-17.3306376694359	-122.954056703481	-10.004066072787	42.5688646440101	-46.287294971634	32.1539796634073	-20.1510654988638	-18.5572649801758	
2575666666.66675	-17.3329599085627	-123.974276850219	-10.007361653819	40.2550413375121	-46.2980330541189	30.4614399605489	-20.2754810768629	-19.0934797201924	
2576000000.00008	-17.3600363635943	-124.676506508003	-10.0138122612068	37.9362686322912	-46.4943461365509	27.3458769795899	-20.3949647674175	-19.523862145025	
2576333333.33342	-17.3551298583221	-125.546101021651	-10.0172818787247	35.7111979631224	-46.5924404030017	24.1942248078261	-20.5173805625854	-19.8176324866144	
2576666666.66675	-17.4015246600903	-126.493534579282	-10.0246860993758	33.3570672567323	-46.3699033126191	22.9472154277404	-20.647287730106	-20.191804956053	
2577000000.00008	-17.4116179982094	-127.296171040051	-10.0250151377513	31.0806608889941	-46.152493889569	20.6108591427738	-20.7818692065951	-20.6840116983139	
2577333333.33342	-17.4445010574486	-128.236875147189	-10.0300096766988	28.8259096376993	-46.3894105981439	19.0233678297183	-20.9382149664011	-20.9783139492273	
2577666666.66675	-17.4605159590031	-129.22969420751	-10.0244498319944	26.5511042879912	-46.2058475603502	16.4594622334884	-21.0726755544525	-21.422211530442	
2578000000.00008	-17.5126616551409	-130.06010398892	-10.0338897158734	24.2613175009431	-46.4103345612235	13.3850501517687	-21.2257985825207	-21.8632602285718	
2578333333.33342	-17.5590372802337	-131.05916433528	-10.0300126462234	22.0150616503815	-46.5339675062731	10.3892804222014	-21.407726493392	-22.3523291126347	
2578666666.66675	-17.6133483607574	-131.952992756776	-10.0344513723384	19.7263072865574	-46.2763976026721	8.66176148190902	-21.5930002679569	-22.8067747805477	
2579000000.00009	-17.6776212310674	-132.808263954101	-10.0367911988713	17.5170351144026	-46.5473845471682	9.08508040300815	-21.7311057144818	-23.1778231104754	
2579333333.33342	-17.7226134256769	-133.832215127539	-10.0371376164157	15.2473560986305	-46.2929722830411	5.75893178516135	-21.9540737782518	-23.4186328597151	
2579666666.66675	-17.786662356541	-134.829525575347	-10.0403962455481	13.034805701533	-46.5198175112168	2.10644171430554	-22.1291288370072	-24.1352331847443	
2580000000.00009	-17.8619526208905	-135.701300827833	-10.0384123648263	10.7742722377197	-46.3976382776424	0.417536823882877	-22.3243695587754	-24.6757485390929	
2580333333.33342	-17.9284915501382	-136.864747116853	-10.0365420715836	8.57003397262119	-46.3455478949043	-1.69850903409369	-22.5325412317738	-25.0109851042066	
2580666666.66675	-18.0307080164416	-137.770572928892	-10.0360359507711	6.30983286948461	-46.4688880259715	-2.69239071059941	-22.7558267650737	-25.4684575780197	
2581000000.00009	-18.098108316627	-138.89344201733	-10.0424457740406	3.9848101850337	-46.5218055306764	-7.6583391575503	-22.9927318008823	-25.9537321837988	
2581333333.33342	-18.1719286680474	-139.722937481937	-10.0350308283379	1.77423902512641	-46.7160025789214	-10.1200799806852	-23.2388342121055	-26.382352877064	
2581666666.66675	-18.2526286179571	-140.851195146958	-10.0282377797998	-0.460147612085448	-46.5903174426348	-11.1420680465994	-23.4638450021858	-27.059072975256	
2582000000.00009	-18.3644347481019	-141.821346421635	-10.0307197701704	-2.67977088320266	-46.6771578922853	-13.4655705380229	-23.7043752589951	-27.5908984731131	
2582333333.33342	-18.4621818657464	-142.724533671142	-10.030135862879	-4.93553706060401	-46.5289697072605	-16.7769155203764	-23.9685735250768	-28.0468536661173	
2582666666.66675	-18.5148581463795	-143.81061946278	-10.0306299967725	-7.20560071563092	-46.5040031134274	-17.4170701916993	-24.2598783567455	-28.8073733692316	
2583000000.00009	-18.6249756439215	-144.878538692148	-10.0303351226185	-9.38531344189451	-46.3875421048833	-21.015901378857	-24.5302381489502	-29.4736485534542	
2583333333.33342	-18.7271609881383	-145.932339844796	-10.0255376929087	-11.6690417086422	-46.7053166458409	-24.8178725421928	-24.8497477628534	-30.0264590834858	
2583666666.66675	-18.820618062452	-146.948323035586	-10.0277315435896	-13.9013902333288	-46.4165544336131	-25.5459410635483	-25.1837160967966	-30.6320813106695	
2584000000.00009	-18.9575639624361	-147.858899208071	-10.0124894833789	-16.1680834196306	-46.4150665803824	-26.8122676285477	-25.5035141721038	-31.3871060590547	
2584333333.33342	-19.0441730428767	-148.986675354247	-10.0174644636438	-18.3855527237091	-46.7220174031066	-30.3921355950051	-25.8236856366118	-31.972310012643	
2584666666.66675	-19.1663066453764	-149.866992839982	-10.0139009436923	-20.6551201549219	-46.676927772143	-30.7266180137099	-26.1573419069678	-32.6971675133693	
2585000000.00009	-19.3007386600654	-150.862999043859	-10.0167801714267	-22.8703946218149	-46.9086012304685	-33.6111573197695	-26.5723886024075	-33.588226763937	
2585333333.33342	-19.4025608463083	-152.035967131404	-10.0065086396931	-25.0670461301629	-46.4714867227101	-34.7561092418742	-26.9334392368641	-34.6180227220978	
2585666666.66676	-19.5336821694791	-152.970364692329	-10.0046361426785	-27.369694488424	-46.8765784419735	-36.9368510323304	-27.3864687276437	-35.4445488876247	
2586000000.00009	-19.644102283899	-154.024985516705	-9.99858166920863	-29.5972027495305	-46.7094450033156	-39.8844443163256	-27.7957304537181	-36.7320544552473	
2586333333.33342	-19.7841088908707	-154.987738507639	-9.99637395459932	-31.7937437008042	-46.3017180460811	-41.3290884385702	-28.2081525887227	-36.9492443901236	
2586666666.66676	-19.8932060273525	-156.220758620721	-9.98937323276068	-34.1137500975909	-46.5928513488277	-43.9867402764033	-28.7094561921087	-38.1765515943406	
2587000000.00009	-20.0393988433366	-157.206971933663	-9.98894307121502	-36.3765776349002	-46.4379304654098	-47.792325000657	-29.2174161958091	-39.1899349724619	
2587333333.33342	-20.1504329442883	-158.209663352385	-9.98397065889498	-38.6017896882512	-46.5936654039449	-48.5638492732155	-29.8030865159224	-40.3376657389667	
2587666666.66676	-20.2776300127032	-159.158653550226	-9.99120846876252	-40.859953113379	-46.6447244329777	-51.7692289741227	-30.3082349841316	-41.1701841530358	
2588000000.00009	-20.40798808455	-160.137567806637	-9.98374836289901	-43.125138162342	-46.7992438652308	-52.8005342936261	-30.8984824729853	-42.8073374539892	
2588333333.33342	-20.5421699935439	-161.252165887438	-9.98744904954474	-45.3414421370162	-46.3628408733518	-58.3122283431616	-31.4883416133762	-44.1962121867366	
2588666666.66676	-20.6545110675724	-162.131762893015	-9.97973527851682	-47.6603417734852	-46.6848298180631	-58.8971897754636	-32.2317739578785	-46.1511216728443	
2589000000.00009	-20.7710737172904	-163.263190705395	-9.9791196953632	-49.8760907002796	-46.7029646377465	-61.5081773048211	-32.9004974415109	-47.7163321694661	
2589333333.33342	-20.8855044736123	-164.376483014957	-9.97573295309237	-52.11727759437	-46.3631328339968	-63.2223400089901	-33.7179776932915	-49.6821842800213	
2589666666.66676	-21.0029984437893	-165.355046077448	-9.97050569381	-54.4069789951008	-46.7990999009258	-65.7388147960539	-34.5356310781043	-51.5367545302884	
2590000000.00009	-21.1121626868919	-166.293513884949	-9.97169303118114	-56.6697265838695	-46.4461714007684	-68.8819595804673	-35.5192132305194	-54.2853921747132	
2590333333.33342	-21.2200363493029	-167.478577942651	-9.97422800822938	-58.9391048218157	-46.6250177570608	-67.1400659229836	-36.4332946244097	-56.3684084671422	
2590666666.66676	-21.3343246079617	-168.498333198466	-9.97247554926815	-61.204531548179	-46.4704581713364	-71.1425499184861	-37.5744354736207	-59.4150972282901	
2591000000.00009	-21.4529521346825	-169.49281914036	-9.96780451271961	-63.4673629683571	-46.1562961290768	-73.4241288981535	-38.8155482126619	-64.0244058264393	
2591333333.33342	-21.5344566934584	-170.692238913867	-9.96959809671536	-65.7195915613402	-46.1713065745647	-75.5202281889966	-40.0620472100384	-68.6301971854067	
2591666666.66676	-21.6695349369013	-171.955399492155	-9.96602605633055	-68.005667646576	-46.4708072369723	-79.0678362877418	-41.5019464618889	-76.6665900316201	
2592000000.00009	-21.7548423976851	-172.971774465395	-9.96269030869392	-70.3007638371471	-46.7034537884998	-80.4506592628323	-43.3396863448591	-85.5607429794771	
2592333333.33343	-21.8422683059961	-174.159320974356	-9.96061684110657	-72.5982339838686	-46.2598407856961	-84.6448486682505	-44.9031553691091	-97.6276596841496	
2592666666.66676	-21.936173327705	-175.311670780792	-9.95994984438631	-74.853520990453	-46.2873538069047	-85.7940497863701	-45.9347949941177	-116.10478288978	
2593000000.00009	-21.9951193035261	-176.50915471624	-9.9558582439623	-77.1438401658029	-46.5800903233309	-87.3781961785908	-46.6525754683981	-135.396661420687	
2593333333.33343	-22.0807315419918	-177.74435063819	-9.95487135764706	-79.4507827772049	-46.5441485050398	-88.9449961426912	-46.0860969196969	-157.386396099891	
2593666666.66676	-22.144802373946	-178.934048286377	-9.9570761784284	-81.7342865136013	-46.4476985985053	-92.2217303262754	-44.7329076393598	-172.861487315514	
2594000000.00009	-22.1838001911682	179.697792063897	-9.95154473574699	-84.0754590220058	-46.4460468076878	-90.6923000376131	-43.3935572543795	175.654170174135	
2594333333.33343	-22.2462722135937	178.411988185994	-9.94556557465552	-86.3404803379884	-46.2667465762869	-97.1421653000206	-41.8206712195726	166.314674423198	
2594666666.66676	-22.2662427666246	177.024918278929	-9.95027175064341	-88.6044036752567	-46.3371578105925	-99.0494093718567	-40.950379559254	159.921368707481	
2595000000.00009	-22.2893029370559	175.660861901391	-9.94610954658457	-90.9434259179942	-46.2940283227662	-102.844781607077	-39.6893533842719	155.10866166241	
2595333333.33343	-22.306975993153	174.271049129535	-9.94686831869675	-93.2320404524337	-46.3198651750507	-102.952825540844	-38.6360892403644	150.868932241475	
2595666666.66676	-22.349787677586	172.856524693161	-9.94181888847345	-95.5431274224223	-46.0920069113243	-106.3971200476	-37.8379328610203	146.761130591444	
2596000000.00009	-22.3383069620627	171.463246644261	-9.93942716337355	-97.8408001421345	-46.4303506606385	-108.586582834013	-37.008502538198	142.750756611028	
2596333333.33343	-22.3166934726232	169.77855532961	-9.93609599749272	-100.129964829185	-46.2923007116182	-110.392244951966	-36.3555840137395	140.002029406565	
2596666666.66676	-22.2952089409391	168.470765124824	-9.94142353676489	-102.463086687828	-46.3833243020007	-110.991278158046	-35.6146928168313	137.706447967004	
2597000000.00009	-22.2524312674761	167.016202617335	-9.92985160623252	-104.738483001769	-46.5153286335661	-115.059481159558	-35.1881858615791	135.122212091112	
2597333333.33343	-22.212970001991	165.532607188111	-9.93251372525958	-107.056996429275	-46.1682145898974	-117.636502323253	-34.5725050994798	132.45094120248	
2597666666.66676	-22.1659599353671	163.872129413825	-9.93596677771703	-109.327863511871	-46.2360194044885	-120.460036287655	-34.2020173730625	130.203045458609	
2598000000.00009	-22.1066920728387	162.24245467716	-9.93380647597649	-111.649862911988	-46.259101047922	-121.469890055074	-33.7199367967801	128.299671052063	
2598333333.33343	-22.0399448285164	160.497404179326	-9.93422231330261	-113.964726505113	-46.2572212779703	-124.444379466101	-33.3787976017118	125.194197213109	
2598666666.66676	-21.968397996528	158.965291308335	-9.9376915713921	-116.273472291607	-46.3744484424016	-127.458514975163	-32.9832923983928	122.959452042199	
2599000000.00009	-21.8757995615735	157.421287747723	-9.93683974361797	-118.568343344404	-46.5628467121326	-126.169430312859	-32.7217687736951	121.509772194671	
2599333333.33343	-21.7630619828747	155.647392222177	-9.95038889633198	-120.854763880866	-46.4277650369722	-128.954035049848	-32.2948629138658	119.012985477399	
2599666666.66676	-21.6712130018695	154.042252611866	-9.94520658992967	-123.185146649673	-45.9982179657585	-133.428854216042	-32.0481623494163	116.379801464501	
2600000000.0001	-21.5603177270748	152.482920448262	-9.95568108503261	-125.542013759567	-46.0955691288706	-137.382021865238	-31.817179911909	114.358785059782	
