!Agilent N9923A: A.05.34
!Date: Friday, 25 March 2016 20:42:24
!Model: N9923A
!Serial: MY51491690
!GPS Latitude: 
!GPS Longitude: 
!GPS TimeStamp: 0001-01-01 00:00:00Z
!GPS Seconds Since Last Read: 0
!CHECKSUM:0648343179
!Correction: S11(ON U*)S21(ON U*)S12(ON U*)S22(ON U*)
!S2P File: Measurements:S11,S21,S12,S22:
# Hz S DB R 50
2400000000	-16.2692559410524	177.890667834832	-9.32341780929561	133.587246505932	-46.4542066607223	121.315946511806	-21.2882951631856	9.98315725230294	
2400333333.33333	-16.2827352074218	176.851365839987	-9.32409291364195	131.266233178993	-46.3241111431126	117.588655460638	-21.3636199540568	10.7159635008764	
2400666666.66667	-16.3071936318395	175.852744218665	-9.31984368556015	128.983102883146	-46.096235834588	116.197499308171	-21.5012311573601	11.1007103384465	
2401000000	-16.3064690297235	174.875704999483	-9.32292867478927	126.691765517911	-46.3043935213979	113.670205532254	-21.5894714261555	11.6277517103871	
2401333333.33333	-16.3577900893392	173.730777006999	-9.31585704580006	124.389160942551	-46.1342428927812	112.435548401825	-21.7078377614785	12.3656339064695	
2401666666.66667	-16.3733822254465	172.593656028079	-9.32204400067395	122.052064319697	-46.1319162718167	108.990645804286	-21.8044604887262	12.8177417726109	
2402000000	-16.403104976342	171.462004760104	-9.32546414294859	119.712324578287	-46.3464244652367	106.725846571706	-21.9178628231875	13.4581659851257	
2402333333.33333	-16.4332012774314	170.251282068239	-9.32289895601325	117.414604848481	-46.3883818273195	103.147837342663	-22.0447859113008	14.1674026829168	
2402666666.66667	-16.4553833842275	169.168886801241	-9.31749807202767	115.080923312194	-46.4468297972954	103.061624414417	-22.1350173669472	14.7841300003933	
2403000000	-16.4739122576345	168.08250439341	-9.32138561998424	112.769064930909	-46.1270493385385	101.536751180277	-22.2151531788342	15.4297148862717	
2403333333.33333	-16.4919537634772	166.767993339094	-9.32228224040613	110.482237583814	-46.4042806189423	98.3902379045384	-22.331099667465	16.0814440002262	
2403666666.66667	-16.534357276131	165.702381394963	-9.32584286118862	108.181921982693	-46.4467615192704	94.5726016196737	-22.4015358054775	16.7535257375241	
2404000000	-16.5188753875466	164.512745033736	-9.3303166701176	105.862667462965	-46.5484543296632	93.1403302492365	-22.5074417101342	17.2658402802849	
2404333333.33334	-16.5619121352833	163.250841799493	-9.3335311473765	103.560762166494	-46.2762969653671	91.5345522011018	-22.5967106305374	18.1089271834425	
2404666666.66667	-16.5624645434672	161.991156630473	-9.33183930914191	101.248848447352	-46.3760053721868	90.5183987542527	-22.6899357813861	18.7265339103612	
2405000000	-16.5730487145691	160.856591356822	-9.33922016039639	98.9682686126171	-46.3896378758252	85.3364819079731	-22.7442472831479	19.3682609100966	
2405333333.33334	-16.6070219670479	159.668045648051	-9.34242631072886	96.6728564563198	-46.3639215632923	84.0811380362969	-22.8421635343982	20.12127067064	
2405666666.66667	-16.6013139240276	158.439119302764	-9.34417078318073	94.3709710585882	-46.4515362948591	82.0626610492929	-22.8916902648587	20.7589277647533	
2406000000	-16.6235126702822	157.227301072009	-9.34997933017847	92.0508531780489	-46.3590870389067	79.6831068762879	-22.9650760546543	21.3944826711136	
2406333333.33334	-16.6094916386597	156.003295932374	-9.35395558206616	89.7910470909083	-46.3960534104584	75.6982764060825	-23.0070431358978	22.2880237231826	
2406666666.66667	-16.6360691889151	154.733099712421	-9.35077698217164	87.531647219648	-46.4783554306903	74.6610797094585	-23.0688813638825	22.8026375208812	
2407000000	-16.6222629286938	153.485594562369	-9.35964918651619	85.2375478898607	-46.7241594057359	73.5651362381494	-23.0776132246607	23.5096495422074	
2407333333.33334	-16.6284539514652	152.361977576467	-9.35796490322597	82.9312210222696	-46.4832516955719	71.1609233726093	-23.1560704742022	23.960967527911	
2407666666.66667	-16.6388458022149	150.973332266868	-9.36613822466601	80.6371608546254	-46.3539995065759	69.7060406956373	-23.1563567590807	24.6546888681602	
2408000000	-16.6227616840882	149.761070968412	-9.37031453273461	78.3879255093254	-46.5475106549251	65.0664351706447	-23.1794985334253	25.2439756683177	
2408333333.33334	-16.62469876763	148.622261748142	-9.37850691744904	76.1166180260821	-46.4008894537962	63.6261249665095	-23.1909295738921	25.6432009119262	
2408666666.66667	-16.6074803412378	147.444465279368	-9.38972308490734	73.8546611450591	-46.3742396223384	61.8205089322639	-23.19714693749	26.3126858822517	
2409000000	-16.6014087350213	146.303963258852	-9.39197905584726	71.5901951679712	-46.4535969028391	59.0683324253186	-23.184544996672	26.7747750434421	
2409333333.33334	-16.5791954621154	145.112361297521	-9.40031880078301	69.3369806608627	-46.5000782401416	55.9931183919431	-23.1986527891062	26.9694561429283	
2409666666.66667	-16.556077319473	143.961008519802	-9.40787095442218	67.0650469709245	-46.5159542001971	54.9076230238951	-23.1826437684447	27.391191826456	
2410000000	-16.5577733475014	142.817692757884	-9.4162425013465	64.8088248585825	-46.4509832316131	52.0971355438075	-23.1688437962249	27.8382237988737	
2410333333.33334	-16.5240771708865	141.706461286007	-9.42482997627172	62.5638255550962	-46.4036479008472	49.9498825721219	-23.1526044318575	28.1036615612454	
2410666666.66667	-16.4954825700797	140.538116690657	-9.43464997837761	60.3231549488317	-46.6988039803796	49.936128763381	-23.1098231553883	28.3186958432493	
2411000000.00001	-16.4751596052334	139.407326148905	-9.44317274065969	58.0712289397982	-46.4951310781182	48.185225969978	-23.0561183823172	28.5865265390614	
2411333333.33334	-16.4438659911653	138.27284612755	-9.44748221021995	55.7952620229295	-46.3044364102836	41.0524917774639	-23.0422775939111	28.6547731634849	
2411666666.66667	-16.4031546871511	137.206537914776	-9.45612923644269	53.5433342582498	-46.4272541208517	40.2835517936016	-23.0054743761536	28.6490950488665	
2412000000.00001	-16.3770797982327	136.11596831596	-9.4677587184027	51.3245634878595	-46.6746532749642	38.6287555647792	-22.9486071674863	28.6189600653204	
2412333333.33334	-16.3350095285189	134.998018012656	-9.47632900637091	49.0987377010907	-46.665717616982	35.6315254101781	-22.9081104225176	28.5428527178842	
2412666666.66667	-16.2871773949208	133.777276317813	-9.4844622658973	46.836168430569	-46.5376740131312	34.6457299745765	-22.8444354880513	28.3989490437341	
2413000000.00001	-16.2356903475811	132.774230638904	-9.49483552608836	44.5955089590716	-46.5286364106407	33.0571871132159	-22.812796883754	28.3115048065231	
2413333333.33334	-16.175416354854	131.557656189835	-9.49757178185516	42.3893736684294	-46.3346896537836	28.0708065846091	-22.7293702113595	28.1650715232089	
2413666666.66667	-16.125241362766	130.537923221683	-9.51702833906353	40.1293886360339	-46.5705476725968	27.439733478623	-22.6810825300231	27.7308174720102	
2414000000.00001	-16.0720400614165	129.486004158668	-9.52310475958129	37.9093340747959	-46.6601351831885	25.8920909634089	-22.600202843219	27.5178877818351	
2414333333.33334	-16.0009444024567	128.443792819392	-9.53662222102067	35.6911391437304	-46.5307780281553	22.6685383462017	-22.5322766279247	27.1666531930838	
2414666666.66667	-15.9416548645564	127.38375263435	-9.54966128989347	33.4382824773431	-46.3349552667926	20.6228304786039	-22.4435515280843	26.5439526087218	
2415000000.00001	-15.8876633229468	126.453256277919	-9.56329402154781	31.2126838083859	-46.7840867369732	18.195220879002	-22.3771908750099	26.0845672794095	
2415333333.33334	-15.8043543658963	125.404361561197	-9.56340766537209	28.9640653627119	-46.4235300076137	16.111402008522	-22.3109379571656	25.6381191227483	
2415666666.66667	-15.7436468210877	124.450309204171	-9.58511398129646	26.7083998259053	-46.4848114430228	13.501487240906	-22.2160258901935	24.9794803034213	
2416000000.00001	-15.6779723481109	123.501133708057	-9.58694609900238	24.511470535084	-46.7003033089396	10.7742672539329	-22.130646050757	24.42204076664	
2416333333.33334	-15.6045037215076	122.571862323264	-9.60849387362358	22.3348829853331	-46.6435627640406	9.54454357255838	-22.0616772583518	23.6699464237439	
2416666666.66667	-15.5427849648756	121.694321361674	-9.6199519739464	20.0772224127909	-46.2846501009224	6.84750212395533	-21.9877631786552	23.0428773366449	
2417000000.00001	-15.4657060576927	120.777101420903	-9.62942592721833	17.8638254308757	-46.5763342902633	3.83220282587037	-21.9081764048605	22.1937586444248	
2417333333.33334	-15.3920365597751	119.932129209761	-9.63859931602792	15.6136924067552	-46.615328673012	4.15911416208669	-21.8117858874379	21.308606960277	
2417666666.66668	-15.3298893239262	119.031496572241	-9.65709753952842	13.4009030469674	-46.6237395431849	0.582482995245615	-21.7178737948856	20.6439893703101	
2418000000.00001	-15.2546378764803	118.157717412119	-9.66888804236638	11.1994902280789	-46.6996557836397	-1.94828963493447	-21.6374291181088	19.8701129709167	
2418333333.33334	-15.1788409873066	117.303249401904	-9.68112820439497	8.96143530384556	-46.3351566747586	-3.58767965246066	-21.5503940230746	18.8270793562736	
2418666666.66668	-15.1001541851787	116.426932457238	-9.69260171702739	6.75617196684475	-46.6604122942623	-8.77333018405233	-21.438726835432	17.9057442881204	
2419000000.00001	-15.0137032917039	115.595384788691	-9.70465011823768	4.52253772244352	-46.5220658522523	-8.80834967457957	-21.3479688432677	17.0391340551378	
2419333333.33334	-14.9477020548134	114.816742254719	-9.716275627868	2.33373375857529	-46.5637489341448	-12.0137013744542	-21.2679262376347	16.0127192635484	
2419666666.66668	-14.8649444767301	113.989755613283	-9.72662995417176	0.0843349020692152	-46.511082958881	-14.403100365878	-21.160635327865	15.0890225233967	
2420000000.00001	-14.7963076345249	113.195271181035	-9.73791938156273	-2.12244095531557	-46.5194815400802	-16.9168442216121	-21.0721757707226	13.9755758684033	
2420333333.33334	-14.7148287305545	112.385039049823	-9.74323574948734	-4.34923824495033	-46.6182870138303	-16.9743269213605	-20.9797728687853	12.9102117889265	
2420666666.66668	-14.6422840546455	111.59577692764	-9.75248576112494	-6.56192860426567	-46.7308556929356	-20.3640200249803	-20.8759361026969	12.0428380239951	
2421000000.00001	-14.5814376900556	110.843713677168	-9.77181469244893	-8.77022419111007	-46.353257299278	-23.0760892786319	-20.7851278028382	10.8846422773787	
2421333333.33334	-14.5065286144415	110.096911173856	-9.77961078179408	-11.0044539647676	-46.8507079346927	-22.4371175131273	-20.6909195977923	9.7994148156473	
2421666666.66668	-14.4349056680084	109.445036123606	-9.78695429546396	-13.2057087256944	-46.6485279162566	-27.7310876517997	-20.5846057251199	8.67751854430635	
2422000000.00001	-14.3733327643294	108.700192353982	-9.79695963918898	-15.4300056663584	-46.9566032058712	-29.5695526138207	-20.503920437675	7.46911404392771	
2422333333.33334	-14.3105712582749	107.963813902572	-9.79960806092544	-17.7093093432613	-46.5546477978382	-30.2277292353346	-20.4119218189315	6.36608653051404	
2422666666.66668	-14.2526587758633	107.315971593175	-9.80850401950573	-19.8936278817155	-46.8110750035051	-35.3736711605266	-20.31284259932	5.32978125678658	
2423000000.00001	-14.1888721333302	106.588461675029	-9.82577768637488	-22.0980932862442	-46.3177010116683	-34.714020546071	-20.209217352904	4.30506244357558	
2423333333.33334	-14.1380698342317	105.99876446662	-9.83384268682218	-24.3021930376158	-46.3655146861188	-38.0362408940814	-20.1242098847345	3.27458702859366	
2423666666.66668	-14.0835300214076	105.329096412102	-9.83552200157074	-26.565779267733	-46.8113697291105	-39.406116787529	-20.023181586327	2.09902635417153	
2424000000.00001	-14.0303050036718	104.684703311609	-9.84006876002056	-28.8163519781321	-46.5516403968804	-41.9301031827423	-19.929991282993	0.974354132997268	
2424333333.33334	-13.9710102271706	104.160589407088	-9.84767221102164	-31.0241887037139	-46.5653745680872	-45.680729437591	-19.8372690337754	-0.101715293675473	
2424666666.66668	-13.9321781694408	103.550512869411	-9.85588895843668	-33.2849494562216	-46.5842548423368	-46.5069307463352	-19.7378171359204	-1.13239836007652	
2425000000.00001	-13.8808146709093	103.00961390111	-9.85634537195983	-35.5251128043955	-46.708332271103	-49.9093193538294	-19.6445334884491	-2.1959755679391	
2425333333.33335	-13.8370943213205	102.447506488389	-9.86542896829314	-37.7872084432193	-46.4709977904166	-50.17361547355	-19.5583868623758	-3.19939105685815	
2425666666.66668	-13.7962421353547	101.900633519969	-9.87431292567195	-39.9755166221106	-46.8032597093322	-54.2216973065359	-19.4764778908745	-4.22770083679903	
2426000000.00001	-13.7524734675456	101.409688835297	-9.87591300648898	-42.2284435845002	-46.8051336609884	-55.6703967700923	-19.391605534567	-5.27671875904912	
2426333333.33335	-13.712903944863	100.877116333238	-9.8794816301094	-44.4978694273415	-46.8581182277003	-57.9257308698805	-19.3046096025719	-6.38974082506307	
2426666666.66668	-13.6792048154635	100.418867689829	-9.88043785047735	-46.7765985266475	-46.4266977045894	-61.4950782006283	-19.2265780068423	-7.38462491586302	
2427000000.00001	-13.6377048520246	99.965737261695	-9.88514738205823	-49.0381861848607	-46.843373304016	-59.866319934888	-19.1442506040078	-8.31830485482587	
2427333333.33335	-13.6139861582596	99.4384688630493	-9.88746168991779	-51.2568418870746	-46.6662427346351	-64.5425852913403	-19.0618112504866	-9.28570976938716	
2427666666.66668	-13.5762662583685	99.025806361249	-9.89614118826338	-53.5694131389232	-46.9685016665656	-66.6556433142564	-19.0065436170707	-10.2439096247722	
2428000000.00001	-13.5496684689738	98.5955404312946	-9.90250659046941	-55.7692074023296	-46.8791732627547	-67.5179931058756	-18.9174648922671	-11.2637219433519	
2428333333.33335	-13.5180706447549	98.1513081533982	-9.90454568469665	-58.0779523262928	-46.819495308381	-71.0729825452769	-18.865345658695	-12.1687767093608	
2428666666.66668	-13.4883886800652	97.7494378080841	-9.90333742235106	-60.3439470150983	-46.6007005018338	-73.5257590579202	-18.8028959870174	-12.9928888119178	
2429000000.00001	-13.4578497067238	97.3377068881802	-9.90488337769919	-62.587379990427	-46.6221135598304	-75.5357779289863	-18.7472523228128	-13.8921627069323	
2429333333.33335	-13.4402445085954	96.9999533741294	-9.90735695555062	-64.848230846391	-46.6117357040936	-78.6955080093026	-18.6815727585301	-14.9101389426126	
2429666666.66668	-13.4076590396783	96.6446385814956	-9.91162447208357	-67.0844616662089	-46.8588164856259	-80.4814285024335	-18.6438111118337	-15.788742223195	
2430000000.00001	-13.3869196385344	96.2326956891162	-9.9210855621565	-69.3459584044951	-46.8477021187865	-82.277611901292	-18.5883283709479	-16.6843560840061	
2430333333.33335	-13.3544248857937	95.8450179116156	-9.92427365650188	-71.5874389313459	-46.6997052377882	-85.0597798607665	-18.5543867059444	-17.466093631049	
2430666666.66668	-13.3383493188274	95.4819175305802	-9.92564990013091	-73.8568781189689	-46.8481789351334	-87.0232827377093	-18.5173911570835	-18.227559946695	
2431000000.00001	-13.3138604830166	95.1806361479311	-9.92670748431873	-76.0873044164785	-46.5506832822124	-89.0123436295821	-18.4807351579116	-19.146778884182	
2431333333.33335	-13.2999010093791	94.8056748298616	-9.93619180295933	-78.3336236756851	-47.0230955315093	-91.8676395354121	-18.4652047243983	-19.9570945227349	
2431666666.66668	-13.2811319123011	94.5977511404368	-9.93013351670577	-80.5805541991267	-46.9813917981492	-92.8394327522757	-18.4195124897357	-20.5916280129229	
2432000000.00002	-13.2547083168138	94.2756781540349	-9.9304845246248	-82.8634061582001	-46.9305496147621	-96.0745197324344	-18.3975695160853	-21.2557308765701	
2432333333.33335	-13.2459282431637	94.0424945154845	-9.93528046926949	-85.0461934382071	-46.9167149828718	-96.9453878309083	-18.3763741689978	-21.9684913378415	
2432666666.66668	-13.2315056204833	93.7013305818566	-9.94051458658729	-87.2900468038844	-46.8851355298142	-98.4303480915697	-18.3624599202139	-22.662972451582	
2433000000.00002	-13.2122961537623	93.3801388075976	-9.93532813867156	-89.5519196726065	-46.7600953685957	-102.263122242155	-18.3528178056067	-23.196519283335	
2433333333.33335	-13.201080133778	93.2112916984479	-9.94215416926445	-91.7776507984072	-46.8156042607199	-103.636904939221	-18.3410145674669	-23.8733285285533	
2433666666.66668	-13.1989094914092	92.8590452956154	-9.94175064521311	-94.0213981897294	-47.1275272159777	-106.365177263361	-18.3430697180392	-24.5303657372752	
2434000000.00002	-13.179303803016	92.5811406077597	-9.94768605207636	-96.2556225202582	-47.1831302662224	-108.27908273914	-18.3357149115012	-24.983328721056	
2434333333.33335	-13.1787816608072	92.2161876887708	-9.94213759754707	-98.5059192734631	-46.9159311320658	-111.598550321017	-18.3525233280767	-25.6054584186772	
2434666666.66668	-13.1549323947313	91.8413442980818	-9.94304333504929	-100.71465558341	-47.1308692462783	-113.720232470953	-18.3712571238958	-26.1181213904151	
2435000000.00002	-13.1540026968461	91.5362442644675	-9.9446924788654	-102.954775174648	-46.740253475216	-115.915930241256	-18.384965649804	-26.5782459139741	
2435333333.33335	-13.134550386829	91.2459610387095	-9.9443691712489	-105.174234112863	-46.9312996935559	-119.563630191114	-18.4198991494055	-27.0151688443466	
2435666666.66668	-13.1283929602255	90.9597441988162	-9.94057128120251	-107.382531539552	-47.0531585919692	-120.394265841691	-18.4499047869712	-27.5726706455393	
2436000000.00002	-13.1117925561972	90.6131073291376	-9.9350479163611	-109.660459132634	-46.8160594424866	-120.891256447267	-18.49599345411	-27.8902024256308	
2436333333.33335	-13.1051691853004	90.2238342418736	-9.9377435169166	-111.895411035793	-46.856088825319	-124.809142809825	-18.5240210179704	-28.1674010521817	
2436666666.66668	-13.1104599136635	89.8670752438144	-9.93221401358823	-114.083869954545	-46.8867684574692	-127.8173078989	-18.5692692267042	-28.6467590586367	
2437000000.00002	-13.0945744193131	89.5550749936003	-9.93527001139048	-116.303537443489	-46.8074296376851	-129.353536175553	-18.6423314285361	-28.8986324679304	
2437333333.33335	-13.0937377921871	89.1886284312822	-9.9300432663199	-118.520794327725	-46.7692271443871	-130.067971372065	-18.6897176556072	-29.2738706917135	
2437666666.66668	-13.0808024870792	88.8357455612326	-9.92331936272793	-120.731540703721	-47.1748593553923	-134.431028916517	-18.7552572855887	-29.4900192764081	
2438000000.00002	-13.0700522788538	88.4098565344044	-9.92644891990366	-122.972857949471	-47.1885563519708	-136.344372066499	-18.8411999161573	-29.7886285735054	
2438333333.33335	-13.0706723813062	87.9888580121541	-9.92022874793205	-125.19249922477	-46.9927318889474	-138.498263893073	-18.8936843510212	-29.9813817639499	
2438666666.66669	-13.0752463750969	87.589609856407	-9.91478218091704	-127.416177501197	-46.9150310886095	-139.98019616532	-18.9908567376053	-30.197608838103	
2439000000.00002	-13.0667100078673	87.1733976262619	-9.91073625732122	-129.644108978889	-46.548121799212	-140.608958583131	-19.0803062456203	-30.2353325691843	
2439333333.33335	-13.0613430917017	86.7161400162917	-9.89991489127935	-131.813810181483	-47.0342121378607	-144.643846021224	-19.171954363994	-30.3314264084638	
2439666666.66669	-13.0556174748288	86.3921130526936	-9.90177929677818	-134.054940533552	-46.9522543971761	-146.423248528824	-19.2749283553401	-30.3112394071025	
2440000000.00002	-13.0615101941331	85.9064054943737	-9.90114032998001	-136.2235287189	-46.9100511438589	-148.843439176182	-19.3472213282833	-30.4532857975166	
2440333333.33335	-13.0625821062448	85.560234763159	-9.88630095023322	-138.511899681584	-47.0280954372319	-149.628940119799	-19.4685354679487	-30.2178464336899	
2440666666.66669	-13.0652840522243	85.1250456353969	-9.88098800959229	-140.6669112995	-46.7723901817085	-153.153881456696	-19.5740234464031	-30.044772638064	
2441000000.00002	-13.0573113487483	84.7351914016654	-9.88025925801875	-142.912004008086	-46.9504720803188	-155.341927311377	-19.6827208706781	-30.1235994686519	
2441333333.33335	-13.0633476158111	84.2099829777484	-9.86271560418819	-145.076146611273	-46.7887400353494	-159.379414049144	-19.7958406894507	-29.83386956325	
2441666666.66669	-13.0728693453479	83.9048839314675	-9.85169738081922	-147.382898853828	-46.7454766691268	-160.005903678998	-19.9078686021296	-29.6830139716532	
2442000000.00002	-13.0722565062765	83.4694964352918	-9.84982086097147	-149.566876893364	-46.6127820727352	-160.119143194185	-20.076272580876	-29.1903493354946	
2442333333.33335	-13.0887438326802	83.0193758395037	-9.84595341668814	-151.797998588664	-46.8066935762985	-164.208128994436	-20.1985405529767	-28.8224642884714	
2442666666.66669	-13.1048455243193	82.5535570022653	-9.83583601178206	-154.002322378443	-46.6971790160119	-167.109454650505	-20.3198457507618	-28.3670045161125	
2443000000.00002	-13.1223793862622	82.2677390450052	-9.81998062172872	-156.284845286092	-46.6282645087054	-167.686193048732	-20.4637645424737	-27.878132262929	
2443333333.33335	-13.1188012767992	81.8443348336527	-9.81260531779847	-158.524813457896	-46.6072611638992	-171.76519102017	-20.5761228338041	-27.2676992316798	
2443666666.66669	-13.1353135290514	81.369873795769	-9.80662599020888	-160.764279831012	-46.7299970184305	-174.451979296304	-20.7385027697645	-26.7208250232757	
2444000000.00002	-13.1561833579208	81.0671899118096	-9.79980522756094	-163.022055570836	-46.7792593017826	-174.972120973253	-20.8790995889386	-26.1681795264134	
2444333333.33335	-13.185028818674	80.5501355827509	-9.78778576474532	-165.228209925052	-46.8902339382311	-177.861782338825	-20.9867725678358	-25.1508649111314	
2444666666.66669	-13.1948443228737	80.183216434023	-9.78171328630105	-167.501457100465	-46.8686900565014	-179.450628987291	-21.136842494823	-24.385768359499	
2445000000.00002	-13.232608950881	79.6693212971331	-9.7708796218745	-169.753783059307	-46.7471036538881	178.616512474094	-21.2850581255212	-23.5585582088495	
2445333333.33335	-13.241127796898	79.261123524975	-9.75865854929175	-172.000908650455	-46.5054380509583	173.874652342935	-21.3910707037614	-22.4736770529095	
2445666666.66669	-13.2629826698355	78.8769232744414	-9.75412415790294	-174.305040489949	-46.5713689429407	174.964793819673	-21.5126400163245	-21.5226518690833	
2446000000.00002	-13.2876672332198	78.4650970328518	-9.74652450255857	-176.508128969124	-46.8626262790924	172.479576451663	-21.6564293788429	-20.344266692617	
2446333333.33336	-13.2980763451395	78.0022073698083	-9.72754813257457	-178.777016439386	-46.4844052900216	168.927830107997	-21.7900572963342	-19.1997882641449	
2446666666.66669	-13.3216097778023	77.5908427735323	-9.7275233040814	178.948354573889	-47.0560796670765	165.788212648877	-21.8845123567536	-17.9915203044204	
2447000000.00002	-13.3517080752125	77.0855545807774	-9.72131496217624	176.675000137547	-46.872553568248	165.02895742108	-21.9709315857028	-16.4304604886626	
2447333333.33336	-13.3684144468577	76.6336599389662	-9.71553988218853	174.462628679607	-46.7049939897026	161.184409613979	-22.0746227808473	-15.3539581883888	
2447666666.66669	-13.3880839669199	76.1129164769742	-9.70571191147038	172.172542092967	-46.62766305765	160.160085639561	-22.1518119183085	-13.7904018198637	
2448000000.00002	-13.4235114737989	75.6205899337361	-9.70402408579107	169.914807362964	-47.1911659703203	158.229481277075	-22.2615218575819	-12.2618442357573	
2448333333.33336	-13.4295493106626	75.2180880332529	-9.68983520847371	167.618779845839	-46.4792507699807	158.643716933477	-22.2954770430425	-10.8398870690779	
2448666666.66669	-13.4624461991542	74.7818520044512	-9.68230512402498	165.350933949803	-46.5858799147494	152.293019518483	-22.352269695326	-9.36638064868376	
2449000000.00002	-13.4893963647778	74.2453747165939	-9.67756297693724	163.087526053474	-46.4382128715408	149.246962512423	-22.4065133280073	-7.58803549276678	
2449333333.33336	-13.5218425632212	73.866265955776	-9.66976286086863	160.835482001546	-46.7402484590711	149.179697840869	-22.4293515162055	-6.03583153227832	
2449666666.66669	-13.5331897406532	73.4067734899757	-9.66339385160624	158.540216064325	-46.7233936889401	147.208766447009	-22.4655387009122	-4.38532287052153	
2450000000.00002	-13.5673113206839	72.8432380254106	-9.66139021583725	156.297022099918	-46.2788024335077	145.898776293498	-22.4547218847252	-2.96479229535301	
2450333333.33336	-13.5880448840109	72.323392721016	-9.65487182357308	154.008315850831	-46.3646695387567	142.396598353201	-22.4675214018532	-1.47436726535977	
2450666666.66669	-13.6105723647818	71.9061711974404	-9.6468476074517	151.727204865337	-46.7407415783275	140.638281583651	-22.4186524881512	0.160112100938775	
2451000000.00002	-13.6267744056434	71.3820231759477	-9.63844552745225	149.449002715437	-46.6468758394754	136.794804373294	-22.3932681078925	1.69824233085619	
2451333333.33336	-13.6492960944446	70.9257951324569	-9.63266960716339	147.2348718762	-46.6697396014157	134.878559397325	-22.3758886413894	3.06458767647379	
2451666666.66669	-13.6530246973975	70.4086836286255	-9.62782477190994	144.968927116379	-46.6187373845252	133.448897237199	-22.3382798379102	4.50865277194317	
2452000000.00002	-13.68196746085	69.926773820952	-9.62629878310756	142.67825439563	-46.5338027015531	130.378981599376	-22.2453543935943	5.76641050623229	
2452333333.33336	-13.6942198931477	69.3596679800637	-9.62780955483244	140.43504824279	-46.4888024002961	128.24692919661	-22.2097147074382	7.07279903764592	
2452666666.66669	-13.7022912874069	68.9537992961897	-9.62206922031639	138.181225947825	-46.3036992525847	129.332931717382	-22.1103695437953	8.37514625025306	
2453000000.00003	-13.7044663364707	68.3998054925543	-9.61177332854322	135.927004853968	-46.5930434468505	125.658062209577	-22.0378560599214	9.6584475099242	
2453333333.33336	-13.7257532519034	67.9244155011135	-9.61370123664748	133.654075782453	-46.4584931787512	124.551566367926	-21.9699832711739	10.8932823946566	
2453666666.66669	-13.7338032874275	67.4355909063797	-9.60945633439958	131.453964323528	-46.2467522628125	119.726220693668	-21.8764399072358	11.7686132178732	
2454000000.00003	-13.7396919447943	66.8449424218962	-9.60163645254419	129.168153447549	-46.2940494968144	118.482950409874	-21.8011259968238	12.8005184945171	
2454333333.33336	-13.7440254188555	66.362298679638	-9.60726801323188	126.946938178323	-46.4025096434729	115.77320109936	-21.7301970734085	13.8157971828822	
2454666666.66669	-13.7525779254966	65.878693818724	-9.59609169607923	124.658968892125	-46.6290628055709	113.707245259993	-21.6124925445863	14.4347610097171	
2455000000.00003	-13.7494858086183	65.3359122371974	-9.59752632428618	122.433522006147	-46.7189226888929	110.927283845339	-21.5248427857206	15.3430292955509	
2455333333.33336	-13.7425030667387	64.8225578526944	-9.59324589435649	120.188414390442	-46.3962627312859	110.506932306276	-21.4325185469217	16.145386642957	
2455666666.66669	-13.7463377596	64.2788919385134	-9.59298676207539	117.935076167903	-46.7822911948529	106.592918142859	-21.3735755183512	16.8213496529691	
2456000000.00003	-13.7337317702285	63.7414634121939	-9.58975558392514	115.650940010084	-46.4164306603416	104.262541235937	-21.2889448818827	17.2854237443413	
2456333333.33336	-13.7208518733981	63.2182295714787	-9.58620444951995	113.406717391434	-46.339154656996	103.947705513802	-21.1901082154937	17.8946039906289	
2456666666.66669	-13.7156672301233	62.7597005460236	-9.58386431576418	111.179582876547	-46.5474493620248	101.138730822023	-21.1425136170524	18.5344297651446	
2457000000.00003	-13.7014907203267	62.19644495669	-9.57869994276683	108.917887308007	-46.5752018129928	97.7127087583913	-21.0277091725425	18.7657770126906	
2457333333.33336	-13.68026734213	61.7132601238774	-9.57497860556944	106.661954159906	-46.5230055579153	96.2866042232385	-20.9389572269015	19.1263624630269	
2457666666.66669	-13.6626624925655	61.1330692285385	-9.57703540646115	104.432380509921	-46.3566754365627	92.1141570478345	-20.885460956018	19.6519369320925	
2458000000.00003	-13.6519034499275	60.6531192971841	-9.57194449714542	102.194106134543	-46.709094068697	89.7364950004683	-20.8037118553984	19.9110758072816	
2458333333.33336	-13.6300488685218	60.1361143976477	-9.57995460168154	99.917002632626	-46.0169638307553	87.1443745291816	-20.7439328189432	19.9657075140435	
2458666666.66669	-13.5973748960854	59.5814866523528	-9.57668425927666	97.7005899577114	-46.3379227945771	86.7699128017231	-20.6818011119063	20.263439260113	
2459000000.00003	-13.5759857694918	59.0984053596349	-9.57390330647805	95.4245872862143	-46.6262582424523	82.470294858465	-20.6346273857291	20.3599393441845	
2459333333.33336	-13.5440420914096	58.5970966974653	-9.5668361142223	93.2303970335969	-46.478397953448	82.1209503003156	-20.5874780537223	20.4586035872143	
2459666666.6667	-13.5136968276317	58.0128475639765	-9.5676375396115	90.9730022631076	-46.5125306370978	78.4133010241876	-20.5256441777853	20.576209177031	
2460000000.00003	-13.4909818236518	57.4765792751404	-9.57105658286178	88.7169418350762	-46.2223863191469	76.3022905497736	-20.4824107879253	20.589963471849	
2460333333.33336	-13.4598549400025	56.9785076973968	-9.56341190348734	86.4537503795281	-46.4908255359675	73.9649230934345	-20.4322349755225	20.7311260578695	
2460666666.6667	-13.4268219800985	56.4763836321991	-9.56432801607066	84.1904098476468	-46.5064938879997	71.7963357850143	-20.4119994458344	20.6355664456433	
2461000000.00003	-13.3988631018441	55.9597424782455	-9.56637560932669	81.9312481686239	-46.3271035602827	69.8032694098446	-20.3930139661316	20.5938827250186	
2461333333.33336	-13.3543094167395	55.3875703675372	-9.55808744251847	79.6669019051266	-46.3329167282413	68.8063092042664	-20.364503165447	20.5938900345228	
2461666666.6667	-13.318644319149	54.8563592964238	-9.57062301299062	77.422403799788	-46.3402879458092	64.837630879866	-20.3424938160189	20.3278655967403	
2462000000.00003	-13.2818500110425	54.3318644823244	-9.563204949099	75.1029455080606	-46.6533414926064	62.2693847554177	-20.3229337297767	20.2396881407311	
2462333333.33336	-13.2367305807577	53.8025259580551	-9.56254068456137	72.8724650417992	-46.2773520513942	61.8106442509099	-20.3535663601471	20.148070816448	
2462666666.6667	-13.1978776673792	53.2700944326844	-9.56753198475106	70.5620181439361	-46.3858940469047	58.003990488261	-20.3541870968826	19.9999487654084	
2463000000.00003	-13.1595166372196	52.7320535280508	-9.56192100120527	68.2952552759934	-46.2334261278439	56.3612864017451	-20.3591644765989	19.5898168090303	
2463333333.33336	-13.1231222994495	52.2294855401739	-9.56413099086546	66.0097683843354	-46.5471266217647	54.3671935390499	-20.3515900049638	19.3473712881276	
2463666666.6667	-13.0804037265534	51.6630209180619	-9.56568298443637	63.7262777809584	-46.3294221143642	50.3165922829714	-20.3861222996846	19.1670792733477	
2464000000.00003	-13.0280406324714	51.1971618147078	-9.56725804522255	61.4181287225624	-46.3530848215081	49.2507885183309	-20.4001401094908	18.7172371940706	
2464333333.33336	-12.9897482325471	50.7026601722667	-9.57310152499272	59.1902468370606	-46.412729260891	44.9621266034034	-20.4168810370498	18.6373520116791	
2464666666.6667	-12.9500175094892	50.1852116070073	-9.57199011210021	56.8786539677164	-46.054309000852	45.5578929381461	-20.4604791573153	18.1422272993979	
2465000000.00003	-12.8986051869404	49.6717725694352	-9.57195277488334	54.5654891201377	-46.3798681625858	42.8028800593955	-20.4974635232798	17.9117470241869	
2465333333.33336	-12.8589365508294	49.1497285122826	-9.58016647907629	52.3248350920317	-46.3798442187556	40.7552280328538	-20.5320837715593	17.491532879911	
2465666666.6667	-12.814960096417	48.6989455422345	-9.5750878550223	50.0132983182158	-46.2179884849487	36.6843454945987	-20.5621147030467	16.9051722617269	
2466000000.00003	-12.7647995976123	48.1969595184299	-9.580671433499	47.737393621058	-46.5290733479085	34.8298546085682	-20.6024452431597	16.6578894068359	
2466333333.33336	-12.7229173673424	47.7417933969005	-9.58516013024433	45.4477013045856	-46.2997465866916	32.0380483306287	-20.6685085405777	16.2123471680173	
2466666666.6667	-12.6804157264468	47.2722716426219	-9.58011453444569	43.1531259130833	-46.3741867783849	28.8414477082584	-20.6750896157315	15.7788746929344	
2467000000.00003	-12.6383880862611	46.8117442657009	-9.58546848130581	40.8487198540252	-46.4611262365232	29.4020114373079	-20.7732090216455	15.3275938297739	
2467333333.33337	-12.5858932301869	46.3478618256291	-9.58440348489551	38.5812779828617	-46.3917382520069	25.1988290581426	-20.8189291311583	14.7028651573594	
2467666666.6667	-12.5522993758932	45.9152258499977	-9.58908364039393	36.2582530137258	-46.5554296724613	23.4385656614422	-20.8919971260879	14.3535653877513	
2468000000.00003	-12.5007387542808	45.4382571967225	-9.5931550720113	33.9583520436235	-46.2828076350575	21.2668569791359	-20.9530651284832	13.8554634040257	
2468333333.33337	-12.4500059412339	45.0322418092245	-9.59335496606624	31.6665782131897	-46.3669456164674	19.70486795605	-21.0219469327702	13.2523238982178	
2468666666.6667	-12.4125999468764	44.6227057742141	-9.59958985075039	29.3588025937154	-46.4317184595728	16.2091884759685	-21.0912003137574	12.7916068725121	
2469000000.00003	-12.3723455708751	44.2108683644049	-9.60694017022266	27.099741079825	-45.9716207669202	14.0662873473968	-21.1352216969486	12.2793108299655	
2469333333.33337	-12.3320286347386	43.8345538364758	-9.60266381596661	24.8207646626857	-46.2354018625366	12.50095392647	-21.2223805323028	11.685799334054	
2469666666.6667	-12.2804301195074	43.3757531184502	-9.60860137700019	22.4608026299108	-46.1395674835736	10.2028930661163	-21.2952494030219	10.9960902853057	
2470000000.00003	-12.2396452609508	42.9848220076664	-9.60181969009042	20.1783501593329	-46.2851013746073	7.79773040886246	-21.3751618486887	10.5505969615062	
2470333333.33337	-12.2050265906337	42.6600982139939	-9.61195868601657	17.8552812001775	-46.2369397672707	3.82141210409044	-21.4457944025506	9.87707678558565	
2470666666.6667	-12.1502288053147	42.2354661784671	-9.61504906286476	15.5563630885622	-46.2507954979241	3.29137511123123	-21.5233041507686	9.30174747203911	
2471000000.00003	-12.1080739586117	41.8816066064123	-9.62232748673201	13.2365051655989	-46.3311065805588	0.744170204343924	-21.6065587733855	8.77873823565452	
2471333333.33337	-12.0681000649963	41.5054003995149	-9.62636779433304	10.9090938849003	-46.3330816429964	-2.65355209039616	-21.7013413233804	8.20480029649479	
2471666666.6667	-12.0265566094079	41.1744624911151	-9.61924797397328	8.59133677623432	-46.2736403871506	-4.7105439392229	-21.7531068157375	7.42321473153303	
2472000000.00003	-11.98837295135	40.802110114744	-9.62883293254596	6.28795163523623	-46.3208806080408	-6.260463546758	-21.8742945299313	6.68758965090435	
2472333333.33337	-11.9397644651502	40.461031888529	-9.63441858927059	3.94809090609213	-46.4165656215958	-7.73476044997505	-21.946202838475	6.11892245720892	
2472666666.6667	-11.8879212074045	40.1253595642866	-9.62973697618748	1.56691579172147	-46.1066163077771	-11.2605299284195	-22.0264160420988	5.3082906015003	
2473000000.00003	-11.8439243042299	39.8979095382323	-9.63619929216076	-0.736900676453988	-46.2657525830967	-13.1653644734072	-22.1262769967634	4.6265341006702	
2473333333.33337	-11.8017051744597	39.5705673259816	-9.64013442632581	-3.0425837041348	-46.4508634751661	-15.8227674581972	-22.2047366494597	3.88844167651141	
2473666666.6667	-11.7487195841442	39.2729338230333	-9.6482044256203	-5.36588156564438	-46.1027794087342	-18.1255696280089	-22.2977896440382	3.20406225049309	
2474000000.00004	-11.7102359290917	38.9468068347868	-9.65883900930126	-7.71048457773858	-46.4439469782218	-19.1533842472907	-22.373325921137	2.38106500863439	
2474333333.33337	-11.6553908547247	38.6416110738148	-9.65415293187983	-10.0494575773716	-46.3443804266152	-23.0187026569738	-22.4492258565684	1.66463460995152	
2474666666.6667	-11.6207349027908	38.3702476743392	-9.66221963429933	-12.3865205715347	-46.3414911740131	-24.8035541021404	-22.531917174769	0.912072500583018	
2475000000.00004	-11.5846384376678	38.0746431798636	-9.66558434104579	-14.7323861124674	-46.5144969372794	-27.8101462113508	-22.6015049538598	0.102261906227295	
2475333333.33337	-11.5381566895402	37.7706549216091	-9.67111556903482	-17.0732204959142	-46.3225005474283	-29.6923853243101	-22.6903332677494	-0.762820256154906	
2475666666.6667	-11.49346940819	37.5267605418835	-9.67709188708035	-19.4234800300971	-46.3312417992983	-33.7753906694294	-22.7635904136742	-1.30165520501639	
2476000000.00004	-11.4545668286635	37.1513500064477	-9.68479654034427	-21.7715694250425	-46.2747267099713	-33.0668398167584	-22.8278331387635	-2.31663959067105	
2476333333.33337	-11.4227119541803	36.8549332946733	-9.68284938008519	-24.1226290455109	-46.2428604416962	-37.2408116828811	-22.9076211831422	-3.09601106523313	
2476666666.6667	-11.374442818668	36.5216090734326	-9.69450781576228	-26.4258118581321	-46.289895530281	-38.1459916553774	-22.9706664039416	-3.93048418069364	
2477000000.00004	-11.34146262402	36.2873222377201	-9.6955249778279	-28.7655906287606	-46.0778777296905	-40.2029758128399	-23.0460259641069	-4.8870026974279	
2477333333.33337	-11.3000542226922	35.9283727857351	-9.70100554279429	-31.124272186347	-46.1446333869101	-43.1729176624413	-23.1051614669079	-5.4025247322934	
2477666666.6667	-11.2697520126929	35.6378980316877	-9.7087253679639	-33.4678206823873	-46.2083830034178	-44.2566118783922	-23.1625345335662	-6.13604554810212	
2478000000.00004	-11.2302838160498	35.3121967761297	-9.7128279401999	-35.7930814475417	-46.2152400202269	-47.9045461268887	-23.2100257352476	-7.03843822252454	
2478333333.33337	-11.1924401836172	34.9427154384897	-9.71890589265661	-38.1332072026761	-45.989005888976	-50.7772737629234	-23.2727657361642	-7.76239570965406	
2478666666.6667	-11.1543517225842	34.6405007260439	-9.72829863918174	-40.449966056908	-46.5543398319403	-53.1761033466488	-23.2930463977548	-8.66233640057166	
2479000000.00004	-11.1124143620261	34.3437624216587	-9.72847372906158	-42.791681074138	-46.1362984501155	-54.6491762117377	-23.3636778779223	-9.35136432364207	
2479333333.33337	-11.0868189503944	33.9952994484952	-9.74168558449533	-45.1136642720396	-46.1580715490939	-57.840261960176	-23.3932535184903	-10.1076648884112	
2479666666.6667	-11.0496064787571	33.6258880811428	-9.73961805123229	-47.4363444800563	-46.3908481182651	-58.1534528260044	-23.4292925648092	-10.8699499812312	
2480000000.00004	-11.0227976418814	33.2713528422	-9.74312511257961	-49.7343346827736	-46.4511380569641	-62.4166558977178	-23.4592626302026	-11.6832618503981	
2480333333.33337	-10.9929063345855	32.9639923454512	-9.75025021014691	-52.0772613011782	-46.2098577242275	-65.3131362474341	-23.487520133841	-12.3748428594893	
2480666666.66671	-10.965042716837	32.6224059644696	-9.75602529682901	-54.4053466669337	-46.3076380185104	-64.7460822505202	-23.5024005793407	-13.0638196412918	
2481000000.00004	-10.9358218129819	32.2430077505754	-9.76363352818691	-56.7043006299841	-46.1202180382875	-67.5416912401321	-23.5338267002126	-13.8133375078783	
2481333333.33337	-10.910776018028	31.8562946020035	-9.75738662550743	-58.989107892017	-46.5523510250853	-70.5006524370571	-23.566861198831	-14.5140704601371	
2481666666.66671	-10.8855689672185	31.4738714537725	-9.76529457574408	-61.3276444024512	-46.2795244575952	-71.6873070754433	-23.5735270803648	-15.2348268792876	
2482000000.00004	-10.8679235439496	31.1119843954563	-9.76689215427101	-63.6180607804801	-46.3130383144946	-74.0000020435434	-23.5777554135712	-15.8964639724784	
2482333333.33337	-10.8524335964885	30.68865701775	-9.77501628325521	-65.8853122769929	-46.3974550894763	-77.3367807799673	-23.5827464390433	-16.5455558387819	
2482666666.66671	-10.8253096625134	30.2581720467801	-9.76846658443361	-68.1703814174599	-46.2051478813275	-79.8559436384352	-23.5931009185231	-17.0520449680231	
2483000000.00004	-10.8130979150233	29.9277402523476	-9.77725667400657	-70.4333943228353	-46.3510796073564	-81.8867364246867	-23.5781328137582	-17.696098864278	
2483333333.33337	-10.7837932419712	29.5006516449623	-9.76977572984687	-72.7673292698138	-46.2653630093036	-84.0452375742773	-23.5632274255866	-18.3702130075012	
2483666666.66671	-10.7665807424732	29.1425677808384	-9.77200282313852	-75.0223779892585	-46.1880735125703	-86.5380233031363	-23.5703258663486	-19.00413279762	
2484000000.00004	-10.7573920476899	28.6539738553173	-9.77544967770186	-77.310171617046	-46.1686220510087	-88.7697864804184	-23.5804684396886	-19.4599757148614	
2484333333.33337	-10.7375203964915	28.3087503319732	-9.77866647007404	-79.6242249461296	-46.2956241255463	-91.0911663806928	-23.5631794018432	-19.9079455129905	
2484666666.66671	-10.7296330432864	27.8581884540085	-9.7733172451466	-81.8581953138304	-46.3283030007258	-94.7478744608128	-23.5085694503243	-20.3796439532143	
2485000000.00004	-10.7169295384268	27.4576482544684	-9.77728531889392	-84.1949235412744	-46.4059338622672	-95.4207637543519	-23.5101302379279	-20.8421969323459	
2485333333.33337	-10.7057085983111	27.0520222531547	-9.76726137398038	-86.4722543232093	-46.1418451312847	-95.7307420184834	-23.4821646552988	-21.2134215575304	
2485666666.66671	-10.7097736728574	26.6257330691733	-9.76382824560885	-88.7119081753005	-46.4006684103978	-100.910934994235	-23.4637794722118	-21.5876566476616	
2486000000.00004	-10.69670987253	26.1409090693612	-9.76271202550458	-90.9928126255941	-46.4992019239951	-102.110198559226	-23.4411320672219	-21.9582414975932	
2486333333.33337	-10.7007122206689	25.6746913312531	-9.76642488777978	-93.2593532067681	-46.5186947589378	-103.335642149348	-23.4189803508951	-22.3493332034772	
2486666666.66671	-10.6883788112711	25.2680663895636	-9.75955180150064	-95.5641127234515	-46.3654730498813	-108.04450970337	-23.3719136746816	-22.5942027928904	
2487000000.00004	-10.6900622656901	24.8428471435072	-9.75657912180916	-97.8519547469818	-46.3813858495656	-110.478679769304	-23.353767820634	-22.8662912471274	
2487333333.33337	-10.699120447134	24.3527177486643	-9.75292275876814	-100.12949304018	-46.0203175008306	-110.818370853287	-23.338250117121	-23.220482029831	
2487666666.66671	-10.6796020216165	23.8068320627761	-9.75145833710266	-102.395036738709	-46.5210023254648	-112.664337394405	-23.296067909056	-23.26337413296	
2488000000.00004	-10.6991393786364	23.3641758620118	-9.74701132990986	-104.675288897087	-46.3104879792915	-115.10354538735	-23.2777456941737	-23.4660969085377	
2488333333.33338	-10.6993767237286	22.92689219578	-9.73943547822462	-107.004065743308	-46.397432603661	-117.615754223817	-23.2664699755139	-23.5046647988532	
2488666666.66671	-10.7082939821825	22.4094697865989	-9.73764260928814	-109.268927846406	-46.222601886489	-120.774482497241	-23.2460250170999	-23.6612862593535	
2489000000.00004	-10.7146003015492	21.8410820268937	-9.72675934424052	-111.584379555067	-46.2292734991121	-122.052465351311	-23.1959991830668	-23.687214219769	
2489333333.33338	-10.7351883141246	21.4082844553524	-9.72734304727203	-113.886703503955	-46.2119477058026	-123.542380766936	-23.1594454828188	-23.6548614937074	
2489666666.66671	-10.7364369304173	20.9227697866155	-9.72066095692686	-116.127756838367	-46.6077623495969	-128.563453425963	-23.1241890426225	-23.7877843070244	
2490000000.00004	-10.7579357000708	20.3050200834366	-9.71380190568936	-118.441070827523	-46.4120655897144	-127.772177756285	-23.1075909776879	-23.7138438823453	
2490333333.33338	-10.7741504261168	19.7347454350999	-9.71182985893658	-120.714459435501	-46.6253585040175	-134.273140326822	-23.1076356032141	-23.7486022267234	
2490666666.66671	-10.7872006908901	19.2020553573541	-9.70507940378678	-123.037794274938	-46.3382537412681	-133.816129588669	-23.0596836584898	-23.6073590215213	
2491000000.00004	-10.8138030791926	18.6764342250285	-9.70546102462905	-125.327835927236	-46.5372947619121	-137.50403074399	-23.0198328730044	-23.5027982746636	
2491333333.33338	-10.8437354810063	18.1201994816123	-9.69505567567044	-127.624367881284	-46.3479872327858	-139.200045417019	-22.9895282102864	-23.3476251718309	
2491666666.66671	-10.8658538517596	17.5952115985886	-9.69613868123803	-129.877594928992	-46.2982416448038	-141.445637550828	-22.9739466240604	-22.9775377328409	
2492000000.00004	-10.8831663664994	17.0576129239573	-9.6892976818606	-132.190216190762	-46.7119773028265	-144.803246033779	-22.9496578152385	-22.6443125198904	
2492333333.33338	-10.9232234314961	16.4817139461124	-9.68594704654788	-134.477747732162	-46.5220637699012	-145.771434824616	-22.9049367475867	-22.4119626108169	
2492666666.66671	-10.9521917737381	15.972285964562	-9.6797403474576	-136.760922402103	-46.3478496469252	-148.098020931372	-22.8602940016889	-22.1102921839013	
2493000000.00004	-10.9787546828132	15.3555333068074	-9.67255344629605	-139.047937480534	-46.3514694039692	-151.728519442782	-22.8390336680578	-21.7022327985448	
2493333333.33338	-11.0093841712863	14.78812266178	-9.67457183943031	-141.34307430954	-46.510114409175	-152.056405876105	-22.8089932446619	-21.2751038631498	
2493666666.66671	-11.0450047902246	14.1966646863696	-9.66980995364439	-143.614211911969	-46.6132708215161	-154.461657482743	-22.7522914976991	-20.7701898282672	
2494000000.00004	-11.0821736225105	13.6262862176555	-9.6663611151242	-145.888777318242	-46.2828115276967	-156.950879530644	-22.7334819532509	-20.284907522529	
2494333333.33338	-11.1144495897088	13.0333396455769	-9.66814411315334	-148.182984620497	-46.2903339804284	-160.622705100172	-22.6694524299324	-19.8274333351105	
2494666666.66671	-11.1535207134089	12.4003857112682	-9.66142401036371	-150.473475705533	-46.6055586905057	-163.271718863617	-22.63912226691	-19.1310884348141	
2495000000.00005	-11.1847322959141	11.8083730986763	-9.66241981758527	-152.74465616308	-46.4476407835831	-162.429670504175	-22.5998900406427	-18.5126740639536	
2495333333.33338	-11.2183594781341	11.27299906853	-9.65279797161615	-155.040724292869	-46.4503617879646	-166.704698945312	-22.5356505782297	-18.018948202849	
2495666666.66671	-11.2667264525317	10.6201818757021	-9.65677421939891	-157.317719462344	-46.4779844122288	-168.42085139107	-22.5110310224724	-17.4183221308823	
2496000000.00005	-11.291443710245	10.0423889968349	-9.64819672939323	-159.583936513467	-46.4880620613708	-169.712578057077	-22.4480119764059	-16.8040634749523	
2496333333.33338	-11.336965173397	9.40649529781973	-9.64917081953023	-161.875127752523	-46.3032106499197	-171.421872727009	-22.382919912816	-15.9974488599209	
2496666666.66671	-11.3790254178945	8.83093534336599	-9.65187248323962	-164.162595923609	-46.4368698075386	-174.536437294054	-22.3550939552013	-15.3820321307985	
2497000000.00005	-11.4158385531764	8.19961198187884	-9.64903258589405	-166.440104335963	-46.5567148116749	-175.479934027411	-22.2882013745508	-14.5500176660904	
2497333333.33338	-11.4433380796558	7.69277699040309	-9.64145223429795	-168.678769128012	-46.3976619828823	179.387320947446	-22.2336596457292	-13.7678880723079	
2497666666.66671	-11.4958729762298	7.07102100862284	-9.64948165986021	-170.98433004788	-46.3741531353848	176.730945506424	-22.1633637662004	-13.0671715844729	
2498000000.00005	-11.5267806981604	6.49351918708501	-9.65331124900528	-173.281601461535	-46.4685832973686	174.450799965855	-22.0806298132325	-12.2357893085241	
2498333333.33338	-11.5634539650001	5.84000384435214	-9.65576420602332	-175.537117434613	-46.5762412515478	174.804644070502	-22.0184508358851	-11.4729150680526	
2498666666.66671	-11.6075067551891	5.23087856572467	-9.65910282691989	-177.816116312233	-46.4604464868414	171.647660161	-21.9290932855049	-10.7495774261043	
2499000000.00005	-11.6408226392154	4.62995730682825	-9.65289864084449	179.871965426873	-46.5172961668881	168.813128008374	-21.8499149735154	-9.87304847537679	
2499333333.33338	-11.6712689438224	4.09207070932584	-9.65874908257124	177.648695871512	-46.413228521373	165.437425667084	-21.7588084908539	-8.95005951970436	
2499666666.66671	-11.7143291978753	3.4616068312524	-9.66282804552786	175.318794521162	-46.4005670487781	164.397181350109	-21.6757270960161	-8.13876080928387	
2500000000.00005	-11.7541802419294	2.8581805516331	-9.67029670687205	173.073580664328	-46.7233051213262	162.106073453732	-21.57653686764	-7.41159826989877	
2500333333.33338	-11.7868227686575	2.27304435376969	-9.67055360559197	170.784630083069	-46.5733951158125	159.609515592596	-21.4999613176587	-6.67810326129005	
2500666666.66671	-11.8252371522814	1.71986840473953	-9.67972250010293	168.53755302458	-46.3093095916323	158.270633454548	-21.3760859699745	-5.95993876273967	
2501000000.00005	-11.8514134876276	1.11595154565705	-9.67663974670934	166.241082545467	-46.621496211178	154.53532418787	-21.3002006150594	-5.09848056269786	
2501333333.33338	-11.8789130952658	0.494692810312614	-9.68149583950124	163.957095773941	-46.6320567431264	152.227751705714	-21.1745888965623	-4.40718750120249	
2501666666.66672	-11.9214964636211	-0.0475490291400654	-9.68614384075085	161.708430186717	-46.542489532156	150.281430918974	-21.0698522073632	-3.8356649634243	
2502000000.00005	-11.9444342895916	-0.674129779532675	-9.68883846580276	159.426674704055	-46.2977778875089	148.040443385709	-20.9264458163259	-2.91207993931832	
2502333333.33338	-11.9701562545002	-1.3239972390381	-9.6997958150801	157.188908900031	-46.3972524904938	145.324441487074	-20.8184864875674	-2.21547214943945	
2502666666.66672	-12.0093816072754	-1.93342431469222	-9.70517753186	154.898535643331	-46.2797842605885	145.466985604999	-20.7006492088975	-1.69773902343174	
2503000000.00005	-12.0371716901536	-2.60706270408215	-9.70590727504745	152.663562717673	-46.3904539561068	142.18484365285	-20.5434869551596	-0.8461090557683	
2503333333.33338	-12.0621970154003	-3.31046714475696	-9.72107597093971	150.359176573026	-46.4227381754334	138.641512507547	-20.4349137299843	-0.374319838553445	
2503666666.66672	-12.0960732023008	-3.90966560991109	-9.72822610815354	148.081559117834	-46.4352113963728	136.520043626882	-20.3107642814125	0.267922750839283	
2504000000.00005	-12.1074915474855	-4.55144299407479	-9.73518057471981	145.830182314281	-46.3848658544053	133.898047412588	-20.1821892087052	0.599316283481211	
2504333333.33338	-12.1330982922584	-5.25599572832091	-9.73892590012461	143.542122821179	-46.4037685768218	133.131885308177	-20.0432301353759	1.33534726036597	
2504666666.66672	-12.1565187580091	-5.91057415905987	-9.7448856216419	141.307313221462	-46.2763153390193	129.365900488625	-19.916242152147	1.73504996916688	
2505000000.00005	-12.1709390939047	-6.59529051405908	-9.75586431318177	139.060816873279	-46.4503230814378	126.835977490654	-19.7887789952118	2.16816276608771	
2505333333.33338	-12.1971554631941	-7.28335932933204	-9.76301013286766	136.802131241602	-46.3314605678923	124.39203053796	-19.6611390437525	2.54022976695184	
2505666666.66672	-12.2094760939976	-7.93865854262377	-9.77598472080794	134.517866779001	-46.2778527720011	122.633076835191	-19.5237012908617	3.00993299737357	
2506000000.00005	-12.2268263378132	-8.62566808953024	-9.78134265143331	132.315840341763	-46.40464723506	121.83955154485	-19.3942791959272	3.30762828670024	
2506333333.33338	-12.2410927541232	-9.30751439593764	-9.79033342939165	130.036691647394	-46.1287478186149	117.854211757169	-19.2780412860132	3.58130248224517	
2506666666.66672	-12.2510661917736	-9.98016678018735	-9.80040221929996	127.776788248083	-46.3599019984544	116.802720725104	-19.1860805711388	4.09456405988778	
2507000000.00005	-12.2713388954989	-10.7091273567243	-9.81141840123055	125.526401518914	-46.1931923219617	114.355027217312	-19.0399191892922	4.30778802426112	
2507333333.33338	-12.2762466709788	-11.424610490691	-9.82404794332641	123.278544640653	-46.4522644866396	112.1505779014	-18.9341073711759	4.43376600922253	
2507666666.66672	-12.2903903419442	-12.1152129170906	-9.83083077552789	121.029711325481	-46.3105158433196	110.148746805113	-18.8025612716859	4.61743787561277	
2508000000.00005	-12.3088901987349	-12.8607265330188	-9.84023821062715	118.785792224623	-46.3696225204364	105.945302633515	-18.7146600931036	4.83500721577919	
2508333333.33338	-12.3123432254276	-13.629208909973	-9.85263362932073	116.545934725002	-46.2592697623418	105.180049363662	-18.6006619557949	5.06042296241622	
2508666666.66672	-12.3194005734014	-14.4143061217688	-9.85868751594251	114.323536346799	-46.4382327885293	102.957626610813	-18.4891643706633	5.03394220263532	
2509000000.00005	-12.3323737957689	-15.1698110255434	-9.8738534413257	112.067137525099	-46.3355396543418	101.872384910103	-18.3768842838893	5.01180691133615	
2509333333.33339	-12.3421967440468	-15.9320538670395	-9.88267534432151	109.804131637688	-46.5250310895719	97.4064029529949	-18.2856839373745	4.95622159696453	
2509666666.66672	-12.341996879921	-16.6755385590285	-9.89493400689833	107.591972184131	-46.4348542533575	96.044192630492	-18.1962423491385	5.02489707534573	
2510000000.00005	-12.3504014940277	-17.475128406684	-9.89953448559055	105.336516448491	-46.2224508855769	95.3243192557222	-18.1075011172932	5.00634630742864	
2510333333.33339	-12.3516099840049	-18.2339892306294	-9.91358285354337	103.090391362524	-46.3087635743447	92.3115445755778	-18.0231243029355	4.95611947203153	
2510666666.66672	-12.3538906411865	-19.0072041582806	-9.92744770245575	100.812000510581	-46.4271262779374	90.1511156654695	-17.9262607732347	4.83075923338847	
2511000000.00005	-12.3588598411443	-19.744933948809	-9.93888589357374	98.5890544125749	-46.5743083853593	86.3868114452519	-17.8414025115193	4.70301303555676	
2511333333.33339	-12.3608333435963	-20.4793108016456	-9.94666367631695	96.3517812932958	-46.5228735799159	85.2410114240865	-17.7753906808151	4.70763307048393	
2511666666.66672	-12.3643695471077	-21.2429218569466	-9.95948621069506	94.1009846676017	-46.8196717944853	84.3312146767048	-17.6971496918939	4.52544948173042	
2512000000.00005	-12.3672667348544	-21.9730756065289	-9.97513385092443	91.887933851634	-46.4896143106207	79.4680627703957	-17.6479901774683	4.23179309112935	
2512333333.33339	-12.3765894532742	-22.7145378729471	-9.98141631734471	89.6165339795666	-46.5098387338061	77.282110706774	-17.5870434340114	4.01302699016618	
2512666666.66672	-12.3656184013537	-23.466587440146	-10.0008579968489	87.4052059185194	-46.6990265495848	76.0394634307168	-17.5148132137326	3.74403596278671	
2513000000.00005	-12.3695858015512	-24.201155009835	-9.99747302114107	85.1592220707534	-46.670116934712	73.8364067911588	-17.4804853894884	3.49066140941087	
2513333333.33339	-12.3768622427543	-24.8977356403867	-10.0215631740602	82.9427850208861	-46.4939251988741	72.2409761510124	-17.4275659351029	3.20405779078071	
2513666666.66672	-12.3753431673084	-25.6403025123641	-10.0228443501172	80.6764140581735	-46.0843002663467	68.3351949361759	-17.3987688672663	2.92733832134258	
2514000000.00005	-12.3805065270962	-26.3782080478807	-10.0441420428525	78.416532425234	-46.5883002101716	67.3436764837049	-17.3610329379621	2.57635274827303	
2514333333.33339	-12.3830542499345	-27.0882886158382	-10.0440323602918	76.1453951913612	-46.3870877060427	64.8659144757452	-17.3394023537587	2.36858875368469	
2514666666.66672	-12.3860016985695	-27.8542552351553	-10.0579363503126	73.9431181729503	-46.4090428161836	63.2305597548312	-17.311179247772	1.88559223737486	
2515000000.00005	-12.3838396751136	-28.5601733953422	-10.0764348324474	71.6840791085183	-46.5402855229614	60.3546767488694	-17.3060404536664	1.33408690279286	
2515333333.33339	-12.3914784399582	-29.2576322015522	-10.0843067172375	69.389006906817	-46.7073907741679	57.7302186186449	-17.2709819111936	1.05366239692113	
2515666666.66672	-12.3920580243602	-29.9807551678248	-10.0992776979692	67.2080396717488	-46.7896812142004	55.7014650506807	-17.2616645528697	0.645623182622856	
2516000000.00006	-12.3931383242111	-30.6624256471811	-10.0997818547708	64.9024536204119	-46.2676459255393	54.9649559772137	-17.2703069315799	0.187338182072588	
2516333333.33339	-12.4047967965143	-31.3175085874909	-10.1155467878134	62.6374150325166	-46.9974249890547	50.6298347642329	-17.2762337011528	-0.333053604255266	
2516666666.66672	-12.4082167737572	-31.9774184151274	-10.1307847027168	60.3904745809469	-46.8369410186433	48.2838042271052	-17.2786406137926	-0.780611927254994	
2517000000.00006	-12.408632347836	-32.6441744886014	-10.133206681736	58.1233284135977	-46.6539907758626	45.5304405171212	-17.3062308533098	-1.35198770522178	
2517333333.33339	-12.414605314905	-33.223397672618	-10.1460268846753	55.8613122378691	-46.6317828501498	42.6930895876751	-17.3219266827342	-1.79450680414675	
2517666666.66672	-12.4305847114878	-33.8574821631743	-10.1532167565782	53.6323929157949	-46.7306610309991	42.9298511969907	-17.3463967731152	-2.3180645745187	
2518000000.00006	-12.4351438716377	-34.4481330381938	-10.1588429620028	51.342590284015	-47.1324596533904	38.2886570047394	-17.3757262287073	-2.88445275283564	
2518333333.33339	-12.4408706773444	-35.0395194902916	-10.1718423744909	49.0856813154889	-46.8360127930508	38.0999516161391	-17.3998994343781	-3.60917926132829	
2518666666.66672	-12.4544504333442	-35.6197410287467	-10.1770785476985	46.8241897409517	-46.5870433752311	34.0388660041585	-17.4667805901217	-4.10152784616652	
2519000000.00006	-12.4636554879302	-36.1101743347901	-10.191462733582	44.5649935934605	-47.0049791016274	34.8492541261973	-17.5122068794442	-4.68987358318649	
2519333333.33339	-12.4705350190431	-36.6819329229561	-10.1979006522443	42.287002990709	-46.9476942322976	32.3454684886038	-17.5805270313891	-5.38996567583834	
2519666666.66672	-12.4845978294204	-37.2054002567833	-10.2083830978364	40.0275100668617	-46.5424697819306	28.7830231636813	-17.6297248020946	-6.03146795507285	
2520000000.00006	-12.4977857033123	-37.6890611321259	-10.219637559584	37.7264746862273	-46.687406960544	26.9130381470926	-17.6980219967282	-6.86761117338824	
2520333333.33339	-12.5103458131327	-38.18889951428	-10.2260279132908	35.4783134484876	-46.7136257126072	23.5533387850605	-17.7752235390625	-7.38350813074636	
2520666666.66672	-12.5278776521032	-38.6900036069448	-10.2391011272668	33.2284790543005	-46.783177269816	23.0563210492077	-17.8460278724755	-8.05842476267735	
2521000000.00006	-12.5415581358641	-39.1375911362396	-10.2473548182319	30.9419509590171	-46.4502902617539	18.3750623201304	-17.9243751310592	-8.88057035774346	
2521333333.33339	-12.5553740139949	-39.6223632973219	-10.2528298252877	28.7069274771966	-46.4644427455626	18.1036648621649	-18.0211755084766	-9.535171759525	
2521666666.66672	-12.5732562966375	-40.0825736447532	-10.2655907600799	26.438088088751	-46.569439703134	13.5257982560679	-18.1235513901251	-10.3931917635259	
2522000000.00006	-12.587811575728	-40.5367635676664	-10.2695565564419	24.1936636432634	-46.9065693318431	11.724902655338	-18.2236076270762	-11.0841070884603	
2522333333.33339	-12.6001332576345	-40.8951852156557	-10.2796053461653	21.9414877092293	-46.8448908152746	10.660954966589	-18.3337835068068	-11.9801432926501	
2522666666.66673	-12.6220641569606	-41.3672453809227	-10.2944136203912	19.6950660576614	-46.954540352072	7.82705124374433	-18.4664284638497	-12.7677658311369	
2523000000.00006	-12.6419768159143	-41.7177211923012	-10.2968443812399	17.4189315206952	-47.0588195002809	6.80175485582008	-18.5756478985941	-13.6306651341143	
2523333333.33339	-12.6580134103647	-42.1343184773817	-10.314297647793	15.1694454632575	-46.812941070316	4.33194594864755	-18.7120452288288	-14.4536156877792	
2523666666.66673	-12.6859073996809	-42.5243875495134	-10.3139005664324	12.9558082613104	-46.7623901266323	2.22150781384922	-18.8560545536285	-15.3217177057681	
2524000000.00006	-12.6912549509988	-42.8321645543346	-10.3303450359292	10.6611916618604	-46.7257276525052	-0.683777480476604	-18.9813735117211	-16.1354103102105	
2524333333.33339	-12.7222928251963	-43.1045210116227	-10.3336091088968	8.47119388795289	-46.7981427767988	-4.6273322593364	-19.1232547539341	-17.0398876830449	
2524666666.66673	-12.745693297705	-43.4334354286172	-10.3413317244888	6.25026616514319	-46.4879430541109	-5.43745470207184	-19.2718572675708	-18.0357219701213	
2525000000.00006	-12.7720548236607	-43.8850759376568	-10.3564264765388	4.02789136109009	-46.8219093299862	-9.14103240150402	-19.4496355306663	-18.9408313108146	
2525333333.33339	-12.7961270680467	-44.0669295630901	-10.361944276315	1.81706058417734	-46.8404140702512	-10.7978912788433	-19.6142959080815	-19.9862071560429	
2525666666.66673	-12.8240760819367	-44.4127003486063	-10.3720340349382	-0.420592842239722	-46.7501118338157	-11.7987181209989	-19.7942655168785	-20.9727203640021	
2526000000.00006	-12.8524285335136	-44.6331292769517	-10.3738455914226	-2.66946591609143	-46.9016073912889	-16.2352367634037	-19.9866098403457	-22.0034716722445	
2526333333.33339	-12.8734763729363	-44.853419804537	-10.3720420067765	-4.83540181118871	-47.0107527928584	-17.8827339011055	-20.1606076474091	-23.0711626824694	
2526666666.66673	-12.899989821855	-45.1582004209574	-10.3840486115651	-7.05883008350623	-46.7058479228517	-17.7630269092761	-20.337524821695	-24.1529440537005	
2527000000.00006	-12.9294223754135	-45.3537341718455	-10.382682847388	-9.23506974131837	-46.9622335115246	-20.5680485489517	-20.5532825380439	-25.1256414656614	
2527333333.33339	-12.9580794776764	-45.7110356616271	-10.387434247323	-11.4455157818685	-47.0352620539694	-23.436186143631	-20.7698760222077	-26.2744829331246	
2527666666.66673	-12.9744335477125	-45.8302678109218	-10.3858099576149	-13.6485514363165	-46.7594550534667	-24.6921319392939	-20.9991138300524	-27.3256751211162	
2528000000.00006	-13.0268650326857	-46.1259856253443	-10.388940895694	-15.8599126588104	-46.8953320244814	-27.0965560505024	-21.215761385614	-28.3611579815126	
2528333333.33339	-13.0501886739801	-46.2582544824005	-10.3816906345978	-18.0352764979332	-46.81239768876	-29.9151897579651	-21.4538104918331	-29.6377553662669	
2528666666.66673	-13.0792320555433	-46.4366938213492	-10.3864519618162	-20.270151178038	-47.0506213787084	-34.8056991269194	-21.7038192778943	-30.7140870293713	
2529000000.00006	-13.103483509155	-46.7091057516047	-10.3808278765087	-22.4416850608232	-46.8830268538188	-34.2413956323215	-21.9413560567216	-32.0003630449834	
2529333333.3334	-13.1452894685807	-46.8747211024917	-10.3764885291159	-24.6289739515421	-47.0160196484482	-35.9780419594296	-22.1944666488676	-33.0681143170849	
2529666666.66673	-13.1706466901936	-47.0986837565708	-10.376548285961	-26.8362140532405	-47.0357331104074	-39.8408629958451	-22.4608218637638	-34.4476014526201	
2530000000.00006	-13.2056371720046	-47.3415175599976	-10.3750057214065	-29.0350677095523	-46.996225688573	-41.3480527954415	-22.709153567227	-35.6937819958676	
2530333333.3334	-13.2445903860847	-47.5221709691524	-10.3566540908313	-31.2468226494426	-47.0416895463816	-41.6373729013421	-23.0114819615359	-36.9311252069941	
2530666666.66673	-13.2829100149265	-47.8130831837183	-10.3516370819986	-33.3908762384182	-47.1092665639799	-44.9848130265761	-23.2825525967774	-38.0784983800441	
2531000000.00006	-13.3204509749866	-47.9704531332222	-10.3478406689571	-35.5991868788246	-47.0686110542612	-47.4327262342858	-23.585765695483	-39.5806281365225	
2531333333.3334	-13.3649626004905	-48.1984871336719	-10.3390991451874	-37.8094599873881	-46.8087760250702	-49.9922430360449	-23.9155101921907	-40.8074362729564	
2531666666.66673	-13.3987169004797	-48.3696739813321	-10.3248879193257	-39.9935270642	-46.7300301015229	-51.3058612704809	-24.1899350423189	-42.1507500464337	
2532000000.00006	-13.4498901691196	-48.5658097859475	-10.311905135741	-42.1818416220521	-46.775739294049	-54.4633364383664	-24.5262562853958	-43.5210398830875	
2532333333.3334	-13.4830060470742	-48.8872232735127	-10.3019965066601	-44.4315269375781	-46.6181123392368	-56.3000751292503	-24.8972556651857	-44.8966004212836	
2532666666.66673	-13.5223004356254	-49.0400413719204	-10.288693585359	-46.6200023226347	-46.6613127257791	-59.0536255427768	-25.2110978777617	-46.5020999067299	
2533000000.00006	-13.5677103578089	-49.2941688376572	-10.2808604571932	-48.874544400376	-46.5953176149487	-60.0674984090869	-25.5494138859646	-47.9291932049192	
2533333333.3334	-13.6323317080306	-49.5698381579393	-10.2634844474503	-51.0778620309639	-46.6701599986049	-62.177023883029	-25.9265291783574	-49.3049352318753	
2533666666.66673	-13.6720879285418	-49.7626337330529	-10.2520905596442	-53.3156851819074	-46.8450185617226	-64.2699104434499	-26.3179968625527	-50.9825671803178	
2534000000.00006	-13.7280138348641	-49.9990394943892	-10.2327906183417	-55.5655635184383	-47.0562345610504	-67.3979318701539	-26.6851506385994	-52.25460484804	
2534333333.3334	-13.7636329915847	-50.264416031349	-10.2182034285066	-57.7683677413198	-46.6592546144374	-70.6526928701151	-27.1148908834588	-53.6330535797414	
2534666666.66673	-13.8038093082048	-50.3848434685968	-10.2064579968313	-59.9879915380498	-46.6703762109436	-71.9924094058908	-27.5002403527146	-55.3814530658459	
2535000000.00006	-13.8682225166628	-50.5833165734313	-10.1930612325259	-62.2789959822693	-46.8443022728361	-73.5523200366129	-27.8967633566083	-56.6729027898822	
2535333333.3334	-13.9179772755459	-50.7856043497081	-10.1827580802461	-64.5095936319967	-46.7742527321565	-76.8125064326852	-28.3550805950436	-58.1264522823981	
2535666666.66673	-13.9656155084587	-51.0506698343126	-10.1636056807963	-66.7551433052792	-46.749040185561	-78.8956582535244	-28.794039740612	-59.566522227256	
2536000000.00006	-14.013127814321	-51.3271663045361	-10.1486638375693	-69.036911386807	-46.6515593021527	-80.473642481926	-29.2617350203344	-60.8465128028282	
2536333333.3334	-14.0691216908896	-51.5403481972628	-10.131666661374	-71.3040889632206	-46.9547890229626	-83.1517182501533	-29.7407123304567	-62.0202240861846	
2536666666.66673	-14.1416816365652	-51.7896405563056	-10.1176152496843	-73.5424505385053	-46.698336018633	-84.3865337023019	-30.23419031216	-63.6628797682272	
2537000000.00007	-14.1819105714358	-51.9878009322919	-10.1072011530268	-75.8373624493919	-46.6376599041538	-87.670863245997	-30.8033078338954	-65.1181834206967	
2537333333.3334	-14.2334458358756	-52.2129692975203	-10.0877200147314	-78.0930561076838	-46.5926739212445	-87.8673484920676	-31.3796544460375	-65.9799317631639	
2537666666.66673	-14.272809597665	-52.5662378506273	-10.0741578740678	-80.3892140627126	-46.388810589111	-91.8470253774743	-31.9434559367264	-66.8858775184524	
2538000000.00007	-14.3443108576387	-52.7286889604532	-10.0628166778229	-82.6815226432333	-46.8848793157793	-93.3539240431784	-32.5531846369226	-68.051986615419	
2538333333.3334	-14.4098945196177	-52.9395283406276	-10.052855616212	-85.0007121561309	-46.8166698709888	-97.0745136957469	-33.243625145082	-69.1119580232236	
2538666666.66673	-14.4768107480059	-53.1923267364563	-10.038624395941	-87.2834577118651	-46.5542173361452	-96.3404944760443	-33.8919705879345	-69.0860117667668	
2539000000.00007	-14.5315434465998	-53.4217394718524	-10.0366140370647	-89.5429687149572	-46.6084974499679	-100.01559568035	-34.6786602140227	-69.1405534760264	
2539333333.3334	-14.5980812044814	-53.599421007018	-10.012930848211	-91.8767782965862	-46.5988153881994	-103.493534061093	-35.5258571751211	-69.1858759657399	
2539666666.66673	-14.6726846396797	-53.8941962110265	-10.0103464351216	-94.1578662623113	-46.4105852041462	-105.588435437524	-36.2421135233514	-68.1488397560449	
2540000000.00007	-14.7406485031055	-54.2649918537406	-9.99588341095176	-96.5198205236036	-46.4284005934609	-107.404332685468	-37.0714298382663	-66.4536581508259	
2540333333.3334	-14.8072291348328	-54.4303596303912	-9.98641308161747	-98.8233766254901	-46.4229425999337	-109.937917817638	-38.0599110607905	-65.1803461562633	
2540666666.66673	-14.8820757245329	-54.8578423609662	-9.98322963787672	-101.127761183691	-46.4896970714663	-110.997867986269	-39.1192374505104	-61.199535757758	
2541000000.00007	-14.9544740572411	-55.0603742484453	-9.97920050860129	-103.442821865858	-46.6854800454099	-113.411919370836	-40.0905185852751	-56.2683491600713	
2541333333.3334	-15.0034411642952	-55.4803279248331	-9.97085365194851	-105.742078285358	-46.2327666407351	-115.229311482497	-41.0475943545865	-48.8274497968734	
2541666666.66673	-15.0980776292867	-55.826296665823	-9.94967178630615	-108.13866773873	-46.1940104451571	-117.545031545226	-41.5839160286868	-41.4032922377355	
2542000000.00007	-15.1549753699746	-56.1481963167575	-9.95011241856684	-110.370904512891	-46.6080706656018	-119.091382318606	-42.0286259403515	-31.5121096825041	
2542333333.3334	-15.2275384604106	-56.5550779044288	-9.94858005970093	-112.740337204242	-46.7029173409047	-122.882115049319	-42.4468770627333	-19.3201626127274	
2542666666.66673	-15.2940541756827	-56.9090985443438	-9.938703251024	-115.055884214984	-46.4433867700527	-124.395651373688	-41.8819552147917	-8.53675703950771	
2543000000.00007	-15.3841284024046	-57.255417026374	-9.93633662594329	-117.393820892905	-46.3911767378717	-126.272969822772	-40.9857060145517	-0.775197476826087	
2543333333.3334	-15.4346217296057	-57.6262773714707	-9.92834500162637	-119.708271771056	-46.3853176260444	-129.321045228935	-39.9736122959769	6.57221897241664	
2543666666.66674	-15.5141723533531	-57.9343945103371	-9.92650549176555	-122.031914437519	-46.5087351533375	-130.353481778612	-38.9896098591445	12.4941826698801	
2544000000.00007	-15.6105925784624	-58.2501440823449	-9.92476071766503	-124.376623890296	-46.8145800299062	-134.512172133012	-38.1943659997834	16.0096128376145	
2544333333.3334	-15.6986007744367	-58.6971958777461	-9.92287171072311	-126.65606658624	-46.5443232422304	-135.401552518883	-37.0038933469088	19.0309418830522	
2544666666.66674	-15.7775866459381	-59.0466675258555	-9.92397862751033	-128.973134903201	-46.5344007755375	-138.460132795497	-36.0059547218294	20.7436496958043	
2545000000.00007	-15.8715242614135	-59.3909227182524	-9.9218291874733	-131.293421405288	-46.7584216030753	-142.858043758399	-35.1142933434473	22.1954844625283	
2545333333.3334	-15.9562050630232	-59.8340016303705	-9.91856301561203	-133.598252139719	-46.3793843255988	-144.35748552188	-34.1928879205137	22.4320334740211	
2545666666.66674	-16.0596921039039	-60.3340852081106	-9.91952130798108	-135.915123830919	-46.3565789725901	-144.637535452116	-33.4586559702183	22.8622296615989	
2546000000.00007	-16.1406222869538	-60.8388188760269	-9.92488460638405	-138.220693010911	-46.3340374127887	-148.317816385219	-32.7429894692341	23.0256702820318	
2546333333.3334	-16.2514113548032	-61.2380307374186	-9.91982121777791	-140.53528692351	-46.3382202849975	-149.951186851302	-32.0095576182589	23.1055812797586	
2546666666.66674	-16.3285543879216	-61.5902073781882	-9.91996249526728	-142.869124759242	-46.4327505182488	-153.421644175531	-31.33514706642	22.3540769784113	
2547000000.00007	-16.3989820428208	-62.1539174705389	-9.92481649248657	-145.121021627975	-46.7022867151301	-154.440066031559	-30.7032175737075	22.0915551122535	
2547333333.3334	-16.4875010581748	-62.6339135350866	-9.92658593328054	-147.417829596069	-46.0094186610389	-159.322091865448	-30.1348685985144	21.7852932836502	
2547666666.66674	-16.5648901668325	-63.2431080501254	-9.92668084470733	-149.747845299323	-46.5873699666174	-159.192371224597	-29.5922209995977	21.007052025057	
2548000000.00007	-16.6615239330157	-63.6924761328891	-9.93334052116189	-152.019937613742	-46.4425903233139	-162.205894157583	-29.0461755613947	20.7323501418941	
2548333333.3334	-16.7399994023667	-64.2755534597584	-9.93139742332003	-154.345785333802	-46.3553287424986	-164.206385703622	-28.5417706624013	19.4087808918379	
2548666666.66674	-16.8201530118709	-64.9843596423307	-9.9383996251822	-156.647111000367	-46.3343902667996	-166.882226113937	-28.0786528747304	19.0431528038683	
2549000000.00007	-16.9001046394299	-65.5365702026404	-9.93792615248578	-158.902599270417	-46.3974358425663	-169.64257360985	-27.605687227455	18.0108054840521	
2549333333.3334	-16.9957311717612	-66.2521486811249	-9.94079871408411	-161.210551425827	-46.2351689594446	-169.891884666535	-27.199522158401	17.2601198341656	
2549666666.66674	-17.0666746706413	-66.9071778035332	-9.93891774461383	-163.490314360449	-46.3335764195015	-173.775964071663	-26.7359910618737	16.4362314255032	
2550000000.00007	-17.1476896404619	-67.6591053108825	-9.94516220157993	-165.764515203611	-46.660500352417	-175.61699479188	-26.3475365437616	15.6057331845577	
2550333333.33341	-17.2347499300145	-68.4159298017061	-9.95036734842943	-168.076256009992	-46.1959596273287	-177.291232275935	-25.9714269384064	14.9934112786436	
2550666666.66674	-17.3264504837834	-69.1337941744568	-9.95019810124187	-170.321421760122	-46.6514375714583	179.37461592026	-25.5968062040987	13.9252098307464	
2551000000.00007	-17.387340068133	-69.9414528006035	-9.95111500186435	-172.575839168741	-46.5893690887418	175.771298088708	-25.2356720310392	13.0716625042555	
2551333333.33341	-17.4882265866319	-70.5665161469216	-9.95565266346229	-174.863244985624	-46.2678329455084	175.136053941949	-24.8638558975251	12.3531284837314	
2551666666.66674	-17.5649976859606	-71.4097853657975	-9.96089231462955	-177.117339345689	-46.2575779094144	172.028156297287	-24.5561330250878	11.5172518130787	
2552000000.00007	-17.6525018678679	-72.169699258771	-9.9655095078845	-179.390705496718	-46.3407571183587	170.85235530858	-24.2427710221874	10.5369353217734	
2552333333.33341	-17.7433558600085	-72.9534478996911	-9.9661210604234	178.386233366876	-46.3347472267543	167.30772645124	-23.9461988313027	9.79190579707051	
2552666666.66674	-17.8478911835076	-73.7330973463536	-9.96716342241294	176.124297207856	-46.4609194245197	167.341736826042	-23.6461152638405	9.09083322269591	
2553000000.00007	-17.9288600739424	-74.6068988531178	-9.96386149304504	173.895636724287	-46.3757890161416	164.285566415487	-23.3527506196406	8.09836743789586	
2553333333.33341	-18.0091160438404	-75.3931507141525	-9.97570782478303	171.608950002375	-46.4765031743621	164.183832566916	-23.0726071086946	7.38124864048198	
2553666666.66674	-18.0865399454762	-76.1261899433348	-9.97248760656207	169.409455432312	-46.3813551073551	159.390174927933	-22.8361090705803	6.78676485889731	
2554000000.00007	-18.1710381120636	-77.0612810313771	-9.98025561051517	167.132946660866	-46.2861918466131	156.571378941686	-22.5469274176148	5.96322173641598	
2554333333.33341	-18.2468078025332	-77.8392321454075	-9.97623280510622	164.958187731684	-46.1300780235625	155.125283617663	-22.3075167592628	5.31408346444589	
2554666666.66674	-18.3274038682712	-78.5836880522945	-9.98364418902264	162.7091179181	-46.3213705444671	150.85249283951	-22.1120512047119	4.61389045253234	
2555000000.00007	-18.391467937732	-79.4918106958769	-9.98941954977427	160.455461081879	-46.3169219798279	149.453379602765	-21.8841883461765	3.9033442560424	
2555333333.33341	-18.4631487125254	-80.29110590815	-9.98445592574911	158.221120430729	-46.0687366253017	147.368333097007	-21.6799514854977	3.19447825443362	
2555666666.66674	-18.5352235086457	-80.9925504796321	-9.98656153075017	156.000680725457	-46.3205024585442	145.565542554158	-21.4621344349251	2.46397398522049	
2556000000.00007	-18.5855843980444	-81.8140624554666	-9.9866015149766	153.752412521222	-46.3312446320669	142.542554839907	-21.2525562209192	1.83516567826735	
2556333333.33341	-18.6340174610741	-82.7579270880591	-9.99367848592587	151.477369447156	-46.4186272526849	139.064611744422	-21.0926967696216	1.22534524794446	
2556666666.66674	-18.6886240156202	-83.5293061002818	-9.98207358532403	149.291512948154	-46.2012273253718	139.121283167409	-20.9045075605943	0.616037472949247	
2557000000.00007	-18.7404739576092	-84.2878282195124	-9.98108458375707	147.019297003658	-46.5278667600929	137.185651646046	-20.7627323154162	0.000962084704456155	
2557333333.33341	-18.7730592921893	-85.0508553084372	-9.98309469610897	144.757457871107	-46.0656301968069	134.08781492927	-20.5955567412924	-0.608919979740507	
2557666666.66674	-18.8149251926402	-85.8458087234421	-9.98209066527203	142.537979890112	-46.2794616084182	129.683529035591	-20.4475801314319	-1.26078936635982	
2558000000.00008	-18.847683439129	-86.6789277134124	-9.97747036551105	140.278383081548	-46.271740429148	129.094460097444	-20.3022229973634	-1.71449559796227	
2558333333.33341	-18.8833149680453	-87.3998129970376	-9.98199567849715	138.057884612594	-46.4143777903205	124.62173740937	-20.1690779971682	-2.42240363492674	
2558666666.66674	-18.9080215158191	-88.1700444557437	-9.97078296978594	135.805480104399	-46.4491855488585	123.864382543448	-20.0373900921361	-3.10864022211958	
2559000000.00008	-18.9279829729205	-88.946007731482	-9.97346541905689	133.593459445974	-46.3048634010876	120.591728790318	-19.9136401825487	-3.40361658152073	
2559333333.33341	-18.9399371984999	-89.6311427168952	-9.97066247357608	131.328971667286	-46.1220359767678	119.028425829872	-19.8111923449034	-3.94406217017536	
2559666666.66674	-18.9619614711651	-90.3595482480713	-9.97044697910879	129.044274518909	-45.998653383126	117.979165739962	-19.7000255749418	-4.4748018242395	
2560000000.00008	-18.9616541363546	-91.1272662308074	-9.96034634530874	126.814285152492	-46.0131290656891	115.43954241722	-19.5780817647484	-4.99977924261329	
2560333333.33341	-18.9678543351073	-91.84003815327	-9.95454828652429	124.545451592268	-46.4231474026314	112.792338012134	-19.4971681464333	-5.54446355632026	
2560666666.66674	-18.9615269640467	-92.5416822671206	-9.95078868799481	122.261324691173	-46.1619363945885	110.604108099714	-19.4096052693324	-5.95120008506741	
2561000000.00008	-18.9407863054802	-93.1968730592465	-9.9452593002968	119.988270887614	-46.2486247302029	109.295137293627	-19.3446414867271	-6.3412643604625	
2561333333.33341	-18.9326495116225	-93.8975100307148	-9.94349484416091	117.714465237111	-46.1408243908948	106.052799745165	-19.2693236285722	-6.81902685743972	
2561666666.66674	-18.9238631336656	-94.6218551558543	-9.93878860756232	115.409817854438	-46.4239719922139	105.368932575942	-19.2004770624106	-7.36892086523756	
2562000000.00008	-18.8783033037471	-95.3891837784913	-9.93383192497156	113.179565773885	-46.3286708408804	101.145328773135	-19.1003824860815	-7.63271165993143	
2562333333.33341	-18.8564506515073	-95.9786936959538	-9.93318224621874	110.855434557141	-45.9778116156922	98.1882658407517	-19.0645195637995	-7.93462516671314	
2562666666.66674	-18.8294133880969	-96.7065519390212	-9.92681961659046	108.566512415903	-46.2297372207652	96.7012147803661	-19.0172636800901	-8.28103234015451	
2563000000.00008	-18.7885898101242	-97.3835921891487	-9.91886729360034	106.236474876093	-46.2735860194419	94.6508537137546	-18.947641359557	-8.70292508061216	
2563333333.33341	-18.743846351121	-98.1104403903764	-9.9156173853956	103.931024040139	-46.0245871251179	92.7470865985361	-18.9144458649575	-9.0113837747522	
2563666666.66674	-18.7024019905629	-98.7302978765278	-9.91589730098433	101.699406058283	-46.394132293943	90.7213444489136	-18.8724096537485	-9.31348373444016	
2564000000.00008	-18.6581793427919	-99.3991062361155	-9.90838745671832	99.3334918397132	-46.1925978347876	87.3457793905791	-18.8574102376152	-9.6049256337805	
2564333333.33341	-18.6089076971131	-100.050573882558	-9.90506406990243	96.9904021612813	-46.148400582643	85.2303178298371	-18.8133518979745	-9.8492014522344	
2564666666.66675	-18.5556025514027	-100.664350085463	-9.90021403365141	94.6655199441436	-46.1921672689115	84.9467561670601	-18.8071799613346	-10.0776640091836	
2565000000.00008	-18.5015578125494	-101.306583409603	-9.90358652672877	92.3814860955055	-46.0537210030967	81.2070755145884	-18.7839166279217	-10.3065813464379	
2565333333.33341	-18.4452662965581	-101.964653416712	-9.89173475165943	90.0261844927156	-46.0386623965064	78.1362767945419	-18.7543353439238	-10.3887813962834	
2565666666.66675	-18.4012424382816	-102.491801447357	-9.89129834005649	87.6733250435189	-46.3237546425918	77.0932051960027	-18.7599608035567	-10.9289622131097	
2566000000.00008	-18.3465851397469	-103.277515650453	-9.88602112570496	85.2962464699843	-46.137110615643	74.3610988702589	-18.7683767930105	-11.0561680513962	
2566333333.33341	-18.2838787027318	-103.924530502117	-9.88236370651414	82.9372993377907	-46.1899474650713	71.248428051816	-18.748829631396	-11.3335165785854	
2566666666.66675	-18.2396758652263	-104.556256386532	-9.88483983498738	80.5939312339737	-46.3654803636966	69.0221837661517	-18.7755526446869	-11.3630621150381	
2567000000.00008	-18.1738686069998	-105.225336884892	-9.88452334925744	78.296572797732	-46.077347786469	65.7118336805368	-18.7845942410848	-11.3893099636383	
2567333333.33341	-18.132452893878	-105.887108230251	-9.88462537326267	75.9034192637216	-46.3166717785817	64.1664375233395	-18.8167061431467	-11.6070473748879	
2567666666.66675	-18.0650030030245	-106.522761199853	-9.88065386135928	73.4900212082668	-46.0669082320622	62.0003881835699	-18.8406886736364	-11.7320801509953	
2568000000.00008	-18.0081537429595	-107.354353062603	-9.8797434925509	71.125794931594	-46.2914477152018	59.8539846492253	-18.8632126368436	-11.8921580080886	
2568333333.33341	-17.9401706366098	-107.944382775371	-9.8750800224113	68.7261223197193	-46.0721494254478	59.2613267964382	-18.8704843072143	-11.7881833051094	
2568666666.66675	-17.8685518797522	-108.659087320031	-9.87581411594864	66.3613550100477	-46.1537718193667	55.7792934848522	-18.9181160971115	-12.030700089518	
2569000000.00008	-17.805015514538	-109.406566082162	-9.88864977906847	64.0011012563997	-46.1543845141381	52.8032409904795	-18.942213354509	-12.0376789363349	
2569333333.33341	-17.7602060952213	-110.061393044983	-9.88618669206638	61.6440727200875	-46.2433572045908	50.7718100688301	-18.9897914957111	-12.0992881398802	
2569666666.66675	-17.7025304725859	-110.722409258938	-9.89094108640273	59.2598869860153	-46.3242964459201	45.8827001145492	-19.0443820341695	-12.1088695023145	
2570000000.00008	-17.6392285784442	-111.475121810994	-9.89008547598516	56.8321491702118	-46.2090349291884	44.3957423822084	-19.0749277726225	-12.0802053877131	
2570333333.33341	-17.5987319079297	-112.252127993109	-9.89034473452717	54.454647605459	-46.1497462314147	43.7032052576752	-19.139894597028	-12.0096710783244	
2570666666.66675	-17.549839337522	-112.930220781305	-9.90545597892562	52.0725638030978	-46.2918437171368	41.5738475724401	-19.1925384211382	-11.8055231227472	
2571000000.00008	-17.5177895118855	-113.618656483102	-9.90478940000071	49.6825448287622	-46.2282354158775	41.1933712823102	-19.2444660350015	-11.9041832137277	
2571333333.33342	-17.4866664510935	-114.378806826832	-9.91297221365978	47.3444416709133	-45.9376697466094	37.5161334378698	-19.3062861257904	-11.6313097760001	
2571666666.66675	-17.4405735477906	-115.104661282712	-9.9134380886803	44.9537075278636	-46.2911915363882	34.0372830730535	-19.361274174896	-11.7875113854547	
2572000000.00008	-17.4094355571704	-115.857439324771	-9.9239957346933	42.6012870782299	-46.2941517327827	33.4829969513625	-19.453422317593	-11.6451080889877	
2572333333.33342	-17.392571739772	-116.711841604583	-9.92971278414913	40.2389047608791	-46.2257682423092	29.1268522239095	-19.5166830122795	-11.4024142207685	
2572666666.66675	-17.3609293953133	-117.331143481468	-9.93668516191945	37.8523771218723	-46.1967919422393	29.6885237984178	-19.5942662692846	-11.3007918449736	
2573000000.00008	-17.3505559909357	-118.152857014826	-9.94266234590328	35.5287012867598	-46.261721372546	25.1582589396746	-19.6728515511782	-11.0462559395826	
2573333333.33342	-17.3204912586304	-118.981668172944	-9.94526156592752	33.1768432836598	-46.4411935946128	22.9403947400105	-19.7564772801327	-11.0355884576503	
2573666666.66675	-17.3270917434511	-119.78304111886	-9.95507418044957	30.8501665613695	-46.3361344665798	21.4134307344588	-19.8404665163944	-10.7642253416226	
2574000000.00008	-17.3053213541855	-120.592688361524	-9.96320740856191	28.4715797469909	-46.3380338258467	16.8285146125746	-19.9474820174671	-10.426965099199	
2574333333.33342	-17.2700877523609	-121.303743430929	-9.96594966079129	26.1239153537133	-46.3247658557247	15.254639809421	-20.0336126296472	-10.2312150618189	
2574666666.66675	-17.2625148187508	-122.188337753157	-9.97483568896514	23.8112211521206	-46.3205878743288	12.1809376109464	-20.1163047790372	-9.91834389427202	
2575000000.00008	-17.2653691604899	-122.885600542575	-9.97766575771525	21.4716150744285	-46.12909243545	12.5251511592274	-20.1872736871361	-9.68923468254952	
2575333333.33342	-17.2588578665965	-123.833774683646	-9.98120314210805	19.189247831568	-46.310562437849	8.42719745023293	-20.3193459718941	-9.33996476588394	
2575666666.66675	-17.2627108949035	-124.498367805178	-9.9914715015453	16.8426166383475	-46.0912862724129	7.43532965732285	-20.4351996355527	-8.97002837321128	
2576000000.00008	-17.258003622462	-125.300867858777	-9.99597741801726	14.5681368670493	-46.1538181782017	5.24682076674345	-20.5460449996864	-8.49822305274365	
2576333333.33342	-17.2816805123167	-126.012576427259	-9.99834180259631	12.2273144703313	-46.4297373902186	1.920776574833	-20.6428445466681	-8.28604249826697	
2576666666.66675	-17.2923335307738	-127.10399212204	-10.0046065420059	9.96066556385034	-46.5765792488652	1.01053895005184	-20.7571670079811	-7.79361123722088	
2577000000.00008	-17.3224454602627	-127.870922321954	-10.007124183527	7.68590644494311	-46.2109348392731	-1.21982598603893	-20.8721714958032	-7.56684734737945	
2577333333.33342	-17.364689651915	-128.728413699952	-10.0140161200392	5.3759887076349	-46.498849167905	-5.09518156416026	-20.9620145406604	-7.01557030705314	
2577666666.66675	-17.3848910779355	-129.727483492021	-10.0137716449159	3.07797182482687	-46.462638295754	-7.59682795151719	-21.0762254990382	-6.6779055915705	
2578000000.00008	-17.4291838572186	-130.33510216834	-10.0164239434939	0.817369431551002	-46.3189518591155	-9.7555103199729	-21.2156020660212	-5.98557876068421	
2578333333.33342	-17.4575188450454	-131.382895257707	-10.0193464775235	-1.42831479877977	-46.510174606498	-12.6960829954215	-21.3350540569645	-5.8242054625215	
2578666666.66675	-17.5232224597347	-132.326409121811	-10.0149338921815	-3.70904800080313	-46.2755923805937	-15.1362977827502	-21.4869986982849	-5.17110494883002	
2579000000.00009	-17.56130389077	-133.170997701773	-10.0236841619654	-5.98708071620495	-46.5496414604568	-15.3256349980326	-21.6356905744811	-4.39963957125972	
2579333333.33342	-17.6145192111412	-134.039172051932	-10.0220882236733	-8.23959940057669	-46.3259571260478	-20.0591216410362	-21.7472469095664	-3.93944259247591	
2579666666.66675	-17.6890356073538	-134.915709928061	-10.0257269076887	-10.473199497813	-46.4725977784873	-21.1371594498266	-21.857982029494	-3.19932018619335	
2580000000.00009	-17.7618256163374	-136.011971772939	-10.0232333615002	-12.768495443424	-46.5153615166367	-23.5715846518036	-22.0173726093806	-2.69123570324047	
2580333333.33342	-17.8359546097983	-136.739746034384	-10.0248548901526	-15.0183572279287	-46.2221995606869	-26.2925441764966	-22.1603975371335	-1.84895296833305	
2580666666.66675	-17.9243558697642	-137.771243603456	-10.026866979369	-17.2847955427253	-46.4932531680714	-26.981561665699	-22.2806942931256	-1.45253895772169	
2581000000.00009	-17.9988629241689	-138.629533974309	-10.0227779267266	-19.4646481752707	-46.4267296871408	-31.2209024754848	-22.4116761504349	-0.706260039456273	
2581333333.33342	-18.0905310550489	-139.710784110594	-10.0263484430943	-21.7487762173156	-46.2751050530477	-32.8619209927635	-22.5653234478573	0.154199651064146	
2581666666.66675	-18.1867117921564	-140.704262927623	-10.0152692276908	-24.0114618921753	-46.3870426721621	-36.0765972604216	-22.7049056826417	0.878238062605967	
2582000000.00009	-18.274142877756	-141.650071441914	-10.023066022069	-26.2739145198178	-46.4824533243578	-36.4078991483515	-22.8661179016291	1.79622066326163	
2582333333.33342	-18.3823357483051	-142.4151210804	-10.0203908948673	-28.5356268717062	-46.5107542907873	-39.8184507035403	-23.0005500039158	2.64717764540701	
2582666666.66675	-18.4418722246055	-143.496054157685	-10.0187970586081	-30.7937741384716	-46.720608629475	-43.2063045501675	-23.1495523086243	3.56013811764113	
2583000000.00009	-18.5718800306227	-144.47182683893	-10.0169738052088	-33.0141343642039	-46.5157895426245	-43.799031993531	-23.2803352309572	4.31189559137348	
2583333333.33342	-18.6587228620931	-145.343459894722	-10.0173060278219	-35.3085172059409	-46.3663437116107	-46.1692811855751	-23.3933222852121	5.42701777820903	
2583666666.66675	-18.7872607188751	-146.382145716669	-10.0176044015131	-37.5180257199307	-46.51887981727	-48.0890122761087	-23.5945680346707	6.67040984533981	
2584000000.00009	-18.8759992459031	-147.333235471188	-10.0194310256369	-39.8150444398376	-46.6576043950897	-51.8973558170244	-23.7081293758392	7.41690345299596	
2584333333.33342	-19.030004655523	-148.190649554282	-10.0068900907565	-42.0089074358449	-46.6374553217357	-53.2626370266331	-23.804022115926	8.50532023682441	
2584666666.66675	-19.1437572647581	-149.286598401784	-10.0085161833925	-44.2752359496421	-46.5930900230847	-57.0672918129455	-23.9554086381428	9.62661108000443	
2585000000.00009	-19.2389703699084	-150.36498942272	-10.0098394604116	-46.5191673096254	-46.4792779908344	-56.3474428430544	-24.0270956548146	10.8022135004037	
2585333333.33342	-19.3710903775097	-151.151262480416	-10.0121342009483	-48.7374394815137	-46.3703577560857	-60.8680744050514	-24.1802924951392	12.0133939734271	
2585666666.66676	-19.4838386813639	-152.202758617939	-10.0073372277734	-51.0293865773073	-46.5885391747243	-63.1972274367093	-24.2539092086273	12.9200803330169	
2586000000.00009	-19.6217604677563	-153.319623902933	-10.004819410064	-53.2816338980153	-46.2634930778492	-63.6072670318043	-24.3917170149751	14.2280414124427	
2586333333.33342	-19.7588673952501	-154.197341250102	-10.0012186960767	-55.5410890594364	-46.7684818155582	-64.2448788935475	-24.5114265656206	15.3927220505648	
2586666666.66676	-19.8957625573367	-155.179178287964	-10.000326130401	-57.759793983207	-46.5382750065164	-68.8080210273327	-24.5360082473941	16.5445049748601	
2587000000.00009	-20.0504842404846	-156.230541202223	-9.99919718158249	-60.0422436075423	-46.5884788829759	-70.5054193533279	-24.6227621035207	17.9529811385893	
2587333333.33342	-20.1600645560388	-157.211486034421	-9.99449766122855	-62.3468353408232	-46.5574148904538	-73.3000599258339	-24.6917598720347	19.2218360192923	
2587666666.66676	-20.2781139389519	-158.085412709668	-9.99858798651283	-64.5201520883969	-46.2787804112419	-76.2512899818067	-24.7704227006437	20.2983277078927	
2588000000.00009	-20.4370343613593	-159.267260508465	-9.99858625484879	-66.8274410935688	-46.7558881260647	-77.9962308996244	-24.8097208983492	21.5630047907511	
2588333333.33342	-20.5643449577807	-160.195480842089	-9.99295260656606	-69.0821403440988	-46.4007117462067	-80.0561916341787	-24.8263127818565	22.8572935550155	
2588666666.66676	-20.7056520280426	-161.271809909403	-9.99855431683225	-71.3471446676723	-46.4333099692674	-81.3375292493529	-24.8714726863343	24.2424774249831	
2589000000.00009	-20.8355846478933	-162.180974100269	-9.99313765059869	-73.56884657109	-46.6991582572259	-84.5616829757244	-24.8884502821343	25.2584984005382	
2589333333.33342	-21.0081574696324	-163.422912797692	-9.99223273627282	-75.8876925354978	-46.6356382745975	-87.5629454465341	-24.8986530187952	26.2567473584517	
2589666666.66676	-21.1207737910897	-164.256508290753	-9.99320103302072	-78.1584982195559	-46.4194928537565	-86.8086252038486	-24.919652259313	27.460539314042	
2590000000.00009	-21.223166843289	-165.293962305379	-9.99134770138931	-80.3850576451027	-46.6734271361287	-90.7360489497416	-24.8721322976379	28.6584695152736	
2590333333.33342	-21.353402892536	-166.49547282986	-9.99073794506445	-82.6811885907999	-46.351136816079	-93.7358770749488	-24.8794234351687	29.6001922842759	
2590666666.66676	-21.4933104932401	-167.492884928514	-9.99139532906372	-84.9160815356747	-46.6902546461874	-96.1389499117026	-24.8431707826176	30.4371004227887	
2591000000.00009	-21.608903793957	-168.593230990944	-9.99596137411658	-87.2078985274235	-46.5121989462934	-97.6529048053238	-24.798547197484	31.5929773279562	
2591333333.33342	-21.7159869831023	-169.656596420874	-9.98874963798913	-89.4594565097044	-46.4850170390141	-100.509501195486	-24.7763284504345	32.3459047547099	
2591666666.66676	-21.8340243934112	-170.930636356909	-9.98512159846053	-91.7909844148659	-46.6149451755553	-100.308426761645	-24.7161599012126	33.149190408965	
2592000000.00009	-21.9452537514122	-172.006987659182	-9.98674207665096	-94.0499432785447	-46.3672551002878	-104.582468175022	-24.6714216188385	33.8896575182051	
2592333333.33343	-22.0680151767593	-173.301818475019	-9.98656892893533	-96.3112353954922	-46.2648502355416	-106.27918321866	-24.6336104930526	34.3912546545561	
2592666666.66676	-22.1538647854896	-174.488294608965	-9.98074083013387	-98.6201933725218	-46.2447095471856	-107.773580786732	-24.545290302134	34.9792264416076	
2593000000.00009	-22.2486520881021	-175.65213112241	-9.99171586973028	-100.912695521124	-46.48304686028	-109.179308780227	-24.4855114395534	35.6499165790322	
2593333333.33343	-22.3281866273895	-176.9132309196	-9.97679129078309	-103.230458169212	-46.3750117058255	-112.401853909299	-24.4385497517021	36.0126341920709	
2593666666.66676	-22.3963026792391	-178.363192215074	-9.98319595419814	-105.524310703541	-46.3481444570573	-115.15212841786	-24.3632966314744	36.3749924698844	
2594000000.00009	-22.4689268029228	-179.635762855351	-9.97744394361997	-107.780335552917	-46.3537810152263	-118.076692199176	-24.2469921753748	36.6667887521354	
2594333333.33343	-22.5202196389732	179.059473545155	-9.9743748138479	-110.058447335807	-46.3514625561974	-119.222207928396	-24.1736657507125	36.8387052963263	
2594666666.66676	-22.5682063238421	177.5465639978	-9.97303136497031	-112.376983134154	-46.2823009894479	-121.883618875171	-24.0795815109358	37.1296546703911	
2595000000.00009	-22.6125953148672	176.056285669929	-9.97833552615255	-114.699653057526	-46.3295063181448	-124.993201140549	-23.9910241271347	37.268561932304	
2595333333.33343	-22.6171748576948	174.719998434309	-9.97521416315953	-116.988125158126	-46.392951823422	-126.260513199082	-23.8975089753094	36.9905409021076	
2595666666.66676	-22.6375002189269	173.179881893832	-9.97603008118667	-119.232296185164	-46.3015075951997	-127.506283813702	-23.8178765786112	36.9749452464607	
2596000000.00009	-22.6328084078709	171.752292691804	-9.97204418283791	-121.563847101751	-46.2367886464606	-130.863439335985	-23.6783679844642	36.7582073362256	
2596333333.33343	-22.6294930105247	170.070770683436	-9.97176852886421	-123.889849704272	-46.2784916311342	-133.781112350066	-23.5950757098617	36.5591731311365	
2596666666.66676	-22.6136509530605	168.517376090337	-9.97780005564808	-126.152913532146	-46.3412062810633	-135.874971895991	-23.4851271118672	36.37244097626	
2597000000.00009	-22.5930236430582	166.872380433671	-9.97300925814784	-128.467310474618	-46.366353766572	-137.543351354555	-23.3500290725121	35.8469111013898	
2597333333.33343	-22.5761697401318	165.42780616112	-9.97143837004786	-130.788285866767	-46.3378717597369	-139.850452390856	-23.2615831978739	35.6158575394308	
2597666666.66676	-22.4988210399978	163.661977387286	-9.97830873881415	-133.058454048464	-46.3414056913963	-143.008729439053	-23.1529966258725	35.1265964021025	
2598000000.00009	-22.4388150022139	161.961785979278	-9.97346874649902	-135.393167295239	-46.2510793720444	-145.348587612995	-23.0755474692248	34.6977958989529	
2598333333.33343	-22.3522231023717	160.108848074594	-9.97443048229811	-137.698694570694	-46.3712360176999	-148.80387446874	-22.9680117251432	34.148353942045	
2598666666.66676	-22.2584220258905	158.419370125123	-9.97946185014314	-140.005444793449	-46.1063748723036	-149.243326932427	-22.8456966366878	33.2874535213519	
2599000000.00009	-22.1619292723334	156.739731950714	-9.97822984581531	-142.320099859837	-45.9885800405602	-153.330813572147	-22.7196023657305	32.7600617184026	
2599333333.33343	-22.0623859565763	155.079945090365	-9.98437837842182	-144.615371069556	-46.417446329618	-155.096794679656	-22.6221422155109	31.9685159760557	
2599666666.66676	-21.9362102071798	153.381944849982	-9.98333025994843	-146.947349270509	-46.2229307244922	-157.445311898995	-22.5258504076017	31.0521837409622	
2600000000.0001	-21.8112711901061	151.627564681227	-9.98718144336044	-149.235878550474	-45.9276978019967	-158.834570139269	-22.403282841807	30.3407333685927	
