!Agilent N9923A: A.05.34
!Date: Friday, 25 March 2016 20:57:21
!Model: N9923A
!Serial: MY51491690
!GPS Latitude: 
!GPS Longitude: 
!GPS TimeStamp: 0001-01-01 00:00:00Z
!GPS Seconds Since Last Read: 0
!CHECKSUM:0114564258
!Correction: S11(ON U*)S21(ON U*)S12(ON U*)S22(ON U*)
!S2P File: Measurements:S11,S21,S12,S22:
# Hz S DB R 50
2400000000	-16.3989579015342	-179.735172642723	-9.55345863882039	172.728789054036	-46.4527771570224	158.365065850323	-21.6914734387672	-13.8511546220139	
2400333333.33333	-16.4152704302143	179.095108159273	-9.54761477418583	170.375678933758	-46.652750902058	157.475333562054	-21.8878939664563	-14.0946367915924	
2400666666.66667	-16.4192455384261	178.05904675641	-9.54107855082059	168.032952513123	-46.6152129665494	154.706083056081	-22.1151709556248	-14.1362965602994	
2401000000	-16.4534489532838	177.065861120353	-9.54528695749538	165.731783895778	-46.3571516408517	151.47586324855	-22.3616495725091	-14.2616769749343	
2401333333.33333	-16.4882790681197	175.990961209696	-9.54016416625317	163.406826800464	-46.206045559855	148.92887538579	-22.5954246378735	-14.37533773439	
2401666666.66667	-16.5293393371432	174.751699281481	-9.54091422833428	161.055967565961	-46.5806195485281	146.75470085398	-22.8553544633016	-14.5712105866818	
2402000000	-16.5452016196985	173.722547636215	-9.52884795296934	158.726886303391	-46.3631118137758	144.085437640622	-23.0901857115881	-14.8412884651022	
2402333333.33333	-16.5961047931251	172.537373654541	-9.52785252886759	156.392603553814	-46.3289383212564	143.286503452348	-23.3511723869248	-14.7976761831642	
2402666666.66667	-16.6154145124829	171.377443380508	-9.53233799287905	154.057339275706	-46.3915865065321	141.952698206224	-23.6696918289468	-15.0801916715036	
2403000000	-16.6557687438952	170.061348585238	-9.52386662792561	151.742529485275	-46.4386894147942	139.363226524192	-23.9163563289274	-15.2014659483469	
2403333333.33333	-16.6756319569517	168.831664143998	-9.52715678195555	149.382513486117	-46.3381732912711	133.563916654023	-24.1967293489947	-15.4154743754166	
2403666666.66667	-16.714286301188	167.695409278529	-9.52624787805719	147.079895105375	-46.2680576129502	133.824720568293	-24.5131009608995	-15.4518748789419	
2404000000	-16.7501475226957	166.433288871056	-9.52387865975748	144.731483478383	-46.5002668779569	132.289474258773	-24.8483727390346	-15.9644375884112	
2404333333.33334	-16.7831448627504	165.162295580525	-9.52357383898537	142.438558870682	-46.6383959276431	128.271489392634	-25.1708302207068	-15.8275145108879	
2404666666.66667	-16.8034129423781	163.828548784441	-9.52895649342931	140.098154072225	-46.8223547199452	126.718256291424	-25.500715776465	-15.9694023788917	
2405000000	-16.8194348425177	162.589961750145	-9.52839989371344	137.781011111411	-46.4635329986971	125.240907955715	-25.8599656885327	-16.2153777765171	
2405333333.33334	-16.8701591631428	161.281740647137	-9.52809661238372	135.408035690207	-46.4525153108232	122.539543339882	-26.1728842458146	-16.1742011571261	
2405666666.66667	-16.8661204865461	159.925734935236	-9.52645001112242	133.13862323813	-46.5691367566846	121.191189145799	-26.5594278856835	-16.2963209479057	
2406000000	-16.8950030248239	158.638025741244	-9.52740402795291	130.814503271207	-46.6628211379759	119.456499781821	-26.9376673840449	-16.3853706296781	
2406333333.33334	-16.9092037695634	157.383606273419	-9.53166690172902	128.485760220547	-46.6137833599876	115.455730556713	-27.3264631596212	-16.7669834336436	
2406666666.66667	-16.9397192326215	155.902609032566	-9.5256134498638	126.204641871085	-46.5438175826478	112.512599256119	-27.7305586367494	-16.4790511869484	
2407000000	-16.9473903528862	154.566336578543	-9.5325339748104	123.894463855139	-46.4377916723325	111.313754180313	-28.1755883891877	-16.452996107076	
2407333333.33334	-16.9500616370317	153.348038340182	-9.53690305935485	121.62026744701	-46.7574614057226	110.193528532413	-28.5470634463782	-16.5248441677917	
2407666666.66667	-16.9598809891876	151.839523922382	-9.54214541137451	119.299419647221	-46.5248743427033	106.053795424388	-29.0527462692044	-16.1517563413384	
2408000000	-16.9720799015515	150.685341759606	-9.54473895377811	117.01840965327	-46.7509147757741	105.711758741733	-29.4545706112016	-16.1977993737939	
2408333333.33334	-16.9630147417271	149.285143991762	-9.54940942065727	114.710795251963	-46.2903169952867	100.798867637827	-30.0064219794659	-15.587609610681	
2408666666.66667	-16.9622215895917	148.047606398885	-9.55531973559847	112.426575643954	-46.7809558859793	99.344621026784	-30.4167093241477	-15.2634973346511	
2409000000	-16.9602787937422	146.792366130749	-9.55907042975153	110.152996762678	-46.7241853830309	96.9003215898757	-30.9388527250705	-14.9410241503449	
2409333333.33334	-16.9340422341396	145.447195748025	-9.56631190667551	107.854034656912	-46.191718623249	94.5555212913869	-31.4831218167402	-14.1849132806864	
2409666666.66667	-16.9208207764759	144.184287337237	-9.57144816394954	105.590498088051	-46.5554502816828	90.7021395832578	-32.009479908289	-13.4981548039968	
2410000000	-16.9181691706009	142.895134756317	-9.58087198613926	103.27561393006	-46.6682128867618	91.6577820706714	-32.522467036258	-12.7452118410049	
2410333333.33334	-16.8888815864813	141.750551567442	-9.58557136060744	101.019022034995	-46.4506622605276	88.2223075806079	-33.0819436076275	-11.8931642503141	
2410666666.66667	-16.8780722598792	140.465837333161	-9.59187657479398	98.7652537365516	-46.4641433051579	87.2784440568877	-33.6372541959957	-9.65904207053729	
2411000000.00001	-16.8463894591627	139.160320998073	-9.60223769402147	96.4892060052687	-46.516186651591	83.9967906602469	-34.2163234242	-8.70499918522347	
2411333333.33334	-16.8078426284059	137.971630056739	-9.61554250036802	94.2463557206095	-46.6275459816382	80.8879903003481	-34.8146226580204	-6.8027569413925	
2411666666.66667	-16.763208075131	136.685808012351	-9.61911178344857	91.9482456200952	-46.64817356111	79.1044188976296	-35.3701589866397	-4.29609076721812	
2412000000.00001	-16.7341392803249	135.524989658204	-9.62571502280652	89.7056169223851	-46.7583449253256	77.5040666106976	-35.8642924617445	-1.33106226039639	
2412333333.33334	-16.693727234358	134.130507586224	-9.63629928121385	87.4502586294116	-46.6566727687871	74.9660008970671	-36.4561213113483	1.23398227891772	
2412666666.66667	-16.6434473201899	133.049486286688	-9.64705360832105	85.1900499292008	-46.3451047253439	72.1769763660994	-36.8685304242346	3.53677868391397	
2413000000.00001	-16.5913773467672	131.79359522437	-9.65890354136018	82.913990540029	-46.5843770173226	70.6827553357182	-37.2631571583097	7.30068402195756	
2413333333.33334	-16.544023771733	130.543578761477	-9.66317589960246	80.7005586979297	-46.5749593697911	67.5205262308074	-37.6609926372472	11.5398397905487	
2413666666.66667	-16.4683091427925	129.376121561114	-9.6737363872207	78.4261233858122	-46.5983367893213	65.2051615231456	-37.7002816579234	15.5584376303319	
2414000000.00001	-16.4189700996655	128.192558079434	-9.685889348534	76.204193069357	-46.5061767974726	63.6356792489299	-37.869726755311	19.2326863548517	
2414333333.33334	-16.3377111334819	126.979590388125	-9.69780569709836	73.9097060220381	-46.542199817718	60.0039436953653	-37.9055705630042	23.3263865956275	
2414666666.66667	-16.2740521657694	125.949234331345	-9.7077027340938	71.7347691713589	-46.5163213605208	59.6837967459256	-37.8801092590601	27.7486985740922	
2415000000.00001	-16.2025883618643	124.804191553426	-9.71156619195428	69.4724322784932	-46.4664115071463	55.9865580201533	-37.6215183489468	31.202630774396	
2415333333.33334	-16.1283531055613	123.757205845854	-9.72428691218225	67.2591473855802	-46.5769538629202	52.0948779289758	-37.5471455716834	34.1249238498637	
2415666666.66667	-16.0589929757366	122.713090316687	-9.73809026236904	64.9969871689183	-46.5520818365601	52.1939008890592	-37.1336295470144	37.3399870267264	
2416000000.00001	-15.9885617846918	121.756760671449	-9.74765166493328	62.7525827870508	-46.4718279776536	50.6478286828018	-36.8149912223009	39.021346398844	
2416333333.33334	-15.9021035488015	120.728541326955	-9.75784076968808	60.5833947271603	-46.5713486298261	46.8360204226651	-36.4747348311785	41.2350230678975	
2416666666.66667	-15.8323128636642	119.715038379274	-9.76889378126134	58.3158749173518	-46.4198808958004	45.5571360407331	-36.1456601865186	42.3273180965251	
2417000000.00001	-15.7613824909718	118.803041219735	-9.77668702254764	56.1257430309973	-46.4607864938968	42.3626616687448	-35.6362038112333	43.0311080291404	
2417333333.33334	-15.6808233247652	117.867405714758	-9.79078284473986	53.8762567902394	-46.6079200779869	39.8835112322537	-35.2690079777399	43.5982598758445	
2417666666.66668	-15.6120792749039	117.043895099492	-9.79718676697783	51.6243240686299	-46.5459499730337	38.8393879975931	-34.8542959281249	44.2732861005513	
2418000000.00001	-15.5285294286648	116.129130624054	-9.8070318077648	49.3560802469242	-46.5062853413954	35.8798478768911	-34.3768824726332	43.9400928605717	
2418333333.33334	-15.4452350462613	115.192845249786	-9.8161743241788	47.1527018514223	-46.4708857438205	33.6256553082029	-33.9370370821753	43.8227159249275	
2418666666.66668	-15.3661008504575	114.370386555098	-9.82998289848635	44.9412225523121	-46.6688094926733	29.8198618379456	-33.5606815866666	43.0336832058509	
2419000000.00001	-15.2822637230218	113.500390129661	-9.84223303091842	42.6888014551112	-46.5714987938875	27.1286048777497	-33.1082074925114	42.8107455300731	
2419333333.33334	-15.2096920420581	112.726539466547	-9.84960578177129	40.4514994865615	-46.5577536989565	25.702590996114	-32.7615370123461	41.3666588779387	
2419666666.66668	-15.120321481294	111.863785509668	-9.85983125011487	38.2357416814601	-46.8857696771346	23.8285628272307	-32.2605801434366	40.4533983981836	
2420000000.00001	-15.0428788510339	111.13393916661	-9.86667143362788	35.9666120388856	-46.5967900017514	21.3562228711126	-31.8218956762234	39.1802658628599	
2420333333.33334	-14.9606697794255	110.307367005236	-9.87317513903999	33.7473479412399	-46.4725077847753	20.4286026021286	-31.4833458842106	38.1614980886941	
2420666666.66668	-14.8852511849141	109.579452514698	-9.88161071451344	31.4656902543154	-46.776360636009	17.3057778281617	-31.0248119337844	37.0021197699331	
2421000000.00001	-14.8120026062867	108.852979236201	-9.89537216795264	29.2089133892004	-46.4780756518925	14.541680641404	-30.6797342542741	35.7672518216945	
2421333333.33334	-14.7320911225687	108.192951563161	-9.90223641449048	27.0033733518793	-46.3093640740445	11.3555802524564	-30.24824369011	34.5698955279238	
2421666666.66668	-14.6662081966041	107.507873164872	-9.91269697837771	24.7966067622138	-46.4961595255026	10.0162746510393	-29.8405991248355	32.9063453258467	
2422000000.00001	-14.5923993826762	106.798608675113	-9.91703403111454	22.4916288739766	-46.5004556788469	6.64821702930307	-29.4647149941094	31.5385503460506	
2422333333.33334	-14.5147619951971	106.089410984968	-9.92667363513898	20.2581618767949	-46.8294566586859	6.05313906924942	-29.0615833610012	30.3558380534705	
2422666666.66668	-14.4514360877108	105.495367432474	-9.93041361864081	18.0349513738006	-46.9032405603959	5.23204051887029	-28.7165972934689	28.7185536638023	
2423000000.00001	-14.3905145023993	104.892306471922	-9.93914703460867	15.7664737376589	-46.4921607961039	0.913658721036154	-28.3179535756215	27.1704351425524	
2423333333.33334	-14.3294030932902	104.284505993044	-9.94491119423579	13.4779029654046	-46.8271977074212	-0.485066882778512	-27.9328282323374	25.984088577045	
2423666666.66668	-14.2628623462377	103.695618170255	-9.9532044287367	11.2161541761029	-46.7232583122011	-3.15183385130119	-27.578654244347	24.5247561224069	
2424000000.00001	-14.2065119108679	103.148499556041	-9.96073511965672	8.96968586038092	-46.9289388763876	-4.65857907586168	-27.2278626799043	23.3334649951262	
2424333333.33334	-14.1488278451429	102.603953245807	-9.96210660933118	6.69406266639021	-46.8340668010094	-6.18347208272392	-26.8512655863633	21.5469626105011	
2424666666.66668	-14.0986567808849	102.046143987666	-9.97265934459794	4.41075021706528	-46.92436221337	-9.88234410299564	-26.4852974452655	20.1236444500162	
2425000000.00001	-14.0276895636989	101.581652377844	-9.97775563055163	2.17453900471375	-46.8601853844163	-12.742516703108	-26.1541184393538	19.0227961561309	
2425333333.33335	-13.9883296691521	101.070362048038	-9.9851411546854	-0.111785994125421	-46.6387944300657	-16.0001697660621	-25.7940526854074	17.7139492030775	
2425666666.66668	-13.9358704418312	100.626395369366	-9.98973889743667	-2.38850411749778	-46.7954276250965	-16.9169371563927	-25.4755097558939	16.3110850491022	
2426000000.00001	-13.8873768994924	100.150882554779	-9.9914102804555	-4.65392012625753	-46.7586934144568	-18.7584270530165	-25.1515678455176	14.9820854468209	
2426333333.33335	-13.836970647732	99.7027603040647	-9.99540605084047	-6.93911526749802	-46.9701239474353	-22.2285657969246	-24.813741120927	13.7026354849127	
2426666666.66668	-13.791683870955	99.2915158797833	-10.0006375639902	-9.21983185815757	-46.7536500583082	-22.0404226712528	-24.5169020822906	12.6334909262092	
2427000000.00001	-13.7507159664012	98.8315455156422	-10.0073853967234	-11.4664356072859	-46.7406306533809	-26.3994796485611	-24.2131094326229	11.5433351998783	
2427333333.33335	-13.7111311488779	98.5096094082648	-10.0099727439335	-13.7850521105775	-46.7552383808194	-27.2902686574616	-23.9136510731422	10.3936254873533	
2427666666.66668	-13.6719043327167	98.0820086078127	-10.0201275578985	-16.0659198103874	-46.7706883024697	-29.9959161131157	-23.6237262304062	9.28121905036955	
2428000000.00001	-13.6289061497041	97.672600425768	-10.0247660637492	-18.3750645852526	-46.448934488998	-30.2902858078159	-23.3464149404333	8.1454468382556	
2428333333.33335	-13.5908120486892	97.3144945209403	-10.0286165275584	-20.6309325346744	-46.6460422813441	-33.868020988864	-23.0915509603388	7.10910535469056	
2428666666.66668	-13.5468109336016	96.9009648810766	-10.031005578863	-22.9652479403007	-46.7353080970567	-38.4056326601102	-22.8074633291274	6.02356767276128	
2429000000.00001	-13.5179257991224	96.5817047137689	-10.0354439538329	-25.2121694212724	-46.7963090313135	-40.5996367380748	-22.5616617907549	4.8986840111708	
2429333333.33335	-13.4870684497969	96.2231248919095	-10.0420030269404	-27.5095948473112	-46.5561134500944	-41.5656498920878	-22.3040998730664	3.9043097587307	
2429666666.66668	-13.451238316014	95.84761200498	-10.0530990867034	-29.7886504666717	-46.5164770495039	-42.3316606279138	-22.0640725163275	2.83910109675345	
2430000000.00001	-13.4206907083357	95.5099948632991	-10.0592105134897	-32.0653496041414	-46.6198991019192	-44.8538416481258	-21.8250980473154	1.88256462159847	
2430333333.33335	-13.3927287206758	95.1615038181131	-10.0608039952506	-34.3423032154205	-46.8605534269166	-48.0259534552004	-21.6031348899269	0.855409673263243	
2430666666.66668	-13.3606837006093	94.8393014045876	-10.0691025481022	-36.5746564107045	-46.8842640930383	-51.3705725704947	-21.393816850418	-0.000579366251174057	
2431000000.00001	-13.3314612381957	94.5060914772403	-10.0724549308131	-38.8543765561628	-47.0960392985566	-53.47312604438	-21.1850939704495	-1.04252004196291	
2431333333.33335	-13.3110461011953	94.2508129337899	-10.0832163179362	-41.0714976544248	-46.881930930988	-53.8227580273425	-20.9895734648789	-1.81023861745106	
2431666666.66668	-13.2787521648369	93.991001944497	-10.0834193404177	-43.33647659432	-46.7358175830146	-55.2545467085049	-20.7720932857987	-2.62891210078794	
2432000000.00002	-13.2527444735541	93.7071543037772	-10.0870787323278	-45.6062085859276	-46.8174356669717	-57.4729212421764	-20.5657012332017	-3.40505862696441	
2432333333.33335	-13.2462946998746	93.4936526874044	-10.0960241665891	-47.8370283335594	-47.1284663200183	-61.6665397440895	-20.3936965431209	-4.30850145267715	
2432666666.66668	-13.2226922947954	93.1554856957862	-10.100702579605	-50.1099452373776	-46.9329833807259	-61.8559153651647	-20.2210545376793	-5.10802685204187	
2433000000.00002	-13.2008603425237	92.9268121152422	-10.1054129091601	-52.3683465838976	-46.9658613409496	-66.4595873806067	-20.0366834062194	-5.85159213914919	
2433333333.33335	-13.1765168380961	92.6033099702864	-10.1079666960989	-54.5692782808923	-46.8512328914497	-66.5003194646426	-19.8846440182246	-6.62180452178036	
2433666666.66668	-13.1742729526784	92.3542867257966	-10.1161550060225	-56.8205400803903	-47.007639420965	-71.6274156867415	-19.7394938706575	-7.33477704560369	
2434000000.00002	-13.1592346821964	92.1308426833707	-10.1126963302827	-59.052070905891	-46.6571901650048	-72.2954632783836	-19.5749273496832	-8.14108716782377	
2434333333.33335	-13.1493196464843	91.8230598942553	-10.124800013094	-61.2841009151842	-46.7269777311524	-75.7870364702037	-19.4420106079616	-8.80496181028838	
2434666666.66668	-13.1365847092003	91.5060816585714	-10.1257058603242	-63.4972767239101	-47.1637664882041	-76.0610453074916	-19.3109107223531	-9.52087141269617	
2435000000.00002	-13.1141055751735	91.1572807350841	-10.1267730149173	-65.7653280729667	-46.9825331825568	-79.4166219513443	-19.1898896644945	-10.1820568458728	
2435333333.33335	-13.1054836937207	90.9010992639114	-10.1272135958553	-67.9642816579503	-46.8442681199837	-82.3831912384091	-19.0806058772872	-10.8657087674976	
2435666666.66668	-13.095388714943	90.6003922754025	-10.1320019173799	-70.2112691518146	-47.0965792709627	-84.1777039347206	-18.9793610598702	-11.5966470540991	
2436000000.00002	-13.0876919409626	90.2068264388134	-10.1315852255596	-72.3994662982441	-47.1743558974607	-87.3928422390311	-18.8570081740437	-12.1457382288683	
2436333333.33335	-13.0795719390848	89.9318699495261	-10.1346302028968	-74.6368557845442	-47.2107665929927	-87.2395283540829	-18.762829364861	-12.7410728132495	
2436666666.66668	-13.0785327777995	89.6469216195321	-10.1306928327375	-76.8699031611301	-46.9286144652973	-88.2678240583428	-18.6923597429666	-13.4176875034459	
2437000000.00002	-13.0577189612163	89.2291634558718	-10.1332320894434	-79.0673414665764	-46.8922083228612	-92.3678477446982	-18.6014558727573	-13.9866284916379	
2437333333.33335	-13.054508347608	88.9047699532812	-10.1340552402729	-81.3072229616727	-47.0082013717683	-94.7103943813636	-18.5422788348078	-14.4910526681014	
2437666666.66668	-13.06259198911	88.4772988424493	-10.1333142295978	-83.5120350975021	-47.0192475728597	-98.5312166662445	-18.4697297602541	-15.1985559577482	
2438000000.00002	-13.0476945112834	88.1425411510074	-10.1352775154315	-85.7258168220855	-46.9789156194946	-98.3616135003045	-18.4032766951702	-15.669369339623	
2438333333.33335	-13.0510814135618	87.7748659349219	-10.1317764914084	-87.9172957752745	-46.8647166057458	-101.091177127412	-18.3444886570149	-16.148738660412	
2438666666.66669	-13.0480594827071	87.4464785109133	-10.1304246471046	-90.1501214115548	-47.0109868205898	-103.678019747296	-18.3094172408553	-16.7114946350053	
2439000000.00002	-13.0426755273234	87.0412696864588	-10.1259432224827	-92.3497780727237	-46.8463061582666	-103.656054493631	-18.2743750849337	-17.2082128072907	
2439333333.33335	-13.0383280528199	86.6191219935104	-10.1252073808749	-94.5485573112205	-47.0877927935025	-109.72156273605	-18.2464633003179	-17.7954226759818	
2439666666.66669	-13.0412337893525	86.3053984544004	-10.1198616331282	-96.786188613702	-47.185136440413	-110.011091966056	-18.2180199445299	-18.1974524501683	
2440000000.00002	-13.0537200877022	85.8238012323351	-10.1185836070334	-98.9807619810205	-47.1456834654398	-110.740577465971	-18.2022886343656	-18.8027378291202	
2440333333.33335	-13.0436923095668	85.499384409322	-10.1143400423457	-101.188926294555	-46.9407609984018	-115.283095122282	-18.2099719155399	-19.1569057228857	
2440666666.66669	-13.0663800937997	85.0886222294484	-10.1135180833978	-103.389434279602	-47.199336104851	-117.275307655096	-18.1814888704774	-19.7654317393554	
2441000000.00002	-13.0582358887354	84.6972237806943	-10.1080747475928	-105.589858336671	-47.20027129959	-118.939480832665	-18.2012872533677	-20.0317615352513	
2441333333.33335	-13.0628127055281	84.2464899101338	-10.1021028480982	-107.817050013323	-46.8502639632792	-121.73156824804	-18.2209049218203	-20.3704392362469	
2441666666.66669	-13.0859257735975	83.9125483563092	-10.1007660537999	-110.054540143726	-46.9207825897034	-123.216211579214	-18.2171910605999	-20.8161716117291	
2442000000.00002	-13.0870889576515	83.5000683936324	-10.0899114518918	-112.239070280352	-46.8360770496554	-125.93164833627	-18.2407885298229	-21.2629477717727	
2442333333.33335	-13.0939959895009	83.2093368549507	-10.0903672219669	-114.478984657773	-46.9777020554168	-129.039165275017	-18.2736319679965	-21.5114408962253	
2442666666.66669	-13.1278946213816	82.6931391036878	-10.0780674104104	-116.64947977731	-47.0724229493659	-129.159105029481	-18.318866657812	-21.8848839393776	
2443000000.00002	-13.1399197295031	82.3517343386989	-10.0706943466479	-118.924118319281	-47.2484071706997	-133.46335132258	-18.3640959268472	-22.1215468170274	
2443333333.33335	-13.1533860704732	81.8700995587104	-10.0656706344321	-121.094665554772	-46.8129868877777	-134.95265783543	-18.4221006924315	-22.4442789758168	
2443666666.66669	-13.1885657432882	81.4356828922152	-10.0587657909473	-123.335754315339	-46.9068757882467	-136.524690295319	-18.4735216048092	-22.5971024138231	
2444000000.00002	-13.2060680687668	81.1027030827453	-10.0462444189785	-125.593164329017	-46.8449427885217	-137.510346554269	-18.5317554307579	-22.9930895510767	
2444333333.33335	-13.2275082198759	80.7800890232059	-10.0346657718209	-127.772944220189	-47.0856989505504	-138.564264532085	-18.6128672673964	-23.0329916947359	
2444666666.66669	-13.2634298169456	80.2507213207237	-10.0363245713121	-130.049199886173	-47.4517371390886	-141.50399283093	-18.703363260275	-23.2086134722362	
2445000000.00002	-13.2855743966251	79.7881668471142	-10.0244318333493	-132.279830411831	-47.1276118633342	-146.755770975583	-18.7720832085409	-23.4097215598092	
2445333333.33335	-13.3102620581165	79.3613592089715	-10.0173028560706	-134.56383938833	-47.2447671430582	-145.134316396193	-18.8591401996695	-23.5181933407919	
2445666666.66669	-13.3440861240414	78.8924463423034	-10.009046487286	-136.775706839526	-46.8577581632615	-151.111403843649	-18.9637777008198	-23.5864675576184	
2446000000.00002	-13.3725161119525	78.4838485726093	-10.0052423520421	-138.990834282418	-46.5859138016202	-153.709735243269	-19.0597660847688	-23.8401695532377	
2446333333.33336	-13.389678197055	78.058059272907	-9.99252673074459	-141.255490270553	-46.9871805595858	-154.875106952731	-19.1787625910156	-23.8065121184597	
2446666666.66669	-13.4332697308206	77.5424320755842	-9.9900303660625	-143.482135092563	-47.1123193234603	-156.556412134023	-19.3087639321553	-23.7919021411373	
2447000000.00002	-13.4694212172771	77.1168902498378	-9.97360030173573	-145.742339194907	-46.8450935337904	-159.808181804347	-19.4437993628634	-23.7927129710085	
2447333333.33336	-13.4862889181204	76.6838345664905	-9.96880184270003	-148.033268532285	-46.9395406930988	-160.98022546252	-19.5625557768966	-23.6577629201835	
2447666666.66669	-13.5005600888919	76.1672264064648	-9.96204051874825	-150.27260991148	-46.8811858012446	-163.951728858864	-19.7182905115503	-23.5098700410898	
2448000000.00002	-13.5431043992204	75.7239011462849	-9.9583322735209	-152.51181485544	-46.9086475731237	-163.825814507092	-19.8575061363309	-23.2559350626717	
2448333333.33336	-13.5721367158903	75.2390818303305	-9.95109612422917	-154.798212039771	-46.9922166378414	-166.551032141172	-20.0133864588521	-23.1617591240793	
2448666666.66669	-13.6162113229427	74.7384107312016	-9.94224548911588	-157.049678507327	-46.9392153134373	-170.897690476428	-20.1525977378138	-22.8094894708786	
2449000000.00002	-13.6468979389277	74.3288199402908	-9.93142673914643	-159.312892311602	-46.8968064833902	-171.287503625336	-20.3415884073021	-22.4883785090028	
2449333333.33336	-13.6799049064858	73.8566618635534	-9.92448962725244	-161.561131253418	-47.0099572406638	-174.174746539824	-20.4800827845034	-22.2177863809471	
2449666666.66669	-13.7155909674922	73.3974540426647	-9.92392672675124	-163.837692360426	-46.7302498133948	-174.850956292068	-20.6520025577786	-21.7813109879379	
2450000000.00002	-13.7497418241711	72.7934305513327	-9.9183620183244	-166.088928085525	-46.6697555471854	-178.732890409888	-20.8444099363771	-21.2322049975157	
2450333333.33336	-13.792581692175	72.3616799968774	-9.90940872373872	-168.347657111005	-46.7861770789292	179.930092184404	-21.0439968233811	-20.7887583817545	
2450666666.66669	-13.8106511236202	71.8314739330424	-9.90265979350486	-170.639521583678	-46.7771152585588	177.65606666468	-21.2489525162547	-20.1466916370572	
2451000000.00002	-13.8410543330778	71.2876009612257	-9.89549702978628	-172.900011567725	-46.7191889300501	177.243048621795	-21.4181931810142	-19.4704164379383	
2451333333.33336	-13.8714302921155	70.8546411976682	-9.8893701746456	-175.132608956144	-46.5712479870621	171.216943268278	-21.6280647412851	-18.6561646074047	
2451666666.66669	-13.8877285828717	70.3665483668783	-9.88553682465792	-177.408542538689	-46.61260014189	168.324109102053	-21.8023454029406	-17.811261639894	
2452000000.00002	-13.9205278037138	69.8769394050357	-9.87729122286557	-179.676856966139	-46.6283731056235	168.828774244807	-22.014362603581	-17.0283291128168	
2452333333.33336	-13.9407135251684	69.2312613908364	-9.87208367197663	178.056623312037	-46.5063039865606	166.7592015669	-22.2238413913948	-15.9129369728445	
2452666666.66669	-13.9536528772091	68.8617862156391	-9.87108049220788	175.785042964197	-46.776302120166	164.521236371677	-22.4177834403562	-14.8377091518636	
2453000000.00003	-13.9836249279913	68.3807261341661	-9.86818103763151	173.490417677095	-46.7768519501352	161.596993559831	-22.6305558119055	-13.8576921949008	
2453333333.33336	-14.0034991806758	67.8370036652867	-9.86469400800986	171.303565566019	-46.8753481150923	160.365471155333	-22.7996783329702	-12.3601882866361	
2453666666.66669	-13.996633493318	67.3499835906677	-9.85801855277134	169.004714094555	-47.0025263440663	157.779595093471	-22.9876099798849	-11.3069461915263	
2454000000.00003	-14.0229936061079	66.8484599190354	-9.8590159708841	166.720406585507	-46.608684636606	154.177590924594	-23.2009505235713	-9.88345814965586	
2454333333.33336	-14.0262218589527	66.305919612095	-9.84919207535613	164.450553495391	-46.7939238050971	152.864929328515	-23.399759794062	-8.30716339597601	
2454666666.66669	-14.0291318793626	65.7674676480531	-9.85187230025126	162.173928201829	-46.8618526842521	149.551441397869	-23.5363014408046	-6.80191334872914	
2455000000.00003	-14.0417020383389	65.28403248197	-9.85088552241986	159.936571659497	-46.4624772755366	148.256543380714	-23.7101022793568	-5.20091957006196	
2455333333.33336	-14.0430474042289	64.6923885033106	-9.84641362718358	157.646672000304	-46.6115624851262	144.460384713366	-23.8663420094664	-3.74773282520552	
2455666666.66669	-14.0427791705452	64.2708816972546	-9.84820251921935	155.414390673485	-46.6508790685754	144.330547998456	-24.0602404611385	-1.82602927517285	
2456000000.00003	-14.0422590382252	63.6781926382993	-9.84951619113093	153.148507353014	-46.5747201426289	142.742628544978	-24.167768345241	0.0201233552683358	
2456333333.33336	-14.0301245514515	63.1054539162746	-9.84356915422055	150.915021638793	-46.5748082768494	138.615422715592	-24.2729221924898	1.8606828541983	
2456666666.66669	-14.0250732282633	62.5858053853874	-9.84242733848733	148.589978287983	-46.5944797106534	136.034222263566	-24.3976587646108	3.63449904037757	
2457000000.00003	-14.0097425095738	62.0649646254156	-9.84367563195098	146.353105336897	-46.7711400500797	133.757889732949	-24.4749126444857	5.75657874129873	
2457333333.33336	-13.9879482413042	61.5317313035737	-9.8429021183184	144.111192855666	-46.6420588452081	132.056103087606	-24.5495983136818	7.30206411899732	
2457666666.66669	-13.9809493132205	61.0182466925256	-9.84149907548039	141.875280724801	-46.7570481929245	130.216992355543	-24.645600053238	9.34119438598873	
2458000000.00003	-13.953797216527	60.44595308943	-9.83997539008051	139.602962694617	-46.5872600250761	127.45797035163	-24.6185844195559	11.4306608730523	
2458333333.33336	-13.9304128271161	59.8870751043378	-9.85120258378364	137.364773304241	-46.4769436475685	125.076694807323	-24.6570166640393	13.1700776615497	
2458666666.66669	-13.897084374354	59.3285282328765	-9.84675146465086	135.18328663571	-46.572512455345	124.313375329037	-24.7067523242005	15.0751063507661	
2459000000.00003	-13.8665828400741	58.779331033891	-9.84195777421609	132.848021765742	-46.5483878161995	119.521835878284	-24.6934174490891	16.6638019246997	
2459333333.33336	-13.8424461745172	58.2387526171339	-9.84531848829329	130.648223456534	-46.6845111721261	120.097368731693	-24.6714322906734	18.3190958802139	
2459666666.6667	-13.8082538466966	57.6584732543214	-9.84642411049904	128.331001687048	-46.8330673010921	115.745293978094	-24.6503844650836	20.1693932965202	
2460000000.00003	-13.774469337986	57.0812536922473	-9.84583347185326	126.069285986096	-46.669906012953	112.240693773129	-24.5908031164779	21.8548798790268	
2460333333.33336	-13.7360405218996	56.5689282399874	-9.85155004546997	123.830997881336	-46.4891172728255	111.215874839326	-24.5667036589017	23.1831103207459	
2460666666.6667	-13.7034017193395	55.9830940051583	-9.8525719778622	121.636405600692	-46.5815925063673	109.394739762104	-24.509677897339	24.7830083917412	
2461000000.00003	-13.6631627686448	55.4284366622283	-9.8546286244725	119.373163459809	-46.5696851553481	107.508433453523	-24.4069538025151	25.9378909790139	
2461333333.33336	-13.6146594507618	54.8297360284489	-9.85269629116696	117.085366145927	-46.5550643914593	105.918253987984	-24.4197119675123	27.2341922265223	
2461666666.6667	-13.575557465553	54.2871764406593	-9.86200349155146	114.848793091883	-46.4948439102539	102.751229512346	-24.297879999557	28.4799144891185	
2462000000.00003	-13.5328913754992	53.6574503661028	-9.85767564378197	112.582088126574	-46.5197790022638	100.54141882703	-24.2584127180849	29.4959456923406	
2462333333.33336	-13.4815780207458	53.1061363463251	-9.8610415632438	110.278464777763	-46.416845862202	96.3420352458007	-24.1651058238594	30.2717389583352	
2462666666.6667	-13.4366121129126	52.4886436661761	-9.86383543288911	108.016045322397	-46.3490197825806	95.4611565035866	-24.1250965134217	31.2748853841792	
2463000000.00003	-13.3874708428841	51.9403650604643	-9.86796134341435	105.737942896497	-46.7808467139074	92.1735676718917	-24.0586674991796	32.107933175061	
2463333333.33336	-13.339258738479	51.3723402465262	-9.87133761157979	103.470872164559	-46.5277605679445	91.9627949674635	-23.9998476511201	32.861802309408	
2463666666.6667	-13.2842450374235	50.8097286482515	-9.87301534946575	101.217734855634	-46.6073215209041	88.6412107722667	-23.9117843445218	33.5323485904872	
2464000000.00003	-13.2404799184756	50.2925828100171	-9.878137139623	98.94440442469	-46.6743721746786	86.154691539631	-23.8817011549461	33.9728984845507	
2464333333.33336	-13.1786529984079	49.7042598335935	-9.88059765421011	96.6884933752533	-46.2079508430145	82.7673154285377	-23.7860337482643	34.4394449874311	
2464666666.6667	-13.1384400096781	49.1732698312785	-9.88497819504278	94.3871679875676	-46.5237272867364	80.2278501984263	-23.7288820607836	34.746856308738	
2465000000.00003	-13.0785412802475	48.6185934879316	-9.88777649494475	92.0951951512103	-46.3861269378796	79.0935221831614	-23.6877737885606	35.0956228670515	
2465333333.33336	-13.0304626007061	48.0540119026393	-9.89529297960999	89.7962516425306	-46.6369000451996	77.2806001343051	-23.6438604690566	35.2596179056889	
2465666666.6667	-12.9765414842663	47.5330215220032	-9.89643854306914	87.5620434117877	-46.5846598008216	75.2450457616979	-23.5743277760351	35.7833142140004	
2466000000.00003	-12.9236273339853	47.0377538288242	-9.90702683976835	85.3124876615993	-46.7575356963997	71.5594360763086	-23.5337664089547	35.7078402703209	
2466333333.33336	-12.8777156047719	46.5247276037777	-9.91045076056345	83.0419167721071	-46.5861016713509	69.5079774235537	-23.5085727198857	35.6467430352234	
2466666666.6667	-12.8185470146787	45.9952735867005	-9.90984950895631	80.7355215601951	-46.8001006045507	68.591006908029	-23.4582691394056	35.6437902519806	
2467000000.00003	-12.7745512491217	45.5240329600366	-9.91800575575247	78.4691203225569	-46.6321132796383	64.7322849376291	-23.4138498940401	35.5754875752811	
2467333333.33337	-12.719799720138	44.9555501337235	-9.92331360594697	76.2122074186911	-46.2971966793685	63.3795569322818	-23.3887255881039	35.3918654951902	
2467666666.6667	-12.668472555193	44.5415786707497	-9.92889471485477	73.9315570253577	-46.1818185536148	60.7926227006813	-23.3430940895825	35.197584773718	
2468000000.00003	-12.6166806612942	44.0726310892837	-9.92801223724652	71.6657118847165	-46.5195942768631	60.0687794808567	-23.3538984828502	34.997560195764	
2468333333.33337	-12.5696156989897	43.6085467425728	-9.94469333451606	69.3707241999767	-46.6682018029448	56.4970440468491	-23.3153962890002	34.5788755261322	
2468666666.6667	-12.5150126850947	43.1873824434939	-9.93849646806641	67.1103407744242	-46.565092597326	55.194827516315	-23.3123019632449	34.2673948800969	
2469000000.00003	-12.4704326399452	42.7422185515191	-9.94551349169931	64.8015933553101	-46.6691046006141	51.5149525513894	-23.2875608398826	33.9043828949599	
2469333333.33337	-12.4200576660854	42.2894035320749	-9.94399325621346	62.5465520655374	-46.4668292405568	48.350197026161	-23.291129742675	33.4200108532453	
2469666666.6667	-12.367425290756	41.9020420320193	-9.94771748362761	60.3080912459398	-46.3174208177828	46.1711230899801	-23.2861782154453	32.8152757053878	
2470000000.00003	-12.3226148249531	41.433090140175	-9.95892069961014	57.9785057508393	-46.5306683008185	43.7660533066623	-23.2832990918057	32.201094562796	
2470333333.33337	-12.2713254188785	41.0476963796668	-9.95401589269071	55.6746578829108	-46.7118602146862	42.8804836637284	-23.2683112492376	31.6885198293619	
2470666666.6667	-12.2324458909774	40.6535971004746	-9.96371974186841	53.3952934623888	-46.3308917755669	40.0481145290743	-23.2807403530889	31.0207932704247	
2471000000.00003	-12.1834757284714	40.290782142086	-9.96476298603569	51.0912078932337	-46.6282835201064	37.875945047056	-23.2942376746428	30.0308749095327	
2471333333.33337	-12.1359066929218	39.9298906715928	-9.97399605718338	48.7849679858756	-46.6952692834113	36.1038194200395	-23.3210966900772	29.3317288637632	
2471666666.6667	-12.0914520738949	39.5205986920466	-9.97634920294999	46.5305778065865	-46.4540008297977	32.5270736235106	-23.324750560304	28.4563224627318	
2472000000.00003	-12.0440333212947	39.2057042919964	-9.97944194239806	44.1840328052882	-46.7831750142747	29.7595298404462	-23.3357198027126	27.6823745912325	
2472333333.33337	-11.9937007741985	38.9146877806182	-9.9836700857459	41.9136620717756	-46.5945961331981	27.9894017715448	-23.3722255717549	26.6755057653425	
2472666666.6667	-11.9406126236168	38.5564164228481	-9.99058962368423	39.625173851046	-46.4630324022135	26.6896188279344	-23.3628879796254	25.6788834343194	
2473000000.00003	-11.8965744372946	38.2752516013946	-9.99064970112543	37.2802099557851	-46.3346658050436	24.1339649462443	-23.4238014700818	24.6293954629406	
2473333333.33337	-11.8394911421535	37.9834874093232	-9.99901977280247	34.9690857424545	-46.7188934275967	22.1762019060394	-23.4693232658628	23.5198554434913	
2473666666.6667	-11.795795239615	37.6680778261425	-9.99599242816845	32.6810983321965	-46.569042206797	20.2134462238701	-23.4572423004634	22.5609217410329	
2474000000.00004	-11.7564009127935	37.4311728048828	-9.99737155089436	30.366014582201	-46.6322891966909	17.6611157100632	-23.5049439724723	21.2613483280364	
2474333333.33337	-11.7124904407008	37.1080461564521	-10.0065778089396	28.0114242638669	-46.4534746687597	14.0894105813392	-23.5538144641276	20.0018628795521	
2474666666.6667	-11.6626197832281	36.873822787919	-10.012507828311	25.670915673276	-46.5776649185653	12.7130227563081	-23.5417669640133	18.6226397529166	
2475000000.00004	-11.6156545988884	36.5316750647415	-10.0051997198254	23.3977378552596	-46.8887401725969	10.2396044028174	-23.5779642300029	17.3544914911652	
2475333333.33337	-11.5784980007766	36.3218883761105	-10.0131321000081	21.06053541417	-46.8439928934087	9.08855411721597	-23.6049315231033	16.0911300204956	
2475666666.6667	-11.533931826354	36.0271043679241	-10.0174607408456	18.7064302026533	-46.5324611899063	3.54044232509949	-23.6073608074872	14.6265834090762	
2476000000.00004	-11.4899385214731	35.7495847695231	-10.0158244381043	16.4017001641189	-46.6663204530381	2.75445652522343	-23.6396791104838	13.4151664747762	
2476333333.33337	-11.4453376204339	35.4626854837241	-10.0216831610182	14.0673681678068	-46.4173878929862	0.595480333712403	-23.66020493087	11.7161094436667	
2476666666.6667	-11.4064323531183	35.1894142132825	-10.0252863015839	11.7242011272213	-46.4254809406053	-1.06782314583963	-23.6583930960186	10.2600670992483	
2477000000.00004	-11.3608963583152	34.9521023341157	-10.0302282401082	9.41137139304665	-46.3597947367945	-3.51772762900375	-23.6649628322181	8.80049333459531	
2477333333.33337	-11.3248251102833	34.7061242970188	-10.0334247557185	7.07452133738968	-46.7699093614437	-4.58802071156501	-23.6557080225777	7.20857224669267	
2477666666.6667	-11.289487186999	34.3448632462439	-10.0358681708593	4.72399726258582	-46.568569866494	-8.19848499899925	-23.6566083322486	5.6293017252982	
2478000000.00004	-11.247890936706	34.1009254961839	-10.0392340076161	2.41223052151756	-46.5295943508925	-10.4403502697603	-23.6373727270662	4.13654758242107	
2478333333.33337	-11.2101947576043	33.7629869479133	-10.0411658401893	0.107827152067659	-46.6873644253979	-13.0358869759158	-23.6238882496246	2.42976748757628	
2478666666.6667	-11.1694563115917	33.4935138118564	-10.0421461542648	-2.19733271367201	-46.662232112037	-15.6649202963393	-23.5828549617191	1.10352003475068	
2479000000.00004	-11.1362654231233	33.2141241096986	-10.0429495424279	-4.57440144124031	-46.3056270661933	-18.1399050856615	-23.5619231578146	-0.648853587267756	
2479333333.33337	-11.0961293351906	32.9547186184355	-10.0497466182062	-6.89985435743892	-46.5589025825544	-21.5409967029778	-23.571378564408	-2.29147419887136	
2479666666.6667	-11.0686588135923	32.6721012994246	-10.0506672801101	-9.19598284515825	-46.6352857753575	-22.7007525435269	-23.5221510359025	-3.76342210808206	
2480000000.00004	-11.0289508960112	32.3397308175156	-10.0523466673275	-11.5249490097397	-46.5510965663672	-23.3090578313496	-23.4972926347708	-5.43229989159089	
2480333333.33337	-10.992137256274	32.0016852795093	-10.0595046899891	-13.8369969631488	-46.4868482519862	-28.3936893586776	-23.4500266706626	-7.00202492300889	
2480666666.66671	-10.9765348759096	31.7214280312257	-10.0604878149689	-16.1698470976121	-46.5720200495481	-28.6707368789501	-23.3866776260112	-8.65399882083582	
2481000000.00004	-10.9356450684544	31.4163186430942	-10.0656120453006	-18.4828168684112	-46.6624373736106	-32.118672305882	-23.363267532964	-10.2304566720573	
2481333333.33337	-10.9080475652702	31.0795293394917	-10.0633997455132	-20.7737118187783	-46.5410919592329	-35.3791957203487	-23.279173356433	-11.9665679750032	
2481666666.66671	-10.8926108190004	30.7288317916085	-10.0651969107269	-23.1011535136245	-46.3156621621204	-36.6746539229331	-23.2078555695577	-13.2888533546267	
2482000000.00004	-10.8640234714771	30.4441508853163	-10.0629045203096	-25.4260457062454	-46.3732386243633	-37.254557538158	-23.1614271071575	-14.7684226502931	
2482333333.33337	-10.8394627995355	30.0883972569535	-10.0635278386146	-27.7452089106603	-46.4856458130232	-38.888206325068	-23.0570652553388	-16.3103778685737	
2482666666.66671	-10.8217578757639	29.6373316753063	-10.0691602070861	-30.0524405569739	-46.4893088326191	-42.4981333566871	-23.007588419781	-17.7852487150058	
2483000000.00004	-10.7956080227183	29.3811478662803	-10.0667864224174	-32.3489920033912	-46.5277242060229	-44.8088439739949	-22.92646100436	-19.2441161294292	
2483333333.33337	-10.781809238969	28.8970256111618	-10.067858760273	-34.6777524677869	-46.6899716134144	-47.4696381502434	-22.8468009846563	-20.6954751323059	
2483666666.66671	-10.7628167098374	28.5189240187622	-10.0681825883195	-36.9777112201047	-46.4690197117182	-49.7372100198384	-22.7476466898163	-22.0275593356551	
2484000000.00004	-10.7523288028608	28.2072918377373	-10.0656557754107	-39.2566486279334	-46.6798536756413	-52.130091789774	-22.6740241889277	-23.480448435549	
2484333333.33337	-10.7303953217187	27.9243783768693	-10.05891069073	-41.5683939076167	-46.7010297069409	-51.9441577658211	-22.5801849115171	-24.5997930232724	
2484666666.66671	-10.724061849444	27.4961711224299	-10.0612480586274	-43.8465015512499	-46.5938431511093	-57.0814532881858	-22.503539361781	-25.9508948185801	
2485000000.00004	-10.7072605024748	27.1287986101229	-10.0613509278823	-46.1710421052505	-46.7244313357915	-60.6087057529264	-22.411598413574	-27.1107694867094	
2485333333.33337	-10.694508327544	26.706319276368	-10.0563605105312	-48.4723868977378	-46.5371365961267	-60.921775590194	-22.331760894158	-28.2302220137308	
2485666666.66671	-10.6873879642841	26.3806925060937	-10.0550501715868	-50.7736906441562	-46.7170496748582	-62.7316806831527	-22.2481379571602	-29.5676528614438	
2486000000.00004	-10.6823054715085	25.9670228780417	-10.0527118267781	-53.076150666581	-46.5041077744679	-65.6542925023132	-22.1432720811799	-30.6645268810943	
2486333333.33337	-10.6735694592106	25.560280273435	-10.0562938437441	-55.3757934799096	-46.6260127197533	-69.8036925775643	-22.0636298720414	-31.6902715237738	
2486666666.66671	-10.6676630309231	25.0843761083146	-10.0450260625367	-57.6538126327713	-46.3824708826149	-68.5444981555147	-21.9859678238791	-32.8166950060023	
2487000000.00004	-10.6797826145502	24.6916930634684	-10.0411607140736	-59.9623255901552	-46.5081997166774	-69.629999747941	-21.9103273781452	-33.7947941218209	
2487333333.33337	-10.6814039579046	24.3098627610154	-10.0440927815397	-62.2785568371135	-46.7195261058198	-75.9856250185808	-21.8147436600828	-34.8993982372707	
2487666666.66671	-10.6788282018298	23.9414044477559	-10.0314950873528	-64.5705652891944	-46.5485570822549	-77.6407718640186	-21.7445410169138	-35.8852678097981	
2488000000.00004	-10.6823683308135	23.424169349557	-10.037048468981	-66.8793189998762	-46.6010688973517	-78.6511311711005	-21.6811682799879	-36.7875748865031	
2488333333.33338	-10.6808657787089	22.9676220077236	-10.0278154449157	-69.1690853736444	-46.598850249583	-79.8172160992348	-21.6177422213612	-37.6678249782628	
2488666666.66671	-10.7032363102047	22.4960183223166	-10.0242849422628	-71.4786336570435	-46.4963066456452	-83.3350015731986	-21.534383418669	-38.5947798537236	
2489000000.00004	-10.7082795135718	22.0125825207209	-10.0194331429682	-73.7257479254536	-46.6075552533076	-85.9793873392036	-21.4874130478566	-39.388016889823	
2489333333.33338	-10.7190084333234	21.5127390794464	-10.0182907678412	-76.0544757980086	-46.4001049277668	-87.2774243580453	-21.4367265267224	-40.171861346265	
2489666666.66671	-10.7284619319158	21.0347267367156	-10.0094842387619	-78.3791323650435	-46.6103653661039	-91.6377256990742	-21.3715403469686	-41.017614114384	
2490000000.00004	-10.7538728940196	20.4943589622248	-10.0077752289303	-80.6304389596892	-46.5686564735452	-93.3433945623745	-21.3430979023191	-41.8517378887318	
2490333333.33338	-10.7741026720046	20.0286953602662	-10.0002364380169	-82.9557358536502	-46.5545041735442	-94.7537316880704	-21.2958440257625	-42.6998747144183	
2490666666.66671	-10.7833450644571	19.4935775312899	-9.9931963831268	-85.2512386680798	-46.4381680770123	-97.5605121187414	-21.2559114439557	-43.3499608148447	
2491000000.00004	-10.8114968582593	18.9586239122333	-9.99307329131869	-87.5360579850985	-46.7617109342553	-101.569049753824	-21.2282569132181	-44.0330054462718	
2491333333.33338	-10.8371143594706	18.4299667519914	-9.98687187133431	-89.8422377342027	-46.5964279665378	-100.511711707012	-21.1894020094472	-44.8435121518565	
2491666666.66671	-10.8600761699668	17.9586253531745	-9.9848423671138	-92.1305348069366	-46.5964087579499	-105.633657683306	-21.1738344969039	-45.3779881562077	
2492000000.00004	-10.8928723888634	17.4242198902223	-9.97521921280813	-94.4169745612518	-46.6463143478068	-106.761625882795	-21.1566577437057	-45.8850353807965	
2492333333.33338	-10.91236164882	16.7549656361537	-9.97384013185739	-96.7447494272497	-46.9110397115496	-108.503990555094	-21.1472004439322	-46.4982175270982	
2492666666.66671	-10.9475971492556	16.3093431092092	-9.96959138485835	-99.0076288484385	-46.8412936299879	-110.635181696202	-21.1475806648217	-47.1649180182821	
2493000000.00004	-10.9893360079081	15.7292080042349	-9.96118855919741	-101.296517734541	-46.6075804281384	-113.060401233179	-21.1378847259127	-47.6086604262995	
2493333333.33338	-11.0268564256927	15.1272428158745	-9.96306679222197	-103.616940938536	-46.8251459627633	-115.490542991258	-21.154127907683	-48.1967636837411	
2493666666.66671	-11.0660342243657	14.605761736981	-9.9581478977771	-105.887930644905	-46.5040220831329	-117.302097873421	-21.1674300923166	-48.5025198973588	
2494000000.00004	-11.1078355037685	14.0158024083387	-9.95356283160591	-108.193299807437	-46.8216032310575	-118.761494123672	-21.2060375973772	-49.0007146997339	
2494333333.33338	-11.1361780350413	13.4301068787089	-9.95254143037563	-110.476554548938	-46.690865596445	-122.349268209006	-21.2351310627547	-49.4550632777638	
2494666666.66671	-11.1806282213097	12.8356022824937	-9.95113221019611	-112.787982639223	-46.8805727551985	-126.289086440049	-21.2521925754251	-49.790926978869	
2495000000.00005	-11.2157701126219	12.255336982259	-9.94498819131137	-115.028486703549	-46.5139402824624	-127.448643443776	-21.3025645738187	-50.1618510693776	
2495333333.33338	-11.261680325096	11.6667567596398	-9.94411820908638	-117.354045786128	-46.8600733037248	-130.295119389658	-21.3786705030836	-50.5262159091404	
2495666666.66671	-11.3019548882065	11.10324965687	-9.9437902553741	-119.605959020927	-46.5397969477094	-132.118632236584	-21.4441431088182	-50.8759566696626	
2496000000.00005	-11.3384285460748	10.4840804180991	-9.94389081991865	-121.901015804864	-46.8592206913173	-133.876271109575	-21.5160176807577	-51.1134580266415	
2496333333.33338	-11.3759555991279	9.87601645175351	-9.94966029818427	-124.216328980774	-46.4458853659646	-135.483440572531	-21.6014157803753	-51.4181567806222	
2496666666.66671	-11.4259846596778	9.23824965574152	-9.94287579771526	-126.485444792575	-46.8171678000849	-137.480995008195	-21.7093295110369	-51.7262996939576	
2497000000.00005	-11.4703192164602	8.628755159813	-9.94037153364825	-128.807046694648	-46.5538121740986	-141.187006085773	-21.812622762047	-51.7818274444142	
2497333333.33338	-11.5169279973266	8.03429578966682	-9.94622949825261	-131.026387845749	-46.7628369841124	-143.242139765621	-21.9093623130509	-51.9719324864939	
2497666666.66671	-11.5672526695157	7.4009948391707	-9.94697428288648	-133.341360867724	-46.8809843485137	-145.247440108803	-22.0515869981958	-52.2812908383101	
2498000000.00005	-11.59503696936	6.87488287799444	-9.94617794571031	-135.635547054578	-46.5761919926962	-147.081068825307	-22.1909886586945	-52.2482585246188	
2498333333.33338	-11.6402566398834	6.20547334252244	-9.95171487122714	-137.902693514577	-46.9645128291002	-151.579063092774	-22.312660132401	-52.1708377445287	
2498666666.66671	-11.6823009673843	5.60609717939285	-9.95159677001168	-140.237287018147	-46.8925549386375	-153.799817463663	-22.4976476121579	-52.1402882642888	
2499000000.00005	-11.7210846641761	4.94310309328639	-9.95165209079827	-142.50917628813	-46.5926327571466	-153.9337793834	-22.6694417546272	-52.135751275722	
2499333333.33338	-11.7551519992829	4.37870909402904	-9.95709045979525	-144.800406009599	-46.885559353597	-157.689775591594	-22.8357800821093	-52.0440306449881	
2499666666.66671	-11.7998631982484	3.78648300762619	-9.95150988399404	-147.009491306192	-46.619939246488	-158.79537504895	-23.0352567206007	-51.8774108430372	
2500000000.00005	-11.8449783290117	3.12902519763542	-9.96206263899954	-149.347028408901	-46.8131949126372	-162.950907389312	-23.252348440458	-51.5170392510117	
2500333333.33338	-11.8750212911711	2.54650585469507	-9.9572319555553	-151.592979640955	-46.6137559806524	-163.161015758059	-23.4718599628367	-51.0601592136977	
2500666666.66671	-11.9168781610941	1.88004403971075	-9.97369398070784	-153.880897699187	-46.630779401615	-166.814121588807	-23.665052868662	-50.5049142062264	
2501000000.00005	-11.9608642602217	1.23692962597649	-9.97789865244286	-156.178880766149	-46.711981005619	-168.418281460424	-23.9537056803324	-50.1665206829835	
2501333333.33338	-11.9954404689612	0.634794353522971	-9.97336931084715	-158.449543077203	-46.7607486892252	-171.156536442593	-24.1855714810448	-49.4371468115909	
2501666666.66672	-12.0353348611768	-0.0586675794991229	-9.98942680871515	-160.726170921832	-46.8180950029363	-173.067049875946	-24.4690427267005	-48.7495396197305	
2502000000.00005	-12.0700875333048	-0.671920781694885	-9.99219930063244	-162.96412024275	-46.559502166839	-173.338517768526	-24.7716978799231	-47.6259634371677	
2502333333.33338	-12.1062296960821	-1.29278616853999	-10.0034034843994	-165.281836657159	-46.9354834302631	-177.674180422712	-25.0389742494783	-46.5113654963486	
2502666666.66672	-12.1448055085475	-2.04245731128608	-10.0035278611476	-167.517265636127	-46.5926956869696	179.906100436236	-25.3727629963519	-45.1752098244721	
2503000000.00005	-12.1711672651383	-2.72390825778321	-10.0078847073862	-169.826851001397	-46.9133977360367	176.022414841844	-25.6733696055779	-43.3051334952741	
2503333333.33338	-12.2019492218548	-3.46425516252681	-10.0162197045873	-172.060685779474	-46.8561051789331	175.22479737968	-25.990112660066	-41.6280761559359	
2503666666.66672	-12.2411689710343	-4.23176370485753	-10.0295976927982	-174.368621058617	-46.6696149652845	174.262804912172	-26.3306806418764	-39.8505622967222	
2504000000.00005	-12.2690801003149	-4.89244836381156	-10.0349726378146	-176.618770040422	-46.641532883653	170.944077333282	-26.6784736670609	-37.6193812368869	
2504333333.33338	-12.292422305757	-5.55325746155498	-10.042317492108	-178.885858503372	-46.6686539363742	168.359795299359	-27.0150686926141	-35.0538570366202	
2504666666.66672	-12.3234104373037	-6.31894438864558	-10.0476636076852	178.873193681537	-46.7353530296577	167.900783501442	-27.293796768301	-32.4525375839702	
2505000000.00005	-12.3454331821862	-7.07243590641993	-10.0611129566856	176.576938939496	-46.6073659884484	163.820264323879	-27.5898308466146	-29.0163428679087	
2505333333.33338	-12.3700471262935	-7.76958090581894	-10.0698556281037	174.336094970392	-46.7694228743404	162.479855909016	-27.9014254663494	-25.4136686091403	
2505666666.66672	-12.3890898907853	-8.51263594105203	-10.0759810221413	172.089833165278	-47.0696971901772	158.725969491821	-28.1416649247196	-21.3979522794084	
2506000000.00005	-12.4059124898255	-9.20789399524591	-10.090132536712	169.830693582557	-46.6991760798122	157.241975642457	-28.29083313125	-17.0173724323792	
2506333333.33338	-12.4264328458897	-9.96207519681853	-10.096683901131	167.608920685536	-46.7291540372487	155.600519683365	-28.4478688106073	-13.0187838512225	
2506666666.66672	-12.4455895381455	-10.6608142006973	-10.106111474194	165.3580953261	-46.5315745152552	154.425745842043	-28.5627506145008	-8.45793615508045	
2507000000.00005	-12.4614630052774	-11.4684805622744	-10.1244200668017	163.063129374953	-46.6140302859176	151.508954609252	-28.6017846037091	-3.91457014984713	
2507333333.33338	-12.4839264666015	-12.1895085036694	-10.1322019402185	160.802408931928	-46.6830469188596	148.823759543974	-28.5350570160873	0.413751553679978	
2507666666.66672	-12.4908619650368	-12.9153276722651	-10.1408644794264	158.596921267722	-46.3875059539235	144.692464562797	-28.343165154788	5.67530190169564	
2508000000.00005	-12.5070328846175	-13.7622755948474	-10.1548159083188	156.329967108501	-46.6003873525746	143.055571478134	-28.1227916478167	9.65111912359805	
2508333333.33338	-12.5228429213756	-14.5445933793934	-10.1651522054691	154.054368219896	-46.6838962347464	141.409380749228	-27.8509159591828	13.9481381079847	
2508666666.66672	-12.5300806480458	-15.3352542837571	-10.1698369627975	151.807134921797	-46.7824021109321	139.375633182926	-27.5383954877102	17.8618955859517	
2509000000.00005	-12.5409821999328	-16.1217791692091	-10.1871564679613	149.538320589907	-46.5856351293812	136.164123034755	-27.172513972966	21.1301317258843	
2509333333.33339	-12.5486961480811	-16.9134186669744	-10.1956805586155	147.308719552416	-46.7804869511966	135.552084147308	-26.8152407286263	24.2956103451374	
2509666666.66672	-12.5524071381522	-17.7189648894967	-10.206195084644	145.084608403856	-46.7854197503113	132.016132993796	-26.4210722451918	27.0449547970003	
2510000000.00005	-12.5599131123938	-18.5068889298496	-10.2250493004634	142.833816803395	-46.4995413616368	130.810318401889	-26.0157748581899	29.7471254707501	
2510333333.33339	-12.5700479697035	-19.2679123128808	-10.2390459180959	140.599860468816	-46.7466385757462	128.808115391119	-25.5988571991904	31.9328078836383	
2510666666.66672	-12.5702315672062	-20.0652524193547	-10.2508008489679	138.32072334285	-47.0830074012819	125.620977936003	-25.1917315796155	34.0008808058658	
2511000000.00005	-12.5685656640566	-20.8529149924954	-10.2577278260487	136.122877398399	-47.1170012695501	121.874651168049	-24.773077020495	35.6134311051913	
2511333333.33339	-12.5759134058645	-21.5940355726855	-10.2764895994206	133.860098970765	-46.4617046110055	120.948994294797	-24.3530540321664	37.3220412948058	
2511666666.66672	-12.5672294267623	-22.3600444768928	-10.2899348221752	131.607210855475	-46.9846832559808	118.789938567859	-23.9839813698823	38.5122479287673	
2512000000.00005	-12.566571725745	-23.0664144657892	-10.3016780265272	129.356048942952	-46.5794081412647	118.244816746542	-23.6136712871119	39.289559041043	
2512333333.33339	-12.5714279626793	-23.8623904188421	-10.3131060555126	127.093606929192	-46.9668480722866	113.260857203746	-23.2541178274574	40.5184115203485	
2512666666.66672	-12.5698232427562	-24.5659366452184	-10.3208585218756	124.889796347403	-46.9180711039348	111.501039827757	-22.9045260332024	41.3039807041721	
2513000000.00005	-12.5685271957608	-25.3301338709949	-10.3368002984499	122.623145311141	-46.5390384924071	110.151515049222	-22.5666994375764	42.0337026333137	
2513333333.33339	-12.5633684592799	-25.9929744839037	-10.3462968242288	120.406329744112	-46.5852334062813	108.605932316693	-22.2639453993734	42.519689275053	
2513666666.66672	-12.553045644289	-26.7105547567625	-10.3627842633802	118.154144152697	-46.4681632114606	106.644924086272	-21.9190354725543	43.1945077682337	
2514000000.00005	-12.5559407223871	-27.4321279757855	-10.382561575095	115.885656267836	-46.9089801844698	101.712644366102	-21.6438350626056	43.2834162749736	
2514333333.33339	-12.5507407360023	-28.1955566808784	-10.3920052790809	113.637465969404	-46.9018007486458	101.357028560688	-21.3627315923124	43.8417093159243	
2514666666.66672	-12.5469757833253	-28.9110363357837	-10.4022776253465	111.403012770311	-46.9678110665337	97.6633598135296	-21.0772598171616	43.8150906988757	
2515000000.00005	-12.5382181455814	-29.6590230342473	-10.4166233178139	109.165447320849	-46.7750708004389	97.6901070101551	-20.8338301678039	43.9968803563065	
2515333333.33339	-12.5356710366833	-30.3527355188286	-10.4250139621159	106.875178381063	-46.9376994011947	93.0415197313171	-20.5736781650933	43.9413599581469	
2515666666.66672	-12.5347246573775	-31.0379889541944	-10.44139798055	104.578920488935	-46.915132583748	91.0644785813023	-20.3482691414288	44.0515096993687	
2516000000.00006	-12.5278886644223	-31.7168732630135	-10.4583540307764	102.362146579401	-46.9380625540268	88.5243998920243	-20.1365480592137	43.9200612576013	
2516333333.33339	-12.5237936579151	-32.384081579166	-10.469517820945	100.09758184674	-46.6804500322407	86.9577872959629	-19.909507548736	43.8233618250083	
2516666666.66672	-12.5244032246418	-33.0310869267748	-10.4864596123017	97.8616349275005	-46.5838492457703	85.8049329285421	-19.7272452675703	43.7903857814546	
2517000000.00006	-12.5177664567386	-33.6601877350474	-10.5002500567109	95.6379292903982	-47.0648889698687	82.4134571902225	-19.5212618065245	43.4276486720906	
2517333333.33339	-12.5183073613945	-34.2979793851406	-10.5061307632764	93.3223295326217	-47.2376493600632	81.7595444405927	-19.3389160391163	43.1898898537978	
2517666666.66672	-12.5094226912678	-34.8798900316	-10.5221784046084	91.0670363805871	-47.1642844169627	77.3408726898261	-19.1817483809796	42.9723783857811	
2518000000.00006	-12.5136454704033	-35.4924157326537	-10.5344033681164	88.8202759541209	-46.7737309318469	77.9671895650788	-19.0144824615576	42.6388069505175	
2518333333.33339	-12.5127344545868	-36.0474844516242	-10.5502628334895	86.6060714350544	-47.2482046280242	72.3119160478019	-18.8789864714598	42.1801342984763	
2518666666.66672	-12.5151592681785	-36.5934976515786	-10.5573583081555	84.2863202341404	-46.8730516831582	72.8044685590378	-18.7494095222448	41.8197255846588	
2519000000.00006	-12.5189179608833	-37.1837500284793	-10.5725293887958	82.0382246111616	-47.0174861567472	68.0680169824745	-18.6080521681623	41.5067125751683	
2519333333.33339	-12.515941893012	-37.6981914922062	-10.5807840343805	79.7721568755862	-47.0832310639189	67.5049688258102	-18.5064639498045	41.046037860868	
2519666666.66672	-12.528189075742	-38.2301063387882	-10.5972369455254	77.5455974305013	-47.3687220223785	64.6706251340596	-18.3892343894835	40.4841807781619	
2520000000.00006	-12.534339205367	-38.7359844472592	-10.6094103894586	75.2941924929962	-47.4501613603647	61.6410464590923	-18.280935618624	40.0577535887434	
2520333333.33339	-12.5292456907301	-39.1650035633607	-10.6205375248252	73.0366369363779	-46.7463996045512	61.1406433802871	-18.1836184516026	39.4777483509764	
2520666666.66672	-12.5424105334061	-39.6776697059831	-10.6283132801555	70.76833543622	-47.0873425215226	57.1097982330869	-18.1063128657214	38.8922079522497	
2521000000.00006	-12.5486856437583	-40.1032696080307	-10.6452293803112	68.5158521076674	-47.0342943694349	55.1134413961228	-18.0385880180097	38.4014631243314	
2521333333.33339	-12.5572058899909	-40.5732997488457	-10.655894639775	66.2662081653757	-47.2574286173229	52.3554270551749	-17.9568330431395	37.7824408365681	
2521666666.66672	-12.5647070912346	-41.0635371845235	-10.6677316424475	64.0298474226163	-47.1240475762425	53.3440162565932	-17.8975155137863	37.1085501073418	
2522000000.00006	-12.5736142583351	-41.4277725681103	-10.6794155026967	61.7514665400183	-46.9239729689702	47.6386380960801	-17.8423323055602	36.4920865712862	
2522333333.33339	-12.5885575189114	-41.8078984714759	-10.6881432800393	59.5309205486882	-47.0087328462931	47.0493854195721	-17.8143694421398	35.8961871945129	
2522666666.66673	-12.5847460472827	-42.2000201778058	-10.7001351120622	57.2592475844472	-46.9612432221381	43.80099224197	-17.7546930846557	35.1705816116094	
2523000000.00006	-12.6031937360595	-42.6189837193283	-10.7071525253658	55.0093889461685	-47.3702048616096	43.0486027073315	-17.7366012822317	34.4303628930628	
2523333333.33339	-12.6128040021643	-43.034542156324	-10.7230549022563	52.7390169370545	-47.0514194528967	41.7227249906059	-17.7168730858939	33.689383229439	
2523666666.66673	-12.6242277862323	-43.4452483619304	-10.7340205042735	50.4952873725096	-47.2096200531583	40.4209875993626	-17.6884548596513	32.990570887108	
2524000000.00006	-12.6514580650401	-43.7550003287472	-10.7454774632737	48.2712971230876	-47.4995257695066	35.4450012665846	-17.699870567129	32.208897103923	
2524333333.33339	-12.6608350889195	-44.0384269942446	-10.7511767312891	46.0352989969625	-47.1497645993734	33.9232724338236	-17.7030235152135	31.2918691145489	
2524666666.66673	-12.6751055049891	-44.3623215242884	-10.7627075792792	43.8418191259669	-47.0053154434723	32.3234844588554	-17.6881851529295	30.4539346020521	
2525000000.00006	-12.694230738901	-44.6597765754383	-10.7756410879458	41.5905799437372	-47.4554708354125	29.3928497083043	-17.6888259128042	29.7284008664468	
2525333333.33339	-12.7098387115209	-44.9457621436698	-10.7865697152748	39.3467076328257	-47.4177693755149	26.2606199271079	-17.7024616023667	28.8633713269949	
2525666666.66673	-12.7379309092767	-45.2248505390273	-10.7909633744909	37.1482237087807	-47.1211243255292	24.5017861311747	-17.7332887621961	28.0813926207441	
2526000000.00006	-12.749904821709	-45.4504785253275	-10.799003783559	34.9172021372835	-47.2103148090005	21.542992265608	-17.759448973909	27.1414250735972	
2526333333.33339	-12.7703007417568	-45.7158331050857	-10.8063700938131	32.7089983782026	-47.1471275365955	21.0784460063476	-17.796492551521	26.1712088195064	
2526666666.66673	-12.8041533512937	-46.0110138222614	-10.8082499917378	30.5369036556849	-47.0404665469376	18.3025899934249	-17.8466577916726	25.3134541793988	
2527000000.00006	-12.8206806486963	-46.2006171843057	-10.821968186762	28.3054300314447	-47.1371657522711	17.173953941661	-17.8726052326461	24.3560672657383	
2527333333.33339	-12.8495769117536	-46.4797924346755	-10.8205022908328	26.0973761102999	-47.3050884662439	12.4867512014096	-17.943149929398	23.3731289763932	
2527666666.66673	-12.8840360782699	-46.6227825656751	-10.8283971057118	23.9148123995625	-47.1347991288453	9.77092843399251	-17.9944310974828	22.3948855731735	
2528000000.00006	-12.8998383199478	-46.8154933125145	-10.8277456630897	21.7239978400101	-47.2645264943727	8.64194465749473	-18.0531152105225	21.3335305876128	
2528333333.33339	-12.9318006740603	-47.0728633643212	-10.8317177399408	19.5286766420286	-47.4618906589812	8.38322543349437	-18.124009096322	20.3325866834384	
2528666666.66673	-12.9490757763867	-47.2253683862305	-10.8287423786629	17.3441638009477	-47.2120052480766	4.45348573499618	-18.2059981843845	19.2427984807815	
2529000000.00006	-12.984292490915	-47.4682663412754	-10.8306196356869	15.1597807763143	-47.1652065943402	3.35406232001524	-18.275720517817	18.2009442792974	
2529333333.3334	-13.0107936597867	-47.7332600547069	-10.8251437922505	12.9935731932449	-47.2302404808519	1.00617440975858	-18.3549856839742	17.0521197624477	
2529666666.66673	-13.0453314438114	-47.9329906580236	-10.8223383727981	10.8093243333624	-47.0688729903891	-2.52204512898722	-18.4437800838294	15.9191292676455	
2530000000.00006	-13.0813878094932	-48.0808772454115	-10.824607364573	8.61256637689205	-47.0642242666332	-3.63583252686764	-18.5323048135138	14.7666686185824	
2530333333.3334	-13.1148052124391	-48.3029371294153	-10.8196968456272	6.41223423995585	-47.036219774926	-4.15189986382105	-18.6384088003408	13.6671297555074	
2530666666.66673	-13.1542652471225	-48.575354452907	-10.8160552069028	4.22280960925422	-47.3362970656028	-6.98974913909656	-18.7335784544992	12.4816382283959	
2531000000.00006	-13.2041112805457	-48.6470951853058	-10.8093567831734	2.07810418046265	-46.9919195182722	-11.2951248176366	-18.8382615881012	11.3388573397857	
2531333333.3334	-13.2227608338735	-48.8671786968441	-10.8043670112704	-0.156494937955368	-47.3452180947189	-12.2612054841606	-18.9368681566335	10.0313881858984	
2531666666.66673	-13.2780136362298	-49.0860813056101	-10.7912276167693	-2.3109984210333	-47.0395014646604	-15.8584265787028	-19.0665764993891	8.77031860380786	
2532000000.00006	-13.3222448026073	-49.2703694732577	-10.7920982916112	-4.49614828402473	-47.4288331505176	-14.0232880337398	-19.1873540121261	7.60169396414503	
2532333333.3334	-13.3669024073933	-49.4124815735488	-10.7805772168005	-6.68189302954505	-47.1257234644691	-19.7500505177065	-19.3111609183177	6.20833951526296	
2532666666.66673	-13.4204464203824	-49.7107414731053	-10.7697271485197	-8.86551967102204	-47.5180316514935	-19.3170919341088	-19.4355854233497	4.77902134157562	
2533000000.00006	-13.4743391155627	-49.825908029258	-10.7558868277746	-11.0962874397298	-47.0823987143066	-23.7027871888807	-19.5725840827734	3.43299135456463	
2533333333.3334	-13.5107037732141	-49.8994880085374	-10.756802586633	-13.3424652619392	-47.2868776763989	-26.950301452938	-19.6915516331868	1.97641714444746	
2533666666.66673	-13.5614066535767	-50.1163651016643	-10.7440761398913	-15.5368771400972	-47.2601827350487	-27.5162123522319	-19.8350049385537	0.597683931358579	
2534000000.00006	-13.6150297001915	-50.3184255646655	-10.73497435346	-17.7531223473407	-47.2486647888306	-27.9736318672756	-19.9668523784508	-0.894907519221852	
2534333333.3334	-13.6562866012686	-50.5185662299325	-10.7191185147783	-19.9916283474365	-46.9963666233564	-31.0464882744677	-20.100996604467	-2.36068286145798	
2534666666.66673	-13.705608692128	-50.6462857065274	-10.7094360329656	-22.1992682881362	-47.0462733752234	-34.6525671451037	-20.2268464744683	-3.69622817649292	
2535000000.00006	-13.7665332088558	-50.8057848015208	-10.6959918719179	-24.4329541338767	-47.3755193950593	-34.5079600619755	-20.3695705452462	-5.27847701986184	
2535333333.3334	-13.8150560150324	-51.0668342728279	-10.6807500398586	-26.6696092897065	-47.4534577063073	-39.6284097085829	-20.511264765661	-6.8241680133519	
2535666666.66673	-13.865935985131	-51.3049554937788	-10.670748786042	-28.8873109614892	-47.1767568440791	-40.7663262356588	-20.658785346018	-8.33359396715838	
2536000000.00006	-13.9263059648088	-51.3919884964098	-10.6580367989066	-31.1482712422032	-47.0561325408409	-44.6075532590716	-20.7905063255361	-9.95350496548606	
2536333333.3334	-13.9742602738892	-51.6406493410771	-10.6446152594046	-33.3896021797248	-47.0132184296307	-45.8868817161284	-20.9379681360623	-11.3395802405608	
2536666666.66673	-14.0459271459669	-51.7980232609174	-10.6354393039566	-35.6279558960613	-47.2787132175031	-48.0863677636336	-21.0757235362187	-13.0350919295217	
2537000000.00007	-14.0981312924353	-51.9510207112383	-10.6225016701669	-37.8696777235992	-47.1042367314925	-48.5273772324611	-21.2275395673826	-14.6946135901498	
2537333333.3334	-14.1607587786934	-52.1879991212671	-10.6097586922534	-40.1433270234402	-46.9347161870894	-51.1499857149504	-21.3785606084058	-16.2758073466724	
2537666666.66673	-14.2138885232775	-52.4273633464536	-10.5975929570109	-42.430526971285	-46.8822889471218	-54.9793552858597	-21.495101954065	-17.9408636382098	
2538000000.00007	-14.2855042956364	-52.5880280516986	-10.586277535412	-44.7156750287786	-46.984480505409	-55.6286765671672	-21.6427282295827	-19.4158851859524	
2538333333.3334	-14.3312942788297	-52.868783224272	-10.5765477889883	-46.9712279773295	-47.0336986817111	-60.773441136904	-21.7879204170594	-21.0403084922594	
2538666666.66673	-14.413154045455	-52.9587530267121	-10.5676951913037	-49.2350402105022	-47.2237531253774	-63.3075288960583	-21.9108700579949	-22.5996678774494	
2539000000.00007	-14.4959158461737	-53.1623894167714	-10.5540184322542	-51.5072286234269	-47.2264726645647	-64.2097159244624	-22.0581063860313	-24.1843871760687	
2539333333.3334	-14.5541505929046	-53.3283648163036	-10.5479948497961	-53.7957667268045	-46.9398432268272	-66.5740175401334	-22.171712946642	-25.7601279811547	
2539666666.66673	-14.6445740361395	-53.5924444678963	-10.5448132909929	-56.0513127137786	-46.8462220929704	-65.8990904443054	-22.3101760151097	-27.2619853925132	
2540000000.00007	-14.7017873943413	-53.8405180325091	-10.5317357059252	-58.3404246243282	-46.8773960942983	-70.3597335245125	-22.4524964772531	-28.8080701002743	
2540333333.3334	-14.7826161500275	-54.0202954341219	-10.52693137491	-60.6215053210513	-47.3772076311698	-71.3535076980392	-22.568395053563	-30.182778982203	
2540666666.66673	-14.867231224755	-54.290571864995	-10.5231006102492	-62.9458648833655	-47.1334094384941	-73.6225033660054	-22.6670425279766	-31.7453302473027	
2541000000.00007	-14.9459474554978	-54.52535167326	-10.5121630201746	-65.2292437509026	-47.462378226459	-76.4143595198126	-22.8371489987307	-33.1783209061116	
2541333333.3334	-15.0025047692343	-54.8780225154118	-10.5138132481935	-67.494057685219	-46.9321042046295	-77.7294080443205	-22.9049820074072	-34.6369142313251	
2541666666.66673	-15.0996444624888	-55.1347457234549	-10.5014639273567	-69.8040718772074	-46.8424150346288	-82.2699494470493	-23.026074734504	-35.8503664326311	
2542000000.00007	-15.1669222556391	-55.4163709938715	-10.4986564113237	-72.0615735101061	-47.094980833468	-82.3562696783849	-23.1543607944587	-37.1903050662029	
2542333333.3334	-15.2642048307863	-55.6504748165567	-10.4928256441355	-74.4126955346704	-47.1534014122351	-85.5357017314112	-23.2713545488582	-38.5098793909242	
2542666666.66673	-15.324521383902	-56.079298615027	-10.4901153262009	-76.6698704116908	-47.0006203914223	-88.4230415794537	-23.3693990208579	-39.7035467664274	
2543000000.00007	-15.40809847102	-56.3774268819642	-10.4860126910101	-78.9545243962426	-46.8727130796654	-89.0260442338571	-23.4801097101292	-40.7948433394321	
2543333333.3334	-15.4832988776014	-56.7858747988868	-10.4916070689896	-81.1993587952177	-47.0946356464225	-91.5692199228117	-23.5852450038278	-41.9338984118364	
2543666666.66674	-15.5725564772764	-57.1411429445139	-10.4824471752565	-83.5298942777503	-46.9016187182782	-95.1241166605915	-23.6845600767059	-42.8946809652521	
2544000000.00007	-15.6630589864093	-57.3914350064594	-10.485360931654	-85.7703843542624	-46.7085015658682	-97.9833834165721	-23.7825754358142	-43.8165238552199	
2544333333.3334	-15.7704716276999	-57.6074083162035	-10.4841476474946	-88.1199955697566	-46.9645427544482	-99.2168687502566	-23.8784370182031	-44.9087920109175	
2544666666.66674	-15.8665286070854	-58.063773150853	-10.4837384729763	-90.4083229833009	-46.9077191976728	-101.29437572736	-23.9655191514025	-45.560180240291	
2545000000.00007	-15.958032427913	-58.3757121027793	-10.4780602795066	-92.672251187164	-46.6740212966191	-102.916071022773	-24.0663999601842	-46.2872889550574	
2545333333.3334	-16.0535870818761	-58.7750443607631	-10.4817140767238	-95.0097397395803	-46.928111863068	-104.695968015907	-24.1406573293613	-47.0379851140351	
2545666666.66674	-16.150121077057	-59.0473666873032	-10.4786418938715	-97.2524830215859	-46.8094536002632	-108.091232221021	-24.2533380852183	-47.4811452268269	
2546000000.00007	-16.2448903162436	-59.4902003406739	-10.4899540061528	-99.5066281287909	-47.0988286672928	-110.063613898766	-24.3465557973703	-47.8707713383478	
2546333333.3334	-16.3501064660886	-59.9352649350687	-10.4845524379797	-101.751313331091	-46.7960319284563	-113.645825725445	-24.4467950375885	-48.2073321562375	
2546666666.66674	-16.4404648139358	-60.4281176191563	-10.4804508202945	-104.011654820595	-47.0481727483528	-115.06858902669	-24.498608046612	-48.4751617369127	
2547000000.00007	-16.5409618500089	-60.8455475074267	-10.4827531238321	-106.328914614162	-47.0722544038217	-117.246455302684	-24.5968242991214	-48.622347527262	
2547333333.3334	-16.6228878674436	-61.3007621475249	-10.4864630783936	-108.571131730484	-46.9549675039065	-119.922350173809	-24.6990215202421	-48.8174709090883	
2547666666.66674	-16.7100655727132	-61.853490817319	-10.481104645886	-110.80650500884	-46.7190259408753	-119.794170744449	-24.7553989838862	-48.7686239982069	
2548000000.00007	-16.8249077216863	-62.4842334534624	-10.4866327073761	-113.055919067975	-46.9829905281467	-122.681407620577	-24.8632990606617	-48.5547272835611	
2548333333.3334	-16.9177013831585	-62.9781589452615	-10.4881488405802	-115.325025146255	-47.0898362649075	-127.641589908476	-24.9335931784663	-48.3128743774842	
2548666666.66674	-16.9996093774622	-63.5715585293323	-10.4862536577691	-117.610523390243	-47.1475552347682	-131.335089391086	-25.0076390937873	-48.0140902953671	
2549000000.00007	-17.0942204282237	-64.304407536574	-10.4833853498687	-119.840694996281	-47.0425951994177	-130.599260056486	-25.0409483360637	-47.7025225155375	
2549333333.3334	-17.1777450849891	-64.9287919622532	-10.4805539518825	-122.083241960763	-47.0444016383247	-131.819157129377	-25.104623005118	-47.0400542066062	
2549666666.66674	-17.2718716803228	-65.544197886335	-10.4815350593445	-124.353032889742	-46.6664840468442	-134.446952949174	-25.1605687934393	-46.4840954566787	
2550000000.00007	-17.3657410637663	-66.3063354043607	-10.4863194018467	-126.591205889822	-46.8239028809277	-135.934379581297	-25.2328286553227	-45.9694015353229	
2550333333.33341	-17.4530522468852	-67.1546340294098	-10.4803983508189	-128.849452577381	-46.8992553865685	-139.521636394129	-25.2872774298487	-44.9541568793892	
2550666666.66674	-17.5373841653791	-67.9069652043297	-10.4882652971638	-131.101928860425	-46.945021648059	-142.468971614887	-25.3105469828352	-44.2970895120021	
2551000000.00007	-17.6274147429259	-68.656215329199	-10.4841165733343	-133.310778572593	-46.9574564949236	-142.508105058093	-25.3309490901681	-43.404695771024	
2551333333.33341	-17.7227830665061	-69.5059719323554	-10.4869242038396	-135.567585649539	-47.1387121648669	-146.925370385023	-25.3436948263239	-42.2836170805686	
2551666666.66674	-17.8244335058812	-70.3011660370274	-10.4836437033261	-137.81061875919	-46.7056773414158	-150.116527144743	-25.3468970394978	-41.0197479677532	
2552000000.00007	-17.91641667856	-71.0762981433525	-10.4856493736349	-140.019407579399	-46.9022777932135	-151.631715657428	-25.3134288327472	-39.8736566904134	
2552333333.33341	-18.0049970475007	-71.9463648059617	-10.4823830990644	-142.249111335444	-46.7183909760107	-153.179136275152	-25.2877752451601	-38.5632677868256	
2552666666.66674	-18.1089270648487	-72.8324919048343	-10.4844323483834	-144.483253638646	-46.9498258786664	-155.105482268015	-25.2683273654511	-37.4469697966335	
2553000000.00007	-18.1964089086631	-73.6760703507999	-10.4848173822496	-146.70482472703	-46.7877296725898	-159.787414236809	-25.2074020316274	-35.8831941216325	
2553333333.33341	-18.282762102597	-74.6285432721424	-10.4815811046495	-148.921617430147	-47.0457946703591	-160.260550087484	-25.1290852571346	-34.6094552643453	
2553666666.66674	-18.3710328324118	-75.4406217739788	-10.4767918450225	-151.146785961406	-46.8808632619959	-161.142381884678	-25.018728869407	-33.2129081295935	
2554000000.00007	-18.4512475959958	-76.3936811753043	-10.4816396979951	-153.414045522863	-46.7638591083521	-165.152539080103	-24.9588800339912	-31.8512497984314	
2554333333.33341	-18.5316638298118	-77.2848809978632	-10.4735349258686	-155.597511249199	-46.9441772150515	-167.676425796205	-24.8697551413226	-30.3866236342276	
2554666666.66674	-18.6172017070997	-78.2066187243772	-10.4742446025442	-157.805370321727	-46.9417812341043	-169.043183591574	-24.7411445565906	-29.0351219262929	
2555000000.00007	-18.6931171900022	-79.1465247249275	-10.4724025389734	-160.049123887119	-46.7952116992356	-171.659113186306	-24.6537152615405	-27.6760498618889	
2555333333.33341	-18.7552736686198	-80.1069307042947	-10.4755526300028	-162.285870075955	-47.0133352766729	-173.242054139447	-24.5366154089159	-26.3520130088197	
2555666666.66674	-18.8274714088061	-81.0037612583681	-10.4766939340695	-164.544234825578	-46.729196066729	-176.645704483002	-24.3657178585367	-24.9802084465444	
2556000000.00007	-18.8825664488586	-82.1162140037087	-10.4639407771506	-166.761734063627	-46.8495932184284	-177.867750982642	-24.2259246283238	-23.8023219381206	
2556333333.33341	-18.9374824205148	-82.9115536625259	-10.4620469984099	-168.987633971441	-46.406164315037	179.991218330399	-24.0580516526728	-22.5074988082191	
2556666666.66674	-18.9879186750206	-83.829253928136	-10.4643250095933	-171.18744873845	-47.1209242088862	176.035250095513	-23.895625953066	-21.4496960855002	
2557000000.00007	-19.0405868486016	-84.6826456298331	-10.4553457913013	-173.431453678406	-46.8520987042186	174.235746997161	-23.7499471311773	-20.3374087721296	
2557333333.33341	-19.089154146268	-85.6927793351362	-10.451847496755	-175.703035970357	-46.4819467588426	174.192151874836	-23.5901444330827	-19.2141104186129	
2557666666.66674	-19.1310084445269	-86.6668788761581	-10.4508254675358	-177.905757230523	-46.9051077474906	167.827420241402	-23.397851371099	-18.0839302347003	
2558000000.00008	-19.1568641681559	-87.6237273880055	-10.4423568393269	179.836015405915	-46.515767787391	169.408815486279	-23.2279604563614	-17.1923371062788	
2558333333.33341	-19.1926079682623	-88.5215740289594	-10.4494123518852	177.590225853708	-46.7204262765294	164.904689730569	-23.053228499009	-16.5345653836423	
2558666666.66674	-19.2232309760358	-89.355691618332	-10.4429732404362	175.319293480317	-47.0105158407225	164.081304555006	-22.8738506921163	-15.4361377532753	
2559000000.00008	-19.231678881315	-90.1187976852724	-10.4290187805793	173.077195378038	-46.679139856116	161.715373174314	-22.6933757120963	-14.7020593452507	
2559333333.33341	-19.2309403370272	-91.0654814225322	-10.4282896941545	170.825949863095	-46.7045965020947	157.264985618969	-22.5288622318046	-13.9169807410721	
2559666666.66674	-19.2480522116767	-91.9761644481646	-10.4207250630309	168.554919781824	-46.6174284810924	157.164877474123	-22.3705713841218	-13.22982413557	
2560000000.00008	-19.2491353866564	-92.7698555065479	-10.4177477470468	166.265774222519	-46.4508641214378	152.373291123805	-22.2235698342032	-12.5784214080849	
2560333333.33341	-19.2403134055039	-93.5141294023049	-10.4149319670135	164.00718650635	-46.758178808275	152.737964589139	-22.0237409290173	-11.8363577056064	
2560666666.66674	-19.2426586614428	-94.434334165391	-10.4133286086384	161.725375478965	-46.5978948901699	148.562316982065	-21.8404042052478	-11.1921492604695	
2561000000.00008	-19.2300486734905	-95.1767904698579	-10.3974515180933	159.466958611709	-46.8653125785312	147.502116431835	-21.6902837334955	-10.7646835379385	
2561333333.33341	-19.2084116162724	-96.081646985409	-10.399627752837	157.200682256784	-46.463160922008	145.724993944714	-21.545301202631	-10.2294741465085	
2561666666.66674	-19.1896535227747	-96.8272603488953	-10.3976410578388	154.889930426822	-46.5918329898111	141.383991954642	-21.3842983463469	-9.70436417099009	
2562000000.00008	-19.1482651858998	-97.5832882502008	-10.384388619512	152.610566718088	-46.6139920222009	140.75693774251	-21.2204180721985	-9.2261951764747	
2562333333.33341	-19.1080864202561	-98.2980016330123	-10.3808228659047	150.329718241309	-46.6258780628849	137.745704522076	-21.0713678627133	-8.83250844894909	
2562666666.66674	-19.0688098429548	-99.0447427556837	-10.3799421452208	148.016059602984	-46.8419861777378	134.666828273941	-20.9272927374997	-8.41792701300089	
2563000000.00008	-19.0335349807445	-99.8481089085442	-10.3719153844922	145.692929293624	-46.7104383853977	134.538893929134	-20.759243003841	-8.11187172081518	
2563333333.33341	-18.9723135620488	-100.62072381564	-10.3705288810779	143.418250407092	-46.6778935515657	130.002187651418	-20.6393231041741	-7.61911842833744	
2563666666.66674	-18.9259577605972	-101.271696827252	-10.3671560739142	141.109640188441	-46.8042546719863	127.283621818768	-20.4942050909819	-7.37270176756128	
2564000000.00008	-18.8846013886295	-101.842443102216	-10.3636915159715	138.789901953208	-46.5356777354198	125.153467984858	-20.3618008560318	-7.07644862690231	
2564333333.33341	-18.8205583303467	-102.593236340521	-10.3642408699488	136.471806080837	-46.8343650783709	122.715944157782	-20.2747354460862	-6.89072732605162	
2564666666.66675	-18.7578559164353	-103.204487280556	-10.3598118732871	134.17229586401	-46.7869440609289	121.678290866961	-20.1237190398379	-6.56638647680407	
2565000000.00008	-18.701914299233	-103.851637302869	-10.3555414543546	131.850682377358	-46.325284211149	118.828223560185	-20.0121178696872	-6.25194960166635	
2565333333.33341	-18.6217380692385	-104.628494012696	-10.3575043422519	129.523538269846	-46.4154738786628	116.299297798127	-19.9059715893721	-6.03424401748151	
2565666666.66675	-18.5739194843134	-105.215736521904	-10.3479069054153	127.204757010564	-46.4088144158312	114.802269299153	-19.8080042402666	-5.91712434598896	
2566000000.00008	-18.498135013065	-105.831519534968	-10.349313094768	124.86415792982	-46.7271224493626	111.181742678569	-19.7213968157108	-5.64798931985638	
2566333333.33341	-18.4436331582514	-106.440492040143	-10.3476092569563	122.529123246486	-46.6509041859386	110.254327779117	-19.6154457465349	-5.47225064374597	
2566666666.66675	-18.3736866183227	-107.108441884203	-10.3413568093438	120.175839655787	-46.5593882700542	107.850643016342	-19.5200078042573	-5.31013394504158	
2567000000.00008	-18.3106810674637	-107.766698683255	-10.3444131265814	117.822017705822	-46.6716149317557	104.915667521461	-19.4535123901418	-5.24708225784331	
2567333333.33341	-18.2392107433277	-108.441797841096	-10.3409646915727	115.476673877616	-46.6853703543184	104.004609723118	-19.3523168367719	-5.01651111205171	
2567666666.66675	-18.1653776903505	-109.169918475603	-10.3425274067464	113.075680971043	-46.4468208132885	101.891357925968	-19.2834280216983	-4.94328437111114	
2568000000.00008	-18.097651042258	-109.789206704566	-10.3370316261652	110.764397206237	-46.6359836275512	100.101327940852	-19.2233674048738	-4.69987741819184	
2568333333.33341	-18.0340789302501	-110.347801482315	-10.3394328844382	108.406613435773	-46.5167239105594	97.3968831638657	-19.162335881763	-4.56498467006707	
2568666666.66675	-17.9569573499101	-111.024063270509	-10.3393102778916	106.073494368807	-46.3324506741332	92.5102395184009	-19.0862040364918	-4.52511945532536	
2569000000.00008	-17.8936475830336	-111.730397047722	-10.3436569491907	103.71471088662	-46.6097485552806	90.5820573501289	-19.0324369611466	-4.57972007913086	
2569333333.33341	-17.8236711981548	-112.345345442992	-10.3485673343868	101.354118911399	-46.6296992695679	91.3569892990597	-18.9727819766863	-4.4243506013685	
2569666666.66675	-17.7608165584682	-113.010383713889	-10.3478442133312	98.9436530644921	-46.5840188655799	87.691541975952	-18.9246556351543	-4.32364422295525	
2570000000.00008	-17.6938720334855	-113.598493157954	-10.3411797881585	96.6173123578027	-46.5931602404553	84.8322948981893	-18.8808066320071	-4.14955088535871	
2570333333.33341	-17.6332522354357	-114.359694042747	-10.3540668975459	94.2335751554003	-46.6350406284439	82.9238045317769	-18.8465517330287	-4.148209572036	
2570666666.66675	-17.5808989559595	-114.958054972216	-10.3563486717145	91.9092172681034	-46.6810259840735	79.8832006234458	-18.8083725029679	-4.18161493111439	
2571000000.00008	-17.5248753562011	-115.625981443272	-10.356955392918	89.5362168805835	-46.7331310741923	78.0620503571765	-18.778724440137	-3.9593919624345	
2571333333.33342	-17.4902164216444	-116.365167888234	-10.3635947766145	87.1725732307286	-46.3540732210112	74.8903678705832	-18.7554582025284	-3.86965249638935	
2571666666.66675	-17.4402702732316	-116.926818969932	-10.3608165685915	84.8183374502967	-46.4373991481514	74.7803032160755	-18.7108892085331	-3.9943111493268	
2572000000.00008	-17.3986201129625	-117.645341597369	-10.3646112036475	82.5001120530397	-46.6580094272249	70.9689701607217	-18.7300346129781	-3.91869849245743	
2572333333.33342	-17.3571313093646	-118.360917766455	-10.3681453415942	80.1854593503746	-46.7089175863413	68.7870748905372	-18.6950278070257	-3.86591725362213	
2572666666.66675	-17.3315055221594	-118.916982189285	-10.3731358454257	77.8398789958893	-46.8751793600825	64.6212547950067	-18.6978778061576	-3.80520866039759	
2573000000.00008	-17.2964487711902	-119.613927172823	-10.3791594555228	75.4911737930146	-46.842976696813	65.4877167831527	-18.6846497495392	-3.71625071238028	
2573333333.33342	-17.2828039405324	-120.369948236661	-10.3798867894779	73.1532667627106	-46.3843890988694	63.303722385569	-18.6944034801192	-3.74202254929829	
2573666666.66675	-17.2540528395393	-121.002082659954	-10.3854336146443	70.807347862027	-46.5818786859729	58.7560682407915	-18.6949821955157	-3.61876193603087	
2574000000.00008	-17.2183018289083	-121.600360905265	-10.3843229157013	68.4553695882491	-46.5776019498102	54.8526005301972	-18.7129704851787	-3.70307182462915	
2574333333.33342	-17.1832781743073	-122.404102402355	-10.3899442193007	66.1029653892428	-46.7971957549241	54.5167216035345	-18.7180174448292	-3.81779416761699	
2574666666.66675	-17.1666153215414	-123.168432296694	-10.3918979881178	63.8396499260484	-46.5037917961996	53.4284033114094	-18.7096454285366	-3.77947875383505	
2575000000.00008	-17.1563801656731	-123.786840429999	-10.3946149529993	61.468704386181	-46.6050612319428	50.7454735794303	-18.7464016470505	-3.75790548860778	
2575333333.33342	-17.136257612353	-124.6311077248	-10.4014448338343	59.1968052592101	-46.752495156378	48.8607843679633	-18.772019043277	-3.7350291596082	
2575666666.66675	-17.1348214685835	-125.210922445138	-10.3982907016182	56.8897912482228	-46.5584513483968	45.7890686871529	-18.7766035761974	-3.64688365600117	
2576000000.00008	-17.137564664098	-126.106662049443	-10.4036877624391	54.5825913280139	-46.554691194483	44.1910681512976	-18.8488156350234	-3.68429114187849	
2576333333.33342	-17.1376396103045	-126.861731667287	-10.4037830360421	52.2760075205431	-46.4887648686085	42.0978597743298	-18.8596900826079	-3.86765068777988	
2576666666.66675	-17.1535189427695	-127.570241470837	-10.4079416270632	49.9505094475829	-46.6772473474003	37.7695944570684	-18.8973158378043	-3.86882982479135	
2577000000.00008	-17.1609433652424	-128.278808966076	-10.4039023298194	47.6748886430074	-46.6994282878555	37.3338877371325	-18.9406938618491	-3.95797217965703	
2577333333.33342	-17.1841314809773	-129.100501433172	-10.4104900978048	45.3822648236201	-46.5794343463271	33.4948045910976	-18.9773189130302	-3.91878975795191	
2577666666.66675	-17.2207409801664	-129.733694050362	-10.4034499286123	43.0974156156636	-46.8979471735192	32.7808741200421	-19.0245073245132	-4.01074518526888	
2578000000.00008	-17.2556232780675	-130.602735835887	-10.4038884190294	40.8457016460897	-46.7337443033021	27.7204723539347	-19.078222541499	-4.24090241036087	
2578333333.33342	-17.284912850495	-131.399570999098	-10.4097505264122	38.5181405045061	-47.1167666092432	25.6753766113898	-19.165981778638	-4.27737732251877	
2578666666.66675	-17.3185959810229	-132.385323419061	-10.4078279248919	36.2730894588524	-46.7684595620792	27.3814228780899	-19.2068980952014	-4.37960701256089	
2579000000.00009	-17.3761904155169	-133.076683644578	-10.4067707473281	33.9827301976058	-46.7368436306952	22.9644094317598	-19.2757258777024	-4.4262182674368	
2579333333.33342	-17.4401114610158	-133.867509950119	-10.4050301240794	31.7298806331893	-46.6215150931764	20.3467169817897	-19.3637890387601	-4.50363449983513	
2579666666.66675	-17.4981887876272	-134.727112042169	-10.4008485911468	29.4993323765153	-46.6493231070993	18.7075157454335	-19.4188419411294	-4.66576308529086	
2580000000.00009	-17.5657677367457	-135.702464689445	-10.4031344312678	27.2042457716107	-46.5091101016605	16.3686635540224	-19.5413811465223	-4.83629144350438	
2580333333.33342	-17.6355560424572	-136.391379244187	-10.4000580973128	24.9509122207301	-46.8648951667116	14.4623895670247	-19.6048435101517	-5.04577528156245	
2580666666.66675	-17.720761096841	-137.268251598624	-10.4047952724082	22.6971576586513	-46.6395975520546	11.1428422861955	-19.6967631593969	-5.30896935851126	
2581000000.00009	-17.8059916024157	-138.219125900073	-10.3996402738423	20.423922252991	-46.6461776374174	8.34091587535592	-19.819286346259	-5.41383058791428	
2581333333.33342	-17.8778180463803	-139.123613492923	-10.4064098165605	18.1696643654258	-46.897274292712	6.64911507955439	-19.904065905911	-5.67499806778339	
2581666666.66675	-17.9842139077658	-140.042011305954	-10.3910817315791	15.9149656052615	-46.8295642913326	4.4922560744128	-20.0116190447642	-5.84321321548879	
2582000000.00009	-18.0735069931008	-140.956415177688	-10.3948938814425	13.6572638872249	-47.0294694010259	3.04401258592017	-20.1133453310986	-6.13523659533613	
2582333333.33342	-18.1920349693617	-141.654568036159	-10.3902168732726	11.3914901023558	-46.7458590225098	-0.435401863366644	-20.2600173882683	-6.47297253413057	
2582666666.66675	-18.2560809908155	-142.569855681886	-10.3985879814151	9.09630606849896	-46.6655258726429	-0.387396981081809	-20.3666587974879	-6.58600936413291	
2583000000.00009	-18.3799180049253	-143.381046921147	-10.3950605872081	6.88475819130798	-46.8947635134248	-5.18915270036773	-20.507857702124	-7.10843121065616	
2583333333.33342	-18.4643810907381	-144.448663360398	-10.3911213690991	4.64833457903826	-46.8842200409666	-6.95657899680324	-20.6363135118317	-7.44175207524315	
2583666666.66675	-18.5794666833845	-145.317397746354	-10.3878998777805	2.36093943906215	-47.1898369256866	-9.62347725290031	-20.7699347812553	-7.62775831808779	
2584000000.00009	-18.7158757355369	-146.181263615552	-10.389634248833	0.137304597749396	-46.7638549891446	-12.7673897066821	-20.931364008985	-8.08137604488724	
2584333333.33342	-18.8606205777615	-147.083659814274	-10.383500816571	-2.11204091067914	-46.902401984248	-13.9392638376761	-21.0963137897266	-8.38864151360045	
2584666666.66675	-18.9585874159903	-148.00951074049	-10.3799241349768	-4.38917711244223	-46.9197742595942	-15.736297355764	-21.2788368107608	-8.89458412887788	
2585000000.00009	-19.1041886700739	-148.910386780798	-10.3801558454344	-6.65478205427243	-47.0167923680886	-17.5375105728104	-21.4241783401965	-9.21970425445564	
2585333333.33342	-19.2630800056992	-149.816689605988	-10.3722972989215	-8.88394826705491	-47.0253004579662	-23.2674758327353	-21.5913532880744	-9.80218678870743	
2585666666.66676	-19.3846089389267	-150.860894176135	-10.3683455374506	-11.1509594463302	-46.7465720480256	-23.3768228551252	-21.7653749124003	-10.205843593648	
2586000000.00009	-19.5122129852997	-151.610398983396	-10.3726873905073	-13.3886542112082	-46.9772275000493	-25.6333605290427	-21.9599458545101	-10.6561945069069	
2586333333.33342	-19.6814956146578	-152.593658234424	-10.3705120131673	-15.6302769248847	-47.0928652461147	-29.3649018865346	-22.1696233087862	-11.1904980761508	
2586666666.66676	-19.8358345667593	-153.579540141168	-10.3738459363511	-17.8766719576541	-46.8617717875488	-28.7490357677724	-22.3455802249246	-11.7525006181068	
2587000000.00009	-19.9743164828287	-154.597611119479	-10.3596988152121	-20.1334534886959	-47.0358786238984	-30.9349679182012	-22.5782498844726	-12.4941670706922	
2587333333.33342	-20.1004655031845	-155.404503656781	-10.3657213207364	-22.3393059306751	-47.0744124924066	-33.4997282991961	-22.7822004760982	-12.7845456825159	
2587666666.66676	-20.2717412720709	-156.277244900148	-10.3599044658872	-24.6445736678149	-46.8852336208026	-36.3546604830761	-23.0131033767102	-13.5009195610658	
2588000000.00009	-20.4185725166136	-157.420116872206	-10.3653176009443	-26.887241795416	-46.7666109299585	-37.6166978425524	-23.2368960059277	-14.0094038339062	
2588333333.33342	-20.5834351960278	-158.377031948886	-10.3604703398628	-29.182538165274	-46.9500174881739	-41.2284334115798	-23.4863182932757	-14.8090451508824	
2588666666.66676	-20.7452808862718	-159.291124476628	-10.3527258334953	-31.4292153283466	-46.7787910737972	-42.957507922393	-23.7258670324654	-15.5599609638594	
2589000000.00009	-20.8983179542564	-160.363335245581	-10.3548639527461	-33.6929136787233	-46.8615214599673	-44.6226309443358	-23.9951275612696	-16.1668004490928	
2589333333.33342	-21.0446511141156	-161.344456562337	-10.3547537417614	-35.9605082719872	-46.8547363892039	-47.4749764155413	-24.2492942455189	-17.1972894833229	
2589666666.66676	-21.205308771118	-162.395415569688	-10.3569349096956	-38.2071179113052	-46.7382525106187	-48.0439129511795	-24.519979055877	-17.8289183260669	
2590000000.00009	-21.3307948629567	-163.455350831329	-10.3484647985481	-40.476436433138	-46.5194290563757	-52.2107974606843	-24.8341723251478	-18.8405866590867	
2590333333.33342	-21.4703702704144	-164.583167207474	-10.351134258855	-42.7386335518232	-46.9575569882083	-55.1588908138722	-25.0851213102986	-19.6175715967025	
2590666666.66676	-21.6288857551669	-165.731146509768	-10.351198107016	-45.0242068375833	-46.7911794688729	-55.3347531218161	-25.3851893499898	-20.6596328610876	
2591000000.00009	-21.7748057210942	-166.80322411145	-10.3474584422636	-47.2931804096073	-46.955448078308	-58.4883892626243	-25.6845336967335	-21.488873203507	
2591333333.33342	-21.9074871935715	-168.014984798264	-10.3450980376139	-49.5846804287303	-46.84920878738	-62.124029698306	-26.0042983511354	-22.5890994847361	
2591666666.66676	-22.045459231229	-169.144815676733	-10.3394119216161	-51.8375388856498	-46.7246593744794	-63.2182512929232	-26.3300396407335	-23.4471123224303	
2592000000.00009	-22.2120334863819	-170.484945350181	-10.3410422231047	-54.1268679875782	-46.8875616651378	-66.0625767654134	-26.7121222280119	-24.6390788373907	
2592333333.33343	-22.3369951107581	-171.685764881451	-10.3363316521582	-56.4378479702991	-46.4740700246272	-67.7912406212097	-27.045724927839	-26.0324796637923	
2592666666.66676	-22.4342754402845	-173.137053237284	-10.3392497484305	-58.7396589923179	-46.6209004714407	-69.0582610739687	-27.3926243634404	-27.181740171753	
2593000000.00009	-22.549176053005	-174.356026055307	-10.3342133191883	-61.0150189369777	-46.7660337039745	-71.7023056518727	-27.7727098373107	-28.5039861464605	
2593333333.33343	-22.6547086817047	-175.775017948984	-10.3329087333633	-63.2855774853534	-46.506163660342	-74.6726755988625	-28.129098985026	-29.9191575922527	
2593666666.66676	-22.748287360033	-177.143431596419	-10.3327368663362	-65.592456588588	-46.8457132787407	-75.8738037951087	-28.49406683797	-31.4016344218771	
2594000000.00009	-22.8557607281761	-178.826145871372	-10.3269796391166	-67.886925412931	-46.7445490008675	-78.9914153461845	-28.9393509071467	-32.8993780791375	
2594333333.33343	-22.9358123795686	179.70320807893	-10.3283396703416	-70.2244723847282	-46.7615073826905	-80.9762495673355	-29.3119931323806	-34.179564152264	
2594666666.66676	-22.9966763502287	178.262943205247	-10.3256339255807	-72.490450404842	-46.8475340553956	-83.918960978101	-29.7193647581686	-36.0021906531136	
2595000000.00009	-23.0216699641319	176.480033045389	-10.3260001972607	-74.7650005641172	-46.3569171934182	-84.4037100776415	-30.1876782300968	-37.6444322728114	
2595333333.33343	-23.0982916371323	174.758921443249	-10.3296182639684	-77.0690710309658	-46.6737648352802	-88.4363395502548	-30.5689057134687	-39.5431431671357	
2595666666.66676	-23.1127499157662	173.236344667135	-10.3209171210173	-79.3691862369208	-46.5361672515552	-87.9269876583719	-31.0336179219366	-40.4431470271829	
2596000000.00009	-23.1298696270398	171.381200102681	-10.3206814314559	-81.6700646252112	-46.8664839131584	-92.8896291463099	-31.5440965156401	-43.0587861137357	
2596333333.33343	-23.1050344419823	169.699168911857	-10.3174718801797	-83.9610214622009	-46.9092170179315	-94.9664871714581	-31.9362359426465	-44.633407171209	
2596666666.66676	-23.103203859174	167.787746851678	-10.3203473165352	-86.2375506654545	-46.7615284654441	-96.5278285098133	-32.3593554044651	-46.858078308063	
2597000000.00009	-23.0964735097939	166.029854488518	-10.3255931441127	-88.5317775070509	-46.7008892234016	-101.144044854863	-32.8100915303546	-48.9895858850511	
2597333333.33343	-23.0456611510304	164.087623810118	-10.3190292856458	-90.8468391694758	-46.696175110554	-101.286733699029	-33.384064001303	-50.5910040110304	
2597666666.66676	-22.9920972378855	162.504575702419	-10.3158094175388	-93.1368532855231	-46.4967504409384	-106.319071798092	-33.8446686796583	-53.1242383857714	
2598000000.00009	-22.925013874191	160.450367730014	-10.3187769493335	-95.4574474255142	-46.5548275747926	-106.374701483885	-34.4117143458869	-54.422605463251	
2598333333.33343	-22.8338284767307	158.529074235502	-10.3203518439461	-97.7377479972677	-46.6705797540603	-107.607624574762	-34.8485502927851	-57.3192786155391	
2598666666.66676	-22.7460938230888	156.632903770434	-10.3265248743071	-100.060867295418	-46.3832913040358	-111.242320033076	-35.3308397509499	-59.9150747671466	
2599000000.00009	-22.6296491746618	154.718079733517	-10.3260922342349	-102.326183855331	-46.352871584765	-114.516645487061	-35.8281778686233	-61.6580020348488	
2599333333.33343	-22.5098268446971	152.755668706086	-10.3334207507923	-104.646001476102	-46.524169384954	-116.658486714428	-36.4227537993671	-63.4755510415886	
2599666666.66676	-22.3801478330023	150.946420504679	-10.3314023559447	-106.937815501794	-46.4199410528826	-116.819072153763	-37.0241306692525	-65.583255332179	
2600000000.0001	-22.2509543487201	149.066757993994	-10.3384750436529	-109.252275315278	-46.4240633859384	-120.932712316872	-37.5031064787178	-67.6258125544502	
