!Agilent N9923A: A.05.34
!Date: Friday, 25 March 2016 20:46:26
!Model: N9923A
!Serial: MY51491690
!GPS Latitude: 
!GPS Longitude: 
!GPS TimeStamp: 0001-01-01 00:00:00Z
!GPS Seconds Since Last Read: 0
!CHECKSUM:2058266155
!Correction: S11(ON U*)S21(ON U*)S12(ON U*)S22(ON U*)
!S2P File: Measurements:S11,S21,S12,S22:
# Hz S DB R 50
2400000000	-16.2597611710856	178.149995761441	-9.79267081212848	149.213277521873	-46.8293548361928	135.767217528845	-20.5526325070945	3.78402701564128	
2400333333.33333	-16.2665520335522	177.158797796475	-9.7914510425277	146.865983679917	-46.7562419045128	133.671887111878	-20.6545974948669	3.31018322897321	
2400666666.66667	-16.2953280899086	176.170640806301	-9.78832018321053	144.610294349972	-46.7247293827041	130.228812877435	-20.7475679516091	3.03402032277757	
2401000000	-16.321244449529	175.002505277146	-9.7871954916435	142.311834440711	-46.6554540470899	130.080276148908	-20.8437139042509	2.48361191490335	
2401333333.33333	-16.3556604523571	173.951956014378	-9.79096055516528	140.027523800077	-46.6760319868715	126.84840214176	-20.9537724279329	2.20191118766291	
2401666666.66667	-16.3917235387612	172.907067305385	-9.78548337460354	137.724373845994	-46.7445501659732	125.126560837443	-21.0742770154533	1.59965048834314	
2402000000	-16.4059889706058	171.710403897795	-9.7814073977305	135.38417939493	-46.6478273659841	123.797962035494	-21.2072099094288	1.24174946577738	
2402333333.33333	-16.4390213684968	170.660987234181	-9.77876844680837	133.116618795646	-46.9739391859642	122.211733063744	-21.3585863815463	0.734282144202678	
2402666666.66667	-16.4668631559044	169.40657261305	-9.7834836535482	130.800131313195	-46.6705527381007	117.240168505843	-21.4900534069573	0.209392756224196	
2403000000	-16.4952289258714	168.305167281577	-9.78704974036419	128.480465368787	-46.7092279861302	114.451700323904	-21.6507971024566	-0.244671088453541	
2403333333.33333	-16.5138930577652	166.993874531723	-9.78769583743108	126.173507667194	-46.7978431100546	113.895442101099	-21.817505682431	-0.800028324483221	
2403666666.66667	-16.523536959647	166.023949519366	-9.78282645586191	123.886047025957	-46.7318511004871	110.9544027904	-21.9511078333647	-1.31982105845258	
2404000000	-16.568643698314	164.723902599095	-9.78474541035903	121.602162692323	-46.7953989541988	110.295505742253	-22.1246638336731	-1.87530801043433	
2404333333.33334	-16.5959968091325	163.520953061107	-9.78586054601778	119.294904197829	-46.5728724669938	107.979426673137	-22.2556402144773	-2.44562085852357	
2404666666.66667	-16.610827296075	162.329695709053	-9.78883846777373	117.034886882071	-46.6938065327875	105.433135694071	-22.4533507969983	-2.98269143399085	
2405000000	-16.6327893888456	161.067417964297	-9.79559281603462	114.68028638824	-47.0481973884109	103.374170572946	-22.6213406008984	-3.59217985057353	
2405333333.33334	-16.6434028311522	159.867417406689	-9.78815790062871	112.409474477458	-46.8766278143024	101.703597747668	-22.8077278194799	-4.09987886208091	
2405666666.66667	-16.6523388783141	158.658757909584	-9.7934544256687	110.129968296732	-47.0131612517545	97.6897301778816	-22.9972131962915	-4.76498575959526	
2406000000	-16.6657213531502	157.467661639901	-9.79797472811633	107.86717579783	-47.107496866569	95.0863698237066	-23.1972327531382	-5.39991760380833	
2406333333.33334	-16.6731832966132	156.21173039778	-9.80855773604528	105.580854548252	-46.9014773518887	93.9177839784691	-23.370492605189	-5.93213831176877	
2406666666.66667	-16.6986061450564	154.943382570598	-9.80166145208837	103.300672054994	-46.6588016029343	91.613951892024	-23.6229915039928	-6.53721886533874	
2407000000	-16.6980180157456	153.728059904658	-9.8073932042255	100.984377603905	-47.0226133037901	89.8311900578032	-23.8098522879688	-7.23591225460375	
2407333333.33334	-16.7068136372834	152.50047362881	-9.809123464825	98.7305314750145	-47.1420578385688	87.0716894322842	-23.9874235732539	-7.72956598984184	
2407666666.66667	-16.6888599816425	151.206639643509	-9.81709424163243	96.4683205488788	-46.8903993600347	85.3559611581	-24.2316167507984	-8.59699793275322	
2408000000	-16.7018686394747	150.034224648026	-9.8216183650136	94.203783947263	-46.7541448162154	81.8011361248184	-24.4434331366914	-9.26296690840103	
2408333333.33334	-16.6972898319785	148.761722126861	-9.82940082835037	91.9239859642496	-46.6702693856542	80.9197312468485	-24.6671004164021	-9.83225036837705	
2408666666.66667	-16.6877231537063	147.645156523119	-9.83399869966004	89.662903437474	-46.8577973468538	76.0237990244313	-24.8785409251786	-10.3298069079808	
2409000000	-16.6678029423833	146.394128881867	-9.8357439922503	87.4211679089341	-47.0874170864505	74.7150001898857	-25.109721383383	-10.9485079592666	
2409333333.33334	-16.6652884063214	145.272468134321	-9.84678763428733	85.1612324585875	-47.1209392175613	75.1078467530963	-25.3238811069555	-11.9032378069083	
2409666666.66667	-16.636745106962	144.010418986541	-9.84803954168242	82.9100093870462	-46.8564560617964	70.8055602664716	-25.557051214271	-12.2920761289048	
2410000000	-16.6265560920199	142.797750549985	-9.85387403470138	80.6499368007802	-47.0948101671306	68.5319896260071	-25.8019719991214	-12.9286849295278	
2410333333.33334	-16.5930254198265	141.726039885671	-9.86467740002275	78.3945848520662	-46.9862422885018	67.2485686961484	-26.0496342440932	-13.7509271701849	
2410666666.66667	-16.5866205806447	140.520515819311	-9.86493734183825	76.147458498212	-47.128900664519	65.5708335727959	-26.2517518315313	-13.9991090294145	
2411000000.00001	-16.5608587323996	139.31548155448	-9.8764791657648	73.9020791585795	-46.9303471776771	62.1697156729653	-26.4618596461077	-14.683802135036	
2411333333.33334	-16.5238742817993	138.199836910714	-9.8861709599962	71.64934417814	-46.9504387027195	57.778302390784	-26.6919984726708	-15.4156229813327	
2411666666.66667	-16.4834367880789	137.112249772732	-9.8966994528665	69.4243979078328	-47.1182096480874	57.3017939997663	-26.9342868976872	-16.0287193626963	
2412000000.00001	-16.4462769986639	135.962798409974	-9.9051487207789	67.1879473547805	-47.1186629811916	55.7173275356194	-27.1608958181654	-16.3906638618777	
2412333333.33334	-16.40470253447	134.772138176609	-9.90736984666188	64.9218623106898	-46.999853574663	55.4144819513524	-27.3862334972558	-17.2600060310445	
2412666666.66667	-16.3619342974101	133.639750012669	-9.91630459781454	62.6896350888215	-46.8586701285212	49.088239599286	-27.6055952965182	-17.5462613620075	
2413000000.00001	-16.3157054865018	132.439170760135	-9.93021469311116	60.5067147838098	-47.3418229838418	48.9531325590637	-27.8151911786299	-18.1490696274237	
2413333333.33334	-16.2575426146776	131.258343175482	-9.93355552965978	58.1873555853098	-46.9777108918886	46.116088876126	-28.0058690976606	-18.7039282895212	
2413666666.66667	-16.2016228290101	130.197054976262	-9.94326192080113	55.9484188954715	-46.8419205482531	42.0320072067748	-28.2127697680943	-19.017740861208	
2414000000.00001	-16.1461445085996	129.130661760723	-9.94865272067622	53.7698542790307	-46.7497725913281	41.1865310504873	-28.383821757585	-19.4655382743795	
2414333333.33334	-16.0837771647635	128.041290723465	-9.96272278263218	51.4894993671871	-47.2882777349378	36.4703651267234	-28.5716630623869	-19.9811745113559	
2414666666.66667	-16.013675341314	126.989909197583	-9.97014136877601	49.2857806289426	-47.0187430856325	36.7360396634578	-28.7677757520313	-20.2453271626849	
2415000000.00001	-15.956381818335	125.917833182351	-9.9832438895061	47.0448027724443	-47.0245009192379	34.1468239110701	-28.9079105793882	-20.3705231990593	
2415333333.33334	-15.8922812584736	125.012167839245	-9.99674667971088	44.8272701872743	-46.8457284629828	31.0480436100777	-29.0809095799691	-21.0493969384205	
2415666666.66667	-15.8126191268563	124.059757349094	-9.9996867213999	42.5806694513868	-46.9833923317792	30.8666355640421	-29.1498747142958	-21.1589398914949	
2416000000.00001	-15.7496363432234	123.102317689034	-10.0120464914869	40.3992007945352	-47.1048594914346	28.703979127904	-29.2681356587923	-21.5622185371862	
2416333333.33334	-15.6741037380407	122.118039433294	-10.0247869490731	38.1751634298765	-46.8754029326774	25.51018800911	-29.3863702483937	-21.4376999514819	
2416666666.66667	-15.6040223016872	121.163817038838	-10.028825132149	35.9071304586482	-46.9125536910078	23.1322912885796	-29.5266668743415	-21.6178212059673	
2417000000.00001	-15.5304384501164	120.345989549213	-10.0430186037343	33.682066407875	-47.446895274019	18.3559536827758	-29.5770146943599	-21.7849357970015	
2417333333.33334	-15.4609273065503	119.400294269862	-10.0514203996066	31.4664510239526	-47.2107791668696	16.2788271930936	-29.6080684190696	-21.6560833512181	
2417666666.66668	-15.387274439782	118.564940074057	-10.0669521720371	29.2268039864191	-46.898939883219	14.8538372203553	-29.6396085623344	-21.5269416253899	
2418000000.00001	-15.3101724535517	117.702371581003	-10.0766031637521	27.0160105157953	-47.0502901281233	15.1882261532798	-29.6782884818579	-21.5149569702009	
2418333333.33334	-15.2333089034267	116.835484338719	-10.0810634139118	24.7999579813012	-47.0043433877495	12.2497567270847	-29.7080229275375	-21.4036141289183	
2418666666.66668	-15.1533831369343	115.95529977489	-10.0979757624682	22.5479613085055	-47.1839730079591	7.9117579072503	-29.6121183612705	-21.0003175051429	
2419000000.00001	-15.0709174453452	115.125073263868	-10.1040811266841	20.3051785012695	-46.8150926162144	7.43049493530269	-29.5667213487677	-21.3621904659581	
2419333333.33334	-14.9917103195205	114.25319048806	-10.1106499243917	18.1351062133921	-47.1206742575553	4.00098577081021	-29.5241664523699	-21.128121699387	
2419666666.66668	-14.9175970309384	113.463333871032	-10.1283022145481	15.901752074625	-46.746641170502	2.35111832670371	-29.4974681900504	-20.772395536575	
2420000000.00001	-14.8363137982242	112.671432575739	-10.1363754718171	13.682858899906	-47.4215013700549	-0.0159422523395985	-29.3772552930821	-20.7861605095783	
2420333333.33334	-14.7586010972868	111.8565627082	-10.1436295844467	11.4388418451158	-46.8468601949645	-2.0406533528293	-29.2733476342665	-20.4840907089634	
2420666666.66668	-14.6869974478912	111.140215098692	-10.1546224312091	9.20938907570108	-46.8893186451047	-3.69646818293103	-29.1541204591781	-20.4376178325305	
2421000000.00001	-14.6185466095074	110.414174418421	-10.1657265379862	6.98555966969954	-46.8270198937798	-6.63054536387498	-29.001724200242	-19.941066086792	
2421333333.33334	-14.5388379008152	109.653935408895	-10.1709974544872	4.72837633208669	-47.1953836408317	-7.85563367259069	-28.8542231988146	-20.0141084280308	
2421666666.66668	-14.4763007397572	108.94523397179	-10.1789977434525	2.49371677864715	-46.8187083682391	-10.2979316757604	-28.6682010864007	-20.1306322268694	
2422000000.00001	-14.4093923679676	108.256560607185	-10.1913460331653	0.277273999224693	-46.840843060489	-13.5034778443548	-28.5296071371652	-19.7303710720973	
2422333333.33334	-14.335374971198	107.592718897158	-10.1929783585655	-1.9447575706623	-46.7697563873323	-15.382210592583	-28.3410290006593	-19.8193569892128	
2422666666.66668	-14.2734267586251	106.878193274227	-10.2059010298138	-4.18714366296128	-46.9790935143725	-18.7294105936959	-28.1269027261945	-19.7875629278387	
2423000000.00001	-14.2143779399581	106.276397828776	-10.210459107302	-6.45034855237284	-46.9765800003163	-22.4123779263685	-27.9629212177829	-19.5836458687971	
2423333333.33334	-14.1525570405007	105.650395970888	-10.2243263122348	-8.69795753671776	-46.7237201809262	-21.3454007998901	-27.7594583554188	-19.6551844176907	
2423666666.66668	-14.1018445898473	104.987868700776	-10.2241526102417	-10.925590658348	-46.8012703452566	-26.5671210883024	-27.5353034938563	-19.4255724121456	
2424000000.00001	-14.0378358574785	104.338786928976	-10.2398321598969	-13.1898673318272	-47.2702784658786	-28.2876595202036	-27.3165653022255	-19.5871544700984	
2424333333.33334	-13.9829345758816	103.801483273334	-10.2359438344256	-15.4137956092972	-46.987271647406	-29.3973493134084	-27.0738632511626	-19.6374342195905	
2424666666.66668	-13.9345420526776	103.18929278467	-10.2444246993808	-17.6418235893018	-47.0592354537041	-32.3560352550703	-26.8507601364479	-19.7197101454185	
2425000000.00001	-13.889947021229	102.672587645541	-10.2516048377121	-19.9235190843055	-47.1064100467084	-32.10886409976	-26.6259754937024	-19.6511251864703	
2425333333.33335	-13.8360681611848	102.158416254383	-10.2548763133736	-22.1604142315856	-47.0482446573362	-34.6817049396489	-26.3974593738952	-19.7716994304398	
2425666666.66668	-13.7985030891645	101.584426372491	-10.2637458503697	-24.4323820313433	-47.1479976986843	-37.3557947782996	-26.187184856719	-19.8342340133167	
2426000000.00001	-13.7401942886743	101.114253970369	-10.2704059610192	-26.7064558813715	-47.2513030514825	-40.6445922458415	-25.946767895076	-20.041990006183	
2426333333.33335	-13.7049567131484	100.601586445435	-10.2741774982357	-28.9549082528869	-47.0248868328391	-44.9187390351309	-25.7296454556174	-19.9565792662034	
2426666666.66668	-13.6633436089532	100.150900246994	-10.2769230766139	-31.1799550101768	-46.9292250263042	-43.675426763123	-25.4987311609616	-20.2127456184962	
2427000000.00001	-13.6285131831442	99.6292970010617	-10.2787327295948	-33.4650049100512	-47.034631259879	-46.3124668542178	-25.2724932333549	-20.1944639768089	
2427333333.33335	-13.5911970875746	99.2084346360481	-10.2855599765766	-35.7389803902177	-47.1832581710768	-48.7594391980383	-25.0665992025512	-20.561999074351	
2427666666.66668	-13.5549448218112	98.8086800731045	-10.2935593072135	-38.0180165460179	-46.894287438132	-50.0647643282266	-24.8372948075586	-20.5454162823875	
2428000000.00001	-13.5236540916304	98.3442017761348	-10.2941265401396	-40.3137749596086	-46.8894466187456	-52.7566930052174	-24.6511101498475	-20.8533013425662	
2428333333.33335	-13.488400358906	97.927978565196	-10.3051644726743	-42.5358187782482	-47.1909153591545	-56.7387299341942	-24.4379520643352	-21.0078486051376	
2428666666.66668	-13.4636693174722	97.4793966729653	-10.306644052476	-44.7846399867652	-47.1383366754665	-58.8369615701702	-24.2446396764192	-21.3720825104353	
2429000000.00001	-13.4285562657208	97.074087635309	-10.3093540631923	-47.079880844806	-47.0223260178043	-58.4495432679055	-24.0520379587915	-21.6146947434563	
2429333333.33335	-13.3988328677073	96.7120272883417	-10.3108931775545	-49.3387905399294	-47.0914513498563	-61.4170222421173	-23.8710304752903	-21.8725386686454	
2429666666.66668	-13.3752358203579	96.3163170387077	-10.3167249977271	-51.6350666593185	-47.3128580997674	-63.3539167628621	-23.6786453959903	-22.1179197265886	
2430000000.00001	-13.3516456971524	95.9368284827728	-10.3220858875982	-53.8834945461353	-47.2792957564189	-65.6925913316823	-23.5034789862434	-22.3439595093905	
2430333333.33335	-13.3238776155192	95.6260275200718	-10.3224829130618	-56.0831270075628	-47.367425898644	-67.6407520249637	-23.3486005294466	-22.8101909334641	
2430666666.66668	-13.2973973436552	95.1915183808843	-10.329766596432	-58.3669079672253	-47.2901278313667	-70.9924982262742	-23.1723575998777	-23.0663816489642	
2431000000.00001	-13.2705133738691	94.8720880581703	-10.3275103251369	-60.6287405396315	-47.0892467946897	-75.3023070698117	-22.9990467356594	-23.2051411332953	
2431333333.33335	-13.257341728819	94.5650269756908	-10.3387931367206	-62.8648959189375	-47.2809113170179	-76.9928408434864	-22.8513998620437	-23.4894792410062	
2431666666.66668	-13.2387245730999	94.3491630358642	-10.3407740895585	-65.0879332087572	-46.9314111454529	-78.3618090076414	-22.7000644171294	-23.729536501517	
2432000000.00002	-13.2272737929918	94.0103683435449	-10.3401540245865	-67.3464491255152	-47.3906761114006	-79.9451005194605	-22.5520157905185	-23.7586437320921	
2432333333.33335	-13.2029906697084	93.7763719176086	-10.3491029119391	-69.5822630598793	-47.4117629187438	-82.4164892752353	-22.4084480354475	-24.1354407070862	
2432666666.66668	-13.1989735908761	93.454965291671	-10.3485081798176	-71.8419884550562	-47.4174027934584	-83.6768926501753	-22.2716973101715	-24.2733040943381	
2433000000.00002	-13.1879400535375	93.1879719640233	-10.3546866223589	-74.0981581661515	-47.4234951687287	-85.559167525967	-22.1395058566918	-24.4759459919571	
2433333333.33335	-13.1572760542937	92.8740361327389	-10.3520345590433	-76.3228803290608	-46.9805211147428	-88.6628651262604	-22.012945362554	-24.7521332045093	
2433666666.66668	-13.1498293951597	92.6018886847816	-10.3545796601618	-78.5068501804607	-47.260865855279	-90.5301213557482	-21.9215727981652	-24.9841311936056	
2434000000.00002	-13.1444618147784	92.2826864141872	-10.3602991917572	-80.7673927135849	-47.5182314977251	-92.9627802338775	-21.7992399534468	-25.1434744520154	
2434333333.33335	-13.131336542504	92.066430431355	-10.3574873448461	-83.029463108601	-47.2041962109692	-97.399611170263	-21.7042724144539	-25.2693055892672	
2434666666.66668	-13.120043954022	91.6916388374045	-10.3603654765989	-85.2100000653043	-47.0540584199381	-98.629355139281	-21.6142262075627	-25.5228714537278	
2435000000.00002	-13.1134374444788	91.3973063175183	-10.3602136148179	-87.4381340731258	-47.2521002826879	-99.8802425139105	-21.4835019092945	-25.7498569711114	
2435333333.33335	-13.1023000849557	91.0316257208671	-10.3612546903109	-89.6803127638757	-47.1818895856903	-100.368761779237	-21.4332593276411	-25.91872622811	
2435666666.66668	-13.0955236689853	90.7029482981599	-10.3592634203337	-91.8904289319309	-47.2433051661536	-104.7358728957	-21.3501523144188	-26.1560285530058	
2436000000.00002	-13.0925944784242	90.4030539193635	-10.360631286097	-94.1213364439896	-47.104763586631	-106.787635394896	-21.2875673846911	-26.447118195874	
2436333333.33335	-13.0786644124771	90.0723038926333	-10.3573256780642	-96.3569251649458	-47.2724734370108	-110.270645506595	-21.2297522382344	-26.4844478340534	
2436666666.66668	-13.0789935709836	89.773547315666	-10.3556913451336	-98.5435544836972	-47.0995790101877	-110.952360138548	-21.1686412863262	-26.6088247544853	
2437000000.00002	-13.0654126072724	89.3557148057386	-10.352899442031	-100.777301401865	-47.281647255744	-114.656228193314	-21.1088411028785	-26.9069186166125	
2437333333.33335	-13.0569426043242	89.0539280614572	-10.353155676085	-102.976178884049	-47.3690538760754	-116.561828768205	-21.0686206070171	-26.9774196568271	
2437666666.66668	-13.0497999552794	88.6504462256428	-10.3488653322921	-105.224288839872	-46.9705363029783	-117.601516995103	-21.0399910544693	-26.9942680226638	
2438000000.00002	-13.0507669761544	88.2726215797638	-10.3420524996553	-107.401590391132	-47.2166395207662	-118.854850297161	-21.0165899022661	-27.1068166333275	
2438333333.33335	-13.048027677516	87.9210241811523	-10.3419180664486	-109.604569758099	-47.5551348372874	-122.106935989087	-20.9709449564567	-27.3004319622561	
2438666666.66669	-13.0565146060681	87.5825905752555	-10.3341156146691	-111.852056377178	-47.2250135149947	-125.941888438119	-20.931939156507	-27.354826539156	
2439000000.00002	-13.0527215966405	87.1267592042444	-10.3280461121747	-114.085720389203	-47.4435765025659	-125.821453642113	-20.9313400003401	-27.5638574394044	
2439333333.33335	-13.0419213653976	86.7657550753581	-10.3270762086889	-116.258137684725	-47.5014918048074	-128.786765602073	-20.9346810950998	-27.6120134987737	
2439666666.66669	-13.0452271851057	86.3879474337152	-10.319695733254	-118.510342460323	-47.3317654278788	-130.363173595189	-20.9536663114753	-27.5327286357678	
2440000000.00002	-13.0450849353737	86.0074302417467	-10.313798479446	-120.704505397715	-47.3172471138614	-134.069832050011	-20.9470310487371	-27.6097896839494	
2440333333.33335	-13.0450400118462	85.5606250998647	-10.307503097693	-122.851212794071	-47.5486331183007	-134.579115195732	-20.9473051762616	-27.6945759850432	
2440666666.66669	-13.0361446206231	85.1897018038425	-10.2987547044428	-125.162261247312	-47.2369216447596	-136.109125652076	-20.9835643058776	-27.7537303187531	
2441000000.00002	-13.0395857321813	84.8026958153569	-10.2905213377113	-127.359475448747	-47.3926168617219	-139.122548546284	-21.0033134618185	-27.5558263748092	
2441333333.33335	-13.0565192582297	84.3694031140057	-10.2922474252261	-129.615891363076	-47.4122054235545	-141.83734205014	-21.0524881671393	-27.5919402040416	
2441666666.66669	-13.0524124708358	83.8979632414264	-10.2779601814957	-131.813474443682	-47.2833674609925	-143.770107794639	-21.0736897634775	-27.5525824684154	
2442000000.00002	-13.0727583873156	83.606689765787	-10.2748691284338	-133.977343415806	-47.1350473405321	-146.341351317988	-21.0855422558923	-27.3526200289751	
2442333333.33335	-13.089590063309	83.2359760017623	-10.2647207746156	-136.248853383519	-47.1751739380733	-148.25772100749	-21.1448958608145	-27.1882561990548	
2442666666.66669	-13.0882083084679	82.817429078642	-10.255478915828	-138.505245021793	-47.4097411532338	-152.567400341407	-21.1937440331717	-27.1727943714529	
2443000000.00002	-13.103877567731	82.5066009888898	-10.2503220248902	-140.716624255003	-47.0842197464978	-152.872289169708	-21.25612321892	-26.9430419384679	
2443333333.33335	-13.1150762120581	82.0648282100822	-10.2350220356243	-142.997104287746	-47.2735492276966	-155.616813935233	-21.3205312646711	-26.6663391419449	
2443666666.66669	-13.1462642696921	81.7716219080739	-10.2231896409126	-145.21546746563	-47.2749102649209	-157.211842203942	-21.3636968491156	-26.4713674091487	
2444000000.00002	-13.163509062787	81.2378344771402	-10.2195800139946	-147.454397327018	-47.0796910593137	-156.626745900504	-21.4531693352764	-26.1291947004425	
2444333333.33335	-13.1898847856875	80.8246621600813	-10.2081726635764	-149.691913289972	-47.0574565805069	-160.213737045436	-21.507833160981	-25.8373210611718	
2444666666.66669	-13.2177744834049	80.4282589930436	-10.2073907035678	-151.983143313419	-47.0377055077667	-163.99793621325	-21.6035198858268	-25.5513619328173	
2445000000.00002	-13.214292232645	80.0929636491323	-10.2001081397513	-154.21775121648	-46.9444585870066	-165.585530870789	-21.6837057136698	-25.2065015671017	
2445333333.33335	-13.254617176663	79.6054006997551	-10.1863754979259	-156.467428831637	-47.101184157097	-168.493420899831	-21.7741536614759	-24.6677175089104	
2445666666.66669	-13.2663081804183	79.2159031148212	-10.1764232764908	-158.737721949996	-46.9954607072813	-170.622037206164	-21.8467298244949	-24.2176622129882	
2446000000.00002	-13.2927548840231	78.7624984609692	-10.1621514629838	-160.956781931197	-47.0099324322871	-174.097956431692	-21.9182085165545	-23.9840224691446	
2446333333.33336	-13.3136576261679	78.3710937720026	-10.1577483925954	-163.252813191691	-47.070470354433	-175.294387691494	-22.0199641863845	-23.426781695226	
2446666666.66669	-13.3356477659032	77.7792700555248	-10.1520202923256	-165.505801114262	-47.240134387793	-177.776982697271	-22.0958328863302	-22.8694127047427	
2447000000.00002	-13.3501589075604	77.3898637540011	-10.1416138425075	-167.76434631799	-47.0974038237465	178.500401153614	-22.2293278885808	-22.1137637287272	
2447333333.33336	-13.3902762478841	76.9512145347657	-10.1432720991783	-170.092788123811	-47.1502216458061	178.263659093973	-22.3331156812563	-21.6121108489116	
2447666666.66669	-13.3865437983996	76.4328755985837	-10.1299147484206	-172.280216220462	-47.2753492656643	176.740886391567	-22.4202286152463	-20.9540659502114	
2448000000.00002	-13.4297549385755	75.9544005579866	-10.1264705612831	-174.587281405304	-47.134020921365	173.354409308511	-22.5523178587234	-20.2849439022386	
2448333333.33336	-13.454585305323	75.5466643290618	-10.1175034617913	-176.829573261656	-47.1097619490679	170.820652103065	-22.6182230287715	-19.3099650145602	
2448666666.66669	-13.4741503801337	75.0373176842398	-10.1113801231973	-179.104085443476	-47.0787639818951	168.448257565596	-22.7482166112673	-18.7172874917053	
2449000000.00002	-13.5086056851348	74.5533651905034	-10.1025052074529	178.613697250935	-47.0289508620177	168.638288511841	-22.8349445188085	-17.6281798604804	
2449333333.33336	-13.5408987780121	74.128562031021	-10.101198856856	176.36168174732	-46.7683741022608	163.947947031307	-22.937664117957	-17.0387643768745	
2449666666.66669	-13.5573862546441	73.69501898868	-10.0937077440393	174.100905115063	-46.9146927247849	164.324002530155	-23.0420438801826	-16.0938188141977	
2450000000.00002	-13.5930097165304	73.1095676543986	-10.0877850891508	171.815784769995	-47.0004499940456	159.733676542149	-23.1344435622656	-15.1040181802775	
2450333333.33336	-13.6134541861432	72.664191652372	-10.082580728745	169.551568291631	-46.8408263913943	159.00057810971	-23.2440026377317	-13.9539706161139	
2450666666.66669	-13.6345119023457	72.108376527565	-10.0794791656817	167.29198131426	-47.2317702771448	157.5042847345	-23.33778665512	-12.7511724609103	
2451000000.00002	-13.6578213425972	71.6234761396905	-10.072937541308	165.035069045564	-47.2311567997785	153.576267086923	-23.4133737521342	-12.0025034177538	
2451333333.33336	-13.6838153381897	71.1179436909739	-10.0681914243686	162.736597004756	-46.9883037481996	152.467416669922	-23.5332827086256	-10.9804110466147	
2451666666.66669	-13.7012416994822	70.6330883303055	-10.0639704689798	160.482134828676	-47.1181366204573	149.356523955595	-23.6150317255367	-9.91764589670094	
2452000000.00002	-13.7067019104099	70.0883420278966	-10.056881572284	158.228990008519	-46.9386078900932	146.953097233689	-23.6961066877571	-8.84685888021457	
2452333333.33336	-13.7281872113736	69.5750765785516	-10.0540198325845	155.98500782412	-47.0053718946003	145.507596670123	-23.7670033336333	-7.57264237141924	
2452666666.66669	-13.7396727431138	69.111809813219	-10.053899676001	153.750897167591	-47.3405543098045	140.996956899232	-23.8581192240555	-6.51564638848719	
2453000000.00003	-13.7512229957373	68.5943521844907	-10.0427635397107	151.473078730838	-47.0018759074343	138.326955976656	-23.9332741353267	-5.36521537446565	
2453333333.33336	-13.7649380232026	68.0260118358136	-10.0497696794854	149.240226904515	-46.9213393262717	137.433188571062	-24.0096669385157	-4.16002737215503	
2453666666.66669	-13.7769831722559	67.5582619141392	-10.0409908843314	146.970235811646	-46.9662254785331	137.011732808825	-24.0399454978922	-2.95792617930837	
2454000000.00003	-13.7771142884203	67.0462342750864	-10.0434488631769	144.741342802337	-46.9459760219919	135.611815491888	-24.1247104957566	-1.49708380544694	
2454333333.33336	-13.7800262896561	66.5276720081425	-10.0357761851633	142.518577566347	-46.9932968245757	132.001462411384	-24.2045917839314	-0.536591808727075	
2454666666.66669	-13.7927467005818	66.0126124531258	-10.0363783730482	140.209757839525	-46.862465117266	128.855468671699	-24.2130359502213	0.557391939462786	
2455000000.00003	-13.7903892137688	65.4320136469466	-10.0362341192666	137.984918604498	-46.9911693929685	127.915730336421	-24.26186039618	1.79851040354604	
2455333333.33336	-13.7983479741987	64.8861781524107	-10.0317460700454	135.748722553979	-46.7384851171748	126.50009747667	-24.3128577335277	2.83587816252147	
2455666666.66669	-13.7813736033672	64.4040277049549	-10.0243033787205	133.502245515346	-47.0147128228119	121.583739172047	-24.3617250859285	3.87073851770753	
2456000000.00003	-13.7804954190791	63.8340710215424	-10.028591254065	131.210093186834	-46.8964273791819	120.117035051371	-24.4257417827658	5.2552697435167	
2456333333.33336	-13.7758600031063	63.2507633307314	-10.0233717778703	128.976181153559	-46.9370993248773	116.031175093266	-24.4651631163022	6.34418268554482	
2456666666.66669	-13.7686901710613	62.7311148614913	-10.0236983109497	126.779698122593	-46.676288736747	116.311035605554	-24.4563631103533	7.27253987812062	
2457000000.00003	-13.7570688388875	62.1761278451477	-10.0179396719282	124.564822778279	-46.8419292380773	113.721751017535	-24.5104375643516	8.29155531298075	
2457333333.33336	-13.7392307411301	61.6829050135766	-10.0158996410969	122.271079598885	-46.7377052436755	110.823926586947	-24.5246782510661	9.26493765541952	
2457666666.66669	-13.7192992660729	61.1150345224821	-10.0213312848092	120.06698158314	-46.5772938182574	109.769443644578	-24.5288621133582	10.5341474956456	
2458000000.00003	-13.6937501592258	60.6073289169701	-10.0202294292035	117.814742485846	-46.851673795132	105.629873520047	-24.592603834216	11.2958477273919	
2458333333.33336	-13.6806468895689	60.0437294571632	-10.0199950940766	115.582896055593	-47.0812619589872	105.091921419268	-24.5636433221827	12.0968743401901	
2458666666.66669	-13.6624534473658	59.4650617482658	-10.0225111268034	113.3018048402	-47.0455049801802	101.848744129475	-24.6040142149822	13.0992250121544	
2459000000.00003	-13.6334033332068	58.9545248293411	-10.0142314414086	111.065604900685	-46.8079407173308	100.995681324586	-24.5938522587644	13.7725566135452	
2459333333.33336	-13.608727640753	58.4454290640566	-10.0100294975545	108.889444273092	-46.9196267240809	97.4057135858849	-24.6290704024852	14.55454633992	
2459666666.6667	-13.5822942585813	57.8726381485276	-10.0121078515443	106.620876972855	-46.8665269954877	96.2232770429654	-24.6463387160434	15.3483856096401	
2460000000.00003	-13.5496935731392	57.3254378798487	-10.006177085609	104.374587067432	-46.8416965886384	93.4712329958334	-24.6458351442145	16.0965533003761	
2460333333.33336	-13.5249749719509	56.8565748040875	-10.0049391050299	102.131767384827	-46.8387106786726	90.314390775018	-24.6819363335073	16.8466727240287	
2460666666.6667	-13.486505331173	56.3213372275857	-10.0118962776359	99.8719764175376	-46.6512685734078	89.1421465625147	-24.7430318732834	17.5298385176366	
2461000000.00003	-13.4537568879765	55.7302799252102	-10.0086537970488	97.6117590977377	-46.6299766984315	85.9969048138543	-24.7176478988372	18.2297422925051	
2461333333.33336	-13.4132064076873	55.1814912312621	-10.0099514443281	95.3620756375018	-46.8705948826611	83.2334462476253	-24.7577981525495	18.956754849739	
2461666666.6667	-13.3827020012843	54.5930539981597	-10.0031834487432	93.0685623549939	-46.6976278121215	81.9750027635291	-24.8010210379502	19.33918124906	
2462000000.00003	-13.3496915436925	54.1133534362689	-10.0016185758607	90.87237799141	-47.0768394260229	78.7199304826588	-24.8125682011251	19.8250762843656	
2462333333.33336	-13.3000541267967	53.5759107589505	-10.0080348854999	88.576902526758	-46.925556103898	77.1990594459807	-24.8664385845087	20.3211758661664	
2462666666.6667	-13.2571454168394	53.022214426958	-10.0017848495276	86.2950028503334	-46.6633574170572	74.3397523255804	-24.9390129583567	20.8311610220328	
2463000000.00003	-13.2122557322243	52.4725384393269	-10.0032357863333	84.0353868770498	-46.9678938461389	69.5875254544904	-24.985290843453	21.186826810455	
2463333333.33336	-13.1718707397645	51.8750534207701	-10.0068025346953	81.7363252468798	-47.0364144529939	69.7002333922409	-25.0350511506642	21.8523401831239	
2463666666.6667	-13.1269513447911	51.3755622908808	-10.0013725579688	79.4853908021033	-46.6519234355601	69.8828213041683	-25.0865288071658	22.2156214855059	
2464000000.00003	-13.0838953132524	50.8437987200044	-10.0054032159025	77.1937927306959	-46.9233123944428	66.6931162421265	-25.1304731305527	22.2979129558389	
2464333333.33336	-13.0369446342689	50.3505786273586	-10.0049329855185	74.9159666636873	-46.779497055668	61.4379525566358	-25.1778043705587	22.521230909806	
2464666666.6667	-12.9942426365567	49.865612406557	-10.0030489858699	72.6301989605101	-46.8554425406638	60.1805391332921	-25.2535837560745	22.8190262524054	
2465000000.00003	-12.9459084091783	49.3261012965997	-10.0074056498397	70.343780531118	-46.7956907690992	59.2903863897663	-25.288136037893	22.9577593650314	
2465333333.33336	-12.9022186784472	48.8368355548969	-10.0105000642728	68.0863444620009	-46.7587748341133	55.4219845726035	-25.3796226519089	23.168517803427	
2465666666.6667	-12.8541446278614	48.3352068505551	-10.0107214762689	65.7761980120467	-46.677081440565	53.8268646057403	-25.4264151378696	23.4554756499581	
2466000000.00003	-12.8167826723499	47.8347428604628	-10.0098667447236	63.5552849436842	-46.7253520150014	50.0712873926307	-25.5308869068727	23.7008911716861	
2466333333.33336	-12.7621459144381	47.3785218727622	-10.0119728207692	61.2273955184962	-46.3257553061855	49.3349907826683	-25.5864913721521	23.62871843038	
2466666666.6667	-12.7206410287331	46.9108749472387	-10.0120330976	58.9240565646881	-46.897550410438	45.2743685721784	-25.6638762099773	23.8108314164843	
2467000000.00003	-12.6784636337703	46.4550511740646	-10.0114870413716	56.6538818576145	-46.6406942915605	44.7959224795259	-25.7342783431859	23.7454180690499	
2467333333.33337	-12.6272709093054	45.9779043448303	-10.0155087393233	54.3647381578671	-46.8823228274577	43.3947347080135	-25.8454808744599	23.809240183437	
2467666666.6667	-12.5745144482712	45.521540521732	-10.0211238188238	52.080375857039	-46.6612621639651	40.3775817937415	-25.8708197920344	24.0232740491451	
2468000000.00003	-12.5376795007518	45.0680751703441	-10.021313748982	49.7839326051168	-46.969499267268	37.849167598497	-26.0139857615539	23.8142611668604	
2468333333.33337	-12.4917424435712	44.678003739585	-10.0229206517524	47.4820513930167	-46.5318236595808	33.4442410798275	-26.0796936165026	23.7150279295446	
2468666666.6667	-12.4418190973814	44.2349187536955	-10.02455603579	45.1343738502611	-46.7527481896617	31.62838278402	-26.1734777725209	23.9192993113555	
2469000000.00003	-12.4009790578864	43.7932100210546	-10.0249921069639	42.9068221483176	-47.0036934208068	31.4983370500855	-26.2325326488537	23.7157276014609	
2469333333.33337	-12.3523172457782	43.4042672853957	-10.0288426458113	40.6389683612208	-46.7684120149449	28.7402560682951	-26.2981644546674	23.5758521330876	
2469666666.6667	-12.3070608292974	43.0243067118377	-10.0261879866366	38.3029824260697	-46.8950171555215	24.9128893220032	-26.4292646388724	23.2795264026136	
2470000000.00003	-12.2677159421308	42.6216639624202	-10.0293527537265	35.9803047206446	-46.8084465815036	21.7388137492945	-26.5368919003603	23.2337377965494	
2470333333.33337	-12.2191427078767	42.2207157999786	-10.0358322885355	33.6985864629327	-46.6652414144292	21.4373963549687	-26.6358520408115	22.7163383956792	
2470666666.6667	-12.1740076434246	41.8340315614868	-10.0346220501676	31.3760635475643	-46.7117020424802	21.7500979608188	-26.7056972151704	22.4390045575518	
2471000000.00003	-12.1359715513919	41.4779479737238	-10.0410635335458	29.0565558216658	-46.8017973394876	15.7618570258158	-26.8077896042411	22.2500249043043	
2471333333.33337	-12.0940652731218	41.1331025296983	-10.0400068643548	26.7160035594724	-46.751481558262	13.2603334386837	-26.8782898350765	21.9735393169326	
2471666666.6667	-12.0460825450543	40.7948343989646	-10.0411722615757	24.4049653799398	-46.6905056967784	13.0599865169495	-26.9808676316621	21.6510452904897	
2472000000.00003	-11.9945490896933	40.4486574937459	-10.0503239397342	22.133034162966	-46.9061122436325	10.5239551205697	-27.0798494337726	21.2895114470617	
2472333333.33337	-11.9461362181813	40.1137594711199	-10.0492328975277	19.7712184806825	-46.6326865391468	6.18607853150925	-27.1666666704439	20.5578049885547	
2472666666.6667	-11.9025449564734	39.8421101219359	-10.0500667047832	17.4084435841213	-46.6196665986462	2.99829338597252	-27.2534975042814	20.1269560816214	
2473000000.00003	-11.8573366523648	39.4773767289552	-10.0547106949589	15.1053931798778	-46.6410160118221	0.42427350679211	-27.3536674227208	19.6552105852058	
2473333333.33337	-11.8113305913042	39.2133645352773	-10.0571513137503	12.786415267367	-46.7349643370604	-0.226266817085554	-27.4889816918483	18.7653800520162	
2473666666.6667	-11.7659793280184	38.9499062757877	-10.0605946535225	10.4211651344305	-46.984813248184	-2.60011588187937	-27.5756669202327	18.3859634644239	
2474000000.00004	-11.7221406979125	38.6482092030875	-10.0633606272705	8.08237561595565	-46.5808409947052	-6.01296479422366	-27.6454761013502	17.3461963415739	
2474333333.33337	-11.670838056561	38.3556424253553	-10.0677583959401	5.76074922654287	-46.4474299044388	-7.94790610046776	-27.7301264443641	16.4748629016085	
2474666666.6667	-11.6247912860211	38.0971065616133	-10.074526315663	3.38242475461951	-46.683454509067	-8.35218580492796	-27.7802913371816	16.026374552275	
2475000000.00004	-11.5866986318967	37.796720308007	-10.0775425041202	1.05324172713757	-46.5297725473494	-10.918948141369	-27.8846202621505	15.0884318025118	
2475333333.33337	-11.540078221134	37.5360403960154	-10.0793279352082	-1.29517911368795	-46.6710219981079	-14.6225080155919	-27.9600516314874	14.2786012295841	
2475666666.6667	-11.50080991431	37.2005680842348	-10.0799966494131	-3.6329421879918	-46.5625388205368	-15.9455634656662	-28.0486513814686	13.4050508508991	
2476000000.00004	-11.4570605165386	36.9424674917371	-10.0887317841879	-5.98851169492536	-46.6035320265318	-18.7544018577105	-28.1120248787643	12.4909017484698	
2476333333.33337	-11.4104712884645	36.6565396442425	-10.090471596821	-8.33757794343208	-46.5159039473452	-20.1376491949618	-28.1281232886311	11.3387001413387	
2476666666.6667	-11.3799189669869	36.3639184097849	-10.0936494503681	-10.6756172801227	-46.6569111248998	-22.9483165273193	-28.2331031230797	10.1289724515468	
2477000000.00004	-11.3343552780572	36.0035453095351	-10.1007614016959	-13.037407649556	-46.5278436014369	-26.7757493548541	-28.1859304184286	9.34425270303217	
2477333333.33337	-11.2931054922847	35.7379265814509	-10.1067739414515	-15.3734652264454	-46.4783153143357	-27.0414935542987	-28.2000098918264	8.1193492775618	
2477666666.6667	-11.2545148276016	35.3694539263529	-10.1143950791721	-17.6804445382465	-46.8770169575333	-30.5292395219063	-28.2092147118908	7.17505406688611	
2478000000.00004	-11.2163490335826	35.1251637426451	-10.1188605393744	-20.0531493231434	-46.5972188847095	-31.7729430611887	-28.2203861504253	6.00529218654408	
2478333333.33337	-11.1730519875883	34.7399434620261	-10.1205266549621	-22.3630545707837	-46.8196463346015	-34.2993087689678	-28.2514424994835	4.74551621485127	
2478666666.6667	-11.1378301954847	34.453802190092	-10.1280120743509	-24.7136120728025	-46.3709677917589	-34.3825832394204	-28.18574324706	3.38086389104426	
2479000000.00004	-11.0949478179439	34.1459459563625	-10.1345532897133	-27.0241696810201	-46.6782049250609	-39.7697175092917	-28.2360934551637	2.32188374701726	
2479333333.33337	-11.0707678696122	33.8301446502639	-10.1411197871225	-29.3776559543076	-46.8891397539874	-43.1613330677311	-28.1747294235389	0.85348081929408	
2479666666.6667	-11.0274694624835	33.5288341793719	-10.145993427469	-31.6648192848053	-46.8236618104872	-43.7001094925478	-28.1243691020259	-0.149675341492296	
2480000000.00004	-11.0014658269039	33.1246855457957	-10.1493399351261	-34.0052202050214	-46.6397796893648	-45.8985672318262	-28.1396298233849	-1.46249924456312	
2480333333.33337	-10.9664902787239	32.8188104800031	-10.1491829911641	-36.3316504408963	-46.4247122862817	-48.2699904425212	-28.0468775112116	-2.50157118818038	
2480666666.66671	-10.9366798315309	32.440521900518	-10.1568030138384	-38.6795559953206	-46.7037578972992	-50.2807067450472	-27.955425494503	-3.82605411528782	
2481000000.00004	-10.903048875574	32.1159250878439	-10.1580288294908	-40.9607033840434	-46.4591526315544	-52.7906681556942	-27.911626584944	-5.05922333684771	
2481333333.33337	-10.8788882195136	31.7195520447064	-10.1645721714446	-43.2164901143487	-46.6254971630098	-55.3641533775818	-27.8196209717332	-6.25068364812972	
2481666666.66671	-10.8673277930755	31.3856488916831	-10.1613839505995	-45.5963764770205	-46.953398012898	-57.2870863393832	-27.7169541396502	-7.71495875143806	
2482000000.00004	-10.835601537699	31.0261758266105	-10.1705545576939	-47.8593501554587	-46.5617881564691	-59.2516164373403	-27.6595855871002	-8.57866542861464	
2482333333.33337	-10.8098801468124	30.6842546318096	-10.1727926837648	-50.2460303648077	-46.4946540607142	-61.8760714844648	-27.4972149570523	-9.8278670309851	
2482666666.66671	-10.7913585038524	30.1812617751462	-10.1793145315275	-52.4903309416452	-46.6991205880247	-62.9545869783206	-27.4154515474255	-11.2446101442354	
2483000000.00004	-10.7675775434592	29.7940014561377	-10.1780202825416	-54.7928435392178	-46.9719510558966	-65.6712543551232	-27.2785278908935	-12.1833285218411	
2483333333.33337	-10.763608655715	29.3469413985102	-10.1834740317937	-57.0661195334452	-46.4128231369221	-68.4217011227792	-27.1617802935406	-13.1902791251667	
2483666666.66671	-10.7447625057042	28.9095430069829	-10.184767899318	-59.3339178605474	-46.8347368386152	-71.4195067752669	-27.0455581474789	-14.5183849197987	
2484000000.00004	-10.7255146785082	28.5359176431823	-10.186740307771	-61.6230061454282	-46.8224724997659	-73.4770077051847	-26.9453114590782	-15.6362177874485	
2484333333.33337	-10.7088311043561	28.123883536536	-10.1861687309253	-63.972970370389	-46.7053835735838	-73.8939815064699	-26.763887103629	-16.5150570105873	
2484666666.66671	-10.7047416541904	27.770147810235	-10.1850358531907	-66.2320074938635	-46.7337898133381	-77.0977869329272	-26.6454875627063	-17.4568364786026	
2485000000.00004	-10.6935809094185	27.3470888222655	-10.1852037003259	-68.5085802003795	-46.5771233970197	-82.0225761532033	-26.5049988970585	-18.3189907336473	
2485333333.33337	-10.6766127157154	26.9213533704172	-10.1837369634782	-70.7602288860463	-46.5938641292309	-84.93811104379	-26.3866285488797	-19.469633369399	
2485666666.66671	-10.6725897077463	26.4750683944121	-10.1854709903548	-73.0269455641852	-46.6492432525318	-85.9204322164917	-26.2406152212318	-20.3748889600121	
2486000000.00004	-10.6671475942559	26.1194759455112	-10.1858032878243	-75.338829675593	-46.8117821581247	-85.8574340264424	-26.1051916374423	-21.1795676880386	
2486333333.33337	-10.655947401096	25.6260345273065	-10.1733489134023	-77.5981680003403	-46.5600506808088	-90.5615050266081	-25.976140268877	-22.1278025648929	
2486666666.66671	-10.6667004156588	25.2374826772385	-10.1730876998857	-79.9015783193559	-46.6903792490403	-92.7566520203857	-25.8613265249291	-22.7539276894599	
2487000000.00004	-10.6680883017272	24.7132455885915	-10.164615496243	-82.1358995532485	-46.7144908113376	-93.1878446469963	-25.6968765115898	-23.5737521397786	
2487333333.33337	-10.6658836635288	24.2551416989051	-10.1620547055778	-84.4259679494736	-46.7080345807619	-95.4272449401865	-25.5981372052032	-24.4327862915823	
2487666666.66671	-10.6735389213956	23.8163481053268	-10.1666798930534	-86.727784840325	-46.8652385703897	-98.1963512085331	-25.4354016005914	-25.015429692274	
2488000000.00004	-10.6697090573417	23.3375830684063	-10.1629114359139	-89.0107843305938	-46.6869687187167	-101.33239302737	-25.3408763782208	-25.6695174691068	
2488333333.33338	-10.6815224661242	22.8803552012267	-10.1577714719415	-91.2665351785803	-46.6279458787243	-102.336189052667	-25.2177966905935	-26.3876480656796	
2488666666.66671	-10.6886910483623	22.3534084412011	-10.1515597502674	-93.5665902912021	-46.6528372469224	-105.126386040103	-25.0985398774598	-27.1610691751254	
2489000000.00004	-10.6947626897012	21.7896862486007	-10.151330500807	-95.8515730557904	-46.7738101210973	-107.417475460016	-24.9950777606455	-27.5693077033885	
2489333333.33338	-10.7125804203894	21.2972215884768	-10.1393925995692	-98.1398717145548	-46.8146212070083	-108.824005569699	-24.8523761062062	-28.1553794288197	
2489666666.66671	-10.7189596809743	20.7657273347977	-10.1308731997605	-100.415947142018	-46.6358263907224	-111.021986845852	-24.7725347491713	-28.7144679730466	
2490000000.00004	-10.7446383202132	20.2810287460189	-10.1325333196587	-102.704325649942	-46.8584493708417	-114.383803993413	-24.668592517439	-29.328419580708	
2490333333.33338	-10.7717728077595	19.7487024998379	-10.1280441372189	-104.984704639837	-46.6114673933141	-116.645827283007	-24.6034120117739	-29.6733657806876	
2490666666.66671	-10.7923103292388	19.1860036693374	-10.1195742827177	-107.264796341863	-46.9341218247515	-118.563548653471	-24.5114318526107	-30.0673840298476	
2491000000.00004	-10.8161216984675	18.668108725188	-10.1182930469819	-109.525687745323	-46.9025081414039	-120.808636617635	-24.4539632330947	-30.4604362358744	
2491333333.33338	-10.840646154039	18.1816545618098	-10.1134328673979	-111.811015188408	-46.7108527029246	-124.293254581117	-24.3429125289805	-30.8018209325176	
2491666666.66671	-10.8712703129861	17.6807334397842	-10.1052954493229	-114.085931268409	-46.8019664279707	-123.91167297138	-24.3087895495166	-31.1397568445006	
2492000000.00004	-10.8952864644033	17.0873365394649	-10.1027148424168	-116.376608690824	-46.867828006517	-127.320245508209	-24.2011557417094	-31.4381623900418	
2492333333.33338	-10.9270750565132	16.5596686175367	-10.0968730816608	-118.639995046537	-47.1323783837665	-128.425213580577	-24.1517829967705	-31.7402873996325	
2492666666.66671	-10.9599203716003	15.987364450744	-10.0928454187982	-120.937056573823	-46.8761374799219	-132.143407462298	-24.0663450047928	-31.853168884623	
2493000000.00004	-10.9973185870263	15.4435854833524	-10.0898415001869	-123.214921940334	-46.8602609544911	-133.565574340236	-24.0649837004922	-32.118623186534	
2493333333.33338	-11.0184547973094	14.8749546751524	-10.0829211279741	-125.473626006671	-46.9113864064244	-136.197349022469	-23.9643503091601	-32.1563082082032	
2493666666.66671	-11.056757255135	14.3395956881486	-10.0758963080644	-127.763554541247	-46.8093156763582	-139.390923678336	-23.9853698563262	-32.259089767089	
2494000000.00004	-11.0964310961731	13.8035355544092	-10.0700492636076	-130.025216554665	-46.7602284575891	-141.31313898914	-23.9228434741301	-32.3506932944821	
2494333333.33338	-11.1271080681016	13.206325104185	-10.0693926459673	-132.312929257914	-46.6747189407599	-142.568729727535	-23.9198768633292	-32.2145102155465	
2494666666.66671	-11.1700644555896	12.590894143462	-10.0608979486545	-134.631780744218	-46.6138044344568	-145.855790593454	-23.9059438412649	-32.4300284428329	
2495000000.00005	-11.2021809726439	12.0061868171518	-10.0660391003103	-136.897987431753	-47.0763558333975	-150.413703563191	-23.8843747590263	-32.3977890855286	
2495333333.33338	-11.2458354634315	11.4122792334877	-10.0538664346503	-139.169746527303	-46.8001692111937	-149.455828333023	-23.8781825407673	-32.3046425280535	
2495666666.66671	-11.2866188460594	10.8631149193061	-10.05195915707	-141.416827390215	-46.8616454987215	-151.627962104972	-23.8612801457161	-32.1632305181493	
2496000000.00005	-11.3197074961256	10.2327184622651	-10.0482062032572	-143.764413306359	-47.0460125933217	-154.487335612861	-23.8870871557489	-31.9248707973492	
2496333333.33338	-11.3516347836658	9.68301548582026	-10.0489506437709	-146.014911305162	-46.9714974009786	-157.264008061195	-23.906927374116	-31.5346301810659	
2496666666.66671	-11.4040756728723	9.02659520103732	-10.0457891457746	-148.296955839472	-46.9414521734294	-160.267395585542	-23.9032595087448	-31.453922982838	
2497000000.00005	-11.4359507085897	8.54541939028893	-10.0469047711545	-150.565761796145	-47.028080966698	-162.009677775768	-23.9588367473927	-31.0426220290966	
2497333333.33338	-11.4728586214621	7.94332939460923	-10.037771004756	-152.854334093987	-46.9525642110579	-162.788496133409	-23.9497281158875	-30.6070268705836	
2497666666.66671	-11.5247563565256	7.20444503452259	-10.0517011164809	-155.21543076917	-46.9275629801152	-167.467421574066	-24.0080863570508	-30.3770616486721	
2498000000.00005	-11.5537430493136	6.75064447933943	-10.0480620575222	-157.464420451427	-47.054634029611	-165.996695380366	-24.0421558755305	-29.766341204869	
2498333333.33338	-11.6012862544873	6.0921318283564	-10.0471218556217	-159.728561384869	-46.8489056458116	-169.454767055335	-24.0701875551171	-29.2798440711723	
2498666666.66671	-11.6433933032485	5.50590427643271	-10.0564526632523	-162.036592343376	-46.7379806794332	-172.14045783474	-24.1145097865762	-28.5441537598323	
2499000000.00005	-11.6720369636723	4.92994315153924	-10.0453251942171	-164.305409112085	-46.6747580338171	-174.795476740553	-24.161070569121	-27.9270933017155	
2499333333.33338	-11.7055229083125	4.3335501827085	-10.0449663053164	-166.589846027216	-46.9527214733711	-178.366460859102	-24.2421553868693	-27.4492229555705	
2499666666.66671	-11.7438410935313	3.78893450130263	-10.0405146097374	-168.814977738311	-47.0726431957488	-178.62259976591	-24.258678781148	-26.4158300059835	
2500000000.00005	-11.7828383410732	3.1887843160963	-10.05235365373	-171.179600284808	-46.8354900285305	178.5998748081	-24.2993860236987	-25.6153366583414	
2500333333.33338	-11.8129794998888	2.60524322147732	-10.055243233701	-173.402560307856	-46.9391488157989	176.55155185459	-24.361076822055	-24.6338633953647	
2500666666.66671	-11.8437272148802	2.00778507228512	-10.0697007414272	-175.649243617648	-47.105605194845	170.980110090072	-24.4115077425696	-23.6397792321556	
2501000000.00005	-11.8844131061608	1.45240034601741	-10.0627759222739	-177.979096189065	-46.722361512489	169.313058717187	-24.4906329386776	-22.6291688936272	
2501333333.33338	-11.9113881291607	0.789294224444967	-10.0632126962307	179.764872626081	-46.8174922120376	171.451256179987	-24.5178087629945	-21.4104340598584	
2501666666.66672	-11.9504315924352	0.213339750230155	-10.0741692361401	177.474536789019	-46.9515773619749	167.02300176353	-24.5717182590728	-20.3241728726336	
2502000000.00005	-11.9860998306702	-0.410885936941682	-10.0672850663743	175.230373706971	-47.058217752407	162.56425766347	-24.5737941218713	-18.6142742667267	
2502333333.33338	-12.0100505040334	-1.0626600874834	-10.0883405790845	172.912200887588	-46.8266425169733	161.07577936593	-24.6171470404156	-17.5736678721375	
2502666666.66672	-12.043416812731	-1.76619017167285	-10.0959295479979	170.648845281596	-46.8839860299896	158.896099118311	-24.5881245314636	-15.8344639080695	
2503000000.00005	-12.0754066410975	-2.40629079577884	-10.0986428155794	168.369103438123	-46.9367076200137	155.939122862818	-24.6385338354897	-14.2265387285915	
2503333333.33338	-12.1062548119905	-3.0919299369668	-10.109498499541	166.108698208072	-46.8774911126341	153.636674287905	-24.5764590131751	-12.7772535072064	
2503666666.66672	-12.133443374368	-3.75857781791204	-10.1122040951665	163.848882965123	-46.918817993978	152.279957080346	-24.607539555192	-11.3449836831374	
2504000000.00005	-12.1516151404258	-4.40859495702517	-10.1194737108643	161.571381224817	-46.8904536410585	149.52894747438	-24.5888661877182	-9.56378446231426	
2504333333.33338	-12.1759271243309	-5.07269359634119	-10.1253173906512	159.296012281387	-47.2157043599289	149.124183315812	-24.5463916709107	-7.88346086763278	
2504666666.66672	-12.2010463764015	-5.82515295303851	-10.1423962998614	157.016206600315	-46.7444551652771	145.112656273888	-24.5098531870809	-6.28296146366861	
2505000000.00005	-12.2248967844711	-6.52602455447845	-10.1456767417182	154.78132806782	-46.9375378713526	144.354803401665	-24.4584585309955	-4.51947631460395	
2505333333.33338	-12.2381797903219	-7.17052081572281	-10.1576346237514	152.531614900633	-47.0676300025991	141.346558268905	-24.4000843371062	-2.77460252306715	
2505666666.66672	-12.259147509304	-7.89111051542308	-10.1658978068372	150.29060852812	-46.8748600128414	139.432866087951	-24.2731647570864	-1.29771318532875	
2506000000.00005	-12.2729257993891	-8.55368716877388	-10.1718932727453	148.02408686538	-46.9673061889675	138.021355719428	-24.1845395076033	0.201318685383612	
2506333333.33338	-12.2880416585989	-9.26542821754916	-10.1802330636301	145.778288710358	-46.5544277923155	134.950274152199	-24.1059568052597	2.38275327206289	
2506666666.66672	-12.3063390112111	-9.98833606038201	-10.191379061714	143.498478360605	-46.9448836183032	131.579768556443	-23.9648718638434	3.74482528998278	
2507000000.00005	-12.326230417406	-10.6774380857368	-10.2028400839113	141.227822388251	-46.8730484249297	129.601658752993	-23.8457261176879	5.08314277944033	
2507333333.33338	-12.3341061739079	-11.3813469101117	-10.2114559530866	139.039339764044	-46.7404339160887	127.264201389033	-23.7035596989439	6.66605607777114	
2507666666.66672	-12.3467272825673	-12.1468618795622	-10.2168411899894	136.761349066939	-46.6612561284106	124.509315721378	-23.5671435977807	8.05814155434933	
2508000000.00005	-12.357229267572	-12.8826847166999	-10.2323024403118	134.514931790417	-46.8120463366076	122.519626461199	-23.4203913851556	9.53048926658019	
2508333333.33338	-12.366292378792	-13.6447363614313	-10.2393396636891	132.261915233344	-46.8962751679329	121.735155745857	-23.2742203719883	10.6646986389498	
2508666666.66672	-12.3773888034941	-14.4473290594142	-10.2529395860895	130.03141101641	-46.864089850115	119.114327166167	-23.1237039362352	11.9484812402961	
2509000000.00005	-12.388627079416	-15.2721473739067	-10.2664641370136	127.784196142367	-46.6795188329159	115.492327461742	-22.9633542364405	13.0950428646252	
2509333333.33339	-12.3886642025933	-16.0213930885832	-10.2737418062702	125.544846016952	-46.8848739385513	113.133565070136	-22.7921488865567	14.0468252184997	
2509666666.66672	-12.4029021481905	-16.8144264785491	-10.2874404429558	123.306207562509	-46.9989846472806	110.585751588532	-22.5918584996983	15.1693375396276	
2510000000.00005	-12.4020391038378	-17.6327068594929	-10.3007027932388	121.091135352612	-46.7295688763835	109.340907874903	-22.4434644946042	15.9537504335503	
2510333333.33339	-12.411194575969	-18.3851324413661	-10.3112524322986	118.811745734366	-46.9960194882914	107.572255880272	-22.2868569644018	16.7709981243937	
2510666666.66672	-12.4134309648795	-19.1459328848684	-10.3220899160447	116.614279819371	-46.8137358745933	106.12332835808	-22.1067042037343	17.7103162460826	
2511000000.00005	-12.4214578605044	-19.9005674932897	-10.3327058891542	114.368995322484	-47.0270050447902	103.533709905669	-21.920104565903	18.4519619061308	
2511333333.33339	-12.4070137119477	-20.640197672382	-10.3473607283655	112.120287731235	-46.7761215589315	101.821004053863	-21.7646337332396	19.1440556895255	
2511666666.66672	-12.4168264007187	-21.428026054459	-10.3486199025363	109.880717796993	-46.8557190078516	98.7663104214377	-21.6083688876074	19.4537011301245	
2512000000.00005	-12.4232308013995	-22.2051144094928	-10.3674771410033	107.663786489035	-46.9425305304524	96.7597787609102	-21.4424728354609	20.0303774493901	
2512333333.33339	-12.4225848568084	-22.9452856324355	-10.374504940481	105.423468464914	-46.8344408859333	94.6401025791315	-21.2980771824774	20.4718386860186	
2512666666.66672	-12.4199243478384	-23.7123531339711	-10.3883524589366	103.190638303471	-46.9081063711415	93.0200425483255	-21.1569139152007	20.8888894691526	
2513000000.00005	-12.4249000565397	-24.4315889079938	-10.3951293954676	100.905804439961	-47.0295159480685	89.3431057066077	-20.9974782784837	21.4097026405578	
2513333333.33339	-12.4233863390731	-25.169821923382	-10.4042340622229	98.7266852911473	-46.9226303913875	88.9279554781177	-20.8937057395457	21.728970740085	
2513666666.66672	-12.4212472202642	-25.8892093617461	-10.418153418834	96.4896187255624	-46.8152050944861	85.4214339384291	-20.7523532733877	21.7275807694464	
2514000000.00005	-12.4268524784428	-26.6262880099395	-10.4335910492102	94.2299952441309	-46.9503620960779	83.5474954027312	-20.5866433764036	21.9764891245644	
2514333333.33339	-12.4252053385652	-27.4108969135633	-10.4439199956725	92.0153066300151	-46.9907130664316	80.561434893832	-20.4692036812528	22.2425332588768	
2514666666.66672	-12.4263994450401	-28.1343809646516	-10.4486345790872	89.7050260813687	-47.0102557869122	78.4189369784937	-20.3349863208472	22.3611179594017	
2515000000.00005	-12.4244694991052	-28.8953198235282	-10.4602082339652	87.4668899857931	-47.1251086233009	74.8422235956513	-20.2483899126896	22.3047982031277	
2515333333.33339	-12.4214060243935	-29.5830870141396	-10.4685617750093	85.2624013036546	-46.9514754600784	73.9205062548622	-20.1365584898964	22.418231732186	
2515666666.66672	-12.4254373912654	-30.3133742858336	-10.4796492716748	82.997304417488	-46.6684809155002	70.7231450463741	-20.0391792506443	22.4221069943542	
2516000000.00006	-12.4292332494224	-30.9595782034931	-10.4842884112097	80.7566747147716	-46.8624690889288	68.5628763352038	-19.9364803513802	22.34270102277	
2516333333.33339	-12.4342289668522	-31.6573492839657	-10.5021465089769	78.4762188000772	-46.9824019936263	66.4896442317141	-19.839163055959	22.2731278252442	
2516666666.66672	-12.4376894536855	-32.3200126279077	-10.5065451183415	76.2347680041124	-47.4189152135542	64.2018858857015	-19.7625811602314	22.1678080690377	
2517000000.00006	-12.441905815558	-32.9846013243659	-10.5182741510941	73.9805525808668	-46.946447744757	63.9999702472204	-19.6873830333118	22.1521613636029	
2517333333.33339	-12.4514041331739	-33.6073152890467	-10.52239673572	71.7246694717535	-47.1383816831619	58.9974719448761	-19.6062700277201	21.7744471553978	
2517666666.66672	-12.4519032124399	-34.2100698060543	-10.5355813822523	69.434935866327	-47.3229677676439	56.6373534060017	-19.5323256176871	21.5464133463827	
2518000000.00006	-12.4594768698577	-34.8177950489319	-10.5494283613726	67.1648923651043	-47.2973313359517	56.3329427397374	-19.4919942869146	21.2310552226786	
2518333333.33339	-12.4643352705059	-35.4070021880834	-10.5518557987147	64.9202295744783	-47.1724448185041	54.5120084888316	-19.4440340638406	20.9509469949632	
2518666666.66672	-12.4798327835216	-35.9546948690689	-10.563119717001	62.6531245888001	-46.9435419200157	49.7105220228197	-19.3952898327525	20.5629033991408	
2519000000.00006	-12.4813935185604	-36.4920174018016	-10.5654951065026	60.3907807724704	-46.9645014945865	47.7227807929818	-19.3612119487897	20.3770156085326	
2519333333.33339	-12.5001894699642	-37.0747265540185	-10.5780087387385	58.1367633633139	-46.8619928491716	45.1282583160224	-19.3273194148395	20.0037714434909	
2519666666.66672	-12.5057821004273	-37.5390747222562	-10.5839251495516	55.8470511575621	-46.7762578071517	44.290576612355	-19.3081266847295	19.6429808019097	
2520000000.00006	-12.5118099105417	-38.1217038418361	-10.5917618094434	53.5883985297029	-47.2003980916875	43.1976043752957	-19.3167807627635	19.225716922921	
2520333333.33339	-12.5253614223195	-38.6117419906462	-10.6021092827273	51.317151240885	-46.8898093460303	39.2388512362964	-19.2871065869285	18.8423242148576	
2520666666.66672	-12.537260691931	-39.025903052229	-10.6112750483454	49.0656452563569	-47.3145488376626	39.6624114879752	-19.2733027280963	18.2225749853286	
2521000000.00006	-12.5533756233018	-39.5239035177622	-10.6207010548787	46.8033559484462	-47.1214309556753	35.4998131583277	-19.2610981159499	17.7848785481797	
2521333333.33339	-12.5636762397122	-39.9776332157845	-10.6265779114121	44.5182403966252	-46.9655150754342	33.7252897965018	-19.2770741053665	17.2625366008433	
2521666666.66672	-12.5807346610658	-40.4293289275912	-10.6385250023956	42.2769355273733	-47.2170711405759	31.1794663654409	-19.2972060270896	16.6865760057548	
2522000000.00006	-12.5997632746294	-40.8278850515521	-10.6446515837804	39.9753229347134	-46.9935955472614	28.5140424445111	-19.3112357474178	16.119181374568	
2522333333.33339	-12.6132430689984	-41.3161797728615	-10.6546093477201	37.7567483585788	-47.2766103817922	26.9931074060882	-19.3539226050097	15.5762394516365	
2522666666.66673	-12.6321696892823	-41.6759316920811	-10.6626750331384	35.5104301970988	-47.4935169429849	24.9024265669595	-19.3784663475857	14.9517825604678	
2523000000.00006	-12.6438432486793	-42.0501118773037	-10.6692183538774	33.2190198183426	-47.3163762230695	23.3558454010931	-19.4201143284187	14.1736729274073	
2523333333.33339	-12.6739423749297	-42.4427193175374	-10.6774870968041	31.0070873617789	-47.14626526895	20.3735581457612	-19.4821508097121	13.5614901407216	
2523666666.66673	-12.689192910171	-42.7341953173116	-10.6869116263245	28.7624144416802	-47.4689773695454	16.1130366906248	-19.5273400597979	12.8460603673291	
2524000000.00006	-12.7067493435887	-43.1416902148321	-10.6934528427355	26.4971361825555	-47.0297231133312	14.9754422035565	-19.5890242844441	12.2894636848183	
2524333333.33339	-12.7282354973428	-43.4418270614616	-10.6891650314037	24.2732553268459	-46.6365445293939	11.5500506793545	-19.632850001834	11.5402317010158	
2524666666.66673	-12.753867698642	-43.7709643941293	-10.700273551578	22.0268664966108	-47.4485498999928	12.2409241974625	-19.7183784688377	10.7473455119005	
2525000000.00006	-12.7767082152571	-44.0557132595192	-10.7138213783777	19.8241587466932	-47.3565049541956	7.92955729395531	-19.7883847737492	9.94997530947122	
2525333333.33339	-12.7991949544674	-44.2812894610083	-10.7193326912924	17.6246868290072	-47.0192240508882	5.37672922130393	-19.8892463920335	9.19279496708078	
2525666666.66673	-12.8246265613182	-44.5304088405845	-10.7288633184209	15.4121753459619	-47.2861963491472	4.60282063271856	-19.9614618275011	8.27924210820379	
2526000000.00006	-12.8586644499201	-44.8051676625516	-10.7269544256887	13.149383467725	-47.1917577665062	2.1148573950487	-20.0704536358683	7.47468753763291	
2526333333.33339	-12.8816116692892	-45.016603028329	-10.7272341786369	10.9523055752032	-47.319235965905	-0.287488423628422	-20.1728812968583	6.75588730380025	
2526666666.66673	-12.8987087447218	-45.2870657961952	-10.7414360861801	8.74382135400441	-47.260176121342	-1.9337452499875	-20.2749003500452	5.73155600470654	
2527000000.00006	-12.9280186303835	-45.4540312381281	-10.7388714619309	6.57533583949674	-47.6951659874983	-6.05858825655818	-20.383948951518	4.78269926406445	
2527333333.33339	-12.9649507315246	-45.7014946977491	-10.7379866290331	4.32518644347423	-47.0124305186807	-7.6290242074816	-20.5054774944005	3.80616432014587	
2527666666.66673	-12.9793698544498	-45.8751576909916	-10.7354461268269	2.12785586646084	-47.5765918373054	-7.88085862741218	-20.6233494717991	2.85278059288518	
2528000000.00006	-13.0118495746608	-46.128314794956	-10.7411698532498	-0.104100175267355	-47.1742123479609	-11.9377838008245	-20.778046468483	1.96998929155883	
2528333333.33339	-13.0341703513735	-46.2517641439043	-10.7364909434272	-2.29928193514491	-47.0600089756192	-13.1599950860868	-20.9082232983269	0.819794562785983	
2528666666.66673	-13.0682046683536	-46.4661825855046	-10.7347566353974	-4.49426144888212	-46.9928765588952	-17.182036317231	-21.041596963886	-0.147079308704842	
2529000000.00006	-13.0946694181668	-46.6165744579852	-10.7420146661514	-6.70823473266584	-47.5033931809972	-18.616504860406	-21.1842691394091	-1.2186080191241	
2529333333.3334	-13.1307011980161	-46.8356161581862	-10.7273345887587	-8.8734637150747	-47.1955168567929	-19.9513900934472	-21.3433755904702	-2.35978759363655	
2529666666.66673	-13.1625917681422	-46.9461271713771	-10.7224983940419	-11.1307363872633	-47.205186572595	-22.9471397880676	-21.4959895954074	-3.51379095314413	
2530000000.00006	-13.1831388173705	-47.2154887795823	-10.712876317925	-13.3108745404321	-47.0671560851124	-25.5302017461643	-21.6703938120427	-4.55471592097688	
2530333333.3334	-13.2321740871459	-47.3750563398474	-10.7038776762653	-15.531099492341	-46.9123523852115	-27.9528056237394	-21.8246153518587	-5.6837948185807	
2530666666.66673	-13.2528913447903	-47.6322682320827	-10.7019131503327	-17.7579011111418	-47.0326601527515	-28.7539995252146	-22.0091793574157	-7.01485225315041	
2531000000.00006	-13.2872823735587	-47.7493413087314	-10.688653736927	-19.9170901411614	-46.9940459187148	-30.7985853661379	-22.1961759359086	-8.20840963973498	
2531333333.3334	-13.3252595911103	-47.986059131861	-10.6826093539804	-22.1967065479497	-47.0434114792669	-33.2435204300744	-22.3705825447783	-9.5070119467814	
2531666666.66673	-13.350788027204	-48.0953823148713	-10.6708217722858	-24.4146121044248	-47.5769484678147	-36.0989512022043	-22.5607503877924	-10.7353278165941	
2532000000.00006	-13.402794531045	-48.388307555114	-10.6570697870208	-26.5909931430501	-47.2800879278761	-41.1607616107103	-22.7273055787848	-11.9798630643895	
2532333333.3334	-13.4373103252399	-48.6070617488425	-10.646073558838	-28.8353429197316	-47.1846042384408	-40.9647062635153	-22.9492472352071	-13.4436301102243	
2532666666.66673	-13.4823027252882	-48.8155836544621	-10.6368327287295	-31.0820107399096	-47.3103965246266	-41.1083071285405	-23.1499712041047	-14.8317434468519	
2533000000.00006	-13.5383170840645	-48.9878064033361	-10.6276583915794	-33.2887033192228	-47.2082511927484	-44.0028655949263	-23.3778224744141	-16.3182256290962	
2533333333.3334	-13.5731034689401	-49.2042585349915	-10.6118388345465	-35.5269417429772	-47.1936025725564	-44.7365310881739	-23.5554799743222	-17.6946727575779	
2533666666.66673	-13.6196082680845	-49.4468724801162	-10.6000986687181	-37.7975650540555	-47.163803545109	-50.6885597023557	-23.7809891258663	-19.0729230028061	
2534000000.00006	-13.6760791406073	-49.6526295679547	-10.587246328313	-39.9894123789428	-46.9317974468203	-51.412123190813	-23.9894611130998	-20.717583502167	
2534333333.3334	-13.7210342690077	-49.9001298604684	-10.5749094198089	-42.2575243391686	-46.8411188092356	-53.9346177540462	-24.2068917643482	-22.1628578060185	
2534666666.66673	-13.7670244044506	-50.1621719645544	-10.5617550671294	-44.5292193102778	-47.4516153407876	-55.8922006846023	-24.398176878744	-23.7270566679799	
2535000000.00006	-13.7930037571843	-50.3188948757612	-10.5434282325758	-46.7747560392093	-47.0106270674844	-59.3444512587714	-24.637741713145	-25.3111361674135	
2535333333.3334	-13.8600194438796	-50.4704845040141	-10.5374538223767	-49.0472363779328	-46.7784494610704	-58.9832449052359	-24.872704809621	-26.7711556307674	
2535666666.66673	-13.9010440753594	-50.8431632312542	-10.5241795716511	-51.2856886765321	-46.9109726341932	-64.2192115824552	-25.0645925686227	-28.5215168733821	
2536000000.00006	-13.9576582856951	-51.0492463859404	-10.5120251876773	-53.5904071993308	-46.9739363575389	-64.6167168654457	-25.2720475201689	-30.2379632055832	
2536333333.3334	-14.0109418725452	-51.3314778938124	-10.5045849478902	-55.8268404399215	-47.2602214842701	-65.3668207396113	-25.5182932441325	-31.6895179929918	
2536666666.66673	-14.0796223092592	-51.5682519583903	-10.4886918677851	-58.1188210137848	-47.0396745211097	-69.2695571122157	-25.6923293945467	-33.3908171371224	
2537000000.00007	-14.1348551117969	-51.8131267011867	-10.4794776650107	-60.4053985992272	-46.8809066022139	-71.5354880593079	-25.9315487815887	-35.2044218751239	
2537333333.3334	-14.1772774883965	-51.9960546417839	-10.4707787142481	-62.6695363365135	-47.1149480375096	-74.6158082111404	-26.1409373407709	-36.5735289001011	
2537666666.66673	-14.2243052750937	-52.3921812638224	-10.4520760660357	-64.9744216057027	-46.9786351211341	-74.531110046692	-26.3736219170979	-38.4257442155115	
2538000000.00007	-14.2948656622568	-52.5150080015102	-10.4415412861716	-67.2370970024534	-46.8834668169279	-79.0956662079284	-26.5942052779135	-40.238159189022	
2538333333.3334	-14.3561456162581	-52.7901763727167	-10.4329776070712	-69.5638300403824	-47.1324372280891	-80.584392291135	-26.8263387923825	-41.7934612848134	
2538666666.66673	-14.4320723055856	-53.0471048598013	-10.4151583716469	-71.8339700137254	-46.8835152983638	-81.3385697222298	-27.0386343514916	-43.3260285221508	
2539000000.00007	-14.4898356353408	-53.2528583707199	-10.4162127891814	-74.0878263686517	-46.8429535567967	-84.0034473048698	-27.2523689029979	-44.9066674618113	
2539333333.3334	-14.576640348174	-53.4795169466789	-10.4129361418463	-76.4404377160535	-47.0315479713739	-85.7678800622382	-27.4380335029501	-46.3121583711313	
2539666666.66673	-14.6419245556498	-53.7081182030212	-10.3977352056648	-78.6751492966363	-46.4974386395675	-89.2424093874435	-27.6734550695185	-47.8579821779078	
2540000000.00007	-14.7088192561668	-54.0532555535022	-10.3887801873626	-81.0300247274781	-47.1725506924467	-93.4215453462113	-27.837189655171	-49.3578711301898	
2540333333.3334	-14.7753867107447	-54.3211324895079	-10.378851045169	-83.3666881449967	-46.9768362074698	-94.9900107066249	-28.0778470570597	-50.8296901894785	
2540666666.66673	-14.8609692897598	-54.6249692909852	-10.3778483879792	-85.6461370731862	-46.7179508776353	-95.4376198346751	-28.2774150689154	-51.8598683852248	
2541000000.00007	-14.9348114162501	-54.9801034006708	-10.3716951514003	-87.940130339791	-47.1767322785996	-97.9336627221411	-28.4933784934788	-52.9207948747206	
2541333333.3334	-14.9838788491922	-55.3697382557164	-10.3676660686544	-90.1918752139259	-46.920927532693	-100.729395239927	-28.6945826436379	-54.1794739012429	
2541666666.66673	-15.0725237660996	-55.6174736333672	-10.348470267364	-92.5579093283298	-46.5936716414431	-103.642650029545	-28.9071426069898	-55.4612044050675	
2542000000.00007	-15.1536501036834	-55.9066029436202	-10.3536457615613	-94.8124195522291	-47.1678330192689	-103.324568376224	-29.1381982295116	-56.3286688482119	
2542333333.3334	-15.2208048223308	-56.2838524277927	-10.3430947040352	-97.1520189048758	-47.0057396552212	-107.079274105182	-29.3315468665417	-57.39417137343	
2542666666.66673	-15.2967930241433	-56.7166470257921	-10.3477913181409	-99.4617626285294	-46.8869731000345	-109.088590311293	-29.4942555514376	-58.0880052120048	
2543000000.00007	-15.3889362356131	-57.072680993968	-10.3367131345598	-101.788162633979	-46.9780940436235	-112.33399954566	-29.6798430351145	-58.8992609959654	
2543333333.3334	-15.4466581572983	-57.3907306201879	-10.3317616141672	-104.106485245319	-46.8855436048104	-113.92151919865	-29.8734234542827	-59.2228276436613	
2543666666.66674	-15.5323449588633	-57.7655615014662	-10.3359165778208	-106.383973539788	-46.7909660369741	-115.783247249401	-30.0557328199127	-59.6091489214147	
2544000000.00007	-15.6333459885055	-58.0833389251337	-10.3314683807406	-108.741970384836	-46.9961616456812	-118.522019981644	-30.2655861152358	-60.0200671743049	
2544333333.3334	-15.7293502671047	-58.4905532942684	-10.3292213546025	-111.012647365737	-46.7394863864031	-120.193313331688	-30.4056646030633	-59.8401806836594	
2544666666.66674	-15.8112420182073	-58.7949263005791	-10.3288574488769	-113.314528804807	-47.087793340615	-122.199439158322	-30.5722277570736	-59.6653878034672	
2545000000.00007	-15.9126340505934	-59.126072438527	-10.3339913061917	-115.628626406692	-46.6952558699907	-124.362458660594	-30.8187474210229	-59.1448255375229	
2545333333.3334	-16.0036512528487	-59.5738744318541	-10.3291839483202	-117.893148658219	-46.7926369912713	-129.200355780346	-30.9223196415623	-59.1557915675046	
2545666666.66674	-16.0966344423939	-59.988340186744	-10.3261687273612	-120.264835801131	-47.0095619068936	-129.899675946797	-31.07851510848	-58.1228284807023	
2546000000.00007	-16.2034252589429	-60.4617401644891	-10.3248844644383	-122.531852700699	-46.9641541595505	-130.06597136168	-31.2717521468169	-57.4086905700222	
2546333333.3334	-16.29296383501	-60.7719487179423	-10.3207120649664	-124.811351794201	-47.1734788732297	-132.763863636003	-31.3652268332325	-56.69781058097	
2546666666.66674	-16.3779658130895	-61.3025448805333	-10.3238857673225	-127.136746174627	-46.7599521661945	-136.017469192486	-31.5203841173012	-55.5333590266591	
2547000000.00007	-16.4843469521465	-61.7116916768069	-10.3308205614282	-129.416844261168	-46.8253427282134	-138.652710771492	-31.6549298715524	-53.7150706751293	
2547333333.3334	-16.5734649955446	-62.2312448403532	-10.3323651445272	-131.681227280916	-47.2647163360329	-139.23388312445	-31.7483500826942	-52.2705905267748	
2547666666.66674	-16.6458313507695	-62.8696319900576	-10.3321149869221	-133.998341260077	-47.0820327673778	-141.89038536665	-31.8873786446931	-50.5534021573329	
2548000000.00007	-16.7356822454834	-63.3535398458574	-10.3381717597539	-136.297754167333	-46.9346809246407	-146.786451490028	-31.8802115194605	-48.5017754824265	
2548333333.3334	-16.8173126237874	-63.861312163522	-10.3316345589227	-138.574653126442	-46.9267848569529	-147.150932452492	-31.9459102556859	-46.5210329092262	
2548666666.66674	-16.9157561066793	-64.4204824923961	-10.3358177845917	-140.848478385995	-46.9354418255544	-151.169527019278	-31.9502624944775	-44.162254439224	
2549000000.00007	-17.0176223732267	-65.0289852156296	-10.3366989755011	-143.114430732221	-46.7390786758662	-153.041351476867	-31.9575947233771	-42.1277952041089	
2549333333.3334	-17.0977107335006	-65.753128390099	-10.3318419795531	-145.392878485339	-46.8785503173365	-155.490767137293	-31.8765713486881	-39.5541777931603	
2549666666.66674	-17.1847852505234	-66.3402558040439	-10.3375838009509	-147.664670524407	-46.9144215163627	-157.774137044831	-31.8058483312382	-37.4300329893202	
2550000000.00007	-17.2660039568133	-67.0699802708732	-10.3402230374692	-149.929226255575	-46.682862001592	-160.230477960501	-31.6563557627831	-35.0595201785696	
2550333333.33341	-17.3406089966964	-67.8450774039654	-10.3380783902263	-152.204694257074	-46.5599508729551	-162.581573973875	-31.5693677281945	-32.5991075165716	
2550666666.66674	-17.4153292977484	-68.5214964861414	-10.3395869446602	-154.488794209901	-46.6908918983417	-165.04496097581	-31.4042938200299	-30.3348524634465	
2551000000.00007	-17.4969090246306	-69.2937861557078	-10.34072037743	-156.736537867838	-46.8780862411129	-168.049130886547	-31.123795636795	-28.074018253366	
2551333333.33341	-17.601935118079	-70.0986496790306	-10.3385644527197	-158.99856576023	-46.7941237684452	-168.951644253293	-30.9129005114059	-25.7092861679299	
2551666666.66674	-17.681483945333	-70.8034040247921	-10.3447364978032	-161.2359208451	-46.9275901520002	-174.258274092819	-30.6722038656564	-23.5221743168093	
2552000000.00007	-17.7691652485673	-71.6435315117212	-10.3438064174438	-163.519887141015	-46.8772918269913	-170.737442367249	-30.4302251902715	-21.5315244187219	
2552333333.33341	-17.8602380380851	-72.4619795736232	-10.3425690193863	-165.754664567307	-46.7380348007127	-176.757895474082	-30.1129953735698	-19.4396695896607	
2552666666.66674	-17.951729553144	-73.1981476140509	-10.3456653377664	-167.993062936442	-46.8921884021192	-179.399274447219	-29.7849116472165	-18.0501118532059	
2553000000.00007	-18.0356730236097	-74.0457132687168	-10.3470200121997	-170.246105834889	-46.7308401448552	179.56995166255	-29.5179209899604	-15.9285125597476	
2553333333.33341	-18.1187027660209	-74.8702815026037	-10.3495235557318	-172.509341518269	-46.9957965548298	177.14308746871	-29.1862837379875	-14.3585064674242	
2553666666.66674	-18.2158397574909	-75.6664461244497	-10.3572957095897	-174.757684651923	-46.821513966952	175.037143910714	-28.8601310340952	-12.537973117225	
2554000000.00007	-18.281657628822	-76.567544229261	-10.3560333835091	-177.031427626419	-46.5827169786613	173.14427204393	-28.5756723190503	-11.2887872310931	
2554333333.33341	-18.363674456517	-77.4199675332581	-10.3474360575996	-179.295677570668	-46.5748707433265	169.608632542281	-28.2561838366899	-9.98849155892826	
2554666666.66674	-18.438164017549	-78.1739492217996	-10.3537605833245	178.5050117622	-46.6984560549087	167.56466211471	-27.9315027714773	-8.99202565866558	
2555000000.00007	-18.5002766766727	-78.9894711378282	-10.36288742413	176.238505578241	-46.6464311850411	166.153546756242	-27.6224387098273	-8.03644796092332	
2555333333.33341	-18.5818431601844	-79.8376726127186	-10.3581299702214	174.013576478452	-46.8607898696617	162.272781791463	-27.3418894305009	-6.80620166808803	
2555666666.66674	-18.6473419864698	-80.6699536864134	-10.3586182199116	171.771562720829	-47.0313292473688	160.215488040937	-27.0262767975083	-5.85428278648337	
2556000000.00007	-18.7026691319621	-81.5518542942978	-10.362027878931	169.551781908921	-46.7146299246581	159.132660235327	-26.7072599153552	-5.03980571653922	
2556333333.33341	-18.7632237040874	-82.3672033463888	-10.3594328965161	167.269464371088	-46.7850633425631	156.627959964802	-26.4563990747021	-4.29617491348005	
2556666666.66674	-18.8115207880785	-83.2204691593753	-10.3583029812374	165.069814325016	-46.5135825562929	153.897299147368	-26.1840977490551	-3.358750023457	
2557000000.00007	-18.8523768543739	-83.9499541514954	-10.3537841620629	162.827706002425	-46.7363058625428	152.455685446301	-25.8980719364683	-2.92384313910475	
2557333333.33341	-18.8996514408083	-84.8536987292968	-10.3481695556833	160.560766503188	-46.6728571800928	147.638756183723	-25.6657905968351	-2.29324780158435	
2557666666.66674	-18.9312384608339	-85.7160855458116	-10.3458576675724	158.33417353247	-46.9488998693576	146.52434651363	-25.3736796455	-1.71409018930579	
2558000000.00008	-18.9679896252265	-86.5235846768093	-10.3534082291048	156.116391424633	-46.517320561417	144.832559097763	-25.111393967385	-1.18962713755938	
2558333333.33341	-19.0003540862567	-87.2980166290796	-10.3435496620492	153.846318432116	-46.5623031385767	144.365685949072	-24.9126993139161	-0.777128172688744	
2558666666.66674	-19.030022957211	-88.0913962211487	-10.3485315636455	151.592938565687	-46.694886407849	141.019556987843	-24.636014528985	-0.266582705914009	
2559000000.00008	-19.0415270495662	-88.8146858538873	-10.3396047621149	149.356669528928	-46.4175641336114	137.151404411083	-24.4215679783993	0.408154189863381	
2559333333.33341	-19.0451429801009	-89.6690517597477	-10.3318763264271	147.092010525499	-46.8940193697539	135.582613831519	-24.1868715526837	0.613151354459292	
2559666666.66674	-19.0556951821183	-90.4041209176405	-10.3335646895204	144.878130558164	-46.5640670488555	132.663631129899	-23.9859686837303	0.91182153710545	
2560000000.00008	-19.0681665445558	-91.1604867324055	-10.3264909725437	142.59752113197	-46.9034609495879	128.850454983319	-23.7718539949616	1.42251463112762	
2560333333.33341	-19.0729824828893	-91.8905583340238	-10.3287132123912	140.314106932454	-46.5207249519204	128.942488590129	-23.5870337360133	1.67719321878237	
2560666666.66674	-19.0571232371972	-92.5404250931954	-10.3156057614744	138.06251154444	-46.4608427367813	125.723407878648	-23.3899036408568	2.06097971742558	
2561000000.00008	-19.0492072059037	-93.4151069281335	-10.3142429843889	135.778090484991	-46.5958040552559	124.051372374935	-23.1704595579037	2.28388072203395	
2561333333.33341	-19.0342267992574	-94.0270787226815	-10.3080665716622	133.493337569047	-46.7263715209053	121.767737170744	-23.0061630915141	2.46509484654224	
2561666666.66674	-19.0029770089912	-94.8989032432069	-10.3048591802248	131.220701243516	-46.6894925116348	120.450501925779	-22.8061292352073	2.78541155401456	
2562000000.00008	-18.9695026661322	-95.5517746371126	-10.2964770093929	128.901411874788	-46.3529489232737	117.371374548602	-22.629143736188	3.12720541510347	
2562333333.33341	-18.9296625480504	-96.3376536657462	-10.2962776819597	126.619558414469	-46.3427257664145	115.281817638546	-22.4418826195908	3.3323696510052	
2562666666.66674	-18.889126839318	-97.0557854904107	-10.2881834044529	124.359705646698	-46.3616433066491	111.689877773365	-22.3077171406694	3.44566887213234	
2563000000.00008	-18.8530690595407	-97.7017312467435	-10.2849864571182	121.997863082021	-46.4274223409579	110.140692746899	-22.1473864831181	3.81392272930457	
2563333333.33341	-18.8043490564478	-98.45465980811	-10.2784133717672	119.736362319099	-46.6799837744472	105.982232090507	-21.9814053621891	4.10690222734353	
2563666666.66674	-18.7636041534504	-99.008490909341	-10.2734460415497	117.421579560479	-46.486816571279	103.70217886827	-21.826000451435	4.31859909448517	
2564000000.00008	-18.712358862461	-99.7838260252255	-10.2680039225011	115.083392264696	-46.369314081521	102.340675630063	-21.6981660583105	4.56059462794357	
2564333333.33341	-18.6549769791696	-100.426222180583	-10.2691868993216	112.780672445949	-46.2827604774995	101.44978754661	-21.5649708341422	4.79684128841917	
2564666666.66675	-18.6063142687658	-101.143395648696	-10.261131284852	110.38487201594	-46.3700584138451	100.811214923424	-21.4293209029493	4.95196526315926	
2565000000.00008	-18.5373411129696	-101.821925917761	-10.2576746518776	108.076227115976	-46.5329457239381	97.4933534190433	-21.2899513823203	5.14487311823878	
2565333333.33341	-18.4823650910732	-102.470480874718	-10.2565914434844	105.737656819917	-46.4201965024008	94.4775922225805	-21.1538486613543	5.40426924428595	
2565666666.66675	-18.4281853347972	-103.121140750662	-10.251966299984	103.384184800255	-46.3172454516241	93.1158890371048	-21.035200756188	5.55747614722137	
2566000000.00008	-18.3789342809023	-103.879450773464	-10.2479069925878	101.029297830279	-46.7104372835024	90.5914260934547	-20.9236633916461	5.80260723745609	
2566333333.33341	-18.3169411874443	-104.494340488217	-10.2435309032472	98.696799316339	-46.6851583462687	87.3074258139758	-20.8241255697779	5.88259855882513	
2566666666.66675	-18.2628880605666	-105.21451881318	-10.2462198508556	96.3138983652448	-46.4015150380587	86.2513546714165	-20.7176173829371	6.03174839840684	
2567000000.00008	-18.2006317602639	-105.772539041016	-10.2417223580135	93.9692298343588	-46.3583539411533	82.6429888710181	-20.6074184879799	6.30562206666503	
2567333333.33341	-18.1521995562396	-106.552950859515	-10.2406295183449	91.5961787032729	-46.3934169997073	79.9038206882769	-20.5183055909446	6.50671012924034	
2567666666.66675	-18.0626904401708	-107.218336706855	-10.2405662112654	89.2221611176259	-46.3225222215113	77.8053485828311	-20.4220677880582	6.53299269301468	
2568000000.00008	-18.0043323403446	-108.001417093471	-10.240259853044	86.8408837282695	-46.8245934425368	74.1583135652327	-20.3413763914843	6.81944346875793	
2568333333.33341	-17.9300861534354	-108.677173780813	-10.242585500666	84.4623656597181	-46.3240463583265	73.2433456170054	-20.2466018625683	6.99431314226509	
2568666666.66675	-17.8652553443276	-109.344297145763	-10.2434013950877	82.0695226500587	-46.6957677354876	72.3660866244661	-20.136892789468	7.14682724584515	
2569000000.00008	-17.8203495197081	-110.189242128827	-10.2575516346208	79.6637523866051	-46.5184950955492	69.2932918404623	-20.0581686720617	7.14494924007232	
2569333333.33341	-17.7600281839497	-110.824014309092	-10.2507906909931	77.3222573927434	-46.2313543685244	64.0783080935598	-19.9916828229668	7.48494271881002	
2569666666.66675	-17.7005579857417	-111.493109524578	-10.2518149364658	74.9476793797162	-46.9034089309162	63.9597664372635	-19.9176998023449	7.51652860277686	
2570000000.00008	-17.6378402629043	-112.253964747779	-10.2514879725017	72.6053979342448	-46.5663543972838	61.4619365711756	-19.8431722769968	7.67735489374703	
2570333333.33341	-17.6036774010943	-112.951381264621	-10.2595842723256	70.168443597021	-46.4463695539978	58.5669462506978	-19.7655109516894	7.90183375870588	
2570666666.66675	-17.5462624315976	-113.674445730455	-10.2687789529554	67.7877791846999	-46.5040945348962	57.0588235633213	-19.7013751353496	8.10581368046616	
2571000000.00008	-17.5037119886588	-114.356433540928	-10.2746519411484	65.438399701816	-46.796057324028	54.3016321182615	-19.6296859214174	8.18208579078153	
2571333333.33342	-17.470458137589	-115.120479465914	-10.2767111584218	63.0170591659976	-46.3173298588369	51.4879201077969	-19.5756101269251	8.34329565494803	
2571666666.66675	-17.4374084075833	-115.86865796174	-10.2892676901659	60.6452357461291	-46.6240313899407	49.4264303207806	-19.5139378928771	8.31149322539807	
2572000000.00008	-17.3908400029099	-116.641058696085	-10.2926069197677	58.2702110617536	-46.8034229387631	46.8209102052326	-19.4781013410824	8.42956798647524	
2572333333.33342	-17.3658830186073	-117.319178548468	-10.2942634436227	55.943482191866	-46.5153617474308	44.4237148748256	-19.431157987452	8.67456342206978	
2572666666.66675	-17.3515222928647	-118.103297969784	-10.3015397992577	53.5716188674433	-46.6107153282529	43.0813882718562	-19.3902596199419	8.62227152010205	
2573000000.00008	-17.333810818116	-118.829528355803	-10.3088640736473	51.2570100910126	-46.5942897243039	40.3063013244656	-19.353959161281	8.89019361789882	
2573333333.33342	-17.3022924056265	-119.567571214135	-10.3226906216613	48.8912958841762	-46.5320634892569	37.0466861088685	-19.2996201600284	8.77664487729229	
2573666666.66675	-17.2861137585907	-120.390491569085	-10.3282413254484	46.5710699026758	-46.7611462396029	35.8643367278405	-19.2588639255537	8.76111568835714	
2574000000.00008	-17.2628698352899	-120.991424418317	-10.3335318940824	44.1883585702947	-46.7683908339623	35.8232345212706	-19.2202262171596	8.92493662976381	
2574333333.33342	-17.2635233478138	-121.905596251811	-10.3415875995561	41.8816079066788	-46.5577719023695	32.3791567084981	-19.2077062509848	8.88392428281471	
2574666666.66675	-17.2403651140781	-122.68019830926	-10.3519777631892	39.5263111230323	-46.5595237641316	27.8343406370075	-19.182107275445	8.8860176715655	
2575000000.00008	-17.2506532745694	-123.455465326994	-10.3576612157456	37.20241677883	-46.8419787468268	27.4450727860999	-19.1533816303179	9.07893581170645	
2575333333.33342	-17.2439665888652	-124.250069357924	-10.3631835594892	34.9194303080433	-46.5364425957638	25.3462604132498	-19.1380997843653	8.99416575918508	
2575666666.66675	-17.253183920871	-124.953109389218	-10.3682203130683	32.5865816911074	-46.7403411838918	22.3761311289488	-19.1192079380234	8.98612913559051	
2576000000.00008	-17.2569743263051	-125.793674563129	-10.3800962038499	30.2860366384624	-46.6996831443166	21.80531262555	-19.0883653880445	9.0757605194259	
2576333333.33342	-17.2616408733883	-126.566120321952	-10.3862791478734	27.9716572473944	-46.7723811849202	16.7138437131369	-19.0906270539825	9.04417953107421	
2576666666.66675	-17.2789952998782	-127.508290570425	-10.3847241057778	25.6847510952085	-47.2590887235737	13.8205482729824	-19.0980523011193	9.0628678758107	
2577000000.00008	-17.2973713810197	-128.161682204195	-10.3907363083313	23.4215735925918	-46.7250126285011	14.7037108986589	-19.0806346413565	8.98543542045848	
2577333333.33342	-17.3415194562387	-128.921551139807	-10.3931640303453	21.1778834446012	-46.703363670627	10.6666450298575	-19.1180488895816	9.03570515173407	
2577666666.66675	-17.3620204935825	-129.836378993797	-10.4014622192891	18.8678218353593	-46.7873809478035	7.08450994399442	-19.0992474962492	8.9674985221657	
2578000000.00008	-17.4151610564403	-130.778064497116	-10.4029852813883	16.5749292854987	-46.4940146859257	4.85968869649316	-19.0989158827521	8.79844305059777	
2578333333.33342	-17.4457194540544	-131.569173029025	-10.4063756285896	14.3201662642582	-46.9598477311587	4.75818654921836	-19.1350689834104	8.71303354496432	
2578666666.66675	-17.4948798112625	-132.316144823488	-10.4053422462232	12.0577405268287	-46.9595711671899	1.32828272842421	-19.1565736698617	8.65253718578589	
2579000000.00009	-17.5559569783053	-133.049934022277	-10.4094197645703	9.83302072752248	-46.8533468813471	-1.46348069966948	-19.1604760409247	8.50899453256417	
2579333333.33342	-17.6137793831048	-134.196838125049	-10.4082771269036	7.53359169898074	-46.9577979290165	-1.8314843480928	-19.2078804171388	8.5167830782819	
2579666666.66675	-17.6825018594715	-135.040485495982	-10.4127246457519	5.35077635425519	-46.9077698639072	-4.33920734483389	-19.237980168691	8.29325729010239	
2580000000.00009	-17.7555359276934	-135.94135107153	-10.4104510773101	3.10472610250422	-47.1368879184312	-7.50119635978518	-19.2951498602379	8.22554789354075	
2580333333.33342	-17.8202429957628	-136.734975940609	-10.417815275748	0.801673247002832	-46.8682356561204	-8.76343453378089	-19.3190645806337	8.1332894858071	
2580666666.66675	-17.9133976954845	-137.573463896262	-10.4076139555724	-1.41699938664483	-46.6550535818564	-11.1339680809669	-19.3772634134584	8.00891487392532	
2581000000.00009	-18.0003615068278	-138.54736367453	-10.4070423887465	-3.63853723306644	-46.9110640296743	-13.4862094239818	-19.4242632298572	7.8568024001096	
2581333333.33342	-18.0721865443144	-139.337514682004	-10.4107880889583	-5.9058178951523	-46.5247872720668	-15.1899310795711	-19.4844747732275	7.70747510278403	
2581666666.66675	-18.177425622942	-140.522220285754	-10.4042248084177	-8.11274442769335	-46.9811963911396	-18.5392060117855	-19.5602503103244	7.36431732730578	
2582000000.00009	-18.2551989469709	-141.256960235861	-10.4112284079419	-10.3843114156324	-46.5894583487051	-22.0487522781289	-19.599313911901	7.24885263315953	
2582333333.33342	-18.3769126448595	-142.06757582016	-10.4083816107359	-12.6298035803625	-46.8665346986172	-23.5323823008269	-19.6703544452984	7.15156296636758	
2582666666.66675	-18.462571337498	-143.108295623151	-10.4120523325392	-14.8759556275086	-47.1748450737557	-25.5092438477869	-19.7658810416895	6.9629439882498	
2583000000.00009	-18.5650404804434	-143.881747346408	-10.3998308692759	-17.1040240489926	-46.8467355648224	-27.9384966150154	-19.8385873250307	6.57657535347597	
2583333333.33342	-18.6602569844383	-144.897179445871	-10.4081501410065	-19.358892078964	-46.9711139293521	-29.896626760021	-19.9382085303051	6.54293517607878	
2583666666.66675	-18.7905170992603	-145.885109178433	-10.394574792698	-21.6080585599808	-46.6608413066615	-33.0671066367597	-20.0338487536051	6.29435590056925	
2584000000.00009	-18.9008931952028	-146.729084642458	-10.3988225369984	-23.8624727574236	-47.1447224101879	-32.8519456720794	-20.1381931692715	6.02013946282748	
2584333333.33342	-19.0329979122193	-147.560197007818	-10.3961523115013	-26.1077157837304	-46.9229242482948	-37.5659405614613	-20.2584628270787	5.75398818581684	
2584666666.66675	-19.1224587414534	-148.528976430773	-10.3944543348709	-28.3606193318863	-46.7821120207686	-38.7702230007967	-20.3538989404878	5.57512121262394	
2585000000.00009	-19.2436970010811	-149.501704568704	-10.3963911080949	-30.6205603147748	-46.9888950652299	-42.0308072386933	-20.4564753665985	5.33137287609522	
2585333333.33342	-19.3876813805286	-150.362945573959	-10.3883317045069	-32.8260557196591	-46.6267830733216	-43.7874403551836	-20.5664869848119	5.04017581761667	
2585666666.66676	-19.5104743186754	-151.458713283829	-10.3843824155436	-35.0845737816335	-46.7438498359407	-47.0810093658155	-20.7011375471983	4.8837969681951	
2586000000.00009	-19.646902157144	-152.260046653762	-10.3882438783534	-37.3229581604401	-46.7929357348045	-47.433586776608	-20.8230744580625	4.39720082234075	
2586333333.33342	-19.7730431049001	-153.169079860919	-10.3900120861417	-39.5977588219937	-46.9792918655691	-49.8507310298519	-20.9582655668034	4.17507105181435	
2586666666.66676	-19.9143196683643	-154.128271826136	-10.3888417588964	-41.7974000981988	-46.9368465456999	-53.338204438945	-21.0927857002673	4.07330674815155	
2587000000.00009	-20.0420206262859	-155.180697344278	-10.3779212541004	-44.0412618662153	-46.8333507625026	-55.6150257807896	-21.2303837811919	3.73873752597431	
2587333333.33342	-20.1811934773939	-156.203350410212	-10.3730254119879	-46.3369101115612	-46.810317996032	-57.6904604994768	-21.3649804331342	3.36967398440726	
2587666666.66676	-20.3092642789457	-156.944074428535	-10.3772223911487	-48.6024312910656	-46.854658726213	-59.7599130021078	-21.5171929900584	3.13158047925144	
2588000000.00009	-20.4590895386669	-158.032372017483	-10.3739147928948	-50.8214365123268	-46.8186501827535	-61.6939981676175	-21.6653990953074	2.95622141450042	
2588333333.33342	-20.608824705727	-158.959345316597	-10.3694601826691	-53.0625137410795	-46.6363512325322	-62.5453385107382	-21.8648968803474	2.67014254820531	
2588666666.66676	-20.7467290589037	-160.02714951525	-10.3709936182523	-55.3585422109493	-47.1923484030501	-66.183231223766	-22.0026474001439	2.35601483636479	
2589000000.00009	-20.876036152366	-160.861444363481	-10.3664086359687	-57.6149933517797	-46.6428690323921	-68.5689579197385	-22.1762607260545	2.08281342315476	
2589333333.33342	-21.0054154387756	-161.930112119556	-10.3605788234426	-59.8777941369756	-46.8138020676429	-70.3861093486722	-22.3587956129271	1.79012891362784	
2589666666.66676	-21.1432770163749	-163.107896197571	-10.3673391701463	-62.1431338280187	-46.9927288511192	-70.6355844610419	-22.5262024365637	1.57259492579464	
2590000000.00009	-21.2678961853205	-164.025354965	-10.3648868190934	-64.4039823858733	-46.6995801588917	-75.6787167402198	-22.6808361163635	1.32329473022743	
2590333333.33342	-21.4159149386735	-165.051956266985	-10.3625110128609	-66.6622390806435	-47.0432053516203	-78.8160041495273	-22.8554061034828	1.19079586360456	
2590666666.66676	-21.523998906054	-166.168606834523	-10.3637939278987	-68.9229960836728	-46.6033125890386	-80.3369386775736	-23.0524465373591	0.9038071514055	
2591000000.00009	-21.6826739556345	-167.320968396075	-10.3602705211184	-71.1915836936504	-46.9122031474054	-81.6319192008191	-23.2259689226921	0.696091363922044	
2591333333.33342	-21.7657110608907	-168.55546781953	-10.3575685301163	-73.5042452731477	-46.8814377491916	-83.8080349131241	-23.4196409988136	0.616523543732779	
2591666666.66676	-21.9052053896144	-169.648798453828	-10.3542055023634	-75.7382848795211	-46.864495114525	-86.2220547152906	-23.6384904296017	0.0212676440839701	
2592000000.00009	-22.031279541865	-170.882995012399	-10.3498385145789	-78.0428752168139	-46.8472285488647	-88.3552825168758	-23.847836588767	0.00907180106080935	
2592333333.33343	-22.1331260418966	-172.029841792032	-10.3482068925725	-80.3554510573674	-46.8715031902867	-90.0112180558785	-24.033509174869	-0.193439836437955	
2592666666.66676	-22.2275266549901	-173.203647027178	-10.3483596232124	-82.6188994530112	-46.7214719401718	-93.9606250884014	-24.2282296744319	-0.493829291355665	
2593000000.00009	-22.3430277882224	-174.567000874911	-10.3484843104595	-84.9394513769545	-46.5945872116586	-96.3682334233797	-24.4131010583864	-0.429970262666054	
2593333333.33343	-22.4105997884996	-176.123403365925	-10.3449407749206	-87.2224415887182	-46.7675248821801	-95.3802005310982	-24.636667827857	-0.798525344848556	
2593666666.66676	-22.4902983739368	-177.395857258934	-10.3375514833753	-89.5265115414509	-46.868217368284	-99.5897657064113	-24.8355497329841	-0.93745665728945	
2594000000.00009	-22.5785414065871	-178.638960733098	-10.3394525141979	-91.7653895833328	-46.7855702862946	-101.653488291832	-25.0683355477989	-1.03023348063768	
2594333333.33343	-22.6005345189194	179.782866917997	-10.3350718560188	-94.0435235183341	-46.7671961371299	-103.339645112502	-25.2417607621368	-1.07283100675817	
2594666666.66676	-22.6552318029926	178.294252245541	-10.3346923045372	-96.3763118000044	-46.6109250404	-107.811971284425	-25.4234300304605	-1.39520762726201	
2595000000.00009	-22.739686856024	176.830547862618	-10.337213425541	-98.6755684063249	-46.5277984059534	-109.445108753375	-25.6564749423717	-1.41401423431697	
2595333333.33343	-22.7275337299266	175.071392164823	-10.3247863318973	-101.025056902366	-46.5854312910341	-108.960890710982	-25.8287077513092	-1.38008006309758	
2595666666.66676	-22.7535765090081	173.804843918449	-10.3324050432895	-103.285096391294	-46.5713234319135	-113.676386306205	-26.0175586555414	-1.51652847905076	
2596000000.00009	-22.7685264981603	172.058805584843	-10.3317342645162	-105.574037550253	-46.5328716287933	-115.828530350286	-26.1766841172659	-1.56590752897893	
2596333333.33343	-22.7578597541022	170.478314385286	-10.3287043458267	-107.878402826675	-46.5740275490792	-118.815409985331	-26.3627627561642	-1.24709065832883	
2596666666.66676	-22.7344918756134	168.602359068749	-10.3295657775968	-110.152479265832	-46.848373436519	-121.778784973749	-26.4574604721807	-1.22846236779863	
2597000000.00009	-22.7229740516788	167.134955689618	-10.3242228241283	-112.506316191115	-46.6074571075197	-122.858073166038	-26.6686355873777	-1.01762780846864	
2597333333.33343	-22.6715790070862	165.435054712483	-10.3333573138183	-114.844013901421	-46.6360300173224	-124.971920664999	-26.8351680099892	-1.21547652204832	
2597666666.66676	-22.6029548676679	163.502199597494	-10.3270394194795	-117.081792920258	-46.6219131084389	-127.698692242118	-26.9687510828373	-0.847817810876677	
2598000000.00009	-22.5300421229353	161.576781917749	-10.3242337559609	-119.414973320907	-46.5319926413339	-130.13351959682	-27.0633014929742	-0.995798257491309	
2598333333.33343	-22.4461861684736	159.780666897664	-10.3303007287186	-121.775567207693	-46.7564530337329	-130.768896506252	-27.2324554116408	-0.775945661317186	
2598666666.66676	-22.3783224985086	157.985169524207	-10.3294811344739	-124.042769346673	-46.3574339350943	-131.97262764429	-27.3054194310402	-0.512461644365617	
2599000000.00009	-22.2728769035378	156.176623341099	-10.3369162270884	-126.339565219863	-46.8742561743496	-136.843152607859	-27.3727127041265	-0.323061714404249	
2599333333.33343	-22.157103770816	154.33713063337	-10.347595117454	-128.669146490443	-46.4139628071105	-136.481195692014	-27.4679051248782	-0.140192504408878	
2599666666.66676	-22.0344498609394	152.400069636486	-10.3420191438592	-130.994231272678	-46.6830489202106	-140.11523717311	-27.5390608898336	0.130715804201195	
2600000000.0001	-21.9154759486491	150.773066411017	-10.3585321040351	-133.31699101063	-46.4436757557705	-144.474036166425	-27.5758167291206	0.292360251124374	
