"Phi [deg]","GainZ [] - Freq='2.5GHz' Theta='90deg'"
0,1.40938935038596
1,1.4104556629795
2,1.41167099268537
3,1.41303481936979
4,1.41454284605103
5,1.41618709237185
6,1.41795606108103
7,1.41983497189635
8,1.4218060560646
9,1.42384890407619
10,1.42594085833073
11,1.42805744207854
12,1.43017281567376
13,1.43226025105797
14,1.43429261543822
15,1.43624285531935
16,1.43808447238611
17,1.43979198319344
18,1.4413413552016
19,1.44271041237167
20,1.44387920430228
21,1.44483033372365
22,1.44554923805289
23,1.44602442163634
24,1.44624763624171
25,1.44621400829563
26,1.44592211227249
27,1.44537399051004
28,1.44457512054175
29,1.44353433178036
30,1.44226367405317
31,1.44077824106794
32,1.43909595237727
33,1.43723729780659
34,1.43522504862038
35,1.43308393992741
36,1.4308403289768
37,1.42852183408129
38,1.42615695893302
39,1.42377470706036
40,1.42140419112275
41,1.41907424166382
42,1.41681301984848
43,1.41464763860547
44,1.41260379648631
45,1.41070542843745
46,1.40897437756579
47,1.40743009185509
48,1.40608934965928
49,1.40496601765085
50,1.40407084473164
51,1.4034112952085
52,1.40299142428845
53,1.40281179864564
54,1.40286946444463
55,1.40315796476252
56,1.40366740782652
57,1.4043845868701
58,1.40529315170491
59,1.40637383131155
60,1.40760470587395
61,1.40896152573337
62,1.41041807373471
63,1.41194656640386
64,1.41351808835809
65,1.41510305334585
66,1.41667168437353
67,1.4181945045458
68,1.41964282956041
69,1.42098925229875
70,1.42220810967328
71,1.4232759218616
72,1.42417179429666
73,1.4248777733047
74,1.42537914708788
75,1.42566468482749
76,1.42572680801227
77,1.42556168964097
78,1.42516927866402
79,1.4245532488622
80,1.42372087325025
81,1.42268282697727
82,1.42145292350764
83,1.42004779054527
84,1.41848649365205
85,1.41679011676058
86,1.41498130975249
87,1.41308381394124
88,1.41112197664803
89,1.40912026609199
90,1.40710279754252
91,1.40509288112742
92,1.40311260088641
93,1.4011824336475
94,1.39932091512546
95,1.39754435934386
96,1.39586663610727
97,1.39429900983993
98,1.39285004169391
99,1.39152555544359
100,1.39032866634413
101,1.3892598708541
102,1.38831719391694
103,1.38749638936717
104,1.38679118798071
105,1.3861935867282
106,1.38569417192478
107,1.38528246821031
108,1.38494730465816
109,1.38467718881979
110,1.38446067919399
111,1.38428674649099
112,1.38414511417216
113,1.38402656911107
114,1.38392323385883
115,1.3838287929155
116,1.38373866660468
117,1.38365012760218
118,1.38356235684526
119,1.38347643739769
120,1.38339528680156
121,1.38332353043476
122,1.38326732033067
123,1.38323410571786
124,1.38323236312163
125,1.3832712951613
126,1.38336050811656
127,1.38350967887962
128,1.38372822203343
129,1.38402496749889
130,1.38440785849573
131,1.38488367850496
132,1.38545781456411
133,1.38613406264551
134,1.38691447914627
135,1.38779928074529
136,1.38878679314652
137,1.3898734476117
138,1.39105382276082
139,1.39232072794367
140,1.39366532359969
141,1.39507727344678
142,1.39654492307293
143,1.39805549952703
144,1.3995953267802
145,1.40115005240362
146,1.40270488141766
147,1.40424481394206
148,1.40575488394309
149,1.40722039696504
150,1.40862716518892
151,1.4099617384373
152,1.41121162981093
153,1.41236553449399
154,1.41341353991365
155,1.41434732492003
156,1.41516034501906
157,1.41584800001053
158,1.4164077797342
159,1.41683938309037
160,1.41714480515466
161,1.41732838711687
162,1.41739682399354
163,1.41735912562037
164,1.41722652733112
165,1.41701234795223
166,1.41673179424156
167,1.41640171260823
168,1.41604029078375
169,1.41566671397776
170,1.41530078184643
171,1.41496249423292
172,1.41467161502415
173,1.41444722453793
174,1.41430727156216
175,1.41426813648768
176,1.41434421690561
177,1.41454754659506
178,1.41488745804307
179,1.41537029756156
180,1.41599920075016
181,1.41677393455751
182,1.4176908105696
183,1.4187426724565
184,1.41991895877867
185,1.42120584062999
186,1.42258643190533
187,1.42404106835043
188,1.42554765000287
189,1.42708204018523
190,1.42861851288792
191,1.43013023920393
192,1.43158980247973
193,1.43296973105668
194,1.43424303692768
195,1.43538374835625
196,1.43636742452525
197,1.43717164062042
198,1.43777643241776
199,1.43816469042789
200,1.43832249493693
201,1.43823938483542
202,1.43790855489595
203,1.4373269780847
204,1.4364954515004
205,1.43541856655082
206,1.43410460592441
207,1.43256537172064
208,1.43081595070166
209,1.42887442396726
210,1.42676152939685
211,1.42450028592301
212,1.42211558909631
213,1.41963378748019
214,1.417082249202
215,1.41448892751738
216,1.41188193356442
217,1.4092891236406
218,1.40673770737946
219,1.40425388218626
220,1.4018624982569
221,1.39958675749244
222,1.39744794866533
223,1.39546522031733
224,1.39365539209036
225,1.39203280451952
226,1.39060920675492
227,1.38939368122405
228,1.38839260389182
229,1.38760963851185
230,1.38704576307902
231,1.38669932657709
232,1.38656613405441
233,1.38663955804485
234,1.38691067436787
235,1.38736842038381
236,1.38799977383729
237,1.38878995048732
238,1.38972261878689
239,1.39078012993171
240,1.39194376163537
241,1.39319397399914
242,1.3945106758145
243,1.39587349955578
244,1.39726208317571
245,1.39865635659829
246,1.4000368305046
247,1.40138488462595
248,1.40268305229993
249,1.40391529752398
250,1.40506728018065
251,1.40612660454459
252,1.40708304565672
253,1.40792874771791
254,1.40865838836876
255,1.40926930263977
256,1.40976156052858
257,1.41013799262891
258,1.41040415902486
259,1.41056825778088
260,1.41064097078447
261,1.4106352463969
262,1.41056602027318
263,1.41044987774535
264,1.41030466322664
265,1.41014904408611
266,1.41000203826069
267,1.40988251642186
268,1.40980869071813
269,1.4097976029174
270,1.40986462514281
271,1.41002298632881
272,1.41028333704134
273,1.41065336445032
274,1.41113746807244
275,1.41173650548475
276,1.41244761561421
277,1.41326412549784
278,1.4141755446356
279,1.41516764926063
280,1.41622265705249
281,1.41731949102524
282,1.41843412953164
283,1.41954003752987
284,1.42060867245243
285,1.42161005620094
286,1.42251340297886
287,1.42328779090105
288,1.42390286363495
289,1.42432954680503
290,1.42454076261495
291,1.42451212520517
292,1.42422259876216
293,1.42365510041577
294,1.4227970305712
295,1.42164071456412
296,1.42018374140938
297,1.4184291879068
298,1.41638571940404
299,1.41406756199125
300,1.41149434467981
301,1.4086908140386
302,1.40568642765169
303,1.40251483644875
304,1.39921326927542
305,1.39582183587278
306,1.39238276660615
307,1.38893960874538
308,1.38553639981375
309,1.38221683849435
310,1.37902347285505
311,1.37599692430568
312,1.3731751638392
313,1.37059285486059
314,1.36828077440666
315,1.36626532194373
316,1.36456812232317
317,1.36320572698601
318,1.36218941522175
319,1.36152509526188
320,1.36121330325438
321,1.36124929672401
322,1.36162323795278
323,1.36232046177453
324,1.36332182151391
325,1.36460410615349
326,1.36614052122715
327,1.36790122536303
328,1.36985391380053
329,1.37196443956599
330,1.37419746231246
331,1.37651711413347
332,1.37888767098911
333,1.38127421779003
334,1.38364329473583
335,1.38596351226516
336,1.38820612201182
337,1.39034553152671
338,1.39235975126174
339,1.39423076343641
340,1.39594480392016
341,1.39749255013623
342,1.39886921017791
343,1.40007451075498
344,1.4011125841721
345,1.4019917571843
346,1.40272424717442
347,1.4033257735529
348,1.40381509449506
349,1.4042134810232
350,1.40454414194283
351,1.40483161420725
352,1.40510113388606
353,1.40537800304643
354,1.40568696753609
355,1.40605161991752
356,1.40649384069328
357,1.40703328954091
358,1.40768695661073
359,1.40846878210145
360,1.40938935038596
