"Phi [deg]","GainZ [] - Freq='2.5GHz' Theta='90deg'"
0,1.49131650114528
1,1.70254693421328
2,1.93680915840529
3,2.04159826855721
4,1.95440103865661
5,1.71893588877408
6,1.45214792526365
7,1.28026591570615
8,1.27435688420398
9,1.41428575131682
10,1.59647402498087
11,1.6816601410427
12,1.56191203447604
13,1.21783943443818
14,0.740174858710885
15,0.303423512371524
16,0.0984456125876681
17,0.248847297835846
18,0.745875672376318
19,1.4330849518285
20,2.05461206726638
21,2.3545017615606
22,2.18937034950919
23,1.60478719817564
24,0.835331307555896
25,0.218623532602885
26,0.0532883071919249
27,0.461348458655807
28,1.320170168941
29,2.30190905345582
30,3.00955700861855
31,3.15096317424396
32,2.67027936560921
33,1.77343379902473
34,0.834013713173288
35,0.224130773235889
36,0.151579024208798
37,0.580375338454072
38,1.26852193865871
39,1.89736926848939
40,2.22275502555471
41,2.1720042438517
42,1.84463080761261
43,1.42822912959961
44,1.08457239113226
45,0.871287088718246
46,0.738131076148931
47,0.590946021004017
48,0.377841417467607
49,0.142353613019923
50,0.010996865395029
51,0.122971274287331
52,0.543865896385584
53,1.21396132407939
54,1.96147323135803
55,2.57450569436045
56,2.89363851678982
57,2.87715192577263
58,2.60709227024431
59,2.23654479678298
60,1.90861256210392
61,1.69006430970252
62,1.5521727790378
63,1.40493773853068
64,1.16324929073115
65,0.808601731873117
66,0.414152686821472
67,0.120656000474225
68,0.0752753577989461
69,0.362481639179127
70,0.958764348809528
71,1.73091772088808
72,2.47792112030904
73,2.99831854810641
74,3.15604936426291
75,2.92054368799235
76,2.36892861767731
77,1.65339077645222
78,0.948761112460705
79,0.400164536542248
80,0.0875287071763795
81,0.0153490961893197
82,0.126349718571738
83,0.330253211128444
84,0.535872630832755
85,0.676239234127763
86,0.720976638489818
87,0.675429190740702
88,0.57020569968483
89,0.446725867915268
90,0.343993954774241
91,0.289896575206471
92,0.297893991266801
93,0.368004577875977
94,0.490022670383063
95,0.647019772046178
96,0.818022154365512
97,0.979809733296216
98,1.10855142627223
99,1.18218965886328
100,1.18408693860739
101,1.10766253654682
102,0.960923891816953
103,0.769285043547544
104,0.575097901545146
105,0.432949099188526
106,0.400845622136995
107,0.528627828388032
108,0.845951950177421
109,1.35266469161093
110,2.01417407671407
111,2.7635124276104
112,3.51038276910383
113,4.15590673035314
114,4.610427204196
115,4.81089307555556
116,4.73426828740851
117,4.40409012608043
118,3.88860188995131
119,3.29051840006756
120,2.73010208566112
121,2.32450537589897
122,2.16703492899657
123,2.31001065324461
124,2.75426290858671
125,3.447183909496
126,4.28984047704106
127,5.15219676707673
128,5.89419357072812
129,6.38944404059997
130,6.54774455486004
131,6.33253738248163
132,5.76994689596117
133,4.94706376365248
134,3.99874193602373
135,3.08418121802878
136,2.3567429018104
137,1.93238991992564
138,1.86334835698337
139,2.12353922702737
140,2.61067103707278
141,3.16660239366328
142,3.61315622255587
143,3.79598168125097
144,3.62565864096174
145,3.104367029093
146,2.32896820855685
147,1.46720238919997
148,0.711647147689714
149,0.223813861465917
150,0.0855309843348485
151,0.274308373807676
152,0.672912724353948
153,1.11227022040217
154,1.43448795638451
155,1.55382134449694
156,1.49186711967961
157,1.37088078215009
158,1.3641694535351
159,1.6198786121577
160,2.18727955018991
161,2.97689333740179
162,3.77514724028585
163,4.31368133363654
164,4.37052744860423
165,3.86472406125237
166,2.90497951580695
167,1.76855893445367
168,0.813384776045287
169,0.353764621999555
170,0.546496226909677
171,1.33178056875652
172,2.45261855420389
173,3.54547835284601
174,4.26695438453082
175,4.40778979217157
176,3.9524551579762
177,3.06601415173121
178,2.01957864871736
179,1.08838674969207
180,0.463312762151566
181,0.206051911264869
182,0.256760730855701
183,0.481204874081105
184,0.731879191003185
185,0.897986185359537
186,0.929785498500128
187,0.836577276975949
188,0.667403945221211
189,0.48611027161373
190,0.34912381201112
191,0.289506584337431
192,0.308257128765806
193,0.374188978231685
194,0.434503123125937
195,0.436189501499848
196,0.352782226920564
197,0.204727474192658
198,0.0599738225995048
199,0.00813486523638162
200,0.11539670710158
201,0.381246554126937
202,0.722817400033308
203,1.00253587975261
204,1.09253970534969
205,0.946166750026528
206,0.636839825175105
207,0.336500886124366
208,0.236071722588038
209,0.444077645992771
210,0.917104992285165
211,1.46468417814601
212,1.83442997438715
213,1.8392218180967
214,1.46140577139667
215,0.876216048989714
216,0.376372592959381
217,0.231929178363403
218,0.555555727522076
219,1.24287935529789
220,2.01945788964642
221,2.57050609505988
222,2.68670094023543
223,2.35246116782218
224,1.73533458441816
225,1.08823888627947
226,0.620940175280772
227,0.409513264175817
228,0.387399590086094
229,0.414633425565802
230,0.379666518634854
231,0.273678510704821
232,0.196583815858845
233,0.294484935435661
234,0.666625768762801
235,1.29524626763037
236,2.03723644016803
237,2.68180190101508
238,3.04327023900758
239,3.04122780130989
240,2.72895780542237
241,2.25923523907753
242,1.80810924025011
243,1.49618866490437
244,1.34486564374415
245,1.28483747150599
246,1.2077341738449
247,1.03204881591558
248,0.750480715623655
249,0.437461510761184
250,0.215876573083361
251,0.200600570121483
252,0.44528773170549
253,0.91521101543911
254,1.4959911663779
255,2.03250938547627
256,2.38095344747409
257,2.45379417211801
258,2.24253268711587
259,1.81303803516341
260,1.27860244623113
261,0.762602697634581
262,0.364079854347612
263,0.136176177940426
264,0.0813608833109531
265,0.161362751619699
266,0.315737054579933
267,0.481874624015259
268,0.610667895880979
269,0.674866649803395
270,0.67008478948906
271,0.610473220188376
272,0.521838896355841
273,0.434614186880531
274,0.378069731217938
275,0.376106483910851
276,0.444295363076767
277,0.587716895123954
278,0.799476347011477
279,1.06024608628117
280,1.33949929707347
281,1.59903023998081
282,1.79886550499707
283,1.90490150936941
284,1.89682551544666
285,1.77438944783659
286,1.56013192543438
287,1.297255799897
288,1.04245548722857
289,0.854783721003693
290,0.782801355851127
291,0.852932637583863
292,1.06192975590858
293,1.37558996648293
294,1.73451687212854
295,2.06608536462448
296,2.30024981124535
297,2.38580206592508
298,2.3034025297309
299,2.0722601679868
300,1.74861707104465
301,1.41592421400928
302,1.16840225217942
303,1.09117570670433
304,1.24103218465959
305,1.63190471687396
306,2.22838302982731
307,2.94906765735905
308,3.67965860051495
309,4.29366900528217
310,4.67695100286078
311,4.75116123903053
312,4.49113827639798
313,3.932038741284
314,3.16393276867243
315,2.31413744334
316,1.5204131808438
317,0.900649833143373
318,0.526159254959593
319,0.405601334503651
320,0.484617565943508
321,0.662597549113348
322,0.823361402968361
323,0.872078824884443
324,0.767864947885072
325,0.541419936348717
326,0.290394506862581
327,0.151426595919625
328,0.255435061707504
329,0.679366590335949
330,1.41062422242121
331,2.33811433797544
332,3.27615400732885
333,4.0163706208778
334,4.39189948689411
335,4.33189417461016
336,3.88576264115273
337,3.20615622414875
338,2.49477058856274
339,1.92997608064306
340,1.60393929581869
341,1.49486156546747
342,1.48696145378713
343,1.43136303276845
344,1.22299226928876
345,0.860020225998909
346,0.457958485893368
347,0.208886404048273
348,0.300207106570473
349,0.826403526092635
350,1.73255357107657
351,2.8166373566973
352,3.79330919172264
353,4.39520789129483
354,4.47090976061253
355,4.03916657382186
356,3.27721171319197
357,2.44875564743602
358,1.802478210386
359,1.48325859554438
360,1.49131650114528
