"Phi [deg]","GainZ [] - Freq='2.5GHz' Theta='90deg'"
0,0.465322259102314
1,0.554062518850203
2,1.08531569845538
3,1.96207025481339
4,2.74307990389731
5,2.88443610320434
6,2.18949612130315
7,1.06986138077278
8,0.32402702209013
9,0.552266594730405
10,1.67225290669392
11,2.94678693015147
12,3.51579322931314
13,3.01044813293604
14,1.7771980598838
15,0.575755217861715
16,0.027732994630863
17,0.241196479383048
18,0.842645976789994
19,1.31785898287812
20,1.36792908603884
21,1.03901949676153
22,0.59248121314371
23,0.269288976204649
24,0.146832441858849
25,0.180297627148374
26,0.355768300535261
27,0.784459926775138
28,1.6193800653768
29,2.84586303347314
30,4.14357245441842
31,4.99364586143225
32,5.00287384857725
33,4.20377520366362
34,3.0701691469919
35,2.20655272574837
36,1.94591533870075
37,2.17437013905068
38,2.50828180905393
39,2.6494917563132
40,2.60501466365677
41,2.59803564100699
42,2.78109304546267
43,3.03182554128433
44,3.02389852491672
45,2.51261665014327
46,1.58528222500277
47,0.657989127442281
48,0.212170087466961
49,0.470442215426539
50,1.24940928351163
51,2.08385545282496
52,2.51883827050713
53,2.36369606939026
54,1.75382210751191
55,1.01287847937108
56,0.435516765746605
57,0.138282834560474
58,0.0549626332965945
59,0.0467140327608033
60,0.0303939000993456
61,0.0349841070827507
62,0.158508502686738
63,0.468158618094782
64,0.920068636672018
65,1.35664838392647
66,1.58585032810194
67,1.49372430650702
68,1.12062115676046
69,0.652861984971861
70,0.33110423659501
71,0.324611231646515
72,0.64012664066761
73,1.11513799509203
74,1.49962921453506
75,1.58362339611585
76,1.30486528131693
77,0.782820386692344
78,0.263828938310071
79,0.0064909606001655
80,0.163694839477207
81,0.716014823764637
82,1.4838029084495
83,2.20762031812655
84,2.65729793954524
85,2.72132663930572
86,2.44170896121441
87,1.98598064900363
88,1.57448491763589
89,1.3960755457892
90,1.54491152900528
91,1.99790715127321
92,2.63431315179196
93,3.28383345552822
94,3.78264607721441
95,4.01840363070048
96,3.95294626550706
97,3.62082086404928
98,3.10913374119898
99,2.52796223890892
100,1.9806154082765
101,1.54075129303588
102,1.24023865044443
103,1.06874234813688
104,0.983708171556031
105,0.92768550197449
106,0.848655432513409
107,0.718323961878215
108,0.543495526431379
109,0.36695648646756
110,0.256784662956764
111,0.28621871119196
112,0.509311364308375
113,0.939522552035359
114,1.53834248208051
115,2.21866954586262
116,2.86344495900707
117,3.35512882416043
118,3.60760094390102
119,3.59054623523649
120,3.3382481164496
121,2.93970049258732
122,2.51344820438393
123,2.17601259798905
124,2.01464340888714
125,2.07232065776394
126,2.34660682687396
127,2.79750900852922
128,3.35691915550757
129,3.93544220386564
130,4.42948655284814
131,4.73668384815393
132,4.78502925278829
133,4.56932711124818
134,4.17423933475225
135,3.7587494758662
136,3.49180713301699
137,3.46049472798678
138,3.60171289926879
139,3.71092544948292
140,3.5440032289875
141,2.96598339255545
142,2.0548396825933
143,1.08036894143243
144,0.354180544907553
145,0.0415257215727122
146,0.0670732383636329
147,0.190256576122578
148,0.200308326261809
149,0.0803293398791378
150,0.00343674982905224
151,0.156833111621446
152,0.540775530064235
153,0.92591795388541
154,1.02638519759556
155,0.752606286573917
156,0.318496184834612
157,0.0880542273280384
158,0.276123583552024
159,0.76363604651764
160,1.20323676251801
161,1.33486232054741
162,1.23011351093418
163,1.2331416336704
164,1.63541334034284
165,2.37149437120902
166,3.01754519744647
167,3.10875126484282
168,2.50617965655518
169,1.5009714256389
170,0.581892095286386
171,0.0862605531039689
172,0.0322432477813483
173,0.233060324774562
174,0.525309482622154
175,0.866808651415195
176,1.2354595802308
177,1.49424784626498
178,1.42862808254716
179,0.964052007683664
180,0.341611841111909
181,0.0224139896385107
182,0.340034130082924
183,1.18914577915689
184,2.04900720243203
185,2.35740986230678
186,1.93231104118388
187,1.09029207527187
188,0.381700225482563
189,0.191710071590368
190,0.535908791434997
191,1.15828868264611
192,1.76344562948591
193,2.15494242393998
194,2.22573747488243
195,1.92467524225587
196,1.3033439769688
197,0.581974424164167
198,0.090061548916408
199,0.0596866646402794
200,0.440655791386594
201,0.929557381459736
202,1.20735738398303
203,1.16906716181895
204,0.940214103215816
205,0.70105495077708
206,0.532257492282344
207,0.443657258689571
208,0.514929411275408
209,0.931822695082402
210,1.81502908300245
211,2.99188459079625
212,3.97313383837725
213,4.23025971197448
214,3.57862667352959
215,2.34589190389162
216,1.17165555970294
217,0.589453679305272
218,0.710383201033757
219,1.22436480204846
220,1.67334133017926
221,1.76181081353138
222,1.48932272601803
223,1.06144764884449
224,0.698042371132874
225,0.494452471134942
226,0.410665654413105
227,0.355979076803071
228,0.283408989293394
229,0.22604405100627
230,0.262308025917612
231,0.445109797406697
232,0.747253800216494
233,1.06057459405694
234,1.25094820522318
235,1.2350041217454
236,1.0284034447091
237,0.732446829253106
238,0.467455225308084
239,0.299876369823932
240,0.2159265081546
241,0.160530423520155
242,0.109948095812026
243,0.117991685517934
244,0.292595653842858
245,0.711289283221647
246,1.33337963372479
247,1.97652641209069
248,2.38681058160154
249,2.3696501909027
250,1.90557460385531
251,1.17905172526085
252,0.497919907277592
253,0.144478896450909
254,0.238288287594258
255,0.683170027484274
256,1.22339874823356
257,1.57555721097335
258,1.56571840777431
259,1.20422545502826
260,0.667150157648313
261,0.20197195479029
262,0.00942030476892054
263,0.158616346647706
264,0.570136601094771
265,1.06615806430102
266,1.45699479779491
267,1.62187271401594
268,1.550718716963
269,1.33544872547367
270,1.12191250034092
271,1.04747469883805
272,1.1902660389156
273,1.54676543227477
274,2.04067128830538
275,2.55433549389435
276,2.96826522191877
277,3.19487520030032
278,3.1977219818591
279,2.99382315733925
280,2.64185977392312
281,2.22191641661532
282,1.81303907755197
283,1.47406680306603
284,1.23170490106747
285,1.07806880061523
286,0.977998320275081
287,0.884309737891292
288,0.757031009979176
289,0.581096266092071
290,0.376666390818018
291,0.197714086802475
292,0.117742759134191
293,0.205759830098404
294,0.499558496300535
295,0.985446551594142
296,1.59264802848351
297,2.20647326389487
298,2.69801317773465
299,2.96167044759275
300,2.94787635026017
301,2.6789131829378
302,2.24134446008376
303,1.75743371122764
304,1.34650678558377
305,1.09138431559207
306,1.02226068353261
307,1.12155933677038
308,1.34277351903682
309,1.63017146862255
310,1.92862894279899
311,2.18268446160835
312,2.33451987369524
313,2.33335165013735
314,2.15946827949047
315,1.84981246357071
316,1.50137833002617
317,1.23593139213501
318,1.13521909829649
319,1.18418440211361
320,1.26683019031555
321,1.23169205161178
322,0.993766062721444
323,0.603257900329805
324,0.223620260495703
325,0.0240472982811062
326,0.0625093023284603
327,0.254044845833166
328,0.457719169261594
329,0.613829479229966
330,0.80671122205035
331,1.17999366082344
332,1.76295593230954
333,2.36753213744056
334,2.68022149992171
335,2.5074637592581
336,1.97259413684195
337,1.46614054684285
338,1.3481669519352
339,1.63638517111
340,1.96581991524012
341,1.89422957335782
342,1.31455731891321
343,0.60556124176681
344,0.351299250815209
345,0.839229376723854
346,1.76872218439659
347,2.44679365041994
348,2.33151580810561
349,1.47172596216331
350,0.470985349623142
351,0.0109000088031506
352,0.340640697955267
353,1.14595486448618
354,1.86044512011054
355,2.10662738083287
356,1.89164574892958
357,1.45946304101744
358,1.02501704207075
359,0.67269212596988
360,0.46532225910232
