"Phi [deg]","GainZ [] - Freq='2.5GHz' Theta='90deg'"
0,0.440064858002684
1,0.721235315719096
2,1.04429586975338
3,1.47138784937445
4,2.11400097058375
5,2.82488970194406
6,3.17833690362467
7,2.83648598522869
8,1.9561065845167
9,1.18665696935254
10,1.18007724122799
11,2.01936404839764
12,3.08992877601228
13,3.53828774453265
14,2.94229774096192
15,1.63702984475314
16,0.447057400345729
17,0.0708383160745065
18,0.612789075055876
19,1.58879401900079
20,2.33412181409749
21,2.46054428779797
22,2.03620104018797
23,1.42497893821916
24,0.984830168836814
25,0.884092148558771
26,1.13108355673175
27,1.69276775260636
28,2.51553944577671
29,3.41555343596751
30,4.0106054763472
31,3.87914621427989
32,2.90087933980758
33,1.48395383627073
34,0.405630879096541
35,0.316301007830161
36,1.28297223308743
37,2.74586687003803
38,3.91647080932886
39,4.28363468523346
40,3.84708709162786
41,2.97289862882049
42,2.07257618678451
43,1.37754998922554
44,0.91670516262362
45,0.617535113592438
46,0.406621122646437
47,0.257622471935636
48,0.199517756819293
49,0.296650064644179
50,0.59516802286888
51,1.05415613224023
52,1.51971895313782
53,1.78833189835888
54,1.73017154225243
55,1.37668939892792
56,0.89611955827466
57,0.475808149849498
58,0.21044595904409
59,0.0836501743975034
60,0.0414184013258163
61,0.0763562126828423
62,0.241746980501792
63,0.585724015361917
64,1.06844561331703
65,1.53871371816056
66,1.79812200323534
67,1.71529635482482
68,1.31719139498421
69,0.795833560044904
70,0.415313638257003
71,0.361176676910545
72,0.616750228877162
73,0.953005484938178
74,1.06511706386114
75,0.795174886384459
76,0.300804843453177
77,0.0306999354606561
78,0.47564460253103
79,1.82332604351899
80,3.74491863388936
81,5.49017759714123
82,6.27565507414218
83,5.73996322600304
84,4.16664331949588
85,2.31123578604764
86,0.935988924240349
87,0.366663252177598
88,0.378015801481572
89,0.477021942402598
90,0.352495099403401
91,0.128718400792636
92,0.216639813157979
93,0.890834068292285
94,1.96288183920196
95,2.85342618364476
96,3.02219467045759
97,2.38913140744898
98,1.37538829252169
99,0.535841877808942
100,0.132513546859823
101,0.038610231191339
102,0.0139197380763529
103,0.00945663809773317
104,0.156333509220949
105,0.484394014033538
106,0.75903805125661
107,0.698882603721116
108,0.354304263004822
109,0.16061612913573
110,0.506752631607907
111,1.25505884026031
112,1.79230935289919
113,1.63439949534138
114,0.947375412587477
115,0.38863777523785
116,0.430479705932817
117,0.931881069908356
118,1.430511426328
119,1.76168857763395
120,2.22381917367587
121,3.08787501257376
122,4.08357129265102
123,4.5443754510807
124,4.08800237936805
125,3.04664798543837
126,2.15270580481943
127,1.85040070587042
128,1.98425067655298
129,2.11096819722849
130,1.98110333701499
131,1.66944809083997
132,1.35035366663728
133,1.08899222767488
134,0.858586657742316
135,0.652519488396819
136,0.519078040092829
137,0.544252726848527
138,0.856966262110573
139,1.57828010780408
140,2.6259768480544
141,3.54963211774926
142,3.72106485595442
143,2.8770633061801
144,1.50246541841133
145,0.542565311235224
146,0.600956368810483
147,1.39822228465662
148,2.06569552133893
149,1.98258220943131
150,1.29783179428545
151,0.649904652660317
152,0.466614415973822
153,0.611308302468539
154,0.670311318526716
155,0.460863807578798
156,0.184441584749137
157,0.134616779747355
158,0.358059713967001
159,0.633691711120101
160,0.72225548443855
161,0.574619129882027
162,0.317931157406443
163,0.115940023217682
164,0.077786285638819
165,0.247510161830063
166,0.592609547441899
167,0.970495712118293
168,1.15937441692226
169,1.0054043291391
170,0.581960157786442
171,0.185918072526464
172,0.129990907107478
173,0.499481382371969
174,1.09278071347198
175,1.59230750383542
176,1.7960374089492
177,1.70362638744929
178,1.42097704447895
179,1.03100260127474
180,0.581763014269551
181,0.176824148219897
182,0.0128790725474078
183,0.25978841161062
184,0.868989340232899
185,1.51618086594745
186,1.78720468020536
187,1.48446235924658
188,0.797378759656121
189,0.185090766948095
190,0.0637758571887082
191,0.541488446372771
192,1.37521140535721
193,2.13553043178003
194,2.44216849279543
195,2.14844069524776
196,1.41719868308891
197,0.656432325607135
198,0.304360121921487
199,0.547978187620712
200,1.17410100838919
201,1.71873915612341
202,1.84015618749905
203,1.59791261762754
204,1.3638149284107
205,1.43885045644369
206,1.75952639146554
207,1.99477338810244
208,1.92017536424308
209,1.65565234851818
210,1.50715689816424
211,1.59757501978342
212,1.70871795798993
213,1.51897765454053
214,0.979341251599264
215,0.417712927050523
216,0.256644907971705
217,0.634459255682908
218,1.29895407060863
219,1.84278366404498
220,2.01922936906806
221,1.85217063951102
222,1.5069564158267
223,1.11461258854384
224,0.723674914530197
225,0.370661538580874
226,0.141045158029907
227,0.142863886568741
228,0.434144221353463
229,0.985272833620701
230,1.69708614128633
231,2.43272825949184
232,3.03213754223191
233,3.33007249038157
234,3.21031934604944
235,2.67923145233166
236,1.89377491346909
237,1.09846498535853
238,0.50116448623496
239,0.174883731829764
240,0.0546247057782687
241,0.0226836087350008
242,0.0111467267457743
243,0.0469862325810994
244,0.215473091528138
245,0.575319812943388
246,1.08547471409302
247,1.59206591049026
248,1.88942459797627
249,1.82837556859458
250,1.41280027580347
251,0.819617660254866
252,0.312681114543561
253,0.0893284675791907
254,0.157286022135315
255,0.336631759067468
256,0.400804883190723
257,0.261668048799585
258,0.053730595408884
259,0.0360758515762327
260,0.372487801509553
261,0.961545271044977
262,1.46938764385583
263,1.56646848190795
264,1.19676190143889
265,0.657298507730966
266,0.396309940998828
267,0.662975965154174
268,1.28322533371831
269,1.76378238504077
270,1.6743006579311
271,1.01698859561005
272,0.272347461389579
273,0.0531449424933337
274,0.62479790547888
275,1.68136768000874
276,2.56858397198613
277,2.77091950652451
278,2.25721868846063
279,1.41745823577574
280,0.697193475999521
281,0.288415593859727
282,0.125831413358889
283,0.0979778081668257
284,0.185440526435452
285,0.38855894737868
286,0.603473950005446
287,0.671896693278088
288,0.576078771250274
289,0.507353167399419
290,0.655295393971954
291,0.938356888618009
292,1.03978376734235
293,0.773173782248093
294,0.356375550244816
295,0.216221174465644
296,0.509976689112297
297,0.955825071824032
298,1.23727613372697
299,1.50951581797715
300,2.31544746505894
301,3.8880404813015
302,5.62320656781261
303,6.42982242683598
304,5.69950037358371
305,3.89650701331129
306,2.14465314263226
307,1.25917267029234
308,1.20321274235212
309,1.3906434538658
310,1.3479591678717
311,1.02803258725294
312,0.629769553048078
313,0.312208373243522
314,0.118220918212607
315,0.0368577201017751
316,0.0261812651712408
317,0.0253559059708387
318,0.0577055908559849
319,0.309068758534191
320,0.956585367602607
321,1.82863836596056
322,2.34043167873098
323,1.9744982576122
324,0.918092282047681
325,0.120327117212084
326,0.541794043470335
327,2.25704181977386
328,4.31136416014996
329,5.49460405479532
330,5.27528218282055
331,4.04286900262635
332,2.57976245535172
333,1.41695299532897
334,0.661268030001893
335,0.242826241359952
336,0.131119321387759
337,0.287537799067878
338,0.547846029546039
339,0.6880750793066
340,0.616959571958543
341,0.434924114898642
342,0.279703965036559
343,0.171832453165114
344,0.0662117700575914
345,0.017929813887149
346,0.191976313346176
347,0.645892613681928
348,1.1476862869033
349,1.31540968234731
350,1.0042812109638
351,0.533174521887895
352,0.452070516000555
353,1.02571057307297
354,1.93779632942198
355,2.53112238558003
356,2.37189453694244
357,1.6056401010318
358,0.78625864556031
359,0.380287629773088
360,0.440064858002686
