"Phi [deg]","GainZ [] - Freq='2.5GHz' Theta='90deg'"
0,1.06751534055724
1,2.08175570532774
2,2.74017002613333
3,2.79090630510778
4,2.40650385714063
5,1.93107986388069
6,1.58153380977248
7,1.36393590770511
8,1.20803363555946
9,1.11843331966478
10,1.17302405296594
11,1.39290483995229
12,1.64667045540318
13,1.70834909853382
14,1.42975744344807
15,0.87761517893476
16,0.316031025008843
17,0.0421970575301215
18,0.194052190652664
19,0.664195778348501
20,1.1757532553631
21,1.46366931504469
22,1.43357157188708
23,1.18982857098799
24,0.928952548888069
25,0.808087210850991
26,0.912314623419905
27,1.32012445515792
28,2.11987527001852
29,3.25878511911266
30,4.34855039333315
31,4.74348137290628
32,4.01947017582137
33,2.49041251656914
34,1.16401497946212
35,0.992463963359643
36,2.04843904608008
37,3.45156983507826
38,4.14322545866025
39,3.73335540833029
40,2.63508445873378
41,1.52813838910759
42,0.821902078707319
43,0.557782023167006
44,0.588101805615159
45,0.710652324915872
46,0.729855068460901
47,0.557068372147582
48,0.286426696612762
49,0.113904134859291
50,0.180638041045601
51,0.52938526262201
52,1.14978441643956
53,1.93797221708603
54,2.60883644463455
55,2.80059161881111
56,2.37360894398558
57,1.55625734845541
58,0.738202578626505
59,0.190350753785569
60,0.0478824920902748
61,0.423983128816734
62,1.30541695535421
63,2.31824713416997
64,2.83716066963055
65,2.51934742259762
66,1.6650865475717
67,0.900492545584835
68,0.532244077962617
69,0.366847410572894
70,0.164625588508733
71,0.0542524214685953
72,0.327058853051843
73,0.913624099310254
74,1.29939074523752
75,1.06249942731837
76,0.399810076431146
77,0.00132345491551396
78,0.401771735152347
79,1.50599023732528
80,2.7268995561694
81,3.49848019211336
82,3.62848630476899
83,3.25700012463614
84,2.61893668742688
85,1.89531902231556
86,1.21238354174841
87,0.666082942043286
88,0.298675775534793
89,0.0865089246858391
90,0.00130770012029675
91,0.0868689753655867
92,0.433119093790869
93,1.03489657705799
94,1.6805812107047
95,2.02861640607275
96,1.85246835940344
97,1.24089339947153
98,0.547612601427825
99,0.113744603686325
100,0.0166779786789485
101,0.0820025455251662
102,0.12631578518985
103,0.153634380881746
104,0.28516531360254
105,0.52035710202523
106,0.649808901183595
107,0.480011658890851
108,0.133300745188423
109,0.0249280124469861
110,0.447367705905808
111,1.18318750105791
112,1.62609561685815
113,1.36311888313182
114,0.618665946625657
115,0.0564318328642744
116,0.134361653365152
117,0.720939156554705
118,1.38010555669304
119,1.94528507084663
120,2.66961768291387
121,3.77393253738422
122,4.97021877474603
123,5.58627674835152
124,5.19525600336413
125,4.04691532008842
126,2.83297882211441
127,2.07904562584516
128,1.81608414641391
129,1.77705011349394
130,1.76573331364932
131,1.76998804520805
132,1.81126281867132
133,1.82584971862859
134,1.7293910134733
135,1.53060503535839
136,1.34071689807156
137,1.31233601184584
138,1.5955349592521
139,2.26883873448202
140,3.18348067022702
141,3.86730993543964
142,3.74523209827935
143,2.64273299371666
144,1.10873843686546
145,0.115553732077052
146,0.292058116865267
147,1.39485867539823
148,2.54651731442005
149,3.00313631026807
150,2.69400999220526
151,2.07072239937098
152,1.54766022779469
153,1.16976778438273
154,0.776229939965862
155,0.344114957193502
156,0.0675737891293522
157,0.11913186467003
158,0.42116539834637
159,0.698899334129233
160,0.732338878557815
161,0.524664475514565
162,0.249504347239722
163,0.0925199010197168
164,0.158819481483122
165,0.471484706965717
166,0.973031076548373
167,1.49866836808946
168,1.80061084685411
169,1.68370443413943
170,1.16958300008484
171,0.524213440352186
172,0.0867798782706148
173,0.0304745183470047
174,0.259959763913342
175,0.523582869627074
176,0.622537224128872
177,0.530607172619027
178,0.350050754768993
179,0.189893363826444
180,0.0990178183456632
181,0.092429550019919
182,0.196630049954947
183,0.433580395586953
184,0.756640980540878
185,1.02823370785445
186,1.09576385747132
187,0.915088116371988
188,0.608810172334011
189,0.398615069464628
190,0.462217936520394
191,0.824347662327392
192,1.34997673273957
193,1.82271236006888
194,2.0453931979631
195,1.91522125592007
196,1.46002035949992
197,0.835516737865212
198,0.279582729317328
199,0.0240579126537663
200,0.188692452833949
201,0.710788090441084
202,1.36849598363139
203,1.90752278634988
204,2.19299971363651
205,2.26198953082117
206,2.23133692682549
207,2.17020473921349
208,2.08816538454474
209,2.0249259881159
210,2.05686910435853
211,2.14234261367311
212,2.02975525744787
213,1.49065351937343
214,0.714327329999411
215,0.323045454724163
216,0.786949958103534
217,1.80962562080617
218,2.48395375157643
219,2.19443885158243
220,1.28569548967993
221,0.695542523417014
222,0.948376507361088
223,1.64840221589148
224,1.98406947879917
225,1.58798705735419
226,0.81902908487166
227,0.320851098822036
228,0.461788870477788
229,1.17772479688474
230,2.18202814129452
231,3.20915174575098
232,4.07947322983112
233,4.61310475438965
234,4.56924880167801
235,3.77613297881666
236,2.39291172536017
237,0.978573558083913
238,0.13935132796756
239,0.0314943153094236
240,0.282325197131641
241,0.449299606327689
242,0.459154918944658
243,0.504268041227958
244,0.624284411923974
245,0.615675475816368
246,0.389104711282865
247,0.202503123652066
248,0.364329134599383
249,0.791450373983136
250,1.05991704565409
251,0.919017885629213
252,0.592240895256291
253,0.470358734791773
254,0.612348674302741
255,0.70377448650239
256,0.49957571918279
257,0.160498622835069
258,0.0666359188819609
259,0.368375716059029
260,0.829054777865444
261,1.11215061284804
262,1.13500608239458
263,1.09045978959404
264,1.1728399338472
265,1.36422775631985
266,1.50014682477819
267,1.47866587998388
268,1.34452701897355
269,1.1799132527498
270,0.979070940335926
271,0.681574412008916
272,0.3204062623243
273,0.084539856565129
274,0.185563545686053
275,0.645803462762591
276,1.23023814292888
277,1.60754288365376
278,1.59508724277543
279,1.26490065064414
280,0.83759569969466
281,0.497409202377169
282,0.303727198113547
283,0.23145290844875
284,0.234221071151079
285,0.252424257603914
286,0.214430210197582
287,0.102763098929769
288,0.0268580951852993
289,0.156822379383951
290,0.512601792591953
291,0.841291206266259
292,0.810132374623215
293,0.394898442905175
294,0.0281641654456329
295,0.243440666327103
296,1.1210827425447
297,2.15789808722676
298,2.77848805953576
299,2.96174695533172
300,3.25212141212396
301,4.08665032024448
302,5.17754888778032
303,5.67925555823322
304,5.00346065858315
305,3.41598212445951
306,1.79885840756516
307,0.875462996083852
308,0.709583738875994
309,0.879713120384378
310,0.980601969215586
311,0.891989842365322
312,0.682698385038931
313,0.434894882544987
314,0.20764297071543
315,0.0615343436415462
316,0.0172783934780656
317,0.0198141122181348
318,0.028581168215691
319,0.132403916597804
320,0.462388937840951
321,0.931923820867742
322,1.16467228552267
323,0.851209458342784
324,0.231772096792763
325,0.104551403293076
326,1.18174773024833
327,3.35729957984574
328,5.6421373327703
329,6.88372094535809
330,6.60136156623406
331,5.19594239423585
332,3.467608637735
333,2.01388664745846
334,1.0313366123749
335,0.496612984709224
336,0.352227471649659
337,0.495946983874441
338,0.722459543389304
339,0.810640706307717
340,0.691662800751365
341,0.47804229768506
342,0.304876519533525
343,0.187065644617884
344,0.0745026487648321
345,0.0122471971958965
346,0.154103836164422
347,0.562787804835947
348,1.03585804433449
349,1.22349166398618
350,0.979292506916583
351,0.575293662751477
352,0.500013700568502
353,0.986606472961523
354,1.73334942002278
355,2.12603615218474
356,1.78625185579806
357,0.93905906613305
358,0.25223060949197
359,0.289754518994123
360,1.06751534055724
