29
152.39999999999998 1041.3999999999999 0 0.33650199957072624 -2.4841116429740877
660.4 1168.3999999999999 0 0.33604677210928807 -3.0915255628589304
279.4 990.5999999999999 0 0.3291761467288186 -2.699262770065575
609.5999999999999 508.0 0 0.32081083160321533 -3.002194503249883
685.8 406.4 0 0.33125295513519587 2.973622108772464
0.0 1066.8 0 0.3293111973610782 -2.465587100239633
304.79999999999995 533.4 0 0.32757032229240324 -2.878015308299521
558.8 863.5999999999999 0 0.31876845710728574 -2.7784347160901897
736.5999999999999 533.4 0 0.3145304234061831 -3.0112260020849035
508.0 25.4 0 0.3265042539211052 -2.679156833857604
279.4 1193.8 0 0.33046652005723426 -2.9362876058897243
584.1999999999999 304.79999999999995 0 0.30976330989038986 -2.7340615150296563
584.1999999999999 177.79999999999998 0 0.3263831551135015 2.9257119938697906
25.4 812.8 0 0.3316986379994876 -2.6141056184700378
660.4 0.0 0 0.330691577123413 -2.8047448047774868
431.79999999999995 914.4 0 0.3421857877450203 2.9928003800563223
939.8 685.8 0 0.330587388281931 -3.055342590081614
50.8 355.59999999999997 0 0.3301610755659231 -2.8309396142939245
228.6 330.2 0 0.3259543070084719 -3.110921994922504
660.4 939.8 0 0.321791885193175 -2.546251219951814
0.0 482.59999999999997 0 0.3182462240080747 -2.944604194623563
838.1999999999999 1193.8 0 0.32776321549494314 -2.689573074151511
1092.2 914.4 0 0.3287099367537392 -2.9909617350220756
1117.6 1193.8 0 0.3210471850793694 -2.9904801519427373
1168.3999999999999 127.0 0 0.3130937283336527 -3.022935050946187
889.0 279.4 0 0 -2.639180174644895
1143.0 533.4 0 0 -2.743866561271513
177.79999999999998 787.4 0 0 2.4217835355018154
889.0 1016.0 0 0 -1.7342913030259872
