!Agilent N9923A: A.05.34
!Date: Sunday, 13 March 2016 20:51:42
!Model: N9923A
!Serial: MY51491690
!GPS Latitude: 
!GPS Longitude: 
!GPS TimeStamp: 0001-01-01 00:00:00Z
!GPS Seconds Since Last Read: 0
!CHECKSUM:0776013831
!Correction: S11(ON U)S21(ON U)S12(ON U)S22(ON U)
!S2P File: Measurements:S11,S21,S12,S22:
# Hz S DB R 50
2400000000	-16.7678535265319	179.190845597909	-9.7402888545614	148.309946896424	-46.7989493221657	134.217387904684	-22.3116915731467	-21.6563859295484	
2400333333.33333	-16.7929058312278	178.182146362645	-9.73607057307311	145.984171820348	-46.7103059315246	133.992830892145	-22.6015316797716	-22.3984608566304	
2400666666.66667	-16.8199410597038	177.473096077778	-9.72715810469071	143.769889946837	-46.4785053865984	130.740500692912	-22.8462240458922	-22.8544493039564	
2401000000	-16.8757723205643	176.374940077897	-9.72582394910709	141.462404628689	-46.664646828206	128.737138358382	-23.1347504162224	-23.5156011895302	
2401333333.33333	-16.926916071019	175.378915199594	-9.72691353541959	139.145412346401	-46.5483174333747	126.07466249956	-23.4542422564244	-24.2555904395344	
2401666666.66667	-16.9521758939628	174.504845648966	-9.73131181970668	136.866412214531	-46.5536530674863	123.545055102738	-23.7490000755941	-24.7570880449155	
2402000000	-16.9990458445599	173.488446006373	-9.7167099195086	134.572346924057	-46.6910410512764	121.431045555195	-24.0929711875507	-25.3913814420285	
2402333333.33333	-17.0524957163505	172.511553952888	-9.71460748163761	132.330551300811	-46.6544127326598	119.397860789381	-24.3902901505268	-25.8830778829019	
2402666666.66667	-17.101244922344	171.401874874992	-9.716132119805	130.010388045413	-46.7441862759347	117.034613614879	-24.7745081642221	-26.6146835038269	
2403000000	-17.1171571610914	170.436836251069	-9.71035337484685	127.685663185945	-46.9598236512318	115.879319475172	-25.1468701263256	-27.6767565109772	
2403333333.33333	-17.1525061338248	169.246816958359	-9.71301347948853	125.396082873772	-46.8511909005212	113.317429312799	-25.5493366543119	-28.1846897824377	
2403666666.66667	-17.1861281787915	168.168639424038	-9.71408663435642	123.126044173103	-46.7230409985438	110.584920876815	-25.9276962284418	-29.0274136763906	
2404000000	-17.2170912318658	167.141547587943	-9.70850244171856	120.826790476197	-46.986552276669	108.778799506252	-26.3763311661539	-29.706685123603	
2404333333.33334	-17.2689172282724	165.927503822815	-9.70007841113613	118.561661957906	-46.7198799694864	106.378276759758	-26.7856172411254	-30.5645175622842	
2404666666.66667	-17.2833931945001	164.71837728222	-9.70016109160135	116.229692310542	-46.6288979070774	104.536597416627	-27.2807766663432	-31.3996056356887	
2405000000	-17.325334474907	163.448144188659	-9.70253595225295	113.949716438089	-46.9712242315764	100.402152952424	-27.8114960664614	-32.1806531379422	
2405333333.33334	-17.3440513633117	162.333736407088	-9.69872881382817	111.650636667516	-46.8857371513637	98.4109991782207	-28.220358227332	-33.1590157002673	
2405666666.66667	-17.3551086669941	161.140347450773	-9.70411600668509	109.335989947732	-46.7236211769505	97.3006694485356	-28.8235520297646	-34.024273122869	
2406000000	-17.389816799638	159.825905108304	-9.6984473554652	107.055462391686	-46.6226170115267	94.3079575878191	-29.3918798889127	-34.8051199578526	
2406333333.33334	-17.3921355242766	158.708709096614	-9.70078033368941	104.743263340633	-46.7989972354852	92.6769932193129	-29.9637740233211	-35.9393253601247	
2406666666.66667	-17.4391090421761	157.182920645162	-9.69236925319553	102.5064692081	-46.6268668153459	90.1076677028326	-30.692943867687	-36.8805167651261	
2407000000	-17.4312783879385	156.05676477519	-9.68907614239789	100.199713432992	-46.9910983327382	87.3954997180994	-31.3894548147129	-37.6122303591776	
2407333333.33334	-17.4438798824806	154.583487636805	-9.69092205613364	97.8878039061739	-46.8811038237297	85.0154583111219	-32.0687532188595	-38.8099586297254	
2407666666.66667	-17.4430056789017	153.246484673072	-9.69654632515331	95.5925970686864	-46.7399233835488	84.364112456099	-32.9191831422064	-40.3076140543073	
2408000000	-17.446432622982	151.809403142818	-9.69827106221277	93.2807811013842	-46.8016690605049	81.4691989501778	-33.7749036742087	-41.7353291754872	
2408333333.33334	-17.4428682475657	150.493693620368	-9.69827013052724	91.0117527808	-47.0130716198185	77.7963234857042	-34.7303681564566	-42.3483197833477	
2408666666.66667	-17.4157201176759	149.208641931669	-9.70075573619705	88.7438314616514	-46.8023445956861	75.5819235433935	-35.7404835073735	-44.1402678334234	
2409000000	-17.4220345238439	147.75083531019	-9.70410130085623	86.448057245049	-46.8512379533297	75.0660955124428	-36.8067510710914	-44.5260658951829	
2409333333.33334	-17.4072280350312	146.296653979944	-9.7119285571479	84.1583795747013	-46.7897857740894	70.9627734943785	-38.1360788855748	-45.0142014225712	
2409666666.66667	-17.3812688307932	144.964630443715	-9.71026013028222	81.876814896184	-47.1290172750873	69.7174609845837	-39.6775526009835	-47.3992244690217	
2410000000	-17.3488873086916	143.500530141211	-9.71732574940266	79.5983574473138	-46.7628197716146	67.9007603767662	-41.4505833165511	-48.0003489334667	
2410333333.33334	-17.314360464025	142.180012587515	-9.72443961838163	77.319597079089	-47.0077797492445	63.3185391366984	-43.412703730124	-48.7815649698781	
2410666666.66667	-17.2883495234681	140.799871054156	-9.72694967898701	75.0187796165683	-46.7867683577524	64.4858727120921	-45.9750145540878	-49.474029623611	
2411000000.00001	-17.2413115722088	139.325462528599	-9.7369736468722	72.7571039535653	-46.9836792346137	59.8847346815167	-50.006288029097	-48.8173510470227	
2411333333.33334	-17.1900286773704	137.987516068712	-9.74202024578774	70.4555345552982	-46.7388135080547	56.7630363448112	-56.0713302740158	-42.5783520265002	
2411666666.66667	-17.1252948353272	136.536228499145	-9.74714673171695	68.2002763602547	-46.7329567934285	54.5482033092693	-68.2266304203718	53.0356625014016	
2412000000.00001	-17.0915565562114	135.240763649294	-9.75771064208424	65.9330395533049	-46.9120919309359	51.8041925295797	-54.789680687334	109.483343232477	
2412333333.33334	-17.0302037947957	133.816067403941	-9.76370630935791	63.6752326456011	-47.0479623132817	51.6869034839037	-49.3085913480362	111.199455110631	
2412666666.66667	-16.9571793790669	132.440675423459	-9.76860459351791	61.3669268857293	-46.9018932686153	49.2529986996438	-46.1847316327425	113.095471632697	
2413000000.00001	-16.8961857779594	131.218420177721	-9.78251650256053	59.1050728697744	-46.5667462018584	46.9885998171888	-43.9188503866317	113.385066368084	
2413333333.33334	-16.8258801660949	129.780381817538	-9.79126490987791	56.8730561256462	-46.8676006856658	44.2778407359608	-42.5792207958761	110.799099411108	
2413666666.66667	-16.7418048072841	128.542066233038	-9.79976886075743	54.6040039596341	-46.5955892501544	42.8531136612241	-41.1028468563073	108.90047994619	
2414000000.00001	-16.6754362565027	127.274903810535	-9.8096226752926	52.3387581280862	-46.6783616399399	39.3718277515483	-39.8965846014405	106.907603905621	
2414333333.33334	-16.5845328728071	126.015763356515	-9.82581918124191	50.095554009422	-46.7126699301541	38.052610802935	-38.7465579718853	104.608796285364	
2414666666.66667	-16.508071024022	124.806699566146	-9.83279052156275	47.8506750844771	-47.1834911044926	34.4713712066071	-37.9410675325481	102.414504998969	
2415000000.00001	-16.4104053259158	123.603196634387	-9.83366939895475	45.5705824126206	-46.9767598953451	33.8179616338538	-37.1088911773628	100.101430053368	
2415333333.33334	-16.3260932309857	122.356729521792	-9.85392885123143	43.3016076019829	-46.8013533347647	31.0479324455155	-36.4532044218458	97.3687137407451	
2415666666.66667	-16.2323568433532	121.219473645132	-9.85968373101977	41.0447573588505	-46.8341448686819	28.0046245680078	-35.8754096894121	95.8835218334937	
2416000000.00001	-16.1313446958668	120.069271241409	-9.87964998296385	38.8236333114744	-46.8236472346019	26.2752703308487	-35.1956158155692	93.35770719963	
2416333333.33334	-16.0413487817618	118.927232603091	-9.88949907610342	36.5363907396711	-46.8075251408729	23.8548792953409	-34.7834493534621	90.5130934413866	
2416666666.66667	-15.9602567572823	117.826499263836	-9.90150919819284	34.3086813244076	-46.7890913346793	20.7938482180627	-34.245459216536	87.8370488966913	
2417000000.00001	-15.8612677656376	116.775183175462	-9.91922284280693	32.0955994686502	-46.9776886386063	21.5385741207107	-33.7405756637406	85.0264177189234	
2417333333.33334	-15.7768155896108	115.733378784608	-9.92821724843652	29.7919778867972	-47.0564851411949	17.509450202103	-33.3323959593816	82.1277091133544	
2417666666.66668	-15.6711427686621	114.753081043781	-9.93885055032779	27.5564006477376	-46.8131491338278	12.7287666457938	-32.8855555611165	79.2570297602074	
2418000000.00001	-15.5743724005328	113.746723955772	-9.9557586468635	25.3480262792537	-46.7575400444151	9.53383207871232	-32.4293683521004	77.0314275167108	
2418333333.33334	-15.4842272887467	112.776493790128	-9.96822965101809	23.1170151418572	-46.7793815428852	9.19069890941704	-31.9712096198716	74.0600082114165	
2418666666.66668	-15.3818272521339	111.811436145001	-9.98000730723331	20.8959381566348	-46.7623279338405	5.96951458961582	-31.5470151060503	71.256125604936	
2419000000.00001	-15.2948348896451	110.890475290118	-9.99736639188358	18.6328891460294	-46.8592288682663	6.10569141922114	-31.1452165481462	68.5425720818667	
2419333333.33334	-15.1991692307832	109.964999484776	-10.002580036731	16.3997345662958	-46.8815095124952	2.8854920951039	-30.7916771336117	65.8107541261327	
2419666666.66668	-15.1176934343008	109.085610692607	-10.014032200142	14.1514578366583	-46.9720565828107	-0.20937240200974	-30.4432516878611	63.2989537483526	
2420000000.00001	-15.0352202561107	108.271493761622	-10.0249062740648	11.9290283913868	-47.0946366717787	-1.09084663952437	-30.08520880166	60.2662615366768	
2420333333.33334	-14.9394062666846	107.47089438584	-10.0378354526966	9.6997165356442	-47.0161938258318	-3.45341045515038	-29.6148325626242	57.6802351667048	
2420666666.66668	-14.8566019347637	106.634575289154	-10.0542856208214	7.4490107230459	-46.8865421030666	-6.43283185517006	-29.2782579024535	54.834586814038	
2421000000.00001	-14.7781342580601	105.837108581526	-10.0637631166809	5.24189055589343	-46.8243520013838	-9.36062999763065	-28.9012112254695	52.2227174979752	
2421333333.33334	-14.6926797997984	105.058572454284	-10.0758252188392	3.00763925526873	-46.9024134014727	-9.28218547868777	-28.4618031375054	49.4887279364265	
2421666666.66668	-14.6218464453989	104.290832515657	-10.0855201536792	0.796031633176848	-47.1706081955232	-12.4044495064066	-28.1448483979993	47.0258733971031	
2422000000.00001	-14.5415991182315	103.600904097259	-10.0929740466412	-1.48427781340226	-46.6975419681925	-16.6242721060924	-27.753337419582	44.5493446804022	
2422333333.33334	-14.4618686288596	102.838407554269	-10.1059510396998	-3.70068974348612	-46.933208138813	-18.3998891259797	-27.3986653473731	42.0548468065173	
2422666666.66668	-14.3869416099248	102.198774031439	-10.1181857693046	-5.91320500110598	-46.8268023374975	-19.2279878177054	-27.0268695137582	39.829004192325	
2423000000.00001	-14.3133999812179	101.558826189911	-10.1295006082051	-8.16394346126751	-47.1350975808065	-22.2876500817932	-26.707030697046	37.333073367795	
2423333333.33334	-14.2565019252388	100.926930189995	-10.1380568174287	-10.4137660072816	-47.1787337238995	-24.3505893527371	-26.3485332552314	35.1945975109909	
2423666666.66668	-14.1867671099512	100.306610523245	-10.1405590468542	-12.6463660289578	-47.0688161156251	-28.5965142166364	-25.9697927572395	33.1600398824079	
2424000000.00001	-14.1283751934872	99.730585387894	-10.1606684925803	-14.8597512529324	-46.8184811518697	-28.0034644483029	-25.5939986330053	30.9714185947883	
2424333333.33334	-14.0727512325636	99.1095060350958	-10.1624052857764	-17.1397895293668	-47.1715349520814	-31.0934893183567	-25.2787867651382	29.1488016640608	
2424666666.66668	-14.0154723942939	98.5207893764152	-10.1722145571398	-19.3362200109245	-47.2017787380922	-34.2622028274253	-24.9296696534277	26.9636390490293	
2425000000.00001	-13.9669433508616	98.02677492176	-10.1751297873669	-21.5684066378415	-46.9301157201253	-34.8810695964569	-24.6263984796709	25.0287643636121	
2425333333.33335	-13.9061360370736	97.5465685876841	-10.1879631968637	-23.7955291738392	-47.3912080624775	-38.3843626597265	-24.3027122117112	23.3666368860639	
2425666666.66668	-13.8585847754265	97.0487075254075	-10.2011825077723	-26.0494209069017	-47.1705785319797	-38.4261624091561	-23.9795806832485	21.3930794274536	
2426000000.00001	-13.8191623429546	96.5204428613922	-10.2022138191308	-28.3077207860632	-47.2262552595857	-40.0134026907782	-23.6830071724584	19.8013615638929	
2426333333.33335	-13.7718892078598	96.0656892834511	-10.209275978247	-30.5555894889914	-47.4968163722208	-44.5243509600322	-23.3594700167106	18.0221368910157	
2426666666.66668	-13.7329320500314	95.6915760111038	-10.2089906097293	-32.791455540347	-47.0640341170527	-45.2148570650649	-23.0878910133204	16.5243071563258	
2427000000.00001	-13.6889276383242	95.2219990753122	-10.2155700082223	-35.0155795486999	-47.0960730345498	-48.6417296238295	-22.7768628695004	14.8821587136625	
2427333333.33335	-13.6580853838238	94.8185546629027	-10.2220169516669	-37.257257730439	-46.9537314167564	-50.9819418806395	-22.5062851124152	13.2798218799605	
2427666666.66668	-13.6235444046628	94.429276904348	-10.2319665767896	-39.4745377597759	-47.2950944908271	-53.2073125838845	-22.2283608496284	11.9860558556901	
2428000000.00001	-13.586242827218	94.1150980640126	-10.2367922273485	-41.7451041750446	-47.2428593331552	-56.0884808665081	-21.9527012367424	10.440320906298	
2428333333.33335	-13.5566889283157	93.7546392209527	-10.2437101857836	-43.9972405999873	-46.9380776506515	-56.8767116048592	-21.6948589059042	9.16881423333018	
2428666666.66668	-13.5244887132255	93.4997577890917	-10.2467190830361	-46.2208296056574	-47.2630056023377	-58.1840059494039	-21.4583492799872	7.87934674271695	
2429000000.00001	-13.498940253561	93.1215326453264	-10.246152669462	-48.4499070089421	-46.9830380342583	-61.2189950244191	-21.2182936004221	6.5160581860361	
2429333333.33335	-13.4726888890969	92.9155837707457	-10.2514076438752	-50.6808792464025	-47.3001418932014	-63.3154423266214	-20.9497094225005	5.28849962074601	
2429666666.66668	-13.44072275113	92.6458988095785	-10.2608809341999	-52.9307236674325	-47.1350265515658	-67.572968562935	-20.7366741744441	3.95862283506417	
2430000000.00001	-13.416873096335	92.3565358875205	-10.2587568883431	-55.1986467416524	-47.0997671836501	-67.9515574320536	-20.5094943337053	2.89748619880479	
2430333333.33335	-13.3936444836173	92.0713387039663	-10.2631721445781	-57.4568837535124	-46.9456559057463	-70.1111598640522	-20.2966507066438	1.63984881725602	
2430666666.66668	-13.3704336673581	91.8686013760983	-10.2635220113129	-59.6147983161624	-47.3387694995658	-72.3587886760258	-20.0990149078651	0.49629740759332	
2431000000.00001	-13.3534728896506	91.6013671513403	-10.2640282033788	-61.8818019731703	-47.3670272913216	-74.805417557628	-19.8804640340496	-0.473837108858529	
2431333333.33335	-13.3278980354935	91.4090767206013	-10.2635194716323	-64.0988566863592	-47.4691143129926	-76.8581969130169	-19.7011234332954	-1.57033927048596	
2431666666.66668	-13.3067513557559	91.1251254611155	-10.2761475985401	-66.3379627734235	-47.0450057045898	-77.9577681031852	-19.5165138290426	-2.58032300104212	
2432000000.00002	-13.2863896376159	90.957394600736	-10.2713238097499	-68.5427079941269	-47.2429667880166	-81.9564385204319	-19.3347595519617	-3.579974699432	
2432333333.33335	-13.2762635000052	90.7170504357806	-10.2700651882521	-70.8103520847029	-47.266734572946	-82.138023460445	-19.1655289521633	-4.50157686175264	
2432666666.66668	-13.2487815726894	90.5078837168069	-10.2731238612083	-72.989407775268	-47.0042487786197	-86.7842922356229	-19.0013265724895	-5.47309261455265	
2433000000.00002	-13.2322991656964	90.2365678347697	-10.2818664683851	-75.2237773102646	-47.1275980189047	-87.4208093112182	-18.8371814878656	-6.36774035792556	
2433333333.33335	-13.230550848016	90.0826818115159	-10.2687241517649	-77.435761796323	-47.2269360850843	-90.4519879981049	-18.7051518285433	-7.20600827811692	
2433666666.66668	-13.2088314066747	89.8889255208262	-10.2733123846941	-79.7078075175703	-47.1377602459622	-93.50651007828	-18.546988181349	-8.11795624448242	
2434000000.00002	-13.1959013510209	89.6935301504933	-10.2688224625987	-81.9419452753236	-47.1778292535501	-94.492231723504	-18.4222985609553	-9.01800385277418	
2434333333.33335	-13.1756488291652	89.4970001407782	-10.2714224539764	-84.123334866466	-47.5113188356991	-98.3390333897872	-18.2933419733487	-9.8989198180595	
2434666666.66668	-13.1661567477104	89.2334388277687	-10.2711777544631	-86.3717377914018	-47.3600373195182	-99.0677748745903	-18.1680889254957	-10.6406157761015	
2435000000.00002	-13.1435476975613	89.0649837289386	-10.2641799446871	-88.5858602261775	-47.0705209604494	-100.87257940018	-18.0505041858559	-11.3938831246558	
2435333333.33335	-13.1327260553535	88.828184696341	-10.2596422386678	-90.811222022547	-47.2372504171116	-104.166521909804	-17.9516708129055	-12.1889069058325	
2435666666.66668	-13.127357154411	88.598833167565	-10.2588735242605	-93.0124902454309	-47.1847341035718	-106.335006131521	-17.841075424855	-12.7893870400071	
2436000000.00002	-13.1170550417824	88.366367681674	-10.2558568179068	-95.2329705341507	-47.3038295063149	-109.819534692483	-17.7498760031598	-13.6771354059373	
2436333333.33335	-13.104514930806	88.1494253868911	-10.2514707231596	-97.4837425767125	-47.7719911802003	-107.869740063158	-17.6695707253055	-14.3513638585325	
2436666666.66668	-13.1009057035184	87.956770552846	-10.2472387400993	-99.6835504121241	-47.1935081620246	-113.033786561267	-17.5652523026749	-15.05669257131	
2437000000.00002	-13.083604657626	87.7196400488494	-10.2446657003932	-101.902339791875	-47.1285475939591	-113.631257510043	-17.5008920141575	-15.7213667788867	
2437333333.33335	-13.075582305	87.4307007200068	-10.2409481229819	-104.119726443464	-47.0009822841549	-115.273681708142	-17.4413637869442	-16.4102128468651	
2437666666.66668	-13.0699999031765	87.0487960309813	-10.2339319623042	-106.364679847045	-47.3512099398289	-118.771881276333	-17.3764130694904	-16.8301067983545	
2438000000.00002	-13.0600788193101	86.8448967659009	-10.2259884952332	-108.583472916523	-47.3351893884553	-121.063365104913	-17.3114541020842	-17.6893908238634	
2438333333.33335	-13.0474545510402	86.5317205233661	-10.2229140650316	-110.79934415202	-47.1381757155773	-123.939716594952	-17.2710022417784	-18.1563306649949	
2438666666.66669	-13.0536308074808	86.3440633472188	-10.2165104106811	-113.054733565427	-47.1364613336756	-123.683739803492	-17.2162323077901	-18.731966322825	
2439000000.00002	-13.0445196330951	86.0477914960515	-10.2104147478796	-115.227263993434	-47.2455856149672	-127.816780791321	-17.1963563711893	-19.3156925203125	
2439333333.33335	-13.0298332251248	85.6418280636107	-10.2016555388497	-117.44983765254	-47.3412444743014	-130.570494619254	-17.1563092995245	-19.7986179669277	
2439666666.66669	-13.0376065856936	85.4590604038982	-10.1911246525079	-119.695234352222	-47.2380397546913	-132.239624736828	-17.1378922866009	-20.3500591838005	
2440000000.00002	-13.037549085528	85.0238372182732	-10.188853535111	-121.873905440706	-47.1236637438281	-133.476090492867	-17.1221383149606	-20.9971945858762	
2440333333.33335	-13.0368850294801	84.7246797801542	-10.1873629011723	-124.132896747799	-47.273907274	-136.695707908017	-17.1059909274209	-21.4379914866012	
2440666666.66669	-13.0384099062368	84.4922370734485	-10.1721874084937	-126.394121416458	-47.3774871888922	-139.024830451095	-17.0907556304358	-21.8616355522473	
2441000000.00002	-13.0525437159339	84.0948029739196	-10.1627246624191	-128.630800665464	-47.3294811808301	-143.380858996608	-17.1031999000954	-22.3816702815889	
2441333333.33335	-13.0531863398056	83.6994737663102	-10.1529235806839	-130.853260938995	-47.4175434241318	-144.752907206827	-17.1069206416482	-22.6487064177603	
2441666666.66669	-13.0526868973199	83.2250620536501	-10.1457270846428	-133.079524495961	-46.9356078190178	-144.754717052577	-17.1063467139075	-23.1339714287447	
2442000000.00002	-13.0741582766136	82.9315062413623	-10.141927442391	-135.330979579495	-47.2734261809447	-149.040864620576	-17.1432334265173	-23.6289782493322	
2442333333.33335	-13.0659440671288	82.6018050767033	-10.1288821106611	-137.599712802203	-47.2884097729165	-149.431292233584	-17.1480257333056	-24.1475047733238	
2442666666.66669	-13.0763284212245	82.2435019234927	-10.1244374271607	-139.793914368934	-47.2140325638264	-150.133684563706	-17.1895848302875	-24.2680519811677	
2443000000.00002	-13.094494096967	81.7474245575751	-10.1111374083511	-142.034349797361	-46.8843897556254	-155.578468681622	-17.2072726650943	-24.6755710197609	
2443333333.33335	-13.1253459174419	81.3966330330957	-10.1021149316373	-144.289937382188	-47.1906707614273	-154.309948688486	-17.2646515832314	-24.9605053650233	
2443666666.66669	-13.1405612294715	81.0985506669921	-10.0945292069649	-146.48816332344	-47.2931902463295	-157.897987675695	-17.2983710301249	-25.2429023424006	
2444000000.00002	-13.1599679828991	80.496867429335	-10.0933685334631	-148.793468182547	-47.1486102328534	-161.153617687618	-17.3605848707409	-25.6064832533451	
2444333333.33335	-13.1731166908472	80.0410777581984	-10.0848812102887	-151.10760120949	-47.3630364751721	-163.502370975483	-17.4059898978963	-25.8859096952088	
2444666666.66669	-13.202283424706	79.6602483827613	-10.0756417008524	-153.315947731552	-47.4077960630604	-166.726236288991	-17.4687138427554	-26.1640697157652	
2445000000.00002	-13.2352257427801	79.1803333413445	-10.0574642846117	-155.524113713375	-47.3867561255713	-168.175363110644	-17.535599157357	-26.2896738163422	
2445333333.33335	-13.250179571035	78.720039789446	-10.055980609959	-157.826327733129	-47.1111865950756	-171.755089957502	-17.6197253883079	-26.4505335269123	
2445666666.66669	-13.2845279084095	78.2918177009231	-10.04476140656	-160.078491582103	-47.0088149854117	-172.547180073196	-17.6884058538189	-26.6752683076904	
2446000000.00002	-13.297434848987	77.8082375314102	-10.0405654074167	-162.363323450912	-47.0334302034468	-173.982393831668	-17.7601120252752	-26.9498702200301	
2446333333.33336	-13.3314453865018	77.3874614063929	-10.0311801295557	-164.592198095011	-46.9952541414898	-174.853319328606	-17.8507184023376	-27.0614406591845	
2446666666.66669	-13.3556169673908	76.8351415019317	-10.0222392104081	-166.863624799198	-47.119770214705	-179.145471631897	-17.94085018332	-27.1526822490163	
2447000000.00002	-13.3987924879589	76.2751085708562	-10.0227671824998	-169.156180818687	-46.781289671184	179.040214853542	-18.0239819155958	-27.2116113752566	
2447333333.33336	-13.4354366398661	75.8368576673204	-10.013355165318	-171.407147890083	-47.1586800930938	176.636426888638	-18.1284818511102	-27.3147922837415	
2447666666.66669	-13.4451596882114	75.3445110874051	-10.0006873654869	-173.694081073704	-47.4184819801875	173.597018973761	-18.2536003480187	-27.4274924008953	
2448000000.00002	-13.483697084399	74.7950335599808	-9.99775902774532	-175.893763912344	-47.06942414045	172.314366956483	-18.3587104166172	-27.2972772468323	
2448333333.33336	-13.5101401980064	74.2803762250837	-9.98899328984054	-178.216098863791	-47.0697808148106	170.842716771822	-18.4768374258589	-27.3749257089872	
2448666666.66669	-13.5468968720306	73.7874867173448	-9.98304857589755	179.567330149636	-46.9071128674588	168.230300019437	-18.611431174072	-27.4299898455798	
2449000000.00002	-13.5869168899783	73.2473361188531	-9.98006877425437	177.255141118401	-46.9434599186361	165.566972067061	-18.7206330978135	-27.2593475299439	
2449333333.33336	-13.6131458814561	72.6812816574499	-9.9702761660882	175.020899993463	-46.6667917007666	163.452168378001	-18.8698401636119	-27.0815321728892	
2449666666.66669	-13.6473189930045	72.1982332207218	-9.96870050929907	172.719648155527	-46.9194665686767	161.272826995451	-18.9831395035055	-27.0827545831856	
2450000000.00002	-13.6742712845741	71.5714959570602	-9.97023758503292	170.471352650663	-46.9673808563029	159.583636847402	-19.1112519520944	-26.843709306422	
2450333333.33336	-13.7347438736313	70.9935699591997	-9.96151609141737	168.21312778574	-47.0569665655915	157.112010963763	-19.2456282768529	-26.5895212164355	
2450666666.66669	-13.7549513612661	70.4366226686079	-9.95721215181846	165.94775559415	-46.9480944800932	154.826725228527	-19.4007166530998	-26.3257986489836	
2451000000.00002	-13.7834709057272	69.8324132663585	-9.95559693944739	163.698438389604	-47.1308085519978	152.328823075789	-19.5319620093277	-26.1879808030579	
2451333333.33336	-13.8120632389001	69.2170211010283	-9.94916669231781	161.429423505216	-46.8797458493312	149.511675940379	-19.6801177617604	-25.8381059637264	
2451666666.66669	-13.848737323381	68.7175442892799	-9.94231489638936	159.174774463414	-46.7755570569346	147.782232300524	-19.8366660192868	-25.7794336362214	
2452000000.00002	-13.868754240384	68.095899494369	-9.9515296037918	156.924441204218	-46.7523992885691	145.929769411093	-19.973798992495	-25.1609902842846	
2452333333.33336	-13.8940889624395	67.4800385243857	-9.94292741144518	154.640933630917	-46.7700414612644	143.886843304397	-20.1263776039224	-24.7610919672477	
2452666666.66669	-13.9232110233041	66.9958492304047	-9.93901889318125	152.42318841259	-46.8963660786071	140.606996588867	-20.2843543124402	-24.3901857870126	
2453000000.00003	-13.9517321780523	66.3769760153541	-9.94560703377247	150.126624008136	-46.4680297123155	139.142769108894	-20.4584129822527	-24.154544939628	
2453333333.33336	-13.9715276135685	65.8387518251815	-9.94173545307437	147.879921513474	-46.9914396546037	135.715553775666	-20.623096783354	-23.7387272185494	
2453666666.66669	-14.0058411508812	65.1645423977358	-9.93180772985531	145.672534076247	-46.8427449634848	134.817834615565	-20.7766053047264	-23.1631594477158	
2454000000.00003	-14.0244047532737	64.5782300697917	-9.92490485700235	143.432486095138	-46.9081900103536	135.120507727725	-20.925533019366	-22.4850500665415	
2454333333.33336	-14.02416753337	64.0106574829185	-9.93049557039004	141.211583486583	-46.9188120444246	129.958658780088	-21.1193600308054	-22.005965788298	
2454666666.66669	-14.0467143515772	63.4692484161802	-9.93068375439288	138.984331430257	-46.9996466362279	127.200030400471	-21.2657806190597	-21.4785753041092	
2455000000.00003	-14.0562615776254	62.8497400914661	-9.93107676155066	136.747635619319	-47.1410960812273	126.222400182977	-21.4108984707613	-20.9717898480367	
2455333333.33336	-14.0685184248407	62.2707106910388	-9.92525019769	134.49277699054	-46.8902279108894	124.816803522816	-21.5638243234225	-20.4300254317171	
2455666666.66669	-14.0777799124	61.716484186747	-9.92754483350524	132.267664773385	-46.6599801188402	122.296887554628	-21.7654586910873	-19.6136807199916	
2456000000.00003	-14.0743201760115	61.1248277814032	-9.92108796577579	130.02708696563	-46.6910821915187	119.743235381091	-21.8995114542292	-18.8825509339183	
2456333333.33336	-14.0779430931288	60.6000920293225	-9.92440670945015	127.821614899309	-46.8378862371705	115.141467943956	-22.0767915173924	-18.2369477230909	
2456666666.66669	-14.0903030927718	59.9122112685345	-9.9201131528052	125.563791702802	-46.7424874398324	113.92259166647	-22.2036266273269	-17.5889910255034	
2457000000.00003	-14.0732468277905	59.395889698866	-9.92342999075106	123.357154352431	-46.8953676949693	111.222784753185	-22.3420766099715	-16.9099631235642	
2457333333.33336	-14.0831354097454	58.8955891899766	-9.91999454673391	121.169954122704	-46.6489393494624	109.286176973558	-22.5386136515664	-16.143709936395	
2457666666.66669	-14.0714726165725	58.2432311653956	-9.92478185304472	118.925953354613	-46.8403521847128	108.304261639626	-22.6484938931582	-15.3632258800237	
2458000000.00003	-14.043764235453	57.6113209692844	-9.92222376359205	116.665520682088	-46.9534493181195	105.992943738505	-22.7936209997537	-14.5332648620586	
2458333333.33336	-14.0378812648411	57.06473865186	-9.91795582355146	114.456412839745	-46.9257603001357	103.585901420625	-22.9084576565109	-13.7290462720813	
2458666666.66669	-14.0163502752639	56.4983495605572	-9.92551325611487	112.244288288006	-46.7184213448394	101.385702799899	-23.0585027606365	-12.8385935235451	
2459000000.00003	-14.0095696342788	55.9992144527283	-9.91608778897377	109.967048575179	-46.8592218721221	99.8656446774154	-23.174088428224	-12.1610339565576	
2459333333.33336	-13.9778984565406	55.4047119076115	-9.9130213067589	107.772481425972	-46.4318701995568	94.7719171121681	-23.3660851821867	-11.3802430971128	
2459666666.6667	-13.9586918398321	54.8762158847388	-9.91169691794918	105.560578156361	-46.6757421755436	92.8106690368745	-23.4765312838937	-10.5238943128202	
2460000000.00003	-13.9403297330811	54.3768120927231	-9.91056372326503	103.328544239524	-46.5196914123847	91.7842626396739	-23.559415238979	-10.0715586305917	
2460333333.33336	-13.9018189769816	53.785476676664	-9.90543673795254	101.096990421468	-46.7788707801092	89.1562320474187	-23.7181092476196	-9.33283193627097	
2460666666.6667	-13.8829320271549	53.2291303766321	-9.90536639328482	98.8748975308564	-46.9184618095821	88.6824472331512	-23.7999218568812	-8.62383141701278	
2461000000.00003	-13.8489628722007	52.740370010254	-9.90012366635011	96.6325315825898	-46.7327619179847	83.9602425738348	-23.9318497045058	-7.80776576078906	
2461333333.33336	-13.8048757261268	52.1951996017091	-9.89678039973836	94.3658647992043	-46.5331688445439	81.0858053978432	-24.0263528820388	-6.91602710937634	
2461666666.6667	-13.7771029810333	51.5984496694735	-9.89768836446935	92.1497673582451	-46.6346245998014	80.7865055342911	-24.1235226955007	-6.41756425475498	
2462000000.00003	-13.7383248150123	51.1404302722989	-9.89223239673306	89.8775006468011	-46.8378334799968	79.1045425876388	-24.2354002168196	-5.58190127958457	
2462333333.33336	-13.6997668693427	50.6620640203119	-9.89064126689918	87.64453591873	-46.6675213696393	77.3408174116145	-24.3533316518848	-5.09827029600472	
2462666666.6667	-13.6589050376591	50.1618290040746	-9.88778739813317	85.3565327002112	-46.9644729388267	74.8787060027552	-24.4098549951118	-4.39846510748992	
2463000000.00003	-13.6061599418151	49.6128766002854	-9.87989537319535	83.0859099364486	-46.7284259622922	72.6413387431736	-24.4975994887694	-3.87376384990836	
2463333333.33336	-13.5559199826484	49.1288310081795	-9.87790973178664	80.8347027691472	-46.2931891043692	69.4841637875223	-24.5937801332265	-3.57046572550697	
2463666666.6667	-13.5154861890782	48.5870523053961	-9.87468571598307	78.5647792530708	-46.8814734960645	66.9980186173103	-24.6578288385334	-2.96621610835454	
2464000000.00003	-13.4501822875085	48.1129189788639	-9.86986820902491	76.2907151286307	-46.6065544072118	63.2584691301739	-24.7201526376037	-2.64049481136469	
2464333333.33336	-13.4158997507976	47.6728556392621	-9.8658787061247	74.0251243621364	-46.6111196420117	63.8157763229338	-24.8021253024534	-2.34130644901124	
2464666666.6667	-13.3555801133373	47.1717399473264	-9.86539421443652	71.7431594171448	-46.4072875593269	58.3084990722488	-24.8806583217168	-1.96481628314092	
2465000000.00003	-13.2856254156309	46.6499610730887	-9.86153053020932	69.4699693511043	-46.5037861800558	58.2230648633043	-24.9397363685199	-1.77765778839818	
2465333333.33336	-13.2363830540991	46.2623844959721	-9.85696855015448	67.1942827936071	-46.3822218170548	53.6705845074727	-25.0056533744335	-1.43841123176271	
2465666666.6667	-13.1721978872069	45.7354231189287	-9.86087403511562	64.9138399618159	-46.6649395269327	52.8096003488801	-25.0831882205273	-1.33323469175431	
2466000000.00003	-13.1248359032193	45.2885063775064	-9.85440389095559	62.5767125414552	-46.668889284575	49.9832015430711	-25.1533898232472	-1.16512554081883	
2466333333.33336	-13.0660863561002	44.8348797418121	-9.84978359442533	60.2934666913397	-46.3925271242848	49.0296858764024	-25.195214948869	-1.11229265878853	
2466666666.6667	-13.0060090185394	44.3260770786969	-9.85011846379301	58.0029470369321	-46.4316916511386	45.5894221468066	-25.2599942250531	-1.20191701027185	
2467000000.00003	-12.9451725925415	43.9209166334177	-9.84556626078273	55.6932164352455	-46.8509975997883	42.6981370015271	-25.3071681655004	-1.33840952910768	
2467333333.33337	-12.8743753543516	43.4523038566319	-9.84690929228592	53.4067645156086	-46.6623909312854	39.9821844724952	-25.3027430457597	-1.3477290335517	
2467666666.6667	-12.8100682805007	43.0742185541549	-9.84601098375453	51.0565051032466	-46.7685718252408	37.7697515354933	-25.3740879609717	-1.60142067151185	
2468000000.00003	-12.7489647186147	42.6589084839845	-9.84738237424148	48.7668015580482	-46.4970472440437	36.413486845867	-25.4360970687647	-2.06206173528404	
2468333333.33337	-12.6882327654718	42.1974450139073	-9.8428002784127	46.4187687375609	-46.5535614570391	34.3464187507512	-25.5074446882049	-2.18342297313782	
2468666666.6667	-12.6276946757162	41.7785844908838	-9.84345481856975	44.0886265770682	-46.5018789741963	31.0054610127035	-25.5434520637001	-2.63196670081982	
2469000000.00003	-12.5553294498342	41.3970628485593	-9.84280011733432	41.7907641461251	-46.5358223611858	28.3006838521596	-25.5538802036268	-2.87913647417807	
2469333333.33337	-12.4909233306483	40.9901609829319	-9.84208133420914	39.4697337255136	-46.6390210888453	26.3438298671545	-25.5837594175898	-3.71534020151805	
2469666666.6667	-12.4332646355264	40.5803791160272	-9.84707957034271	37.1415814989266	-46.498922611847	24.8785745968502	-25.6150327249242	-4.24760096014157	
2470000000.00003	-12.3589531727323	40.2204759781368	-9.85109217238626	34.7829440479521	-46.5486977986012	23.8745610587003	-25.6062587355979	-4.84133963891072	
2470333333.33337	-12.2977146118628	39.7881240522083	-9.84258237166317	32.4361880642927	-46.4135783714009	20.6168120329683	-25.6775197756225	-5.42727062600586	
2470666666.6667	-12.238362767417	39.4079854746089	-9.84799485053177	30.1113831585057	-46.6258092497861	15.4932774353455	-25.6618122449927	-6.1904658662075	
2471000000.00003	-12.1728628007524	39.0644345628781	-9.85683992471875	27.7678799817401	-46.3969418954143	15.3019642485434	-25.7058818247038	-6.93323106234988	
2471333333.33337	-12.1122345574909	38.6584615918176	-9.86012675155228	25.3996370288432	-46.4360840606334	13.5686460000375	-25.7202786335101	-7.86771878165334	
2471666666.6667	-12.0558890609447	38.3577886920219	-9.86264745265271	23.1104712538066	-46.4159336765259	11.7495518584357	-25.7222365910419	-8.51069078332314	
2472000000.00003	-11.992278218792	37.964626992876	-9.86604002108195	20.7183116070973	-46.5091152130513	8.4780138712368	-25.7204867424927	-9.54383523866136	
2472333333.33337	-11.9269359753114	37.5704079847625	-9.86560238244172	18.3697568378265	-46.5300651967732	5.56311728948756	-25.657383434612	-10.3880816902541	
2472666666.6667	-11.8685361762625	37.2654683404435	-9.87593377466048	16.0528599728288	-46.7025588819728	3.27644118834943	-25.6530860889737	-11.3942215417034	
2473000000.00003	-11.8149320016156	36.8949334683439	-9.87728468071227	13.6787750075945	-46.5876348558237	1.30125157879018	-25.6447678428446	-12.5579216916916	
2473333333.33337	-11.7547082130179	36.5431641510617	-9.88068886933011	11.2758640830169	-46.5274985954256	-1.04520671649123	-25.6098108905878	-13.6257647170132	
2473666666.6667	-11.6996570955092	36.1645984114583	-9.88829629100126	8.91804406008747	-46.548076257954	-4.13711696979962	-25.5716416050392	-14.6993464984273	
2474000000.00004	-11.6419307926519	35.8674950922542	-9.89173305918323	6.59324758497539	-46.590427529837	-7.13871593161033	-25.5193691093076	-15.9006939852538	
2474333333.33337	-11.5915137331489	35.5353305824428	-9.89894671087742	4.25340791521374	-46.5986838068962	-8.95576451067886	-25.4677797634346	-16.9754974234652	
2474666666.6667	-11.5355584655832	35.1963637245036	-9.90061196947736	1.86136492641905	-46.5477550658485	-9.96864690898639	-25.385380999564	-18.3321458797722	
2475000000.00004	-11.4764728144525	34.8830720730389	-9.90684381963276	-0.492698353317779	-46.4054610568038	-13.6885584991077	-25.332778934263	-19.4023642015742	
2475333333.33337	-11.4305881030784	34.5107526341629	-9.92349971728605	-2.8879279885795	-46.4284779333283	-15.9678503815218	-25.235702459722	-20.6597753548793	
2475666666.6667	-11.3731361457655	34.1927803437502	-9.92395458426172	-5.22888671052729	-46.6345786047681	-17.7632535890339	-25.1604569557258	-21.8437888505251	
2476000000.00004	-11.3298199046362	33.8442594902904	-9.93164924032614	-7.59264658410592	-46.5837880550138	-21.0396316577355	-25.0260628714899	-23.1801223650115	
2476333333.33337	-11.2823079874371	33.5280450593438	-9.93979720563857	-9.92492836299047	-46.8565343769699	-22.9636129266178	-24.9657416373239	-24.3117621211187	
2476666666.6667	-11.2406032568341	33.1495806824788	-9.94515932782389	-12.2698090899028	-46.5882390862092	-25.1445422590886	-24.861794789549	-25.7555868624248	
2477000000.00004	-11.1996885100056	32.8597821388807	-9.95212731744393	-14.6379419040223	-46.6574523847406	-27.962905883808	-24.7311043399339	-26.9099229306176	
2477333333.33337	-11.1555226859814	32.4782787330853	-9.96405680682748	-17.0055280446332	-46.5844205232397	-29.0988814541517	-24.6063747421017	-28.0016840960901	
2477666666.6667	-11.1038824042662	32.1855369655067	-9.96832173165514	-19.3395601834896	-46.7657540252833	-31.947259249457	-24.5040832205267	-29.1903749518427	
2478000000.00004	-11.0703917371741	31.8698958158262	-9.97993924207288	-21.6539661362331	-46.6349064478921	-32.7466044946766	-24.3573627661445	-30.2285848787408	
2478333333.33337	-11.032587288131	31.5237802093174	-9.98220672802837	-24.0133902768473	-46.5516859207905	-36.956404197627	-24.2311983119166	-31.3515958429306	
2478666666.6667	-10.9980513717592	31.1061213304781	-9.99632742506134	-26.3364687805731	-46.7153428574839	-37.488790953592	-24.1023241119283	-32.6155405758442	
2479000000.00004	-10.958766895258	30.8238831565217	-10.003679187804	-28.6339233608382	-46.4051532066763	-41.0603401927513	-23.9715168814332	-33.8479078235997	
2479333333.33337	-10.9282586891061	30.4826563658489	-10.0100983544141	-30.983597511011	-46.8608373007747	-42.7822501942224	-23.8068488389725	-35.1675221881956	
2479666666.6667	-10.9013554820552	30.0893517779866	-10.0169114437118	-33.3120312013173	-46.4969835189167	-45.4867525437884	-23.6805156824565	-36.0124688559193	
2480000000.00004	-10.8702711064887	29.7540578133067	-10.0238178389598	-35.6667515601446	-46.4788670172597	-48.2956681865238	-23.5223619700385	-37.2233144156165	
2480333333.33337	-10.8392375794826	29.4774211304647	-10.0305712114362	-37.9662450783623	-46.6424468077648	-49.3014078480042	-23.3712873739474	-38.1243002553171	
2480666666.66671	-10.8157701474556	29.1223750339927	-10.046595044014	-40.2929760830278	-46.5685560153412	-52.3467398242601	-23.2358385096946	-39.1283231259671	
2481000000.00004	-10.7925422644113	28.7537065032795	-10.0454458322863	-42.5871552000955	-46.7738265482932	-54.2795548934012	-23.0603971929043	-40.1158865531383	
2481333333.33337	-10.7670545385248	28.4275469449546	-10.0587001637096	-44.8644883454783	-46.6787115291381	-57.3202963324199	-22.9287166420194	-41.1027557679766	
2481666666.66671	-10.7539844442443	28.0226382687299	-10.0553799458874	-47.1280581549623	-46.5595988293794	-58.1742653546189	-22.7743735088674	-42.0145828394048	
2482000000.00004	-10.7270593386066	27.6872917623147	-10.0666776247169	-49.4468578629631	-46.7309122324286	-61.4105320376404	-22.624080456217	-43.0538706472707	
2482333333.33337	-10.7081235455662	27.4527272235269	-10.0631281550888	-51.7769524487258	-46.6325799448307	-63.53221832778	-22.4641549229528	-43.8939641351371	
2482666666.66671	-10.6920637282101	27.0330778424098	-10.0756362081251	-53.9793506653391	-46.7056278370753	-65.6793469138571	-22.3225054921699	-44.7621366105584	
2483000000.00004	-10.6743982498121	26.6094739739415	-10.0777973480456	-56.2911799437862	-46.5497527171081	-67.9109670843428	-22.1580425373783	-45.5785187526649	
2483333333.33337	-10.6625922350892	26.2411290531323	-10.0840117734929	-58.5457811803515	-46.8650258921889	-71.7047564945732	-22.0193145470471	-46.3953155515394	
2483666666.66671	-10.6574784039851	25.8568154273599	-10.0780366207194	-60.8529112067564	-46.7143231825878	-74.515173779226	-21.8631529798116	-47.2153591721851	
2484000000.00004	-10.6440659032111	25.5782030728142	-10.0862330127361	-63.0803798469052	-46.6185238512723	-75.4793824212631	-21.7358518085118	-47.9506940006669	
2484333333.33337	-10.6315449139141	25.2357492561549	-10.0860206741428	-65.3578850452546	-46.4652284489232	-76.7224711456568	-21.5755390514275	-48.7002842708182	
2484666666.66671	-10.6260964499381	24.868962984721	-10.0813938523449	-67.6121079655212	-46.854464042342	-78.7882475546625	-21.4455639742959	-49.4781644801484	
2485000000.00004	-10.6362415739195	24.3939441692708	-10.0813330249578	-69.8416978033784	-46.880811250548	-80.503995367107	-21.3252508064446	-50.1025267252201	
2485333333.33337	-10.6207380831653	24.1340074139687	-10.0864750856922	-72.1600835672611	-46.9425850542699	-84.5461950760897	-21.1920295020697	-50.8320991737123	
2485666666.66671	-10.619959037368	23.629476241386	-10.0863366960089	-74.3710276223955	-46.7307785685116	-85.9760069836888	-21.0434827892641	-51.436384119471	
2486000000.00004	-10.6160956230248	23.3094801339841	-10.0848596129058	-76.6476956240804	-47.0272317670463	-86.7238475562331	-20.9417665642487	-52.0903584178329	
2486333333.33337	-10.6138563912352	22.9718143154567	-10.0835784937046	-78.9232971333566	-46.815050278762	-90.7245601208839	-20.8233556387692	-52.7226875975772	
2486666666.66671	-10.6292442707404	22.5432672498127	-10.0750784224323	-81.1501855975167	-46.7283543082155	-92.2591600604968	-20.7057315987232	-53.4224573923523	
2487000000.00004	-10.636234889894	22.1955477026507	-10.0719894818564	-83.4257869392486	-46.6465400873916	-94.4916580778586	-20.5946889607842	-53.8909720707415	
2487333333.33337	-10.6465816643315	21.7488925262147	-10.0705962174211	-85.6875057369537	-46.9901996145613	-98.1047195976972	-20.4780491037955	-54.6702656445864	
2487666666.66671	-10.656491927584	21.4188471970929	-10.0644652839632	-87.9177716812408	-46.8217507908425	-98.375995761322	-20.3784425965939	-55.1365369136614	
2488000000.00004	-10.6573153684274	21.0783782856598	-10.0640112919185	-90.1754773291876	-46.7588901552992	-100.490402880377	-20.2848137032698	-55.7405792838675	
2488333333.33338	-10.679143365368	20.6236308024635	-10.0561034195317	-92.4668524348472	-46.8957296170884	-104.057739721713	-20.1989690253842	-56.2433445050771	
2488666666.66671	-10.6884749333837	20.2261150287134	-10.0546475143045	-94.6831694028264	-46.9716095923855	-105.004039049802	-20.1036593688636	-56.8941604958412	
2489000000.00004	-10.7052642467286	19.8527305048491	-10.0429489208317	-96.9555089406296	-46.8313176420059	-107.622523106478	-19.9990237345116	-57.2664122830139	
2489333333.33338	-10.7199655030931	19.4162717846666	-10.0377627057202	-99.2129928137255	-46.8292036208167	-109.579459949806	-19.9314545257751	-57.8393756496853	
2489666666.66671	-10.7311484125002	19.0153577386454	-10.0326615674352	-101.474265874151	-46.8048246555033	-112.602359666907	-19.8468009537885	-58.290482587428	
2490000000.00004	-10.7578673734638	18.5206625910275	-10.0327200985861	-103.729450732434	-46.9248722427074	-113.020275841882	-19.7966786593284	-58.7307686252678	
2490333333.33338	-10.7799560660358	18.1447947840811	-10.0172629946913	-106.00475700882	-46.7197093593348	-115.945880417952	-19.7168937576538	-59.3117114341534	
2490666666.66671	-10.7883531546449	17.6870535828054	-10.00917982804	-108.291055338914	-46.7542439246362	-117.985960859293	-19.6694133053229	-59.7145648817417	
2491000000.00004	-10.8277544579113	17.2268606561784	-10.0090585835708	-110.472448244244	-46.6768551968156	-120.214069228792	-19.6207504698467	-60.2418499080957	
2491333333.33338	-10.8530635962689	16.8413487801175	-10.0040774303787	-112.793098682389	-46.5808037961621	-124.658149519031	-19.5966332565997	-60.6797605622291	
2491666666.66671	-10.8913158582643	16.4298977611666	-9.99579752155639	-115.065575219126	-46.7898884570084	-125.940467473848	-19.5609667554356	-60.9432703139954	
2492000000.00004	-10.9050182791909	15.9694032017265	-9.98587429624554	-117.285401949744	-46.8658122159892	-129.132835564577	-19.5182441915484	-61.3554712610722	
2492333333.33338	-10.9376453515838	15.482698302473	-9.97694703270552	-119.582596950906	-46.9656977546429	-130.24676256036	-19.4735248872496	-61.8136435218412	
2492666666.66671	-10.9631108083414	14.999487661899	-9.96918663816506	-121.826653126703	-47.0281862008298	-131.731808804548	-19.4731356210462	-62.1513997485914	
2493000000.00004	-11.0051996424777	14.5840619084352	-9.96280682849857	-124.108276865817	-46.9095033234285	-134.613395016435	-19.458762251853	-62.5825762239903	
2493333333.33338	-11.0285455708891	14.0951239290237	-9.95554355010498	-126.350395054759	-46.5863115019327	-136.714920291387	-19.4302644737496	-62.9460817733847	
2493666666.66671	-11.065253974669	13.5991975506933	-9.95106099069302	-128.644367651572	-46.9724085453462	-138.319053555052	-19.4233555219954	-63.1996626894477	
2494000000.00004	-11.1120570364687	13.1295491908152	-9.93976120854443	-130.897392433377	-46.5336302494455	-141.838227952842	-19.4476504814968	-63.6483833973747	
2494333333.33338	-11.1322764199662	12.6306770945326	-9.93205614612941	-133.183385687982	-46.6727884225063	-143.980204631511	-19.4634133437655	-63.9390863051965	
2494666666.66671	-11.1765258548859	12.0822384732272	-9.92240399261518	-135.431944890844	-46.6701736637034	-147.020372085243	-19.4716047355994	-64.1841443853164	
2495000000.00005	-11.2057755790932	11.6411063978452	-9.91826479077035	-137.727249014381	-46.5949868946029	-148.959636161827	-19.490593339611	-64.455122097779	
2495333333.33338	-11.2438707232291	11.0357928877322	-9.91473049695162	-140.017878728618	-46.7632427668234	-150.28645709913	-19.5307092338639	-64.9175689204628	
2495666666.66671	-11.2720292527929	10.6138017334931	-9.9084184599419	-142.271563815495	-46.9110026840617	-152.111605685594	-19.5786843026997	-64.9617054966843	
2496000000.00005	-11.3134517729	10.028406834322	-9.90022283504315	-144.587042447016	-46.8601991117373	-155.672818788182	-19.614931921254	-65.197260311194	
2496333333.33338	-11.3617346392435	9.51801432077416	-9.89409780572458	-146.862018505395	-46.6003033613862	-158.598858387425	-19.6627093339282	-65.3447027777203	
2496666666.66671	-11.3872178015673	8.87956017634411	-9.89323814250057	-149.123533120884	-46.6554179999251	-160.269894145015	-19.7350342770042	-65.483387249579	
2497000000.00005	-11.4305347770592	8.38885618595917	-9.88515606581272	-151.434566950012	-46.6044458832348	-163.314934154891	-19.7971717721338	-65.7905623348069	
2497333333.33338	-11.4624205836163	7.85818205526085	-9.87747079991365	-153.730003908463	-46.6085317678778	-164.863862453874	-19.8755944563233	-66.02441625634	
2497666666.66671	-11.5097134652775	7.247668003071	-9.87508315261389	-155.978633726405	-46.7498796956552	-169.393207108403	-19.9642532531453	-66.2019046457034	
2498000000.00005	-11.5477228092344	6.70025525705684	-9.87664410033371	-158.286611488381	-46.6180895459387	-169.593087770353	-20.0498922051007	-66.1509608235823	
2498333333.33338	-11.5780371241181	6.00469776524733	-9.87639880466899	-160.61528869611	-46.7422742078897	-173.119308877031	-20.1539268550209	-66.2151492161896	
2498666666.66671	-11.6095109524832	5.40141895505922	-9.87594046680703	-162.886968437098	-46.6335162990326	-172.279434179532	-20.2559380028246	-66.2090617518782	
2499000000.00005	-11.6502590196942	4.90740309304582	-9.86083742330813	-165.170079296432	-47.0463629844672	-175.893900261051	-20.3754082695173	-66.3452761421904	
2499333333.33338	-11.6947045528144	4.20975041595873	-9.87447454588664	-167.461688881763	-46.5637652284862	-176.897737744776	-20.5014785017977	-66.452606986501	
2499666666.66671	-11.7303870531852	3.5626931299337	-9.87172287972218	-169.770256491188	-46.739522068708	178.219744707145	-20.6226880118975	-66.3277331013225	
2500000000.00005	-11.7703599629007	2.9458129262434	-9.87501953929783	-172.013074313593	-46.6422124901895	177.769013133677	-20.7684979629232	-66.1262833624868	
2500333333.33338	-11.7976435028679	2.27956867327448	-9.87318516501137	-174.401087549345	-46.600874082168	174.329391417769	-20.9309136824384	-66.0529553091452	
2500666666.66671	-11.8357659748284	1.6231314670204	-9.87787990058901	-176.646747635042	-46.5563203929967	170.16221687589	-21.0743569847514	-65.8418946302076	
2501000000.00005	-11.8785152321391	0.930867015228551	-9.87740798734736	-178.98779361806	-46.5971881770971	169.290294995135	-21.2244669228914	-65.7618712561322	
2501333333.33338	-11.906014991597	0.167569918854499	-9.87906080164598	178.764229868569	-46.4804633769688	169.583654136114	-21.4158143652553	-65.2650929181089	
2501666666.66672	-11.9541458823669	-0.546418166379134	-9.88674650513252	176.484321375355	-46.825436556783	165.152847460532	-21.5692306680747	-65.2147746200516	
2502000000.00005	-11.9822739043056	-1.27332343805753	-9.89014127336673	174.195030799417	-47.0307809134864	163.213636763648	-21.7902777455413	-64.6826140152208	
2502333333.33338	-12.0181375452067	-1.93781469097313	-9.89460540894062	171.892634680548	-46.8469243343648	160.984335201812	-21.9866627655901	-64.3627414335493	
2502666666.66672	-12.0444949983069	-2.75448605727441	-9.89677819901072	169.629329250746	-46.4830737822409	158.850404811468	-22.1879227239506	-63.7155656525361	
2503000000.00005	-12.0818780911881	-3.46804361923817	-9.90745010775432	167.346081216134	-46.4300033599599	155.209914068295	-22.3949836531686	-62.9836229150133	
2503333333.33338	-12.1046293769341	-4.32278704962468	-9.91252325152917	165.096619279871	-46.6525720904153	154.431934007459	-22.5997393289434	-62.2769767616222	
2503666666.66672	-12.1420020325127	-5.08670567604276	-9.91576577019181	162.82106427977	-46.8645871976255	152.32539979621	-22.8555140014248	-61.6477709861781	
2504000000.00005	-12.1697837436692	-5.86886276581276	-9.92569546963002	160.538114451408	-46.6967789620049	147.79905977946	-23.0528119378166	-60.8664782693885	
2504333333.33338	-12.1993540019578	-6.65031642293813	-9.93242042772208	158.269683437183	-46.8150145649568	146.593064876008	-23.3140744057135	-59.8842488741416	
2504666666.66672	-12.2311592454398	-7.41849718771274	-9.9372359575871	156.027291094528	-46.9004011544323	144.099665365231	-23.545994664296	-58.80067377285	
2505000000.00005	-12.2555414852124	-8.28141850584587	-9.94706378123076	153.727662324406	-46.5725743505981	142.576738586758	-23.776048986558	-57.5557176074619	
2505333333.33338	-12.2702083066949	-9.0323324278954	-9.95808270555524	151.478488307254	-46.9019025964511	140.850365487368	-24.0136876134928	-56.3562043227926	
2505666666.66672	-12.3067587867127	-9.78425071132935	-9.96606928568529	149.245342432122	-46.4651949543709	137.662133954356	-24.2668681690907	-54.969435833876	
2506000000.00005	-12.3289361274359	-10.7388510053043	-9.97509239440693	146.938016182296	-46.7118136741407	138.528552369742	-24.5033787759146	-53.3908223566762	
2506333333.33338	-12.3459471178387	-11.477438022193	-9.99064610790655	144.696103635117	-47.0101574970406	132.97448410706	-24.7388990525697	-51.8944217506853	
2506666666.66672	-12.3662483171162	-12.3374400794964	-9.98843010324328	142.448581467582	-46.7620538327878	130.975056557492	-24.9833003615442	-50.0582970647966	
2507000000.00005	-12.3910210874834	-13.1751866196861	-10.0050692247702	140.228829892029	-47.0690546451846	128.675582756504	-25.2291797541745	-48.0261236221601	
2507333333.33338	-12.4107633581318	-14.0231294653885	-10.0155387299933	137.977111275088	-46.771022534484	124.750261298772	-25.425707389465	-45.9345818293622	
2507666666.66672	-12.4201847270683	-14.8616718606598	-10.0249192434933	135.704258766575	-46.7123244746198	124.239668504924	-25.5994862889594	-43.8681302272199	
2508000000.00005	-12.4460402397955	-15.733463001427	-10.0338012362311	133.416093903489	-46.8224070172036	121.903031855186	-25.7795717634784	-41.5293951181561	
2508333333.33338	-12.4601871027846	-16.5385914682893	-10.0423382910985	131.226503526577	-46.729945868309	120.463163843329	-25.9778486875289	-39.2565204885673	
2508666666.66672	-12.4732390290024	-17.3732370197487	-10.0564598782704	128.955515084576	-46.4883189162068	118.660389877947	-26.1082928305285	-36.8340979390355	
2509000000.00005	-12.4792827385881	-18.2322380724476	-10.0675910018463	126.695320554567	-46.4781986523267	115.19284979447	-26.2197909038138	-34.1838840744268	
2509333333.33339	-12.4899642145167	-19.0454783517193	-10.079927771501	124.48382573824	-46.8097046783373	113.026915398394	-26.2912616835521	-31.1933623526268	
2509666666.66672	-12.5024944315242	-19.8774613123989	-10.0861399735751	122.244115793561	-46.4910594558595	109.955159785861	-26.3276938423138	-29.1306342440622	
2510000000.00005	-12.5097550321923	-20.7409291282237	-10.099567917326	119.974397998948	-46.6536890709852	108.463114622684	-26.4104880676536	-26.0343650318095	
2510333333.33339	-12.518218631217	-21.5747519432368	-10.1105949053883	117.729603732171	-46.6188078679594	107.574917698741	-26.4002485676622	-23.7884652992865	
2510666666.66672	-12.525496616289	-22.4083441161365	-10.1281814488761	115.465448614886	-46.9231180648902	102.690361147979	-26.3792158062747	-21.2582524001746	
2511000000.00005	-12.5341490603964	-23.2002872669606	-10.1344102992007	113.23157952966	-46.689793285167	102.229293542459	-26.3327701315935	-18.7259203218174	
2511333333.33339	-12.5374677766592	-23.9739688160467	-10.1449716074642	111.033478815738	-46.5328775923925	100.258687592474	-26.2950373009399	-16.3059128272487	
2511666666.66672	-12.5375375313192	-24.8250595198	-10.1499571176191	108.767922582791	-46.547118857971	96.8642244096123	-26.1945768007628	-14.3876108643915	
2512000000.00005	-12.5560266792739	-25.6622182262779	-10.170690185994	106.52520597825	-46.7112519364437	94.3286258347026	-26.0716902063885	-12.1721903755663	
2512333333.33339	-12.539401957167	-26.4678290577022	-10.1829762859526	104.297381461768	-46.853307193307	91.9412699417087	-25.9759637511156	-10.2840513903061	
2512666666.66672	-12.5436774416045	-27.2375665355594	-10.1870856355138	102.061300392978	-46.5048682000383	89.8182474361184	-25.8371716008652	-8.37871493519525	
2513000000.00005	-12.5503118489921	-28.0030655077706	-10.1970052669045	99.826227261219	-46.8237684078885	87.0771634039967	-25.736648962658	-6.78745040963911	
2513333333.33339	-12.5406027915081	-28.7700081926556	-10.2111944439057	97.5383948446253	-46.8159062051276	86.1987437111238	-25.5534865470532	-5.36292598472374	
2513666666.66672	-12.5453432518011	-29.4868048455021	-10.2248632733215	95.3482208529241	-46.8275358923838	82.0981573675403	-25.4084388490044	-3.8200414365403	
2514000000.00005	-12.5516494368106	-30.2870607873522	-10.2392903446877	93.0624749324033	-46.8466234204186	81.4723426978041	-25.2766079173426	-2.78754425864979	
2514333333.33339	-12.5496148726909	-31.0128618646076	-10.2414211910809	90.7941155262083	-46.9317081660137	77.1103508378588	-25.1099816273713	-1.68673257405799	
2514666666.66672	-12.5416389412896	-31.7541466218883	-10.2587626570076	88.5332003275044	-46.8603588424396	77.569352022019	-24.9948732447269	-0.406743137759981	
2515000000.00005	-12.5492848167662	-32.4565705628112	-10.2713111048077	86.3465493537644	-46.639544125814	73.7530730588956	-24.8422382383255	0.430526423438386	
2515333333.33339	-12.5381784065293	-33.1317494690991	-10.2736050994305	84.0636958891672	-46.7127648286377	71.7733953237581	-24.6823586473944	1.06797762401911	
2515666666.66672	-12.5506419089102	-33.8488481968278	-10.286609760888	81.8082929856365	-47.2430536668735	70.0113939664377	-24.5991551769837	1.78299712945246	
2516000000.00006	-12.5437648624699	-34.5092771534125	-10.2951060933791	79.5607529371862	-46.9687781340537	68.0234994831891	-24.5062678184556	2.10496264130444	
2516333333.33339	-12.5533803033076	-35.1731072362711	-10.3051060559693	77.3385774427531	-46.8063751035424	65.6664665906468	-24.3243125956821	2.53171769727817	
2516666666.66672	-12.5506318437667	-35.7791466756925	-10.3140394885424	75.1259645376902	-47.045863723201	64.579002894725	-24.2684249219723	2.68014617672748	
2517000000.00006	-12.5556901617724	-36.4558209142289	-10.3324143590719	72.8224467890216	-46.7773574945411	61.65719803554	-24.1715457661944	3.00342922523082	
2517333333.33339	-12.5564651749199	-37.0242377260773	-10.3334561857072	70.5481078515281	-47.0115970756314	59.2007593783601	-24.0949898423278	3.27535645570493	
2517666666.66672	-12.5497127626777	-37.6751723592691	-10.3511067701911	68.2815387442336	-46.967093985868	59.0869799018038	-23.9476721517452	3.27361215736983	
2518000000.00006	-12.551960210449	-38.271937974342	-10.3608922012134	66.06522530173	-46.9908443637425	54.9708853027924	-23.8988323460825	2.90533674875175	
2518333333.33339	-12.5549476401411	-38.7590590643507	-10.3717736641566	63.7812406182587	-46.8370037046675	51.9069075469245	-23.827039150847	2.76532810634752	
2518666666.66672	-12.5654128277274	-39.3142750591858	-10.3804689500761	61.5597047164058	-47.1471884943294	48.7148437486857	-23.7662758391097	2.6224433272979	
2519000000.00006	-12.5729496652099	-39.8299648678884	-10.3893549310064	59.2525992763158	-47.0788066135519	47.1067690628556	-23.7868600333672	2.48155267801306	
2519333333.33339	-12.5658044711379	-40.3082338961631	-10.3983389635333	57.0203799303344	-47.0744252976353	44.7874651040871	-23.7103920218477	2.09887822723278	
2519666666.66672	-12.5790360524617	-40.7866952868172	-10.4041570696475	54.7635708041454	-46.9294596617764	42.6276332874028	-23.7082258766738	1.67695931968726	
2520000000.00006	-12.5938190823525	-41.286201082369	-10.4094024045701	52.5144004525462	-47.0560800581294	39.8800995489705	-23.6923970335291	1.05428452855137	
2520333333.33339	-12.5956149468871	-41.7121934426499	-10.4221413987249	50.2464339467985	-47.0867672004259	39.3914962619102	-23.6834997226406	0.401376168382948	
2520666666.66672	-12.6142436121176	-42.1289070188164	-10.4263195545726	47.9869471488269	-46.8621203214326	36.546505770793	-23.6974146071495	-0.259339172203526	
2521000000.00006	-12.6099919013778	-42.5685408131617	-10.433264346022	45.738510742348	-46.9766619223894	33.5695017683418	-23.7292737010494	-0.935893363339326	
2521333333.33339	-12.6087558881959	-42.9751429116447	-10.447614697196	43.4655025544563	-46.9251040255759	33.3416371384161	-23.7313762940402	-1.40775531961812	
2521666666.66672	-12.621553253137	-43.3536496229323	-10.4549887674236	41.2665828789359	-46.9864384196901	29.0510117177342	-23.7775214178091	-2.53895153645328	
2522000000.00006	-12.6381505973337	-43.692308684452	-10.4606185508521	38.9689621425989	-47.1949621574671	27.9949621522473	-23.8297206234201	-3.42752959674215	
2522333333.33339	-12.643190659555	-43.9775624234799	-10.4673040928839	36.7076036190854	-46.9272681766483	23.8731539414344	-23.9039901672874	-4.44279940859952	
2522666666.66673	-12.6528614208726	-44.3546620159569	-10.4769697371503	34.4832139158824	-47.2484031351109	23.7974554240295	-23.9540706066441	-5.34881939656594	
2523000000.00006	-12.6564108461089	-44.6903832318945	-10.4802467953234	32.2833712564307	-47.0227807958771	19.9475223661412	-24.0212662565045	-6.48330282111786	
2523333333.33339	-12.6611874743958	-44.8939066192829	-10.4907516367123	29.9869189474835	-46.9514312156809	20.1749869489781	-24.0485931949753	-7.80804637648788	
2523666666.66673	-12.6793842037158	-45.2883683827358	-10.494311349004	27.7410281573843	-47.1797680670753	15.9475430537702	-24.1981963792566	-9.02904338577039	
2524000000.00006	-12.6905623521111	-45.4794278283989	-10.4996860958736	25.5016262520328	-47.0175685360059	12.995454729211	-24.2835273005668	-10.3379981142568	
2524333333.33339	-12.6949838201233	-45.7540221804359	-10.5104899016978	23.2726316655536	-46.9967603255575	11.5509656157971	-24.3898520225331	-11.7739384910588	
2524666666.66673	-12.7012292541552	-46.0129076908629	-10.5165275673066	21.0113068342281	-46.9626649909662	10.3578702392103	-24.4882990162934	-13.2228318938396	
2525000000.00006	-12.716716458264	-46.169406081061	-10.5208431664782	18.8017795419277	-47.0072922616684	7.43759656300875	-24.6408546277256	-14.894896255083	
2525333333.33339	-12.7243674109539	-46.4301904527135	-10.5310678841851	16.5906313349717	-47.051775680644	2.53620975044129	-24.7348842387667	-16.5606904090469	
2525666666.66673	-12.7420149575182	-46.706325890942	-10.533290266715	14.3483412744114	-47.1779708154659	3.63840211080593	-24.879502825499	-18.0882674488522	
2526000000.00006	-12.7507599954398	-46.8763244104326	-10.536706181373	12.1685225551599	-47.0760148631852	2.48020329638307	-25.0056573168415	-20.145944324943	
2526333333.33339	-12.7691667742441	-47.035604667411	-10.5377389515761	9.9233995070499	-47.002928571271	-2.18842624978303	-25.1698493744083	-21.9587985936312	
2526666666.66673	-12.7740903871317	-47.1746868475059	-10.5407594598662	7.69827245622841	-47.1907044126058	-4.54296278635274	-25.2862740560251	-24.0898606587064	
2527000000.00006	-12.7838091941965	-47.3446936953897	-10.5489650599354	5.48330987121162	-47.1101745156309	-4.85537103501674	-25.4667506050047	-26.1682304294753	
2527333333.33339	-12.7988523566782	-47.5538693060426	-10.5455257976701	3.2513895316747	-47.0636714641434	-8.11352310206562	-25.6103088969661	-28.527437121771	
2527666666.66673	-12.8196960145266	-47.7685540726779	-10.5483413774168	1.03532774548997	-47.0804082437402	-10.1943196598948	-25.7398346370475	-30.6999433774671	
2528000000.00006	-12.8347564418318	-47.9485855857551	-10.5463777755824	-1.16934391851209	-47.0142713882078	-13.5613825736708	-25.8790178441634	-33.1047765854681	
2528333333.33339	-12.8566110046753	-48.1541907236192	-10.5471947236445	-3.43418693285632	-46.9607023499768	-13.1106155614631	-26.0443557234499	-35.9304490915264	
2528666666.66673	-12.8681654863486	-48.2991716475291	-10.5423207196146	-5.64250771322071	-46.9098018902811	-15.4502470597341	-26.1624394155566	-38.3461344153804	
2529000000.00006	-12.8820858923689	-48.4860709091282	-10.5455094390937	-7.7917522267607	-47.1443859836323	-19.5586054421621	-26.2877474483849	-41.1059305893292	
2529333333.3334	-12.9071919235777	-48.6775487386661	-10.5380957963682	-10.0051879530131	-47.3260705405905	-20.9230143601264	-26.42486637914	-43.8670019624956	
2529666666.66673	-12.9276022557831	-48.8348889223479	-10.5275036680068	-12.2454910741593	-46.913938743674	-22.2613379447354	-26.5721183400963	-46.6357693197017	
2530000000.00006	-12.9428477165616	-49.0400859883669	-10.5282805106035	-14.477371824914	-47.1590115498988	-24.0989284140001	-26.6843112944821	-49.9099275380091	
2530333333.3334	-12.9773598625932	-49.2926364289919	-10.5147391381882	-16.6725847295701	-47.2104031898742	-27.8400282606045	-26.7516528154526	-52.775795460974	
2530666666.66673	-12.9945036586943	-49.4984763537381	-10.5079060119439	-18.8908485790023	-46.9733367407099	-31.0193437323586	-26.8414179124772	-56.1519730019562	
2531000000.00006	-13.0343898069054	-49.7351741735017	-10.5032282527455	-21.0779818114359	-46.9336679927675	-32.9273133810549	-26.8952707442017	-59.0972747365224	
2531333333.3334	-13.0679144190595	-49.9421879450197	-10.4950179582069	-23.3106177200593	-46.7756282231423	-33.6409908286976	-26.9620501665168	-62.3280138216751	
2531666666.66673	-13.1089239578691	-50.1030281134633	-10.487514339549	-25.525991505984	-47.1553007911889	-36.2653786854869	-26.9891732806973	-65.5689847402819	
2532000000.00006	-13.1268169230144	-50.33804148738	-10.4739052627545	-27.7232166417357	-47.0438713595785	-39.5765440943519	-27.0120402630209	-68.8683334716178	
2532333333.3334	-13.1697269812628	-50.5711421235064	-10.4620183556186	-29.9427509750066	-47.0415826192248	-37.9940884860185	-27.0142853509981	-71.8503459187362	
2532666666.66673	-13.2064841970079	-50.7685026764953	-10.4531259277283	-32.1640528107469	-46.9268111273245	-44.7961612402634	-27.0055792609999	-74.9832009179461	
2533000000.00006	-13.2405987327328	-50.9982996243041	-10.4406465726167	-34.4360839661656	-46.9229655229384	-46.4076663900451	-26.934954897039	-78.3265373244406	
2533333333.3334	-13.276264814182	-51.245777616039	-10.4247764660242	-36.6518214240659	-46.9492327332083	-47.2184678697144	-26.9113753364845	-81.3127653841592	
2533666666.66673	-13.3264374579166	-51.3335227772314	-10.4094618584792	-38.8743913775154	-46.6753174520345	-49.1867650860569	-26.8967056612445	-84.4909434902499	
2534000000.00006	-13.3526001179561	-51.5333839619285	-10.4018724973308	-41.0884430245446	-46.9642261224076	-52.4531619019696	-26.8140945099842	-87.215614838888	
2534333333.3334	-13.4094224630059	-51.8677151144573	-10.3875930019581	-43.3546924453383	-46.8276382086962	-55.3966401163063	-26.7464820769633	-90.2906887821646	
2534666666.66673	-13.4673145216726	-52.0909374530999	-10.3747912382381	-45.5864830453741	-46.9529813665451	-56.1997027997339	-26.6820036660526	-93.1429212977749	
2535000000.00006	-13.5207652005049	-52.2313802455907	-10.3556895473863	-47.8667482706987	-46.8847932769142	-59.2209079613478	-26.5964829073281	-95.6486329679399	
2535333333.3334	-13.555792799391	-52.5692697111932	-10.3482974417748	-50.0919014458819	-46.7220371209544	-63.4682676103454	-26.5174287530205	-98.2382541406549	
2535666666.66673	-13.6153266306134	-52.821912843691	-10.3341081948126	-52.3595943417249	-46.9548702539097	-63.0891866351739	-26.4168260483762	-101.017080448462	
2536000000.00006	-13.6889095946958	-53.0453997692379	-10.3235170501324	-54.6364179405285	-47.0251679846861	-64.1440277696159	-26.3244987743804	-103.377237835447	
2536333333.3334	-13.7226724200815	-53.3879044752839	-10.3074242663197	-56.9297234782707	-46.9463136190523	-67.0535357140469	-26.2689258599205	-105.922652046301	
2536666666.66673	-13.7961972166849	-53.6451699124064	-10.2956212413811	-59.206747643655	-47.1366058156832	-69.2652466371725	-26.1862056134825	-107.969858225257	
2537000000.00007	-13.8449355747038	-53.7835181795395	-10.2814765031656	-61.477292848469	-46.8969478163986	-72.0931664882585	-26.1021839724721	-110.233458901389	
2537333333.3334	-13.9119399009018	-54.0695142103897	-10.2741441018086	-63.7700790999625	-46.9439427672651	-74.6564574194817	-25.9995950324737	-112.231018385996	
2537666666.66673	-13.973068002965	-54.3545561321041	-10.2604771771238	-65.9948795216746	-46.9372634653002	-75.423897347354	-25.940800923247	-114.174515999588	
2538000000.00007	-14.057871304511	-54.6862165509474	-10.2510148850809	-68.3121428427657	-46.7217341405539	-80.2865591276529	-25.9113173526745	-116.157040610091	
2538333333.3334	-14.1222112603948	-54.8881171880346	-10.2387373214431	-70.6067986660437	-46.8258405633511	-81.0638059631389	-25.801887341261	-118.011151297394	
2538666666.66673	-14.1837077396046	-55.1315388127935	-10.2320672059598	-72.9078937641886	-46.8631065654796	-83.894524568386	-25.775737910164	-119.84968478918	
2539000000.00007	-14.2731712807042	-55.260011636566	-10.2243228870309	-75.194950237724	-46.9211459216424	-85.9871853179487	-25.7549705080805	-121.368811413702	
2539333333.3334	-14.3527535681468	-55.597787085793	-10.2180716142005	-77.5236372824645	-46.8025731507115	-87.4037248646792	-25.7129546435652	-123.058062770494	
2539666666.66673	-14.439696388	-55.8855966590342	-10.2037025176165	-79.8146708383591	-46.8738762476528	-90.6638818646394	-25.701789314419	-124.672073024539	
2540000000.00007	-14.518305862301	-56.1851224914214	-10.1935326861468	-82.0630374681089	-46.8761932399971	-92.1519803027344	-25.673939625608	-125.929351210369	
2540333333.3334	-14.5932340609812	-56.5528454886694	-10.1860267224519	-84.3882193981201	-46.7747831305238	-95.4069541867551	-25.7055915751448	-127.400861902048	
2540666666.66673	-14.6965407807957	-56.8723296595155	-10.1842943473096	-86.7241840944932	-46.5802986264481	-96.8830939767882	-25.7508774696686	-128.771230615605	
2541000000.00007	-14.7776872674894	-57.1949214637232	-10.1783331600091	-89.0272619454846	-46.5396648201617	-98.5211952143342	-25.7230922967571	-130.07475514319	
2541333333.3334	-14.8440986838105	-57.412142776755	-10.1628265888189	-91.3185308096027	-46.9561898957411	-100.634836587961	-25.7804445248806	-131.292139503445	
2541666666.66673	-14.9454424810639	-57.7969008935164	-10.1617636816543	-93.7015401885569	-46.7166433158228	-103.213574202814	-25.8842565514531	-132.26752183779	
2542000000.00007	-15.0422493189369	-58.1041146959448	-10.1561655591513	-95.9425520670008	-47.1441415884744	-107.641955250709	-25.9367261490396	-133.475365106422	
2542333333.3334	-15.1420604691117	-58.4826889187039	-10.1618884884154	-98.2410001300254	-46.7587589325621	-107.443149484403	-26.0192742662729	-134.380908824107	
2542666666.66673	-15.2236202161337	-58.8167001470913	-10.1605281868817	-100.557108638217	-46.7845874653495	-110.833553306212	-26.1494676364072	-135.548358921372	
2543000000.00007	-15.3387910877538	-59.0229162094084	-10.1491840327049	-102.831295952195	-46.8716167001095	-114.140887170069	-26.247544905178	-136.466990168953	
2543333333.3334	-15.4343462884008	-59.2943279659679	-10.1401375583123	-105.157034274463	-46.7104231577959	-114.165847904505	-26.3921052936161	-137.460304837919	
2543666666.66674	-15.5377821645478	-59.6054875108849	-10.1480882915791	-107.486566578266	-46.7751722598369	-116.409038427262	-26.5601313989389	-138.203974956068	
2544000000.00007	-15.6466584681294	-59.9373300953869	-10.1444245338005	-109.796127597128	-46.8763778330162	-121.072015960057	-26.7261646250706	-138.899409571648	
2544333333.3334	-15.7453548608889	-60.3807300120435	-10.1430564403174	-112.041622763903	-46.7696974899369	-121.292728703811	-26.9172171455688	-139.721989500944	
2544666666.66674	-15.8446130891126	-60.6802475537505	-10.1455464252678	-114.362410185376	-47.0946469380754	-125.976886463169	-27.1331835595133	-140.451915939332	
2545000000.00007	-15.9744360834283	-61.0177009308653	-10.1447626043299	-116.664650947996	-46.7677231425527	-127.513364106114	-27.370013915942	-140.833243928922	
2545333333.3334	-16.0556217471039	-61.447667906881	-10.1432189914135	-118.964017844841	-46.7322841602646	-128.378542220479	-27.6201257612201	-141.499087520545	
2545666666.66674	-16.1642263191966	-61.830190671055	-10.1404232105996	-121.311558208982	-46.6155105494029	-131.054276470495	-27.9184448886309	-141.955780036033	
2546000000.00007	-16.270589433891	-62.1955885541436	-10.1488150376917	-123.583148478128	-46.66053840282	-134.421156433687	-28.2955008540897	-142.222704210352	
2546333333.3334	-16.4029600067902	-62.5645097284365	-10.1498233037591	-125.822614201098	-46.8809156582523	-134.57224400405	-28.5913025621349	-142.532485860118	
2546666666.66674	-16.4957252012794	-63.0583042958656	-10.1488007668995	-128.154061692783	-46.7239104933079	-135.690298452558	-28.9861968793724	-142.88524569962	
2547000000.00007	-16.5968530499995	-63.3638875488876	-10.1537019780087	-130.421340324328	-46.6550588609356	-139.832830179831	-29.4212600975343	-142.372886292603	
2547333333.3334	-16.7209157773096	-63.7680225462068	-10.1523459005537	-132.714008086968	-46.5384980458052	-142.14794703509	-29.8419042725677	-142.279144665676	
2547666666.66674	-16.8203563236784	-64.2254421851724	-10.1533910241193	-134.961302594163	-46.6981128270426	-145.102805081466	-30.3660233524228	-142.131429919949	
2548000000.00007	-16.9476108471323	-64.6733777595736	-10.1588759482897	-137.225191317936	-46.9263466832325	-145.35596814042	-30.8285037550717	-141.537964368573	
2548333333.3334	-17.0409920107708	-65.1458126400982	-10.1618927261668	-139.508149776922	-46.7593057121932	-149.10569629352	-31.4549719199066	-140.802868872148	
2548666666.66674	-17.1470285586022	-65.568796633034	-10.1606709395243	-141.731706217871	-46.6348551750102	-152.226195762717	-32.1046793049064	-139.980663084105	
2549000000.00007	-17.2566037356301	-66.0590337574492	-10.1610397370054	-144.07077372233	-46.9263056589941	-153.759080071914	-32.9021036782807	-138.12331615459	
2549333333.3334	-17.3535233246479	-66.6348490862812	-10.167786437381	-146.293847667748	-46.9705159446286	-155.805032202732	-33.5940959502571	-136.244732574255	
2549666666.66674	-17.4645974940905	-67.1355499956166	-10.1636003308157	-148.543890686792	-46.7965588684858	-158.130608467892	-34.4236994579281	-133.474632792592	
2550000000.00007	-17.5628348181132	-67.5716508090871	-10.1654358010639	-150.765576841247	-46.7727522510134	-162.091925112884	-35.3264285104588	-130.117989393494	
2550333333.33341	-17.6535067251404	-68.3090754229666	-10.1666979173951	-153.031383486709	-46.814193934031	-164.376918237393	-36.3888128003685	-125.320099014384	
2550666666.66674	-17.7566541417396	-68.8625390753503	-10.1635640667872	-155.253670995178	-46.8173841322743	-166.484286379011	-37.3779563080149	-118.389394094942	
2551000000.00007	-17.8641858119106	-69.4848708011202	-10.1655908093066	-157.508347957809	-46.8274493638715	-166.941528090446	-38.3917890869088	-111.613429017719	
2551333333.33341	-17.9678334198004	-70.1418615095894	-10.1678700610576	-159.778224141389	-46.5083101431841	-170.52933728852	-39.2218893921517	-100.290916144619	
2551666666.66674	-18.0749774597834	-70.7974963673649	-10.1663991397042	-162.048263016729	-46.7491277540741	-171.599789719785	-39.8422869868011	-87.628370937269	
2552000000.00007	-18.1518955440996	-71.4496138635649	-10.1613092617322	-164.27450883302	-46.7553785558027	-173.225798029337	-39.731811848034	-74.4722307282535	
2552333333.33341	-18.2481277599395	-72.2452851431102	-10.1616107726816	-166.509871535583	-46.6266523526845	-175.884162899119	-39.1859935055666	-60.6106908145451	
2552666666.66674	-18.3435512175486	-72.8771792838915	-10.1647090077042	-168.721458345469	-46.5936925315055	-178.578487196305	-38.3022814494235	-49.1609384944197	
2553000000.00007	-18.4232828861222	-73.5898156272794	-10.156969340128	-170.959861473815	-46.5841640951078	176.572988233993	-37.3062845653699	-41.0977273057057	
2553333333.33341	-18.4956006790723	-74.2725146673238	-10.1630050565657	-173.213574084512	-46.7166246127688	177.898092895629	-36.0844567144478	-34.7979089036835	
2553666666.66674	-18.5867539908967	-75.1034819806584	-10.1599649844366	-175.441326758642	-46.5229024728487	172.971034541213	-34.9474198450284	-29.6483298582421	
2554000000.00007	-18.6590097966306	-75.9779835888366	-10.1573715144808	-177.701059600399	-46.4462692691311	172.451434325879	-33.9800401311574	-26.0609150899754	
2554333333.33341	-18.7331255575647	-76.7670534159063	-10.1514352171858	-179.954217261569	-46.6224680876283	169.316433613299	-33.0050297068826	-22.4625797323125	
2554666666.66674	-18.79375257964	-77.5564755533891	-10.147850870641	177.835799015061	-46.534253304869	166.596814893476	-32.0446599482405	-20.2497120278791	
2555000000.00007	-18.8551257841606	-78.3860337037348	-10.1491900844209	175.572940341326	-46.6678268620318	165.208337263675	-31.2720794119224	-18.5723298621855	
2555333333.33341	-18.9017638550559	-79.1865549486993	-10.1386331942286	173.361234179121	-46.6805042412239	162.13732926647	-30.5065126432105	-17.7798353048102	
2555666666.66674	-18.964043762841	-80.1763060094752	-10.1398374764841	171.106919313858	-46.4950756282416	160.720594827311	-29.8289588614991	-15.8752818883985	
2556000000.00007	-19.0159606810915	-80.8720484985073	-10.1297899632684	168.878938729442	-46.4771344023546	157.506422960894	-29.0820206704656	-15.3726346011605	
2556333333.33341	-19.0665405967043	-81.9507824729055	-10.1278668318531	166.617306760659	-46.4451178439654	156.131922588414	-28.563437759932	-14.5616152566694	
2556666666.66674	-19.1017997753939	-82.8578813514886	-10.1299929771957	164.36747632931	-46.6002426605598	154.419119477941	-27.9751553821294	-14.3714103664875	
2557000000.00007	-19.1232551778137	-83.6922520798246	-10.1169681301342	162.095892399983	-46.6915953409248	151.010616661155	-27.423322136375	-14.0210447208354	
2557333333.33341	-19.1780660564802	-84.6665441812715	-10.1126932471871	159.850302023132	-46.5572241562715	148.68852949827	-26.9245542501153	-13.730119384656	
2557666666.66674	-19.1780942401193	-85.7053521156053	-10.1026386415748	157.594436998864	-46.5139834720976	145.730407631493	-26.4999680799887	-13.6862615802576	
2558000000.00008	-19.20300636676	-86.5606907478929	-10.1019812926656	155.29283022376	-46.4546798082398	144.856421258974	-26.0374924137739	-13.4210113499613	
2558333333.33341	-19.2109178037083	-87.554657731086	-10.0985085770228	153.05641408078	-46.4907066141545	142.489266246747	-25.6225817086022	-13.4840535507476	
2558666666.66674	-19.2073991781828	-88.5541709947223	-10.0935220086754	150.786478879992	-46.4437725429908	138.692684355328	-25.2427707030927	-13.7369426406434	
2559000000.00008	-19.2227604116173	-89.3835841330211	-10.0943878989698	148.555487692009	-46.2659777071556	136.655588784636	-24.8666363579763	-13.2868311101285	
2559333333.33341	-19.1989740745521	-90.5029828693051	-10.0830372152618	146.25986948087	-46.4386729241106	135.833585094121	-24.5761791082255	-13.562148771884	
2559666666.66674	-19.1990311077374	-91.2752192899586	-10.0744412091245	144.026139038311	-46.3284974508609	131.295165672164	-24.242302464878	-13.7322389085223	
2560000000.00008	-19.1771061212534	-92.2651309240059	-10.076105989259	141.68022677079	-46.7393795079423	129.337927117325	-23.9192483352115	-14.0547058110461	
2560333333.33341	-19.1598048862879	-93.2640656597374	-10.0735555550188	139.39794651282	-46.5565789531555	127.366482733967	-23.6530285218447	-13.9540814630683	
2560666666.66674	-19.1198663055563	-94.2557862915089	-10.0685083303249	137.133328896792	-46.3829903967466	124.568540175161	-23.3823810256284	-14.3563011571844	
2561000000.00008	-19.0940165946992	-95.248581572508	-10.061092800227	134.821076075091	-46.319023077382	122.745153232919	-23.1663095380648	-14.6052814269145	
2561333333.33341	-19.0608023941092	-96.1636809776015	-10.0553109799243	132.500379634938	-46.4619246814707	121.175917720308	-22.8902175341106	-14.7303219420138	
2561666666.66674	-19.0148202003915	-97.1208859414125	-10.0553819700642	130.190636819498	-46.1986660962343	118.734002057756	-22.6665345884569	-15.098236421231	
2562000000.00008	-18.9705007526415	-98.0342466570634	-10.0519910262095	127.885673622275	-46.2221907485345	116.772285443616	-22.4413722294499	-15.2640865761178	
2562333333.33341	-18.92901693979	-98.9823207795584	-10.0492234942467	125.589369978	-46.1956033318025	115.035678060647	-22.2807575588994	-15.5557418369317	
2562666666.66674	-18.8741742370723	-100.007965007665	-10.0484827430105	123.265901169379	-46.3858768016108	111.113183737797	-22.0939094515032	-15.8465023348361	
2563000000.00008	-18.8247098092813	-100.808908152851	-10.0434950461584	120.944846058456	-46.2498832991574	109.743987192749	-21.8848132762836	-16.1421830658111	
2563333333.33341	-18.7580418012794	-101.759010491246	-10.0430168417947	118.578484139107	-46.1146027008504	107.004068816171	-21.7326496081159	-16.3779078821389	
2563666666.66674	-18.6874493664549	-102.712508947058	-10.0371013809096	116.244573053031	-46.3872067823326	105.044054040445	-21.6004712826078	-16.7272476567277	
2564000000.00008	-18.6312259033222	-103.535041921812	-10.0380075538725	113.911915160217	-46.2237323235892	101.321629076714	-21.4818416434395	-17.0956138611929	
2564333333.33341	-18.5909247687294	-104.461882564706	-10.0400623394373	111.598927039217	-46.4142457352005	99.9463408304076	-21.3303825969171	-17.343335995327	
2564666666.66675	-18.5217390787769	-105.328941429529	-10.0406074159385	109.238345811873	-46.4927960045573	98.3578916020907	-21.2251401976952	-17.6678488606565	
2565000000.00008	-18.4543832223634	-106.234357627313	-10.0377045641541	106.910681670372	-46.3078561410851	96.5148808695766	-21.1089803959068	-18.003682311632	
2565333333.33341	-18.4006157447715	-107.097135056087	-10.0398946787868	104.562841410024	-46.3349132709774	93.2843943372127	-21.0101068457067	-18.3508633597842	
2565666666.66675	-18.3349022092729	-107.972455324466	-10.0385860773167	102.21568552779	-46.1570567413162	90.3387467864217	-20.9575579962632	-18.5846061925284	
2566000000.00008	-18.277222801937	-108.736253087921	-10.0371315179636	99.8456034708982	-46.4177076758925	91.9454388833485	-20.8488778285212	-18.9923256742237	
2566333333.33341	-18.2097554056877	-109.618228908565	-10.0324995111409	97.4903693678526	-46.2130270687137	85.2556687904337	-20.7801068825357	-19.4383088350875	
2566666666.66675	-18.1468111545476	-110.544980469896	-10.0427308494994	95.144539728148	-46.2690424637832	82.7480216005935	-20.7414233583031	-19.8719954642775	
2567000000.00008	-18.0858332063643	-111.275120858482	-10.0492986195177	92.8004999670106	-46.1022298459804	80.0474312946942	-20.6688263085487	-20.283068258751	
2567333333.33341	-18.0113023417055	-112.08581139723	-10.0531040016049	90.4107825543581	-45.8973976315656	80.9703882736784	-20.6416814241855	-20.5942594889795	
2567666666.66675	-17.9603451336207	-112.811777118768	-10.0599494988646	88.0499491965566	-46.3171747745368	77.109906668356	-20.6020103349036	-20.854219704897	
2568000000.00008	-17.9012270820428	-113.679541689348	-10.0540675896319	85.624970311208	-46.1149173194437	74.3127455594793	-20.5875876322493	-21.2006841245435	
2568333333.33341	-17.8511267603896	-114.476721454777	-10.0601752132063	83.3332047594646	-46.2101111933498	70.1287663233955	-20.5708022639267	-21.6551723452912	
2568666666.66675	-17.8077795111288	-115.188023003936	-10.0593165208437	80.9414554074932	-46.3498605029325	67.2934544259728	-20.5715240565723	-21.9750170484879	
2569000000.00008	-17.7446726966542	-115.889890763023	-10.0774139880098	78.6140139353825	-46.3614686322239	67.7449131753232	-20.5596129292005	-22.5269345488932	
2569333333.33341	-17.6948908086898	-116.716851133952	-10.0747395161765	76.1859970516724	-46.3913772789972	66.43276575342	-20.542062248269	-22.7323132925678	
2569666666.66675	-17.6449998465702	-117.414739105455	-10.0803495362897	73.8154345528634	-46.3995766160459	62.9802775263771	-20.5643748901788	-23.2007341798189	
2570000000.00008	-17.5979515757393	-118.092037180578	-10.0807510049289	71.4971169931028	-46.4838059562413	62.0740265084635	-20.5941875069702	-23.5204624839837	
2570333333.33341	-17.5503898747306	-118.849246929082	-10.0941222608488	69.1002312537713	-46.348400039862	57.5921227828341	-20.6107124408871	-24.0664163343111	
2570666666.66675	-17.5133899929971	-119.529079253358	-10.1053696663868	66.7706589230376	-46.2229483659031	55.7416750010205	-20.6421919060804	-24.6372570897744	
2571000000.00008	-17.4766215082281	-120.192754038942	-10.1084078209759	64.4133358096022	-46.6112691003358	53.0309544645026	-20.7114599089258	-24.8457913469043	
2571333333.33342	-17.4404410371984	-120.917315729431	-10.1153873808424	62.0524498358139	-46.4312022453447	52.4841796903135	-20.7405738740124	-25.3078627132942	
2571666666.66675	-17.4126057203321	-121.552330375946	-10.1225078873727	59.6538532711385	-46.4686887623855	48.3146722944163	-20.8333048804535	-25.7094821945393	
2572000000.00008	-17.3715796139187	-122.282907085599	-10.1322328989835	57.3751609153562	-46.5586361124277	47.0622668970016	-20.8762745895259	-26.2762553730651	
2572333333.33342	-17.348535364941	-122.938947186717	-10.1397912507893	55.0336398744367	-46.5863228976937	44.7514790339217	-20.9399127038768	-26.7583812093365	
2572666666.66675	-17.3305493501384	-123.473070109779	-10.1495250615207	52.6850072303455	-46.3845153020838	42.6871867995461	-21.0321787585239	-27.267212063587	
2573000000.00008	-17.2992279744308	-124.139420710173	-10.1488873358239	50.3479785931333	-46.2130047466005	39.5963053268875	-21.1254482983753	-27.5991222227004	
2573333333.33342	-17.2750565662264	-124.94649107853	-10.1673907418715	48.0581506432385	-46.4840614411205	36.9622698681476	-21.261192239645	-28.3234599244789	
2573666666.66675	-17.2659021418359	-125.6199688048	-10.1710506807553	45.7570205245992	-46.6648556360315	35.9694817247109	-21.3745554098711	-28.6983317663239	
2574000000.00008	-17.2409262457128	-126.338069331755	-10.1767219291563	43.4502388436679	-46.4145252997272	32.3868104945208	-21.4617056280946	-29.3132447222759	
2574333333.33342	-17.2590857662193	-126.796098075424	-10.1845441907677	41.1529728381552	-46.4434787644422	31.6265208288608	-21.5820779063573	-29.7345302683886	
2574666666.66675	-17.2471900667171	-127.490120557497	-10.1886226232383	38.8198432536883	-46.3698368697297	26.9937761107332	-21.7119362213318	-30.3975329617393	
2575000000.00008	-17.2454715112823	-128.090624352467	-10.1907578858243	36.5690244794965	-46.5019606028051	26.5798551700057	-21.8960652213747	-30.9469422796043	
2575333333.33342	-17.2553973055237	-128.703715285115	-10.195320337885	34.2829650882638	-46.4076922928037	24.9903414765491	-22.0200386219911	-31.6687450897816	
2575666666.66675	-17.2515604664528	-129.422450502823	-10.2053944651253	31.9554486149918	-46.5596555540381	22.0674397931462	-22.1657372325375	-32.2089768422135	
2576000000.00008	-17.267700031285	-130.040521787012	-10.2091165678321	29.7070917220873	-46.5499248253138	20.0971104905968	-22.3737969382297	-32.9856897319762	
2576333333.33342	-17.2768484769902	-130.649816227565	-10.2120497210771	27.4512806563139	-46.8342935495683	17.0303000138023	-22.5319273909828	-33.5869576414737	
2576666666.66675	-17.2999867285734	-131.398566748689	-10.2143248754741	25.1878783283045	-46.563356384219	13.931584842007	-22.7369427424019	-34.5453414050742	
2577000000.00008	-17.3367937893823	-131.994702800001	-10.2187734038031	22.8980920023416	-46.7423450018654	13.5123711733794	-22.942369456759	-35.2884187451117	
2577333333.33342	-17.3688729468033	-132.681698272415	-10.225156059678	20.6498651827914	-46.4135774193862	10.3035977968764	-23.1484613348825	-36.1341601105252	
2577666666.66675	-17.358827683662	-133.195906467022	-10.2240152803349	18.4105160783632	-46.6527590729679	9.42335885435776	-23.3138691404624	-37.0308459182567	
2578000000.00008	-17.423432458177	-133.908026154124	-10.221777222207	16.1232588124694	-46.8503422956733	7.31373110314366	-23.570131351834	-38.2033627268185	
2578333333.33342	-17.4242082296519	-134.527742742056	-10.2185120513291	13.8935183791755	-46.6486039187057	5.34396536049404	-23.794072435394	-39.1633726725241	
2578666666.66675	-17.4963115366433	-135.239228335469	-10.2226503993065	11.6649061412634	-46.5137656555292	0.478117623420636	-24.0652146865838	-40.1478645115982	
2579000000.00009	-17.543255296655	-135.904330616772	-10.2262230034594	9.41907429554454	-46.8219453045892	-0.0572335097705148	-24.3452333564701	-41.307314707629	
2579333333.33342	-17.5775146075785	-136.438327539869	-10.2274431071469	7.19561389690559	-46.4911362121162	-3.31718328395788	-24.6083512838291	-42.4882140567366	
2579666666.66675	-17.6545890908982	-137.148545471834	-10.2246098440008	4.94562479807684	-46.8633886061735	-4.67530446611149	-24.9135631256732	-43.3862466483474	
2580000000.00009	-17.7059370726216	-137.86539969622	-10.2252174623816	2.69436983568909	-46.905804555711	-7.19749921149432	-25.1942058515842	-45.1232562236005	
2580333333.33342	-17.7622774242144	-138.553157387724	-10.2177420804559	0.462177574738326	-46.6435870016884	-9.22215823145457	-25.5355270275105	-46.6467253746559	
2580666666.66675	-17.8486296066304	-139.326510545963	-10.2168252786591	-1.77142520690746	-46.7841480575991	-12.9081603174193	-25.882512134989	-48.4600735175372	
2581000000.00009	-17.904519114389	-139.963305771415	-10.2134129143231	-4.02757333767277	-46.7067099120857	-15.2998558396226	-26.1770399671449	-50.0154725370703	
2581333333.33342	-17.991473424461	-140.519720726075	-10.2130110948414	-6.22777821627835	-46.8760429936492	-16.2619640898718	-26.5387156891664	-52.024367599989	
2581666666.66675	-18.0694110431122	-141.241844048694	-10.2067134430717	-8.47909941906635	-46.5841765542204	-18.0811662526306	-26.8780215190057	-54.0011216942458	
2582000000.00009	-18.1468106611269	-142.032220669148	-10.2098902462086	-10.6959198818972	-46.9114333897343	-20.4772558013746	-27.2685925580774	-56.2052012893209	
2582333333.33342	-18.229285533758	-142.712554602367	-10.2059982339969	-12.9152174356832	-46.6432503699915	-24.2211386018217	-27.6279499587817	-58.751611277053	
2582666666.66675	-18.3120269574374	-143.270817776789	-10.1981559476843	-15.1540902484864	-47.0589468816178	-25.4725813831312	-28.0281923318703	-61.0293634673566	
2583000000.00009	-18.3953632303826	-144.181338110656	-10.1906515212694	-17.4095253058177	-46.8548364386411	-29.9447871817725	-28.4418787322056	-63.8250535850217	
2583333333.33342	-18.510696153635	-144.578123416145	-10.1919369353362	-19.6305864521017	-46.8123112880155	-30.2501200424763	-28.8380097145999	-67.2267417853878	
2583666666.66675	-18.6246367617671	-145.275316486273	-10.1813827189652	-21.9069960668123	-46.73123778834	-31.8446717515561	-29.204277493816	-70.4235042665595	
2584000000.00009	-18.7130771167058	-146.174908062647	-10.1769810358423	-24.109123241677	-46.7663308053915	-34.9462833715164	-29.591699616944	-74.4427393181532	
2584333333.33342	-18.813798568344	-147.002440354894	-10.1809318459657	-26.3339391744351	-46.6001924153852	-36.305761135956	-29.93196714403	-78.0693766698745	
2584666666.66675	-18.93177008225	-147.523196144911	-10.1711385174296	-28.5985664622735	-46.8879309834998	-38.7731878235823	-30.2817855075129	-82.6670641257418	
2585000000.00009	-19.0328802757599	-148.414523271344	-10.1658589468326	-30.8516939010323	-46.7282622582883	-40.7395508653624	-30.6131960869213	-87.6569903426408	
2585333333.33342	-19.1361629920043	-149.223098176476	-10.1640945440136	-33.0783282934468	-46.7296972561188	-42.7660557615799	-30.8035582320645	-92.8124643489051	
2585666666.66676	-19.2540613400891	-150.15031367325	-10.1570486296349	-35.3255802029171	-46.7288739689616	-45.6802760150694	-31.0636630202636	-97.7666515162402	
2586000000.00009	-19.3952969099647	-150.726209637417	-10.1481523404501	-37.6137406788852	-46.9696673661376	-46.7821084308694	-31.2659323860643	-103.052295533599	
2586333333.33342	-19.5158994960594	-151.572942485336	-10.1422420356182	-39.8271638136655	-46.5970039293397	-50.1113199618821	-31.3327448360138	-109.055729146841	
2586666666.66676	-19.6423779008382	-152.464834503686	-10.1461227284274	-42.0976375534763	-46.768948629868	-52.512897334182	-31.2912312809378	-114.064133794669	
2587000000.00009	-19.747126023921	-153.316705287191	-10.1365983821648	-44.3663234578446	-46.5412844032784	-53.4242563919821	-31.2812340112442	-119.996889172701	
2587333333.33342	-19.8654003413151	-154.310257338557	-10.1290110755928	-46.6350795926779	-46.8124561520758	-58.1793057535642	-31.0791899399613	-125.175358015448	
2587666666.66676	-20.0446799376672	-155.048379933493	-10.1198729670048	-48.8658083185458	-46.8506354234365	-58.695977649585	-30.8860993517228	-130.807238326398	
2588000000.00009	-20.1537751708037	-155.953803644124	-10.1207223181728	-51.1316724865435	-46.5712217144695	-61.5854127386804	-30.7010246566604	-135.221184086386	
2588333333.33342	-20.2689046845402	-156.815675141701	-10.1165417102391	-53.4183720943303	-46.7214431224079	-62.9727023684864	-30.4349397077293	-139.790938950482	
2588666666.66676	-20.4155171059716	-157.940793324909	-10.1152954567993	-55.6979355190037	-46.7554005071512	-67.9244022203256	-30.1363850538403	-144.365494714934	
2589000000.00009	-20.5444608721437	-158.786242906356	-10.1107906989861	-57.978716520301	-46.6765684421338	-69.8762635712576	-29.8515864591145	-147.978562949681	
2589333333.33342	-20.6862633278988	-159.860192385757	-10.1055321105142	-60.2520387347504	-46.5610942254256	-70.9322455658039	-29.4953103321502	-151.775044119848	
2589666666.66676	-20.8088871354368	-160.843881502251	-10.1050272616808	-62.5426003424488	-46.458282596915	-71.8802680356124	-29.159295929127	-155.116337326166	
2590000000.00009	-20.9368713022859	-161.858751436865	-10.0975025730521	-64.8197182160925	-46.4382119435814	-75.967756792016	-28.7917813007399	-158.177171599937	
2590333333.33342	-21.0535320994634	-163.025319241536	-10.097558977734	-67.118727516831	-46.6976856326292	-75.7910061221521	-28.4843357280624	-161.359662002805	
2590666666.66676	-21.201838968638	-164.195020382173	-10.0920424238367	-69.4080566144135	-46.5461107753999	-80.5947025783317	-28.1510688683405	-163.899632074906	
2591000000.00009	-21.2988171996797	-165.285145478196	-10.0867752701456	-71.7141891104213	-46.5453575734404	-84.0451713204481	-27.8445318148832	-166.285456282993	
2591333333.33342	-21.4236078824583	-166.577236026751	-10.082396523758	-74.0017662018791	-46.8847498541487	-83.8825087593877	-27.5382555150966	-168.864567801568	
2591666666.66676	-21.5690435882932	-167.812807128446	-10.0808445439181	-76.3335505034228	-46.5126623285026	-87.8969002002374	-27.237364678629	-170.909354809151	
2592000000.00009	-21.6871365741571	-169.171011572243	-10.0840828889704	-78.6311672212543	-46.612756843621	-88.8767413673976	-26.9673760898946	-172.6130174814	
2592333333.33343	-21.7692829823446	-170.535470602362	-10.0814613768515	-80.949247951548	-46.3438443322756	-92.0116302868718	-26.6837968706061	-174.531857169159	
2592666666.66676	-21.9062580389831	-171.961522548815	-10.0752757162795	-83.2584836387033	-46.4410085237571	-95.0590574677313	-26.4649977936345	-176.545196185321	
2593000000.00009	-21.9793277601936	-173.499861960627	-10.0739718698504	-85.5900166413433	-46.7415185309767	-95.2094473178183	-26.2217117396818	-178.173594996779	
2593333333.33343	-22.0761411535975	-175.159973155571	-10.0728877971066	-87.8990385679978	-46.3725988038998	-96.7158969258135	-25.9840911391226	-179.82413338944	
2593666666.66676	-22.2058011157358	-176.704296986062	-10.0703506341052	-90.1714846605398	-46.492534100415	-100.596625995756	-25.7721119697182	178.797390062735	
2594000000.00009	-22.2824515617683	-178.322436858612	-10.0731074920694	-92.5036145989078	-46.62027950539	-103.368966346441	-25.5933392820505	177.265026444247	
2594333333.33343	-22.3347143002727	179.822939369	-10.0714685338213	-94.8905952308711	-46.1917086210294	-104.334953697319	-25.4089654176236	175.905057613661	
2594666666.66676	-22.4276221588836	178.219071591556	-10.0729121646261	-97.1792791551221	-46.4986606709755	-106.884183125848	-25.2371140615776	174.527635619282	
2595000000.00009	-22.4508502806149	176.375525640444	-10.0724147344661	-99.4698630504458	-46.5166826453147	-110.102399758253	-25.0980092398207	173.09916054664	
2595333333.33343	-22.5107222063792	174.334296873505	-10.0681650807707	-101.801497863534	-46.5426071801321	-111.147811514872	-24.9575218598227	171.824073527648	
2595666666.66676	-22.5201637917888	172.538236835927	-10.071152478383	-104.095157866849	-46.3592413749856	-113.931517825768	-24.8046726742014	170.666156050417	
2596000000.00009	-22.5498971613754	170.565155551151	-10.0810023888747	-106.439328474363	-46.515673854941	-117.529298976986	-24.6842034912328	169.392789960282	
2596333333.33343	-22.5922997063505	168.566392583493	-10.0698083366643	-108.789049769606	-46.3636884813007	-117.485922182889	-24.5975050916077	168.327433810031	
2596666666.66676	-22.5552257782655	166.307341710575	-10.0742003551456	-111.075532264868	-46.6479667669374	-120.263027389606	-24.5364900396505	167.183657430868	
2597000000.00009	-22.5477304365636	164.329218070629	-10.08512683787	-113.408854817492	-46.4112628468074	-122.547509046259	-24.4460701556321	165.981423250747	
2597333333.33343	-22.4985340845479	162.026205530234	-10.083238578707	-115.680489556288	-46.4410628283806	-123.831113589856	-24.3673877381145	164.917300453974	
2597666666.66676	-22.4597248267586	160.100451192752	-10.0877259208703	-118.035998340892	-46.2215720782492	-127.503814513266	-24.2907311881075	163.866005030593	
2598000000.00009	-22.4148609901628	157.96632027397	-10.0903180872016	-120.323262107099	-46.6024365511755	-130.697260118165	-24.2840251601275	162.926537448267	
2598333333.33343	-22.3466365795459	156.000187618587	-10.0924225993651	-122.665885923013	-46.524789135074	-133.499009306043	-24.2667800403344	161.63301164798	
2598666666.66676	-22.2418048568836	153.783187219669	-10.0986342858182	-125.025538539539	-46.376481113306	-135.82131212022	-24.2401630206035	160.836040028489	
2599000000.00009	-22.1728272624234	151.711814585309	-10.1168751258203	-127.280567820338	-46.3307944470868	-135.319735472029	-24.2790845703187	159.770874489119	
2599333333.33343	-22.0733070429174	149.671984910038	-10.1117999457354	-129.523550743104	-46.648015514741	-140.284769915315	-24.2868352703505	158.457358635302	
2599666666.66676	-21.965090536083	147.644430150483	-10.1278516719043	-131.866039488046	-46.7907165466551	-141.92059006027	-24.3130357406545	157.43520169007	
2600000000.0001	-21.833681783996	145.725624909639	-10.1304487070353	-134.225789664836	-46.6285538806019	-142.765915383255	-24.3416014683717	156.328930712943	
