!Agilent N9923A: A.05.34
!Date: Sunday, 13 March 2016 21:03:31
!Model: N9923A
!Serial: MY51491690
!GPS Latitude: 
!GPS Longitude: 
!GPS TimeStamp: 0001-01-01 00:00:00Z
!GPS Seconds Since Last Read: 0
!CHECKSUM:1884012047
!Correction: S11(ON U)S21(ON U)S12(ON U)S22(ON U)
!S2P File: Measurements:S11,S21,S12,S22:
# Hz S DB R 50
2400000000	-16.6391974189889	178.749346252228	-9.27768558970771	167.031505537042	-46.0770979313641	152.418146040565	-20.1179115200704	6.56526504554087	
2400333333.33333	-16.680762380786	177.657787775201	-9.2683773362404	164.718789741679	-46.3402101502924	151.480224474094	-20.2613544101973	6.80609540497953	
2400666666.66667	-16.7037843992093	176.752071706831	-9.2606075897238	162.414172810731	-46.39426181982	148.862435185446	-20.3709561676779	6.99931736147081	
2401000000	-16.7650495066047	175.765465518672	-9.25613634867944	160.084839809089	-45.9064809172929	146.600154344362	-20.504549806167	7.07141012231394	
2401333333.33333	-16.8379851743308	174.714377811674	-9.25595177274825	157.737155667391	-46.3082720832238	144.287212453604	-20.6631275961204	7.34813409210069	
2401666666.66667	-16.8842190275349	173.614022292287	-9.25205185216923	155.453467036683	-46.1522745345193	140.144754808361	-20.7912899699149	7.63467850028424	
2402000000	-16.9362527518515	172.663980180769	-9.23789862053066	153.186076326455	-46.2039278566565	140.457653222297	-20.9216151188868	7.78378662423915	
2402333333.33333	-16.966302408898	171.601629421588	-9.24265439722991	150.85486438671	-46.1044706756143	136.3268832376	-21.0696528657116	8.10140481858044	
2402666666.66667	-17.0231319298608	170.620480689578	-9.23626328201935	148.52385151052	-45.965316507665	134.961482107915	-21.2012388233817	8.36909686684387	
2403000000	-17.0861781297875	169.366323443608	-9.23718959470614	146.174999467944	-46.2838321258141	132.7651856698	-21.3692224823265	8.4957537823164	
2403333333.33333	-17.1562898328082	168.292531523692	-9.22799361400438	143.876484934301	-46.2305916927078	132.278215148826	-21.4967051537106	8.91244045263235	
2403666666.66667	-17.1996414714798	167.201732962004	-9.23221821200399	141.573116391052	-46.3740441415642	128.527547129003	-21.6520589928157	9.1261272270387	
2404000000	-17.2352438874831	166.01789431961	-9.2261691830411	139.248313746493	-46.1175844379215	127.492339903296	-21.8033555833885	9.38120014754893	
2404333333.33334	-17.2522774029523	164.948404180096	-9.22479283604381	136.924746920485	-46.0180440533432	124.634385848524	-21.9852918089547	9.55447444018381	
2404666666.66667	-17.3256916262779	163.727951571377	-9.2230817430438	134.603254622966	-46.0029012650863	122.098854303338	-22.1276973993022	9.9858806308152	
2405000000	-17.3952611584678	162.492762965713	-9.23063863733838	132.30007783158	-46.0700390633729	118.480085112274	-22.2888349498663	10.2827136955491	
2405333333.33334	-17.3999038319337	161.274306664146	-9.22248472107906	129.96527905505	-46.2640630149324	117.016218446477	-22.4629128014909	10.5306272592883	
2405666666.66667	-17.4420633876238	160.003003383158	-9.22652176890219	127.627171503054	-46.0451015350877	114.512408561655	-22.6117637369142	10.7970960265804	
2406000000	-17.4830191122662	158.798959500921	-9.22196601622026	125.354406200671	-46.0570652102255	112.624981047688	-22.7526666930362	11.3255670106746	
2406333333.33334	-17.4991709672749	157.452510380709	-9.22628057045376	123.00998158246	-46.0721002592179	110.899027159702	-22.9445700050546	11.7821934490392	
2406666666.66667	-17.5417889322498	156.166536462964	-9.21829249122253	120.724108432096	-46.2444695161157	108.446516692116	-23.1134266765509	12.1471567729166	
2407000000	-17.553749039617	154.914684904994	-9.2216458167588	118.390242923401	-46.074129338395	106.685527337353	-23.2920931028852	12.4705702423691	
2407333333.33334	-17.5772995601203	153.550432875799	-9.22502272358974	116.091046057384	-46.1470285561437	102.504215291553	-23.4272388300916	12.8445096737047	
2407666666.66667	-17.5952883466663	152.242912859556	-9.2302454872174	113.7896739211	-46.3276914924674	101.058915612583	-23.6061385571205	13.3128637089348	
2408000000	-17.6115136986834	150.949794752264	-9.23268208089414	111.479853086565	-46.3829774696096	98.2273690883852	-23.757063803159	13.7838357448693	
2408333333.33334	-17.6046253362879	149.599926658365	-9.23972847235795	109.165684826354	-46.1059356304125	96.1148727722498	-23.9143416476132	14.4224198397996	
2408666666.66667	-17.5925493091295	148.228159219405	-9.23939745208714	106.843945967929	-46.28890992511	93.6319762245559	-24.0796215665277	14.7379713587826	
2409000000	-17.5955733415944	146.867519796967	-9.25107038274608	104.545649549914	-46.0638627087219	90.7855712859562	-24.1756952858333	15.3692640907167	
2409333333.33334	-17.5943001776665	145.510662042053	-9.25582946958206	102.263424272748	-46.1297231058559	89.7736681347612	-24.3258151541866	16.1004527330208	
2409666666.66667	-17.5681772542928	144.172608181766	-9.26019649552112	99.9677738644573	-46.0512684933441	87.1844018541346	-24.4768009290888	16.3702280576185	
2410000000	-17.5510691298228	142.748241971723	-9.26945752564783	97.6681146180396	-46.2701860103257	84.0603667796123	-24.612025487106	16.8929544748007	
2410333333.33334	-17.5225278012992	141.387602257701	-9.27479541330008	95.3993796116288	-46.1977050369327	83.0734663545873	-24.7206060987086	17.473977686999	
2410666666.66667	-17.484628716032	140.069509955406	-9.28072948909116	93.0921054191771	-46.3570776909154	80.6141546932572	-24.8315922203072	17.9527313542386	
2411000000.00001	-17.4543863776069	138.671097167928	-9.29174740118077	90.8266146914202	-46.3164022194061	77.5876061328409	-24.9765107703523	18.4017114374204	
2411333333.33334	-17.4141386606863	137.439919904713	-9.29466988595839	88.5020861864183	-46.1116195010094	74.4475263337445	-25.0576659665918	19.0231352298193	
2411666666.66667	-17.3453622718408	136.028177907318	-9.30845186605865	86.2542788846761	-46.4798385014786	71.0428156354802	-25.1747420876126	19.5110812051697	
2412000000.00001	-17.3032287896746	134.667593063861	-9.3180597228675	84.0120129641976	-46.3733260682827	70.6827683907521	-25.237186553318	20.1339988664072	
2412333333.33334	-17.2453751884372	133.37691266373	-9.32913685183292	81.7257037815451	-46.12622910367	68.2415154687456	-25.253697542157	20.577147317189	
2412666666.66667	-17.1892990734772	132.13335549017	-9.33418960047892	79.4698245005378	-46.1066907962784	64.849964975757	-25.360478584305	21.1092348035059	
2413000000.00001	-17.1046883936948	130.801364250717	-9.35091294376624	77.1671364942681	-46.310818752661	64.5698205612469	-25.4190676651694	21.5738022005739	
2413333333.33334	-17.0409133772942	129.496882376973	-9.3571132948887	74.9274149241032	-46.3796000747379	61.4433523267692	-25.4450579026904	22.0251258496963	
2413666666.66667	-16.9557389415979	128.252809101786	-9.36430275914375	72.6358515694387	-46.32087572107	58.0823224132015	-25.455469388562	22.4579375049179	
2414000000.00001	-16.8965703253206	127.09811601555	-9.38099357383641	70.3990152270752	-46.4517518126666	56.8168145257095	-25.509239003155	22.9029428181523	
2414333333.33334	-16.8030402679273	125.853609482519	-9.39271304161432	68.1119015396703	-46.5295752722486	53.9821809344956	-25.482150130329	23.1005504325387	
2414666666.66667	-16.7120330239987	124.673812296993	-9.4018671251267	65.9120511243894	-46.56807960341	51.9354321525346	-25.4774402135755	23.2693051924338	
2415000000.00001	-16.6194769085411	123.578864595674	-9.4172485644032	63.6691725818082	-46.4140306232288	50.8732818154594	-25.4309157387897	23.5006352143082	
2415333333.33334	-16.5395875959836	122.35682097999	-9.42837989333648	61.4113174235386	-46.2644424051863	49.1531438566669	-25.4157465598145	23.7257349656554	
2415666666.66667	-16.4364358562999	121.255771316856	-9.4426160607387	59.1980192373057	-46.2206587424657	47.4165916795353	-25.3655950582065	23.937610428694	
2416000000.00001	-16.3371165478128	120.123700774474	-9.44959590003767	56.9484896802417	-46.3641717850775	44.7957491485823	-25.3388327900613	23.9136776761608	
2416333333.33334	-16.238358067114	119.079429574472	-9.46540209151989	54.6933019179341	-46.5863964858158	40.8694993024267	-25.2505826430629	23.8140174287018	
2416666666.66667	-16.1467673593701	117.964842282098	-9.48204505146953	52.4761485423316	-46.3121008523287	37.1872538933377	-25.1759255457392	23.895638483651	
2417000000.00001	-16.0426924398789	116.934875962146	-9.49353842084059	50.2386727080278	-46.3771762093467	36.4757402862466	-25.1223099253432	23.6321517031986	
2417333333.33334	-15.9419316954726	115.990317478795	-9.50678964123639	48.0116339702745	-46.3395977614773	33.393294098826	-25.0405787084481	23.6071607508676	
2417666666.66668	-15.8464791301819	115.022452951845	-9.51638557580892	45.7999126988486	-46.2804494099134	31.5388258810779	-24.9036137811754	23.314164160651	
2418000000.00001	-15.7415670745782	114.096440962767	-9.5300644571235	43.5125643363315	-46.4226386018412	29.7568636054945	-24.8168465452497	23.1476383810944	
2418333333.33334	-15.6432789442714	113.051376080586	-9.54222340105384	41.3405791281169	-46.3643869836246	27.8149313555989	-24.6882811214256	22.8059530551893	
2418666666.66668	-15.5443708091421	112.135911691227	-9.55159505285213	39.1245608619737	-46.55593458925	25.7862452723212	-24.5538873134077	22.5151774491887	
2419000000.00001	-15.4283855855734	111.22578806008	-9.56397880893479	36.8525555573999	-46.3121517992288	23.4679449106728	-24.4547052506516	22.0389125235956	
2419333333.33334	-15.3391495601415	110.369459949381	-9.57146368961942	34.6263769908451	-46.4362066576096	20.4149629891353	-24.2848478960594	21.5410715743583	
2419666666.66668	-15.2378226981251	109.505778203641	-9.584507176341	32.3855127881248	-46.5886198683998	17.4982124466358	-24.1909454694198	21.0771728913999	
2420000000.00001	-15.1525345159231	108.665147326126	-9.59306200588299	30.1634166359365	-46.2766044449516	13.6892513986057	-24.0111845818271	20.4658395819237	
2420333333.33334	-15.0388512254009	107.830668875656	-9.60516708627755	27.9385713261342	-46.3171482635764	13.4354538423214	-23.8735179181236	19.8727748905497	
2420666666.66668	-14.9543887490124	107.070503359519	-9.61484695227993	25.708498859097	-46.2507660362474	12.2439594017071	-23.7227127135633	19.2809258962474	
2421000000.00001	-14.8586978762906	106.300003426435	-9.62250705874573	23.4754156166616	-46.5005915134214	8.74657664998048	-23.562807965221	18.4855295877355	
2421333333.33334	-14.7575430538147	105.563121475356	-9.63672688828925	21.2726407045239	-46.2491307746397	7.07965785097632	-23.3830015076426	17.8257629656719	
2421666666.66668	-14.6805618057971	104.764263456296	-9.64047684382369	18.991569635832	-46.3591437136353	4.35969110107856	-23.2052125910844	17.1055685899765	
2422000000.00001	-14.5913315999356	104.007772702178	-9.65336322261068	16.7507250977741	-46.4322106750542	1.70049667515889	-23.0633181325388	16.2986878831111	
2422333333.33334	-14.497501507794	103.301225867765	-9.6600677203162	14.5064328414733	-46.4321310347311	-0.141257988497827	-22.8667343492961	15.475730346663	
2422666666.66668	-14.4227517654395	102.658345280373	-9.66527506805577	12.2764071689705	-46.6267471679064	-3.07692901608445	-22.6988608743657	14.7511423291471	
2423000000.00001	-14.3333002545253	101.938536417584	-9.67413458714061	10.0416776347436	-46.3123934885426	-4.06694302170375	-22.5165567415286	14.0003336527524	
2423333333.33334	-14.2614367161906	101.292397252932	-9.68352365879324	7.7923699071313	-46.37339984676	-7.38313447600873	-22.3659230364724	13.1742818424737	
2423666666.66668	-14.1910188793265	100.64866090047	-9.68492548062924	5.54652300283441	-46.430184228974	-8.54805930324841	-22.1639766818737	12.3849347626629	
2424000000.00001	-14.1097172175227	100.118215991054	-9.69492807644299	3.27280425874081	-46.6474053116714	-11.3597417989969	-21.9703503186038	11.4248727685104	
2424333333.33334	-14.0445427276262	99.4004417242943	-9.7044761187993	1.03289152505943	-46.4509334330382	-14.4499337736277	-21.8091453430591	10.6817346835438	
2424666666.66668	-13.9845098307642	98.8365936684732	-9.71041946081908	-1.23054582970798	-46.2897159177086	-15.8880143512307	-21.621119047571	9.83073400978469	
2425000000.00001	-13.9113294606282	98.320399046058	-9.7177609913164	-3.47873974443168	-46.2797821111442	-18.3206140672936	-21.4424970962423	8.91057907040854	
2425333333.33335	-13.852851093448	97.7153328770871	-9.71945885800243	-5.74293056374152	-46.4714010880322	-22.0809671155047	-21.2632439627121	8.14431508375899	
2425666666.66668	-13.7999492019556	97.1900668553392	-9.72183024111541	-8.02125459027499	-46.3168028685177	-22.0683004812256	-21.0835091272078	7.20616780608804	
2426000000.00001	-13.7478729471622	96.6698446332711	-9.72847906507872	-10.2584808529242	-46.6605903415468	-25.3244016680469	-20.8996521687686	6.48370301911323	
2426333333.33335	-13.6929482739442	96.1540661684699	-9.73989281522375	-12.5641842469585	-46.3712400340138	-26.0346423022801	-20.7414774196573	5.5492629250431	
2426666666.66668	-13.6488677385314	95.7141781587736	-9.74192421259244	-14.8299733482516	-46.6416811178802	-29.6809863496761	-20.5654121566737	4.69523370526258	
2427000000.00001	-13.5943978915693	95.3111112477535	-9.74930665991168	-17.0820767314939	-46.4508432225679	-30.0293279960062	-20.3859741302248	3.77586652524701	
2427333333.33335	-13.554418058883	94.8273358293255	-9.7490539246077	-19.3656157960254	-46.5660213489621	-32.7248107938886	-20.2264182427386	2.99939520053845	
2427666666.66668	-13.5105742962623	94.4312464832543	-9.75838071906744	-21.6047258266773	-46.6892409687897	-34.9547875448728	-20.0614985526948	2.22569751430637	
2428000000.00001	-13.4696211859411	93.9881094927433	-9.76526465822577	-23.8662392835016	-46.6125927440032	-35.3662992731381	-19.886459654434	1.36873156878578	
2428333333.33335	-13.4361762536153	93.5791259879551	-9.76868131851043	-26.1684904554664	-46.577794395283	-39.0624302943317	-19.7369632371434	0.597666613460197	
2428666666.66668	-13.3997404412841	93.2269927740189	-9.77890903028202	-28.4141463238939	-46.6782082602129	-40.9855095332369	-19.5824416759508	-0.236238068675116	
2429000000.00001	-13.3730226992585	92.8460269264929	-9.77590778638543	-30.6374022610542	-46.3819382416023	-44.2556732211369	-19.4331726479574	-1.02451878929686	
2429333333.33335	-13.3346669492862	92.550933301285	-9.78141072790017	-32.9078282159195	-46.5176000321696	-47.9432238852114	-19.2676308424798	-1.65390517690154	
2429666666.66668	-13.3157477913999	92.2462906962835	-9.79314283947559	-35.1695941952251	-46.808161011132	-48.0509270099899	-19.1228041326926	-2.64222226016048	
2430000000.00001	-13.2828779206713	91.8894433411412	-9.79386802837894	-37.4343160685219	-46.7149640433939	-50.8895998583923	-18.9871079005484	-3.30448681165932	
2430333333.33335	-13.2684092329303	91.5861790943819	-9.7992435104213	-39.697254659823	-46.768683566473	-54.7904370287685	-18.836624899693	-4.11908929532789	
2430666666.66668	-13.2323613156598	91.2590429638412	-9.8041303429757	-41.953997415782	-46.6123724348169	-56.1728930548611	-18.7080954032937	-4.8081415019956	
2431000000.00001	-13.2256952359197	91.0352978852275	-9.80594845855959	-44.1743493081516	-46.7057012584923	-58.239922612973	-18.5748653064048	-5.52074077788365	
2431333333.33335	-13.1964241269976	90.7019783437511	-9.81877924260039	-46.4416533708072	-46.6815085491439	-60.1476992881138	-18.4538971174852	-6.15327739772609	
2431666666.66668	-13.1853205037247	90.5783553556647	-9.81578578046632	-48.635188264261	-46.6992219035533	-61.3247316637574	-18.3281274642957	-6.9892135667523	
2432000000.00002	-13.1674389189007	90.221082428602	-9.81994982681316	-50.878132731191	-46.8158870956899	-61.9133585529059	-18.2080620735307	-7.54762551963615	
2432333333.33335	-13.158550125384	90.0102548218047	-9.8241836347844	-53.1343277558795	-46.6649943294376	-66.0190374724625	-18.091591166807	-8.25786884738145	
2432666666.66668	-13.1451333521585	89.7896398066922	-9.82510546902003	-55.3041864938227	-46.5257892485864	-69.3870677020282	-17.9781030975256	-8.92164964028546	
2433000000.00002	-13.1224028598851	89.5516441585334	-9.83118109340538	-57.5813680273969	-46.513772820703	-71.8301389603771	-17.8689671286527	-9.52998329732213	
2433333333.33335	-13.1157716682581	89.2989473556415	-9.83280571845017	-59.7984782546523	-46.7027558398151	-73.1629837349997	-17.7703487862402	-10.2018056179593	
2433666666.66668	-13.1048415807307	89.0783185546998	-9.83510895695003	-62.0373305067267	-46.9317860459862	-73.8014671608048	-17.6895045594036	-10.8663071880687	
2434000000.00002	-13.0937498622967	88.8837168620429	-9.83604567873098	-64.2513139046095	-46.686946305656	-77.5591447181402	-17.6000438676986	-11.49144554822	
2434333333.33335	-13.0881734615882	88.7252964179079	-9.83836726062848	-66.4620007709308	-46.5824299998248	-79.0823221725067	-17.5130681178704	-12.017293450603	
2434666666.66668	-13.0766876479347	88.4516079699971	-9.83993384009759	-68.7293709607697	-46.6881345003509	-82.499327795108	-17.4413275949825	-12.6550281530632	
2435000000.00002	-13.0777549299422	88.3104194702753	-9.83573468748477	-70.9311809886242	-46.5954575603549	-82.982736681788	-17.3597178540841	-13.1888681516559	
2435333333.33335	-13.072530947691	88.0339938182198	-9.83934467675635	-73.1455751076157	-46.5444947261953	-87.0617261019656	-17.2889395941724	-13.806096929138	
2435666666.66668	-13.0553279154023	87.7785105864255	-9.83904906208876	-75.3584249788727	-46.7715184181781	-88.0276102014175	-17.2209557822316	-14.4268305003159	
2436000000.00002	-13.0604019288459	87.645420277034	-9.833181762668	-77.5651428925039	-46.7370015764289	-90.4243546411428	-17.1698676281816	-14.9116017533108	
2436333333.33335	-13.064403277089	87.4132225189998	-9.83454636037017	-79.8017665117828	-46.6540750140466	-91.162847872449	-17.1124131214467	-15.4649249056643	
2436666666.66668	-13.0655259084666	87.1559769857372	-9.82583609494825	-82.0001917401396	-46.7659309167792	-94.4141723910638	-17.0535861571639	-16.026505288717	
2437000000.00002	-13.0533420054276	86.9066600247957	-9.82342943960175	-84.2305433714818	-46.580942954081	-98.8455082119414	-17.0225686903556	-16.4398684192861	
2437333333.33335	-13.0481752732169	86.6812951979802	-9.82362243979395	-86.4254439983259	-46.8920563413781	-100.121423680835	-16.9721631015254	-17.0182660919244	
2437666666.66668	-13.0471345701963	86.3741149699589	-9.82270353278741	-88.6418837078405	-46.7408437271923	-100.654730134366	-16.9524912660028	-17.3740227481125	
2438000000.00002	-13.0606371815809	86.241053726397	-9.81642793665621	-90.8791315770378	-46.9249328522044	-103.51797549829	-16.9079196203559	-17.8849816870354	
2438333333.33335	-13.0429466664409	85.9283285595305	-9.81324165864601	-93.1083042544754	-46.8515132231968	-106.699472135664	-16.8980310403144	-18.2381115666218	
2438666666.66669	-13.0587721242416	85.77663453497	-9.81164451188492	-95.3333547515603	-46.8559781424571	-106.858575712508	-16.8695436065833	-18.7314628400187	
2439000000.00002	-13.0415228330041	85.5236212052453	-9.80855612476444	-97.5297961050314	-46.8085951784622	-110.691520256598	-16.8661975849406	-19.1180731282521	
2439333333.33335	-13.0604553531307	85.2081560813534	-9.79932536302275	-99.7667921317493	-46.9918795550717	-113.860386249519	-16.8617201287477	-19.5570923536804	
2439666666.66669	-13.0681409809334	85.0170830349512	-9.79485837466939	-101.9531764292	-46.8082005915811	-114.682434423365	-16.8507784422078	-19.8716491949736	
2440000000.00002	-13.0552604903753	84.7387370300429	-9.78957575552323	-104.184876932795	-47.0478120256754	-118.145743722761	-16.8693404379381	-20.4302486102127	
2440333333.33335	-13.0808937875159	84.4599188301747	-9.78369215636885	-106.388383168305	-46.7460559066714	-119.162013722404	-16.873473512678	-20.7776794857819	
2440666666.66669	-13.084149346634	84.1954163834643	-9.77676753849582	-108.633124169727	-46.894718422945	-121.854227223351	-16.8835429093554	-20.9838597089038	
2441000000.00002	-13.1020451383659	83.8767134666232	-9.77220997993333	-110.835491535648	-46.6311661834039	-124.941253489784	-16.8968698599054	-21.4056142261344	
2441333333.33335	-13.0894891601881	83.552767247332	-9.76522504534215	-113.099882509181	-46.9517155042576	-125.114616164896	-16.9324075591302	-21.4742382773972	
2441666666.66669	-13.1079056478487	83.1557812035377	-9.75712315788895	-115.308755631186	-46.6304605588461	-127.632170867269	-16.9402814254164	-21.8804378614868	
2442000000.00002	-13.1339443775792	82.9517611451706	-9.74542231729902	-117.524330610265	-46.5562573637834	-131.535582670362	-17.0093488260268	-22.1875865548229	
2442333333.33335	-13.1475981517171	82.6043030210028	-9.74613355230309	-119.763299239912	-46.9095793885899	-131.691730279257	-17.0532664695992	-22.4185373461817	
2442666666.66669	-13.1506734842575	82.3036999174098	-9.732223346592	-122.00902988578	-47.1871659313605	-135.24022390436	-17.1059761235987	-22.5904910480465	
2443000000.00002	-13.1748551727045	81.8935058073876	-9.72814224896507	-124.242766518601	-46.883079692786	-137.625149447157	-17.1414551008243	-22.7579884621936	
2443333333.33335	-13.176826711587	81.5856822723512	-9.72467555796696	-126.48338064253	-46.7390139696706	-137.373547982292	-17.1973804576127	-22.8490214473543	
2443666666.66669	-13.2114710469196	81.3716723313428	-9.70853985728712	-128.702652378949	-46.5997932246639	-143.40511442495	-17.2623497839585	-23.1292436536737	
2444000000.00002	-13.2332551575505	80.8476852541056	-9.70643788473721	-130.971280549838	-46.6805682004029	-145.059741460816	-17.3350196817486	-23.3123962848184	
2444333333.33335	-13.2430029821119	80.3998902415811	-9.69785214840599	-133.22776941991	-46.4946733986711	-146.623188035248	-17.3753142042571	-23.333517922181	
2444666666.66669	-13.2746511825272	80.1019403701196	-9.69836244712677	-135.476190651928	-46.6265630448535	-148.802727494396	-17.4731543619359	-23.4792205506047	
2445000000.00002	-13.3010477667565	79.659016792412	-9.678738829024	-137.690815944519	-46.8090317431763	-150.175762456461	-17.5565166767129	-23.5277535338213	
2445333333.33335	-13.3045239268348	79.3228284814797	-9.67311697669035	-139.920261381232	-46.3712342509454	-153.010835021298	-17.6615431314497	-23.4886359413272	
2445666666.66669	-13.3520923398442	78.8737203764889	-9.66654589727017	-142.21479149356	-46.5978833143886	-155.39484520798	-17.7387104407098	-23.5717533964753	
2446000000.00002	-13.3721346898683	78.3940259351505	-9.66402709846559	-144.500065782442	-46.6117430889839	-158.297742336929	-17.8488619065582	-23.4847870081181	
2446333333.33336	-13.3984937000715	78.0669866720033	-9.6538893898812	-146.755462711457	-46.7301979276431	-158.790269706267	-17.940017819856	-23.4448169358285	
2446666666.66669	-13.4380208011323	77.5220316304435	-9.64440602773364	-148.985695175917	-46.4540955681892	-162.920919781618	-18.0452482995093	-23.3306394202476	
2447000000.00002	-13.4579729708142	76.9971128965405	-9.63740584856361	-151.294505640947	-46.7080623112454	-163.744395504247	-18.1590659235728	-23.1697437840797	
2447333333.33336	-13.5019319211964	76.5994158821601	-9.63681605573125	-153.539899326552	-46.8407487626554	-165.821605468659	-18.2588928964383	-23.1059947975099	
2447666666.66669	-13.5034190552677	76.1121071095812	-9.62451474968977	-155.816586821323	-46.6900343855613	-167.577320224866	-18.4108202912748	-22.8616603839418	
2448000000.00002	-13.5475592378063	75.6212478293307	-9.61983518847376	-158.094065181955	-46.5014398541786	-170.940812825307	-18.5225547347783	-22.7015880921514	
2448333333.33336	-13.5742583021968	75.1035838466371	-9.60964725365066	-160.299888195471	-46.703811582457	-171.748375749653	-18.6527888467055	-22.4420961393644	
2448666666.66669	-13.589143194221	74.6705109621321	-9.60417695022141	-162.617922050862	-46.6769499124535	-176.276917026763	-18.7804784410035	-22.1421837081143	
2449000000.00002	-13.6254298007958	74.0852775712875	-9.59991856155938	-164.893756266028	-46.682896543806	-177.472289557014	-18.9122709054441	-21.7090424464915	
2449333333.33336	-13.6644507999714	73.5722532767503	-9.5936756852817	-167.14955744733	-46.5578015700055	-178.734573114898	-19.0529004955965	-21.3213498596635	
2449666666.66669	-13.6894898617855	73.1098420214323	-9.59056212334109	-169.423439635728	-46.4453662207735	179.651085504114	-19.2034730895194	-20.915286919685	
2450000000.00002	-13.7156198620669	72.4231960177512	-9.58707154454386	-171.736045723897	-46.3968290940743	174.222349652386	-19.3135843513502	-20.4027582844396	
2450333333.33336	-13.7578061182197	71.7993699812837	-9.58714255015077	-173.99504944684	-46.4989615906869	172.911546898629	-19.4721713401	-20.0175741091551	
2450666666.66669	-13.7924195525299	71.2296373841392	-9.58241938714745	-176.262802386066	-46.615198817553	170.539687673453	-19.6026049410768	-19.4375869748156	
2451000000.00002	-13.8116477995589	70.6838795748054	-9.58077807167204	-178.520434506867	-46.5244522582877	168.890506283475	-19.7701229935599	-18.7456865457038	
2451333333.33336	-13.8427870194534	70.0961214602554	-9.57301747641062	179.191529846692	-46.5685459177344	166.160343078471	-19.9263374951066	-18.290003476381	
2451666666.66669	-13.862961325233	69.5340689314428	-9.57051995557186	176.923540362264	-46.5882280784086	164.95227538151	-20.055817213214	-17.4345015784051	
2452000000.00002	-13.8944905520966	68.8543986984247	-9.56983345241418	174.66427391042	-46.5228008279932	161.304971502426	-20.2063229246529	-16.6644610199408	
2452333333.33336	-13.9133680926145	68.2247193087226	-9.56813647043054	172.402303126632	-46.5887686214816	159.930193533599	-20.3517146377431	-15.7557250346858	
2452666666.66669	-13.9263832378338	67.6828451855424	-9.56394557930231	170.109055011197	-46.3557034952406	156.609149607124	-20.4938372227299	-15.153841316958	
2453000000.00003	-13.9632660405017	67.0234046652382	-9.56820211431407	167.88843669213	-46.3730401083479	156.673163904074	-20.6460934345785	-14.3455008238702	
2453333333.33336	-13.9724121749066	66.4228369286725	-9.56421171104502	165.623617780728	-46.1736411894768	154.356833508752	-20.7772799399303	-13.3616701297296	
2453666666.66669	-14.0091130067895	65.7613113565021	-9.56951839866374	163.379576217001	-46.6498136118355	151.467513497976	-20.9216280731603	-12.4836343030193	
2454000000.00003	-14.0064265692243	65.1620131447112	-9.56315243210947	161.093686633827	-46.5721896699397	149.892318132091	-21.0401709008899	-11.4643152915932	
2454333333.33336	-14.0231739154143	64.4781859861608	-9.5579050150689	158.8648763068	-46.3899312708547	146.054720493549	-21.158551048907	-10.4960163662286	
2454666666.66669	-14.0438181718254	63.9626187761699	-9.56505783276283	156.66440306891	-46.3555787988001	142.684477013466	-21.3097306669165	-9.45715951718839	
2455000000.00003	-14.0522611612089	63.2700458930739	-9.56290279701896	154.414143705925	-46.2531607413607	143.611160412714	-21.4132967946665	-8.40292428917962	
2455333333.33336	-14.0597815039687	62.6109905666319	-9.56601177968644	152.167854714895	-46.6241383120037	140.232437839824	-21.5146889773299	-7.17449870100653	
2455666666.66669	-14.0685513305291	62.0291835568363	-9.56426957508049	149.928564073208	-46.3040540134487	135.865052482671	-21.655209872216	-6.30232658576871	
2456000000.00003	-14.0741966326574	61.3701546651807	-9.5636287417667	147.680512462664	-46.2597664502394	135.909455292414	-21.7518361100545	-4.96213592532276	
2456333333.33336	-14.0696961670377	60.7111177212489	-9.56400167338421	145.429098001425	-46.2420837544143	133.514925484008	-21.8374330394398	-3.85911280008427	
2456666666.66669	-14.0720629033664	60.1088375637985	-9.56667915392494	143.231653185224	-46.4036897863068	130.12376929866	-21.9470163607315	-2.66146061103852	
2457000000.00003	-14.0647484544857	59.4867318399386	-9.56535508964317	140.988528808214	-46.4501620648361	130.5497612541	-22.0303569302936	-1.554334093219	
2457333333.33336	-14.0551326838535	58.9069690361042	-9.56806765592114	138.775221967813	-46.2520542297817	127.068830877901	-22.1072963322272	-0.454936064427502	
2457666666.66669	-14.048128638144	58.2940982763285	-9.5645393673986	136.564965577459	-46.2953586876336	124.282632746732	-22.1461678348586	0.661589131367944	
2458000000.00003	-14.0316670786196	57.5695109629061	-9.57068948011346	134.298367806264	-46.3846573736841	121.19192895755	-22.2185644726647	1.92926733802565	
2458333333.33336	-14.0197976056464	56.9726885190596	-9.57077076689665	132.063360707017	-46.2496990251943	119.002476322867	-22.2988688938834	3.35970691336087	
2458666666.66669	-13.9957249432781	56.4214064767586	-9.57908144069333	129.758094063182	-46.1895731346931	118.028628940461	-22.3307474659213	4.15893449310304	
2459000000.00003	-13.9938973965295	55.8636537621292	-9.56784300296331	127.59853712197	-46.2876564050873	114.887779405347	-22.3682846976413	5.24667703790818	
2459333333.33336	-13.9708016542588	55.2101460507418	-9.56939368402941	125.399785449144	-46.3160273005941	113.61979600051	-22.4250660418854	6.45797744061932	
2459666666.6667	-13.9465085875322	54.5955062033493	-9.57243967867334	123.122569881561	-46.3356712778885	110.344374012962	-22.4518962144711	7.38598318047774	
2460000000.00003	-13.9192034439388	54.0094455899812	-9.57609833270746	120.885039284301	-46.3822345847339	109.605074620218	-22.5032622738401	8.29305386402875	
2460333333.33336	-13.8843410034665	53.4021058017135	-9.57175325767001	118.605693512795	-46.2050646955817	106.615793104721	-22.5255850133277	9.45982206367515	
2460666666.6667	-13.8639379797904	52.756062563009	-9.57928130016338	116.456516594923	-46.3271140902611	102.827892245445	-22.5236978860083	10.1801020719183	
2461000000.00003	-13.837984947777	52.1839534592875	-9.57420739529552	114.210555764717	-46.2617004574874	101.649497538685	-22.5685063231805	11.0798042190735	
2461333333.33336	-13.791105866649	51.6311498672513	-9.57248211703962	111.931370942978	-46.3204127455638	100.24590811195	-22.5553714008772	12.018114196574	
2461666666.6667	-13.7595716152475	50.9758149442715	-9.57773051240844	109.696504088559	-46.3082594320857	96.6534660546656	-22.5726809364992	12.8445727392842	
2462000000.00003	-13.7250567428247	50.4765007004198	-9.5724930835659	107.439385569309	-46.1514540596698	93.5173836889542	-22.5982246747079	13.3306746184065	
2462333333.33336	-13.6996228377393	49.9073693325661	-9.57574406416111	105.191028290207	-46.499062720056	93.5837785895167	-22.5969406801686	14.1574759344048	
2462666666.6667	-13.6371192337621	49.3410013294909	-9.57577450023056	102.893969471999	-46.2392771508798	90.2018271909161	-22.5888613467428	14.826949547246	
2463000000.00003	-13.6034808013941	48.7893461801451	-9.57666402280447	100.659044511058	-46.1769408473243	89.3699547694225	-22.5917671654203	15.3442822865086	
2463333333.33336	-13.5473498410373	48.2749090001477	-9.58111038048733	98.3921077440654	-46.3184328587662	86.4796182786811	-22.6152060211117	15.9238157844506	
2463666666.6667	-13.5078146787762	47.7236649619339	-9.57408912504676	96.1437212176146	-46.3806172933046	82.5460403171202	-22.5863174729272	16.2236261269378	
2464000000.00003	-13.4648363053146	47.2500679807525	-9.58001148907002	93.8573069324289	-46.2246483066122	82.41239668997	-22.6190418375782	16.7835452834913	
2464333333.33336	-13.4252752196249	46.7147638291466	-9.58244310760872	91.6132347931294	-46.3428460217675	79.942555162558	-22.6128425175437	17.238733119773	
2464666666.6667	-13.3702330489572	46.1603199814306	-9.58218013297399	89.3345760512021	-46.3135618728124	75.779041888708	-22.6286174443547	17.6522967041785	
2465000000.00003	-13.3094082244891	45.6729888960236	-9.58541796210327	87.0728018589868	-46.1829799072198	76.6126031675595	-22.608139250259	17.7736096509451	
2465333333.33336	-13.2672818553687	45.2349276711282	-9.58578314229215	84.7727003260225	-46.2436520616774	72.3822309645101	-22.6168389241995	18.1299109593395	
2465666666.6667	-13.2096108220182	44.7248936893537	-9.58796815716564	82.5335745177605	-46.3910812329109	69.3983501412643	-22.621237270672	18.2862131799854	
2466000000.00003	-13.1612209405975	44.2496761641116	-9.58540043835527	80.2404912516126	-46.5174867577686	67.0549506476869	-22.6550471376261	18.3309828052683	
2466333333.33336	-13.1019494147917	43.8258414694258	-9.58813181670607	77.9783779818111	-46.4995232756909	65.0197296995527	-22.649321454338	18.4719807127754	
2466666666.6667	-13.0505809858013	43.4308652892666	-9.58720521877468	75.7174100030635	-46.1524455366476	61.7987294363829	-22.6585527265766	18.4530999473202	
2467000000.00003	-12.9926048495478	42.9030213832581	-9.58897531250119	73.4258969363956	-46.2120768995637	59.6429082330155	-22.6775920994691	18.3247487178923	
2467333333.33337	-12.9311500380519	42.5093581990394	-9.59201876512871	71.1640196211574	-46.2663476147545	58.0393558160305	-22.6522647242148	18.4186402002233	
2467666666.6667	-12.874179640425	42.1339093874103	-9.58864758817235	68.8893596151779	-46.2689360941264	56.2762434676867	-22.6827785422906	18.471283208852	
2468000000.00003	-12.8187879064134	41.7293351511611	-9.59618801883176	66.5757003688866	-46.1132330452678	52.9813801063437	-22.7243561248084	18.3077052028238	
2468333333.33337	-12.7584987022279	41.3519885892227	-9.59110950428112	64.2733082102594	-46.1445682133353	50.4925028758545	-22.7128801340972	18.0751279077909	
2468666666.6667	-12.7068550998837	40.9533572712319	-9.59599436082925	61.9758898172621	-46.4798208874305	48.0780353639898	-22.7660992821983	17.8791132397692	
2469000000.00003	-12.6325859404023	40.5689265831929	-9.59530637042439	59.7210455112529	-46.4163281301465	47.4350538459373	-22.7542851526967	17.7022921735709	
2469333333.33337	-12.5742277225651	40.2256524244208	-9.60192130842112	57.390227163237	-46.1130836511523	45.4270771431354	-22.766967441504	17.2928324873155	
2469666666.6667	-12.5176462302699	39.8546402292271	-9.60234511976762	55.1152735881638	-46.1144900306605	41.5515400966903	-22.8161101856625	17.0325073651504	
2470000000.00003	-12.4501013189737	39.5246433092963	-9.59844790297091	52.7669615599781	-46.2739782570936	38.8200299766629	-22.7931653050152	16.5874091476781	
2470333333.33337	-12.3925960658085	39.1340112421024	-9.60516212030998	50.457579753904	-46.3976766746335	38.9522872604576	-22.8645165729237	16.2858659656298	
2470666666.6667	-12.3256307633607	38.8130380625601	-9.60721679744076	48.1929297385449	-46.4047908550318	35.1391841300526	-22.8769374026346	15.8075025982508	
2471000000.00003	-12.2637610327948	38.5388000304923	-9.60435403755601	45.8455786593554	-46.2408282493591	31.5867329510772	-22.8706907822261	15.3561498106807	
2471333333.33337	-12.201117599032	38.2451355378026	-9.60489310074898	43.555310648534	-46.4361134370572	29.1220618541975	-22.9072128298008	14.7872569447706	
2471666666.6667	-12.1351026958856	37.9140732516561	-9.61157604003861	41.1886706089809	-46.3304508830796	27.447410594178	-22.90186193947	14.3251314658102	
2472000000.00003	-12.0782607741942	37.5911612637922	-9.61474279414566	38.9039654981356	-46.4252997224967	24.6817566145528	-22.9627209905558	13.6979042098958	
2472333333.33337	-12.0073094955583	37.3127700006776	-9.61547986085272	36.5649848149052	-46.3045657549193	23.3407946278017	-22.9538070288882	13.0036862092332	
2472666666.6667	-11.9526861564366	37.0437191292739	-9.61840103473084	34.2247995971139	-46.3528953474565	19.4685067766108	-22.9590269519452	12.4332262580786	
2473000000.00003	-11.8831232726032	36.7156094614942	-9.62600510573026	31.8560008625809	-46.4648623715916	17.3109405985142	-22.9915113256414	11.5964720528308	
2473333333.33337	-11.8204460005052	36.4280593630963	-9.63240409624888	29.5267089037575	-46.0944142000284	15.5564369869979	-23.0163373108991	11.0479732283313	
2473666666.6667	-11.7630691107351	36.0924057925395	-9.63302258829908	27.1634165913513	-45.9526386338879	15.128359139188	-23.0065618269728	10.1945225558885	
2474000000.00004	-11.7031354820367	35.8273650857475	-9.63483118814073	24.8029148078509	-46.0371650913609	10.9846385418344	-23.0192294019889	9.28968771738773	
2474333333.33337	-11.6429349938314	35.541140064925	-9.63728595386849	22.4885419202483	-46.2962889198461	9.36662933343708	-23.0216776787519	8.64967389487055	
2474666666.6667	-11.5870772443596	35.2265381841367	-9.643294201059	20.1471217271317	-46.099361139062	7.19191099630125	-23.0475596509111	7.83424618105057	
2475000000.00004	-11.5179984446173	34.9588141254776	-9.64576935121806	17.7673394792513	-46.1795662352247	5.66948427113509	-23.0461082605188	7.04080972231902	
2475333333.33337	-11.4701023802846	34.6206860314063	-9.65793238970351	15.4005888187976	-45.9882644470713	0.39651843910381	-23.0267467596701	6.17026704953686	
2475666666.6667	-11.4077553832312	34.3640696584221	-9.65468708725109	13.0660653609003	-46.5425782092885	-0.595831300204676	-23.0396131974515	5.43064902121106	
2476000000.00004	-11.3656084019617	34.0122061405202	-9.6717671152794	10.697237555171	-46.2542169757612	-1.2273187205309	-23.0028631627155	4.29815330413614	
2476333333.33337	-11.3038780874188	33.7617011361471	-9.67397039678873	8.33716826466978	-46.229738466654	-4.1411127791647	-22.9983643747262	3.56103642211353	
2476666666.6667	-11.2606394947074	33.3756011758183	-9.67884570562301	5.97449576236494	-46.2052542925156	-7.49552845639018	-22.9723585190682	2.54075775220742	
2477000000.00004	-11.2038576878248	33.07938069491	-9.68732011678037	3.63063068510013	-46.3571747777804	-8.59885265512383	-22.9586235370033	1.6282152983717	
2477333333.33337	-11.1585968587919	32.7618869772265	-9.68909391955172	1.26437345514088	-46.3416931569127	-10.4852026040556	-22.9333277926316	0.822029400196055	
2477666666.6667	-11.1102925950996	32.4356046993883	-9.69663371805517	-1.07924530529707	-46.018927945887	-13.4100683248446	-22.8971203341192	-0.178589876227403	
2478000000.00004	-11.0651143254128	32.1030289393077	-9.70376622413638	-3.39671918059873	-46.1613932172988	-17.5591746561458	-22.8756174175236	-1.09146310482564	
2478333333.33337	-11.0261340328864	31.7939493936287	-9.70648655480707	-5.73993591488543	-46.0568551628678	-18.5064224323495	-22.8037597810958	-1.95651277685444	
2478666666.6667	-10.9829000064689	31.4170088144788	-9.7159422135853	-8.09606884338034	-46.3637435821877	-20.852050490122	-22.7465357815995	-2.98912578421483	
2479000000.00004	-10.9485794985915	31.0849499748376	-9.7280554334791	-10.4410825806339	-46.3199116793434	-23.9845846862412	-22.7171979650536	-3.83582624281712	
2479333333.33337	-10.9059583112176	30.7842104817864	-9.72846237492563	-12.7665037737154	-46.2839240795555	-24.1508203948171	-22.6623190771246	-4.96710667042889	
2479666666.6667	-10.8719748888488	30.4000939429509	-9.7377623048235	-15.0929083392096	-46.3875989652058	-27.2647514024341	-22.6049499686118	-5.94069759961408	
2480000000.00004	-10.8396328828782	30.0401716566312	-9.74468831229139	-17.4316214524417	-46.255994485851	-30.5314195038795	-22.5282057286318	-6.72244858492081	
2480333333.33337	-10.8126209761713	29.7552900500163	-9.74888526396605	-19.7591258608545	-46.2204101862522	-32.0268116446356	-22.4538810624005	-7.45387662961682	
2480666666.66671	-10.7850397428327	29.330913815561	-9.75685868032981	-22.0836151742074	-46.2479182182512	-34.6824818741244	-22.3739678341354	-8.39784418649831	
2481000000.00004	-10.7577982709174	29.0007764336301	-9.76242390225758	-24.3978893396777	-46.3804824704101	-36.6851938518262	-22.3177613019689	-9.49855996632395	
2481333333.33337	-10.7171776605621	28.6626323901384	-9.76979722743583	-26.7047738770609	-46.1626599044633	-37.5806304152624	-22.224722343073	-10.2893189238528	
2481666666.66671	-10.699174562489	28.2995424304643	-9.77559812846511	-29.0104130543504	-46.310415764779	-41.3413055751356	-22.1495588736652	-11.1719922125943	
2482000000.00004	-10.6773355192178	27.9442157347445	-9.77369226606738	-31.2700570068465	-46.4845396610043	-41.9864246114761	-22.0804207060198	-11.9761257407146	
2482333333.33337	-10.6591728208117	27.5346812803669	-9.78097989810751	-33.6193673116387	-46.5405832186228	-45.5337637550415	-21.9633002173402	-12.8697907025584	
2482666666.66671	-10.6305060433747	27.1648652967908	-9.78070809392761	-35.8880876044549	-46.2922217893215	-48.0958977773142	-21.8600105486943	-13.7637528580236	
2483000000.00004	-10.6257387676395	26.7855334816857	-9.78737294943062	-38.1711688454405	-46.3982203414081	-51.8320848776079	-21.768185786817	-14.5641269410617	
2483333333.33337	-10.5983615364819	26.5040484726041	-9.78150862964475	-40.4427538920503	-46.3316492371477	-54.0516885355258	-21.6629680842801	-15.3515349294349	
2483666666.66671	-10.5867048485269	26.14167262994	-9.79061390740947	-42.7556215179437	-46.3928960848313	-54.9632089364599	-21.5669805739403	-16.0735358865315	
2484000000.00004	-10.5841510914703	25.7559623405393	-9.78692866823594	-45.0650335155046	-46.1449546037135	-57.1259532254047	-21.4734258470368	-16.8421365253591	
2484333333.33337	-10.5666498468642	25.3066270015127	-9.79109968115809	-47.2904525546703	-46.5157899720678	-60.5257559746148	-21.3766392713966	-17.5080078744018	
2484666666.66671	-10.554962182748	24.9901487151922	-9.7918324986436	-49.585273928071	-46.4587894243702	-61.2964985475884	-21.285774212756	-18.2205779030372	
2485000000.00004	-10.5558695554381	24.6020620187452	-9.792589367905	-51.8680775135208	-46.276612056086	-64.4364451018317	-21.161950706372	-18.9375487703564	
2485333333.33337	-10.5549689703941	24.2227896191403	-9.79919559106854	-54.1532780137237	-46.5672448428399	-66.4994581110131	-21.0492997082519	-19.5888882448401	
2485666666.66671	-10.5544365991651	23.8000208226952	-9.79196054379055	-56.4061913235671	-46.2240604203279	-68.7150093269971	-20.9445289638666	-20.2258380347828	
2486000000.00004	-10.5545097785382	23.4098321639234	-9.79027476071579	-58.6932481625293	-46.6082866467399	-68.5904025290741	-20.8412186925586	-20.8715663636737	
2486333333.33337	-10.5600437704903	23.0430651922899	-9.77903626901312	-60.9468624700389	-46.1518796492276	-72.7210016189032	-20.7291751844455	-21.429852272453	
2486666666.66671	-10.5574176607801	22.5953666024609	-9.78576927012274	-63.2917026547882	-46.5286425396475	-75.8320431234337	-20.6510574484111	-22.1973259138838	
2487000000.00004	-10.5724606835997	22.2019594054333	-9.77922299971037	-65.5056661224393	-46.2942129358715	-76.6221399979124	-20.5263061062374	-22.6172057488949	
2487333333.33337	-10.5803950151623	21.8048641178753	-9.77854055332695	-67.8321487555696	-46.2478327100474	-78.440030277539	-20.405223829653	-23.2609332659883	
2487666666.66671	-10.5856708707489	21.4629796009362	-9.76998766727609	-70.0539132639432	-46.4001993682268	-80.1323191751263	-20.3220783546863	-23.7345577535882	
2488000000.00004	-10.601587962141	21.0429439835102	-9.77140668228827	-72.3526865417901	-46.296019377747	-84.0396596255963	-20.2364289455487	-24.2771667811819	
2488333333.33338	-10.6076506942009	20.6215423764932	-9.76528805320291	-74.6491247559757	-46.5155796423721	-85.8795532799795	-20.1152586173695	-24.8790993150079	
2488666666.66671	-10.6397961024511	20.1956571262297	-9.75614887212323	-76.8882692530868	-46.2814523018237	-87.9015166017862	-20.0379188915091	-25.3978221302659	
2489000000.00004	-10.6445905119058	19.8053511951913	-9.75288960424344	-79.1712972364614	-46.5825376728707	-91.5794627423924	-19.9365504337302	-25.7334162215327	
2489333333.33338	-10.6632443366211	19.3344118950438	-9.74654883771157	-81.3990623110967	-46.5094579911578	-94.5223701622468	-19.8412086551688	-26.284745081891	
2489666666.66671	-10.6866227722114	18.9140496790992	-9.7456780353859	-83.7198879743826	-46.6446786944023	-96.0691383913455	-19.7534864607506	-26.6963574767368	
2490000000.00004	-10.7020280889908	18.4437897322495	-9.73466249684035	-85.962738937272	-46.6102235168763	-97.0169332290747	-19.6537577645831	-27.0689337133353	
2490333333.33338	-10.7401129169261	17.991609482158	-9.73347289093761	-88.2700498651922	-46.3139987809086	-101.068059054915	-19.5720780946226	-27.6610026467132	
2490666666.66671	-10.7656220512823	17.5944021696396	-9.72776831750517	-90.5356548902484	-46.4615007402458	-101.742667618115	-19.496168972308	-27.8843430679211	
2491000000.00004	-10.789796790933	17.1899974603516	-9.7207952743781	-92.8326873511145	-46.274830396323	-103.630908699042	-19.4260801716564	-28.3746363217405	
2491333333.33338	-10.8142413574856	16.6909650187449	-9.71731152233412	-95.114043124181	-46.5379353511311	-106.283272481405	-19.3416729569036	-28.7322923614918	
2491666666.66671	-10.8510255766866	16.2600589039193	-9.71289013038536	-97.3857804875496	-46.559623649245	-109.191932574624	-19.2776551395433	-29.1555958051415	
2492000000.00004	-10.8842322979066	15.8101064230776	-9.69750405351153	-99.6423515031279	-46.5701163149911	-112.016947976421	-19.2008698649987	-29.3583603300332	
2492333333.33338	-10.8995299891839	15.2509052940164	-9.69788097761387	-101.933992417667	-46.6203282197058	-114.080019278186	-19.1458541131002	-29.6384920161476	
2492666666.66671	-10.943127345917	14.8793314247766	-9.69461284853456	-104.203438270097	-46.5187830669103	-115.198583352775	-19.0771004624557	-30.0939145666353	
2493000000.00004	-10.9899780407953	14.3540345810458	-9.68413178922946	-106.504123204513	-46.5788613110391	-116.906790077114	-19.030412558133	-30.3366149258059	
2493333333.33338	-11.0243407677327	13.8730909992511	-9.68545530955986	-108.784943087674	-46.6377220585838	-120.921990958641	-18.9533629839547	-30.6811358932166	
2493666666.66671	-11.0628778550212	13.4358876985544	-9.67818990820781	-111.098195797774	-46.1654042261934	-122.636722475097	-18.9067037992688	-30.8527350856098	
2494000000.00004	-11.0818762507848	12.9167497510097	-9.67435191379485	-113.368862692293	-46.5369923116534	-124.841690527983	-18.8698122299565	-31.1332672964643	
2494333333.33338	-11.1416018861727	12.4225175394661	-9.66618320457168	-115.65777093016	-46.4595903542522	-128.013051958037	-18.8448404163216	-31.4426071387844	
2494666666.66671	-11.1753134555695	11.9293011597548	-9.66459662813822	-117.913925826165	-46.347297648683	-128.623051871342	-18.7804763060617	-31.6054754336479	
2495000000.00005	-11.2201135462352	11.4327366693874	-9.65813274458669	-120.215318503095	-46.2976324868115	-130.590588520147	-18.7588640624616	-31.6821027432755	
2495333333.33338	-11.2646438284353	10.9301632526492	-9.65551993805507	-122.54581957017	-46.7469902782152	-133.915837528426	-18.7204857243545	-31.9334673674572	
2495666666.66671	-11.2941930133979	10.3758200155495	-9.64993164549002	-124.794338384572	-46.2221474111044	-137.260655116365	-18.683478224846	-32.122458980756	
2496000000.00005	-11.3400590041205	9.86768364872229	-9.64294873013934	-127.103680713706	-46.6455535188451	-139.036126210278	-18.6615109379971	-32.198960853576	
2496333333.33338	-11.3865749935379	9.3599084236794	-9.64420844823299	-129.375300138673	-46.3282228718486	-141.104541375869	-18.6528461871215	-32.327682901717	
2496666666.66671	-11.4383177097024	8.79448858948139	-9.64723938743022	-131.680274119921	-46.4151403118457	-142.74496778015	-18.6523977452554	-32.4570615227469	
2497000000.00005	-11.4737155126924	8.2929476735572	-9.64565755935689	-133.959764192616	-46.4809019226098	-145.302842943163	-18.6429951133938	-32.5979954781382	
2497333333.33338	-11.5151675584065	7.74325284806429	-9.63455213676882	-136.267565429188	-46.6953413836475	-147.467859169558	-18.6460391009481	-32.7040189406959	
2497666666.66671	-11.5464993294858	7.11676188547063	-9.63210204757778	-138.582738792004	-46.3225645590257	-150.852905345644	-18.6267310705643	-32.7565446194398	
2498000000.00005	-11.6011550611287	6.54882628887947	-9.63821260084542	-140.900766443456	-46.7523508752539	-151.794112204243	-18.6081161829071	-32.7704814685693	
2498333333.33338	-11.6342876378645	5.94640132778543	-9.64155541288836	-143.183359078872	-46.2398385001723	-156.929651177332	-18.6350001637445	-32.7156675463131	
2498666666.66671	-11.6831794108742	5.40239581115956	-9.64257790216859	-145.502230588317	-46.1483085667663	-157.280979987909	-18.6334637128142	-32.6954966642376	
2499000000.00005	-11.7238627223915	4.83563196939573	-9.64518550614353	-147.771974025158	-46.3711245628374	-158.281921469827	-18.6792633530166	-32.6276309165194	
2499333333.33338	-11.7554347488077	4.21935563883717	-9.64602958830628	-150.055969346698	-46.4117253606138	-161.236998971994	-18.7021237942501	-32.5425069589404	
2499666666.66671	-11.8045805993485	3.60257891596904	-9.64613447574658	-152.341565839783	-46.8368198721616	-164.093300472681	-18.7294895355653	-32.5360302743364	
2500000000.00005	-11.8458110074305	2.9550850360704	-9.65143285676387	-154.656364521549	-46.3196628891681	-166.733077603696	-18.7355205744212	-32.5204547248758	
2500333333.33338	-11.8775883555468	2.29645875915764	-9.65899989212933	-156.917639916581	-46.2236382447724	-168.08424948176	-18.7901915968907	-32.3155072592902	
2500666666.66671	-11.9280333460992	1.73736456064256	-9.66078784541391	-159.239028558655	-46.4231180420922	-171.866888381783	-18.818851233138	-32.2948060367952	
2501000000.00005	-11.9658950329849	0.998483813769035	-9.66473733733977	-161.54625693633	-46.4668536051033	-173.244650344396	-18.8520870595376	-32.0093241591468	
2501333333.33338	-11.9978087336936	0.339733501303491	-9.67335569689204	-163.854397491005	-46.2699268364715	-176.556673237558	-18.8991220140401	-31.6774810180058	
2501666666.66672	-12.0333786380784	-0.385653621385193	-9.68172151698671	-166.090574774049	-46.3332927011315	-176.830319045801	-18.950496987035	-31.5615227822819	
2502000000.00005	-12.0765027825591	-1.07799024828401	-9.68636213644871	-168.353122304228	-46.4734219787482	-179.613956270448	-18.9970770405713	-31.2409568637611	
2502333333.33338	-12.1164232780319	-1.75950047327776	-9.69840930916793	-170.657267850405	-46.4474051073583	178.13174578128	-19.0555990648956	-30.9578786781284	
2502666666.66672	-12.1402537247065	-2.4799722202727	-9.70317290976746	-172.967517073699	-46.4417066630358	174.776506019606	-19.1068049807845	-30.6349381561188	
2503000000.00005	-12.1733227452272	-3.1989493288739	-9.70948955584179	-175.234538172848	-46.4806583473244	174.157565917775	-19.1694374238794	-30.1978072201649	
2503333333.33338	-12.2034153596437	-3.96790950122574	-9.71418131103762	-177.528504278146	-46.560425881874	170.486962480446	-19.237889854278	-29.8106584253992	
2503666666.66672	-12.2336110168598	-4.6996383519392	-9.72844609410277	-179.808371087939	-46.4590087425381	168.562714270996	-19.2992052175959	-29.2794499409429	
2504000000.00005	-12.267328686978	-5.48382715063	-9.74155727921214	177.939399909278	-46.5679942568854	166.023194832431	-19.3646341794625	-29.043903449966	
2504333333.33338	-12.2935835673544	-6.26080634126606	-9.74556297049372	175.684623399548	-46.353652407607	165.155987663646	-19.4317336212563	-28.6348385706626	
2504666666.66672	-12.3199213754763	-6.98884031202801	-9.76093851450802	173.417130403353	-46.5431676030198	160.661963843567	-19.4915895330268	-27.9344720016345	
2505000000.00005	-12.3420645931143	-7.77986948312842	-9.76757929896823	171.182839735053	-46.3559398001343	157.989747017724	-19.5725378548156	-27.2553993097765	
2505333333.33338	-12.366412964028	-8.60670102355278	-9.7766914763865	168.913648317207	-46.4094888326999	156.482004746152	-19.6381119175402	-26.6376369279506	
2505666666.66672	-12.3899712704707	-9.38379063275116	-9.78445145227532	166.656645013758	-46.7256771311162	151.957591851082	-19.7142745768732	-26.0768122654729	
2506000000.00005	-12.4158048883967	-10.2581867169721	-9.79839741010829	164.398556903296	-46.3833057115547	151.888008398512	-19.7744261149495	-25.4858690682305	
2506333333.33338	-12.4317766129593	-10.9668031771098	-9.80966344058979	162.165336087729	-46.2508090802246	149.785769388642	-19.8547137134074	-24.705876253238	
2506666666.66672	-12.4488675338702	-11.8344248163525	-9.81935465466982	159.924859545905	-46.6564571696443	147.970504602486	-19.9144105220127	-23.9581080917412	
2507000000.00005	-12.4719208719925	-12.6889300252539	-9.82979321098524	157.69024579191	-46.3602261749605	144.516110070085	-19.9709018857533	-23.2419180351819	
2507333333.33338	-12.4820073755002	-13.5472804522457	-9.8409584738267	155.45212451215	-46.4812214740659	142.547760810191	-20.0294343191618	-22.175390078384	
2507666666.66672	-12.4883315052783	-14.3470992791628	-9.85927670282459	153.171593435474	-46.3309409844842	140.197382236959	-20.0878424834228	-21.6875463255936	
2508000000.00005	-12.5066820706537	-15.2516099912275	-9.87122030951552	150.955115140918	-46.3454431389319	139.067120650381	-20.1659105430165	-20.8042787655287	
2508333333.33338	-12.5175756606863	-16.1134787014578	-9.87938571414085	148.725011053619	-46.2516002109098	135.672997001156	-20.2244565539153	-20.02219227186	
2508666666.66672	-12.5312292672149	-16.9017726403527	-9.88872757748251	146.473480747192	-46.4594306368323	134.23770157047	-20.2982495901198	-19.0231955706961	
2509000000.00005	-12.5375773996871	-17.7998764602037	-9.90822231720419	144.214214789559	-46.1492198247112	131.923707419258	-20.3318553752356	-18.046684094723	
2509333333.33339	-12.5429013318132	-18.5713147951442	-9.91935469872441	142.015832765474	-46.4144788740903	128.11978714257	-20.3579745039848	-17.0331391343027	
2509666666.66672	-12.5458108398731	-19.413699978366	-9.9273535398311	139.737944629294	-46.2883197301037	127.14406776844	-20.4028586241241	-16.1289031946329	
2510000000.00005	-12.55796780494	-20.3428099269213	-9.94420548667958	137.557731875547	-46.6552801168756	125.380254402082	-20.4447883423639	-15.20451691559	
2510333333.33339	-12.5551299161673	-21.1790144347729	-9.95545277617538	135.314688342392	-46.3239049093053	123.781389602397	-20.4922316402877	-14.2286659821685	
2510666666.66672	-12.567207467452	-22.0273392674735	-9.97300547792938	133.088585502242	-46.5129716580723	120.463063203422	-20.4990417086793	-13.5130227634019	
2511000000.00005	-12.5637039532495	-22.8570669494562	-9.98442911463713	130.850199195682	-46.2106093202595	119.70691762822	-20.5373751656127	-12.5907006504143	
2511333333.33339	-12.5585386005413	-23.7021707617297	-9.98845419654853	128.590258954513	-46.205767236877	116.880535144121	-20.5499747719987	-11.687863422551	
2511666666.66672	-12.5619930161217	-24.5529013006705	-10.0029974961533	126.35569509933	-46.4876074036608	113.008202764695	-20.5706932453682	-10.8216286705165	
2512000000.00005	-12.5673161203164	-25.3905359396406	-10.0185521194023	124.171392899633	-46.3959865800377	111.335997859559	-20.5467194034685	-9.76099174597454	
2512333333.33339	-12.5653891388531	-26.207120576436	-10.0305451474728	121.910547703084	-46.6210676069109	110.675931173233	-20.5897495115219	-8.83455591438491	
2512666666.66672	-12.5536431251275	-27.0353595901433	-10.0448254892298	119.682911584338	-46.4324124770827	108.416262388177	-20.5825775617012	-7.94880065704792	
2513000000.00005	-12.5580838162226	-27.8300052536603	-10.0543089473814	117.424312673128	-46.4573170493349	105.294053543603	-20.592721852929	-7.12406946855379	
2513333333.33339	-12.5555758386206	-28.6526970155606	-10.0651255659838	115.22319174158	-46.5633514375405	100.726167887052	-20.5824871078093	-6.42243392933579	
2513666666.66672	-12.5506189502325	-29.388217264541	-10.0713345291594	112.966822893674	-46.3893974173896	100.733689453521	-20.574303094482	-5.73368050814233	
2514000000.00005	-12.5441644918155	-30.1741190740514	-10.0828353846761	110.722604035491	-46.6337094295545	98.4934467918011	-20.5792048286326	-4.89597089556849	
2514333333.33339	-12.538844261463	-30.8985642643264	-10.0938130255864	108.445165229534	-46.5332834333156	96.6797942496689	-20.5752686650256	-3.9967748265074	
2514666666.66672	-12.5363319090418	-31.7796314753135	-10.1095520381697	106.223720980453	-46.4401338380017	92.0796917608302	-20.5383901126114	-3.41706880071861	
2515000000.00005	-12.5306043670152	-32.4860293100737	-10.1264382921179	103.956968539176	-46.4476988471753	93.1373531072373	-20.5273171040896	-2.97419971029248	
2515333333.33339	-12.5274204316951	-33.1983002006601	-10.1345663171399	101.716643236312	-46.4317245677328	89.4527431021522	-20.5076264059259	-2.38456310732714	
2515666666.66672	-12.5216913425242	-33.9105885057643	-10.1524954003477	99.4631064117992	-46.7684258881437	87.0982076192994	-20.4854119204435	-1.71308734788551	
2516000000.00006	-12.5192954497189	-34.5830479137046	-10.1606620724941	97.266403736209	-46.6429071396379	85.3863498824912	-20.4806068919727	-1.12313177425003	
2516333333.33339	-12.5207470216208	-35.3445582300295	-10.169265945128	95.0101079297729	-46.6803694627704	83.2087179769886	-20.4382030711854	-0.816533684507374	
2516666666.66672	-12.5199422530368	-35.9783019694978	-10.1760689622308	92.7561029284431	-46.72051073873	80.140597615486	-20.4398129346674	-0.488810871838451	
2517000000.00006	-12.5168162911187	-36.6614230877823	-10.1969785743982	90.4653899458531	-47.0454232221699	78.6739575348722	-20.4300219565583	0.0667479784371498	
2517333333.33339	-12.5172856314256	-37.2227501755331	-10.1995959414276	88.224345477073	-46.7546330114685	74.1366694059865	-20.410792108115	0.25103491226508	
2517666666.66672	-12.5214904074416	-37.9267650474822	-10.2123141193448	85.9564002922981	-46.7012100919127	73.7128493918235	-20.417502735171	0.726119903725298	
2518000000.00006	-12.5126482913267	-38.5344419478043	-10.2285391783156	83.7162170525486	-46.9233411890818	71.1603677178784	-20.3735381035032	0.755430190423829	
2518333333.33339	-12.5219943378637	-39.1139469107476	-10.2395046117747	81.4053428383788	-46.8078447363797	69.0657431835768	-20.352142707135	0.929472459490578	
2518666666.66672	-12.5124995369595	-39.6726019755429	-10.245991031092	79.2329403053893	-46.5158068082032	66.0201733771698	-20.3457865087768	1.04115408216253	
2519000000.00006	-12.5301448122101	-40.2162602953297	-10.2484895412941	76.9617946557084	-46.9244785951646	64.4455891730256	-20.3721627390844	1.22414719048038	
2519333333.33339	-12.5247700912757	-40.7865590984301	-10.2732510136293	74.7166337235016	-47.0406437073281	60.5327944570467	-20.3656745734737	1.07546499237551	
2519666666.66672	-12.5352300179617	-41.2770964768981	-10.2764506213694	72.4473497018693	-46.8736117853812	58.0052933991241	-20.3436435742684	1.20165797093054	
2520000000.00006	-12.5417237664215	-41.7721597787858	-10.2872745004765	70.1823974986994	-46.7461763624859	58.3663567262225	-20.3641617257708	1.01205751736236	
2520333333.33339	-12.547132870916	-42.1892743691602	-10.3034898281004	67.8946048376055	-46.8011347671634	55.2062104947247	-20.3690428002996	1.00501602391733	
2520666666.66672	-12.5623029608361	-42.6958558362844	-10.3072405225205	65.6618986697802	-46.9288985140677	52.3967221115939	-20.3599271758467	0.873583049478286	
2521000000.00006	-12.5605736261209	-43.1584482945245	-10.3195988320846	63.3955644463601	-46.9479474644835	52.3358415986155	-20.4089183916912	0.61761999164768	
2521333333.33339	-12.5735109134667	-43.5591128748821	-10.3329839316883	61.1245140245344	-46.6398386132502	47.2542616058707	-20.4107949024707	0.443553978357128	
2521666666.66672	-12.5717689833181	-43.9118792603273	-10.3368173167938	58.8690476657531	-47.0559798865409	46.6589752378312	-20.4714314038985	0.0451576570343691	
2522000000.00006	-12.589151557611	-44.3799769692742	-10.3544809877535	56.6401742560025	-47.1600678196538	44.7953261724765	-20.4800711992904	-0.136063488949331	
2522333333.33339	-12.6093267022033	-44.7520619426886	-10.3625601306124	54.327121305871	-46.9907054845576	42.8130127781778	-20.5240985138825	-0.494344045040737	
2522666666.66673	-12.6092132127912	-45.0554561564085	-10.3687223481233	52.0861095340618	-46.7618509930836	39.1663684632174	-20.5486955853561	-0.985137200312411	
2523000000.00006	-12.6329728172719	-45.4169284045567	-10.3786504449068	49.8447633917848	-46.8797937230349	38.5399162639186	-20.5837500302736	-1.42065003276764	
2523333333.33339	-12.6302221527105	-45.612971016356	-10.3912642705826	47.5743673675978	-46.8150090425984	34.7790293594888	-20.6121296387321	-1.95502978126419	
2523666666.66673	-12.6484553210686	-45.9695990158199	-10.3988996652009	45.3590247961254	-46.7004529165295	33.2902009758953	-20.7082246237684	-2.65882037878909	
2524000000.00006	-12.6608621468578	-46.2147622142006	-10.407737240777	43.0877198918036	-47.2698853945062	32.5988698133054	-20.7437498182008	-3.02408299887288	
2524333333.33339	-12.6734935616014	-46.4905688268592	-10.4210101381655	40.8874605765457	-47.0421929563552	27.3156497791937	-20.8177792187646	-3.87269552363756	
2524666666.66673	-12.6850758649628	-46.7746265980779	-10.425028264007	38.608233067401	-46.6951871634126	24.4050042692544	-20.8820673013356	-4.54534591883014	
2525000000.00006	-12.6931058623135	-46.9142725677392	-10.4327919093881	36.3752996492298	-46.9682894370527	24.9466865877562	-20.9616714339683	-5.32282851787748	
2525333333.33339	-12.7152462282155	-47.1234870382795	-10.4392605030563	34.1089726949575	-46.7294233396227	22.4412847366614	-21.0102822444682	-5.99802684163473	
2525666666.66673	-12.737006570941	-47.3694852517655	-10.4489455930234	31.911270765958	-47.0175849831833	19.571570286979	-21.0799613850839	-6.86716991398387	
2526000000.00006	-12.742233506527	-47.5602607008248	-10.4490034185044	29.6997616675874	-46.9372818499183	17.4415638149081	-21.1682775883343	-7.70726389732131	
2526333333.33339	-12.7625698112021	-47.6760816574871	-10.4561574790123	27.4206327439604	-46.7564566047122	13.5429660745916	-21.2539606084755	-8.71706077138128	
2526666666.66673	-12.7703022695201	-47.8503207829138	-10.4684980836472	25.2224454354195	-46.9481701724865	12.6812683174864	-21.332039244774	-9.59797839280146	
2527000000.00006	-12.7886828584203	-48.0044376833254	-10.4669658121876	22.9736094710562	-46.9979186963978	10.9806845362598	-21.4389312165293	-10.7042816732905	
2527333333.33339	-12.8096261592879	-48.1472116299796	-10.4698878770607	20.74704844924	-47.2641395019372	9.26317844916404	-21.5531069394346	-11.84992889752	
2527666666.66673	-12.8313308480101	-48.3170506088059	-10.4738992340954	18.5194751793494	-46.8943095449582	5.95979690718094	-21.641909340137	-12.8087970941727	
2528000000.00006	-12.8573720918638	-48.4818490423484	-10.4734811468237	16.3167944405272	-46.9641921977785	4.21267462813568	-21.7470110024352	-13.838443553157	
2528333333.33339	-12.8731153176251	-48.5621637474282	-10.4771548698762	14.0674187441399	-46.737801174073	3.08528390767141	-21.864359917176	-15.2357545820569	
2528666666.66673	-12.8873269402562	-48.6709210274501	-10.4763473400631	11.8285043023381	-46.9560326235694	-0.160381592330316	-21.9582607597538	-16.4271363152515	
2529000000.00006	-12.9034226246884	-48.882796351404	-10.4749698288243	9.63161254764017	-46.9349501118383	-2.59830666759623	-22.0885645761317	-17.8363496919944	
2529333333.3334	-12.9331668003935	-48.9745352669424	-10.4733647299387	7.42748737702402	-46.7528881681994	-5.94940558392387	-22.1980941611286	-19.0473776799176	
2529666666.66673	-12.9517259382326	-49.1696079428197	-10.4663354595464	5.24922583157059	-47.2991001132844	-7.9686664855402	-22.3123380211616	-20.4553700191064	
2530000000.00006	-12.9740016019928	-49.2781974082961	-10.4690008023918	3.01845301893404	-47.0693740678302	-10.2238165002395	-22.4376794473995	-21.9596843134942	
2530333333.3334	-13.011736753905	-49.4853190852592	-10.4650993723113	0.812086794541365	-47.1168579633275	-11.2534220936772	-22.5489301477744	-23.3747905896127	
2530666666.66673	-13.0196925999696	-49.6632595752944	-10.4668948267089	-1.4247126130747	-47.0373513685772	-14.5491340959056	-22.6911777584994	-25.0620940996142	
2531000000.00006	-13.0619764912563	-49.8124278404341	-10.4628242393705	-3.59208056578351	-47.0781183271599	-16.4080831190086	-22.7763541289507	-26.4308749310595	
2531333333.3334	-13.0826643451229	-50.0248606723074	-10.4606818323102	-5.83300634833904	-47.2481108390248	-16.8758952769096	-22.9251373998157	-28.0684745866305	
2531666666.66673	-13.1364770951028	-50.155295631278	-10.4503729195849	-8.01975192497761	-46.5939055969705	-19.880586058443	-23.0141878061181	-29.6398358826379	
2532000000.00006	-13.1504218263199	-50.3009236253404	-10.4431429112974	-10.2583434513793	-46.8262884010914	-22.8502375481962	-23.1296745249264	-31.4597236644205	
2532333333.3334	-13.1921262457347	-50.4438777516963	-10.4300563783247	-12.4765245090233	-47.0409535774898	-26.1257485665282	-23.2410179313439	-32.9542068951382	
2532666666.66673	-13.2169767594165	-50.6041384742111	-10.4326396500571	-14.6781195457899	-47.1376999296135	-27.1195267537259	-23.3739998656942	-34.9863957446457	
2533000000.00006	-13.2582195597329	-50.8270284362829	-10.4205314995587	-16.9247217535302	-46.8781604292985	-27.4832562296856	-23.4704968261728	-36.6285200956211	
2533333333.3334	-13.2856977159996	-50.9225600749258	-10.4114670837644	-19.1152325669946	-46.8833051317591	-31.6648536392779	-23.5990160656455	-38.5084793190679	
2533666666.66673	-13.3363353762562	-51.0138705816066	-10.4025398037936	-21.3754502079116	-46.9642481985863	-34.6997355069381	-23.7006629964482	-40.4140009409737	
2534000000.00006	-13.3828771879076	-51.37069570221	-10.3961504275046	-23.577900585806	-47.1408525119239	-34.6595913889372	-23.8106503319108	-42.1439562477985	
2534333333.3334	-13.4259779918556	-51.5080002514746	-10.3878343609068	-25.8256571619959	-47.2791809712343	-36.9067949415241	-23.9198479732519	-44.1003356843492	
2534666666.66673	-13.4657095707107	-51.6350913005222	-10.373550793413	-28.0397712537326	-46.8279488116689	-39.0060482483386	-24.0089622909725	-45.7024896409507	
2535000000.00006	-13.5192907995899	-51.7915702411054	-10.3710900835706	-30.2911651725663	-46.8443052267576	-43.436464663237	-24.0985202986586	-47.7279175973709	
2535333333.3334	-13.5635085405616	-52.0416797415943	-10.3597938880656	-32.5244853609104	-46.7300190682526	-45.7112487735564	-24.1746054830083	-49.4910019861298	
2535666666.66673	-13.6304089761642	-52.2356987034035	-10.3528681949097	-34.770592527041	-46.7626930384512	-46.6120718055604	-24.2813302491315	-51.5062901901376	
2536000000.00006	-13.6706263501785	-52.363495555763	-10.341278863194	-37.0209911824143	-47.1542679168842	-49.1257128599669	-24.3645213201793	-53.388090676035	
2536333333.3334	-13.7197589493033	-52.68912579689	-10.3396857978005	-39.2753832220686	-46.6298102403437	-51.9581890773324	-24.4430028755394	-55.2849724550683	
2536666666.66673	-13.7630252537118	-52.9374455077226	-10.3289609904677	-41.5338202290088	-47.0512427141121	-52.8905489616578	-24.5053362747611	-57.1272813159606	
2537000000.00007	-13.8307138506026	-53.1021290572186	-10.3203361209499	-43.7466918429519	-46.6910492484244	-56.373675816534	-24.5913654220908	-58.8056600870665	
2537333333.3334	-13.8994821862594	-53.3073359863295	-10.3110512626715	-46.0450343672058	-46.9226578569803	-57.1587413913731	-24.6956002038378	-60.6845700730357	
2537666666.66673	-13.9483401645609	-53.5572532654391	-10.306536579	-48.2741404799353	-46.8790555066808	-59.1654806779453	-24.746043894441	-62.2420630325425	
2538000000.00007	-14.0364503996202	-53.8488796422271	-10.3019017487588	-50.5308819999783	-47.2235480805568	-61.8265145893427	-24.8164961388511	-64.0387402227426	
2538333333.3334	-14.0971539730899	-54.0919025880875	-10.2966586256077	-52.8183010021791	-46.6803514020822	-66.0551876960099	-24.8648914382355	-65.8796917432609	
2538666666.66673	-14.1634301055136	-54.2852160803074	-10.2870026870871	-55.0207842667042	-47.0316204867681	-66.4431734236587	-24.9498137310097	-67.250096247812	
2539000000.00007	-14.2445427749584	-54.4121274738628	-10.2808865442018	-57.3042725290499	-46.7309149951824	-67.4695267332438	-25.0197279533551	-69.0434606634544	
2539333333.3334	-14.3125044996011	-54.7445898532923	-10.2826494400358	-59.5818915358044	-46.9468512413021	-72.3109723919169	-25.0876413605324	-70.4982130039408	
2539666666.66673	-14.3823214807809	-55.0996322176172	-10.269914397292	-61.8119548746212	-46.6179709927985	-73.2462103928309	-25.1555232117977	-71.9626599364232	
2540000000.00007	-14.4689276750115	-55.3884578559998	-10.2667335421008	-64.099965566131	-46.9398888845812	-75.2608311962321	-25.2031589865976	-73.1617957362405	
2540333333.3334	-14.5391518098812	-55.6536749999661	-10.2597223115771	-66.325187960944	-46.8543504655503	-77.9713197913877	-25.3081023085566	-74.5637278054892	
2540666666.66673	-14.6446932202913	-55.9879569193086	-10.2589976305215	-68.6211757799859	-47.0969886658467	-80.3289122237431	-25.3941373068401	-75.6733649154816	
2541000000.00007	-14.7285377966096	-56.2423916900102	-10.2536654601362	-70.8889540077305	-46.7762774966667	-82.0000110585897	-25.467704107566	-77.213607699266	
2541333333.3334	-14.8025591844358	-56.5026420188264	-10.2486286318252	-73.1598172873835	-46.716730941807	-85.1200938842809	-25.5396357034487	-78.2413539028324	
2541666666.66673	-14.8933004116192	-56.8720547879908	-10.2389558354289	-75.4481697223672	-46.6496129068594	-87.2442084235386	-25.6219507920266	-79.0281611192597	
2542000000.00007	-14.976049391336	-57.2893622072566	-10.245295500657	-77.6958005316388	-46.89902181173	-88.4331659924601	-25.7014173818359	-80.0532029486926	
2542333333.3334	-15.0737787797655	-57.5377678339228	-10.237942602302	-79.9186016801241	-46.8424526462071	-90.2925287138248	-25.8063659524196	-81.0408497631561	
2542666666.66673	-15.1669319130864	-57.9114548225904	-10.2371556551209	-82.2268018508924	-46.5798211764258	-92.6180960591209	-25.9216212899772	-81.8128835418314	
2543000000.00007	-15.2731193073797	-58.2658942412328	-10.2300287258059	-84.4649673002764	-46.9468247351511	-96.3059171963915	-26.0244850516168	-82.3474925344456	
2543333333.3334	-15.3587660209395	-58.673901281968	-10.2231378436386	-86.7654280892843	-46.7786253526109	-97.4966083491178	-26.137846713271	-82.9482112199706	
2543666666.66674	-15.448341559619	-58.9804522170514	-10.2313184574483	-89.0101221305373	-46.6622274256003	-99.6181770747797	-26.2759344843096	-83.6791549105299	
2544000000.00007	-15.587439281533	-59.2970154620431	-10.2281380061692	-91.2808387699428	-46.6164893245773	-103.428072227368	-26.4079805804323	-84.0375048492961	
2544333333.3334	-15.6822912025285	-59.7042837295174	-10.2309179811706	-93.474457651341	-46.9866729098362	-105.823968346596	-26.5246055132176	-84.3676810374556	
2544666666.66674	-15.7759698029926	-60.0210120486823	-10.2221462937339	-95.7424472687243	-46.915971627893	-105.14096740562	-26.6621702226871	-84.5191863435309	
2545000000.00007	-15.9066912394981	-60.4745500738408	-10.2252387543752	-98.0636562932259	-46.9525109028231	-110.526466969478	-26.8051661778763	-84.8644115800094	
2545333333.3334	-16.0058374428836	-60.7767317733592	-10.2204892275596	-100.319878080145	-46.7837224366269	-110.414129892571	-26.9754434888985	-84.6705188177091	
2545666666.66674	-16.1201793562147	-61.237853211281	-10.2227899129846	-102.589384053561	-46.6973691427776	-112.286899787001	-27.1231879745976	-84.4846520640884	
2546000000.00007	-16.218717645379	-61.7034212261261	-10.2179561087918	-104.821354280844	-46.7381333268911	-114.94347290213	-27.3450414135618	-84.1087443511992	
2546333333.3334	-16.3385087032219	-62.2400744169962	-10.222474031059	-107.052519747841	-46.74522406712	-118.341531519399	-27.553157796532	-83.7155681249593	
2546666666.66674	-16.4433091473676	-62.5654665902431	-10.2170559325197	-109.297090224607	-46.9531518677978	-119.325349163923	-27.6986513385213	-83.0429252744543	
2547000000.00007	-16.5658157564409	-63.0195500038103	-10.2147541430714	-111.57874662908	-46.6985684599256	-121.495689844783	-27.8765171494831	-82.5366041347385	
2547333333.3334	-16.6753426863203	-63.4322475225891	-10.2153495805365	-113.827202165321	-46.6725592511447	-124.394544409366	-28.0626065765013	-81.2430574825688	
2547666666.66674	-16.7839507587953	-63.9212155826979	-10.2149487798749	-116.066264810643	-46.8120464654047	-126.772455732999	-28.3306334796167	-80.2586464289321	
2548000000.00007	-16.9027504708053	-64.4515111314709	-10.2146550912455	-118.306560640478	-46.8064656707813	-129.160796914267	-28.461843698713	-79.0900751448938	
2548333333.3334	-17.0066934515775	-64.9447061128491	-10.2132261710245	-120.561855689315	-46.7882370103584	-131.597405418536	-28.692856237443	-77.6297343118284	
2548666666.66674	-17.1136797542862	-65.3830121006871	-10.2129810258352	-122.789325260108	-46.7155156940966	-133.195432095464	-28.8958068277163	-76.2190960974148	
2549000000.00007	-17.2419732602018	-65.9810100076986	-10.199017653716	-125.035392810036	-46.4729770981503	-135.644965553965	-29.0086027311141	-73.9842351396149	
2549333333.3334	-17.3435309620782	-66.5420619502227	-10.2048644192432	-127.260350013599	-46.7776043720251	-138.522598992749	-29.2082212666627	-72.1144090237433	
2549666666.66674	-17.4541072929744	-67.1547655518005	-10.1988805615674	-129.498809582348	-46.6502995772113	-142.323470927696	-29.3478802759612	-69.596357261148	
2550000000.00007	-17.563476915399	-67.6713994633332	-10.1893061322534	-131.759139182745	-46.3769390879044	-142.860911837513	-29.5348609946328	-67.2628149345695	
2550333333.33341	-17.677394337637	-68.4288579142025	-10.1925580802322	-134.02605955558	-46.5964427156552	-145.473821193777	-29.6447301576577	-64.5459064646885	
2550666666.66674	-17.7795008376871	-69.08727535664	-10.1909959052958	-136.235761263026	-46.4965763244678	-147.683982289735	-29.7055995259356	-61.7800223124132	
2551000000.00007	-17.9033972532233	-69.7417375157596	-10.1880110393137	-138.47969335854	-46.7730281038498	-149.38286023855	-29.7758687303337	-58.9151614704807	
2551333333.33341	-18.0088022704949	-70.3724633679121	-10.1877996140799	-140.728881551614	-46.7337088044062	-150.720299380493	-29.8165606647437	-55.6138504422341	
2551666666.66674	-18.1262314037559	-71.0847165072151	-10.1853009810288	-142.92251409895	-46.7133755266338	-154.912692453016	-29.7961631998625	-52.2078804047469	
2552000000.00007	-18.2265716710084	-71.8291420228992	-10.1775159673377	-145.201076740078	-46.8378778355868	-158.263487003444	-29.7186723397159	-48.8624268472363	
2552333333.33341	-18.3259446946742	-72.682482067913	-10.1703382589466	-147.44039405711	-46.8166303107131	-157.806671632154	-29.5762502727137	-45.4877652503774	
2552666666.66674	-18.4379922842145	-73.2812081667781	-10.1695823190224	-149.66301737035	-46.5728345663189	-162.424138997941	-29.4823886112955	-42.3034735280936	
2553000000.00007	-18.5168845038217	-74.1452495472807	-10.1608415675993	-151.922460310555	-46.5856657129601	-163.384946096189	-29.3451479187095	-39.2226532041683	
2553333333.33341	-18.6192253964776	-74.9730799383076	-10.1552820611407	-154.195583646605	-46.4155324500267	-166.143426034108	-29.1625298634325	-36.2818877943272	
2553666666.66674	-18.7059410105052	-75.7982070256103	-10.158324875846	-156.424587683406	-46.5643566158526	-165.430152257146	-28.9217697927079	-33.4183505694415	
2554000000.00007	-18.7939666339973	-76.6624446611053	-10.1538092510939	-158.666221013068	-46.5852479475162	-171.869716976687	-28.6450870958152	-30.3952829343242	
2554333333.33341	-18.8711381600985	-77.4989200570208	-10.1488643005792	-160.938753221625	-46.5784350311713	-171.80232710501	-28.3659512184994	-27.6373280107373	
2554666666.66674	-18.9597550614585	-78.221004329249	-10.1355130687718	-163.177805500222	-46.5725361620537	-172.910800245325	-28.0648281242555	-25.4605244112876	
2555000000.00007	-19.0239166012906	-79.1110027904223	-10.1399515185944	-165.421813778335	-46.5978562397213	-179.085515728306	-27.7830929547378	-23.0586154197145	
2555333333.33341	-19.0843847691278	-80.1254100296908	-10.1295998633695	-167.681021312658	-46.5837927459694	179.64139956933	-27.4021173447806	-21.0271145549889	
2555666666.66674	-19.1709596695558	-80.8592349282248	-10.1210324039238	-169.930612801863	-46.4529678360434	178.940165132428	-27.1253597522747	-18.8752561452621	
2556000000.00007	-19.2322452090754	-81.7891717589969	-10.1184548239435	-172.188355953833	-46.562742158424	175.619581112793	-26.7639723982282	-17.1384454762067	
2556333333.33341	-19.2812435677368	-82.7339590381659	-10.1090008974614	-174.484489409888	-46.7825219931363	172.006521036149	-26.431962764586	-15.5367205671221	
2556666666.66674	-19.32043146301	-83.669759024845	-10.1120682934639	-176.707555205624	-46.5466325017393	171.301208129581	-26.1678055166417	-14.0059527961044	
2557000000.00007	-19.359912671438	-84.6508639649251	-10.1075865776303	-179.000535796106	-46.310543600296	169.267171732888	-25.7907368223031	-12.6888119666689	
2557333333.33341	-19.3944957513374	-85.4833981974836	-10.098975867284	178.74324406442	-46.7810717028759	167.659371368324	-25.5211407863113	-11.3058067769476	
2557666666.66674	-19.4156024751694	-86.5418876726066	-10.0919869914164	176.414864843378	-46.2590753590103	166.100762661378	-25.2176069629087	-10.2861531578188	
2558000000.00008	-19.463748331027	-87.4281771183057	-10.0925209863287	174.149551820369	-46.4816235346867	162.745095083174	-24.9166356509777	-9.15972065821217	
2558333333.33341	-19.4551357809903	-88.3004323773496	-10.0881060221678	171.833689859106	-46.3395516440655	159.737673001841	-24.6347014400622	-8.0857121029148	
2558666666.66674	-19.460122568443	-89.2426061144721	-10.082152971112	169.584318733814	-46.5232440160399	158.106888089016	-24.3280089232786	-7.46267795508639	
2559000000.00008	-19.4756066893863	-90.1829626625223	-10.0786987164914	167.343755925171	-46.5316433937372	154.32498133463	-24.0383163995963	-6.46684840971783	
2559333333.33341	-19.4662739233504	-91.2775933820749	-10.0725967164959	165.033124093483	-46.2244641483869	153.447671341733	-23.817758693739	-5.83746574334016	
2559666666.66674	-19.4678658859713	-91.9674922555361	-10.0704242101629	162.747796002818	-46.3765740469313	149.555684847795	-23.521745999425	-5.05733086205968	
2560000000.00008	-19.4361226834757	-93.00553977258	-10.073207023221	160.457629070848	-46.2816434456735	146.93690506289	-23.2782726999616	-4.43827991726591	
2560333333.33341	-19.4286054366543	-93.9419272972049	-10.0638841179868	158.120816179801	-46.4637092014632	146.678952215639	-23.0648723685121	-3.71473215086549	
2560666666.66674	-19.3861323881833	-94.9835336535126	-10.0647395727064	155.857141826195	-46.3750985818009	144.678214391984	-22.8175146799112	-3.18762905451715	
2561000000.00008	-19.3538064052453	-95.9092478624447	-10.062930843664	153.597284917347	-46.4587050541602	142.007379338737	-22.608191607257	-2.75856257180275	
2561333333.33341	-19.2945376682931	-96.7171615108885	-10.0581558601829	151.256688515972	-46.258956303391	138.995427232302	-22.3721383519161	-2.35202790282708	
2561666666.66674	-19.2813155450208	-97.6689975625934	-10.0552578586785	148.950608994487	-46.4450361768068	136.267569123315	-22.1706198954072	-1.92376113000748	
2562000000.00008	-19.2170826432842	-98.4648650409539	-10.0633849604015	146.630725032874	-46.2014686112019	133.663118112399	-21.9890091057461	-1.48758700971063	
2562333333.33341	-19.156171118653	-99.4017665846543	-10.05666452962	144.333417612968	-46.2223674584154	130.832334267952	-21.8087002756235	-0.960725920840351	
2562666666.66674	-19.1123258540221	-100.338810236654	-10.055786851904	142.009605405972	-46.107447883941	130.186192637069	-21.6101155550911	-0.789863679883802	
2563000000.00008	-19.0554035975027	-101.249645833283	-10.0542028311925	139.676000953062	-46.2418191540602	129.697894557151	-21.3994377347033	-0.39466359020594	
2563333333.33341	-18.9921145983013	-102.018002699871	-10.0562725663815	137.339810903738	-46.2685448494442	126.173007102381	-21.2491418884349	-0.0776583577794562	
2563666666.66674	-18.9170505601998	-102.812946912685	-10.0529004116667	135.027575319595	-46.204005918691	123.985364352512	-21.076581164327	0.287028159944805	
2564000000.00008	-18.8630912783752	-103.701945507929	-10.0574641345694	132.698137561075	-46.103432527643	120.755884885187	-20.9407444380569	0.463021205761176	
2564333333.33341	-18.7889489216431	-104.50911565233	-10.0589941637193	130.342365553258	-46.3010254969165	116.402809802703	-20.7853875284142	0.905250833899292	
2564666666.66675	-18.7044634213491	-105.407368126269	-10.0592635763957	128.029122418591	-46.537238906258	114.388521238226	-20.6521531036276	1.10585271291291	
2565000000.00008	-18.6349059203034	-106.164987648923	-10.0567386649529	125.70204751864	-46.3421430567555	113.470489223288	-20.5053666829683	1.32248551232344	
2565333333.33341	-18.5667738701421	-106.962685856706	-10.0653549006619	123.349492351934	-46.2040167992243	111.76543177345	-20.378805770597	1.47554245327572	
2565666666.66675	-18.4868509362688	-107.747941186176	-10.070797338086	120.997133048558	-46.3244388014372	108.490790957561	-20.2451822309843	1.78358539092327	
2566000000.00008	-18.4236588087576	-108.596735503454	-10.0670426671926	118.694399561859	-46.1798463397725	106.234901941222	-20.1417254961412	1.94880903866372	
2566333333.33341	-18.3401164321639	-109.384679485399	-10.070941784078	116.343705745527	-46.3722320088881	105.445532042469	-20.0248457244265	2.31262648857933	
2566666666.66675	-18.2616574053481	-110.195047304289	-10.0744910429271	113.981856594081	-46.3381715468264	101.997481954048	-19.9450838875023	2.43689985145142	
2567000000.00008	-18.1962910619233	-110.961623287138	-10.078355879971	111.657203655337	-46.2754719610898	98.4370351719159	-19.8011609805802	2.57087058346962	
2567333333.33341	-18.1219500221627	-111.707756355647	-10.0807601050709	109.301988716201	-46.4656591245633	96.9706502303285	-19.744046106028	2.77551058697763	
2567666666.66675	-18.0435461358627	-112.379529094127	-10.0905036850984	106.937905381123	-46.1796975242964	93.9438618339007	-19.637984119083	3.08156006850791	
2568000000.00008	-17.9751693893453	-113.216907171394	-10.0895123880116	104.589022735231	-46.474929055674	92.7936254377618	-19.5502805443403	3.16593811127371	
2568333333.33341	-17.9061204138874	-113.986874177481	-10.0964418167883	102.273520536385	-46.3849957189996	89.8354590301132	-19.4822872038085	3.2450622180727	
2568666666.66675	-17.8323366616513	-114.644325908646	-10.1015499356619	99.8852288820941	-46.2707838293941	88.5764312750799	-19.3964444169633	3.54174474817872	
2569000000.00008	-17.7734542963134	-115.38761534971	-10.1098233865235	97.5743395119959	-46.1894989150938	84.2932938593041	-19.3010656646399	3.6596796981865	
2569333333.33341	-17.6969758773832	-116.188752463411	-10.1112432887045	95.2042913429127	-46.5478706658923	83.4683910357136	-19.2389024981174	3.91010672524236	
2569666666.66675	-17.6531699415202	-116.838611766529	-10.1206766334207	92.8006181215017	-46.3435658603535	79.5643450606717	-19.2019315024705	3.93104883738517	
2570000000.00008	-17.5822464701707	-117.554006701059	-10.1200651041705	90.5386637522902	-46.4962428093194	78.6003834205602	-19.1210249191704	4.12237700229317	
2570333333.33341	-17.53126515639	-118.238375100706	-10.1310535376874	88.166756446004	-46.5712045915106	76.775844221896	-19.0622119432035	4.31535688372284	
2570666666.66675	-17.4913276633169	-118.944857381249	-10.1440232045484	85.8468575237189	-46.1913705508745	72.6481991633492	-18.980449086853	4.40104639573939	
2571000000.00008	-17.4286998130802	-119.659439192316	-10.1466220693678	83.5311971453425	-46.5050394191356	73.2429204759993	-18.9608447631277	4.71030371765195	
2571333333.33342	-17.3908632302543	-120.398884772847	-10.1563349966579	81.2025421611202	-46.4081271581185	71.7919608013436	-18.9135308840649	4.86715355984943	
2571666666.66675	-17.3317706723401	-121.058921287784	-10.1601114259987	78.8422866442811	-46.1400477046323	66.0205616914381	-18.8908635500991	4.91672395675413	
2572000000.00008	-17.2920177699034	-121.790261616092	-10.1690077997419	76.4969196146516	-46.412431079438	64.6109944688351	-18.8504549342466	4.9317593770809	
2572333333.33342	-17.2649234495571	-122.518999280575	-10.1777738530408	74.2078090904669	-46.350264345732	62.9389225540617	-18.7977327705663	5.0794271760042	
2572666666.66675	-17.2369047014671	-123.010664962881	-10.1764769591363	71.88010866453	-46.1636939465917	61.2627592130365	-18.7868453359196	5.16012923184333	
2573000000.00008	-17.2006250273271	-123.756177607594	-10.179902249676	69.4979245420296	-46.3219795523356	58.714078883787	-18.7740837958665	5.37280982496568	
2573333333.33342	-17.1616142866079	-124.415218377241	-10.1872455433159	67.2476516219976	-46.4080629328855	55.7339249011398	-18.7215794952836	5.41592125809719	
2573666666.66675	-17.1466170979658	-125.183985484752	-10.1938930865555	64.9282413185257	-46.5157761421424	52.8676209568327	-18.7106775562244	5.38765537407417	
2574000000.00008	-17.1219919261826	-125.910657507144	-10.1957897322673	62.6187573279304	-46.7150611792819	50.8933636966346	-18.7013317586967	5.58692440449312	
2574333333.33342	-17.129384105774	-126.466820844509	-10.2037089887734	60.3449211353276	-46.1889066708115	48.5692984922019	-18.6862630330768	5.66054374400556	
2574666666.66675	-17.1076914046143	-127.259047168979	-10.2076558344756	58.0212750258921	-46.4816525863677	47.3495886581371	-18.6970327532962	5.63214223209076	
2575000000.00008	-17.0987498155719	-127.848739379123	-10.208392137032	55.7484678621262	-46.296762169606	44.4125343078134	-18.6609681215439	5.695276276963	
2575333333.33342	-17.1082082359367	-128.468664841924	-10.2087458371385	53.4961950543425	-46.7086283662015	42.6582121653188	-18.67495120517	5.61172124161439	
2575666666.66675	-17.1016859896533	-129.270540751493	-10.215319724435	51.2100652706339	-46.6744427776073	38.9232504912712	-18.6677880975944	5.72466465149247	
2576000000.00008	-17.1076739578005	-129.78991560717	-10.2129708694097	48.9010781772048	-46.5191493796067	36.9135728124746	-18.6763982104584	5.68046487076028	
2576333333.33342	-17.1188553919107	-130.515463484153	-10.218884082439	46.6271577159999	-46.1840885879626	36.608218880024	-18.6884134871122	5.6092986534574	
2576666666.66675	-17.1341398737694	-131.173870337567	-10.2112618875101	44.4057771802726	-46.5784356585842	32.8880614201622	-18.6993334026428	5.64602049620598	
2577000000.00008	-17.1690175808255	-131.850732609166	-10.219124914235	42.1083036504108	-46.654883333726	30.274585762561	-18.708253872484	5.5853057273542	
2577333333.33342	-17.2170966148305	-132.673135032944	-10.2180134127827	39.8094139448272	-46.5665828109178	27.1715377532796	-18.7359750155169	5.57566297003267	
2577666666.66675	-17.214175093055	-133.333133377052	-10.2182186764463	37.5791590643469	-46.7012681495794	26.5985040591231	-18.7608084011267	5.41627477601523	
2578000000.00008	-17.2575743816157	-134.075019525553	-10.2167477897749	35.319638600168	-46.698829498289	24.0981351493531	-18.7644727311312	5.36399548997367	
2578333333.33342	-17.279348958497	-134.717569091088	-10.2157803424351	33.0521160271497	-46.6646477480557	22.8146042226037	-18.7929653850333	5.2360583485683	
2578666666.66675	-17.3416332170154	-135.326539378171	-10.2086663461726	30.7844879550318	-46.8663957710945	19.6617684799945	-18.819294017514	4.9806812542882	
2579000000.00009	-17.384278615602	-136.039420907411	-10.2089445561976	28.5452683310476	-46.4510101210499	17.7150113619122	-18.8786147022048	5.10493138679868	
2579333333.33342	-17.4224125195826	-136.803095230465	-10.2093361872066	26.263402393323	-46.442177895847	15.6976864700154	-18.929889994702	4.78862572208114	
2579666666.66675	-17.4896483770115	-137.604362691746	-10.2009137965212	24.0317649580803	-46.5683437329911	13.2928486720922	-18.9678220976769	4.71684877648221	
2580000000.00009	-17.5805704384942	-138.222500985924	-10.2060846780135	21.7560487361397	-46.7492665012601	11.599197733491	-19.021680477337	4.33863670967669	
2580333333.33342	-17.6409801625477	-138.857948290941	-10.201381605345	19.4903719619617	-46.7389368688284	6.95125130136876	-19.0669861885439	4.3254970834804	
2580666666.66675	-17.7217562513961	-139.645700558295	-10.1950191610999	17.181645771723	-46.494378361965	6.55846918763311	-19.1342840526097	4.0140692973799	
2581000000.00009	-17.792380073014	-140.36260158118	-10.1931659694941	15.0005756964772	-46.316932467811	3.33448430470121	-19.1994714299983	3.75759280894258	
2581333333.33342	-17.873907522141	-141.04438223143	-10.1929729274611	12.7265987634555	-46.8474486869556	1.69627780104328	-19.256660861968	3.34399845013093	
2581666666.66675	-17.9613234483313	-141.635025318934	-10.1899183486052	10.4619058278035	-46.8524205096865	-1.59241198622565	-19.3197002936517	3.14548314156563	
2582000000.00009	-18.0469143189613	-142.616803888532	-10.1832059756424	8.1960384159647	-46.6713021724188	-2.49701377803823	-19.4091170070161	2.85188922334521	
2582333333.33342	-18.1698237305921	-143.16349559098	-10.1803719477147	5.95486191478835	-46.4706060191784	-4.41146007199047	-19.498139783618	2.50460256740434	
2582666666.66675	-18.2572376329963	-144.011154684207	-10.182073481268	3.72889149063035	-46.5483744089298	-7.80039401816021	-19.5632673150869	2.08194984921772	
2583000000.00009	-18.3420913483379	-144.807421394527	-10.1747819398386	1.50001560276009	-46.7415110433073	-10.44500119646	-19.6759914981291	1.77661214883575	
2583333333.33342	-18.4723421516044	-145.356590473172	-10.1707645139397	-0.75180017824119	-46.6455008524374	-12.5964401751892	-19.7496666155399	1.40617809914022	
2583666666.66675	-18.588725493497	-145.978570174361	-10.1710784375639	-3.06479002362343	-46.7386044079881	-14.9188595144539	-19.8325163677198	0.930988604385454	
2584000000.00009	-18.7173373887033	-146.916323150451	-10.164534092242	-5.26493292950119	-46.492723675091	-16.9015075601136	-19.9771116273574	0.464396812220623	
2584333333.33342	-18.8083636651953	-147.659577845115	-10.1641949434046	-7.55432369439513	-46.7019103899572	-19.6590526415929	-20.0673644754474	-0.135753838010524	
2584666666.66675	-18.924686627032	-148.428227609843	-10.1582561114986	-9.79242366457573	-46.5083530312701	-22.4949936582865	-20.2014046391997	-0.658664683357679	
2585000000.00009	-19.0460526755498	-149.136814600951	-10.1531779528433	-12.0614056665345	-46.7219443251491	-24.440656522679	-20.2929726311402	-1.05397736150685	
2585333333.33342	-19.1697835057583	-149.864639564702	-10.1578088562383	-14.2800406932201	-46.7239756021035	-24.7460414145566	-20.430619714966	-1.66889868783833	
2585666666.66676	-19.323701056956	-150.708512796018	-10.1535353225287	-16.5763053477903	-46.9393394769151	-30.0980225491907	-20.565092791959	-2.32368573077912	
2586000000.00009	-19.4742264314804	-151.373339168646	-10.1483166489653	-18.8048584955037	-46.6236109399687	-27.5788521972771	-20.6911755191385	-2.98523887620353	
2586333333.33342	-19.5842030249326	-152.378325535392	-10.1450284597845	-21.0839766804532	-46.8082435428778	-32.4640613218895	-20.825928686316	-3.42376148109797	
2586666666.66676	-19.7396199139725	-152.994781025181	-10.1396775726651	-23.3997935433413	-46.7688869188833	-32.9440957149494	-20.9635484859187	-4.32185078923155	
2587000000.00009	-19.8601916343113	-153.768554579035	-10.1363718528918	-25.6058790517009	-46.6023555849697	-38.2531635616575	-21.114927935136	-4.92839044971966	
2587333333.33342	-20.00377062683	-154.714170592217	-10.1403315181574	-27.8579023599432	-46.8971739957085	-39.2555401138554	-21.2729012081286	-5.74027739987944	
2587666666.66676	-20.1642903931521	-155.443698801246	-10.137832746187	-30.1647637500031	-46.6566220743802	-41.2542654783145	-21.4391192375976	-6.48958987100366	
2588000000.00009	-20.2934685107162	-156.213376731532	-10.1346163692482	-32.4522533770074	-46.6838240289463	-43.2809860336714	-21.5711905320485	-7.2011813503772	
2588333333.33342	-20.4567200553672	-157.161671430214	-10.132151682825	-34.7109385516171	-46.4029315341193	-45.7578688517059	-21.7516115130121	-8.11152638328554	
2588666666.66676	-20.619129894196	-158.095513326552	-10.131870100865	-36.9996792058637	-46.4531443141885	-48.8685980461888	-21.9430732081202	-8.98661561959221	
2589000000.00009	-20.739662989452	-159.061522495847	-10.1362526848187	-39.2483209895354	-46.3427803612031	-49.9443368413491	-22.1077478048004	-9.96185227931458	
2589333333.33342	-20.8963924820465	-159.777452864378	-10.1300773246091	-41.5099160123296	-46.5989666769844	-53.1938870318524	-22.2761328761363	-10.9094474389134	
2589666666.66676	-21.0418583341346	-160.923749287002	-10.1284500461928	-43.8057979864914	-46.5406415455682	-55.787610988728	-22.4409035227716	-11.7956309200001	
2590000000.00009	-21.1826859436821	-161.829504155447	-10.1226214974858	-46.1165014282354	-46.824107956917	-57.8877986004934	-22.6540745841808	-12.9982499264482	
2590333333.33342	-21.3261522307075	-162.825093200747	-10.1271189543548	-48.3865273352583	-46.6493701693747	-59.824776893624	-22.8370792370111	-13.8851653923198	
2590666666.66676	-21.4562649501107	-163.895765020877	-10.1231710674396	-50.6677902992435	-46.3069544895135	-61.7452711719825	-22.9952802901824	-14.9335984314097	
2591000000.00009	-21.6085656377763	-164.936416822357	-10.1252064568934	-52.9724288165103	-46.6959663993744	-64.652712182882	-23.2267113219589	-16.1718675988159	
2591333333.33342	-21.7369261703496	-166.07460072474	-10.1223482376683	-55.2631749070663	-46.6570413210346	-64.7258983876555	-23.4151178405457	-17.1246296048418	
2591666666.66676	-21.8813841537819	-167.307121288121	-10.124600651911	-57.5310523156367	-46.4039380741559	-67.9937309860992	-23.6023507128077	-18.1976375275953	
2592000000.00009	-22.0034109114031	-168.563636844719	-10.1218404299753	-59.8278822368854	-46.3497926003373	-70.966475468141	-23.8385261377681	-19.6593823691605	
2592333333.33343	-22.1112037231774	-169.673422812726	-10.1212499223953	-62.1283623767551	-46.4871505429177	-73.7356908081913	-24.0370034177249	-20.9566224966797	
2592666666.66676	-22.2697988303348	-171.156653988346	-10.120877765795	-64.4415598579065	-46.6423239215761	-76.0925441988869	-24.2363017813951	-22.2879215699873	
2593000000.00009	-22.3370793816195	-172.463929322208	-10.1137095376594	-66.7263918795454	-46.5406133704236	-75.7858937458819	-24.4117498823324	-23.4557796867636	
2593333333.33343	-22.4493821663652	-174.097781916672	-10.1181847274239	-68.9961670971447	-46.5345486868593	-80.2855717738946	-24.6286018313498	-24.9162500668685	
2593666666.66676	-22.594709631303	-175.537006938822	-10.1184526521465	-71.313797465223	-46.2473467420083	-80.7382929609681	-24.8465540190778	-26.1968640808744	
2594000000.00009	-22.6383884107872	-177.061375405852	-10.1183896361149	-73.6685537616804	-46.5499648372734	-84.257949767396	-25.0370056872552	-27.7041131085095	
2594333333.33343	-22.7164433119285	-178.832862193536	-10.1185554270206	-75.9417309746565	-46.3052655474115	-85.4357453774256	-25.2468335363532	-29.0008709365509	
2594666666.66676	-22.7971898438756	179.737097162487	-10.1168678941932	-78.2581812344505	-46.4725032091189	-88.2751881579753	-25.423086064869	-30.6313579720761	
2595000000.00009	-22.8124258982416	177.800283785702	-10.1140707429798	-80.5087864751971	-46.6799707634198	-92.1899530587483	-25.6280955910593	-31.973099712972	
2595333333.33343	-22.9016119063846	175.72735536481	-10.1195061506766	-82.8249496289251	-46.3947039662338	-94.0695362560456	-25.8495633671805	-33.4281013500513	
2595666666.66676	-22.9041272118453	174.186730923842	-10.1199026870414	-85.1416900850726	-46.7418833153547	-98.3346033950853	-26.0230175188368	-34.7266476922199	
2596000000.00009	-22.9397138559252	171.998980395006	-10.126777166501	-87.4228159913146	-46.4190665682454	-96.9413391350351	-26.202206688911	-36.519916288914	
2596333333.33343	-22.9344293118652	169.941192284177	-10.1208768782532	-89.7108505492606	-46.2910237570991	-100.654398221084	-26.3715518351642	-37.7489336839068	
2596666666.66676	-22.9215197097684	167.973851663866	-10.1251351383513	-92.021267776767	-46.6165444178804	-104.368746905301	-26.5196480020629	-39.3480029245644	
2597000000.00009	-22.9126380017272	165.561856472086	-10.1252906302044	-94.3552765999577	-46.2139767817766	-104.720593603185	-26.7296217282145	-40.8140929456169	
2597333333.33343	-22.8716421108119	163.51057313868	-10.126473116994	-96.5885961027051	-46.1828168697339	-106.785796207421	-26.9420404342277	-42.018814926267	
2597666666.66676	-22.8033947369542	161.716697280015	-10.1238234512301	-98.9007639157169	-46.2972332325695	-109.716260197713	-27.0379758713918	-43.4365539080593	
2598000000.00009	-22.7279947063875	159.367095113575	-10.1287820323478	-101.177191465589	-46.4194390257374	-113.330307859275	-27.2348302635807	-44.5840947355772	
2598333333.33343	-22.6811320520585	157.298615738165	-10.1316349624472	-103.520925339712	-46.4253197389247	-113.662107674989	-27.3757633484491	-45.7913366158879	
2598666666.66676	-22.565500775264	155.052085976976	-10.1351885825796	-105.853149675085	-46.4782219669973	-117.515892086058	-27.5456990180809	-47.2790437777489	
2599000000.00009	-22.4692078406451	153.039011506695	-10.1417695927581	-108.079939992981	-46.3644383327873	-119.086691849001	-27.6577899555563	-48.1707643303143	
2599333333.33343	-22.3547597428469	150.875849839558	-10.1478023613766	-110.382670955329	-46.287185017245	-121.779857001796	-27.8109807308253	-49.2147578697381	
2599666666.66676	-22.2413427230796	148.649205932856	-10.1557690588684	-112.654585501872	-46.5164974919935	-124.150521367076	-27.9161047987343	-50.1009295710573	
2600000000.0001	-22.075207937655	146.497583279974	-10.1572830274146	-114.978492160613	-46.3693939961571	-126.880350552976	-28.0216878323598	-50.8328266063532	
