!Agilent N9923A: A.05.34
!Date: Sunday, 13 March 2016 20:57:28
!Model: N9923A
!Serial: MY51491690
!GPS Latitude: 
!GPS Longitude: 
!GPS TimeStamp: 0001-01-01 00:00:00Z
!GPS Seconds Since Last Read: 0
!CHECKSUM:0752386936
!Correction: S11(ON U)S21(ON U)S12(ON U)S22(ON U)
!S2P File: Measurements:S11,S21,S12,S22:
# Hz S DB R 50
2400000000	-16.7207198278895	179.490798599479	-9.11645503652895	103.52427416475	-45.9009425981628	90.4531715199079	-21.9338462475738	13.1506487447948	
2400333333.33333	-16.7257227963529	178.505214992781	-9.10601050179089	101.168771519509	-46.1094378167004	87.8460538559735	-22.01200446477	13.3427440147223	
2400666666.66667	-16.7597728379807	177.525644345122	-9.10228879225691	98.8603419900976	-46.0299394024564	85.6685212387045	-22.0592081356469	13.7349966810805	
2401000000	-16.8106677512854	176.606555627107	-9.10047114347592	96.4923769632505	-46.1634778110336	84.1764366500586	-22.132846780214	13.8703842394689	
2401333333.33333	-16.8465838663555	175.619419749489	-9.09362197991753	94.1692794368964	-45.9710100649429	81.1175786971055	-22.2144891517188	14.3081432291292	
2401666666.66667	-16.8899956759284	174.752400679024	-9.08725205755958	91.8180595185206	-45.911665304117	77.9236788022799	-22.2784336357726	14.5288817387305	
2402000000	-16.9490407993683	173.675814607786	-9.08675576632654	89.503767165947	-46.0918771873605	76.5927725719579	-22.3541971051705	14.6262569987698	
2402333333.33333	-16.9737317546731	172.630917594535	-9.0836027300421	87.1353708168131	-46.0652991788907	74.8202103092164	-22.4309559543011	14.822329015716	
2402666666.66667	-17.0158686818947	171.534222424286	-9.08299835621359	84.8034463532191	-46.1547119405405	72.5885558289876	-22.4834881519559	15.1302402729776	
2403000000	-17.0543672743407	170.419557792141	-9.07777647940333	82.421386146711	-46.1219137890469	70.3375767609894	-22.5795535618848	15.1496502669097	
2403333333.33333	-17.1140093034651	169.251914907515	-9.08214322496158	80.1094884733741	-46.2316757915739	66.5788029103735	-22.6425344689652	15.5751749043864	
2403666666.66667	-17.144867260121	168.134648664953	-9.07624117670226	77.7771837932085	-45.9985720679878	65.9805094361086	-22.7486815134242	15.5154812299647	
2404000000	-17.1910193335666	166.930239753334	-9.07909291806268	75.419923183824	-46.0522259681513	62.116914518797	-22.8086695052691	15.7462584191125	
2404333333.33334	-17.2134912163164	165.784666641734	-9.07465275902631	73.0800302697891	-46.0550139812695	61.040766307898	-22.8972911369443	15.7755976290888	
2404666666.66667	-17.2568852996158	164.572329432753	-9.07412102897873	70.7200324244202	-45.6313691373115	57.2196866293898	-22.9441623501273	15.801488616679	
2405000000	-17.3111399053179	163.288713388892	-9.07864804768705	68.3887050809263	-46.0618905150011	54.7011473238853	-23.0481427826373	15.9814565701589	
2405333333.33334	-17.3144364877118	162.055516582226	-9.07654408634125	66.0530975803791	-45.8058165875997	51.3073778139068	-23.1044170801851	15.8494349882826	
2405666666.66667	-17.3520968376249	160.854849059531	-9.08104411294958	63.6752381832241	-46.026945614914	51.0849466044067	-23.2234747220322	15.8065273813889	
2406000000	-17.3634615713141	159.561437514918	-9.0806648495589	61.3605273863193	-46.0355949356461	47.6829556946713	-23.2736938135742	15.7618025500266	
2406333333.33334	-17.3908724516717	158.224579481229	-9.08396602291166	59.018751289568	-46.1652143094335	46.0434052550715	-23.3771887750127	15.7113280397982	
2406666666.66667	-17.4384019117413	156.552545224597	-9.0530000338666	56.7192923025358	-45.911102696488	43.4359467715733	-23.4650006715262	15.6952603152131	
2407000000	-17.4471039403679	155.333004872622	-9.05850016822	54.4033351071808	-45.9915280242442	40.0997125319336	-23.5254343329442	15.4373247472951	
2407333333.33334	-17.46575740979	153.870178599932	-9.07080789269927	52.0616893669892	-46.0925721950439	39.7002404837074	-23.6155113906737	15.1360761826393	
2407666666.66667	-17.4729326907224	152.646512310959	-9.0733549591183	49.7531830173225	-46.3156182633043	35.6995428183191	-23.7063180179493	14.9017251497238	
2408000000	-17.4754278209458	151.152207869996	-9.08071816262085	47.4404581494351	-45.8980823136551	33.8442694718397	-23.7818252291516	14.5917852623563	
2408333333.33334	-17.4697603007192	149.74605439532	-9.08712741893261	45.0964704229817	-45.8756573540486	31.1229264964818	-23.8448119177864	14.5174427128817	
2408666666.66667	-17.4589187628523	148.352203111144	-9.09041795470963	42.7862978114514	-46.0580435998148	30.4447265544391	-23.9644590197356	13.8297611831157	
2409000000	-17.4573393060205	146.903244577283	-9.10208301495685	40.4633961394403	-46.1095448195105	26.5440935246635	-23.9966322698802	13.5320544717057	
2409333333.33334	-17.4473811283378	145.461262192237	-9.10881014162194	38.2175185980104	-45.893532330173	24.0020157424398	-24.0911530362227	13.2176047058987	
2409666666.66667	-17.4359531147072	144.061212949559	-9.11817672343725	35.916323547837	-46.2529676266847	21.4315256899728	-24.194384027656	12.4739482350358	
2410000000	-17.3966633571884	142.662693459521	-9.12758725652505	33.6152181153881	-46.0478381949133	19.9157384598406	-24.2774579109927	11.977960358861	
2410333333.33334	-17.3713368634368	141.232301771201	-9.13378060807035	31.3157428622224	-46.0460147658982	17.7074832700898	-24.3499973333479	11.4268576861867	
2410666666.66667	-17.3463269532691	139.900665501425	-9.14319266385972	29.0182259091526	-46.1896070924821	15.5697963600484	-24.4077470670337	10.6195228806164	
2411000000.00001	-17.297433005634	138.559481631012	-9.15353277341714	26.735219117428	-46.1402662571958	12.9779805375713	-24.5141317773988	9.85662527170976	
2411333333.33334	-17.2616092843047	137.216065420227	-9.16537990730187	24.4533035032133	-46.0710566580923	10.459136834381	-24.6006380958195	8.93303384822819	
2411666666.66667	-17.1927842173799	135.753864110273	-9.17886793438905	22.1730126704036	-46.0771636461828	8.70043912275	-24.6535696910696	8.07427451035362	
2412000000.00001	-17.1678157030754	134.387875788754	-9.18986172554285	19.9098559366143	-46.2979342487876	5.96236473346955	-24.74082378115	7.29512657800608	
2412333333.33334	-17.0983389661574	133.03937377151	-9.20172513139976	17.635744085485	-46.1478927127045	3.6151955162735	-24.7811111398339	6.40689022964778	
2412666666.66667	-17.045610234608	131.75117824036	-9.21297984161852	15.3662579265883	-46.2183652299077	0.637742122650492	-24.8717263962768	5.14941905966472	
2413000000.00001	-16.9712552583071	130.489443204488	-9.22510465243377	13.1228593725306	-46.4710479243401	-1.78205634362809	-24.9757025770848	3.97815577699708	
2413333333.33334	-16.8988975473846	129.113632394549	-9.23728253646513	10.9049793258564	-46.1127442256684	-2.16177463195802	-25.02833198734	2.9210515086509	
2413666666.66667	-16.8248657886743	127.909715099269	-9.2512471774018	8.6365177622229	-46.1133684601803	-3.56104579852695	-25.0978078852866	1.73556316740517	
2414000000.00001	-16.7638963501034	126.630663986538	-9.26838265312117	6.37078613777504	-46.2658418562499	-7.38217474377514	-25.1644132578528	0.277680753578473	
2414333333.33334	-16.6849908872991	125.383706943973	-9.27423351500539	4.12479994828644	-46.3086860161714	-8.19278624741853	-25.2206320416363	-0.789898931754959	
2414666666.66667	-16.5843230681374	124.163358203465	-9.29327616363709	1.90973778318826	-46.2689699554676	-9.98415328143348	-25.2682215376668	-2.4450458878632	
2415000000.00001	-16.4949396525353	123.023575607488	-9.3048302132016	-0.341038779923543	-46.2283596029688	-13.3511000137293	-25.307910071181	-3.72664504263211	
2415333333.33334	-16.4126481173274	121.847112425373	-9.3120155059471	-2.58603073901074	-46.3468624969326	-15.4291074626165	-25.3823230154139	-5.32563128085203	
2415666666.66667	-16.320736858642	120.731465596778	-9.32842074385228	-4.78841472302147	-46.2106286873394	-19.1813802015473	-25.4089761567607	-6.80864274991833	
2416000000.00001	-16.2322715929935	119.636039496731	-9.3419530281482	-7.02404734540567	-46.1096141648284	-19.726472727352	-25.4791026260062	-8.52604062707193	
2416333333.33334	-16.1357907126115	118.539408766006	-9.35345754939072	-9.23151433083535	-46.2055297877757	-23.7755252894028	-25.4760692937364	-9.95119537392419	
2416666666.66667	-16.0506977108246	117.412464371053	-9.36935085283862	-11.4502185459205	-46.4064428054152	-26.209264305858	-25.496629451233	-11.7214802993006	
2417000000.00001	-15.9523288281826	116.431315853685	-9.37842053449803	-13.6828289661466	-46.1824375946194	-27.8988622320955	-25.5252090259598	-13.5098214101161	
2417333333.33334	-15.8646210473867	115.469633672435	-9.39272638299956	-15.9341947179625	-46.1072884711	-29.8800543751729	-25.5459903370526	-15.2190648746112	
2417666666.66668	-15.7548796392284	114.404012671722	-9.40313731876907	-18.132150299459	-45.9211815645779	-30.5730998583023	-25.5456686853353	-16.7943046094931	
2418000000.00001	-15.6716349057152	113.502405389309	-9.41638292740002	-20.3584822758873	-46.184540159838	-32.9988364134761	-25.550746723538	-18.7145252001189	
2418333333.33334	-15.5666391748639	112.492290387147	-9.4234273614116	-22.553955253007	-46.1448426374159	-36.4872819763214	-25.5541632421552	-20.4286735455798	
2418666666.66668	-15.4740098010186	111.56306540518	-9.43703407503958	-24.7670658758713	-46.1170322987227	-39.1317677909154	-25.5617337054897	-22.0165685747245	
2419000000.00001	-15.3762158631255	110.711146357134	-9.44896911209281	-26.9623161228487	-46.3765759155932	-40.6939646006031	-25.5641099032639	-24.0259613462882	
2419333333.33334	-15.2940248424288	109.805410898635	-9.45664621366074	-29.1866724993735	-46.3328803576329	-42.6170669155048	-25.5337118744727	-26.0173170898322	
2419666666.66668	-15.1961287329207	108.987953665852	-9.46706066415833	-31.4295765480697	-46.3231103418085	-44.3214909479206	-25.5301040177716	-27.5633530652015	
2420000000.00001	-15.1078540410868	108.15919413097	-9.47495247178464	-33.6509249820187	-46.3284317436027	-47.8409716590061	-25.455281694668	-29.5112954198367	
2420333333.33334	-15.0102196209501	107.380347675852	-9.48143575437121	-35.8716489312668	-46.0891813151152	-49.5194075483435	-25.4533947924889	-31.0744687663977	
2420666666.66668	-14.9382052412717	106.575081945794	-9.48944200205486	-38.0931993642723	-46.2987895632992	-52.7319383067033	-25.4116689695361	-32.9193883021624	
2421000000.00001	-14.8471071591854	105.855381353718	-9.49952248264584	-40.3453568886968	-46.1436462610717	-54.2541853952364	-25.3879041796937	-34.7449905363806	
2421333333.33334	-14.7598761314076	105.103291700528	-9.50266561420495	-42.5446366666013	-46.3443866991824	-55.8347061179929	-25.3273376752066	-36.2841066985183	
2421666666.66668	-14.6797649816677	104.392948765341	-9.50361546417053	-44.7649664359152	-46.3459682985518	-57.7055829663927	-25.260726291429	-38.0796160161878	
2422000000.00001	-14.5964262483644	103.679155235555	-9.51604084719812	-47.0179941834309	-46.3247627085543	-62.2292472310708	-25.2575195731191	-39.7406431773936	
2422333333.33334	-14.5163856213805	102.949365530786	-9.51885922986897	-49.2705227999739	-46.4655532556126	-63.6062352119072	-25.1864972728868	-41.5257460780063	
2422666666.66668	-14.432748843188	102.288817691382	-9.52858856284242	-51.5286280966001	-46.3973834821612	-63.5138133193602	-25.1473939103042	-43.0530613595567	
2423000000.00001	-14.3617225853857	101.686814027154	-9.53305751397165	-53.7687936160964	-46.3854402309102	-66.4180261603531	-25.1254782006641	-44.7343836171088	
2423333333.33334	-14.2979123795786	101.038367850173	-9.535082351532	-56.0133253790382	-46.1814168514366	-71.336529703448	-25.0740473907299	-46.1022561604986	
2423666666.66668	-14.2199442718464	100.438997970877	-9.53554186501926	-58.2603585064246	-46.4843700389069	-72.6387197150141	-25.036318163415	-47.5285278839409	
2424000000.00001	-14.154622586258	99.835738981661	-9.54290494032205	-60.4839113352944	-46.4563298250653	-73.7489348332558	-24.976620528519	-49.2127119563364	
2424333333.33334	-14.0945205109927	99.2661667449365	-9.54572241517105	-62.7471078938383	-46.2468630348179	-76.9711139836258	-24.9263196525538	-50.5885000157366	
2424666666.66668	-14.0380558358542	98.6545562528225	-9.54589418614123	-65.022191642222	-46.2937859646727	-78.7061817022514	-24.9043066156222	-51.9394902667634	
2425000000.00001	-13.975804993157	98.179592589315	-9.54738323902033	-67.303884927575	-46.3055108393417	-80.5723271240214	-24.8908624086836	-53.3217586814782	
2425333333.33335	-13.9262529116742	97.6129685895255	-9.56118383434728	-69.5716271398991	-46.3981970364051	-84.7148993894187	-24.8979655520563	-54.520695254218	
2425666666.66668	-13.8649616468019	97.1171838894188	-9.55132853993334	-71.8693712367978	-46.3090838521135	-87.0123221756959	-24.8367188032737	-55.8833388334574	
2426000000.00001	-13.820155470982	96.6472056711103	-9.55509034306199	-74.1378205734433	-46.5323619770973	-88.169965869431	-24.8116638189516	-57.1288516159494	
2426333333.33335	-13.7659952329384	96.2057722864825	-9.56109188234738	-76.4489185663533	-46.3264148855618	-91.9360419714001	-24.80536563306	-58.2915321636154	
2426666666.66668	-13.7320536842289	95.723577345412	-9.56348059182862	-78.7129509866102	-46.2308128331365	-93.2165121986859	-24.8149488055896	-59.6195583332136	
2427000000.00001	-13.6785909426357	95.3580192291067	-9.5647947614908	-80.9747591980304	-46.3279264846557	-97.3313566668705	-24.8329524165454	-60.6198610806034	
2427333333.33335	-13.6348571847849	94.9461927242163	-9.56655881594095	-83.2907052742598	-46.4370347192748	-98.949721748725	-24.8152936332442	-61.6309988962982	
2427666666.66668	-13.5990556027115	94.5057859572666	-9.57229612388362	-85.5779488004903	-46.2836812184681	-99.2716454439707	-24.8599139939639	-62.8423467297997	
2428000000.00001	-13.5567946463791	94.1936863974649	-9.57190271022506	-87.8723732527462	-46.352770767942	-101.568390754051	-24.846011051895	-63.889819065802	
2428333333.33335	-13.5294693636425	93.7817446385046	-9.57882215474431	-90.163016171853	-46.5136987495856	-104.237709580203	-24.9059157026485	-65.0037685792259	
2428666666.66668	-13.4889509629495	93.506892411614	-9.57751661100208	-92.4446589453546	-46.2590840853964	-106.610014293875	-24.937648655875	-65.766436348453	
2429000000.00001	-13.4613248017182	93.1155234664369	-9.58167001302656	-94.708736719776	-46.3970184601937	-108.959601221515	-24.9853465718789	-66.6422183319921	
2429333333.33335	-13.4344472219988	92.8634012371185	-9.58352348839124	-97.0070435507949	-46.2003772361582	-111.595001395918	-25.0796755362505	-67.3953718616557	
2429666666.66668	-13.4041035221198	92.5219924643915	-9.58824633139418	-99.2833114983857	-46.3843515940808	-111.838644118413	-25.1162249075197	-68.4804762908746	
2430000000.00001	-13.3727306719396	92.2653734509848	-9.58747265800494	-101.584190633679	-46.5817556513727	-114.778770872452	-25.2337223831902	-69.1273271974629	
2430333333.33335	-13.350580236723	92.0141302756285	-9.58881953982782	-103.885260399267	-46.4590300181111	-118.433209159791	-25.2880535558507	-69.8305355919268	
2430666666.66668	-13.3232973889029	91.7522478937695	-9.59272820428978	-106.134206776679	-46.0750209386724	-119.29922082698	-25.4159769908267	-70.5568210665386	
2431000000.00001	-13.3062407288001	91.5109929322461	-9.59806369548493	-108.407794432342	-46.4763314585038	-122.092953984748	-25.5457880937632	-71.2487734898668	
2431333333.33335	-13.2792466009586	91.2355890135033	-9.59936275543504	-110.741060024758	-46.6023925371663	-124.061650185033	-25.6680298491116	-71.7018523149053	
2431666666.66668	-13.2602442446351	91.0655918159267	-9.59806870336672	-112.983894273133	-46.600430219185	-126.366590880201	-25.8021722711961	-72.4498789769938	
2432000000.00002	-13.2434342065811	90.7531160696067	-9.60227430109496	-115.262026508756	-46.4653150427789	-130.218773434935	-26.0028551694699	-72.9280155877194	
2432333333.33335	-13.2316864421849	90.5577260431425	-9.60390542649812	-117.527630451532	-46.4129220383196	-130.793864160692	-26.1685881663128	-73.2282890639237	
2432666666.66668	-13.2070706733438	90.3315354109513	-9.6078121532363	-119.768570555362	-46.469837839469	-132.609592838771	-26.3503728439152	-73.6541346580473	
2433000000.00002	-13.1891339472559	90.111190840084	-9.60643419680076	-122.081498940203	-46.3916956270161	-136.241166305003	-26.5762417154081	-73.9492077149169	
2433333333.33335	-13.1774887262777	89.9343925404743	-9.60915974577789	-124.327627425976	-46.4863986504537	-136.364784374289	-26.8149492532832	-74.4269992649265	
2433666666.66668	-13.1626053688336	89.6803242158227	-9.61603341994375	-126.603220209342	-46.244028543456	-141.920181822817	-27.0484002221158	-74.5380704007744	
2434000000.00002	-13.1459863517949	89.4966529378501	-9.6139155476128	-128.867928945395	-46.4938095594692	-142.875102553278	-27.3307834678271	-74.8546039205753	
2434333333.33335	-13.1372068142344	89.2349331284185	-9.61689419349885	-131.133952607234	-46.2938685570173	-144.094492167261	-27.6080942120151	-74.8889759071464	
2434666666.66668	-13.1202139738673	89.0263828103942	-9.61781422430376	-133.386095927383	-46.5183782795941	-146.990840380357	-27.9142680447614	-74.4592586318575	
2435000000.00002	-13.1061264802889	88.8192323989098	-9.61972675655274	-135.636837172765	-46.4421611605848	-149.469667923106	-28.2765412062203	-74.2882079738057	
2435333333.33335	-13.10714311992	88.5617048492431	-9.61715361553395	-137.93375445838	-46.4324031904704	-151.554897779555	-28.5922649854703	-74.0226662861164	
2435666666.66668	-13.0782437934713	88.4136195525323	-9.62028544135804	-140.191757917616	-46.5988541390122	-153.980413885231	-28.9653146959402	-73.1414027197298	
2436000000.00002	-13.0746872850245	88.1536977361634	-9.6207826906096	-142.421097546223	-46.3857693535099	-154.949469797729	-29.4363553443016	-72.3489734579422	
2436333333.33335	-13.066546822487	87.8727656490277	-9.61979115666619	-144.668634652462	-46.5268226521766	-159.04688801287	-29.8366245391368	-71.5769002778933	
2436666666.66668	-13.0654547395083	87.5636874070364	-9.62051167633255	-146.930465379745	-46.7868447028095	-162.308263538157	-30.2698096505104	-70.5722736666931	
2437000000.00002	-13.0517843961969	87.3660392416037	-9.6166286117	-149.202069060802	-46.71084730183	-162.208277292366	-30.7752430771021	-69.0344343247751	
2437333333.33335	-13.0428740784809	87.1753224484526	-9.62011356456535	-151.435274178163	-46.3404669003934	-164.136784264208	-31.2930338521141	-66.7924141652662	
2437666666.66668	-13.0554014846128	86.8152524154173	-9.62330549287805	-153.666941821577	-46.3419207241896	-168.115548690696	-31.9470922096506	-64.4816154389908	
2438000000.00002	-13.054441343837	86.6609517480503	-9.61763261873948	-155.917679433191	-46.6607866528418	-168.711022679728	-32.4545016431029	-61.5145857352345	
2438333333.33335	-13.046877274713	86.3248085128666	-9.61184168429233	-158.189467732036	-46.4544694404947	-172.483396406469	-33.0249186323629	-57.7865525006347	
2438666666.66669	-13.0249274887083	86.0134884413585	-9.61269866048151	-160.387422597289	-46.5947357215649	-172.781278379765	-33.6397389360758	-53.5510106393434	
2439000000.00002	-13.0247491483172	85.800778858861	-9.61665843490109	-162.629743727433	-46.5562620327699	-175.759890014274	-34.2258481341245	-49.6022784746989	
2439333333.33335	-13.0415128087448	85.491214777553	-9.62026899717767	-164.87822438608	-46.2838350568598	-177.752587234613	-34.55376069139	-43.6486431709968	
2439666666.66669	-13.0414363777897	85.2136816077865	-9.61108618542678	-167.136304598494	-46.428493817277	179.845778109392	-35.0804854183456	-36.5962661635757	
2440000000.00002	-13.025759431676	84.9560114990031	-9.6126501998704	-169.327429140937	-46.4816006443689	178.073557085452	-35.3185522541406	-29.8765212627388	
2440333333.33335	-13.0407611684989	84.4682946556971	-9.61638442334346	-171.602484868163	-46.5415657954445	175.59317242284	-35.4783292391236	-21.4582802181621	
2440666666.66669	-13.0481587178481	84.2844575374201	-9.59556815503944	-173.840949050504	-46.5812734288828	173.897044089816	-35.2210188337003	-13.0360147223682	
2441000000.00002	-13.0560606719612	83.9389087672512	-9.59770533897789	-176.046387433401	-46.6649438958457	170.651935891117	-35.0375819566354	-7.25186360822495	
2441333333.33335	-13.0513406509845	83.5430762897465	-9.59277689695936	-178.333838366314	-46.4529189115436	167.535840876075	-34.476090809707	0.937201904004183	
2441666666.66669	-13.0633057985069	83.112521259199	-9.58749391944004	179.425097149549	-46.5091543426599	166.736403072115	-33.8814877889332	6.27251761508819	
2442000000.00002	-13.0894371974959	82.8687679798643	-9.59035357010065	177.196869118909	-46.5473022398545	161.871080934051	-33.3857060339014	11.9198164669157	
2442333333.33335	-13.0912952422027	82.514476686818	-9.58514924068661	174.945542268511	-46.2962680374932	161.476745264615	-32.736440001244	16.4044997431526	
2442666666.66669	-13.1026288598533	82.0994084186798	-9.57922232464805	172.73733351184	-46.1384853742163	157.964467891984	-31.9637706889809	20.649963371855	
2443000000.00002	-13.1157082813701	81.7446766488088	-9.57117065246613	170.502806854507	-46.3316407864465	157.78542046002	-31.2993114329933	23.3553912162551	
2443333333.33335	-13.1438810560741	81.3524104997836	-9.57182766106481	168.243492853379	-46.6083103355611	156.220452298064	-30.6964293438051	25.902844101824	
2443666666.66669	-13.1651142257444	81.0386652437848	-9.56659898854022	166.038269594344	-46.5245047790691	154.571084411408	-29.9992291159046	27.6709736716743	
2444000000.00002	-13.1844308308961	80.5209592257525	-9.5653319794642	163.743287738027	-46.3446049609318	149.209376604189	-29.447074289919	29.4491376852659	
2444333333.33335	-13.1974685018773	80.0315307632299	-9.55609241540656	161.450418188137	-46.7196230874026	149.350774192263	-28.8418803118552	30.9826112786204	
2444666666.66669	-13.2303022518606	79.6996215947903	-9.55257357431841	159.251636048152	-46.5948275898822	147.025266509512	-28.3671681024367	32.0314312185628	
2445000000.00002	-13.2611928784262	79.2371191081977	-9.55009027814728	157.007367781491	-46.3367142666514	142.805559755836	-27.8417190240162	33.1988704902987	
2445333333.33335	-13.2777390432043	78.8328087572883	-9.54132645907691	154.74889115048	-46.5332454368879	140.752255027705	-27.3382204848033	34.1311192404504	
2445666666.66669	-13.3053981846514	78.3733785195119	-9.53518966963088	152.508637243493	-46.4945752682494	141.190430351589	-26.909850256636	34.516327111333	
2446000000.00002	-13.33306996795	77.8018822795238	-9.53326728365036	150.24417621105	-46.5093506152107	136.899316744729	-26.4339106712141	35.2743151778842	
2446333333.33336	-13.373139251686	77.4775370630431	-9.52654710442496	147.978451770586	-46.452264435895	134.271508115725	-26.0431649830542	35.5525441202615	
2446666666.66669	-13.3912731584222	76.9300427800454	-9.52433582808231	145.72284938199	-46.4859123684755	133.383429968816	-25.6809992664609	35.6845403596285	
2447000000.00002	-13.43289794793	76.4265817658152	-9.51960868417503	143.470064433224	-46.2866708297905	130.176771273792	-25.2691249084388	35.8230826446148	
2447333333.33336	-13.4677692390243	75.974590954688	-9.51378043779135	141.243662739761	-46.4093481334369	128.238118117649	-24.9635103912196	35.7528130181677	
2447666666.66669	-13.5070922569733	75.5141921950143	-9.50400773977223	138.937713538053	-46.5615332681961	127.347644116444	-24.6469795332001	36.0910664355193	
2448000000.00002	-13.5318463480809	75.0393133972738	-9.50675076137381	136.69498758899	-46.5053844689526	123.028187916508	-24.3564733973253	35.9968594534634	
2448333333.33336	-13.5642924881163	74.5133654235808	-9.497975290518	134.453409461056	-46.4184403366178	124.017958908572	-24.0823058462181	35.8277209790499	
2448666666.66669	-13.5784011128574	74.0178036175555	-9.49208684555534	132.196053383176	-46.63146276053	120.193687987993	-23.8030430212211	35.6892832642205	
2449000000.00002	-13.621585675677	73.5278094457204	-9.49031326077498	129.920639853038	-46.6034822622145	116.779520203747	-23.5067351289496	35.6882783099628	
2449333333.33336	-13.6581564188239	72.8639108718198	-9.48845164751256	127.668260430984	-46.5688834036855	114.556189972409	-23.2748761458271	35.6329040028251	
2449666666.66669	-13.6863218511976	72.3576283199709	-9.48424535818983	125.378092562114	-46.2861606393802	112.688781340054	-23.0650563212886	35.3390102035975	
2450000000.00002	-13.7109218067828	71.8546215866251	-9.47258645955	123.129898302228	-46.2590332726234	110.506177899434	-22.8546740509847	34.9558344843917	
2450333333.33336	-13.762452596958	71.2641315723337	-9.47241430540235	120.863992267394	-46.4623576824687	107.630437382394	-22.6571010014639	34.5745968846219	
2450666666.66669	-13.7827904577767	70.6475396661882	-9.46408819289815	118.619853193045	-46.6101221232647	107.251872141111	-22.4564188535464	34.4531372235442	
2451000000.00002	-13.8199804102507	70.1313522141354	-9.46182541161672	116.32251669923	-46.405654026623	103.597629323179	-22.3008840771182	34.0723006374943	
2451333333.33336	-13.8506335870789	69.5039275304369	-9.45023067174212	114.073599603871	-46.2578501698653	102.988743435781	-22.1195125302726	33.7043822715021	
2451666666.66669	-13.888267081573	69.0652945595615	-9.45242370744506	111.779250285136	-46.4939896778545	100.241497573045	-22.033746126672	33.3286311581884	
2452000000.00002	-13.9133407478112	68.4117714322965	-9.45676901702715	109.501447289181	-46.3199752372162	97.125009932948	-21.8378756912892	32.9419039238272	
2452333333.33336	-13.9277048610229	67.8008547389452	-9.45270035473061	107.304557537225	-46.5045765434719	95.1935442473334	-21.711727525617	32.6052026703067	
2452666666.66669	-13.9687907740758	67.2524663953798	-9.44597539422807	105.00270403851	-46.2601385279801	93.3247131160399	-21.6168081948756	32.2194861699556	
2453000000.00003	-13.9940628788312	66.6573527987852	-9.45307294999679	102.766289447181	-46.4458524044207	92.5668334064613	-21.5399841034614	31.5346683714128	
2453333333.33336	-14.0097044882148	66.0861762805108	-9.45338247453975	100.472270498522	-46.3443907710707	88.7909518053444	-21.4147796242094	31.3179092351545	
2453666666.66669	-14.0312732141025	65.5164440476102	-9.43890652084508	98.2685807423345	-46.5711603567886	86.8653763608429	-21.3430719930685	30.8123524750063	
2454000000.00003	-14.0448050099411	64.8591793137437	-9.44713172491689	95.9852179778139	-46.1789905548745	85.3679238258736	-21.2771968856311	30.5534218174407	
2454333333.33336	-14.0680406089509	64.1693723314318	-9.44801473082683	93.6887651772538	-46.4396259252646	81.6596044120887	-21.1884664036424	29.9293600867844	
2454666666.66669	-14.0700914205268	63.7767641477144	-9.43496114488634	91.4671784568255	-46.2770605334852	80.9618085952118	-21.1484612237224	29.6232496408711	
2455000000.00003	-14.0861235942692	63.0173742807685	-9.43814955096042	89.2361644457045	-46.2211776664581	76.8998469715059	-21.1041698492602	29.156304536674	
2455333333.33336	-14.0887102387974	62.5846075756549	-9.43905688402142	86.9795559102972	-46.3591629190972	76.0125363660177	-21.0682084913186	28.6786280155031	
2455666666.66669	-14.0940925834758	61.8718331827699	-9.43299701164964	84.7682183537425	-46.0141136300545	73.0063150791254	-21.0706633823961	28.2587822565106	
2456000000.00003	-14.1025547269975	61.2474580483225	-9.43436927302426	82.5613510701281	-46.213658369237	70.8898759626982	-21.0276911220919	27.742566869293	
2456333333.33336	-14.1043384075964	60.687767195087	-9.43603308455737	80.2609255919781	-46.2287299890922	68.8685147623077	-21.0320772335485	27.4224712469435	
2456666666.66669	-14.103993533049	60.1281024368762	-9.43358927790895	78.0665138865349	-46.4928556026318	66.9298170131486	-21.0286331952256	26.9837666786521	
2457000000.00003	-14.0926759290209	59.5602498656373	-9.43800617456562	75.8148263534015	-46.4427133793533	63.7350848981937	-21.0259654049318	26.2312874730871	
2457333333.33336	-14.0930516784099	59.0272118253976	-9.42935835858357	73.568810738455	-46.2472954873456	62.2811485781916	-21.0686116319171	25.8944182003831	
2457666666.66669	-14.0741581669269	58.3287974869759	-9.42893522716469	71.3210415547791	-46.3144095502492	59.293250449267	-21.0695185112941	25.3941555858091	
2458000000.00003	-14.0574570149727	57.7615773415967	-9.42946491251784	69.0664967915855	-46.3923129944944	56.6177112236941	-21.0903492680994	24.9519268193397	
2458333333.33336	-14.0464685104583	57.1519738244075	-9.43723154626794	66.8456069913495	-46.5083134846674	56.1511916656904	-21.1441337078092	24.4683567398557	
2458666666.66669	-14.0260291027543	56.5834979792171	-9.43232090248847	64.5393343686353	-46.2117433565556	53.0926422005701	-21.1678570356316	24.0644079739033	
2459000000.00003	-14.0174198364198	56.048673313247	-9.42794419059383	62.3451231475293	-46.4790023602306	50.4496051803257	-21.2662142210139	23.4619802293342	
2459333333.33336	-13.9737611645786	55.4537747929816	-9.42708258963567	60.0886505285052	-46.243898071119	47.8536517347205	-21.3384262676504	23.0972175228459	
2459666666.6667	-13.964154216876	54.8475023836832	-9.42834156465334	57.8637549123959	-46.3094510344752	45.3473818061556	-21.4272903660402	22.6693278161135	
2460000000.00003	-13.9353535830369	54.3960214957368	-9.43444301329816	55.5957455890468	-46.0080542444088	43.2387363440887	-21.4956521831266	21.9640839649014	
2460333333.33336	-13.9051861937178	53.7390720081762	-9.43016589870201	53.3367346736195	-46.1718994274429	41.3975313603289	-21.5986824337519	21.6037135923842	
2460666666.6667	-13.8817887454141	53.162988364629	-9.43218718121457	51.1136908214054	-46.3457232986506	39.7012983683582	-21.6920001843315	21.0149787900396	
2461000000.00003	-13.847537441949	52.6292778730413	-9.43115798596201	48.8312560417722	-46.1742141503411	36.451328535584	-21.8105350207831	20.6725357146854	
2461333333.33336	-13.8057838393357	52.1031766992429	-9.42649302715317	46.5502436147994	-46.2821962061549	33.9826260059056	-21.8898523676626	20.3707492371753	
2461666666.6667	-13.7725386709904	51.4594498104876	-9.43112529817039	44.3434441825703	-46.3019191135561	32.5414513847697	-22.0258314116266	19.6991117631005	
2462000000.00003	-13.7288837784925	50.97699911181	-9.43297758917509	42.0724913721708	-46.033341285046	29.5495254548269	-22.1944918971482	19.3036676693055	
2462333333.33336	-13.6980461655038	50.4389244417915	-9.43059727351518	39.7608703004963	-46.1284462012144	25.4217504746312	-22.3236311215279	18.6635853481723	
2462666666.6667	-13.6405209707249	49.8983976206601	-9.42935713924161	37.4897952526261	-46.5477139084449	23.1834043924904	-22.4768512912385	18.4296574090714	
2463000000.00003	-13.5953678592395	49.4025371003019	-9.431208152014	35.2135574747245	-46.1714353673828	22.056928483273	-22.6268847974775	17.8490732339781	
2463333333.33336	-13.550769919176	48.8283855800817	-9.43628086079934	32.9395110300896	-46.0522444194921	22.399014043194	-22.793076910736	17.5650891003751	
2463666666.6667	-13.5068786173307	48.3285799137636	-9.43406647493067	30.6862685429492	-46.3738523497301	18.6314922401595	-22.9700824993139	17.1186241561708	
2464000000.00003	-13.4506345172151	47.7835746775415	-9.43310321468542	28.390591201925	-46.3333358666718	14.8423178045392	-23.1627618751737	16.5863207041888	
2464333333.33336	-13.4097389356513	47.2740810910751	-9.43552047714738	26.1059752756098	-45.9563543881435	13.288198046061	-23.3356127725008	15.9973352907318	
2464666666.6667	-13.3457481371208	46.8064762947889	-9.43998066734303	23.8186084004594	-46.1856398982837	11.094917012656	-23.538728442528	15.6314880643672	
2465000000.00003	-13.2868500259246	46.2934107603706	-9.4434189129902	21.5492141923483	-45.9882412466723	8.41529315135151	-23.7418002234071	15.2614462753173	
2465333333.33336	-13.2335677553721	45.8469549525503	-9.43458095264828	19.2499931893945	-45.9875269827723	6.83227643109671	-23.937052414874	14.8863760937288	
2465666666.6667	-13.1780999207209	45.3469511372572	-9.44279565989457	16.9420300625188	-46.0768201108698	3.47463616926356	-24.1971741164786	14.4965253914886	
2466000000.00003	-13.1308353022876	44.8705132859867	-9.44419325886164	14.6748717853085	-46.0737156188026	0.844501285754363	-24.4393705812279	14.1204318339338	
2466333333.33336	-13.0653442575975	44.4529423413635	-9.44497932513337	12.370425746343	-46.2756462511535	-0.714761558920644	-24.6193401257283	13.8474584859289	
2466666666.6667	-13.0120624980554	43.9347388713971	-9.44219774755466	10.0967776816225	-46.0454202250048	-3.97761995933504	-24.9213698598384	13.3147894768066	
2467000000.00003	-12.957894653304	43.470672835818	-9.45149924347626	7.79373856394824	-45.9116014915299	-6.3241172264306	-25.162423359637	12.8242835919672	
2467333333.33337	-12.8954641308464	43.0447538526934	-9.44892749340602	5.51045366279704	-46.343631932441	-7.98684734490375	-25.4384222358112	12.5255500360246	
2467666666.6667	-12.8306736956546	42.6437904363252	-9.44856722031712	3.19864538385509	-46.2470319389569	-9.87520873253678	-25.6726198957894	12.2272745832935	
2468000000.00003	-12.7639935601876	42.2419224212036	-9.45088999362332	0.898459836438208	-46.154444572894	-12.1289966181242	-25.9784869724225	11.767258887951	
2468333333.33337	-12.7072932580238	41.7908201392538	-9.45613270708277	-1.37772092661846	-46.1152413791665	-16.0294635277826	-26.2762098156068	11.4865835884208	
2468666666.6667	-12.6487361682283	41.3416111670258	-9.4521987970542	-3.69882376701386	-46.0337763753311	-17.2955097981265	-26.5765596484124	11.0148744569303	
2469000000.00003	-12.576713211233	40.9505194598044	-9.46560098614592	-6.03305803613954	-46.020339114965	-19.2700375749447	-26.857342973418	10.9843520782239	
2469333333.33337	-12.5193489096216	40.5724245946311	-9.47135778386819	-8.344455862987	-46.0510081882766	-21.3664478691345	-27.1851546700742	10.6506857378436	
2469666666.6667	-12.457321793341	40.2165036619772	-9.47100814043788	-10.6716951359571	-46.219780992988	-24.9118334183825	-27.6084804284433	10.0392866772267	
2470000000.00003	-12.385221717343	39.8225937594512	-9.47710316277549	-12.9293923338575	-46.211224650925	-27.5543477006137	-27.8449783105361	9.85150089971082	
2470333333.33337	-12.3322183106843	39.4382396518744	-9.47672470222004	-15.2933020288076	-46.2158251385716	-29.0217277500673	-28.2636212134673	9.53604080750635	
2470666666.6667	-12.2627695783105	39.0811086812026	-9.48314026742738	-17.597011650777	-46.3305643922366	-29.1682512328695	-28.5049031521433	9.26017635479055	
2471000000.00003	-12.2021167231519	38.7032808000485	-9.48972461437556	-19.9454255953874	-46.1715805275673	-34.152924687314	-28.9539898024228	8.98011268372169	
2471333333.33337	-12.1378163035726	38.3353716458288	-9.48661947397728	-22.2693965949167	-45.8630609226714	-38.8785940161759	-29.3508303124946	8.38313444247507	
2471666666.6667	-12.0766111046938	38.0753074132633	-9.49180100885798	-24.5759503627639	-46.1901246978452	-37.5976527147032	-29.7146870806056	8.49818388752485	
2472000000.00003	-12.0206543773948	37.6800831821714	-9.49938735729112	-26.9131651203311	-46.1730393975354	-38.2963835264283	-30.1187708825787	8.22845175406299	
2472333333.33337	-11.9575786352223	37.2859595136009	-9.49822871768399	-29.2641184722312	-46.0754418342943	-43.1843506311027	-30.5280377742156	8.15670697793311	
2472666666.6667	-11.89882975313	37.0512932312184	-9.50910944163749	-31.5923422832155	-46.024842037749	-44.8774994546695	-30.8900787163504	7.74824534625432	
2473000000.00003	-11.8393221034958	36.6829923364362	-9.51393911709978	-33.9656423200527	-46.0005789961792	-46.9662880613166	-31.3255051872207	7.76119448941549	
2473333333.33337	-11.7805888933093	36.3569055197933	-9.5195938166823	-36.300464847659	-46.0245831135113	-48.8989692770611	-31.7866004867076	8.08896937370623	
2473666666.6667	-11.7226823776642	36.0359466456203	-9.51903446652598	-38.6548464277675	-45.9979464771819	-52.7734309825724	-32.2126201674346	7.20279977576222	
2474000000.00004	-11.6737524845998	35.6927945546422	-9.52766251703654	-40.9812571775229	-46.1277482003056	-53.9488424329087	-32.61696056508	7.5217054670699	
2474333333.33337	-11.6144094038471	35.3813624055337	-9.53574325116083	-43.3303855793635	-46.2878547364479	-56.7887219378557	-33.0694172710368	6.88812407580283	
2474666666.6667	-11.5572616515338	35.0611565482791	-9.53655069259348	-45.692153223967	-46.168809209808	-59.1307459414374	-33.4772534084097	7.25240123986369	
2475000000.00004	-11.4978278199365	34.7652219540875	-9.54461996698796	-48.011864008854	-45.9639539618744	-61.8087225437743	-33.9580862535517	7.5395392935564	
2475333333.33337	-11.4562293352497	34.4192189948165	-9.54891111121256	-50.3857832278176	-46.1265489509934	-61.923465019978	-34.4122357654876	7.26799433039282	
2475666666.6667	-11.3899036627291	34.1120123552483	-9.55224398268141	-52.7035640879856	-46.1799696278672	-65.0322666415675	-34.8766421461516	7.90967979613862	
2476000000.00004	-11.3557421039005	33.8010066174224	-9.56373178560633	-55.0538710152154	-46.2484756647069	-68.7511898209911	-35.3339484316854	6.76083202822686	
2476333333.33337	-11.3040451402406	33.502659712158	-9.56697144961396	-57.3815347756208	-45.9036763080586	-71.4432347422044	-35.7285419676591	7.73178992951658	
2476666666.6667	-11.2631052711711	33.1624655080176	-9.57420196817258	-59.7601674586206	-46.1460263850994	-72.9086055446934	-36.2615448204841	7.829813634459	
2477000000.00004	-11.2119287890868	32.8583393051526	-9.57415616062498	-62.0763073143803	-45.9473932292753	-74.967910768728	-36.7163360174481	8.50720417244608	
2477333333.33337	-11.1675536921984	32.4878659825652	-9.58665853149869	-64.4199314590931	-45.9135927200838	-77.1509439774757	-37.1743031033403	8.8900939249644	
2477666666.6667	-11.1175443942909	32.1829492772501	-9.58598057641501	-66.7523759291761	-46.230526864441	-80.406469419024	-37.5736723051027	8.95933464394186	
2478000000.00004	-11.0840710457028	31.8612136709954	-9.59216839582773	-69.0820359111033	-45.867963055551	-79.7025476859826	-37.9605718338352	9.71680774946251	
2478333333.33337	-11.0380467357911	31.5721078773933	-9.59721258219794	-71.4434095734284	-46.0924891939663	-83.5423237801993	-38.2548125178151	10.2279527271126	
2478666666.6667	-11.010824926818	31.229753769437	-9.5972553894469	-73.7558056418735	-46.2302637738851	-86.9325131266743	-38.6734098577664	11.0056534020739	
2479000000.00004	-10.9746039926597	30.916444717647	-9.6132769488004	-76.1252967678764	-46.1171944262852	-90.0973252784556	-39.14257630987	12.3980793157051	
2479333333.33337	-10.9346544494001	30.574141586533	-9.61451794954772	-78.4312139178996	-46.3777697387289	-91.6321430314993	-39.3480568857473	12.8794520335211	
2479666666.6667	-10.908325462955	30.2604154222572	-9.62817427927195	-80.7644344574347	-46.0658787286717	-93.688294642078	-39.8859604625566	13.5159439862696	
2480000000.00004	-10.8753242704405	29.9586179183844	-9.63020626894856	-83.1165689727806	-46.3731921556349	-94.8579988065617	-39.9765851588827	13.8409924205144	
2480333333.33337	-10.8447987704957	29.5758163913305	-9.6360992097473	-85.4646055399504	-46.4817248723475	-97.7922036346233	-40.0574939891434	15.6377172413721	
2480666666.66671	-10.8218866819343	29.2913498920597	-9.6303892041345	-87.7301181288843	-46.3136126832207	-99.2156802927951	-40.3382110888627	16.452870627879	
2481000000.00004	-10.7904408024361	28.9335191719422	-9.63746943665871	-90.0494997065654	-46.227036120824	-103.327150525887	-40.5376914940374	15.456343995286	
2481333333.33337	-10.7648732797154	28.5278826844013	-9.63829993168531	-92.3349665295519	-46.1816794288074	-106.346562152433	-40.53424148795	18.5383396784337	
2481666666.66671	-10.7323992317281	28.1740967472399	-9.6390619975638	-94.6502347886742	-46.0819628631319	-107.424188226148	-40.5322783036936	18.3460247820892	
2482000000.00004	-10.7178548760662	27.8707118142558	-9.64576994631148	-97.0263138987838	-46.4355079572832	-108.871068961325	-40.5188264593935	19.3525093128526	
2482333333.33337	-10.7052645387444	27.557563047447	-9.65131227781756	-99.3096320903422	-46.3857461436244	-112.164968665005	-40.4041972461575	20.9223643194907	
2482666666.66671	-10.6794346686853	27.1999479379484	-9.64133726000276	-101.564202272757	-46.103311326567	-113.686877669068	-40.1937355982446	21.8782031011737	
2483000000.00004	-10.6630387318841	26.8980692457176	-9.65001315493922	-103.856063423821	-46.2179730057582	-115.240178358231	-39.9972641833938	22.446908144714	
2483333333.33337	-10.6482797538011	26.5097842586327	-9.64654495142606	-106.140965617033	-46.2634763296511	-119.308993490218	-39.8671455271799	23.1586707416133	
2483666666.66671	-10.63626055711	26.1760561405985	-9.65701701273295	-108.446842563679	-46.1220884306094	-119.55302185056	-39.4138868655625	24.0604330604006	
2484000000.00004	-10.6267210056872	25.7842625610012	-9.65419451932489	-110.771534460228	-46.4127350036079	-122.918855932721	-39.2094965619979	23.7412908182929	
2484333333.33337	-10.6052713993731	25.3553418238289	-9.65062874588828	-113.047313474728	-46.1952820288007	-125.241007955626	-38.8141283186967	24.6891592515954	
2484666666.66671	-10.6020637394871	25.0036312990595	-9.64041526381614	-115.378240637403	-46.2116920199594	-127.007603817405	-38.6628406278246	25.324903839406	
2485000000.00004	-10.5968449247149	24.7207083703008	-9.64066637697546	-117.606997549248	-46.3617230276351	-129.457246831415	-38.198180630657	24.9649077093974	
2485333333.33337	-10.5890150940911	24.2682994056245	-9.65134595948434	-119.916925801985	-46.2639027300984	-131.356710967618	-37.8275361645843	25.0639221028272	
2485666666.66671	-10.5926867700929	23.8961683891808	-9.64029967084238	-122.212507422205	-46.3389950357759	-133.42579414713	-37.3442029799668	25.4778933452067	
2486000000.00004	-10.5862471917945	23.5073541488437	-9.64382558707204	-124.505580015132	-46.2768165385831	-136.11772964877	-37.0132590056145	25.5273437137543	
2486333333.33337	-10.5960300745986	23.1490840647528	-9.6377117256449	-126.742474467427	-46.2182452885104	-138.299916579184	-36.5793168249968	25.5540752649672	
2486666666.66671	-10.587787939024	22.727590758194	-9.62988875657246	-129.064595943365	-46.4074650999089	-141.145281328473	-36.3701261645078	26.2147133809041	
2487000000.00004	-10.6030837792019	22.3186595014053	-9.62397842486454	-131.357113221603	-46.0749906367684	-144.231984903368	-35.6996544743563	26.1098118772331	
2487333333.33337	-10.6117217915244	21.9646289527979	-9.62574231629835	-133.653209446427	-46.2690529348158	-145.340078499547	-35.38130032942	25.4950151984433	
2487666666.66671	-10.6047174392265	21.5425963358804	-9.61867106863237	-135.948937110647	-46.0650119137813	-148.113605591008	-34.9146710285008	25.5340027914524	
2488000000.00004	-10.6189571356189	21.0948164914296	-9.61392060409155	-138.279456913764	-46.2999043185211	-150.483187556116	-34.4838827515495	25.8425460769702	
2488333333.33338	-10.6345568354861	20.750989880133	-9.60959833546843	-140.542095661692	-46.2565440969415	-153.389042453187	-34.0733702827351	25.911819976521	
2488666666.66671	-10.6551596176578	20.3394895180883	-9.60378595687758	-142.807538735405	-46.1659722728585	-154.207001029633	-33.700305262799	26.0607186818152	
2489000000.00004	-10.6678950657081	19.9063363804889	-9.59588760455506	-145.13508600675	-46.2377374145686	-157.223862861416	-33.2380266630574	25.6294918813272	
2489333333.33338	-10.6861438926713	19.4590243501985	-9.58799581789772	-147.404011972419	-46.2817408655426	-160.203452350319	-32.8104543802379	25.0916053941941	
2489666666.66671	-10.7083636838763	19.0871247634153	-9.5851753296106	-149.698796926058	-46.2746363856526	-162.967419176224	-32.4103947019356	25.558551427693	
2490000000.00004	-10.7233643505223	18.5822945304147	-9.57947505313279	-151.999013780631	-46.3860695659185	-165.21716866072	-31.9349678357183	25.8822075580356	
2490333333.33338	-10.7626938257981	18.1381897469912	-9.57211928186877	-154.310709177113	-46.3943897969289	-166.278427091444	-31.5990548699117	25.2025535793734	
2490666666.66671	-10.7766181891448	17.6738255237557	-9.56532419908132	-156.606950786168	-46.3244042265139	-168.101843193824	-31.1905653154042	25.6851357601419	
2491000000.00004	-10.7965903313826	17.281822659804	-9.56238197062045	-158.893149279693	-46.2600599062075	-170.625840248922	-30.7394378202516	25.2707782580945	
2491333333.33338	-10.8237341305282	16.8188244890676	-9.5549258735937	-161.19358385163	-46.2754925121174	-173.813033793099	-30.3763054695149	25.3418940246641	
2491666666.66671	-10.8530508812127	16.4135696623842	-9.55119065310495	-163.544019319759	-46.3442005995186	-176.467747535088	-29.973245652815	25.1553448016972	
2492000000.00004	-10.886927924889	15.9030293213161	-9.54419305071368	-165.841116034386	-46.0753068279718	-178.785564737385	-29.6485169588961	25.0188630254288	
2492333333.33338	-10.901851229533	15.334573649409	-9.53228775014579	-168.125144228348	-46.3309312295504	-179.100848019741	-29.2177732518363	24.9211407497283	
2492666666.66671	-10.9357056017936	14.9503035587534	-9.53348081890631	-170.460257683398	-46.0286243907391	178.394576931155	-28.8856914413362	24.6606740307982	
2493000000.00004	-10.981888804945	14.4326844407423	-9.52420790048794	-172.758971080562	-46.3063401629305	175.195872999836	-28.5310084521383	24.8432082794468	
2493333333.33338	-11.0129836408383	13.9687137395036	-9.52699783423652	-175.047952266026	-46.2976534718052	172.965185380499	-28.1351041564364	24.611495151478	
2493666666.66671	-11.0415444049442	13.5076629473447	-9.51845005059259	-177.358798594498	-46.247172463931	168.041540531434	-27.8152601398158	24.2331821939238	
2494000000.00004	-11.0909339101703	12.9329646426111	-9.51473779446154	-179.702354051264	-46.0325727169811	167.802922414805	-27.534110492645	24.1661582192752	
2494333333.33338	-11.1200168895391	12.4448685480817	-9.51372803373298	178.043728395899	-46.1848124347149	165.679942801588	-27.1688593439429	23.948189391843	
2494666666.66671	-11.1668705155472	11.9074892143526	-9.51277953446644	175.71073492558	-46.2516702268508	164.343596942736	-26.8537459846323	24.0369981667337	
2495000000.00005	-11.2042829109797	11.4403592193718	-9.51059594915845	173.38175592629	-46.3661070287497	161.020355102318	-26.5157158310584	23.9625160617933	
2495333333.33338	-11.2416713974162	10.8878683317354	-9.50113559973857	171.092760957921	-46.0776897431783	159.584606618525	-26.2363088941697	23.7402286095249	
2495666666.66671	-11.2842446538288	10.4222884527595	-9.5034418618023	168.75556651052	-46.2928472250963	156.932342049406	-25.8959637980604	23.5478068416526	
2496000000.00005	-11.3229545402637	9.85358731783347	-9.49855684243954	166.437147212509	-46.2587144223955	156.055039220385	-25.6657199115575	23.3617701429555	
2496333333.33338	-11.3704113949035	9.30115220643781	-9.49580840857738	164.146561023564	-46.4084534713726	151.400588631818	-25.3272736196327	23.092604735593	
2496666666.66671	-11.3919305143341	8.6962834223753	-9.49569558324626	161.847215773706	-46.3125398395156	149.357012399764	-25.0846602459124	22.8856909021828	
2497000000.00005	-11.4487151668241	8.1850170796788	-9.50089392543941	159.541524815437	-46.3284635210757	149.893580719657	-24.8178433524455	22.8095466659236	
2497333333.33338	-11.4866603202231	7.65562916587421	-9.50154383118655	157.239957076514	-46.3744029462578	145.696155547704	-24.5672338438532	22.571047033603	
2497666666.66671	-11.5371750145101	7.0308515291097	-9.50052204858041	154.935271232628	-46.3086389224593	145.052649608426	-24.2916834268619	22.3238887945352	
2498000000.00005	-11.5646476140866	6.49443639328456	-9.5071517869034	152.580676299958	-46.1180433940328	141.050343931472	-24.0234708564489	22.0478375142405	
2498333333.33338	-11.6158743716534	5.8988655858467	-9.50539777933492	150.306608487803	-46.3082357178254	138.819633319988	-23.7433611291691	21.7768202971121	
2498666666.66671	-11.645741393532	5.29770131727158	-9.50862164169596	147.982685192255	-46.1049434254427	135.18795457176	-23.5178652712871	21.5607471775655	
2499000000.00005	-11.6946548130281	4.7444994060139	-9.51519595913391	145.69681002813	-46.2391975205211	134.322590688008	-23.3417012553008	21.4408890848492	
2499333333.33338	-11.7379512549445	4.06875855791423	-9.52524986505796	143.381894992666	-46.0467483582974	131.421036229177	-23.1011759235945	21.0899402106355	
2499666666.66671	-11.7705183667934	3.44595716678874	-9.52243530960526	141.115946370833	-46.2489521906003	128.128642620426	-22.8864431390349	20.8549671699842	
2500000000.00005	-11.8083688087375	2.93494596019787	-9.52579344894591	138.757975478525	-46.3086299577386	127.136945905597	-22.6471800860102	20.5583127541482	
2500333333.33338	-11.8473101240054	2.14648078207221	-9.53802832194526	136.484874275403	-46.2142296441748	124.416960289727	-22.4717895506528	20.4251712733897	
2500666666.66671	-11.8948403412054	1.52334214175326	-9.5428289491931	134.166729943115	-46.0757988172689	123.060668781172	-22.2870807046969	20.0318028944448	
2501000000.00005	-11.9339127022035	0.832772985514267	-9.55212981901505	131.862858502728	-46.3014322141798	119.730156749413	-22.1041508846438	19.6249758929215	
2501333333.33338	-11.9623929939653	0.115486154780991	-9.55599326632593	129.547261701362	-46.3040569111307	117.773207590652	-21.8924491864687	19.4299377631715	
2501666666.66672	-12.0057691984769	-0.620314407414372	-9.56396723868682	127.276772812661	-46.481717539273	114.141926794532	-21.7173831776042	19.094431284325	
2502000000.00005	-12.0416473421001	-1.25889515832717	-9.57464295092841	125.013585015839	-46.2266762551021	111.702600473359	-21.5754146881035	18.6975528497985	
2502333333.33338	-12.0744021127319	-1.93381491599991	-9.58629833288872	122.730530073265	-46.2343479491961	111.546652861654	-21.4304152247211	18.4681688421345	
2502666666.66672	-12.1032215991594	-2.71683151408051	-9.59148951698863	120.442329115767	-46.247226507632	108.515515368008	-21.2557844280899	18.2375423991033	
2503000000.00005	-12.140465417497	-3.41177712332437	-9.60114177899826	118.15237630518	-46.0270916921871	106.61081911429	-21.0954160553301	17.7277793704828	
2503333333.33338	-12.1742935353474	-4.23346857271811	-9.61052757371542	115.884522452347	-46.3204128638789	103.979679367019	-20.9439983200211	17.4187247482885	
2503666666.66672	-12.2064759564649	-4.94080550443061	-9.62443110930757	113.639293797177	-46.2204148626601	101.78347672041	-20.826003192731	17.1907166289316	
2504000000.00005	-12.2326182428329	-5.71607604805042	-9.63486472750725	111.352798220009	-46.0546496095036	99.7436316473991	-20.7134221602271	16.6925181456203	
2504333333.33338	-12.2608900501696	-6.46538148561282	-9.64514911105466	109.081862423522	-46.0686274540286	98.2073929804745	-20.5942978545673	16.2892902358071	
2504666666.66672	-12.2905883775816	-7.21932784997887	-9.65726412819077	106.843614899274	-46.1592774857447	94.2691016181883	-20.4803369136688	15.9367157925569	
2505000000.00005	-12.3171568704789	-7.97074329179719	-9.66428334284419	104.615855322066	-46.3102096568531	93.4000016195917	-20.3549444535072	15.5435465725659	
2505333333.33338	-12.335119927801	-8.77949131429744	-9.68235774917118	102.337373877912	-46.0995087716792	92.0047070301028	-20.2618538171664	15.1909135193781	
2505666666.66672	-12.3661226471214	-9.57036056003871	-9.69241125772559	100.103195316443	-46.3314209133138	87.140919463613	-20.1986304320375	14.9064769237333	
2506000000.00005	-12.3853830536669	-10.4660911636305	-9.70873577411868	97.832391459693	-46.496520299299	84.800431293593	-20.0833954503392	14.5464715048676	
2506333333.33338	-12.4046904558971	-11.1931986848001	-9.71570507203622	95.599910482022	-46.3210727234863	84.117622966957	-20.0328316848376	14.0760946926848	
2506666666.66672	-12.4213796859806	-12.0042453008921	-9.72235756862217	93.3484825529366	-46.2706296007986	81.9410457556205	-19.9654938586896	13.6647638077542	
2507000000.00005	-12.4466075228815	-12.8625009787061	-9.7444638598119	91.090155335735	-46.4244166946993	79.279081590867	-19.8821613311497	13.3184614929238	
2507333333.33338	-12.4577748909024	-13.6665032666638	-9.75546758179571	88.8833673034513	-46.3606936312506	77.4642012937066	-19.8352011360968	12.9775694545052	
2507666666.66672	-12.4712137390196	-14.5160203113349	-9.76389034626543	86.5588246762175	-46.5824209544975	74.8475008434911	-19.8073085715897	12.5515583580509	
2508000000.00005	-12.4867363225573	-15.3827891607326	-9.77325069846498	84.3842869989746	-46.315389895946	72.9522685579065	-19.7472878740366	12.109521552878	
2508333333.33338	-12.500057950202	-16.155386826191	-9.78328529218692	82.1342121270583	-46.4835256718621	68.8551083599415	-19.7225179189818	11.6935083250921	
2508666666.66672	-12.5041697180437	-17.01838942067	-9.79389087320486	79.9109111050283	-46.3956909692189	68.8043035451457	-19.7166569312662	11.3738241706107	
2509000000.00005	-12.5174990082811	-17.8920045816849	-9.81515825200604	77.6720304663527	-46.2666536604432	65.795022477287	-19.6836620358702	10.8849306910312	
2509333333.33339	-12.5280227888685	-18.738331670585	-9.83208916351968	75.5039127507757	-46.6775871561054	62.7948814391664	-19.6552499354708	10.4196028741086	
2509666666.66672	-12.5280420369714	-19.5055055119322	-9.83619571001436	73.2271722497788	-46.5577178816867	61.7527958424292	-19.6770793509845	10.055521164371	
2510000000.00005	-12.5424286196967	-20.4271722172829	-9.85299509118455	71.016203450784	-46.374564693401	60.2988189620293	-19.6702270950619	9.815897534981	
2510333333.33339	-12.5441181688858	-21.2506157993069	-9.86441150566969	68.8061846105205	-46.427414110717	55.122352647574	-19.6953290140569	9.3636334967403	
2510666666.66672	-12.5501630855071	-22.0892856347518	-9.87376163614623	66.5822626232811	-46.4718925466203	53.1668883430943	-19.7176534452239	8.85597597937733	
2511000000.00005	-12.5482881743484	-22.9150771450139	-9.88639199797071	64.2747409774539	-46.4939099208856	52.3582113568911	-19.7341215969722	8.53033023398278	
2511333333.33339	-12.5546938465208	-23.7130438541664	-9.89134580926051	62.0871428596237	-46.3613897886483	48.8469336565891	-19.7701407625019	8.19950705441359	
2511666666.66672	-12.5530080609211	-24.5754015916982	-9.91145109687164	59.8139684770711	-46.5822216237298	47.3289061910756	-19.8175864722177	7.74870831515077	
2512000000.00005	-12.5600436533864	-25.3448784544506	-9.91796561713099	57.63768081616	-46.3878305656545	45.7203427920469	-19.8595999448149	7.48081990163288	
2512333333.33339	-12.5490777952233	-26.1979629367063	-9.93621638453074	55.3459689762423	-46.6930743122594	40.8092782864999	-19.9309827196475	6.88822623722158	
2512666666.66672	-12.5439267323517	-26.9875291835784	-9.94511530355654	53.1079209461865	-46.558709173252	40.1005675175056	-19.9880437456895	6.61129296099057	
2513000000.00005	-12.5449771411504	-27.7975315710759	-9.96030923224159	50.8624317575371	-46.5237592336638	37.6389661230901	-20.0649571107427	6.20643284120479	
2513333333.33339	-12.5403732387047	-28.6021336153856	-9.96915995986527	48.6294756354765	-46.5641353320745	35.6252523120154	-20.1397357022345	5.99935993861795	
2513666666.66672	-12.5365643068772	-29.3023336875582	-9.97053108888407	46.4126306814558	-46.4040156395646	34.1640838024804	-20.2556432291127	5.44744215256554	
2514000000.00005	-12.5457002333001	-30.0982983082808	-9.98473306212802	44.1621369450463	-46.6318287426416	30.0456054293309	-20.344155677086	5.17781310726285	
2514333333.33339	-12.5346207654817	-30.8493885764255	-9.99767545569715	41.9127976876513	-46.7834648485842	28.6762507704497	-20.4723172027274	4.91014091689856	
2514666666.66672	-12.5234659488855	-31.6229209881348	-10.0086224815358	39.6630778111877	-46.5643185282723	26.2044237323561	-20.5958490309389	4.63480558418928	
2515000000.00005	-12.5300044836607	-32.3879242437768	-10.0231467372674	37.4368478517193	-46.5678235158549	24.1374877891983	-20.7200650809087	4.1072887798391	
2515333333.33339	-12.5207235361907	-33.1131992384064	-10.0318540510522	35.1882256469152	-46.5071995939008	21.7484837561101	-20.8474178533751	3.89507909937794	
2515666666.66672	-12.5247655869578	-33.8052464936818	-10.0493295030994	32.9025481686359	-46.6632653534746	20.5656182525141	-20.9954765201067	3.77462403434281	
2516000000.00006	-12.5171877682363	-34.5029782144804	-10.0534684144574	30.6843926972881	-46.5448362071565	19.1882976428445	-21.1711209412637	3.40297385978966	
2516333333.33339	-12.517256526642	-35.1828725388827	-10.0681502613486	28.4582150982349	-46.6372406236645	15.2536891237367	-21.3062468379374	3.22081199254219	
2516666666.66672	-12.512999147666	-35.8332197117638	-10.0750339309376	26.1998941321613	-46.799487538716	13.3895901725667	-21.499874995575	2.96337558423139	
2517000000.00006	-12.5236640151079	-36.528342674476	-10.0887713617101	23.9124247102419	-46.5409989627713	11.0321567054487	-21.6981404563228	2.92566971322519	
2517333333.33339	-12.5138984149964	-37.1422574279948	-10.0913240543386	21.6776609986938	-46.5672836478764	7.71440719769359	-21.8948997208264	2.81090394282933	
2517666666.66672	-12.5197655586811	-37.8216800435525	-10.1100039086361	19.422081707099	-46.9479460890931	8.00323999978185	-22.0786188042645	2.47133317119724	
2518000000.00006	-12.5192997041957	-38.3884689285043	-10.1197013428435	17.1690826528213	-46.7821703007231	3.29840201509416	-22.3126986083188	2.28080291829001	
2518333333.33339	-12.5185099019122	-38.9687350154631	-10.1290438872155	14.8725284111506	-46.5368235483119	2.64826005981816	-22.5503642653674	2.4395132996763	
2518666666.66672	-12.5236142586353	-39.5424257386488	-10.1313650095978	12.6522482221759	-46.7199208025888	0.745499390789156	-22.7875705386615	2.2378189405417	
2519000000.00006	-12.5378615297662	-40.0696790009409	-10.1414543229616	10.3731261348472	-46.5420915999341	-1.51004593041989	-23.0567017950633	2.43093652695113	
2519333333.33339	-12.5392062654208	-40.6597905419092	-10.1495874413111	8.11255046185486	-46.9710699638213	-4.78494636308632	-23.3341918412911	2.61365460854548	
2519666666.66672	-12.54620342576	-41.146164474498	-10.1633454272584	5.86001291922682	-46.4200322600938	-6.94741507244236	-23.6181316729007	2.96142066533492	
2520000000.00006	-12.5530822875519	-41.6005856596786	-10.1707124595437	3.56248517922515	-46.6549986095005	-8.38276598916903	-23.8682811865093	3.02788291681326	
2520333333.33339	-12.5535093786744	-42.0495120321132	-10.1744856357579	1.27979503294937	-46.7829381352816	-11.7948069905202	-24.1768230781312	3.18514391332354	
2520666666.66672	-12.5694693237692	-42.496201527434	-10.1842103853581	-0.953577853668495	-46.8155432382721	-12.2515809782426	-24.5257271972508	3.56984551160695	
2521000000.00006	-12.5745010771641	-42.9663166269871	-10.1993766897029	-3.20025766896549	-46.7978486944146	-15.6947141136239	-24.8729731528938	4.02515306810424	
2521333333.33339	-12.5860012070156	-43.3954410034211	-10.206617671631	-5.55012527958946	-46.9156047051987	-15.9004029909523	-25.1875027039622	4.87110873916207	
2521666666.66672	-12.597143571073	-43.7948314612785	-10.2133173004675	-7.76154745133965	-46.8805410400987	-21.0294966433096	-25.5668132390406	5.19386168262366	
2522000000.00006	-12.6086709667231	-44.1358963247662	-10.2218366280864	-10.0328681349394	-46.6619369725767	-22.8779510681237	-25.9294257906799	6.13645073322734	
2522333333.33339	-12.6278734212461	-44.4718054191326	-10.2239433113358	-12.3052106215386	-46.6587907209702	-26.8074118598873	-26.3300348411144	7.26857884864965	
2522666666.66673	-12.6307309413002	-44.8664107908012	-10.246379955674	-14.6050818040953	-46.8676438760347	-27.5942816834686	-26.7183632796803	8.24072336276799	
2523000000.00006	-12.6367301350382	-45.1459172055725	-10.2479970543434	-16.8189308639916	-46.8146806044374	-29.3930790016222	-27.095504711251	9.61436389960659	
2523333333.33339	-12.647416043009	-45.479604133361	-10.260240439406	-19.1326440069914	-46.5288785094289	-31.9755907902566	-27.4709555726611	10.9329856589269	
2523666666.66673	-12.6685352060097	-45.8271338203974	-10.2618427574114	-21.3310895626181	-46.7495131223849	-35.3028610550421	-27.9253086928254	12.6240156130976	
2524000000.00006	-12.6744775441466	-45.9944161348712	-10.2684006063606	-23.6537722596057	-46.6138794309258	-35.9216943236174	-28.336779584785	14.6881095780472	
2524333333.33339	-12.6928777996246	-46.2066728618736	-10.2790935837308	-25.8542122901403	-46.8263054412362	-38.3564829314104	-28.7797647435698	17.0800683490565	
2524666666.66673	-12.703271303641	-46.4885644063275	-10.2837076694796	-28.1263352037107	-46.8803721378855	-40.5840533047901	-29.1502487431138	19.2952703348338	
2525000000.00006	-12.7145570842147	-46.7156701650964	-10.2904131770655	-30.3992709720748	-47.058080216735	-42.6324776753686	-29.563221183851	21.9291910041864	
2525333333.33339	-12.7330007179794	-46.8337368022506	-10.2950324165608	-32.6511210317614	-46.5385736046439	-45.1672046304186	-29.8765708950835	24.9426578234489	
2525666666.66673	-12.7463776453027	-47.1288080258067	-10.3023932652762	-34.9023307500414	-46.5047701864269	-48.2786239108462	-30.2696731625349	28.5564384740979	
2526000000.00006	-12.7647398213828	-47.294251819544	-10.3085120672749	-37.1650556367263	-46.6297101235192	-50.7963508978248	-30.4940426931624	31.7530740921312	
2526333333.33339	-12.7746296340253	-47.4156806899438	-10.3128624182739	-39.385263673732	-46.7819000878168	-50.9736353048799	-30.6892301305166	35.4717551946424	
2526666666.66673	-12.7907110939352	-47.6174209252998	-10.316579734131	-41.6134508434	-46.6763310301034	-52.9735648420995	-30.9303939213709	39.4460475137107	
2527000000.00006	-12.8016713846112	-47.7918840387816	-10.3170188135593	-43.8488103567314	-46.6894493768588	-55.5259433405159	-31.0475729703298	43.5577192927377	
2527333333.33339	-12.8249925238974	-47.9586878373857	-10.3186886727212	-46.0873305079583	-46.6393973234709	-59.2471968113313	-31.1818698465558	47.9426033349906	
2527666666.66673	-12.835222636333	-48.1293320026579	-10.3206724752387	-48.3323163544666	-46.6230922344489	-62.3129783926376	-31.0355290627772	51.5029294546769	
2528000000.00006	-12.8489586802276	-48.2618619206111	-10.3248704364649	-50.5792327186055	-46.4273732242624	-62.711703602648	-30.9835475795279	55.4862694526682	
2528333333.33339	-12.8768607760868	-48.3426988730466	-10.3282442793391	-52.8056482974267	-47.0408478536879	-64.0676204148835	-30.8562495385225	59.2640125690103	
2528666666.66673	-12.8980828717739	-48.4856320309879	-10.3248516357907	-55.0417756807613	-46.6285506273208	-66.713213804107	-30.670247399456	62.5580327335087	
2529000000.00006	-12.9205487746865	-48.6884869650717	-10.3259399338517	-57.2543388146107	-46.7047897649021	-68.8531624975675	-30.4730606836753	65.5297785940178	
2529333333.3334	-12.9386406838099	-48.766967541407	-10.3237131888468	-59.4928141934782	-46.9559902421527	-71.6621487356623	-30.1785474774372	68.1538977291264	
2529666666.66673	-12.9584744112348	-48.9717698944364	-10.3233686567899	-61.6911167406357	-47.0143817041778	-73.0868344167819	-29.8660509948412	70.8296844380988	
2530000000.00006	-12.9790579644607	-49.1124870994091	-10.3209176121419	-63.9374066193164	-46.7149193402584	-75.8605126586356	-29.6325797758149	72.3729588163097	
2530333333.3334	-13.0087280228533	-49.3554750967708	-10.3128634068732	-66.1513381381719	-46.6352530306655	-79.9267602836461	-29.3084773436651	74.3677829531389	
2530666666.66673	-13.0288534463032	-49.4754547939721	-10.3084928663059	-68.360086493922	-46.7392500038765	-81.1012627665367	-29.0605526749306	75.7808499302326	
2531000000.00006	-13.0654770221859	-49.6852625071207	-10.3035256323712	-70.6014719043126	-46.6812465275038	-83.8810466399266	-28.7522326223406	76.8162833434395	
2531333333.3334	-13.1000301325082	-49.8792021759185	-10.2982644756448	-72.8314304898395	-46.5975321397035	-84.9420025480263	-28.5012829364975	77.8309935945326	
2531666666.66673	-13.135012386087	-50.0955587840035	-10.2930258362919	-75.0512368888893	-46.540337245138	-86.2584401539489	-28.22420852276	78.7373319705934	
2532000000.00006	-13.1593388617104	-50.2073414235151	-10.288752801521	-77.2876969120045	-46.8044469463978	-88.704485713843	-27.9595617812846	78.9364826846997	
2532333333.3334	-13.1891809171704	-50.3829256092452	-10.2756479733653	-79.4922425372734	-46.7405794360842	-91.5151616959054	-27.6804051109293	78.8770085171561	
2532666666.66673	-13.2308287415792	-50.5895500921559	-10.2749432470024	-81.7650360555111	-46.6092631542635	-94.4666272615642	-27.4680103559333	79.3311734921861	
2533000000.00006	-13.2554464544077	-50.7519064249012	-10.264919975941	-83.9858994244074	-46.8160444261219	-96.8890205769453	-27.2087349327267	79.3869348418352	
2533333333.3334	-13.2980466536245	-50.8529421931514	-10.2546289887313	-86.2395591330818	-46.4382888426322	-98.7133447584541	-26.9627094534248	79.3714130252204	
2533666666.66673	-13.3425302895472	-51.0877243466245	-10.2439416756256	-88.4992804117641	-46.8578754286179	-100.225450051863	-26.7994519342248	79.1180348894645	
2534000000.00006	-13.3800137052572	-51.3297792040455	-10.2412509600865	-90.7195353247327	-46.7062275474694	-102.250648623179	-26.5323697483262	78.6658124204759	
2534333333.3334	-13.4253796100449	-51.5010929203069	-10.229384913163	-93.0062659435424	-46.7884259194557	-105.517463518889	-26.3635401354894	78.1053414015258	
2534666666.66673	-13.4700635272068	-51.5940437634863	-10.2215615353569	-95.2231078624214	-46.7614154894625	-105.863951559084	-26.1984196949351	77.4832931848957	
2535000000.00006	-13.5196004111758	-51.8282331277667	-10.209991937479	-97.4721822973533	-46.9967323093958	-110.249706840955	-26.0325732742096	76.6181602658725	
2535333333.3334	-13.5655258013308	-52.126112298824	-10.203701184191	-99.7018745987371	-46.6470043262568	-111.043716164155	-25.7974049557826	75.6955798876408	
2535666666.66673	-13.6090580856472	-52.3307934960761	-10.2018066942649	-101.951930852386	-46.8061822700148	-115.081562826591	-25.6996086499612	74.7628802468596	
2536000000.00006	-13.6815889398208	-52.5369617066283	-10.1878075565701	-104.215523886644	-46.3283607377726	-116.414848523216	-25.5421611951839	73.7805570429337	
2536333333.3334	-13.7255633316681	-52.8440352874603	-10.1890453678927	-106.482039332471	-46.8949641965869	-119.134643671586	-25.3817869956636	72.5801864091937	
2536666666.66673	-13.7899751993886	-53.0813732784808	-10.1728848386767	-108.734389571991	-46.7660869951319	-120.00294830014	-25.2757564115348	71.4303634677873	
2537000000.00007	-13.8350733102044	-53.236895621466	-10.1667776868803	-111.005983929513	-46.7142397553601	-122.853732858892	-25.1350587251245	70.0790375303757	
2537333333.3334	-13.902397116678	-53.5725367031937	-10.1687326544828	-113.255151342371	-46.6242739211514	-124.651643727049	-25.0317796066471	68.7659643273346	
2537666666.66673	-13.9550553887617	-53.7751771344928	-10.1605342860785	-115.512268693593	-46.7365441339554	-125.954216007208	-24.9182870577425	67.4429917248401	
2538000000.00007	-14.0248646164086	-54.1112670744528	-10.1507243767486	-117.801603451066	-46.7488227396565	-127.9731750172	-24.7586368774323	65.982052365772	
2538333333.3334	-14.083840429877	-54.2602444612613	-10.1402146197035	-120.044278657612	-46.7078173752384	-133.056511438245	-24.6967267498271	64.3319841076165	
2538666666.66673	-14.1658677786163	-54.5597222809696	-10.1331372781154	-122.33525592957	-46.6371616347537	-134.926364800262	-24.595948106044	63.0010203262091	
2539000000.00007	-14.233538372008	-54.7399934944682	-10.1308583876001	-124.629428162396	-46.5656033332019	-135.12739102826	-24.4661094846954	61.2370922830293	
2539333333.3334	-14.3068239278478	-55.0532387075529	-10.1253907098556	-126.930733824878	-46.6020677480047	-138.479039455263	-24.3812659737806	59.6172448713715	
2539666666.66673	-14.3962218519557	-55.3565796179866	-10.1251244594408	-129.191211964701	-46.4311570978169	-140.973580239481	-24.2659855213403	57.9840720163178	
2540000000.00007	-14.4592316832764	-55.7259052406165	-10.1234532435773	-131.470399073025	-46.5653103789662	-143.507850364976	-24.1825459957889	56.0335486914786	
2540333333.3334	-14.5515370629191	-55.9906391307182	-10.1110395929338	-133.738990325156	-46.7418700571214	-144.564111737644	-24.0667958100292	54.1568754894817	
2540666666.66673	-14.6444209595173	-56.3039036082346	-10.1166066151706	-136.036245423414	-46.5741658016101	-147.757630988212	-23.9730845181969	52.6141788297058	
2541000000.00007	-14.7246641060336	-56.6302906444043	-10.1049728358504	-138.320886754019	-46.6582457674348	-149.129928613636	-23.897712826354	50.740637974707	
2541333333.3334	-14.7940369094659	-56.9396764883682	-10.1098023002666	-140.579178459841	-46.5132566601361	-152.472677226482	-23.7610813474388	48.7798092489919	
2541666666.66673	-14.896662365414	-57.3340627443124	-10.1021209850587	-142.876784401118	-46.7296466185045	-154.528392794862	-23.6591474296936	46.796344960264	
2542000000.00007	-15.000839405546	-57.6193338632745	-10.0996837109168	-145.12715417199	-46.7955616924262	-157.36667430976	-23.5770155902164	44.9651476695888	
2542333333.3334	-15.0708510360237	-57.9233350705357	-10.1077773147162	-147.376462235325	-46.7377043153817	-156.130810936367	-23.4754715360687	43.0438771066919	
2542666666.66673	-15.1823888260625	-58.3842654343916	-10.0984874314107	-149.661910330954	-46.7588509605413	-161.766108477188	-23.3445661906152	41.1152367440129	
2543000000.00007	-15.2865167231426	-58.7736415655899	-10.0972876984587	-151.926444028248	-46.4087207795939	-162.612687822339	-23.2535918948786	39.1836677862992	
2543333333.3334	-15.3798404685862	-59.0557818514562	-10.0897207960808	-154.186011563135	-46.7059695057867	-166.583692810529	-23.1201142261304	37.3489633836215	
2543666666.66674	-15.4605143109842	-59.378924210271	-10.0937437219795	-156.467990415483	-46.6297614403477	-167.740528693032	-23.0500353985996	35.3433488018758	
2544000000.00007	-15.6075318255503	-59.6725458446119	-10.0950445610696	-158.748451059294	-46.3827335105989	-168.976872212184	-22.9194703560263	33.3970861363157	
2544333333.3334	-15.693981789697	-60.1757993308415	-10.0944718665328	-161.000647034206	-46.8635119389209	-170.405903274974	-22.8194726986002	31.5345403060621	
2544666666.66674	-15.7939386277161	-60.5185507801371	-10.0882849751772	-163.273101637069	-46.7732834642735	-174.704066249162	-22.6949678291477	29.7263699752645	
2545000000.00007	-15.9200552254231	-60.8575481684695	-10.0955138735337	-165.552418440479	-46.6253164388079	-176.107027603671	-22.601991797666	27.8913342889551	
2545333333.3334	-16.005518146088	-61.2239971697567	-10.09416521946	-167.810569133232	-46.61801352152	-177.868318458861	-22.4419228080021	25.9986612706942	
2545666666.66674	-16.1303535192034	-61.7097794644481	-10.0981145615547	-170.104483772458	-46.6422541995697	178.018816862696	-22.3417255486003	24.1837053179193	
2546000000.00007	-16.2370981041857	-62.102936331564	-10.0905001343405	-172.358506686876	-46.7060756804012	176.787385428413	-22.2167264820708	22.3910873240261	
2546333333.3334	-16.3663056635618	-62.5447022794109	-10.0965494382827	-174.581263118723	-46.6669820498734	175.242536297784	-22.1256302675283	20.7666747553052	
2546666666.66674	-16.4721959129749	-63.011695346454	-10.0955617277912	-176.841399503968	-46.681990313112	171.509499114735	-21.9997086403824	19.1804459767326	
2547000000.00007	-16.5766672988956	-63.2959928531735	-10.0985156648121	-179.111761761115	-47.0501635502864	172.622674962393	-21.8858872178861	17.2440764158302	
2547333333.3334	-16.6881764339797	-63.8348002148816	-10.0937605056601	178.638517464126	-46.2356726008525	167.631789098106	-21.749545339281	15.6498164975788	
2547666666.66674	-16.811101754038	-64.3569367553211	-10.0897615952719	176.397223166495	-46.5823851130861	164.846763611524	-21.6074149770942	14.0281196150791	
2548000000.00007	-16.910919024537	-64.7890916019103	-10.0955903738902	174.168418783234	-46.4978142651292	163.14858955993	-21.522408704643	12.3924770894806	
2548333333.3334	-17.0298230081453	-65.31997833629	-10.0963347668193	171.929100179706	-46.6955986400857	160.338724994014	-21.4012174839957	10.8410733977026	
2548666666.66674	-17.1304752542938	-65.690702318547	-10.0936023955145	169.693794490246	-46.9776270545053	159.579322352402	-21.288445327772	9.41966007092998	
2549000000.00007	-17.2517644033036	-66.2742477143772	-10.0914370126423	167.406419956533	-47.0154842756922	157.746074798958	-21.1794422481513	7.93091517001542	
2549333333.3334	-17.364417139482	-66.8592278768818	-10.09314416961	165.198443466068	-46.4501644700386	154.936465752489	-21.0833595030407	6.59794873459479	
2549666666.66674	-17.4912364415627	-67.4439870420267	-10.0852118118384	162.953310770612	-46.6137372408391	150.554563008765	-20.9731100562851	5.0973103034139	
2550000000.00007	-17.585004012492	-67.8485629473933	-10.0844675000595	160.697941346575	-46.5556375506481	149.291979235952	-20.8899229379575	3.75236349835691	
2550333333.33341	-17.6988962891445	-68.6698067170136	-10.0834996248547	158.473504445618	-46.3996664473967	148.677974928395	-20.7879618642397	2.50438149716982	
2550666666.66674	-17.78458174404	-69.2158928284643	-10.0756273747195	156.202159288352	-46.5331701168138	145.131080326025	-20.6851410930274	1.11156154531699	
2551000000.00007	-17.9133403386368	-69.8725976592427	-10.0717725857015	153.999505208582	-46.4316035635484	142.653744274396	-20.5969450138976	0.037751567836688	
2551333333.33341	-18.0262879004355	-70.4890506212755	-10.0714519263171	151.725758216141	-46.5640748866384	141.352175968363	-20.499781151347	-1.1951745243661	
2551666666.66674	-18.1188193397327	-71.1786808101068	-10.070441503214	149.542799906596	-46.518220781179	138.47502535363	-20.4157337743973	-2.30850149682965	
2552000000.00007	-18.2185843020668	-71.8420059208197	-10.0625501221829	147.303695922413	-46.4442923288223	133.59701892606	-20.338120365931	-3.46708404682081	
2552333333.33341	-18.3361160163665	-72.6780169749743	-10.0590368775215	144.985577245748	-46.3870449409416	134.674603011547	-20.2601206930334	-4.56628535343733	
2552666666.66674	-18.4114185303689	-73.2548365364694	-10.055974947838	142.805379596582	-46.1697886122711	131.894222418536	-20.1898315752744	-5.56700825358287	
2553000000.00007	-18.5153107696258	-74.0619183018342	-10.0504834584942	140.566878346178	-46.3429236256591	128.43877907917	-20.1242251015991	-6.52112553916304	
2553333333.33341	-18.5972750386693	-74.7712664362156	-10.0408829822473	138.30728351937	-46.5920770515817	127.403017772035	-20.0717511777067	-7.45404280710662	
2553666666.66674	-18.6942748670843	-75.5783748862431	-10.0423934916563	136.064447110378	-46.4139315391399	124.60861903776	-20.0163992100767	-8.43118252374236	
2554000000.00007	-18.7564638637922	-76.346908898966	-10.0334282188384	133.826526919798	-46.5090360909871	123.385054392695	-19.9685913911709	-9.27475725602203	
2554333333.33341	-18.8387313787204	-77.1552473840807	-10.034274571349	131.562721169009	-46.2564808093769	118.80635633241	-19.9089536373791	-10.0377760496843	
2554666666.66674	-18.9140909592609	-77.9768384178274	-10.0214066561212	129.313892952297	-46.1782832715157	117.891237717121	-19.8727692158818	-10.8631165939903	
2555000000.00007	-18.9836267162396	-78.7788324398092	-10.0229546564481	127.052336496192	-46.4691147618807	115.106314452011	-19.8371092297685	-11.5623739600486	
2555333333.33341	-19.0378796938468	-79.6519779060951	-10.0184510652915	124.80530547409	-46.4126201811157	113.788730459447	-19.7838472920734	-12.4722140920273	
2555666666.66674	-19.1029371030522	-80.4984847727707	-10.0067924745042	122.527114494954	-46.5073798185687	110.652912022565	-19.7729426661835	-13.024788946838	
2556000000.00007	-19.1669396551814	-81.3612446001029	-10.0045181067707	120.253909856665	-46.2584601253722	108.963331889633	-19.7439129806744	-13.7985149420009	
2556333333.33341	-19.2089248847948	-82.230621447534	-9.99686520215395	118.046464016521	-46.3831057324483	106.545128052297	-19.738678808147	-14.3252771158735	
2556666666.66674	-19.2484352067663	-83.2040192186203	-9.99517912010679	115.740142350292	-46.5330022802108	102.428833300747	-19.7366514189722	-14.9755851942527	
2557000000.00007	-19.2830529609931	-84.0083594661946	-9.98610947373292	113.457658312202	-46.1626654964914	101.760432139237	-19.7141268327284	-15.5171155528314	
2557333333.33341	-19.3200153017249	-84.9531927556202	-9.98249395961322	111.198670443938	-46.2881885265768	96.3847431473653	-19.7197675166186	-16.0313299027627	
2557666666.66674	-19.3300513140898	-85.9752486036874	-9.97353547212953	108.918806381241	-46.1343649751398	95.304847154638	-19.7380329325135	-16.5228869380623	
2558000000.00008	-19.3672287190292	-86.8943733585531	-9.97096595117017	106.607339826646	-46.1014141000428	93.4098009384681	-19.7348232629327	-16.8968987100256	
2558333333.33341	-19.3779046368075	-87.7176489575031	-9.96646093471033	104.346329017293	-46.3430652858572	90.6142044269589	-19.7479191499121	-17.4002786641689	
2558666666.66674	-19.3758156745814	-88.6277382273135	-9.96023518917893	102.032705919962	-46.424461170792	88.4907716026637	-19.7626170915223	-17.7281777148947	
2559000000.00008	-19.397257565832	-89.6007694406846	-9.96004147772951	99.7462807066251	-46.3397991739939	87.4142182041089	-19.7874748087067	-17.9847543128554	
2559333333.33341	-19.3671219934797	-90.5600109689399	-9.9516103537853	97.4727657299751	-46.2008304893507	86.0943311598725	-19.8224893937405	-18.423408345241	
2559666666.66674	-19.3585197164936	-91.4280060902816	-9.94893284542723	95.1448569551994	-46.4267486480765	83.3755676908353	-19.8538721970234	-18.6455714691524	
2560000000.00008	-19.3365575008738	-92.3251282579979	-9.94191281971025	92.8423183426549	-46.3304286402126	78.9607372488667	-19.8883984641895	-18.9190277661211	
2560333333.33341	-19.3100508995245	-93.3048727518513	-9.93891170178488	90.5610338181948	-46.0252189451783	80.2283638600429	-19.9302750457818	-18.9159003714585	
2560666666.66674	-19.2945649915096	-94.165952583614	-9.9340636613456	88.2434694108783	-46.5079317174988	75.6115355248452	-19.9793803105659	-19.1921764028151	
2561000000.00008	-19.2486966809296	-95.0528440321942	-9.93382326751162	85.9375896805421	-46.1110863939919	72.8243037730289	-20.0646526312974	-19.3031672582865	
2561333333.33341	-19.2059676844492	-96.004057287457	-9.93018301559477	83.5848560360882	-46.2056245009269	71.2945101402567	-20.0969027850779	-19.3264776083109	
2561666666.66674	-19.1627473083417	-96.9857761259054	-9.92414227487303	81.2773934520349	-46.0503168007951	68.6783835275706	-20.1775486016929	-19.4552955239471	
2562000000.00008	-19.1009589439446	-97.8957264172804	-9.92058629177071	78.9769300224797	-46.2215259037365	67.5373309842421	-20.2217514947524	-19.3017756413651	
2562333333.33341	-19.0511763851621	-98.8095309160988	-9.92485018842077	76.6573768968507	-46.2182048665997	62.9540538701099	-20.320882652796	-19.1797528600963	
2562666666.66674	-18.9935968274894	-99.7215844008735	-9.92725352418886	74.2826463442932	-46.2594811598815	62.9246983652165	-20.3910679293876	-19.1260562807689	
2563000000.00008	-18.9371469416822	-100.585734906872	-9.92727479400387	71.9994218433126	-46.0969281316317	60.2111938056852	-20.4519722909961	-18.93940283939	
2563333333.33341	-18.8622348655622	-101.465728946077	-9.92233867191249	69.6252593480216	-46.2829697370093	57.8392720872683	-20.5333159121251	-18.7310188484673	
2563666666.66674	-18.7957595483468	-102.354010716903	-9.92689872227621	67.2889331108907	-46.3387652491509	54.626508777164	-20.6308412900568	-18.6558002560146	
2564000000.00008	-18.7251861354819	-103.223016321668	-9.922447664641	64.9482091760246	-46.1918719653489	51.7798507344777	-20.7282719147546	-18.3163349623209	
2564333333.33341	-18.6617533033204	-104.150214706415	-9.9324107224031	62.608862883853	-46.3324756412565	50.9543116099452	-20.8216376927322	-17.9441862040934	
2564666666.66675	-18.5784687417767	-104.975327625968	-9.93512395149315	60.2875915937118	-45.8965053821763	47.1705852149988	-20.912691767993	-17.6070085253579	
2565000000.00008	-18.5210342727877	-105.796017749799	-9.93694461486082	57.9030003805468	-45.9917809062355	46.7866273894743	-21.0050203310736	-17.1314999181124	
2565333333.33341	-18.4433050234845	-106.643589301686	-9.94328027212763	55.5960700418688	-46.2640007716792	43.5988225257605	-21.1250878617189	-16.7125123656169	
2565666666.66675	-18.3714563414263	-107.525900829904	-9.94695575466079	53.2389136340308	-46.0723794831785	40.4381389184084	-21.2546102406789	-16.3562248953515	
2566000000.00008	-18.2988243978129	-108.344623879403	-9.94581171915255	50.92306734007	-46.258235404825	38.8522981268271	-21.3091555290326	-15.7412981068788	
2566333333.33341	-18.2217931664448	-109.146487165651	-9.94940357595325	48.513284529128	-46.0298974958784	35.71407706424	-21.4267575709184	-15.1380812719091	
2566666666.66675	-18.1712199007567	-110.057852800458	-9.95328407882859	46.1899581701483	-46.0145716257125	33.3382348588744	-21.5308465195184	-14.5331900154607	
2567000000.00008	-18.0898936048838	-110.881156741336	-9.95929739041034	43.8211609875913	-46.2982563825038	32.0346596031252	-21.6291016700063	-13.6981844215814	
2567333333.33341	-18.0275142389949	-111.560486960728	-9.96895983394771	41.5405994617225	-46.1567756436518	29.6861473770415	-21.7717326982542	-12.9860877465241	
2567666666.66675	-17.9798192678748	-112.472100725827	-9.96770775177407	39.1309718735048	-46.066955804161	27.2951792840142	-21.8802989284412	-12.1561398701234	
2568000000.00008	-17.9076376595298	-113.266077782948	-9.97487894137923	36.7624215989836	-46.3221296320068	26.282980458149	-21.96971972785	-11.2183361539393	
2568333333.33341	-17.8321002181915	-114.083196345916	-9.98000822190003	34.4641200716363	-46.054747524865	22.5274920083854	-22.0866368424202	-10.4984631070804	
2568666666.66675	-17.7732534450391	-114.796462181397	-9.98672879723576	32.0970474513622	-46.3428799872612	20.2607779370113	-22.2106835876705	-9.64699675669328	
2569000000.00008	-17.7201681928625	-115.558443340696	-9.99810329231251	29.7585508872314	-46.0957276319803	18.1315785779042	-22.2727622306687	-8.59236616258352	
2569333333.33341	-17.6672841741817	-116.297162884757	-9.99253310372851	27.3667946746994	-46.3885405653756	14.6138217465059	-22.3830650898712	-7.58134453788389	
2569666666.66675	-17.6137479355014	-117.132807075912	-10.0084726012555	25.0430916137924	-46.4292158790431	13.5714926119712	-22.49457861575	-6.6474107863598	
2570000000.00008	-17.557161321022	-117.750690639908	-10.0117845714765	22.7153869730494	-46.166419059194	11.5482404088976	-22.556745971323	-5.42169840105027	
2570333333.33341	-17.5003232107167	-118.583930216495	-10.0200487001019	20.3524333063863	-46.1385678154497	9.08969666999944	-22.6598481287371	-4.38172649804827	
2570666666.66675	-17.4685581732266	-119.264626444224	-10.0230385048174	18.0256197819449	-46.2440495017905	7.94523224916755	-22.7370580457531	-3.13482868181107	
2571000000.00008	-17.4062415889321	-120.067049147284	-10.0266877061981	15.6874070264662	-46.2750498125103	3.05964363247019	-22.8094939369637	-1.85367590345301	
2571333333.33342	-17.3720890315352	-120.750440434071	-10.0362719647096	13.3830661924348	-46.1115865951935	1.80090110236466	-22.9174658730675	-0.533025264409867	
2571666666.66675	-17.3345034372952	-121.323600178929	-10.0415711183051	11.0231031059081	-46.2951000724882	-0.485724455660241	-22.9823947672249	0.674706601791511	
2572000000.00008	-17.2950735664585	-122.195135811253	-10.0472347318864	8.71751019239186	-46.4229399006685	-3.28497762583563	-23.0619856962063	1.64117133617634	
2572333333.33342	-17.2654358840305	-122.717293711	-10.0533553272079	6.39793888493994	-46.3539304564036	-3.72223373189141	-23.0885351068033	2.92253708166057	
2572666666.66675	-17.2448473647646	-123.398505717728	-10.0565307975535	4.06610909701814	-46.1526001147341	-5.81220602860696	-23.1661100027555	4.19380873716385	
2573000000.00008	-17.2321694729454	-124.154383238656	-10.0587360815771	1.76208585076287	-46.5079863664481	-10.5100757047343	-23.2297943406017	5.40091957023696	
2573333333.33342	-17.1971707058206	-124.872629279421	-10.0702517371734	-0.557323390381541	-46.5907275572818	-11.2906484654714	-23.2665435394686	6.91474535510258	
2573666666.66675	-17.1875840023413	-125.52994657112	-10.0709754198643	-2.84417700116826	-46.3621394503021	-14.9157228121783	-23.309754941269	8.1748349601105	
2574000000.00008	-17.1647157905356	-126.093808417915	-10.0695322836801	-5.10262563763659	-46.2603914402315	-15.1430051571744	-23.3829734902391	9.35444867503503	
2574333333.33342	-17.1570406012466	-126.77337149365	-10.0769984193212	-7.41071935605861	-46.1784760468009	-18.0868169017272	-23.4234068254498	10.8956257473717	
2574666666.66675	-17.1684582163246	-127.580187896452	-10.0811288019906	-9.71505408814679	-46.5042161705816	-22.0179617002147	-23.4416898839093	12.3959606321125	
2575000000.00008	-17.1646122579796	-128.301104060766	-10.0816497815313	-12.0082262040969	-46.3367803474103	-22.9377736198298	-23.4524611901859	13.4330469760086	
2575333333.33342	-17.1667736592335	-128.859523046755	-10.0796886462881	-14.2243733877747	-46.4635609789512	-24.2973706074746	-23.4805469743162	14.6764754164709	
2575666666.66675	-17.1820846443036	-129.653297910097	-10.083218132073	-16.5689074593654	-46.4606233971578	-26.8682984673199	-23.4638065418412	15.9765485787297	
2576000000.00008	-17.1864018524471	-130.28521445928	-10.0858665356956	-18.8135091367755	-46.5795286638087	-29.9606768517632	-23.5011536585866	17.3332339883743	
2576333333.33342	-17.1872000771566	-130.938900506587	-10.0812021483795	-21.08669570726	-46.7484018604872	-32.3803066150435	-23.4718419256987	18.419540973075	
2576666666.66675	-17.218725260995	-131.517658366309	-10.0789941108444	-23.3380192980552	-46.4532815079117	-35.9871162226725	-23.5119911291225	19.7195922609354	
2577000000.00008	-17.237801300927	-132.27471086056	-10.0750743077542	-25.6189386907552	-46.3879923537104	-38.1826520731153	-23.507431706861	20.958036262203	
2577333333.33342	-17.2978718898521	-132.844543179012	-10.0727942750383	-27.9186343494718	-46.5850302586014	-39.4959349147615	-23.5105792375636	22.1252424184419	
2577666666.66675	-17.3173964191481	-133.734549361625	-10.0703738066552	-30.1627640907658	-46.3931656778546	-41.7314677400769	-23.4972546523749	23.3515350455177	
2578000000.00008	-17.347534907847	-134.404765494496	-10.0706559409561	-32.3948923542001	-46.668422853853	-43.3358761415341	-23.4806932292433	24.1001693843457	
2578333333.33342	-17.3751387063761	-134.986825957265	-10.059033558539	-34.6293505977809	-46.5740316179897	-47.8204569828189	-23.4739223782336	25.1689893233752	
2578666666.66675	-17.4335202987315	-135.628178818375	-10.0446337464917	-36.9400592689637	-46.4320913717705	-47.9474239092012	-23.4450959324105	26.3678989451528	
2579000000.00009	-17.5005825586578	-136.32449396915	-10.0508359040075	-39.1914762761699	-46.5474466495002	-50.0426029375128	-23.4599565985282	27.4142198559268	
2579333333.33342	-17.5445269138542	-137.059214325709	-10.0371631074562	-41.4640814329078	-46.3205465077421	-52.5893340868622	-23.47165764301	28.5046307677977	
2579666666.66675	-17.6207705095887	-137.722525087373	-10.0393683317063	-43.7198601217485	-46.313036509948	-53.6923983980315	-23.4000369939901	29.5351873582411	
2580000000.00009	-17.680638093675	-138.356707282049	-10.0287880298702	-45.9820676754517	-46.4175652699981	-58.0964928501957	-23.4229624333667	30.2471873140349	
2580333333.33342	-17.7485210057839	-139.015512730338	-10.022728707434	-48.2007932379452	-46.5500755406693	-58.4222691145286	-23.3743962213779	31.2379791767058	
2580666666.66675	-17.8296775461458	-139.577728791431	-10.017012379555	-50.5392088855139	-46.1354883993355	-61.9309518151146	-23.3822506885866	32.2901858989658	
2581000000.00009	-17.9036999122301	-140.394571807375	-10.0179689911754	-52.7055465139842	-46.5179289943731	-64.7296520965538	-23.3617469465347	32.9262405044734	
2581333333.33342	-17.9875681720046	-141.052645695926	-10.0128624934786	-55.0224187288785	-46.4403468687807	-66.4175876655726	-23.329102691585	33.5955584666604	
2581666666.66675	-18.0512053014353	-141.901522681632	-10.0007544084533	-57.2556904640947	-46.2534547155894	-70.0570691197504	-23.3250183966483	34.4749154977674	
2582000000.00009	-18.1505620754793	-142.447684474571	-9.99240727704535	-59.5588098556949	-46.2331783427039	-69.7785990611742	-23.2842194867449	35.1247519995344	
2582333333.33342	-18.2839414404873	-143.022389276159	-9.98423132136515	-61.7935456716205	-46.3177203090141	-72.3133869295884	-23.2947415325294	35.7142362275238	
2582666666.66675	-18.3233981177631	-143.908487577818	-9.98252239885824	-64.0518674830129	-46.3354676411238	-75.7309265869266	-23.2379397066784	36.5135711208787	
2583000000.00009	-18.436857931436	-144.55938161531	-9.97252261745703	-66.3471487385776	-46.5554612843232	-78.0393494196463	-23.2290797730541	37.1407249766505	
2583333333.33342	-18.5278565348352	-145.107080449253	-9.96121945148765	-68.6450518441247	-46.2840535898442	-80.349248799163	-23.2086813900873	37.6992069524384	
2583666666.66675	-18.6232188584621	-145.806702906281	-9.95562805494374	-70.953269455725	-46.524166495742	-81.2248454243021	-23.1971536357849	38.2216194771528	
2584000000.00009	-18.7562061584802	-146.67653788517	-9.94730780100748	-73.1934021270557	-46.2378022283819	-84.3136779654613	-23.200492626987	38.7082746449786	
2584333333.33342	-18.8903708176354	-147.203777406405	-9.94526666538463	-75.4759654140573	-46.6191070637272	-87.0355143735262	-23.1320465057074	39.1140180858118	
2584666666.66675	-18.9830881833687	-148.043440775473	-9.93512529457922	-77.7880889380009	-46.2001593492523	-90.1143619592613	-23.1693581268419	39.4274700003123	
2585000000.00009	-19.0935712111373	-148.755379336321	-9.93148905231043	-80.0554917583561	-46.4938677918349	-91.7733252981961	-23.1653798495783	39.8061040632149	
2585333333.33342	-19.2299787649309	-149.465722805277	-9.92292675017452	-82.3594274448592	-46.3793922103515	-94.2435552331609	-23.168425735823	40.1873900159637	
2585666666.66676	-19.3354854563818	-150.305036907096	-9.91805390192263	-84.659103124622	-46.6087872680798	-97.3565952497304	-23.1345788736836	40.5353507932293	
2586000000.00009	-19.4695130833014	-150.837016601511	-9.91130259005774	-86.9243872553603	-46.6898976728516	-98.7816011332378	-23.1202646193207	40.8892800633656	
2586333333.33342	-19.5939977897782	-151.621928667304	-9.90975049584588	-89.2412443373089	-46.1580287422297	-101.724544882476	-23.112403159588	41.1867145710203	
2586666666.66676	-19.7288453013507	-152.556998758918	-9.90529095992888	-91.5351966164203	-46.3845553342005	-101.753982388044	-23.0904117275864	41.2228423888317	
2587000000.00009	-19.8370230842688	-153.440474155947	-9.90187537046463	-93.8493181136089	-46.3470946021126	-105.212049621532	-23.1277545083801	41.2662905969918	
2587333333.33342	-20.0106184831674	-154.048681704117	-9.89786765080748	-96.1601789856701	-46.4807859324194	-108.139210670844	-23.1357530085691	41.3509515992219	
2587666666.66676	-20.130477513793	-154.951546870144	-9.8950003205767	-98.4498092738124	-46.3159298978039	-109.855725496267	-23.1017534114933	41.2769715976083	
2588000000.00009	-20.2723979863322	-155.793497683859	-9.89641331044123	-100.796832634177	-46.4450444318998	-112.858920927273	-23.0989169499398	41.4669723132142	
2588333333.33342	-20.4188984375209	-156.581067591218	-9.89363361416477	-103.099571038442	-46.2951457041746	-113.067298243725	-23.1009813869025	41.5814711187098	
2588666666.66676	-20.5514239652677	-157.660217206159	-9.8940595382236	-105.43884484612	-46.5162827113452	-115.582310724432	-23.1067503029757	41.3086036281247	
2589000000.00009	-20.6581775454222	-158.554402021173	-9.88814299084412	-107.735607044212	-46.2458509266808	-120.730761563373	-23.124906583171	41.1281848517486	
2589333333.33342	-20.8244710118315	-159.514219691684	-9.89055666761836	-110.046036509102	-46.2009634155871	-121.908764355067	-23.1430795718046	40.8752881187291	
2589666666.66676	-20.9117479279648	-160.44280736232	-9.89287620905895	-112.385725664561	-46.4756643633351	-122.102836388621	-23.1404966615741	40.6105524378214	
2590000000.00009	-21.0699016951462	-161.267607407168	-9.89341587729284	-114.696009816402	-46.4217983669743	-123.654438058364	-23.1633484231133	40.4867597116392	
2590333333.33342	-21.2036118814526	-162.506093586635	-9.89217367961672	-116.981995194888	-46.3165623201875	-127.144387298548	-23.1446675949371	40.1764169154888	
2590666666.66676	-21.3450078971498	-163.676648737388	-9.88715624435958	-119.338137418097	-46.3580104257255	-128.848524188109	-23.1691362302978	39.6762546672601	
2591000000.00009	-21.4858793513034	-164.733904644204	-9.88731906374073	-121.662407101004	-46.4734259662777	-131.873520758556	-23.1751475251637	39.2449479660432	
2591333333.33342	-21.5997383900425	-165.914868181216	-9.89704606169258	-124.00963923277	-46.5640663989294	-134.787167964775	-23.1790501686551	38.7459555501981	
2591666666.66676	-21.7410245278065	-166.952835244609	-9.89597275365242	-126.288865992675	-46.1529352495503	-137.585661250315	-23.2103310273467	37.9281809102439	
2592000000.00009	-21.838526844394	-168.361379996628	-9.90086932998108	-128.634522052902	-46.1767949639408	-139.090019931751	-23.2510648629899	37.4768853578468	
2592333333.33343	-21.9209603294207	-169.561754717859	-9.90147778271339	-130.95040687825	-46.0857470384306	-140.913265007531	-23.2525372883945	36.6763721714854	
2592666666.66676	-22.0724916143341	-170.995406634433	-9.90633890314433	-133.320855929735	-46.4013625448805	-143.151082984385	-23.2793270128577	36.0941809550093	
2593000000.00009	-22.1674611515236	-172.552291150003	-9.91023026329547	-135.611653184595	-46.2943731963319	-145.081985696183	-23.2657156426902	35.1751959440068	
2593333333.33343	-22.2435255341655	-173.972616296134	-9.9174546248133	-138.017265271261	-46.275188917312	-148.760722257175	-23.2947706984825	34.3114016353094	
2593666666.66676	-22.3632149307458	-175.598256461065	-9.91455948003218	-140.343831821397	-46.5991533992296	-150.934213707049	-23.3339130246581	33.4024909014287	
2594000000.00009	-22.4394851595624	-177.214157742846	-9.91857099627196	-142.695490195149	-46.211376947622	-152.920503709725	-23.353339811486	32.4803634573686	
2594333333.33343	-22.5241236544616	-178.78805565022	-9.91346742686768	-144.95104984303	-46.2105177908245	-156.507820325318	-23.366109503564	31.428685690263	
2594666666.66676	-22.5973599151557	179.506870349195	-9.92772981545892	-147.244199295143	-46.2030708386499	-158.374023049382	-23.3663165314097	30.4303210822304	
2595000000.00009	-22.6470411390045	177.545690124138	-9.93168072937455	-149.57696408283	-46.4163778850769	-160.764525312053	-23.381436454067	29.1891424197095	
2595333333.33343	-22.6655743949157	175.582743887907	-9.93757697276827	-151.930537036561	-46.4688561982882	-162.183219887953	-23.4145713823495	28.1133856055029	
2595666666.66676	-22.6883675516669	173.924710862598	-9.9441220289628	-154.214428992394	-46.3289071767199	-164.755463127093	-23.3903928051572	26.6799698514785	
2596000000.00009	-22.7079645449727	171.757305677577	-9.94406684721597	-156.533932433319	-46.0869473741473	-166.381610072116	-23.4021436671331	25.556755162841	
2596333333.33343	-22.7039734944226	169.546995266048	-9.95086448760361	-158.854872914461	-46.3507141441254	-170.145272866216	-23.4086077457779	24.1255184702681	
2596666666.66676	-22.7042934984186	167.604287212279	-9.95696423024427	-161.155847524321	-46.3997643431557	-170.820845346572	-23.4299227989225	22.6647620232059	
2597000000.00009	-22.6997628212329	165.532301455529	-9.96598169921517	-163.503567241296	-46.1343969837799	-173.382336298364	-23.4225856115675	21.1310196657327	
2597333333.33343	-22.6316894727103	163.248073994177	-9.96997028187987	-165.778551011102	-46.3917383532761	-177.348914257779	-23.421247188667	19.6552199339846	
2597666666.66676	-22.5917896610188	161.296835985948	-9.97910603500176	-168.040118944769	-46.4466785211311	-178.670480700273	-23.407108036556	18.1832935254361	
2598000000.00009	-22.5231423780202	158.978898907912	-9.98694694855562	-170.36625468997	-46.3302538721133	178.777654691041	-23.4084910081739	16.4145578611572	
2598333333.33343	-22.4625011669109	157.015104916157	-9.98963149008982	-172.673617969104	-46.1481352916562	179.85407963049	-23.3783547307024	14.9341172350556	
2598666666.66676	-22.3559062774277	154.842837488405	-9.99780541021626	-174.95930866988	-46.3885720545257	174.357989817292	-23.367539782083	13.2585319137087	
2599000000.00009	-22.2824415392113	152.647771646906	-10.0085623028888	-177.260832542347	-46.3134522540655	171.496029519041	-23.3550717173935	11.5309779908479	
2599333333.33343	-22.1733234325048	150.562751894809	-10.0147834719636	-179.538969829477	-46.3028464519066	169.974866850995	-23.3030841915959	9.93851940172494	
2599666666.66676	-22.0584395547826	148.498904132976	-10.0289997849741	178.172865461207	-46.3533546149374	168.0371542308	-23.2468150586135	8.02639466477111	
2600000000.0001	-21.9285713275554	146.361269903085	-10.0397838726778	175.913790963371	-46.4295375907856	163.255496987525	-23.2272465931476	6.70910034283828	
