!Agilent N9923A: A.05.34
!Date: Sunday, 13 March 2016 21:02:43
!Model: N9923A
!Serial: MY51491690
!GPS Latitude: 
!GPS Longitude: 
!GPS TimeStamp: 0001-01-01 00:00:00Z
!GPS Seconds Since Last Read: 0
!CHECKSUM:1279696714
!Correction: S11(ON U)S21(ON U)S12(ON U)S22(ON U)
!S2P File: Measurements:S11,S21,S12,S22:
# Hz S DB R 50
2400000000	-16.74384468589	179.206471718909	-9.52013180225581	176.79882312785	-46.111781941726	162.651034592717	-21.2982100647224	-12.3634190752705	
2400333333.33333	-16.7841433846615	178.182668284767	-9.50403902854165	174.478179570273	-46.2637424976988	161.346500822662	-21.5233788932889	-12.5504522229932	
2400666666.66667	-16.8247744681571	177.477007888901	-9.49672568768383	172.203895445965	-46.1656625064	158.40096867458	-21.7207379556035	-12.7720293677723	
2401000000	-16.8547441231215	176.408035824781	-9.49116585916775	169.858727258649	-46.1168280495614	156.022435862259	-21.9256991217487	-12.9347638901572	
2401333333.33333	-16.9301577465812	175.430073990121	-9.48726380161405	167.522668555055	-46.361784177232	151.729376038516	-22.1510300017192	-13.1374424046746	
2401666666.66667	-16.9792206884412	174.334346125436	-9.48107783797647	165.205093152093	-46.4150049935386	154.168014605001	-22.4076570509326	-13.3279536572108	
2402000000	-17.0201830992314	173.455954873618	-9.47181156112947	162.930283646529	-46.5198022600337	150.351321082678	-22.6161887461871	-13.5970684043856	
2402333333.33333	-17.0669583245987	172.588111159141	-9.45964617078922	160.608557962135	-46.3705565079895	147.077360923399	-22.8629902419141	-13.7298357973032	
2402666666.66667	-17.1027119383653	171.463106554733	-9.45524886718607	158.201784957307	-46.4411880631317	144.160493169539	-23.1260569408503	-14.0200014977674	
2403000000	-17.1387172483536	170.434727237554	-9.44943480835889	155.857857704996	-46.3441111541322	142.62678926434	-23.3881256830308	-14.2791558962629	
2403333333.33333	-17.2012948270032	169.2278334394	-9.44302187035209	153.569706325146	-46.3333903883191	139.816403868538	-23.6470530254557	-14.5363142155658	
2403666666.66667	-17.2442948278738	168.148093565138	-9.43845476078636	151.206296155542	-46.2977512224075	139.072615371561	-23.9020400641381	-14.6254665304258	
2404000000	-17.2688964503627	167.060289117823	-9.43249869932466	148.917798019323	-46.6350071809446	134.685011075893	-24.2397602268383	-15.0195545114709	
2404333333.33334	-17.3238349467204	165.83784278441	-9.43277285458894	146.506764079994	-46.3040160546059	133.641346309163	-24.5321031244751	-15.2934165067066	
2404666666.66667	-17.3566637831631	164.754213051892	-9.42993203822488	144.179175170576	-46.2112655939309	131.987640871067	-24.8363850962432	-15.5461605207008	
2405000000	-17.3903576352339	163.501207892139	-9.43098797328221	141.84872860309	-46.3101310599232	128.512396600321	-25.1740873651358	-16.015411171591	
2405333333.33334	-17.4347991311324	162.328588507785	-9.4194509085123	139.476844811053	-46.3579441161056	123.633981952599	-25.4759801458781	-16.1143607138468	
2405666666.66667	-17.4411419058543	161.078748129553	-9.42345376171366	137.131244191557	-46.6135300949962	124.779955884528	-25.8361522704969	-16.4048858887385	
2406000000	-17.4797689024951	159.884568312527	-9.42040380022273	134.808387968129	-46.4834375814106	121.93513868424	-26.1810992882894	-16.7605883727779	
2406333333.33334	-17.496477944199	158.648362923131	-9.4256931035457	132.446452807172	-46.4977003759459	121.449365870301	-26.532213849033	-17.024435513721	
2406666666.66667	-17.5188200309868	157.302837096769	-9.41274132845834	130.116726630413	-46.3286712204487	117.67524131095	-26.9452700347544	-17.0833578581027	
2407000000	-17.533548352945	155.94561259237	-9.41858918681193	127.777600915943	-46.1987771585647	115.081856328318	-27.3253977370045	-17.3692931570354	
2407333333.33334	-17.567293560861	154.610314864723	-9.42234546553315	125.431737962271	-46.4397045235655	112.974847500868	-27.7180530812068	-17.6463420058882	
2407666666.66667	-17.5490854630131	153.334089522039	-9.4229113928637	123.090421527979	-46.1533900654395	110.855238260169	-28.1644662374155	-18.0955862876377	
2408000000	-17.5716574260654	151.893973120626	-9.42756597809534	120.761243533893	-46.4625630271057	108.166414428083	-28.6132086159044	-18.3447801992324	
2408333333.33334	-17.560650575541	150.540385429068	-9.43055799134529	118.446194825901	-46.2186816913448	105.066205608727	-29.0469174166276	-18.464359233016	
2408666666.66667	-17.5423106797514	149.090165707478	-9.4319093033293	116.109486515934	-46.3045491944988	102.313475821468	-29.5379983812457	-18.6130730397133	
2409000000	-17.5370268711881	147.752111377778	-9.44232403595971	113.786790156186	-46.4148657552705	100.674737056531	-30.0307682044362	-18.3888660826028	
2409333333.33334	-17.5336188137039	146.257805337759	-9.45040416391081	111.453387067889	-46.269975947563	101.494773862978	-30.5178144868392	-17.9055936498813	
2409666666.66667	-17.4942969853962	144.914794600051	-9.45495438711382	109.130163301179	-46.3711306927263	96.9462825041094	-31.0491597078551	-18.5438897304645	
2410000000	-17.4719414241641	143.526428877424	-9.46426554020963	106.798432737898	-46.4345548561681	95.0747939189575	-31.6870426229847	-18.5225292004588	
2410333333.33334	-17.4396937493799	142.091179719741	-9.47417699573704	104.512202300725	-46.6725350718399	92.0647927224914	-32.2040426995702	-17.9255050045181	
2410666666.66667	-17.4068117894498	140.749569638065	-9.47626979673755	102.196873814974	-46.5097290892344	90.0536553569445	-32.7632188109472	-17.6130367201727	
2411000000.00001	-17.3546414737824	139.321254717605	-9.49030744357925	99.9137143306346	-46.3066455474393	87.9189923586967	-33.4024460079287	-16.9863058651651	
2411333333.33334	-17.322830216857	137.952241589006	-9.49955658921093	97.589884999979	-46.3890893488256	83.8479313908857	-34.0275550730699	-16.5419802249571	
2411666666.66667	-17.2654321794616	136.558029840835	-9.51183956392988	95.3175106629414	-46.5239904952815	81.139392735254	-34.7391923537267	-15.2144159028172	
2412000000.00001	-17.2108266897331	135.20878717535	-9.51660765209174	92.9903416270824	-46.4049799202876	80.5825042875728	-35.4088953068446	-13.2088985022622	
2412333333.33334	-17.1459660569868	133.762504794816	-9.53345090041614	90.7100513033586	-46.5419296908298	77.2491639550765	-36.0136209643845	-11.1064018032496	
2412666666.66667	-17.0770708515084	132.451214255971	-9.54922488223288	88.4331397445446	-46.6576348452727	77.5585768196259	-36.7145380286665	-9.2750089651314	
2413000000.00001	-17.0021707751086	131.112553525602	-9.56207828416909	86.1257825189519	-46.6074719106417	73.3638578700345	-37.5109357771329	-7.14771018797749	
2413333333.33334	-16.9221018495966	129.759083939881	-9.57328070712443	83.829077659976	-46.2745128337776	69.117834921869	-38.0882596344079	-4.92644060940611	
2413666666.66667	-16.8429905855985	128.502253217681	-9.58158033040189	81.5619230187129	-46.6592754462466	68.9219809170325	-38.6903682944665	-0.269990450288968	
2414000000.00001	-16.7855102496441	127.260597616141	-9.59769419602188	79.3242408469247	-46.5369186397727	65.2109898120874	-39.2253570021478	3.45564549122974	
2414333333.33334	-16.681324547254	125.930330403624	-9.61663044986375	77.0775979946537	-46.5977680643855	63.0693074338367	-39.5184851913201	9.05388261689403	
2414666666.66667	-16.5837313434096	124.681977691488	-9.63086531303998	74.8037792457045	-46.5585894531192	61.5002212236559	-40.1583927282997	13.9443789770286	
2415000000.00001	-16.5025276126556	123.517877456212	-9.65067529485701	72.5444729029982	-46.4855438173109	60.0170858088052	-39.9755797480152	20.4693556298767	
2415333333.33334	-16.4078902237284	122.309025641597	-9.66109622367261	70.3005992375671	-46.5898856533854	58.0756074471937	-40.0178453040186	25.3227553132762	
2415666666.66667	-16.3136270653988	121.159801443195	-9.67598962563415	68.0455530599531	-46.7748427210102	54.4645703718841	-40.0138972824779	30.1792656873363	
2416000000.00001	-16.2103977829475	120.014760871096	-9.68829531677037	65.7870340561006	-46.3593714295333	51.9887945309963	-39.7451450813632	33.4714561152968	
2416333333.33334	-16.1189165768413	118.85639936433	-9.70833773070517	63.6064641964558	-46.9319597205256	49.237370095832	-39.3937620383609	38.4705691759546	
2416666666.66667	-16.0259234210529	117.726031391048	-9.72388030992319	61.3602312551334	-46.5086216341949	46.2323884460887	-38.7441279728845	40.9075046196044	
2417000000.00001	-15.9329537943024	116.703535577835	-9.73718182304304	59.1491941467551	-46.6363512961402	45.119532584917	-38.4212474083986	43.9118154453908	
2417333333.33334	-15.8306592877374	115.664593884754	-9.75813051519409	56.8754070784554	-46.6151389287895	44.0505311468319	-37.892481250572	45.2436137063551	
2417666666.66668	-15.7300712423616	114.592657061004	-9.77123722119007	54.665649286073	-46.6063160294443	39.5533283710727	-37.3705815177054	46.99832386557	
2418000000.00001	-15.6252907979053	113.609470493503	-9.78342980340664	52.4410457942632	-46.7591291508805	37.662337581277	-36.8813167021151	48.1049831546481	
2418333333.33334	-15.5219216036216	112.638477949367	-9.79909088810131	50.2922078669295	-46.5703322142483	36.0949576438081	-36.2848767640743	47.8690892414257	
2418666666.66668	-15.4379012521431	111.633185488929	-9.81420635401038	48.0664528578644	-46.6401483804403	32.3907430706257	-35.6546661602024	48.5751347510546	
2419000000.00001	-15.3295959910629	110.704403962552	-9.82843710469482	45.7771369101417	-46.5681314332048	31.7277668049515	-35.226607520331	47.9515752271212	
2419333333.33334	-15.2419661764976	109.772124107663	-9.83839446678506	43.6127890303873	-46.5921181762343	27.6623193546057	-34.708169862928	47.8471334861932	
2419666666.66668	-15.1385811244298	108.929739809014	-9.8500862501588	41.3517256116006	-46.8594643818842	26.3286338102508	-34.1970734937459	46.8822342721929	
2420000000.00001	-15.0585557738394	108.026323467794	-9.86344740368335	39.159661828085	-46.7645093450883	23.9870636730692	-33.7706185128627	46.2475887719973	
2420333333.33334	-14.9551592613745	107.208962358425	-9.87759065212943	36.9662378004452	-46.4191632898142	22.7668549110528	-33.1858032775828	45.0032509067276	
2420666666.66668	-14.8713790600074	106.417904138397	-9.89486830458498	34.7280731802709	-46.6483647285324	19.7615793990438	-32.6973701855606	43.2965615906771	
2421000000.00001	-14.7839425584779	105.657600924138	-9.90242372614654	32.5155358188814	-46.8869537565437	18.4822147030286	-32.2141124810535	41.6631713050481	
2421333333.33334	-14.6916837852828	104.837520540758	-9.90886736503434	30.3177734991283	-46.9001949676247	15.9146597165572	-31.7460415274575	41.0204628769485	
2421666666.66668	-14.6257384837138	104.084708722141	-9.91610114309797	28.1205256240351	-46.5603966669735	11.9932617617314	-31.2903777274858	39.636745894238	
2422000000.00001	-14.5397000536541	103.370319371894	-9.92497263363069	25.9246710502388	-46.6295172494115	11.7936217836529	-30.783138622377	38.0387928130759	
2422333333.33334	-14.4558130024494	102.613128445282	-9.94011243385638	23.6703743941218	-46.565730222745	9.61259880576461	-30.3287481631866	36.8470981280789	
2422666666.66668	-14.3744273645081	101.939477022725	-9.94330358044521	21.4630385072112	-46.8576943357593	6.53676294862444	-29.9400962040962	35.2264461477076	
2423000000.00001	-14.2998666242837	101.288397711285	-9.95137042506013	19.2464816131341	-46.7583131166375	4.69350591393751	-29.4981335361574	33.8319365047832	
2423333333.33334	-14.2396453507167	100.614194485652	-9.95827602828902	16.9987264325193	-46.489463976681	2.59002785811443	-29.0622764800359	32.505573772218	
2423666666.66668	-14.1718232623187	99.9605684211826	-9.96181408693437	14.7755419108296	-46.6731242631581	-0.341832410639738	-28.6671118460232	30.8892026444124	
2424000000.00001	-14.1061028403239	99.3813117048977	-9.97616320408641	12.5405375221997	-46.681018821084	-3.81501051668351	-28.2812826635983	29.3553800798397	
2424333333.33334	-14.0387829836745	98.8592768879816	-9.97957056567422	10.3035422574285	-46.7972146470229	-5.4603160054475	-27.8428216166314	28.1310038507687	
2424666666.66668	-13.9862146436542	98.1933746853814	-9.98342417098997	8.10181400231901	-46.6913261781211	-6.2753598051274	-27.4599038964242	26.817603570578	
2425000000.00001	-13.9319035081766	97.6979596310973	-9.98912124081857	5.82528799301153	-46.7521533718567	-8.43083130609055	-27.0751387235418	25.2457955491853	
2425333333.33335	-13.870133609695	97.1348612442029	-9.99195199011908	3.60995423890798	-46.6334647515217	-11.2123891880094	-26.7446450892374	23.9137543524075	
2425666666.66668	-13.821221001387	96.5945386132342	-9.99250418712768	1.32935415451519	-46.797828228824	-12.6735545945474	-26.3313206103529	22.4398452371912	
2426000000.00001	-13.7717820160705	96.1801974305104	-9.99674980836495	-0.921060809124123	-46.858461184333	-14.6356962813875	-25.9891279330833	21.1930213225441	
2426333333.33335	-13.7307074654239	95.659799812941	-10.0074142229443	-3.15521687242657	-46.8351066668212	-15.965532268288	-25.6206673948281	19.8899116284508	
2426666666.66668	-13.6859542587828	95.2962369304076	-10.0103078416504	-5.40436857009854	-46.9097562308806	-18.5010609670951	-25.3106142092396	18.7518804892171	
2427000000.00001	-13.6468289924102	94.8791246894619	-10.0078937591778	-7.66060573767096	-46.8205010000256	-20.3252800847063	-24.9801930562088	17.4489168610603	
2427333333.33335	-13.6128674832618	94.4978649279765	-10.0100439031705	-9.9407627533673	-46.7849808604613	-22.2602441165741	-24.6311923535081	16.2252822759158	
2427666666.66668	-13.5766373673518	94.0606615416807	-10.0172181403926	-12.1909341885063	-46.7785799709238	-26.0393507839897	-24.3193997561392	15.2079684070013	
2428000000.00001	-13.5323589565815	93.5867164542678	-10.0226756690882	-14.4365131657197	-46.7559131369704	-26.892640855053	-24.0097778632859	13.8365322436594	
2428333333.33335	-13.4979253638234	93.3730870671503	-10.0212915752928	-16.7361556023872	-46.5926622886105	-29.0958993052664	-23.7250433333472	12.8443296831306	
2428666666.66668	-13.4734126787416	93.023571950575	-10.0266626808421	-18.9780171564085	-46.8516435430768	-33.9576814700112	-23.4177712563284	11.710758738824	
2429000000.00001	-13.4487065120154	92.6757917962757	-10.0225574006993	-21.2335849717328	-47.2713489385075	-35.2558911069301	-23.1292497392899	10.5940185080697	
2429333333.33335	-13.4208889178978	92.4088315868759	-10.0293288148397	-23.4928470477195	-46.9454583912182	-38.0403364727531	-22.8458112642793	9.65574037706583	
2429666666.66668	-13.3928657119723	92.2255695748229	-10.0354790306801	-25.747750203043	-46.6794756042579	-40.9015939764832	-22.5803562868626	8.53056536723859	
2430000000.00001	-13.370941578005	91.8388759337288	-10.0330525546004	-28.010473835383	-46.8189543699326	-42.7874616661831	-22.327876283409	7.64535091400737	
2430333333.33335	-13.355009344466	91.6518581788676	-10.0333335261213	-30.3004664540151	-46.7324576775443	-45.3509789880737	-22.0602409968035	6.52749999919277	
2430666666.66668	-13.327040686037	91.3367102003734	-10.0421706715286	-32.5028467801793	-46.7887511586594	-43.885540603889	-21.8522621853719	5.56501156619631	
2431000000.00001	-13.3113311857814	91.1384633289629	-10.0343543817592	-34.7533129878398	-46.7975930308588	-47.0489216924077	-21.576128553481	4.61124826501435	
2431333333.33335	-13.2925130679143	90.9021533659621	-10.0450144993327	-36.9888868629353	-46.8759251511218	-51.4878008895034	-21.3693717644837	3.71850424091472	
2431666666.66668	-13.2709199974044	90.7510253086931	-10.0398440541914	-39.281642470359	-46.9009466930867	-52.9108945102321	-21.1523348976744	2.84217677374566	
2432000000.00002	-13.2548726393631	90.4512835261025	-10.0417484163097	-41.496897436874	-46.8095654490024	-54.4505453566002	-20.9301434929244	2.12651251829448	
2432333333.33335	-13.2456835826689	90.3264580688795	-10.0437928920173	-43.7724836896313	-46.7907958605228	-57.574840140028	-20.7379728561087	1.06988767793283	
2432666666.66668	-13.2283646167294	90.1311226370185	-10.0475309921266	-45.9851742768212	-46.8114993348889	-58.6814303081574	-20.5186247389553	0.339921315716045	
2433000000.00002	-13.2077263264996	89.9475008374854	-10.0456533623709	-48.2441875663835	-46.8027349736239	-61.7717277168708	-20.3340904015527	-0.521264232905882	
2433333333.33335	-13.2055231117628	89.8163536379632	-10.043756255633	-50.4997812589981	-46.7165686038912	-64.3562943140379	-20.1469759642043	-1.22927846263837	
2433666666.66668	-13.1872007597086	89.5796483096448	-10.0452029112206	-52.7322406707131	-47.0126347665965	-65.1556315642173	-19.9799539723101	-2.19869674878145	
2434000000.00002	-13.1717797789309	89.3994100020279	-10.0422347510599	-54.9502742692049	-46.9585386543036	-66.8852528122189	-19.8289811454866	-2.83085565954885	
2434333333.33335	-13.1625796726857	89.2551267363388	-10.0395993223285	-57.2295104038523	-46.6343910112308	-70.4963976297661	-19.661564580419	-3.5961070627738	
2434666666.66668	-13.1488074441348	89.0314160050831	-10.0479340655579	-59.443934962594	-46.7493362313432	-72.9444963351657	-19.5266087648996	-4.37505808220154	
2435000000.00002	-13.1321212602327	88.9338886177627	-10.0424172359669	-61.7089372647547	-46.7572292502859	-74.7129543085188	-19.377803280791	-5.11034673528339	
2435333333.33335	-13.1188729364815	88.6649540501531	-10.0351789950061	-63.9711447363553	-46.8107028194193	-77.0508374638133	-19.244450713865	-5.81184209058071	
2435666666.66668	-13.1134753312941	88.4706089428981	-10.0380785347848	-66.211126779341	-46.8219474147521	-79.7513230999912	-19.0973164258034	-6.40707992038851	
2436000000.00002	-13.1048170628631	88.285507971898	-10.0354029114504	-68.4346204617114	-47.0000137569122	-81.7297800549183	-18.9924190881431	-7.0938540060494	
2436333333.33335	-13.0979511285429	88.0853397515048	-10.0324705716285	-70.691381493846	-46.8187211704711	-83.5723374830217	-18.8799718665716	-7.75864506969146	
2436666666.66668	-13.0913879496355	87.9020282544405	-10.0292214667629	-72.9197325591381	-46.8726020680861	-86.5201223607598	-18.7677403042639	-8.48273681389471	
2437000000.00002	-13.0730060878038	87.6516114963881	-10.0287290412057	-75.1572441559467	-46.7775104416468	-86.4892995780058	-18.6687932504464	-9.09953452658073	
2437333333.33335	-13.0669185107488	87.4175057870663	-10.0186920393785	-77.4143493078781	-47.0199519582691	-91.4793780627322	-18.5794444683106	-9.710146963361	
2437666666.66668	-13.0632060793311	87.0931391011722	-10.0218958092771	-79.6378677538029	-46.8284417807765	-91.8879338995267	-18.4959212808003	-10.230979964632	
2438000000.00002	-13.0654258356485	86.9293921083316	-10.0167044222876	-81.9043549801405	-46.8612484799009	-94.015237225779	-18.4136952464377	-10.9212533378719	
2438333333.33335	-13.0408653676814	86.5691720269455	-10.01647201228	-84.1173754039556	-47.047230756654	-97.7715679575469	-18.3452722144547	-11.4344191203759	
2438666666.66669	-13.0493627799711	86.3852941639119	-10.0128889662414	-86.4021013421098	-46.7049605633395	-97.9314657062921	-18.2788093950752	-12.0098862140133	
2439000000.00002	-13.0376002507524	86.1637800292556	-10.0060776209957	-88.6228804998114	-46.8708816871149	-102.317198927928	-18.2294464713696	-12.5941933328619	
2439333333.33335	-13.0500366842548	85.8087668473329	-10.0033493247617	-90.85280870151	-47.069921436069	-104.025704398086	-18.1678247285786	-13.2481721060546	
2439666666.66669	-13.0350891445303	85.5349690857554	-9.99937077652016	-93.1164274123612	-46.8661220444105	-105.72907343743	-18.1343659969679	-13.5971222678561	
2440000000.00002	-13.0308843770772	85.2581672443237	-9.99896132920366	-95.3338674104151	-47.0194775495396	-109.084526561517	-18.1146774438554	-14.0874469743302	
2440333333.33335	-13.0419420612268	84.9409695421546	-9.99078781983265	-97.5909547921582	-47.0134220541303	-108.959994092294	-18.0567661239447	-14.6137768371251	
2440666666.66669	-13.0375879191112	84.6884748846949	-9.98271209872818	-99.8457706825746	-47.2523475729011	-112.155217101729	-18.0413108857225	-15.1268552943525	
2441000000.00002	-13.056569552427	84.3020891340084	-9.98711368872988	-102.067318885283	-47.1604445097999	-114.955734682701	-18.037519672864	-15.585869922255	
2441333333.33335	-13.0277004457411	83.8934758195311	-9.98388150840045	-104.318736700387	-46.9832493562019	-117.19014129366	-18.0433751895019	-15.9855438664453	
2441666666.66669	-13.0575104700173	83.5514565458001	-9.97140218710535	-106.595443151563	-46.8142657657329	-118.572661600923	-18.0075709045525	-16.3619339156092	
2442000000.00002	-13.0558650777848	83.2703143386168	-9.96955128953056	-108.796213818008	-47.0731236526093	-121.126665315527	-18.0283580789553	-16.772049872974	
2442333333.33335	-13.0781286219044	82.8258068832189	-9.96599733628676	-111.056853556724	-46.8287907769346	-124.941998460407	-18.030368364658	-17.2327454184529	
2442666666.66669	-13.0788806685538	82.5076374352285	-9.96282723976341	-113.316303663403	-47.0001918792005	-127.736221350106	-18.0602563696798	-17.4848877909719	
2443000000.00002	-13.0960170649053	82.0380118739268	-9.95313358984128	-115.558171625267	-47.0011829438345	-128.106798323643	-18.0763655789424	-17.8326709273608	
2443333333.33335	-13.115731453764	81.6623524129924	-9.95237255198806	-117.827387662902	-47.0167615398828	-131.257021483434	-18.1233867410677	-18.2955068573813	
2443666666.66669	-13.1331321093868	81.394398865481	-9.9457013909686	-120.046346141503	-46.911097691693	-134.459583986544	-18.1544599434981	-18.5315138233612	
2444000000.00002	-13.1436545971935	80.8296163094111	-9.93964674354828	-122.293736605402	-46.8358853701569	-134.046495175754	-18.2047458059548	-18.8460975080218	
2444333333.33335	-13.1599979606086	80.3828073475351	-9.93449784725752	-124.533731177757	-46.9017529335583	-137.069159851255	-18.2515971820129	-19.0098555243599	
2444666666.66669	-13.1933168742569	79.9484726326945	-9.93932551085174	-126.814028921234	-47.0719197582237	-139.610602626331	-18.2953581427029	-19.4199563127474	
2445000000.00002	-13.2120570671357	79.5621373116481	-9.92721571691351	-129.05726348688	-46.9259757703367	-141.991273077042	-18.3932467427075	-19.5710075004783	
2445333333.33335	-13.2452976018726	79.0106833976623	-9.92484552034648	-131.300213544541	-46.8841308244648	-144.165089684037	-18.456827366028	-19.7769418892136	
2445666666.66669	-13.2674861566423	78.6337865740701	-9.92126713631496	-133.54534371068	-46.9236905192125	-146.414184915446	-18.5319749720855	-20.0201129795085	
2446000000.00002	-13.2957580475243	78.0862971955587	-9.91663194089171	-135.785813831477	-46.9855514448023	-147.767933117923	-18.61377168765	-20.0987817823192	
2446333333.33336	-13.3268544796603	77.6407701185037	-9.90391346043826	-138.08958562941	-47.1331733733826	-149.957870011002	-18.7019493275669	-20.3131755421184	
2446666666.66669	-13.3521672411178	77.0838681089991	-9.90990571511267	-140.285874420856	-46.8621243365777	-152.557472179312	-18.8136115805324	-20.2966805219714	
2447000000.00002	-13.4026224271351	76.5033378877119	-9.90211098156878	-142.566631429132	-46.9187170967867	-155.309416830865	-18.8982737775468	-20.341003655346	
2447333333.33336	-13.4304413772913	76.0781070025003	-9.90034248252275	-144.816252678077	-47.0399798837749	-157.47442070187	-19.0167304318264	-20.4731684583862	
2447666666.66669	-13.4617117135066	75.6044872910387	-9.89258938810367	-147.105862649967	-47.0462904602375	-161.678755962813	-19.1423052436359	-20.3727177773493	
2448000000.00002	-13.4790399598304	75.1373181686089	-9.89466054545309	-149.329848936029	-46.9697609682918	-161.08579617462	-19.2585576686234	-20.4184364471925	
2448333333.33336	-13.5240488344702	74.5873741522472	-9.88914536541025	-151.602646828114	-47.0910449997672	-162.064219872241	-19.3891042541909	-20.3335345439259	
2448666666.66669	-13.5371334598481	74.0699876125909	-9.87899962501371	-153.85693079877	-46.8057376680065	-166.830675478163	-19.533928471264	-20.3403678490348	
2449000000.00002	-13.5693490768198	73.4329784892118	-9.87940852822925	-156.112958954313	-46.8774080872416	-169.749787368373	-19.678957928859	-20.0812322313423	
2449333333.33336	-13.6183076962216	72.8582732892698	-9.87472980300386	-158.406265259259	-46.7536183314131	-170.498623544432	-19.8379897451849	-19.8749762850605	
2449666666.66669	-13.6551179159388	72.3376365812095	-9.87489186580063	-160.653170035622	-46.8592385473502	-172.745297342114	-20.0035071649915	-19.5451225169091	
2450000000.00002	-13.6877693339276	71.7462394774871	-9.87069136245217	-162.889303331475	-46.7759790271729	-175.699625877401	-20.1260732619434	-19.3298295983004	
2450333333.33336	-13.7334370386897	71.153310029952	-9.86982659382999	-165.153271290907	-46.9296770007056	-178.619007000398	-20.2933924585525	-19.0517664955649	
2450666666.66669	-13.758647127925	70.4682896900949	-9.86300626723548	-167.397702070531	-46.6414860062882	179.660045858347	-20.4693235943559	-18.5735485992662	
2451000000.00002	-13.7964892888748	69.9696557287744	-9.86303536555392	-169.609360425474	-46.7532008549685	-179.457391644843	-20.6424129916274	-18.218218851523	
2451333333.33336	-13.8311265911011	69.3396366415776	-9.85872855910709	-171.892318667947	-46.6783381295702	176.670767225783	-20.8431664958756	-17.7561131763545	
2451666666.66669	-13.8654865001552	68.8404209820074	-9.85133415697364	-174.130490314618	-46.8675007620734	174.020470123129	-21.0108415312098	-17.2910134027709	
2452000000.00002	-13.892491039863	68.1815079497337	-9.85599927556893	-176.373893240871	-46.962722515498	170.967913164464	-21.1779321563493	-16.6043150027343	
2452333333.33336	-13.9164703407367	67.5384699252787	-9.85838959372023	-178.62936315652	-46.7574712727615	169.769496419506	-21.3592029139078	-15.7969320889627	
2452666666.66669	-13.9555889811471	67.0035552251793	-9.85396965084155	179.100881137238	-46.876197916751	165.979441090559	-21.5639818228864	-15.1837823114352	
2453000000.00003	-13.9754571480505	66.4448417853434	-9.85418380767292	176.90190151683	-46.5211926982557	166.689499891646	-21.7409636100094	-14.4432869643401	
2453333333.33336	-14.0061525292812	65.832134928135	-9.8568546409071	174.661786371514	-46.8654123620063	161.748911532294	-21.9531017362715	-13.595119508152	
2453666666.66669	-14.0376246268389	65.167278850478	-9.85425545089013	172.43478737929	-46.6876090623957	159.395838466967	-22.1534836632529	-12.7074227483952	
2454000000.00003	-14.0295583354982	64.5482763079589	-9.85340414664825	170.177350001578	-46.6856896055795	158.973483026714	-22.3310122655763	-11.6931546681487	
2454333333.33336	-14.0544485950454	63.9514580035882	-9.84537950413105	167.907031505147	-46.6997922544201	155.244863529868	-22.5418857497209	-10.5659882171253	
2454666666.66669	-14.0892926994265	63.4475572390304	-9.84893549188931	165.7225997822	-46.6518395463973	154.158815829363	-22.734019362061	-9.57394145829714	
2455000000.00003	-14.0909621488282	62.8366724891517	-9.84859099346717	163.480313213814	-46.8078700294257	150.841262583167	-22.9444023007598	-8.41471966341178	
2455333333.33336	-14.1083516713513	62.1370637606782	-9.84711208288316	161.283460011897	-46.8720205362422	148.59883385421	-23.0988432482793	-7.07358181193626	
2455666666.66669	-14.112805904423	61.6009648716529	-9.84474149686591	159.047396689286	-46.5902025496017	147.489093468483	-23.2996537180213	-5.70654235007173	
2456000000.00003	-14.1283787174712	60.9782426596089	-9.84574809055078	156.791059109933	-46.5916092238053	144.651901861232	-23.4540447805932	-4.63120095912722	
2456333333.33336	-14.1317186521674	60.3622754451147	-9.84731307719309	154.572987826661	-46.9110414171467	140.962204991339	-23.625160334131	-2.8020785388192	
2456666666.66669	-14.1231054297854	59.7883768855098	-9.84162719912585	152.392716218352	-46.7379395012868	138.806461767926	-23.7743117119642	-1.47271864499528	
2457000000.00003	-14.1237769326342	59.2428712016352	-9.84339354057354	150.128621402372	-46.4736585150389	138.522740100804	-23.8902412689756	0.121617933449135	
2457333333.33336	-14.1212996044796	58.6665624090983	-9.84068445736592	147.952234469414	-46.5001150249012	136.463995664135	-24.0846756520091	1.87549326313368	
2457666666.66669	-14.1082757495989	58.0621207909253	-9.84626326891421	145.728487338821	-46.6932665439519	132.946558688859	-24.189885127777	3.59755334652075	
2458000000.00003	-14.0930802255496	57.4416602766732	-9.84256774868351	143.478434057944	-46.8095756019686	131.186816577822	-24.2798690633005	5.16428908931654	
2458333333.33336	-14.0851598067964	56.8215957169143	-9.84260282405802	141.268155846836	-46.7862924660811	128.738984741792	-24.3781294753252	6.78528824049606	
2458666666.66669	-14.068493903468	56.2613656383471	-9.8422939516806	139.041879206985	-46.7716061364541	126.724396488805	-24.4324652447914	8.60838329663276	
2459000000.00003	-14.0578413852032	55.7569808141758	-9.83715705543588	136.791235418211	-46.7794677804247	125.055835621655	-24.5310111547089	10.0093090149116	
2459333333.33336	-14.0333439041309	55.1685915176617	-9.83420172733311	134.641502326074	-46.4848368629167	120.521055348682	-24.6060017156261	12.0280570296511	
2459666666.6667	-14.0159072200554	54.5992902145355	-9.83171199219035	132.334946911875	-46.4902080450032	119.102824886763	-24.6488151616434	13.5761524261965	
2460000000.00003	-13.9918839991282	54.0662741729614	-9.83933261567742	130.12047703326	-46.6227425043813	118.463666908141	-24.6916741465259	14.8610364139436	
2460333333.33336	-13.9578561874996	53.5013098347921	-9.83221206371146	127.889524317693	-46.3474465209046	115.76965243997	-24.6968209864163	16.5750737415808	
2460666666.6667	-13.9283134192696	52.9368631130294	-9.83707440138099	125.61188141312	-46.442424982078	114.28613065289	-24.7138602960921	18.0076546570692	
2461000000.00003	-13.9054491536507	52.3805346822786	-9.83079664799291	123.383126575075	-46.7376323439987	111.118283205646	-24.7222635539018	19.6131769661834	
2461333333.33336	-13.8525842426751	51.8737719086752	-9.83290575743614	121.114747468271	-46.5068117360439	110.364243468995	-24.6955088711656	21.228331999054	
2461666666.6667	-13.8278221001079	51.2071550714315	-9.83131867792178	118.853799696892	-46.2287807779453	107.669690599363	-24.6944643538004	22.243108068354	
2462000000.00003	-13.7987967480353	50.806537565189	-9.82565383583782	116.603899474394	-46.6790315816847	103.915862140692	-24.6938316188412	23.4163721697873	
2462333333.33336	-13.7593604179634	50.2990484402159	-9.82343182232376	114.370891267074	-46.4489496809567	101.720351280424	-24.6407738690937	24.8534001442731	
2462666666.6667	-13.7078779724163	49.7428403239843	-9.82659244175353	112.073108788309	-46.4064664502658	100.4859172455	-24.571932520456	25.9515594507381	
2463000000.00003	-13.6576654961579	49.1830642072292	-9.83065033652861	109.802951070594	-46.6339937327826	96.3215439739154	-24.5360375783875	26.7558964923987	
2463333333.33336	-13.6067243541911	48.7105296939096	-9.82432210365163	107.562577746255	-46.6747499774759	95.2713554907747	-24.5306680701892	27.9052669954358	
2463666666.6667	-13.5633806052823	48.2260897427509	-9.82331744740696	105.287450950801	-46.6808377595694	91.4197402327823	-24.4740412905049	28.7366577458504	
2464000000.00003	-13.5029230959117	47.7229603434735	-9.82619492587064	103.003804793054	-46.7538449298899	90.9135507594366	-24.4292914715891	29.4078393969933	
2464333333.33336	-13.4660827896669	47.2463523970118	-9.81943843165854	100.734761262578	-46.6623639278282	87.093208572469	-24.4104597269545	30.0361247201505	
2464666666.6667	-13.4102287791721	46.7309609182917	-9.82627145734641	98.4630745545332	-46.376919717737	84.6535558303462	-24.3219809336293	30.7199536667689	
2465000000.00003	-13.3447173719484	46.2456766495829	-9.82891583458825	96.1512665395329	-46.6251540611094	83.214190682168	-24.2931088408821	31.1783856657796	
2465333333.33336	-13.288320744486	45.801174517938	-9.82439691304783	93.8679803861247	-46.6818605862434	81.7161029158788	-24.2444684154861	31.5233792034201	
2465666666.6667	-13.2325023206645	45.3178212214677	-9.82772910664718	91.6006439401034	-46.564539562679	79.1838786390409	-24.2009981642662	32.1478388313112	
2466000000.00003	-13.1802953053243	44.8514895865397	-9.8251164949786	89.3232753421177	-46.4507606290733	77.5163281169039	-24.1784550227958	32.246412713662	
2466333333.33336	-13.1226330382271	44.4245404834693	-9.82754141068373	87.0142347202956	-46.7409293255099	75.607758674179	-24.147786499157	32.6362879728699	
2466666666.6667	-13.0498723391128	43.928541811129	-9.82933466125086	84.686906919757	-46.5637126281035	71.1594982870771	-24.1201606530643	32.6930832195502	
2467000000.00003	-12.9959144314705	43.5124212061272	-9.82726317787438	82.4386807026672	-46.2595840745651	68.8768475513497	-24.0706856326386	32.6325061355914	
2467333333.33337	-12.9336667115699	43.0976782176769	-9.83294042712317	80.1266996892057	-46.577823967622	65.3033669819049	-24.0311776141966	32.7178228458989	
2467666666.6667	-12.8635953802876	42.7097493236801	-9.83438553358463	77.8265482771029	-46.6061394697919	64.4910218365445	-24.008820351207	32.7575067541166	
2468000000.00003	-12.8029675985881	42.2753666686684	-9.83280414947351	75.5088789246107	-46.4071400891388	61.6513162544648	-24.0170866595868	32.5895522107227	
2468333333.33337	-12.7366474027097	41.8813581543184	-9.84064722199255	73.2082958846544	-46.4637922779598	62.2017655472713	-23.9717341348992	32.442760091121	
2468666666.6667	-12.6772429215159	41.4648098627398	-9.8377094163461	70.9058545805604	-46.4852934562721	57.3727058003551	-23.9903702522119	32.1657539432193	
2469000000.00003	-12.6005239228798	41.1055435743258	-9.84037761872138	68.5619672840925	-46.5909548949388	54.8274951625856	-23.9239993584726	31.8607622370199	
2469333333.33337	-12.5411354012692	40.7331571781458	-9.84718787403592	66.2982135444919	-46.3546897702517	54.5581231225252	-23.9249306551413	31.298088466711	
2469666666.6667	-12.4761950338613	40.3471108626775	-9.85129162896059	63.9811267792837	-46.4386680982306	52.1994128360167	-23.9375105764214	30.8632376588435	
2470000000.00003	-12.4067600968905	39.981846663201	-9.8511965186329	61.6243842957643	-46.5054727583253	47.4160544578308	-23.9038804164313	30.2481836640802	
2470333333.33337	-12.3413449512785	39.605769523858	-9.86044041237734	59.3208506032771	-46.5571558892069	45.0892123763275	-23.9347072135255	29.8805803223067	
2470666666.6667	-12.2733723919346	39.2081677481931	-9.86177527851314	57.0237353152046	-46.443738888229	43.2611215893752	-23.9110874250209	29.1953736708495	
2471000000.00003	-12.210091914036	38.9157354292143	-9.86528114620501	54.6762569106994	-46.2921179428167	40.1119886078832	-23.9231779302867	28.7536075091376	
2471333333.33337	-12.1404962269808	38.5470463070246	-9.86720545110303	52.3330378496586	-46.4627982373318	39.4054807113718	-23.9894616960132	27.9166886099913	
2471666666.6667	-12.0762701433266	38.2472054123399	-9.8716988419772	50.0015396957281	-46.3569290146835	36.6735471583593	-23.9337902820762	27.1397945727199	
2472000000.00003	-12.0130278387384	37.8490091707366	-9.88109569044636	47.6793354144192	-46.5238851817793	32.4630810712021	-23.9523970462334	26.2660824366845	
2472333333.33337	-11.9401445927642	37.4958749187078	-9.88375572121699	45.344011707873	-46.6025814309298	32.6323308438637	-23.9552373584034	25.3901270400727	
2472666666.6667	-11.8838163674526	37.1941844782639	-9.89441146345009	42.9925522536185	-46.4537820017709	28.0119915203702	-23.9764595213361	24.5383767923738	
2473000000.00003	-11.8165626614323	36.8094277830554	-9.90199286181695	40.6494837170944	-46.4912705216424	27.259431028913	-23.9922493492757	23.4336997870527	
2473333333.33337	-11.75751466495	36.5019108242866	-9.90060773336663	38.2948152516863	-46.7043552384696	25.1536427448018	-23.9982526414363	22.4754007484732	
2473666666.6667	-11.6946207427736	36.1257776056914	-9.91254566733586	35.9257711596062	-46.4324122830305	22.6489032413915	-23.9783993340094	21.3112245613596	
2474000000.00004	-11.6335238199905	35.8389133291284	-9.92413744813795	33.5609093263696	-46.5076691467597	19.6869038509088	-23.9942122689268	20.0214663051687	
2474333333.33337	-11.5827653619132	35.4741428873416	-9.92616450108732	31.1752197875635	-46.6603006091494	15.1148848790823	-23.9980877326027	18.9673237615743	
2474666666.6667	-11.5223053517921	35.1516063543076	-9.93570821345595	28.8687778676915	-46.6811560216582	16.1751141352443	-24.0097430292982	17.7298891501791	
2475000000.00004	-11.4569673431595	34.8415363221599	-9.94916097156432	26.5187903732023	-46.4531860664415	13.1122045566216	-24.0077054733634	16.455055530158	
2475333333.33337	-11.4109735557047	34.448093352591	-9.95337933831059	24.1796264778833	-46.5435608884919	10.2712315715424	-23.9981912548357	15.0800767136207	
2475666666.6667	-11.3498429454208	34.1656692157364	-9.95679736896694	21.8679072440768	-46.8093809003805	7.78372818463471	-23.9891256857993	13.9254501176364	
2476000000.00004	-11.3053248382315	33.7610433187299	-9.96656963419663	19.5186180713059	-46.8216073238256	6.51097697345876	-23.9601474614817	12.2395209922539	
2476333333.33337	-11.2529346625532	33.5121575640927	-9.97292311626567	17.1744105315678	-46.4862583227611	4.86996338942903	-23.9795117633371	11.1051797384913	
2476666666.6667	-11.2035694794878	33.0989790783985	-9.97734473747325	14.8557202944981	-46.4158770213108	2.0489464245252	-23.9702813294508	9.41629322010704	
2477000000.00004	-11.1609419606887	32.7669586595675	-9.99144301005402	12.498204559507	-46.6705184667461	-1.50302957536297	-23.9226748116753	8.10587806941201	
2477333333.33337	-11.1216063587736	32.3833932078722	-9.99758520087021	10.1742668849762	-46.5534192370174	-2.33441454465568	-23.8987021706123	6.58745607537484	
2477666666.6667	-11.0724953348931	32.0794951306508	-10.0034743960032	7.8521241437712	-46.6507396871761	-4.46688240847915	-23.860591643664	5.04266691374481	
2478000000.00004	-11.0334746179994	31.6884638949842	-10.0134626925894	5.52576320400982	-46.4520904800185	-7.35572751616072	-23.8347516963665	3.66198709034945	
2478333333.33337	-10.9944473423383	31.3890264146663	-10.0177010034453	3.24693546884833	-46.5209571404316	-10.8504196400677	-23.7814104068808	2.22468283806826	
2478666666.6667	-10.9591898514043	31.0020848287013	-10.0312076039077	0.930318923778818	-46.5114154896409	-12.3218224144854	-23.756232723053	0.56645942539283	
2479000000.00004	-10.928633225342	30.6458602161616	-10.0390750280079	-1.39315678172784	-46.6321856360153	-13.4553169865159	-23.6972835439404	-1.06571452828818	
2479333333.33337	-10.8914406258566	30.3710418960752	-10.0441637453627	-3.71490796146652	-46.4027640605761	-15.8500211119866	-23.6353949323692	-2.49962379204004	
2479666666.6667	-10.8620320304017	29.9414561011942	-10.051218437853	-6.02411420434644	-46.4541004887743	-19.5021163963154	-23.5922403441041	-4.13235955040892	
2480000000.00004	-10.8218117054594	29.627149872845	-10.0603937147274	-8.31261725523575	-46.6903124966972	-21.5611640644207	-23.5144109401725	-5.62271043442349	
2480333333.33337	-10.8142810293553	29.2979618585813	-10.0600627742089	-10.6064233799681	-46.3683927661241	-22.9469207063715	-23.4492295114612	-7.05052910657169	
2480666666.66671	-10.7819105494983	28.9597747287301	-10.0692600644431	-12.9119893544239	-46.6365589928844	-25.2801591409739	-23.3669569224411	-8.54141962897495	
2481000000.00004	-10.752926861984	28.5528934985597	-10.0741642552701	-15.1619784492969	-46.7339138510596	-28.0968012629803	-23.2986034853336	-10.0505402658961	
2481333333.33337	-10.7274819550621	28.2240516248819	-10.075988901323	-17.4623198882503	-46.7270612970056	-32.1017917893539	-23.2248945995251	-11.5497721732274	
2481666666.66671	-10.7085022304101	27.8462333685421	-10.0760731790919	-19.7448400315296	-46.1925291144255	-34.2761649481365	-23.1076558099298	-13.062165542042	
2482000000.00004	-10.6940335641297	27.4823153458972	-10.0806210789184	-22.0056160536629	-46.4049253007418	-34.8709932432139	-23.0725081517094	-14.4261376589237	
2482333333.33337	-10.6773586880022	27.2043307656872	-10.0801814374533	-24.3023939790256	-46.6741942298335	-38.3761215119324	-22.9588109819721	-15.9549654070992	
2482666666.66671	-10.662120804843	26.8338672854263	-10.0798958401051	-26.5468955861687	-46.8303209576464	-38.4744556624278	-22.8520223704489	-17.3178238982421	
2483000000.00004	-10.6464964893364	26.4793779020291	-10.0839493309464	-28.8206653944988	-46.7325968754608	-40.7753043718327	-22.7639296862543	-18.5453772541732	
2483333333.33337	-10.6374855783372	26.1611479546157	-10.0781030107478	-31.080465114783	-46.753356597197	-42.7787881891376	-22.6632430661427	-19.9735074211477	
2483666666.66671	-10.6247337624727	25.7924674376152	-10.0832314419031	-33.3367025715942	-46.6185825720358	-47.2457215599271	-22.5529189324337	-21.2503868641348	
2484000000.00004	-10.6214342357328	25.3679423325017	-10.0858106515612	-35.5830307764337	-46.5486920751013	-46.9606153866594	-22.4514385844835	-22.3295531887031	
2484333333.33337	-10.6042524016133	25.0032680626678	-10.0773708447356	-37.9015367697904	-46.5916942436932	-50.8346023755764	-22.349976220723	-23.5633380050925	
2484666666.66671	-10.600455744326	24.6732855478716	-10.0727932957621	-40.1270037349038	-46.3748589487006	-53.0719219392502	-22.2388078475243	-24.78559389727	
2485000000.00004	-10.6099874547939	24.2765417106563	-10.0702780594448	-42.3569677693669	-46.7828429114068	-54.6044493666788	-22.1334162016262	-25.9393607254452	
2485333333.33337	-10.6053217279953	23.9644419504062	-10.0691098023643	-44.6302108952427	-46.5754033947702	-57.9104212384748	-22.0375615584233	-27.0544110811143	
2485666666.66671	-10.6027102825255	23.5927925597698	-10.0602997159823	-46.9236384151233	-46.4212442548606	-59.6423899289296	-21.930363864047	-28.1445810660083	
2486000000.00004	-10.6039679947359	23.1593983649392	-10.0524512331542	-49.1739640894629	-46.7168534070399	-60.9422655703846	-21.8372265823831	-29.1803606400616	
2486333333.33337	-10.6095550136669	22.8794552799502	-10.0416319808461	-51.4111568208494	-46.415946324984	-63.5886269362053	-21.7263423459372	-30.187907469023	
2486666666.66671	-10.6147215265028	22.5464569296145	-10.0450763764719	-53.6615173597233	-46.6628018845241	-65.8902762398621	-21.6509610533839	-31.3883327822967	
2487000000.00004	-10.6244103037405	22.0883287308388	-10.0353837373296	-55.9808255617255	-46.7504119969072	-67.8087327219656	-21.5672212189017	-32.1204460112809	
2487333333.33337	-10.6428436192648	21.7605867890388	-10.0303995239169	-58.2465434588957	-46.6359351944144	-70.395942493928	-21.4654213024647	-33.1145979032657	
2487666666.66671	-10.6426852287264	21.4401629224863	-10.0169068270344	-60.5111276158052	-46.4005274415115	-73.7223147145746	-21.397570416915	-33.994335031384	
2488000000.00004	-10.6594389743207	21.0157909612831	-10.0175655622486	-62.7882490683747	-46.6853445405027	-74.6265255944383	-21.2959234585197	-34.9678488121204	
2488333333.33338	-10.6662420342611	20.6428960262267	-10.0056238838006	-65.061282323076	-46.8104496688731	-75.9422756119327	-21.2232389031506	-35.786386648738	
2488666666.66671	-10.6942926819315	20.2279454295578	-9.99758955179153	-67.3604089645144	-46.4192503184064	-79.7568642360355	-21.1605655792531	-36.7325429718136	
2489000000.00004	-10.7087801564543	19.8588267935048	-9.98926572692896	-69.5766045367693	-46.545295602965	-81.8842873530002	-21.0639424542842	-37.5151389165974	
2489333333.33338	-10.7180061757588	19.4699802427736	-9.97349448054331	-71.8753313005858	-46.8668096833733	-83.8688575525319	-21.0101145227996	-38.223616262788	
2489666666.66671	-10.7420855082923	19.0983537055456	-9.96990351093906	-74.1160359375105	-46.4516365884968	-85.286633702535	-20.9357554558066	-39.0185660441745	
2490000000.00004	-10.7553214535755	18.6570585415705	-9.9522955464877	-76.4488046592986	-46.7077533725301	-86.2030798662048	-20.8711224096798	-39.5272525036551	
2490333333.33338	-10.800846444523	18.1835960743977	-9.94696468537927	-78.7033853018496	-46.7673985717935	-91.6301045288031	-20.827579776619	-40.5422967665254	
2490666666.66671	-10.8097687879115	17.8212716851581	-9.94025882603155	-80.9868855673213	-46.7276911083195	-92.315052946854	-20.784804815476	-41.1353423584886	
2491000000.00004	-10.8287531094839	17.3448308703002	-9.92764915460915	-83.2947728350193	-46.5227369442767	-94.661750075626	-20.7377927486476	-41.8264128052319	
2491333333.33338	-10.8537221438642	16.9887418377668	-9.92283490207161	-85.6137156444623	-46.5576049508827	-97.8036530729013	-20.7056911308928	-42.3977219281683	
2491666666.66671	-10.8919045728089	16.5838215880683	-9.9162538452681	-87.9395434686251	-46.921263950091	-99.3711758698108	-20.6665637441203	-43.0235006860334	
2492000000.00004	-10.9161823304329	16.0936713827654	-9.89954450273263	-90.2000055290922	-46.5161809842111	-101.187440903428	-20.6442622900886	-43.5865720144719	
2492333333.33338	-10.9329417527209	15.5875408217913	-9.89473257948331	-92.54199546576	-46.7524408644372	-103.378330639482	-20.6067454362738	-44.1156419148989	
2492666666.66671	-10.969556667972	15.2754935732683	-9.882161921847	-94.8103328331952	-46.4783422545659	-107.473736384821	-20.6092991879809	-44.7842899665471	
2493000000.00004	-11.0025428128712	14.7161149842489	-9.87403855227019	-97.1141330528178	-46.5361112708288	-107.674002285648	-20.5992393501715	-45.5060931997905	
2493333333.33338	-11.0346144989987	14.2982494964788	-9.87164423171019	-99.4324510223424	-46.7108672083778	-111.252290578452	-20.5818535464505	-45.8654009803035	
2493666666.66671	-11.0797276879968	13.8418570366396	-9.86341272246204	-101.800385750338	-46.5804486882281	-113.059791872365	-20.5874350998994	-46.3642672592622	
2494000000.00004	-11.1044015752633	13.3175628467772	-9.85781624075744	-104.052119903461	-46.4115537895441	-116.394893214073	-20.5998869570149	-46.8461522829164	
2494333333.33338	-11.1457346474522	12.8611411002646	-9.8470777795334	-106.392389027792	-46.6085223934364	-120.296501871299	-20.6156419836087	-47.2492041267882	
2494666666.66671	-11.1754752285291	12.3310816166263	-9.84733683361352	-108.708426222766	-46.6157342766722	-121.265536068219	-20.6302658340449	-47.6422842645106	
2495000000.00005	-11.2225308166767	11.797919002812	-9.84121992167226	-111.01338706604	-46.884407547512	-123.386073808798	-20.6815999815004	-48.0656235370741	
2495333333.33338	-11.2678285910354	11.3675468225852	-9.84127439989923	-113.35679788605	-46.6980405177406	-126.733939493502	-20.7170572612423	-48.5754482679215	
2495666666.66671	-11.2787588703486	10.8084352784649	-9.83032814226309	-115.634744269918	-46.6814697865894	-126.979443008797	-20.7649286379848	-48.7728814405933	
2496000000.00005	-11.3297845886698	10.3025678386939	-9.83450284384471	-117.971834824403	-46.5850957152869	-128.430118203919	-20.8456648040951	-49.2224785714799	
2496333333.33338	-11.3757175016458	9.74288226517311	-9.82633965756258	-120.288631121247	-46.7057975646296	-135.27211360336	-20.9046621193836	-49.5975191177089	
2496666666.66671	-11.4147781877071	9.14299849830568	-9.82489243101286	-122.64260528852	-46.6267247600154	-135.781136426151	-20.9712882923561	-49.9077188322205	
2497000000.00005	-11.4547652284178	8.70383051661065	-9.82706544833673	-124.92111865745	-46.538811538779	-135.080352730007	-21.0731265579305	-50.1852876876206	
2497333333.33338	-11.4954159050703	8.12570137472026	-9.82392237382772	-127.292321626733	-46.7810227452215	-138.542284456109	-21.1565968128911	-50.5272416680046	
2497666666.66671	-11.5226478656748	7.45698481601292	-9.81916356723142	-129.618468098685	-46.6274645658746	-140.161933743173	-21.2545578529808	-50.7186142586666	
2498000000.00005	-11.5658014279609	6.96553384364596	-9.82787599179234	-131.950479214276	-46.5337968131036	-142.767238360764	-21.3573564079622	-50.7225460744728	
2498333333.33338	-11.606501566641	6.29213395100523	-9.82866791026288	-134.283144714596	-46.7922022898388	-145.757099212937	-21.4793869589606	-50.8726214026995	
2498666666.66671	-11.6412157858023	5.77435172240673	-9.82708763931966	-136.597109948296	-46.6744843160118	-147.139714409145	-21.6253969771048	-51.111145143178	
2499000000.00005	-11.6869019481586	5.15225498187029	-9.83265091947135	-138.89192712779	-46.5820762901761	-151.263320388616	-21.7854609509046	-50.9728201651228	
2499333333.33338	-11.7129047071102	4.52031906834084	-9.83534120794736	-141.228260589838	-46.6669107736235	-151.769715619993	-21.9584586595534	-51.2110297562097	
2499666666.66671	-11.7563259059661	3.8956210711893	-9.83952381050335	-143.526794774655	-46.7075410062237	-154.13447375028	-22.1229312964361	-51.1520124327421	
2500000000.00005	-11.8017564110949	3.21340549369902	-9.84849823893876	-145.889448483276	-46.6602850279343	-157.333659319375	-22.2774781996475	-50.9671140958028	
2500333333.33338	-11.8346099753668	2.57210869552424	-9.85569828439744	-148.155273546726	-46.3878783000036	-160.406394066628	-22.5155706734693	-51.0938285384775	
2500666666.66671	-11.8753077236714	1.92541706611101	-9.86165236171552	-150.487028075339	-46.6645318748959	-161.610230928682	-22.6969107919386	-50.7778365431074	
2501000000.00005	-11.9075229569485	1.25850654130599	-9.87090971018886	-152.831081250385	-46.6699135725696	-165.497346979007	-22.9317257167407	-50.8199182783096	
2501333333.33338	-11.9375293106101	0.515438576931336	-9.87987851704956	-155.166011003256	-46.5509411235898	-168.546835552036	-23.1611070469133	-50.1563417566782	
2501666666.66672	-11.9768586350455	-0.27312342820457	-9.89008782974365	-157.442278536467	-46.8649977113843	-169.965939117709	-23.4296076250342	-49.9463102955393	
2502000000.00005	-12.0148019622838	-0.964476696414886	-9.901192375798	-159.669880246615	-46.6401525726969	-170.143533051051	-23.6730049348824	-49.4361442742203	
2502333333.33338	-12.0510062074932	-1.65665103975798	-9.91718936743629	-162.068361778056	-46.5384390864814	-174.776262725469	-24.0044053324233	-48.7989864068059	
2502666666.66672	-12.0744843212065	-2.42794201029314	-9.92191685445492	-164.3101821278	-46.6693591666805	-177.058788033469	-24.3081047106564	-47.8969507209504	
2503000000.00005	-12.1083447175765	-3.21508502647425	-9.93761227342756	-166.623272167374	-46.6503494948809	-179.33962915695	-24.6230626172128	-46.8442855770259	
2503333333.33338	-12.1411978349245	-4.03152594306471	-9.95062295141515	-168.909750560628	-46.551726400254	179.997849499968	-24.9278438080388	-45.8023281626673	
2503666666.66672	-12.172916868001	-4.74702857348464	-9.96374130739396	-171.183017337947	-46.6011075864862	177.616006980711	-25.2999284522386	-44.6777727940196	
2504000000.00005	-12.1971429030238	-5.52482716267609	-9.9795112287225	-173.432835652557	-46.7288113876205	175.366313164218	-25.6142395629954	-43.1363455555849	
2504333333.33338	-12.226415607534	-6.42222530006084	-9.98960161839275	-175.694260034177	-46.9749058198652	173.661796103527	-25.9392426141682	-41.7057811341283	
2504666666.66672	-12.2550484719729	-7.15296014995929	-10.0061712408805	-177.942929096378	-46.7143468473727	169.319283510508	-26.4032785733986	-39.519336250868	
2505000000.00005	-12.2811052775985	-7.99371358510478	-10.0186502850295	179.810679722538	-46.7548383420887	168.55060776994	-26.7852881039229	-37.2857768354199	
2505333333.33338	-12.3039648376425	-8.87162218269985	-10.0330473324288	177.525412266751	-46.7979988947272	165.178948939592	-27.1841663365733	-34.6630134232532	
2505666666.66672	-12.3270951877048	-9.65938594145168	-10.0452343018704	175.282784292103	-46.7208612888083	163.107709083626	-27.5253003231584	-31.7684805902463	
2506000000.00005	-12.3533330429388	-10.5209673203613	-10.0606891490524	173.059110311669	-46.8404785403413	159.280012284345	-27.9082759140353	-28.6077402861909	
2506333333.33338	-12.3763693569826	-11.3567375663851	-10.0772118850168	170.785335100192	-46.9480492761665	158.038737497206	-28.2783914329477	-24.8179931208961	
2506666666.66672	-12.3920021830112	-12.2069266618784	-10.09679940526	168.599116533812	-46.7899474079312	157.140762642268	-28.6022210434681	-20.712663243644	
2507000000.00005	-12.4169415024021	-13.0848599459834	-10.1067410531453	166.34316666772	-46.6491527797022	155.949117142801	-28.8270988443045	-16.2240474478988	
2507333333.33338	-12.4316930585206	-13.9500754414821	-10.1245676190083	164.112469303602	-46.9325124563429	150.840299926874	-29.0057874743547	-11.411985331108	
2507666666.66672	-12.4465946416146	-14.760513451412	-10.1387847017803	161.894985107399	-46.7010542356655	149.05884022207	-29.1713328296565	-6.39454017526025	
2508000000.00005	-12.4713050309643	-15.7136011257412	-10.1522660336783	159.686821732978	-46.4789457495764	146.791861090796	-29.1868145968637	-1.30435563143279	
2508333333.33338	-12.4830945324493	-16.5150686101407	-10.1683679629352	157.500726328541	-46.7046091017772	144.615334728803	-29.1617388388231	3.80892694035359	
2508666666.66672	-12.4874401376872	-17.4414336652091	-10.1820218880467	155.259802887713	-46.867008102008	142.326864952419	-29.0435871632175	8.91292311855915	
2509000000.00005	-12.5016919683945	-18.2841340137872	-10.1956788428285	153.041004337883	-46.9251047172737	141.51763735128	-28.7555394231107	14.0324927670857	
2509333333.33339	-12.5153542375198	-19.1741784323393	-10.2066544815556	150.855036045161	-46.719756718773	138.801255739659	-28.4142602729763	18.448259632577	
2509666666.66672	-12.5235030597622	-19.946168889442	-10.2214380061653	148.625180893716	-46.9277248767013	135.979010395797	-28.1187170354261	22.4007926714539	
2510000000.00005	-12.5330949283487	-20.8658844085143	-10.2420564074179	146.429146411343	-46.8381925601214	134.640779799001	-27.7464594553093	26.5915000540644	
2510333333.33339	-12.5382249207751	-21.7708168993801	-10.2580189549093	144.226616071762	-46.8125647971296	130.915757578925	-27.357753667517	29.9135939025187	
2510666666.66672	-12.5465521255484	-22.6213280902117	-10.2648428694745	142.044262183191	-46.6343844858521	128.862014017868	-26.8937672481943	32.8827987107522	
2511000000.00005	-12.5534559721883	-23.4621956217833	-10.2787210131368	139.821570219913	-46.8181461430663	126.264167828471	-26.4492842699484	35.5531546087142	
2511333333.33339	-12.5509603649867	-24.2647554211415	-10.2920042114328	137.616265832748	-46.7315961759955	124.741859122465	-25.9726548901766	37.8279035138276	
2511666666.66672	-12.5606175249567	-25.1309844320385	-10.3018511204734	135.431167955819	-46.9226546507018	122.532618014959	-25.549114875174	39.6802323651593	
2512000000.00005	-12.5655056367601	-25.934548519268	-10.3219870509131	133.175664425865	-46.9141089347202	122.587594652212	-25.1292317151438	41.5227969997459	
2512333333.33339	-12.5680056649373	-26.8121505336806	-10.3380169755924	130.986709188903	-46.5819586719356	117.940853105891	-24.690047485367	43.0221707933167	
2512666666.66672	-12.5653808130954	-27.5494780003497	-10.3464939983448	128.812493260048	-46.8785157221137	115.03834236007	-24.3092371343169	44.436965653823	
2513000000.00005	-12.5684296242687	-28.396039803188	-10.3550699197834	126.550286341844	-46.7945502982542	115.986330274693	-23.9096028691272	45.395783678739	
2513333333.33339	-12.5700054688734	-29.1790441350164	-10.3740918867381	124.356516882405	-46.9235474359123	111.493636214714	-23.5159100157346	46.4430569207135	
2513666666.66672	-12.5669675923168	-29.8954614278293	-10.3754674992082	122.137811139886	-46.7397678239814	109.47712928466	-23.178271617826	47.2429561197631	
2514000000.00005	-12.5716480153424	-30.6803992148207	-10.3901918916314	119.914028008866	-46.9417572471085	107.913059047328	-22.8098140001438	47.6919121481423	
2514333333.33339	-12.5730052692486	-31.3842212460489	-10.3990405363195	117.720498341285	-46.9713195570522	105.251742087675	-22.4945106767295	48.3163155854247	
2514666666.66672	-12.5695812328703	-32.1870096018345	-10.4088780390413	115.48092330891	-46.5875020539388	103.041373011092	-22.1888655177976	48.6117848508549	
2515000000.00005	-12.5709658213592	-32.8871123943386	-10.421361325837	113.288571382443	-46.8350405201786	101.636132893098	-21.8940144431186	48.7241481941179	
2515333333.33339	-12.5721203746558	-33.5977259519859	-10.4324210914821	111.071033220863	-47.0635768589598	96.9397546757839	-21.5685594451069	48.9723696199058	
2515666666.66672	-12.5743987906235	-34.2389621611298	-10.4422733789645	108.860103516386	-46.8769658798823	95.6294130739239	-21.3133502463705	48.9565260789265	
2516000000.00006	-12.5721166010947	-34.9276714776748	-10.4508094769534	106.593742373475	-47.0720712203225	93.3275850805474	-21.0398075310266	49.1879076133309	
2516333333.33339	-12.5737923360854	-35.612873601752	-10.4621099885862	104.382744251577	-47.0900183795657	92.109210000309	-20.8112436395625	49.0599661875091	
2516666666.66672	-12.5631720303845	-36.1795558316438	-10.4636619846046	102.178869079412	-47.1767670129377	89.9897460331354	-20.5933128735054	49.0368780047014	
2517000000.00006	-12.5718774521825	-36.8789550858888	-10.475111704204	99.8876243740102	-46.8479709277751	87.1297463489387	-20.3789768171069	48.8669711129153	
2517333333.33339	-12.5822741580051	-37.4177059453958	-10.4816450492083	97.6560279768004	-47.0928883526774	85.4246415546314	-20.1464821626642	48.8547919003307	
2517666666.66672	-12.5767753666462	-38.0417725882068	-10.4885557605593	95.4429946192015	-47.1691489292826	84.6619114277288	-19.9428593357472	48.4119421330367	
2518000000.00006	-12.5759313770846	-38.6679762668288	-10.4992980813803	93.193516100805	-46.8305110741948	79.9243941092304	-19.766011201957	48.2348866184787	
2518333333.33339	-12.57954476429	-39.1625908871657	-10.5113747753273	90.9375455541511	-47.2639105693844	80.1157809288599	-19.6059968440332	47.8084972706363	
2518666666.66672	-12.5854646822584	-39.675573878488	-10.5123444109382	88.6745156487064	-47.0470631113533	74.5968251913177	-19.4563184613115	47.518028645616	
2519000000.00006	-12.5897398112299	-40.2194739369993	-10.5242797203796	86.4453815756275	-46.9877145609754	73.8774868391765	-19.3040871235053	47.2543290565092	
2519333333.33339	-12.5935641766241	-40.7091690359602	-10.5290697703218	84.1759401449626	-47.3267410533684	74.1516277801013	-19.1628641303934	46.731579977271	
2519666666.66672	-12.5972289440863	-41.1428045164629	-10.5340782874953	81.9240938905633	-47.1736837359448	69.7772900670508	-19.0004703321145	46.2828359637392	
2520000000.00006	-12.6106785385981	-41.5710041499684	-10.5457171365308	79.6751438079471	-47.2132473355054	67.209605739971	-18.8793405761202	45.8176097160721	
2520333333.33339	-12.6154246194476	-42.0265080859766	-10.552267641848	77.410968492464	-47.2106419544561	64.8091040272709	-18.7747044112293	45.1895355548055	
2520666666.66672	-12.6287241012785	-42.4417989991607	-10.5566659969538	75.1718403786456	-47.1178483303984	62.1267086645008	-18.6712767857345	44.6462760507727	
2521000000.00006	-12.6184475644635	-42.8426929708295	-10.5598954554311	72.8895278677721	-47.41421924078	61.1617959400322	-18.570876543815	44.1396352595282	
2521333333.33339	-12.6326284465442	-43.2882004530765	-10.5734244505646	70.6002527970628	-47.0630143978693	57.0521073241127	-18.4809922669199	43.6506408432023	
2521666666.66672	-12.6396815094121	-43.5938081221346	-10.5790378214024	68.3562363767127	-47.0579458839484	55.6172030496742	-18.4118401725386	42.7895301724709	
2522000000.00006	-12.6475906607864	-43.9247973874741	-10.5850875822668	66.074785006673	-46.9417598897642	52.2088247703056	-18.360509513026	42.3375865917152	
2522333333.33339	-12.6549322218077	-44.254691992581	-10.5882935047557	63.7611925536376	-47.1456975813011	50.514596568479	-18.2795447763764	41.5824546473704	
2522666666.66673	-12.6534943561218	-44.5774266238746	-10.6016626517157	61.5551559797391	-47.3337459063536	49.7987097394658	-18.2068867123861	40.900429768948	
2523000000.00006	-12.6718723510265	-44.9081088529553	-10.6072003297996	59.2621765771415	-47.1581823959255	47.0961967173095	-18.173499938597	40.0762047772595	
2523333333.33339	-12.6755951728705	-45.1679857305793	-10.6125415327481	57.0088165932123	-46.83864422272	43.5054294200531	-18.1196438437707	39.3431152514983	
2523666666.66673	-12.6837082280165	-45.5057061318683	-10.6180142539654	54.730223998851	-47.230188762013	42.9913353182619	-18.1129973771527	38.5782853822654	
2524000000.00006	-12.6968890673669	-45.6598891519801	-10.621716425827	52.4563207496566	-47.0819722832328	39.7927093144144	-18.0718907696543	37.8663893118609	
2524333333.33339	-12.6965964838841	-45.891727535162	-10.6350959526803	50.2212876358488	-47.2006615963053	38.4448920781126	-18.0641959139156	37.0290552453682	
2524666666.66673	-12.7075626980436	-46.1273903246807	-10.6386957386307	47.9281783140471	-47.2009965272223	35.6188265851938	-18.0381664564979	36.1518532671201	
2525000000.00006	-12.721198551194	-46.277977538852	-10.647995186404	45.6793136083705	-46.9908922821073	34.4364840964794	-18.0475121975708	35.2905232651157	
2525333333.33339	-12.7324593822902	-46.4693253114027	-10.6419215164328	43.4041357196855	-47.206071310354	31.3333358778865	-18.0427943977847	34.3839519282075	
2525666666.66673	-12.7472620486177	-46.7715425288683	-10.6524758728482	41.2062597975491	-47.2813488692751	29.4500408031677	-18.0445237916968	33.5275123188956	
2526000000.00006	-12.7507536514644	-46.9567368513398	-10.659104509784	38.9364076074653	-47.1618308747603	26.9725083052258	-18.0699007745315	32.6154219314047	
2526333333.33339	-12.7604889242082	-47.1519720099231	-10.6666695991886	36.6606857254849	-46.9741676273731	24.6111888348761	-18.0953274924464	31.6115019975515	
2526666666.66673	-12.7694835351657	-47.2588947683906	-10.6730991722027	34.3979755322064	-47.0304316277958	24.4055794658153	-18.1251483976579	30.6369842206263	
2527000000.00006	-12.7726149117597	-47.393876485938	-10.6689935983025	32.1759074932754	-47.288680063767	19.5774503149333	-18.1494060863387	29.593487158344	
2527333333.33339	-12.8014485424592	-47.6043085864175	-10.6738125406837	29.8925530718612	-47.1042512218629	17.6862288368754	-18.2093626607317	28.5896145559858	
2527666666.66673	-12.791429955478	-47.7058752830316	-10.6823838609562	27.7073889304574	-47.5156739141772	12.490507824999	-18.238323123539	27.6506070782414	
2528000000.00006	-12.8151198086297	-47.9337982830106	-10.6797322286927	25.4103406617184	-47.3403539833983	13.9815989668081	-18.2708716390173	26.5345273094906	
2528333333.33339	-12.8381760099628	-48.0327137079235	-10.6784386836913	23.1635186454281	-47.0752058078032	9.8130239353904	-18.3410415501269	25.4719386999483	
2528666666.66673	-12.8540469155164	-48.2082126561887	-10.6864463920628	20.8983129513791	-47.3110552044981	7.72271034833895	-18.4146014002691	24.3479437974578	
2529000000.00006	-12.8689082473552	-48.3933242130808	-10.6900603869623	18.7647600796937	-47.1857863918687	6.34762045886805	-18.4656814309456	23.2264726170662	
2529333333.3334	-12.8876028754533	-48.5732815101501	-10.6846240158805	16.4813720980665	-47.5388300827332	4.84474570046785	-18.5438855564888	22.0369599361589	
2529666666.66673	-12.9143450724659	-48.669719771054	-10.6872461119402	14.2736345466381	-46.9191986142068	2.03680059378195	-18.6056072316714	20.7961951403675	
2530000000.00006	-12.9260928115722	-48.928844212451	-10.6856512929068	12.0359872350004	-47.05497148677	-0.4985800101818	-18.6990848977079	19.5895071256551	
2530333333.3334	-12.9582931750462	-49.2086972023748	-10.6871601860767	9.84621204586183	-47.3806217862519	-1.62877269624323	-18.7743781174466	18.3460837921756	
2530666666.66673	-12.9671499328958	-49.375557406962	-10.6824749332359	7.62497708674128	-47.2555482788589	-6.36094647608143	-18.8783072977377	17.098165937001	
2531000000.00006	-12.9941224086054	-49.5169267441363	-10.6794789349864	5.38046375749208	-47.0878791901141	-6.35339201453848	-18.9525453069152	15.8314218501511	
2531333333.3334	-13.0293607089384	-49.7233470321637	-10.6781840241594	3.09710346660571	-47.1082838221058	-10.2963691899429	-19.0446116639659	14.5684281229726	
2531666666.66673	-13.0583053973648	-49.931315269092	-10.6770690499748	0.916008768718272	-47.0718089885925	-10.9674134270907	-19.1348415580305	13.0828832546541	
2532000000.00006	-13.0897177909851	-50.1437493831774	-10.6757178866362	-1.30303308920053	-47.361249524028	-14.3471292493775	-19.2342721137973	11.7515252902041	
2532333333.3334	-13.1289013917478	-50.4528915258702	-10.6663505041659	-3.53156808923829	-46.992509276977	-17.4187077768581	-19.3308123419963	10.4282056453341	
2532666666.66673	-13.1517772149648	-50.5931365344182	-10.6588268814365	-5.79650243313666	-46.9885819590253	-18.7343569792268	-19.4431098615791	8.9145960092937	
2533000000.00006	-13.1977880503047	-50.8012373221618	-10.6595543557086	-8.0225336923486	-47.3523859927834	-21.045289661193	-19.5457468196077	7.40572460891518	
2533333333.3334	-13.2242328526985	-51.0357858904438	-10.6457786491543	-10.1878572414377	-47.2976051229862	-20.4535306187981	-19.6570519698995	6.01755135347068	
2533666666.66673	-13.275899284325	-51.1989486815351	-10.6411088654902	-12.4351059691214	-47.2993967864147	-26.2075824224823	-19.7727265612854	4.39806229592807	
2534000000.00006	-13.312827489735	-51.4484774865538	-10.6375074559574	-14.6317934293698	-47.2722243891252	-27.0472497013038	-19.8843193418358	3.01480690059943	
2534333333.3334	-13.3691351692531	-51.635392187631	-10.6375355353377	-16.9047944034597	-47.2431532357645	-29.7208053021484	-19.9909705159421	1.30638627558366	
2534666666.66673	-13.4105974477348	-51.865819266104	-10.6274927978074	-19.1363481083468	-47.1909898859203	-29.2694011735953	-20.0940422811328	-0.0477805079922738	
2535000000.00006	-13.4558873543739	-52.0722003509777	-10.6241259595433	-21.370958286304	-47.1979206203404	-33.1895941388618	-20.2075090187456	-1.71061772536796	
2535333333.3334	-13.5212083625851	-52.3366035922625	-10.6189220119671	-23.5340757006348	-47.2733350027641	-35.5299780189319	-20.3164085141649	-3.33721971956412	
2535666666.66673	-13.5689871929216	-52.5802132615962	-10.6070783138195	-25.79143891618	-47.0597840125059	-36.9570776584995	-20.4218175267303	-4.93413236333771	
2536000000.00006	-13.6290529804859	-52.7979934336323	-10.6082277815829	-28.0426731739596	-47.0061267135356	-41.3739147283396	-20.5435297294158	-6.52040671721771	
2536333333.3334	-13.6769708472318	-53.1539033774129	-10.5982482878768	-30.2837939702997	-46.7300332339146	-42.6499362963691	-20.6467259980605	-8.11058096024381	
2536666666.66673	-13.743223600597	-53.4045389301765	-10.5965718919061	-32.5132162091073	-47.0457373432399	-47.0207053407408	-20.7485968322293	-9.77037420522191	
2537000000.00007	-13.8051085650787	-53.5864454016743	-10.5949639624182	-34.7280737205059	-46.8535250378489	-46.6507770176156	-20.8628151528149	-11.3793194054575	
2537333333.3334	-13.8728154892725	-53.872790061309	-10.5876175970469	-36.988098749618	-47.3448675266008	-50.0145310046021	-20.9666886967431	-13.2083978005706	
2537666666.66673	-13.9284020096701	-54.0894328992475	-10.5814492454928	-39.2139886942484	-47.0606671630902	-48.9655515631389	-21.077845435285	-14.8007749297773	
2538000000.00007	-14.0099866210326	-54.3539711097068	-10.578693873827	-41.4428185848554	-47.1462019328489	-52.4379455109858	-21.1717618674581	-16.3191670671514	
2538333333.3334	-14.0667759820715	-54.6529508247936	-10.5703063184961	-43.6652872749248	-47.2988317515807	-57.5697284558963	-21.2636018780977	-18.2297757251916	
2538666666.66673	-14.1455397972768	-55.039235803404	-10.5660854432257	-45.9037231240016	-47.3701327148471	-59.0670183216965	-21.3741402566631	-19.6627137244956	
2539000000.00007	-14.2220944786815	-55.2118637494818	-10.5592634061888	-48.1259117814587	-47.2847272280346	-59.4899190955326	-21.4560087762905	-21.3070830116532	
2539333333.3334	-14.3040922744726	-55.4445996424017	-10.5575098218743	-50.3595126169151	-47.1935665193876	-61.1748665564685	-21.5284816728767	-22.9825832044912	
2539666666.66673	-14.4017154792036	-55.7719712335493	-10.5582125450021	-52.5944601702003	-46.9780591521003	-64.8465207578642	-21.6168475463777	-24.4483387412823	
2540000000.00007	-14.4889938735448	-56.1762415442471	-10.5548137906553	-54.8649819549215	-46.876614479429	-66.4204804150329	-21.7039895867591	-26.1364582625044	
2540333333.3334	-14.5581431883703	-56.4190732000112	-10.5476749620462	-57.0885573641123	-47.1798266706968	-67.4250224168905	-21.7782506007867	-27.605406371634	
2540666666.66673	-14.6564380314726	-56.6945058319893	-10.5446137635891	-59.3529496592385	-47.0092804351401	-70.3012270641317	-21.8823098627736	-28.9703345832911	
2541000000.00007	-14.7404539244305	-57.0472215339856	-10.5435216397285	-61.5644474612871	-46.7838958692494	-74.1131221166681	-21.9664943186296	-30.5177365516997	
2541333333.3334	-14.8377984583882	-57.2528146639954	-10.5336150214044	-63.8054869250287	-47.4501152525567	-74.7014617534269	-22.0276681946098	-31.8974870933949	
2541666666.66673	-14.9120263624988	-57.5896651533724	-10.5291452398953	-66.073916187662	-47.1206091829988	-76.8845385740876	-22.0686767309486	-33.3130242567594	
2542000000.00007	-15.0337785305531	-57.936579279906	-10.5234837710519	-68.217557217777	-47.1458915471213	-79.96588698337	-22.1538739965992	-34.6839436570659	
2542333333.3334	-15.130125452531	-58.3780159719152	-10.5375598227003	-70.4948596719804	-47.0623978884726	-83.1977708666082	-22.2273415803857	-35.9276217349176	
2542666666.66673	-15.2380669230078	-58.671337771789	-10.5211238867741	-72.7382294445016	-47.1057713062315	-82.447060992748	-22.287723334035	-37.1386621023754	
2543000000.00007	-15.3339628154017	-58.958943526656	-10.516799549814	-75.025094238371	-46.7757073101045	-85.064503214895	-22.3490391360655	-38.4650371621737	
2543333333.3334	-15.4422155750726	-59.1201399403242	-10.5131892389388	-77.2110963448259	-47.044798833077	-87.4252860546777	-22.4273570603197	-39.3914944142804	
2543666666.66674	-15.5585852164109	-59.4939578940801	-10.5125741456249	-79.4093569123833	-47.1148975952264	-90.0930769493787	-22.4923792920452	-40.5750519038484	
2544000000.00007	-15.6542840246632	-59.8529416679115	-10.5095833611555	-81.6798977269796	-47.2699306894839	-92.7795883428356	-22.548659607297	-41.5760632914749	
2544333333.3334	-15.7726836594973	-60.2237620830612	-10.5105123715178	-83.8750022175033	-46.8331637510904	-94.2322515458165	-22.6010761773659	-42.6336235025651	
2544666666.66674	-15.8560695762728	-60.6136033515388	-10.5060422720905	-86.1558107238819	-47.0378916567732	-97.7717763643624	-22.671925637923	-43.392245418789	
2545000000.00007	-15.9823111881383	-60.8292490371114	-10.4941173332529	-88.3580032843537	-47.1227129180751	-99.1852880365332	-22.7155877655518	-44.194503542128	
2545333333.3334	-16.081229197863	-61.3725918273398	-10.4923957533484	-90.5962138641637	-47.043527325964	-102.018812985702	-22.7886207032772	-44.9941763769556	
2545666666.66674	-16.2185556346264	-61.5778466900569	-10.4964556310249	-92.8275098074067	-47.0977472796409	-103.531272892503	-22.85367821645	-45.5740847426218	
2546000000.00007	-16.3222208556116	-61.9553606709868	-10.489976555484	-95.0659862789628	-47.0545012796722	-104.705701050627	-22.9147182275968	-46.3081136818754	
2546333333.3334	-16.4419079773131	-62.3370869634573	-10.4775934327303	-97.2974255167536	-47.2965435522923	-108.653851910061	-22.9767618759072	-46.6725203148309	
2546666666.66674	-16.5472768315441	-62.8082912153703	-10.4756050397533	-99.52497645657	-47.2529607778605	-109.478700161109	-23.030431473382	-47.143399777628	
2547000000.00007	-16.6557271932909	-63.1138582949347	-10.4691205410348	-101.794826299714	-46.7920417621719	-111.201696281208	-23.0853794571	-47.5891756106284	
2547333333.3334	-16.7749208768991	-63.5877609913072	-10.471153472935	-104.014976115502	-46.8785205784765	-115.271558609596	-23.1439403169392	-47.8441956830994	
2547666666.66674	-16.882909162144	-64.0109028515166	-10.4611130279111	-106.225942827348	-46.8941835437679	-115.651596663695	-23.19291479697	-47.827189255838	
2548000000.00007	-17.0027281017344	-64.4069591725408	-10.4585303371959	-108.487974206222	-46.8491080170934	-118.303591557813	-23.2633101015154	-48.0935098723542	
2548333333.3334	-17.1199724367134	-64.8805283454834	-10.4583357235906	-110.689520294552	-47.0272539677639	-121.281197732065	-23.3239394382505	-48.1178772478533	
2548666666.66674	-17.2257867268642	-65.2723969347519	-10.4496152570127	-112.946802911378	-46.8423709248044	-123.629955578165	-23.4128011006096	-47.8283453480288	
2549000000.00007	-17.3323883921496	-65.8349530362062	-10.441559887257	-115.185954102179	-46.7883606240722	-124.580926071296	-23.4165017890917	-47.827941411945	
2549333333.3334	-17.448120899637	-66.3249115927423	-10.4299617157849	-117.411059690455	-46.8863445893462	-129.063199196864	-23.4982912140243	-47.62012891164	
2549666666.66674	-17.564392820454	-66.8650698452922	-10.4284732459158	-119.658876429154	-46.892079726034	-132.029383132901	-23.5584493250882	-47.1795128528089	
2550000000.00007	-17.6681823905584	-67.3454657779526	-10.4119473743937	-121.858738653276	-46.9567084414368	-134.571123442906	-23.5962059734042	-46.8590743865394	
2550333333.33341	-17.7861136885618	-67.9501938171963	-10.4119185454898	-124.134895748412	-46.7520142522117	-134.642363057144	-23.6320211517584	-46.3337294602762	
2550666666.66674	-17.8774905911339	-68.615521994706	-10.3981106831652	-126.378660839255	-47.0074677457591	-136.318966090669	-23.6781969696543	-45.9308560278322	
2551000000.00007	-17.983435610705	-69.2699295445294	-10.3910228283863	-128.617084619096	-46.754166783774	-138.967141620284	-23.7262064330189	-45.2903221603029	
2551333333.33341	-18.0916160753116	-69.805024836315	-10.3876937990891	-130.83127836101	-46.8719305382255	-139.519790832791	-23.7425172213864	-44.5912963878938	
2551666666.66674	-18.1830479688401	-70.4753579264487	-10.3765098299365	-133.087035703183	-46.6918965827793	-144.838107456182	-23.7569633814646	-43.7222308051606	
2552000000.00007	-18.2846488284607	-71.0668459941626	-10.3703095252766	-135.34182673075	-46.9465830286904	-146.075201685148	-23.7654407124868	-42.8596353170107	
2552333333.33341	-18.388429427399	-71.8942165043479	-10.3612178664147	-137.616911059095	-46.7984341176736	-148.652212169531	-23.774458858774	-41.9090098919265	
2552666666.66674	-18.4823121047506	-72.5126125445145	-10.3545643749932	-139.858783270156	-46.9567717053225	-151.311657903462	-23.792644349203	-40.9301879291928	
2553000000.00007	-18.5623129729822	-73.2761114636742	-10.3396005662785	-142.139108496884	-46.9847642303395	-152.822617022629	-23.7991233171695	-39.9619569251084	
2553333333.33341	-18.6524280215189	-74.0390878492939	-10.3299310275506	-144.360591106808	-46.9764542922969	-155.820939006207	-23.8151088177912	-38.9039741796317	
2553666666.66674	-18.7318782704016	-74.7834372036252	-10.3245995820502	-146.630475101526	-46.8055458617005	-157.649300815662	-23.7585292533431	-37.9631108705602	
2554000000.00007	-18.7988965617769	-75.5690353342975	-10.3190875306735	-148.866480937002	-46.6295647830208	-158.877544814376	-23.7312966734506	-36.7843176660303	
2554333333.33341	-18.8706016948911	-76.3846590434074	-10.3130788943793	-151.193597748712	-47.0952024976256	-162.655708249559	-23.6855317213507	-35.560144761143	
2554666666.66674	-18.9533894359903	-77.3055300662328	-10.3009893235763	-153.447090676194	-46.7805387086267	-165.325485503582	-23.6430904073096	-34.3063283912271	
2555000000.00007	-18.9963253448872	-77.9435000187564	-10.2931691233142	-155.703518345543	-46.5734678399562	-167.077876639336	-23.5602844253755	-33.0476572488289	
2555333333.33341	-19.0689184286874	-78.9025766204383	-10.2826303423001	-158.010931358431	-46.7348942953972	-168.616225903156	-23.5281298241048	-31.9262817956218	
2555666666.66674	-19.1287991549016	-79.893086894916	-10.2763611393227	-160.29222291007	-46.596872222054	-172.826725535842	-23.4256712106079	-30.6133756774401	
2556000000.00007	-19.1690262691683	-80.6543871128186	-10.2683317055538	-162.585510674718	-46.7225777150747	-174.716139726094	-23.3525081300942	-29.4633280132984	
2556333333.33341	-19.2047336450382	-81.5353574234909	-10.2553977502061	-164.887705122648	-46.6211424425484	-176.488632827022	-23.2605281469697	-28.214258035384	
2556666666.66674	-19.2526008056127	-82.5360669598992	-10.2585932710984	-167.147707520891	-46.5657376599439	-179.177349737853	-23.2080911209233	-27.2138101677345	
2557000000.00007	-19.2923610811298	-83.4249599364593	-10.2429458915456	-169.476458347874	-46.6074674025857	177.350830899436	-23.066135447103	-25.9121633328417	
2557333333.33341	-19.3070480772207	-84.4359652944393	-10.2344840112492	-171.769951983976	-46.4424511796433	176.567571302199	-22.9625086025409	-24.7569561555875	
2557666666.66674	-19.3295929632092	-85.4582611857679	-10.2350891617992	-174.098149501382	-46.7509983833363	173.783806841308	-22.8372067095161	-23.666984205481	
2558000000.00008	-19.3481904175291	-86.2643908877226	-10.2345925297687	-176.402025208359	-46.5109726565391	173.007791933588	-22.7222945488182	-22.4765920361688	
2558333333.33341	-19.3340236674359	-87.2569378507277	-10.2206004945198	-178.728008361676	-46.5155467266649	169.142670888488	-22.5920649475967	-21.6014384239442	
2558666666.66674	-19.3301501953955	-88.2991489394488	-10.2199402999941	178.929639813181	-46.5191888255203	167.393496174898	-22.4542380814523	-20.6960983390866	
2559000000.00008	-19.3489967977608	-89.3293103475679	-10.2163645996889	176.66491963838	-46.5972116204747	164.263528453968	-22.3490899457725	-19.4768121422531	
2559333333.33341	-19.3395020224266	-90.2605668919949	-10.2071372955266	174.297029557625	-46.7966637127766	162.735166884404	-22.2163810226289	-18.6573458556507	
2559666666.66674	-19.3115318364245	-91.2286743746944	-10.2022746523661	172.007974795015	-46.3706127756651	159.754044190911	-22.0621645315972	-17.7193026348314	
2560000000.00008	-19.2850890510645	-92.2496645858819	-10.2073743329759	169.660520288215	-46.2353341117653	157.171405756666	-21.9249263864441	-16.8520618852868	
2560333333.33341	-19.2771596251178	-93.2807751275607	-10.2039757649188	167.367689444058	-46.5298955090795	155.027851826622	-21.7870585085354	-15.9626272571995	
2560666666.66674	-19.2281534929727	-94.2379556929058	-10.2044936889104	165.035617273185	-46.3556693208082	153.038644981846	-21.6974284842028	-15.2390576007289	
2561000000.00008	-19.193808114063	-95.2656933468656	-10.1975876116774	162.692438000879	-46.3467101065454	151.465956929623	-21.5400449589312	-14.4472543495739	
2561333333.33341	-19.1567145700575	-96.2079362961802	-10.2023595821415	160.361607010308	-46.6569283924823	149.12216502099	-21.3996868013359	-13.7259374594422	
2561666666.66674	-19.1058132999732	-97.2061771461766	-10.2048720742308	157.98225640433	-46.4403604939914	145.094973574149	-21.2680061852097	-13.2017288084285	
2562000000.00008	-19.056392329035	-98.1750623724472	-10.2101932294747	155.670893670644	-46.6654001370437	143.458509314394	-21.1258336394051	-12.4930304890414	
2562333333.33341	-19.0067401043258	-99.180824110818	-10.2135869367692	153.312429271223	-46.3251272454209	139.851793756458	-21.0345791888411	-11.8075096495569	
2562666666.66674	-18.9460717046424	-100.142146910764	-10.2165100890472	151.022811927418	-46.6424482485171	138.396724848638	-20.9057493479974	-11.2539290439804	
2563000000.00008	-18.9024660193043	-101.12624428084	-10.2200466052386	148.617330305238	-46.5847714034018	138.078043217194	-20.7591628025659	-10.6623070255612	
2563333333.33341	-18.8229001412763	-102.036807367553	-10.2225827959066	146.345512866323	-46.6201967411366	133.585848781002	-20.6440833395015	-10.0972916182944	
2563666666.66674	-18.7542308094894	-103.045659627766	-10.2253757301622	143.987164571511	-46.2690045486629	131.035548014577	-20.5501279527261	-9.58394989993719	
2564000000.00008	-18.6945871265101	-103.843448274127	-10.2411596474883	141.655320935242	-46.4622352875521	129.579253303155	-20.4394526001979	-9.13551276712467	
2564333333.33341	-18.6391120226314	-104.743251588003	-10.2437532267863	139.31239659976	-46.4847109921206	128.139687666678	-20.3185758912469	-8.57420755068734	
2564666666.66675	-18.5491297441703	-105.752910613888	-10.2500430358862	136.951649937569	-46.4106376236915	124.626072921684	-20.2057998169547	-8.14868050415247	
2565000000.00008	-18.4921799018293	-106.576599092906	-10.2569265412427	134.630404546614	-46.6628296316422	121.849620223303	-20.1106209549383	-7.83406755789911	
2565333333.33341	-18.4274481815609	-107.471840167019	-10.2664188425608	132.276806603797	-46.7891325400507	120.956627326607	-20.0115346423319	-7.39571238884809	
2565666666.66675	-18.3675883852998	-108.312735583887	-10.2694674973328	129.961591630159	-46.4721048013964	116.518998796043	-19.9551361035297	-7.22979294669301	
2566000000.00008	-18.289877646241	-109.070102507032	-10.2782622713188	127.612217766893	-46.5994881432186	116.476696509164	-19.8347969091583	-6.62730951120164	
2566333333.33341	-18.2105361456935	-110.017204926806	-10.2831886736937	125.280930818079	-46.7908744271171	112.324063773949	-19.7443028108413	-6.48957736284301	
2566666666.66675	-18.1563637288665	-110.916869564748	-10.2971127056119	122.940886190107	-46.6794288157655	110.676924909163	-19.680043432367	-6.13952152256571	
2567000000.00008	-18.1016368758414	-111.721131356032	-10.3052027600344	120.635164432417	-46.5754931375899	107.738266324442	-19.605338738075	-5.70804773363025	
2567333333.33341	-18.0228311872856	-112.44205420406	-10.3117271721771	118.309313997605	-46.5331678686436	107.089819663274	-19.5449252503911	-5.5940782367991	
2567666666.66675	-17.9652090198094	-113.362331245915	-10.3223651023692	115.963846278284	-46.3844151613921	103.359974320782	-19.4834016140556	-5.05080721705053	
2568000000.00008	-17.9067267324751	-114.075039664127	-10.3275014497611	113.624732186629	-46.7019423577505	100.750169476823	-19.4100284385576	-4.89724146959757	
2568333333.33341	-17.8480965298291	-114.88013699568	-10.3398986894234	111.296163881861	-46.4448132194712	99.6267026710878	-19.3646185196723	-4.57082975893569	
2568666666.66675	-17.7881698178591	-115.589463398486	-10.3425592236755	108.989100190768	-46.6451723384099	97.4578902300767	-19.3160455569136	-4.41631600942025	
2569000000.00008	-17.7413046624628	-116.288191011278	-10.3663368517329	106.657552594478	-46.7262702694793	95.4374223403719	-19.2490766545838	-4.24905477542838	
2569333333.33341	-17.6642025934808	-117.065781894858	-10.3672360261413	104.381959947056	-46.704916685547	91.5254141279768	-19.1888981430094	-4.02340923666839	
2569666666.66675	-17.6198755063235	-117.908248455244	-10.3746458308949	102.088218401173	-46.4848893613095	90.2713165937963	-19.1570342444811	-3.9008067505864	
2570000000.00008	-17.5705359163093	-118.557490546022	-10.386136347486	99.6933201534729	-46.7828163354279	86.9524819205945	-19.12481039183	-3.51911004422364	
2570333333.33341	-17.5217056374491	-119.409461233329	-10.3868165068724	97.4099826222977	-46.5130743933468	86.0737876924451	-19.0915033134223	-3.48001742011117	
2570666666.66675	-17.4887938569408	-120.005036264618	-10.4024422355439	95.082104525178	-46.5627864999321	84.265949043247	-19.0567474063193	-3.29634719293805	
2571000000.00008	-17.4473509944663	-120.774401601034	-10.4118241212691	92.8199810630036	-46.5250915919581	81.4824933667697	-19.0372374854665	-3.0969802514359	
2571333333.33342	-17.4137245274658	-121.469209740173	-10.4142951458007	90.5080753191141	-46.3637895982129	77.4500390454988	-18.9850142608974	-2.89292591850187	
2571666666.66675	-17.3852831203608	-122.13786122374	-10.4334917619676	88.1863071803259	-46.6771927964896	76.6144822754098	-18.97555951752	-2.81522776318049	
2572000000.00008	-17.3420302038892	-122.748710062041	-10.4347505241721	85.9501967398458	-46.6772537051758	74.4627919338462	-18.963831530771	-2.75057930662514	
2572333333.33342	-17.3217584922913	-123.418475257742	-10.4411733518343	83.6497881875546	-46.5233506964322	72.1448776920697	-18.9518635182478	-2.65093306991524	
2572666666.66675	-17.2970954658423	-124.033964054069	-10.450320821992	81.4026109054072	-46.629706451013	70.0796730814383	-18.967286726771	-2.65270742801269	
2573000000.00008	-17.2818861524701	-124.66377995204	-10.4498575599075	79.0909010729773	-46.6636876395632	67.5642169010115	-18.9688212298959	-2.45387317689745	
2573333333.33342	-17.2494935843839	-125.375142154418	-10.4589557857995	76.8430139928447	-46.8492154342367	65.7501674220729	-18.9694192916519	-2.49891829027367	
2573666666.66675	-17.2518058320906	-126.0436766286	-10.4642089817446	74.5808749166573	-46.3478428517622	63.1857090605716	-18.9641192824862	-2.45918456497281	
2574000000.00008	-17.2160830821349	-126.579159447245	-10.4651323928969	72.3276845929722	-46.7599563786823	60.6171875198027	-18.9884140877816	-2.3140657033958	
2574333333.33342	-17.2304250949189	-127.174127781217	-10.467611052071	70.0125288502758	-46.5378899890385	59.1646084561459	-19.000313714767	-2.12114081543763	
2574666666.66675	-17.2171663772966	-127.94079503031	-10.4740686827288	67.7973564079955	-46.858298780989	56.0957035700735	-19.036901819029	-2.07900892688267	
2575000000.00008	-17.2282731921871	-128.524545412559	-10.4664044913681	65.546069847317	-46.7649062381386	53.8193549024667	-19.0428390237369	-2.27883392793752	
2575333333.33342	-17.2103737265913	-129.054974430518	-10.4715088051032	63.3474554069771	-46.9057425581196	52.842080505254	-19.0772796195737	-2.0979484743662	
2575666666.66675	-17.2435654550316	-129.778917099149	-10.4675047853236	61.1035732994544	-46.6410692260094	50.8161754234011	-19.1093851409296	-2.16305014477785	
2576000000.00008	-17.2378652393752	-130.449459635761	-10.4685836130576	58.865232169492	-46.7549907153597	48.4825342484487	-19.1424772489351	-2.15343808181521	
2576333333.33342	-17.240735828742	-131.058450478241	-10.4640986699283	56.6249053713969	-46.7225392240904	43.7855032054467	-19.1975901276436	-2.22912088650514	
2576666666.66675	-17.2733795211641	-131.658550750138	-10.4588247449083	54.3850444772028	-46.6609761656219	43.0652882265753	-19.2252726372332	-2.24023358477502	
2577000000.00008	-17.2928920099431	-132.274108249462	-10.4529003432147	52.1655277577296	-46.7560640060463	39.2274593937664	-19.2740708947866	-2.20119766649586	
2577333333.33342	-17.3404261947732	-132.779090367882	-10.4539476049155	49.8913431074433	-46.6903463655996	38.5653199123105	-19.3531411581931	-2.39512235369228	
2577666666.66675	-17.3567982265317	-133.439023072525	-10.4530687337281	47.6784365585558	-46.8685764081398	37.7631600638941	-19.3867292955465	-2.57961467065851	
2578000000.00008	-17.3826618003326	-134.263526187258	-10.4440472976365	45.4353818397893	-46.5874041254497	34.6295499301289	-19.4406692627074	-2.71652933657985	
2578333333.33342	-17.4105028833764	-134.726149562536	-10.4382408338703	43.2676587579427	-46.601621998671	32.8407761908785	-19.5112776257834	-2.66551430066353	
2578666666.66675	-17.4659670647548	-135.286029498041	-10.4241192497274	40.9775381115764	-46.5739824518409	30.1880271955733	-19.5909340647205	-2.78341243877533	
2579000000.00009	-17.53345746073	-135.915122760918	-10.4171932310954	38.7579034071419	-46.7790037224865	28.492871723912	-19.6591760483255	-2.99066028591114	
2579333333.33342	-17.5683926997546	-136.672412858649	-10.4081483559843	36.4900907102765	-46.7592970824255	24.3330566636443	-19.755764401012	-3.13205248941158	
2579666666.66675	-17.6463045076914	-137.1837211532	-10.3993136494854	34.2845714522337	-46.8161717144977	24.7456414368533	-19.8375072638128	-3.26330068222403	
2580000000.00009	-17.6940757888136	-138.010164054333	-10.3901678584371	32.0238920964877	-46.6151975752476	19.429230658337	-19.9325461394825	-3.46592862484471	
2580333333.33342	-17.7678764237543	-138.556702732127	-10.3822979268109	29.7783896434197	-46.7727808279575	18.145111186036	-20.0240827372203	-3.63998271681362	
2580666666.66675	-17.8540602033094	-139.175246072968	-10.3705977580494	27.5534838149088	-46.8739114654887	18.4875084265718	-20.1231060446864	-3.85380996694634	
2581000000.00009	-17.8992218890306	-139.905002928726	-10.3622186308352	25.2988089149946	-46.6238378337527	14.6419100472687	-20.2357378311377	-4.12819433614463	
2581333333.33342	-17.9799660191921	-140.398147373341	-10.3530275268477	23.0414618641784	-46.8343981881824	12.3654123798403	-20.3341316800706	-4.48794282259201	
2581666666.66675	-18.0554040132639	-141.012492040261	-10.3381229275718	20.8032745993704	-47.0154792395699	7.81458861638185	-20.4746311507522	-4.79993443535853	
2582000000.00009	-18.1363867900476	-141.802825176388	-10.3304462623204	18.5943203926889	-46.9328775917542	8.36206288472319	-20.585228661762	-4.83286444631411	
2582333333.33342	-18.2289190572923	-142.565364010012	-10.3152776698698	16.3153763266997	-46.7701579886826	5.99505489514156	-20.7143737885551	-5.35797954522804	
2582666666.66675	-18.3375867943688	-143.022345950617	-10.3086379126714	14.0074575671753	-46.9118221302264	1.19024562358161	-20.8265141942089	-5.77716449919493	
2583000000.00009	-18.4287354628344	-143.688759107536	-10.2953791805876	11.7683228234212	-46.8741811715955	1.36969472659502	-20.9539513214819	-6.07600541550807	
2583333333.33342	-18.5295933406121	-144.449889728579	-10.2783695979288	9.47955199940382	-46.7807510709353	-3.22284230663843	-21.1392048446037	-6.40705162228394	
2583666666.66675	-18.6497808371656	-145.061124612467	-10.2740243616711	7.16887749349201	-46.668318701543	-2.47080150845381	-21.2566008144232	-6.86181778738648	
2584000000.00009	-18.7360801209006	-145.754862037413	-10.2670639418928	4.914593050029	-46.8641577356636	-7.32946814520148	-21.4187217353856	-7.46922643895265	
2584333333.33342	-18.8221921679591	-146.476127618496	-10.2448301379031	2.63079778684199	-47.1129316436479	-7.60611697120551	-21.5864048258617	-8.01703614174862	
2584666666.66675	-18.9453937700327	-147.155261142686	-10.2377123159817	0.322057685153954	-46.6285199530623	-10.6849330023291	-21.765510719708	-8.47992130454839	
2585000000.00009	-19.0424039254444	-147.913531075066	-10.2335718786474	-1.93427112942399	-46.9580986164914	-12.5209395783306	-21.9289242719555	-9.02487241542979	
2585333333.33342	-19.1845525379344	-148.624307802131	-10.2286858187372	-4.20490179902198	-46.5294221385974	-16.5476978735785	-22.1141414832252	-9.8044447119885	
2585666666.66676	-19.2998018358373	-149.381036116552	-10.2177602283713	-6.52685077900815	-46.5493734294931	-17.6279476276793	-22.2945480611601	-10.3501799538984	
2586000000.00009	-19.4183913157606	-150.123902405849	-10.2030095146144	-8.81536819716453	-46.8636219870948	-21.4580255719622	-22.475735229458	-10.9354146495438	
2586333333.33342	-19.5270969486823	-150.926001972648	-10.1995552197576	-11.1153821891511	-46.8684797092913	-21.5937781318875	-22.7036845282655	-11.6844897630228	
2586666666.66676	-19.6896294813765	-151.702372190867	-10.1912464496192	-13.4647416498536	-46.6525149606362	-27.9800970873422	-22.8896034994571	-12.48420720399	
2587000000.00009	-19.7854463397266	-152.580806743151	-10.1836940984677	-15.7511085190895	-46.6128997740003	-27.0329112288844	-23.0920141707689	-13.1572686648279	
2587333333.33342	-19.9214707918131	-153.42551119449	-10.1816322884304	-18.0660212197962	-46.819455481445	-27.3790040244613	-23.3305012744928	-14.3791201099111	
2587666666.66676	-20.0665287670446	-154.170258349279	-10.1735997743411	-20.4009179453629	-46.4693904048191	-31.9236943325611	-23.5439275770561	-15.0040496414089	
2588000000.00009	-20.1967261526158	-155.083829206795	-10.1707930932178	-22.735340029913	-46.6472410301282	-34.059328644087	-23.7815329346633	-16.0641093944633	
2588333333.33342	-20.3162790123374	-155.850709805867	-10.1644462495636	-25.0762517680194	-46.8186144160033	-36.4534813520384	-24.0379192371536	-17.0418636617059	
2588666666.66676	-20.450272785925	-157.03470557743	-10.1602876237653	-27.4031042201618	-47.0173532003047	-40.0960787757716	-24.3055543592527	-18.0103173231946	
2589000000.00009	-20.5731931493763	-157.814872264547	-10.1631096967098	-29.7130159490414	-46.6302064648296	-41.2199471378674	-24.5544865056929	-19.0671546665895	
2589333333.33342	-20.7481157844806	-158.756169920875	-10.1634969343243	-32.0459879790491	-46.8008601056096	-42.5382422651799	-24.8187359471538	-20.6019683045646	
2589666666.66676	-20.8460324420598	-159.827029905242	-10.1578750470851	-34.36017383425	-46.7718975287829	-44.4777449544874	-25.0725741308283	-21.649309353245	
2590000000.00009	-21.0038546188951	-160.798683434978	-10.1558308045922	-36.6760521766178	-46.6259484890708	-48.9034471830564	-25.3364147963408	-23.3597586420334	
2590333333.33342	-21.1219435952059	-162.143936971747	-10.1580583850791	-39.01191662713	-46.790111907522	-51.6507473133972	-25.6457724521795	-24.2684704074136	
2590666666.66676	-21.2665854942233	-163.131754353186	-10.1545012479621	-41.3711139998565	-46.3220856642555	-53.0083662753486	-25.9272996204721	-25.9959191323108	
2591000000.00009	-21.3860106838425	-164.259289034753	-10.1619361693355	-43.6956531019364	-46.6457690786157	-54.1289461975856	-26.1983335719464	-27.6382543118019	
2591333333.33342	-21.517224035858	-165.487240656419	-10.1579048930905	-46.0601657499704	-46.6969540778111	-57.5810092674184	-26.5059732841971	-29.2337230451331	
2591666666.66676	-21.6820038015718	-166.673873065839	-10.1622331602811	-48.4122328794594	-46.6618158527396	-59.5892769035845	-26.7487469540387	-30.9294271372933	
2592000000.00009	-21.76085157674	-168.103270248477	-10.1600045597987	-50.7203672095178	-46.7138198753896	-61.1968567696518	-27.1315565903046	-32.9593934852685	
2592333333.33343	-21.8633341725046	-169.419597545337	-10.1676353766697	-53.0659095256565	-46.6327823205125	-63.5276294232517	-27.4209705125265	-34.9830024531302	
2592666666.66676	-22.0073345188124	-170.998525438517	-10.1645936374374	-55.4255277346209	-46.3450101164129	-66.862653921712	-27.7210043500482	-36.8365103601175	
2593000000.00009	-22.0992755812601	-172.554367496788	-10.170196779664	-57.7484304842543	-46.3715339572859	-67.8083867999883	-28.0158629315646	-38.9789841226328	
2593333333.33343	-22.2155636453867	-174.016527747871	-10.1718695338766	-60.0982732517263	-46.6517368746692	-71.5364869446309	-28.34787207877	-41.3232351219651	
2593666666.66676	-22.3222018770948	-175.73155050943	-10.1786387891596	-62.4315356889981	-46.6134186864737	-74.1284393034386	-28.6798867414963	-43.9387565554273	
2594000000.00009	-22.3887152639781	-177.297159549767	-10.1848685578709	-64.7427322749369	-46.5240914062464	-75.4870313620492	-28.9728591918651	-46.0294246504626	
2594333333.33343	-22.4558259193095	-179.215929088679	-10.1881269183733	-67.0398313133729	-46.900123275368	-77.4384724712811	-29.2799943323893	-48.7213828780998	
2594666666.66676	-22.5482287890615	178.918009014943	-10.1921478624939	-69.3953640011808	-46.5632613532269	-78.7714331154305	-29.5654529368829	-51.2827710694587	
2595000000.00009	-22.6069389614988	177.086328833393	-10.2009367000789	-71.75491992427	-46.4282291185246	-82.8585036140321	-29.7790498904278	-53.8182205897028	
2595333333.33343	-22.6392099204694	175.132561519901	-10.2055355374326	-74.0402021161842	-46.9151236391564	-84.2797280074574	-30.1847841784561	-57.0274966253858	
2595666666.66676	-22.6615961018424	173.314214974046	-10.2134851299063	-76.3642593264132	-46.5557038870411	-87.7149574644011	-30.442169177788	-59.7452067739109	
2596000000.00009	-22.6908420520175	171.019178542934	-10.2218323163295	-78.7111185446527	-46.5438587633122	-89.6788318906029	-30.7156617319681	-62.6972956845843	
2596333333.33343	-22.7178725292465	169.003877606896	-10.2312597234711	-81.0024956713244	-46.6696615779724	-90.8837467128066	-30.8863412786286	-65.5645286477034	
2596666666.66676	-22.7002606007654	166.745348912798	-10.2432843409905	-83.3388417078073	-46.4409427849985	-93.2992416949543	-31.1193265869549	-68.4562124593527	
2597000000.00009	-22.6912088874393	164.639022565411	-10.2493203039086	-85.5951815576438	-46.4189398184941	-95.8150385548142	-31.3966969092658	-71.778068862041	
2597333333.33343	-22.6317176042361	162.283787833798	-10.2568345561107	-87.8968485342152	-46.6059513305852	-97.229277643595	-31.6478619471271	-74.6691044858431	
2597666666.66676	-22.5835825423929	160.166001346773	-10.2693919242126	-90.1661075642351	-46.4220245556417	-102.302625848755	-31.7876973772827	-77.9982864169799	
2598000000.00009	-22.5280049323056	158.09722841829	-10.270334168846	-92.4743766879536	-46.4145276557099	-104.867937288869	-31.9819799269607	-80.674370839419	
2598333333.33343	-22.4670854121493	155.95669447252	-10.2801289924044	-94.8129015505047	-46.6131866152371	-106.696925677252	-32.1778669624804	-83.8323396462239	
2598666666.66676	-22.3778486144009	153.805984408565	-10.2907750334761	-97.0728915886329	-46.8675764901604	-108.662466175188	-32.3466071569034	-86.6996958326759	
2599000000.00009	-22.2919883748274	151.571219810184	-10.3041421420751	-99.3035229824442	-46.6351212076433	-110.981122223154	-32.5356934827825	-89.3252651570605	
2599333333.33343	-22.1828822115302	149.41412835632	-10.320098736702	-101.636478872991	-46.7733107839605	-112.906665405776	-32.6788331503799	-92.1671773944668	
2599666666.66676	-22.0532567750377	147.229439951881	-10.3248992789629	-103.924496162656	-46.4406105184606	-115.7587345457	-32.9026202267587	-94.2317090417168	
2600000000.0001	-21.9176704969828	145.164419579301	-10.3385883788453	-106.176253817995	-46.8204800466265	-117.614285294043	-33.0196229642188	-97.111723000672	
