!Agilent N9923A: A.05.34
!Date: Sunday, 13 March 2016 20:43:46
!Model: N9923A
!Serial: MY51491690
!GPS Latitude: 
!GPS Longitude: 
!GPS TimeStamp: 0001-01-01 00:00:00Z
!GPS Seconds Since Last Read: 0
!CHECKSUM:1613666117
!Correction: S11(ON U)S21(ON U)S12(ON U)S22(ON U)
!S2P File: Measurements:S11,S21,S12,S22:
# Hz S DB R 50
2400000000	-17.0073707667207	175.997563149716	-9.7833383958093	167.932371355858	-46.7001702325791	154.068650032212	-18.146979476973	11.1921281626282	
2400333333.33333	-17.0109433870449	174.981031796933	-9.77738970448103	165.649130366979	-46.680778053437	152.425438156357	-18.2592261179448	10.9516191461053	
2400666666.66667	-17.0031246602181	174.106004450309	-9.7780253984585	163.412472562953	-46.7057044369864	149.935040760674	-18.3546789622045	10.852073703992	
2401000000	-17.0360610008863	173.064544905787	-9.77493750435778	161.11561284427	-46.7755988364428	147.853173972451	-18.4737033341666	10.521841989223	
2401333333.33333	-17.0555039928368	171.984571187471	-9.77505399977369	158.826618106236	-46.9036681031698	146.502903844102	-18.5905508904975	10.428526525614	
2401666666.66667	-17.0736585032573	170.962221934902	-9.77699216208971	156.560633360001	-46.7985734186509	143.485797446773	-18.706266032795	10.1512990909573	
2402000000	-17.0879325901433	169.964936048519	-9.77310916062097	154.26559440713	-46.7672872001971	141.348455957889	-18.84037630227	10.0041542121735	
2402333333.33333	-17.1037907531057	168.907605154479	-9.77243922021314	152.001463090705	-46.8796307153901	139.893472455304	-18.982382051071	9.81541221477632	
2402666666.66667	-17.1192696826333	167.863604346278	-9.77199731307062	149.676302064412	-46.7737703954409	137.290462708824	-19.1131240307867	9.59149698430286	
2403000000	-17.1156189570613	166.787185870079	-9.76944921916539	147.396179454228	-46.7892644352889	134.723272134953	-19.2594666835661	9.36342493156643	
2403333333.33333	-17.1401064098221	165.665586830325	-9.77079459490436	145.110220131145	-46.956545384047	131.967106617983	-19.3867806614182	9.2575953371384	
2403666666.66667	-17.1498990428265	164.505673827797	-9.76968624574313	142.846302657952	-46.8051057380805	129.56320289965	-19.5366169942965	9.0054650174031	
2404000000	-17.1593490632037	163.444820498726	-9.77046453559191	140.595561008106	-46.9069416453581	127.720663060234	-19.6832025836372	8.87948297466707	
2404333333.33334	-17.169726988999	162.223183318319	-9.76648732147375	138.28669446266	-46.8404505048181	125.780979311261	-19.8564132548487	8.65223983832041	
2404666666.66667	-17.1759899261451	161.130756874735	-9.76955156770397	136.014784232692	-46.8353014887906	123.225383167194	-20.0213762044336	8.36165976718582	
2405000000	-17.1992018121883	159.942086323391	-9.76966862368401	133.750666888082	-46.8146414111287	121.342908636329	-20.1795557585467	8.2208475386924	
2405333333.33334	-17.1863063237696	158.80039763461	-9.7663368032742	131.447305833755	-46.7545451034439	118.882920528196	-20.3479202260938	8.06073443475374	
2405666666.66667	-17.1900114945807	157.59697999317	-9.76938655275012	129.160118727894	-46.8680282060115	116.770754843583	-20.5228990236705	7.84321492459302	
2406000000	-17.1868228464164	156.402799884138	-9.7672883388481	126.91473274774	-46.9012071602519	113.816079487585	-20.687642441792	7.6890328852084	
2406333333.33334	-17.1819206703177	155.147791059286	-9.76806048617804	124.603795633256	-46.9212017911199	112.989136706744	-20.8717784341981	7.57270344249463	
2406666666.66667	-17.1933423028775	153.974241466858	-9.76226892983298	122.357895118767	-46.9917641068537	110.342454005366	-21.0761680077806	7.46078675495223	
2407000000	-17.1760444981612	152.771678317855	-9.7655248371576	120.077496643887	-47.0622702175268	108.084717191007	-21.2550640023907	7.33773063584925	
2407333333.33334	-17.1756141786838	151.529966865769	-9.76798692257779	117.802723357351	-46.9174531462604	105.526753428171	-21.4186735140831	7.26094772074882	
2407666666.66667	-17.1579529619033	150.255132947502	-9.77171795075886	115.542921374247	-46.8021781174633	102.471570830149	-21.6339216448657	7.07774310099994	
2408000000	-17.1451554989731	149.01429247131	-9.77151042715655	113.265735812662	-46.9464809390709	101.209230195951	-21.8201213269441	7.05472421364636	
2408333333.33334	-17.135480311147	147.7955216245	-9.77377462228638	110.975423900619	-46.8271823281748	98.5903240981087	-22.0092298896327	6.95448160995199	
2408666666.66667	-17.1020505118868	146.554858092115	-9.77684782535446	108.712644981152	-46.9846741667748	94.9290327127054	-22.1989809488557	6.90616384797872	
2409000000	-17.0884695818843	145.354366433297	-9.78138226676902	106.442213145374	-47.0301841432181	93.6193010184163	-22.373375337362	6.91903360358216	
2409333333.33334	-17.0559728412343	144.026624406953	-9.78319093574524	104.168553273136	-46.8281511536082	91.3327196181819	-22.5702149537815	7.12072643180812	
2409666666.66667	-17.030260479412	142.836387844789	-9.78836835002715	101.913249042774	-46.9386042173091	89.7686608019254	-22.7657345983418	6.93676330127125	
2410000000	-16.9999301448243	141.610173549898	-9.79149966474453	99.6525442249185	-46.8683963384016	87.7219169489989	-22.972208491344	7.05476348549539	
2410333333.33334	-16.966280896704	140.428494105605	-9.79578009960843	97.3732762873346	-46.8451037624734	85.7811372934196	-23.150446417084	7.24915414402854	
2410666666.66667	-16.9311959007017	139.27981723289	-9.80176417150056	95.1024965911425	-46.8839195107675	83.5366043931644	-23.3306653710653	7.22089691177326	
2411000000.00001	-16.8837152386171	137.954465985085	-9.80616806815966	92.8746297797891	-46.8888666045628	80.6098730817925	-23.5175158710417	7.47954296487577	
2411333333.33334	-16.842257797098	136.815453904071	-9.81106056347836	90.5895360662609	-46.751222518858	78.1950323832122	-23.691246574407	7.5853585895613	
2411666666.66667	-16.7862107073885	135.640725467144	-9.81893144369694	88.3452211197186	-46.9414390116355	75.9798800465456	-23.8703801284619	7.77658565210442	
2412000000.00001	-16.7550208981567	134.470956925649	-9.82500369293697	86.0771409771975	-46.7203931773412	73.3417234798458	-24.0296046430126	8.18138304574332	
2412333333.33334	-16.6965477465266	133.279617885326	-9.82855942112803	83.8216052085274	-46.9031691151081	71.8373290492709	-24.1627068716488	8.29209371408324	
2412666666.66667	-16.6423481654821	132.107133631735	-9.83630367291685	81.5718571903312	-47.0889279393502	69.6502753621984	-24.3260649404381	8.65450181544197	
2413000000.00001	-16.5815013447677	131.031465915238	-9.84194814999299	79.3086620290085	-46.9635838909446	67.150413311268	-24.4786718958356	8.94494952649847	
2413333333.33334	-16.517023900042	129.833316781859	-9.85124748363553	77.0371876219631	-46.7155175110463	64.0564899848218	-24.6111914153162	9.16241529641346	
2413666666.66667	-16.4547158631527	128.772754598043	-9.85526357049025	74.799286197732	-46.9060036934071	61.4538008055408	-24.7275614889345	9.63874453320092	
2414000000.00001	-16.396443635436	127.667026471266	-9.86344938068921	72.5326092902276	-46.9557992934655	60.3378286648079	-24.8330273158065	9.9484006924743	
2414333333.33334	-16.3298031477786	126.569622002902	-9.87268103039227	70.2823656997275	-46.7290964696135	57.2112261231554	-24.9085530173774	10.5735999229997	
2414666666.66667	-16.2629387738431	125.541982566356	-9.88019710500259	68.0458038423042	-46.9787498645771	54.5544625950101	-24.9843214770535	10.875225183209	
2415000000.00001	-16.1788569139759	124.50766594855	-9.88715950757681	65.7825257381281	-46.9692460110975	52.7273245957084	-25.0542778201465	11.245879242628	
2415333333.33334	-16.1079633463679	123.447593571108	-9.89949270197448	63.5173293218101	-46.9797967617611	50.8496202439428	-25.0990932112202	11.8468353248964	
2415666666.66667	-16.0355780829949	122.432242520314	-9.90836155478138	61.2573640787741	-46.8895322579295	47.2601183337157	-25.1531642784372	12.091950948087	
2416000000.00001	-15.9569483334526	121.468227695474	-9.91673009002209	59.0024958207042	-46.966568020636	45.7576260076625	-25.1570691314607	12.4084844775891	
2416333333.33334	-15.8805510328899	120.434776531528	-9.92628864810047	56.7609022325317	-46.8361097104373	43.1407081809156	-25.1583249658795	12.9310687227729	
2416666666.66667	-15.8147744142748	119.465458560466	-9.93672378085879	54.5127636219009	-46.8415443840262	41.1362621156153	-25.1465828848015	13.2496019515964	
2417000000.00001	-15.730402015114	118.518640812388	-9.95066685390828	52.2510170174624	-46.9421949042649	39.7525074555268	-25.1174323750649	13.6059028763865	
2417333333.33334	-15.664757420367	117.618613191149	-9.96065607113708	49.9981306000799	-46.8592545584067	36.1105161036313	-25.0789907043755	13.7921142000639	
2417666666.66668	-15.575522901095	116.687343702151	-9.96690191236442	47.7267312611022	-47.0031271427104	35.0843102215505	-25.0054709102413	14.1350715245117	
2418000000.00001	-15.5005437992437	115.775584632054	-9.98043956172011	45.5031354524438	-47.0874255843146	31.4568063722504	-24.9313786337463	14.2917555417979	
2418333333.33334	-15.4220716396777	114.832281831932	-9.99256638639022	43.2546094867437	-46.850194619348	29.9592503732183	-24.834612485298	14.512939935401	
2418666666.66668	-15.3507251607124	113.945134926976	-10.0059905543798	41.0148097208424	-46.9604299260437	28.2950019633216	-24.7180345351895	14.8914779093272	
2419000000.00001	-15.2660413903843	113.114542464593	-10.0199334279876	38.7521446279255	-46.9399330008992	25.6139515649272	-24.6068584211152	14.9097931480124	
2419333333.33334	-15.1937701707612	112.269519364993	-10.0242916442493	36.4906717788922	-46.9374343807724	22.5150429979055	-24.4773227805478	14.911549693298	
2419666666.66668	-15.121545249947	111.419310455253	-10.0383289783656	34.2308372662269	-46.927928259298	20.5956379322771	-24.3486575065787	14.968781425217	
2420000000.00001	-15.0557898826917	110.616061568365	-10.047587211559	31.9918632906811	-46.8571964734536	17.0932771894995	-24.2034404871014	14.7985301539079	
2420333333.33334	-14.9747693081328	109.862820011474	-10.0603209306496	29.7535661822904	-46.9861774757383	15.8107856490857	-24.0285194285929	14.9122404890183	
2420666666.66668	-14.9059410756432	109.038580995883	-10.0740923029551	27.5090586544536	-46.9432367854378	13.2808472075472	-23.8465977706053	14.6456036566668	
2421000000.00001	-14.8393582912519	108.266972153903	-10.0825776014997	25.2603377861541	-46.979629128038	11.5844048007385	-23.6895751676747	14.4749969998832	
2421333333.33334	-14.7690624706466	107.526270715234	-10.0972648001894	23.0253888672024	-46.964174019616	8.61570205063325	-23.4899210632642	14.3059992167192	
2421666666.66668	-14.7089249663303	106.749466990233	-10.1014873015504	20.7798486159677	-46.85640675934	6.9982984132575	-23.294928593486	13.8553568156803	
2422000000.00001	-14.6392462412153	106.031983298063	-10.1162067138918	18.5266343192637	-46.8127863363702	5.2755229157853	-23.0904320261615	13.6821395210904	
2422333333.33334	-14.5696671340474	105.300821225194	-10.1294803992755	16.2721084268917	-46.9804588774304	2.84072571719428	-22.9089903009698	13.3126362130319	
2422666666.66668	-14.5091091711942	104.631818463386	-10.1368385360717	14.0199817453729	-46.9913092993798	0.578123497503364	-22.7121605451569	12.9228629204328	
2423000000.00001	-14.454918723249	103.935760756278	-10.1485759316084	11.7677905763476	-47.0122655318747	-3.22898198491302	-22.4971624054995	12.4723476954187	
2423333333.33334	-14.4079787946796	103.274451059551	-10.1591670685466	9.54791611079153	-47.0060854152108	-4.32505416558792	-22.2885939274818	12.1512492862794	
2423666666.66668	-14.3503341928122	102.582383420582	-10.1656309400376	7.28814435237275	-47.1248773692679	-6.81355101284005	-22.0569298390983	11.6524453057301	
2424000000.00001	-14.294983770526	102.011314875154	-10.1812249607447	5.03308429341453	-47.089955840328	-8.21450345293761	-21.8575894315901	11.0828731431164	
2424333333.33334	-14.2407181021287	101.325516610281	-10.1935385887385	2.78421031005596	-47.1819321306639	-11.5066820631759	-21.645522867272	10.5699309143568	
2424666666.66668	-14.1982181006871	100.724228721841	-10.1993381279977	0.54360823396716	-47.0419530533183	-13.160252295887	-21.4282674852785	10.0644369932592	
2425000000.00001	-14.1572167736569	100.149834185464	-10.2094729581837	-1.69155457721749	-47.0161406564062	-15.7723307775384	-21.2235324193298	9.48946503513745	
2425333333.33335	-14.1105029890697	99.5587583369929	-10.2230186548117	-3.95684543830749	-47.1577755010322	-17.2735511091207	-21.0090339031735	8.93873668219447	
2425666666.66668	-14.0708671459564	99.011231194767	-10.2278689018959	-6.19425394168041	-47.1224352423379	-19.9546091122648	-20.7915421246837	8.26669704657849	
2426000000.00001	-14.034179152648	98.4316632702977	-10.2336422005578	-8.44834201887468	-46.9730888188761	-22.3016980365923	-20.5794625826185	7.67169704950671	
2426333333.33335	-14.0036342799456	97.9159920729111	-10.2456422420961	-10.6966723703198	-47.0867090597977	-23.1013437706481	-20.3719285222316	7.0317737242699	
2426666666.66668	-13.9668598116357	97.4193232773794	-10.252648607925	-12.9282443009039	-47.0586733560819	-26.2773972472733	-20.1760570657481	6.40410529532653	
2427000000.00001	-13.9267141348145	96.9282425301195	-10.2586387922679	-15.1706382824807	-47.1797832000891	-28.0843008546984	-19.9680954310881	5.76815684790118	
2427333333.33335	-13.899878157419	96.4719491410427	-10.2680333323278	-17.4117535938656	-47.3540105906724	-30.7558516004053	-19.774589397197	5.12229521855586	
2427666666.66668	-13.8703393568748	95.969841041685	-10.2767021852508	-19.6339716884031	-47.1954704126233	-34.1453971807433	-19.5740966583843	4.49968971845297	
2428000000.00001	-13.8395698980058	95.549378799387	-10.2859083836311	-21.868863119747	-47.2584879677755	-35.1065609729603	-19.3807836134308	3.79547705960149	
2428333333.33335	-13.8140633002282	95.1121535698508	-10.2918998665427	-24.1497024702699	-47.2142166247532	-37.6502879100492	-19.1958144202567	3.19499259453268	
2428666666.66668	-13.7893491648463	94.6981035442655	-10.3005785173045	-26.3504981321965	-47.0786559108635	-39.5747197560752	-19.0124663673528	2.53175729990401	
2429000000.00001	-13.7721954484383	94.2733769040904	-10.3032967837303	-28.5778134204105	-47.1504446065644	-41.6970897163588	-18.8246089057496	1.87502332541173	
2429333333.33335	-13.7498379365151	93.9175934725806	-10.3092510085794	-30.8304939579476	-47.1357424172925	-44.3596863790892	-18.6377949948599	1.21235708385243	
2429666666.66668	-13.725731548071	93.5253092364309	-10.3231293678298	-33.0537504712568	-47.1865109773307	-46.1165331559325	-18.4562977105214	0.523689318953793	
2430000000.00001	-13.7032686440327	93.135491087408	-10.3237353218879	-35.2675960524718	-47.1448308698105	-48.645583902175	-18.2959195595027	-0.110285572539055	
2430333333.33335	-13.6975344336555	92.8209608762991	-10.3274686425566	-37.504777284375	-47.2192006377929	-50.9235246159459	-18.1188759796109	-0.830988005139031	
2430666666.66668	-13.6708838354737	92.4527622201782	-10.3370901776085	-39.6979058482716	-47.3966708175678	-53.8008032139494	-17.9636819509618	-1.44413653753595	
2431000000.00001	-13.658251738324	92.1433910370625	-10.339064232209	-41.9189847731096	-47.0994757766943	-55.0058906183452	-17.8073688274701	-2.04803270904384	
2431333333.33335	-13.6447181621351	91.7598040568433	-10.3488268504634	-44.1289424772052	-47.275083980804	-56.5192986409974	-17.6414975352371	-2.67566722208212	
2431666666.66668	-13.6247718909646	91.4832771859295	-10.3495388063512	-46.350484680397	-47.2440313663924	-58.5950937222058	-17.4977489216675	-3.40393358599238	
2432000000.00002	-13.6149984208004	91.1656186419932	-10.3478616185603	-48.5446104182299	-47.4407142085009	-62.1593164957164	-17.3543980739536	-3.9882975231377	
2432333333.33335	-13.6129651859543	90.8463941825228	-10.352702572546	-50.7583873559829	-47.2711717992655	-62.7437763564515	-17.2191197247704	-4.61781809544146	
2432666666.66668	-13.5919099826266	90.5144494166837	-10.3595038268451	-52.9590443932952	-47.4080026700265	-65.5709245698304	-17.0826424959067	-5.28815102145395	
2433000000.00002	-13.5780065087048	90.1695714343912	-10.3591836245054	-55.1636709345109	-47.3800345807102	-67.5379814883341	-16.9434190015767	-5.909920410418	
2433333333.33335	-13.5695205032236	89.907306716254	-10.3602135527345	-57.3765458354722	-47.2485962459391	-69.6308398961327	-16.8274641158818	-6.50170820095845	
2433666666.66668	-13.565180921219	89.5857639307473	-10.3627319038851	-59.5462132603848	-47.3292901290639	-71.9210102655482	-16.7033348959474	-7.14637464039488	
2434000000.00002	-13.5463936750658	89.2847551446194	-10.3624135003034	-61.7396556774523	-47.466701705244	-74.0259208884834	-16.5995334925998	-7.7769077532314	
2434333333.33335	-13.5422158711923	89.0499852241097	-10.3648719409329	-63.9372928415502	-47.4017531754327	-76.3862638096453	-16.488253388448	-8.34551303497487	
2434666666.66668	-13.5275960497997	88.7215873732795	-10.3638533423252	-66.1304772276409	-47.3380133950129	-79.5990967199826	-16.3823132973665	-8.96782372271674	
2435000000.00002	-13.5193843984332	88.4200042630495	-10.3575427196834	-68.3310506216718	-47.4963804920383	-80.7614534791452	-16.2791763159976	-9.56447504560439	
2435333333.33335	-13.5118608856441	88.1301319627627	-10.3555146515636	-70.5198952459423	-47.3445785753383	-82.5074297926815	-16.1908677299339	-10.1451195936006	
2435666666.66668	-13.5051520815074	87.78974222683	-10.3539564388622	-72.7132399254515	-47.224022832407	-85.6045685372076	-16.0973477432241	-10.6785552862582	
2436000000.00002	-13.4942600857585	87.4882962634855	-10.3528121729506	-74.9027007120786	-47.3358737843948	-86.4204565708027	-16.0178100361691	-11.2728998570417	
2436333333.33335	-13.4939429576512	87.1417264427944	-10.3461089201489	-77.10848407488	-47.4799875013875	-90.1272289671585	-15.931540989309	-11.8497790736882	
2436666666.66668	-13.4902014925241	86.8115328108288	-10.3415995842884	-79.2920035475506	-47.3327156579712	-92.1759712588728	-15.8581425827236	-12.435855446117	
2437000000.00002	-13.4846390649695	86.5170000872714	-10.3369638538372	-81.4799088152116	-47.4478171675814	-94.08690681003	-15.7966228438546	-13.0229457401044	
2437333333.33335	-13.4729147224095	86.1993251826638	-10.3320386531669	-83.66389002094	-47.4379592059278	-96.7454956831142	-15.7340368253944	-13.5738363966317	
2437666666.66668	-13.4697699673182	85.7872051786298	-10.3272942610784	-85.850634300765	-47.4100555134305	-97.6726181096832	-15.6767389411139	-14.0116256084104	
2438000000.00002	-13.4731492503773	85.5004308492449	-10.3161103929787	-88.04908636363	-47.3076170537148	-99.7765016627585	-15.614925667262	-14.6378181630868	
2438333333.33335	-13.4579339541119	85.1468749932005	-10.3119935837185	-90.2233178297636	-47.460658436675	-102.023925955163	-15.5796824689393	-15.1078154640611	
2438666666.66669	-13.4615495448183	84.7958169318566	-10.3002725019742	-92.4369683551413	-47.2570267094783	-104.70881703061	-15.5279360465183	-15.5743963154356	
2439000000.00002	-13.444956575175	84.4522540402674	-10.2928734849144	-94.6310853052849	-47.2414473715386	-106.51162458516	-15.5040984613713	-16.2028108652465	
2439333333.33335	-13.4480828871249	84.0745459970321	-10.2844676184933	-96.8341225358323	-47.2923485842728	-108.972331298427	-15.4657812380969	-16.6600542270824	
2439666666.66669	-13.4429678632828	83.7200118531239	-10.2741046040796	-99.036728635338	-47.2511172705927	-111.192737872872	-15.447296869843	-17.0908053392829	
2440000000.00002	-13.4435427288706	83.3055457541806	-10.2653782397172	-101.227322082183	-47.1364532997751	-113.594044934348	-15.4306187859623	-17.6285277357694	
2440333333.33335	-13.446968980938	82.9818219240855	-10.2588409947524	-103.431352503919	-47.4436816869111	-115.869324827324	-15.4156004155217	-18.148271722378	
2440666666.66669	-13.4467955882714	82.5992486053467	-10.2468072374695	-105.636129087064	-47.3152380401179	-118.211417869045	-15.3982317025261	-18.5797415513991	
2441000000.00002	-13.4566590595527	82.2503140087041	-10.2361130853671	-107.832124699272	-47.2585991735039	-120.765016484393	-15.3932472623759	-19.0918107929691	
2441333333.33335	-13.4384577817214	81.79513537853	-10.2227060141312	-110.075122790822	-47.1524683568312	-122.83070996622	-15.4041208591056	-19.4643688433546	
2441666666.66669	-13.4626640712979	81.4088200446044	-10.2087515792254	-112.281268076763	-47.1572344102588	-123.784390944973	-15.3916077918875	-19.9769727072511	
2442000000.00002	-13.4632818805647	81.0082948093144	-10.1984360283101	-114.479581581429	-47.1633462245843	-126.583975843152	-15.4283804851133	-20.3982590916203	
2442333333.33335	-13.4637202039158	80.6029638071199	-10.1885654516834	-116.753370316722	-47.218222498022	-128.847210181346	-15.4451357381353	-20.8573875331379	
2442666666.66669	-13.469005857919	80.1748009943347	-10.175035902249	-118.955136178909	-47.2230665796923	-132.016805944374	-15.4707648128313	-21.1717155883638	
2443000000.00002	-13.4782368338071	79.7373206036604	-10.1619259935796	-121.185297155675	-47.3753816693951	-133.171610131605	-15.4939559640985	-21.5684954156433	
2443333333.33335	-13.477147244818	79.3199657940654	-10.1506701105336	-123.420056155637	-47.1206877801456	-136.571845976656	-15.5346812541475	-22.022962729833	
2443666666.66669	-13.5051240879346	78.8740342626615	-10.1377543851406	-125.693802739138	-47.2561295635313	-137.641406170587	-15.570235297216	-22.3972290584996	
2444000000.00002	-13.5056481809733	78.429464782838	-10.126857996756	-127.931058832335	-47.2143619851572	-140.885119492196	-15.6191851996356	-22.7867217029066	
2444333333.33335	-13.5065942448885	78.030556638101	-10.1142949681868	-130.21490714543	-47.052572502269	-142.782035852799	-15.673293531995	-23.0372350026729	
2444666666.66669	-13.5324995801988	77.5131107544956	-10.1025921913208	-132.435031250584	-47.0633145660623	-144.60712287937	-15.7259215490528	-23.4606720402369	
2445000000.00002	-13.5507925316257	77.0594399137878	-10.0876995089938	-134.665660909914	-47.1577042771084	-146.447601928249	-15.7881324270184	-23.7784947004941	
2445333333.33335	-13.5497859014881	76.5563688909841	-10.0797577878322	-136.960194316137	-47.1216927873139	-148.5159028111	-15.8628856296799	-24.0933464742935	
2445666666.66669	-13.5680345213678	76.136547113736	-10.0683034647081	-139.213456480662	-47.1886802776033	-151.574137827165	-15.9312805437133	-24.365437414112	
2446000000.00002	-13.575084339016	75.5714447895714	-10.0583135588526	-141.502125592515	-47.1041483486912	-153.725549009017	-16.0146674310715	-24.5747736655876	
2446333333.33336	-13.5956158597643	75.1223218603618	-10.0447044441901	-143.737058769319	-47.1167010654028	-155.557548516454	-16.1125326350875	-24.993017323922	
2446666666.66669	-13.6183822245768	74.5803205446019	-10.0323860525789	-146.019103439416	-47.1406791407967	-158.395403481398	-16.2044632632836	-25.2227327209886	
2447000000.00002	-13.635068130375	74.0949498506086	-10.0243826599418	-148.324289431442	-47.15999657458	-160.860432280836	-16.2900538584122	-25.4124607381754	
2447333333.33336	-13.6582509327906	73.5701000317336	-10.0166392261193	-150.570817677138	-46.9436275626694	-162.010229513915	-16.3932609111131	-25.695324555115	
2447666666.66669	-13.6485208077485	73.0765103404312	-10.0004726935768	-152.883629353636	-47.0563754496805	-164.202157846792	-16.5196144457204	-25.8445286818521	
2448000000.00002	-13.6769761141662	72.5336031152898	-9.9918673002848	-155.130321056657	-47.01281155835	-167.266607648455	-16.6211328510817	-26.0884357843914	
2448333333.33336	-13.6981830801858	72.0357421238709	-9.98461232664615	-157.433581416498	-46.9443754134176	-169.795126750062	-16.7334416766086	-26.2469132298021	
2448666666.66669	-13.6990659496973	71.5680856923185	-9.97732020339558	-159.694516356429	-47.1112753389174	-171.28380489771	-16.8784280807582	-26.4357436286105	
2449000000.00002	-13.7178161342246	70.9809955725109	-9.96825990953701	-162.010843499618	-47.0717065568776	-173.624899258022	-17.0086037331334	-26.4429078909726	
2449333333.33336	-13.7429100672878	70.38664874625	-9.96098222964537	-164.267691878777	-47.0018204038887	-176.713797752118	-17.1394335627687	-26.5251352974791	
2449666666.66669	-13.7578127752264	69.9222870708603	-9.95684932152671	-166.557045891783	-46.9287299759918	-178.705895473367	-17.2876628796384	-26.6025689592603	
2450000000.00002	-13.7608634616079	69.2764456209968	-9.94879707912651	-168.87248572633	-47.2119758869752	179.703203128305	-17.4304234657712	-26.5803134522674	
2450333333.33336	-13.7966260509744	68.6967966917804	-9.94375932645783	-171.1548376754	-46.9520408478935	178.476898062466	-17.5796489887151	-26.657685838629	
2450666666.66669	-13.805739949909	68.1362371539152	-9.9395227892659	-173.41570652559	-46.8888863340774	175.311251062815	-17.744632290869	-26.5468581272745	
2451000000.00002	-13.8200534891968	67.5909852673488	-9.93569931901263	-175.692668143913	-46.9622806680719	172.834498565162	-17.9135346144953	-26.5828017384497	
2451333333.33336	-13.8300884155408	67.0377210179664	-9.92937819936284	-177.979175141987	-46.9839158943806	171.283336905614	-18.0834745725062	-26.5521593285996	
2451666666.66669	-13.8416727823198	66.4795691303524	-9.92120728934237	179.767940171713	-47.0282709375219	167.05462253142	-18.2659965468882	-26.4974104178775	
2452000000.00002	-13.8550711215112	65.9187139300053	-9.92134630870622	177.481919720278	-46.927154564435	165.914211669132	-18.4293947437594	-26.2146700964091	
2452333333.33336	-13.8640238186881	65.3327795150795	-9.92213146051541	175.184473453775	-46.8683240055885	164.783557672171	-18.6210643686338	-26.025530792129	
2452666666.66669	-13.871121355494	64.7601048533501	-9.91690379076191	172.913237197266	-46.8504633467057	160.944856718672	-18.8136105922423	-25.8740508096315	
2453000000.00003	-13.8859704185927	64.210019902094	-9.9202880381542	170.657544614319	-46.8815539843654	158.885183382089	-18.9931662513833	-25.7992056776643	
2453333333.33336	-13.893160707941	63.6416422390865	-9.91876225270007	168.407942747645	-46.8583980833996	157.191256977084	-19.2014536385681	-25.4103450818016	
2453666666.66669	-13.8976021506785	63.0723897487516	-9.91237239575776	166.164667846767	-46.8442507162904	154.814650405673	-19.4028019039286	-25.0828075484647	
2454000000.00003	-13.9009368281563	62.4726017307999	-9.91279273550544	163.862575591429	-46.7531273791211	152.385624657878	-19.6114409973564	-24.7126899037678	
2454333333.33336	-13.8983241243977	61.8876933199929	-9.91140496281644	161.599300706363	-46.7815146668434	150.566096966384	-19.8275996101901	-24.3740738866637	
2454666666.66669	-13.9019013831408	61.4401776968946	-9.91365133233423	159.383545449247	-46.8794360543369	149.563498253442	-20.0270450686344	-23.9239517622316	
2455000000.00003	-13.9000906049951	60.8795092750525	-9.91668821916081	157.134634180745	-46.866378264432	146.205602132379	-20.2323181289385	-23.4552123276383	
2455333333.33336	-13.8951849911867	60.3098031723548	-9.91609075221082	154.884473859003	-46.7996013472151	142.715877840718	-20.4632117227662	-22.8535511813576	
2455666666.66669	-13.88805708863	59.7905376891249	-9.91556988130313	152.658849803352	-46.8404587155791	141.278862077717	-20.6922826571527	-22.358686668012	
2456000000.00003	-13.8786334183222	59.2401912917362	-9.91825677770117	150.38717539021	-46.7942496654347	138.227625784053	-20.9293694638368	-21.6251971196419	
2456333333.33336	-13.8778147946366	58.6803721209854	-9.91834561567978	148.156918850879	-46.7428014692195	136.431437036799	-21.1457906293528	-20.877335249745	
2456666666.66669	-13.8617394364155	58.1754844464218	-9.91806865184403	145.915998638332	-46.7667677889899	134.1299566237	-21.3660641512265	-20.2435380475655	
2457000000.00003	-13.8419306181574	57.6527432219226	-9.9215342692194	143.671503596307	-46.7039482610295	133.574776830331	-21.5954159245708	-19.3884107719677	
2457333333.33336	-13.8403310186225	57.2086963057828	-9.91834136732871	141.449752432821	-46.7982823632791	130.46760844801	-21.8276705774241	-18.470619348965	
2457666666.66669	-13.8120502461175	56.6106954614017	-9.92137627348055	139.238558631479	-46.6745608781746	128.708844629702	-22.039779122643	-17.6971640597751	
2458000000.00003	-13.7924033928157	56.0609717448501	-9.91995638195423	136.984339564619	-46.9575711692404	125.593278256863	-22.2548107387047	-16.7040557549102	
2458333333.33336	-13.7759866056587	55.5673042517876	-9.93064334664523	134.775015796718	-46.8243399739855	122.07099176925	-22.4895756144578	-15.6696526437728	
2458666666.66669	-13.7497728881442	55.1049331112741	-9.92793237372195	132.531859803027	-46.633946868246	120.772286352066	-22.6784836222407	-14.5552058513427	
2459000000.00003	-13.7384981091244	54.6341663588204	-9.92365701004019	130.300795917539	-46.745679413559	118.718340565309	-22.9209281219869	-13.4926076082939	
2459333333.33336	-13.704779767275	54.1123531539556	-9.92202384212579	128.145952794642	-46.9533850147506	115.698157371729	-23.1448993742716	-12.449501588433	
2459666666.6667	-13.6838263374363	53.6402880874694	-9.9278583335823	125.883411695444	-46.7046318431559	114.641651439234	-23.3671667270828	-11.1701926300363	
2460000000.00003	-13.6585997040245	53.232520090912	-9.93241977959481	123.630129606486	-46.7000933575561	112.252189585253	-23.5176578515009	-10.034458139378	
2460333333.33336	-13.6196410328538	52.7225995610396	-9.92664788059319	121.40504405887	-46.7993006984288	109.882276972622	-23.732885214894	-8.72011744482983	
2460666666.6667	-13.5940496008958	52.2098090977304	-9.92895968014901	119.191634950432	-46.7257036079121	107.371618299753	-23.9053165351036	-7.62973515027466	
2461000000.00003	-13.5630097492823	51.7975554114454	-9.93030032101452	116.943860067841	-46.7992282354351	105.427648626238	-24.0851775986689	-6.11384485673549	
2461333333.33336	-13.5219732554976	51.3337659664308	-9.92034192496912	114.67502442335	-46.6676903157692	103.395736716028	-24.2768539920341	-4.68495298698649	
2461666666.6667	-13.4921261722927	50.8001696079344	-9.93020929106979	112.506931316096	-46.7640383076612	100.354499431784	-24.421561128255	-3.34401820573882	
2462000000.00003	-13.4540942033128	50.4115507537461	-9.92139575428186	110.224774159068	-46.606302239085	98.8714127992424	-24.5658302456413	-2.1270845009966	
2462333333.33336	-13.4192615258402	50.0163446269867	-9.92353636773573	107.999178860417	-46.8563191363713	96.7206465753397	-24.6833577802618	-0.659253349289976	
2462666666.6667	-13.3747355631965	49.5263975125542	-9.92182982332982	105.736784371641	-46.7394892056598	93.8617652227649	-24.8222804627447	0.841594953330666	
2463000000.00003	-13.3355893922712	49.0587968644707	-9.91839201904203	103.49662794146	-46.8564655916696	91.6784279022525	-24.9343736698042	2.12324936270279	
2463333333.33336	-13.2851035186234	48.6600326113285	-9.91778238475897	101.251106357985	-46.6346747615411	88.687227192868	-25.0449077772007	3.53511506259125	
2463666666.6667	-13.2468648742307	48.2092992101058	-9.91109883572794	98.99243946784	-46.8115190407338	87.2499133067181	-25.1443974029824	4.82463849258186	
2464000000.00003	-13.1996542096689	47.8351493705372	-9.91379987705536	96.7035406809713	-46.8072831143385	85.6181768659462	-25.2400433157642	6.13810910456627	
2464333333.33336	-13.165016209356	47.4218537248133	-9.90988114652347	94.4474311491342	-46.6420704021215	82.4036652258772	-25.3410015017213	7.28144561929823	
2464666666.6667	-13.1154270539299	46.9602567113793	-9.91037333746706	92.1915774923832	-46.7946775623619	80.6097110886555	-25.3896181248612	8.55272008051925	
2465000000.00003	-13.0607968407425	46.5354984672781	-9.90970983701697	89.9404206577382	-46.8122618643814	78.4121194523894	-25.4372213116076	9.65743662188381	
2465333333.33336	-13.0153009426914	46.1901395631702	-9.90423158267558	87.6727933409245	-46.6783945358448	75.8282820640002	-25.4819114445249	10.7322969224852	
2465666666.6667	-12.967400669868	45.780815516401	-9.90347319956492	85.4052778752795	-46.6238553100037	72.7998061045062	-25.546785351367	11.827273567209	
2466000000.00003	-12.923357951185	45.3856098497015	-9.90177548370331	83.1345137391279	-46.7069102229028	70.7780145887423	-25.5925499078556	12.6071173695585	
2466333333.33336	-12.8741447497748	44.9933073782251	-9.89689303747281	80.8469668382025	-46.8127319483234	68.5709714521996	-25.6332601351139	13.5976069238286	
2466666666.6667	-12.8219167239984	44.6189720462461	-9.89449439503325	78.5801559520458	-46.7539883499029	66.6260298321032	-25.656201073269	14.3772310273875	
2467000000.00003	-12.7765410255248	44.2046104918001	-9.89464003514991	76.2987565821804	-46.6914597695875	64.2563133967631	-25.6528811374039	15.0032098519709	
2467333333.33337	-12.7229169547226	43.8301466855446	-9.89122111627224	74.0144669350701	-46.5849660706097	61.7822648704541	-25.6761274423486	15.8108442115364	
2467666666.6667	-12.6719902547694	43.5405923656997	-9.88744436589414	71.6876042684069	-46.6318030669623	58.604019162904	-25.6853029158326	16.354755382156	
2468000000.00003	-12.6186421477538	43.1792269736341	-9.88701482434969	69.4090426512093	-46.7536394588827	56.0131015046927	-25.7016065842965	16.9332795338258	
2468333333.33337	-12.5688442795665	42.815638122829	-9.88495637272403	67.1188903488412	-46.6709799746877	54.3204689354555	-25.737925877165	17.4513739948354	
2468666666.6667	-12.518058649975	42.4651817422098	-9.88209712673875	64.7920778119718	-46.7846525380148	52.3976528829859	-25.7553133182548	17.63404899552	
2469000000.00003	-12.4590097404658	42.117822943308	-9.87720926831013	62.5065851893919	-46.6417483667481	50.440825281171	-25.7296871711647	17.9886890663383	
2469333333.33337	-12.4056573734017	41.7897180706067	-9.88029597916277	60.1946341047841	-46.6292266100587	47.1336465149517	-25.7332836736698	18.1617534940554	
2469666666.6667	-12.3559902104164	41.4130746578508	-9.87695385374551	57.8950499112132	-46.4849659482043	45.6682669325619	-25.7617548121396	18.1345719548637	
2470000000.00003	-12.2990820571686	41.155960452265	-9.87877345634923	55.5491664004033	-46.5789138792159	43.3783137382847	-25.7334772630527	18.1176916516449	
2470333333.33337	-12.2510626619945	40.7998769742697	-9.87438817122682	53.2216521375151	-46.6018345116142	40.9097174857451	-25.7571362840211	18.1662745167817	
2470666666.6667	-12.1959200040645	40.4658287335315	-9.87930020570968	50.8875330522986	-46.4969146986316	38.0767061011072	-25.7281126483464	18.0152379572138	
2471000000.00003	-12.143695701597	40.1842538145059	-9.87844664260409	48.5709868742788	-46.7493110367938	35.771912131649	-25.7352024796763	17.8656154862921	
2471333333.33337	-12.0887444383621	39.8656269940403	-9.88126588592489	46.218695965326	-46.476290785398	33.2191029558336	-25.7382594802663	17.5047803214814	
2471666666.6667	-12.0438283581023	39.572508935833	-9.87943632395432	43.9054959536403	-46.683528885724	30.8813096938696	-25.7369885864296	17.1656353821036	
2472000000.00003	-11.9887916491812	39.239627207245	-9.87763778606014	41.557997376316	-46.6800553595346	29.7761654498917	-25.734417646525	16.6526637966558	
2472333333.33337	-11.9313030337098	38.9323307982287	-9.87822120769232	39.1807815336007	-46.5165989786842	26.8388666592308	-25.705913557167	16.1927375233461	
2472666666.6667	-11.8896059564856	38.6332167212778	-9.87879061706179	36.8557717870102	-46.6147161005906	23.4521353638365	-25.7106007337436	15.6694249052362	
2473000000.00003	-11.8432779239792	38.3239802316911	-9.87963657168763	34.472777694533	-46.5192061797555	21.8315534725841	-25.7019064682362	14.9759188246763	
2473333333.33337	-11.7862844431375	37.9875667059941	-9.88365147911079	32.1354861461995	-46.4400000728022	17.9233722172085	-25.6718171169335	14.375247814492	
2473666666.6667	-11.7343895015985	37.6725658661043	-9.88293408975047	29.7654935617966	-46.5135352692095	17.6015728962913	-25.6405424335068	13.5712725003573	
2474000000.00004	-11.6884255229642	37.3868406501949	-9.89179514565398	27.4008926709339	-46.4530679357179	14.7396877235811	-25.6398678045634	12.6417810133961	
2474333333.33337	-11.6473550157016	37.0702210988633	-9.88997206055801	25.0631438560614	-46.4896548977718	12.2558852088331	-25.595422165312	11.9163916741065	
2474666666.6667	-11.5922555083294	36.7659241886176	-9.89385293702975	22.6823277544141	-46.5909768351088	10.1734426965552	-25.5713649017284	11.007362972081	
2475000000.00004	-11.5416241382609	36.4567253671046	-9.89741649433975	20.3278699989947	-46.5849454812997	7.22141946943726	-25.518541886653	9.90461290914459	
2475333333.33337	-11.505652104767	36.074254580129	-9.90507733816373	17.9236449981286	-46.529345786714	5.30634831547711	-25.5008143550287	8.92848169449355	
2475666666.6667	-11.457131924064	35.809186962116	-9.90185346153916	15.5896132900036	-46.5896852278451	3.18398463644559	-25.4610105838445	8.0469741971216	
2476000000.00004	-11.4175173197526	35.4537907943782	-9.91326297872101	13.2152736328047	-46.5973923081516	2.51193923170764	-25.400889806363	6.70819108398773	
2476333333.33337	-11.3764027764809	35.1476850978408	-9.91771449600139	10.8628075864256	-46.6152466802678	-1.46049038931831	-25.3765933748193	5.75850719391529	
2476666666.6667	-11.3351385758813	34.7457249507899	-9.92032387174602	8.4681613987534	-46.6925487791023	-3.91656027799243	-25.3228836407307	4.4438915192562	
2477000000.00004	-11.2969061267464	34.4367327773216	-9.92868949868596	6.09500593108209	-46.5360559368921	-6.33625654581886	-25.2681878721003	3.38946575579631	
2477333333.33337	-11.264078883265	34.0611263527775	-9.93569319534465	3.71587447881724	-46.5888272755049	-9.24526569989171	-25.1711275978853	2.15418025147072	
2477666666.6667	-11.2187516145935	33.7252963374071	-9.93819070884126	1.36887485375969	-46.6134805698105	-10.8949262362701	-25.112983252193	0.909248399618467	
2478000000.00004	-11.1877373938146	33.3348677593673	-9.94826219588113	-0.982963131589197	-46.6209916397234	-12.4565438924332	-25.0233255528469	-0.369063488466519	
2478333333.33337	-11.1566321824619	33.0005629241778	-9.95018910231918	-3.32815115894562	-46.6764055372059	-15.2023555585276	-24.9409266715581	-1.55327838512365	
2478666666.6667	-11.1293951280732	32.5875489014409	-9.95812061454564	-5.68910380778946	-46.4518860713836	-17.4729249433374	-24.858982845917	-2.85951924004362	
2479000000.00004	-11.1039540616141	32.2520801265429	-9.96927388575066	-8.02705008118115	-46.4954863155527	-19.72389680773	-24.7825893432386	-4.10136605016769	
2479333333.33337	-11.0764094863099	31.8924719192523	-9.97562547636976	-10.3579033351432	-46.5612947568477	-22.2290537331468	-24.6655341517014	-5.3964418164095	
2479666666.6667	-11.0513475534182	31.4626630333518	-9.98603371861018	-12.7227841183797	-46.6832902541098	-25.0258395860272	-24.5803766826663	-6.70884341983417	
2480000000.00004	-11.0282586515114	31.0655842662406	-9.98887688104811	-15.05198579001	-46.6268795207434	-26.5170429298275	-24.4536093481373	-8.05624815115373	
2480333333.33337	-11.0033069509815	30.7239977671322	-9.99605812298639	-17.3701307463829	-46.6764139050164	-29.0223389760168	-24.3598768839915	-9.12591843636822	
2480666666.66671	-10.9876818142534	30.280652375305	-10.0058946259086	-19.716431196506	-46.487965231051	-31.7833495291269	-24.2301292426096	-10.359950399655	
2481000000.00004	-10.9650674870214	29.8973451324804	-10.0084605964903	-22.0048302632212	-46.7044777359911	-34.4287358012751	-24.1035113552957	-11.7223736114445	
2481333333.33337	-10.9448860244757	29.488620854037	-10.0189604532131	-24.2936877436618	-46.5147065798018	-35.7433897272578	-23.9946522853494	-12.7046371319557	
2481666666.66671	-10.9372827133407	29.0903672503439	-10.0171521820649	-26.6231609216768	-46.5996094353002	-38.460624168132	-23.8620385366018	-14.0870985677872	
2482000000.00004	-10.917085480379	28.6739545266308	-10.0290674768319	-28.9149475860236	-46.5641679345167	-40.6278262744651	-23.735555155028	-15.2508812759967	
2482333333.33337	-10.9054929536075	28.3279277053675	-10.0328905121017	-31.2648392916025	-46.7338642880568	-42.4418624148972	-23.6002504126451	-16.340158710223	
2482666666.66671	-10.8939527614952	27.8504234668033	-10.0386339981049	-33.5022314614246	-46.6505379883183	-45.2152558038827	-23.4637071534028	-17.4965923628032	
2483000000.00004	-10.8870552389187	27.4330961450036	-10.0387222044166	-35.8012267035595	-46.6090093276874	-47.5200196903581	-23.3336054967714	-18.5069099932944	
2483333333.33337	-10.876150562548	27.0132552759138	-10.0408096145861	-38.0523191837501	-46.6424934032811	-50.8879438784855	-23.1987548555452	-19.5596421139992	
2483666666.66671	-10.8751719357267	26.6119343305408	-10.0506657587158	-40.3501534709818	-46.7750971125112	-52.5522940254359	-23.052226542181	-20.7024876424365	
2484000000.00004	-10.873679946209	26.1491105435829	-10.0543497623026	-42.6340103768297	-46.7265181722051	-53.7975332960017	-22.9158198033421	-21.7387592353485	
2484333333.33337	-10.8586306034778	25.736756360346	-10.0533832882182	-44.915217672365	-46.7160085606233	-55.0681241569225	-22.7756633757027	-22.6349854179382	
2484666666.66671	-10.8609665375151	25.2939883866993	-10.0548631287492	-47.175990210616	-46.6968595278951	-59.5261715199393	-22.6557022825232	-23.5820659197828	
2485000000.00004	-10.8687174699766	24.8199223634876	-10.0559228683278	-49.4397744932856	-46.6479825933221	-60.9922623577524	-22.5045189130729	-24.537743949806	
2485333333.33337	-10.865866190237	24.410986405511	-10.0582243525411	-51.7051565871236	-46.812117512979	-64.3448466862189	-22.375781916102	-25.4901087629676	
2485666666.66671	-10.8735787102105	23.9194951105877	-10.0593354029297	-53.964703945585	-46.5794681128187	-64.7913019237121	-22.2430604595218	-26.3439090422686	
2486000000.00004	-10.8743357476532	23.4868442881933	-10.060139870006	-56.2141892165547	-46.7463283161755	-67.7328864375179	-22.1194985301629	-27.2223963802116	
2486333333.33337	-10.8791380207939	23.0496549018761	-10.0591292605977	-58.5074503921722	-46.6813464021624	-70.5646662860966	-21.9856527428545	-28.0081566944366	
2486666666.66671	-10.8890096106337	22.5975178442956	-10.060627697899	-60.7288918618841	-46.5260184078163	-72.4120605438488	-21.8724882996868	-28.8885251636018	
2487000000.00004	-10.9046173057277	22.1625750591026	-10.052615608351	-63.0241020578827	-46.794949478806	-75.1733934405119	-21.7343338012397	-29.616815397769	
2487333333.33337	-10.9232084514614	21.672290727624	-10.0528398474495	-65.2804969967794	-46.7702859832522	-76.3481707629784	-21.6303860526172	-30.5560253388494	
2487666666.66671	-10.9294696158124	21.2136775128338	-10.0523845996491	-67.5068319415204	-46.7664788697345	-78.6394350188815	-21.5116429183032	-31.1613424285113	
2488000000.00004	-10.9534300850135	20.7554264353846	-10.051242466594	-69.7701540663277	-46.7814619301543	-81.7368122244731	-21.4077114867974	-31.8957661976522	
2488333333.33338	-10.9697330733029	20.3116909517213	-10.0524516436078	-72.0457265658509	-46.8268529994307	-82.8421744252591	-21.2793973056939	-32.6213578297959	
2488666666.66671	-10.9781559003188	19.8474146853585	-10.0468592815008	-74.2727973518513	-46.8720219240317	-84.9452493257551	-21.1702518345815	-33.4193815701683	
2489000000.00004	-10.998453235329	19.376858246983	-10.0369316547984	-76.5417064706613	-46.586819602411	-87.4562972624923	-21.0584937050974	-34.0565114180982	
2489333333.33338	-11.0159466120037	18.8811031853197	-10.0299365350746	-78.7474414689508	-46.8569770944782	-91.1607725730819	-20.981796428366	-34.7196691334874	
2489666666.66671	-11.0404103459108	18.4126703045565	-10.0313760581351	-81.0154311875878	-46.8029431519748	-91.9857621444241	-20.9043710263166	-35.2392421680401	
2490000000.00004	-11.0583189980744	17.8629255781313	-10.0247692236311	-83.2889172505021	-46.7686100560771	-94.5502380203797	-20.8116209474738	-35.7591533095166	
2490333333.33338	-11.0895246353778	17.3807640699123	-10.0203263529195	-85.5372259197634	-46.7160643923315	-96.4468378189567	-20.719634127682	-36.4374948668604	
2490666666.66671	-11.1133499948195	16.87579623781	-10.0139277879833	-87.7870926613651	-46.8518006726395	-100.09225729069	-20.6430038316741	-36.9249550110419	
2491000000.00004	-11.1367172700644	16.3838389508236	-10.0066507801393	-90.026885842134	-47.015866337702	-101.780399590685	-20.5863343721039	-37.4935317314098	
2491333333.33338	-11.1681283163056	15.9410388984831	-10.0028347447758	-92.2897336141405	-46.8675518184593	-104.921114574773	-20.5358695233389	-37.9713132146654	
2491666666.66671	-11.1998081787874	15.3957368264019	-9.99770534877818	-94.552496350003	-46.7922371972584	-105.517181375423	-20.4743897381414	-38.5746124440921	
2492000000.00004	-11.2226483277606	14.9085910412247	-9.98914218565334	-96.7834215651114	-46.6682877581333	-107.834015787536	-20.4104352917187	-38.8955507018156	
2492333333.33338	-11.2473202687842	14.3009760854197	-9.98431417901338	-99.0602428207245	-46.8986449414032	-110.316880675825	-20.3590178598348	-39.3440334178032	
2492666666.66671	-11.2760903121211	13.8832215743697	-9.97680282066198	-101.313365042747	-46.8379037297333	-111.104707709711	-20.3214744383673	-39.8039693044289	
2493000000.00004	-11.3159908382341	13.3225708731689	-9.97255414610186	-103.528580568255	-46.7349930779179	-114.130408955237	-20.2893494034252	-40.2265415375852	
2493333333.33338	-11.3484701603555	12.7719243398388	-9.96237154343322	-105.782334542861	-46.8591524015821	-117.297446999868	-20.2412720857758	-40.5822874266695	
2493666666.66671	-11.3799994943637	12.2358207286914	-9.95739985658173	-108.055069902532	-46.7539511928811	-118.762424639449	-20.2247620462702	-40.9311280265762	
2494000000.00004	-11.3987067826984	11.7532800719645	-9.95148724572556	-110.315058011282	-46.7046873566729	-121.431604843221	-20.2211832044188	-41.31606715041	
2494333333.33338	-11.4391075166032	11.1817552358166	-9.94517255732797	-112.575753530795	-46.5887680888154	-124.345356441623	-20.2152244347381	-41.708716654055	
2494666666.66671	-11.4756723322086	10.5886528070461	-9.93867277808739	-114.812935050767	-46.8786773451901	-125.708260357157	-20.2020098462079	-41.9859773642322	
2495000000.00005	-11.5051586609244	10.1083942637597	-9.93349256329758	-117.06053388347	-46.9230611973362	-128.041024347777	-20.2054261303599	-42.1190947952738	
2495333333.33338	-11.5399721866736	9.5307430531138	-9.92661241562274	-119.350790509121	-46.8120296178646	-130.39169505722	-20.2197548089351	-42.4571148651625	
2495666666.66671	-11.567824969038	8.98458943688128	-9.9188857990043	-121.597874084923	-46.8744640326784	-132.382088452123	-20.231670463228	-42.6094714783206	
2496000000.00005	-11.5956300932313	8.41999353303063	-9.9107136367007	-123.867736775816	-46.6965727419431	-134.349992891958	-20.2763317519493	-42.8449196375719	
2496333333.33338	-11.635669449744	7.82900947121638	-9.90729885192746	-126.144049906215	-46.8494477910053	-137.59550919513	-20.3072621497038	-43.0581792547036	
2496666666.66671	-11.665397394642	7.24560604494682	-9.90018984234663	-128.395447118463	-46.8296671759756	-139.565107076809	-20.345121307896	-43.2392889165428	
2497000000.00005	-11.695389296167	6.68408505226461	-9.89602166859027	-130.683902851051	-46.6640266116528	-141.787824822372	-20.3990868506217	-43.3547614083637	
2497333333.33338	-11.7331149259585	6.1377974237779	-9.88991024048236	-132.962103346114	-46.7848834595141	-144.336227110577	-20.4633082083041	-43.3962133620642	
2497666666.66671	-11.755420169642	5.50027947711729	-9.88750372120455	-135.229730937191	-46.8716341608029	-147.491803078617	-20.5274073169159	-43.5491275143211	
2498000000.00005	-11.7880773462054	4.94063231000877	-9.8861744917742	-137.530421996166	-46.7397661920242	-149.333691594615	-20.5788257439055	-43.4665250060656	
2498333333.33338	-11.8131912739881	4.29284364412393	-9.88320032995721	-139.785905067409	-46.7490188071482	-150.848523023212	-20.6555958625407	-43.3916646206742	
2498666666.66671	-11.8389334839584	3.64329874384747	-9.87750598900979	-142.094487977189	-46.664771012457	-153.028713020792	-20.7430140689789	-43.301749097532	
2499000000.00005	-11.8683108345057	3.0767327670548	-9.87312604086486	-144.36832112137	-46.8303406486063	-154.409556691247	-20.8650840661231	-43.3151604841585	
2499333333.33338	-11.8871992628832	2.40373641136827	-9.87531249301833	-146.639397384467	-46.7036902980067	-157.353282722097	-20.9567266997975	-43.1880333851661	
2499666666.66671	-11.9212030145733	1.77939379539452	-9.87389810902928	-148.91469631308	-46.801364823893	-159.570086893308	-21.0771958080651	-42.9101690941048	
2500000000.00005	-11.947600992451	1.11809284673668	-9.8691211028267	-151.213885381752	-46.7446199312229	-162.318269346502	-21.1740959806072	-42.6449359027153	
2500333333.33338	-11.9680089656591	0.435121556666756	-9.87261841778041	-153.468353753388	-46.6849951208818	-165.581303196548	-21.3373319443557	-42.3265401652087	
2500666666.66671	-11.9943172316699	-0.187929511510352	-9.87412764541408	-155.805985681644	-46.7926350313576	-167.120432001959	-21.4667761127532	-42.1276852568526	
2501000000.00005	-12.0198413425146	-0.917624625380602	-9.87465167369749	-158.089106825667	-46.6562000764859	-169.246427652061	-21.6212779745327	-41.5774054980548	
2501333333.33338	-12.0340598111851	-1.59658717495845	-9.87945483960725	-160.396525661426	-46.6235034480245	-171.503768240437	-21.7825078798503	-41.0176349277154	
2501666666.66672	-12.0545701302622	-2.35656479021562	-9.8813716792597	-162.680639014773	-46.5108466200115	-175.135476228664	-21.9296334629188	-40.5268886754992	
2502000000.00005	-12.0837004177582	-3.02194345223387	-9.88259933898443	-164.941550851009	-46.784334911316	-176.930475145932	-22.1021643264732	-39.9177944517952	
2502333333.33338	-12.1042833068268	-3.78067753314924	-9.88759927731838	-167.220500771902	-46.7487494642155	-179.418615616095	-22.3020395606826	-39.1375449468195	
2502666666.66672	-12.1172127291481	-4.48044227811706	-9.88864452361258	-169.500479680135	-46.7483879493912	179.357802351539	-22.4733185627913	-38.1486800594269	
2503000000.00005	-12.1337743112794	-5.22768490988588	-9.89843404300031	-171.804720170935	-46.670121232156	175.699613192691	-22.6546650732301	-37.2579045347398	
2503333333.33338	-12.1485854256129	-5.97787506096917	-9.90031437886145	-174.096880917547	-46.6224475607979	174.745960289587	-22.84944427177	-36.144862591551	
2503666666.66672	-12.1691454887602	-6.69262220508549	-9.90684254277598	-176.362617042707	-46.8389155765966	171.410692217216	-23.062764843203	-34.8519736319564	
2504000000.00005	-12.1787868892257	-7.49905678975949	-9.91146582100743	-178.628305704537	-46.7665206024629	170.685746405566	-23.2543993386841	-33.6380562523009	
2504333333.33338	-12.1922443751993	-8.28429287835629	-9.92311061415587	179.070296694402	-46.8262026154086	167.608285657115	-23.4527333728334	-32.1244465574547	
2504666666.66672	-12.2075691474812	-9.03435473489286	-9.93078328810914	176.828404017946	-46.7822281044318	166.186436031295	-23.6507714366169	-30.6224748819506	
2505000000.00005	-12.2180403929992	-9.77966666264515	-9.93157037254294	174.562626340235	-46.5557771941302	163.675045777044	-23.8452214413655	-28.7708302712308	
2505333333.33338	-12.2281034406984	-10.5821754514689	-9.94252074438612	172.272866916028	-46.5568357251769	161.063408836424	-24.0364572282807	-26.8251652309119	
2505666666.66672	-12.242206495638	-11.3161313657628	-9.95018205289701	170.006879601977	-46.5945784758703	158.647727687461	-24.2264061577117	-24.8379534508873	
2506000000.00005	-12.2520692417223	-12.1835057124195	-9.95608267455529	167.734150911273	-46.5745321273766	157.052189882249	-24.3935797482975	-22.6873151807003	
2506333333.33338	-12.2598878623532	-12.9009444863573	-9.96651798407056	165.482432125749	-46.6488828281036	153.712895845838	-24.5696315313583	-20.3473033603311	
2506666666.66672	-12.2597361307913	-13.7000686127341	-9.97523709885414	163.217132242688	-46.6638841091353	152.328027738928	-24.6829963319781	-17.7927045438561	
2507000000.00005	-12.2741930668105	-14.504605597325	-9.98745622475255	160.964323599038	-46.6850657442678	149.057714165259	-24.8003863818853	-15.1629959423989	
2507333333.33338	-12.2758504231867	-15.2545993160988	-9.99685220822778	158.698208863213	-46.601448185125	148.103505587726	-24.897004945889	-12.3844845452564	
2507666666.66672	-12.2821558823853	-16.0854215019389	-10.0089901607903	156.421988163683	-46.7138102377579	145.885127953347	-24.9493870368698	-9.54547671388364	
2508000000.00005	-12.2894702633875	-16.8679416866851	-10.0180347747587	154.153902101956	-46.7747498247641	141.974384397329	-24.9940557104019	-6.7508812566761	
2508333333.33338	-12.2924507272225	-17.6336126692266	-10.0259829548579	151.903064678957	-46.7973914931293	140.643094473878	-25.015282295496	-3.75560766626786	
2508666666.66672	-12.293791191357	-18.4023795780622	-10.0402448288133	149.636754800414	-46.6692120788716	138.119181151481	-24.997843162116	-0.774609927528121	
2509000000.00005	-12.2975977369237	-19.2216608481807	-10.0523800831132	147.382279658699	-46.6328846945794	135.311952065139	-24.8888982315962	2.14950366055391	
2509333333.33339	-12.3040185034722	-19.9711380715608	-10.0658646021944	145.132566768281	-46.6870342287291	134.160442925705	-24.7978996828791	4.95568642673775	
2509666666.66672	-12.3005722000068	-20.728113807073	-10.0738765480532	142.879201109024	-46.7017983919343	130.952063448418	-24.6666681303753	7.8107957104126	
2510000000.00005	-12.3025152849834	-21.5424811411891	-10.0892386915448	140.621848290662	-46.5606124266423	129.166289009981	-24.5138111604465	10.4666964780571	
2510333333.33339	-12.2974868041051	-22.3366755436233	-10.1047925949805	138.38898787889	-46.5624622944717	126.58193048212	-24.3689009582342	13.0759495227056	
2510666666.66672	-12.3050543436889	-23.0944435950095	-10.1155775675949	136.151228988817	-46.6074545071583	124.824193948027	-24.1397937475253	15.3660677879143	
2511000000.00005	-12.301883256104	-23.8140325107421	-10.1265665694486	133.906269762521	-46.6684671318946	121.967640449569	-23.9452187885842	17.6326221812499	
2511333333.33339	-12.3015022513635	-24.5729735723295	-10.1369449991713	131.653544353142	-46.6564892088536	120.038829480477	-23.7391377831841	19.6875751660123	
2511666666.66672	-12.3014693819936	-25.2930865054736	-10.1466515947006	129.388570545046	-46.6513861625624	117.82318113183	-23.4939187533783	21.7329646332605	
2512000000.00005	-12.3016787397742	-26.0464524840166	-10.1683487539075	127.162045705416	-46.6809202492284	115.928368918826	-23.2375806591945	23.4650886241829	
2512333333.33339	-12.2927991825141	-26.813349134768	-10.1811293140842	124.904295023685	-46.7279203323373	113.57713218878	-22.988065648717	24.9202284134821	
2512666666.66672	-12.2930260165635	-27.5121002485243	-10.1944136549349	122.658072551095	-46.8507482937818	110.864460362413	-22.7433781350506	26.4403627364683	
2513000000.00005	-12.2954709316908	-28.211742814979	-10.2034270565817	120.429810745885	-46.8023217558042	108.534483683966	-22.4837814178529	28.0139342416319	
2513333333.33339	-12.2925057887594	-28.9559957012068	-10.2160005524937	118.172923024515	-46.835908361763	106.750703436177	-22.2437095403081	29.1393076846442	
2513666666.66672	-12.2945155486734	-29.59956404766	-10.2265690967417	115.913798480165	-46.7903231718561	103.563577186311	-22.0196392037936	30.1317004795904	
2514000000.00005	-12.2986587887758	-30.3139156048521	-10.2398782044509	113.680586914794	-46.8372781796578	101.396932270338	-21.7597500585008	31.0376176822734	
2514333333.33339	-12.2977449710374	-30.952808525398	-10.2531940756347	111.401084210547	-46.8866918731316	100.587865555318	-21.5107155620843	31.9404044249333	
2514666666.66672	-12.2973785967227	-31.6887190426892	-10.2657760383011	109.181131032656	-46.768219849203	96.603554121904	-21.3008319161141	32.5337061790245	
2515000000.00005	-12.2999635511198	-32.315630068681	-10.2762385553702	106.947320933111	-46.8571848447065	94.7701089050135	-21.0855234176433	33.1760579420121	
2515333333.33339	-12.2980434609234	-32.9423631827849	-10.2892347358388	104.689452929677	-46.8362802112299	93.5040003258182	-20.8543712490122	33.7620497915866	
2515666666.66672	-12.3107780049175	-33.5654578083362	-10.3041224219568	102.434997095888	-46.9275064038763	91.0982468205905	-20.647981241829	34.2123937363894	
2516000000.00006	-12.3101451794914	-34.1724499284371	-10.3158929092577	100.174107287922	-46.9101014927408	87.9228005924114	-20.4482342103561	34.6441383951097	
2516333333.33339	-12.3158358992803	-34.8072780808044	-10.3302143840026	97.9454869977905	-46.8845164861313	86.708303595467	-20.2445555018064	34.8149298983508	
2516666666.66672	-12.3228496334713	-35.3421065714406	-10.3347037073732	95.7227388058286	-46.8641516813207	84.0471938432831	-20.0839040466203	34.9766059850573	
2517000000.00006	-12.3339895560912	-35.9256453561515	-10.3503824143505	93.450006472017	-46.8412532401017	81.3908659917154	-19.9006499392375	35.2490122736014	
2517333333.33339	-12.3396669203974	-36.4490760746527	-10.3570343778223	91.1860283513348	-46.866467616467	79.9510181603834	-19.7252804629659	35.3595648536705	
2517666666.66672	-12.3502891577975	-37.0525931822828	-10.3759365014832	88.9513178457378	-46.9270761015507	77.4560329146934	-19.5685145826919	35.2769891842653	
2518000000.00006	-12.3587541063442	-37.5701670547255	-10.3857333675933	86.7199255950574	-46.9011809106352	75.8840734663287	-19.4155334578155	35.2254883857597	
2518333333.33339	-12.3680725951393	-38.0705011447085	-10.3999017685468	84.4593443228127	-46.8774121151091	72.7473266249637	-19.2809307489406	35.2078732228976	
2518666666.66672	-12.3872812835573	-38.55365164143	-10.4093886125873	82.2381174227916	-47.0877446128504	71.1245175397145	-19.1351566666898	35.0349261135447	
2519000000.00006	-12.4041940854014	-39.0041983106819	-10.4121387528375	79.9636513276555	-46.8056927101615	68.777562738484	-19.0275018737759	35.0194890133948	
2519333333.33339	-12.4101495219386	-39.4586285010907	-10.4258835304892	77.7325275155914	-47.0454638708656	67.4349946236869	-18.9249411434534	34.7158154945957	
2519666666.66672	-12.4236639651881	-39.8927575891306	-10.4326488004951	75.4725921910466	-46.8347290683193	63.4044253846081	-18.7989412772434	34.4909505582751	
2520000000.00006	-12.4445325117618	-40.2893795641862	-10.4453323155201	73.2072780886444	-47.3464193985395	61.4803727370023	-18.6876350234293	34.2363176803579	
2520333333.33339	-12.458957268717	-40.6971643558701	-10.4548875813827	70.9684814300157	-47.1327768096171	58.515376344049	-18.6031289581583	33.8234326075989	
2520666666.66672	-12.493896295173	-41.1071252439012	-10.4606454589888	68.7520037675245	-46.9586105866567	58.1761921668757	-18.525587817881	33.4568773266174	
2521000000.00006	-12.4993157339316	-41.4726657539094	-10.4689103202015	66.530344865667	-46.9673873327976	54.6566797885414	-18.4491393754261	33.1136763344657	
2521333333.33339	-12.5172342684442	-41.8356331549243	-10.4817332185227	64.2534961485709	-47.0076665296716	52.0824620436221	-18.3738864931291	32.7422923397804	
2521666666.66672	-12.5301460571733	-42.1263023352579	-10.4874664784744	62.034150815519	-46.9649498493227	50.117989450263	-18.3217243423906	32.1384048272437	
2522000000.00006	-12.5573216971099	-42.495837303667	-10.4941387336407	59.8041236970085	-46.9444203501234	47.8564708034673	-18.2702021453386	31.73989558274	
2522333333.33339	-12.5842038166425	-42.8102101744847	-10.5016507878435	57.5467228145424	-46.9759939632946	46.4560098165061	-18.2224720425743	31.2063751451711	
2522666666.66673	-12.5976926367217	-43.0910679370709	-10.5108237107478	55.3332618339614	-47.1038139424794	43.4742319375843	-18.171732723234	30.5633636713387	
2523000000.00006	-12.6229124053754	-43.3748491483357	-10.5163273656656	53.102340763873	-47.0965467553383	41.6242433687288	-18.1443843549402	30.0463650441669	
2523333333.33339	-12.6349369941872	-43.6021049920531	-10.5243092889313	50.8657918561511	-47.1944206339551	38.8946664845724	-18.1232399678387	29.3656180825712	
2523666666.66673	-12.6641496651356	-43.8846984701083	-10.5302342538286	48.6377066433903	-47.0581067546373	36.8534066774079	-18.1119246492262	28.8201851952589	
2524000000.00006	-12.6844217429141	-44.0674063379139	-10.5366394115572	46.4182112736259	-47.0635308144211	34.3871797536137	-18.1019436227418	28.1530763797383	
2524333333.33339	-12.7060712811343	-44.2970500981545	-10.5449587664558	44.2007688850547	-47.0484092964321	31.1357134111533	-18.1020728136527	27.4342160750955	
2524666666.66673	-12.7280128979458	-44.4905552113655	-10.5490947040022	41.9770841389067	-47.1910345396123	30.3602584792594	-18.1021682200457	26.6998113450826	
2525000000.00006	-12.7482775999242	-44.7103950556096	-10.5536639569705	39.7623053858493	-47.114988728075	29.3906952627266	-18.1237901050254	25.8962126554715	
2525333333.33339	-12.7750733471903	-44.8754906445088	-10.5574798510255	37.5459229016938	-47.1859011473829	25.7695596324391	-18.1202127245886	25.1896975453811	
2525666666.66673	-12.7977535904873	-45.1159139525593	-10.5590140615374	35.3412772081873	-47.0874148601496	24.4290713062359	-18.1490159852809	24.2548252524233	
2526000000.00006	-12.8243748000946	-45.2622097786056	-10.5635443838239	33.1355074981964	-47.3152194047233	21.5887331064297	-18.1789824485755	23.4883103560966	
2526333333.33339	-12.8527057445571	-45.3761380738085	-10.5661415519009	30.9359511969601	-47.1505477309715	19.7209473217608	-18.2062272750448	22.6253788620217	
2526666666.66673	-12.8776667259765	-45.5627564290567	-10.5647352268631	28.6949297833191	-47.1721599964871	16.2265187798583	-18.2627595892994	21.8423685243833	
2527000000.00006	-12.9012621639468	-45.7388645588929	-10.5641134875667	26.486595646833	-47.1246890701852	14.9912512561412	-18.3129045594443	20.9081553440724	
2527333333.33339	-12.9243570913368	-45.8786474191018	-10.5640368834153	24.2904354773417	-47.3182080516828	11.7377312205556	-18.3783172588765	19.9632848542512	
2527666666.66673	-12.947437361992	-45.9985002540098	-10.5659237700576	22.0691482713094	-47.2107653322067	10.5394250856182	-18.4207234726721	19.0305943225271	
2528000000.00006	-12.9801086073797	-46.2362337136501	-10.5636421361773	19.8590884716452	-47.163780285271	9.77308540840987	-18.4856231422633	18.0212702736791	
2528333333.33339	-13.0049025415267	-46.3341067599687	-10.558993451441	17.6474530800477	-47.0841121846795	4.65289987614646	-18.5721032916166	17.0498212305373	
2528666666.66673	-13.0418559480078	-46.4672366437115	-10.5532405428054	15.4381133469165	-47.1924965020312	4.25111512609352	-18.6332477112754	15.9456138553348	
2529000000.00006	-13.0623808092668	-46.6405609366695	-10.5480446013707	13.2735292706198	-47.0347434452732	1.3034335317936	-18.7182356001582	14.879448121448	
2529333333.3334	-13.0945199312053	-46.8414918911846	-10.5403093584751	11.0406402916949	-47.1397657642629	-0.0877573751201164	-18.8114625180969	13.7898851333761	
2529666666.66673	-13.130211568433	-46.9618835196881	-10.5320421109887	8.84580900790332	-46.9928260611124	-2.96909922122994	-18.8929433406122	12.6470626814619	
2530000000.00006	-13.150675440976	-47.1284766944141	-10.5234466283466	6.62977387931669	-47.0617438123619	-5.09535312198935	-19.0014095413415	11.5927730376195	
2530333333.3334	-13.1926319217036	-47.412743249027	-10.5192975647422	4.40946121940339	-46.9248193999346	-7.0707487987869	-19.1007108579642	10.3693475481876	
2530666666.66673	-13.2218156305649	-47.6298720918841	-10.508560015977	2.20640182359481	-47.0865056282578	-8.75731396782682	-19.2033534427422	9.15298554198072	
2531000000.00006	-13.2661726649217	-47.7848292445275	-10.4950005727842	-0.0267046643755937	-47.0851325642711	-10.9432547205173	-19.3020385882693	7.86676167786906	
2531333333.3334	-13.2976556247787	-47.9943704350269	-10.4859502236536	-2.26451888863223	-47.0889197940739	-14.5392891341392	-19.4134489442539	6.64329111478593	
2531666666.66673	-13.3435633972704	-48.2175438582467	-10.4724238701373	-4.48403181277621	-47.0934561530418	-16.1046098907946	-19.5283657883894	5.35180500677703	
2532000000.00006	-13.3736322751874	-48.4256328630957	-10.4599603221209	-6.71330707126249	-47.0662007454562	-17.585318046182	-19.6408723049212	4.02253933805447	
2532333333.3334	-13.4098610071405	-48.7275002764802	-10.4450230602051	-8.93938855103306	-47.0450262750573	-20.4133332335903	-19.7784991583435	2.57152739583842	
2532666666.66673	-13.4608710606205	-48.8471692857635	-10.4318403423267	-11.1785460252216	-46.9016387688068	-22.8070686297931	-19.9024270599037	1.24784350907808	
2533000000.00006	-13.5029145944863	-49.1412024528304	-10.4223859681107	-13.4300794167062	-46.8812532053718	-24.8260621671405	-20.0285231278909	-0.246424111352223	
2533333333.3334	-13.5472422789439	-49.4383522638929	-10.4064926868826	-15.6949506241807	-46.9313881098781	-27.3857791330809	-20.1669885049327	-1.63311889806765	
2533666666.66673	-13.6011508869485	-49.6798559085479	-10.3937843004619	-17.9460758205551	-46.9361944601634	-29.2752840430194	-20.3044763761471	-3.08556176267708	
2534000000.00006	-13.6488767230694	-49.9162589029505	-10.3783218473133	-20.1801045958543	-46.9587950954198	-31.5331401621864	-20.4436080008813	-4.60477204578219	
2534333333.3334	-13.7104964701247	-50.1730663356171	-10.3678951573644	-22.4444391183917	-46.9417215289732	-34.0959267775354	-20.5810201327019	-6.17779569799131	
2534666666.66673	-13.7631273144292	-50.4205300983602	-10.3520599602308	-24.719328361204	-46.813078081427	-36.401950177751	-20.7125862213559	-7.64812653435573	
2535000000.00006	-13.8214576817389	-50.6774471358465	-10.3390243127867	-26.9906073569614	-46.947252205813	-38.5216370238819	-20.8554582074604	-9.27136047528737	
2535333333.3334	-13.8797139537562	-50.9969177924818	-10.3275710417914	-29.2460508570991	-46.8943172158271	-40.8588055297325	-20.9795859868818	-10.7699562528561	
2535666666.66673	-13.9246834935647	-51.3355942457279	-10.3127703556049	-31.527133577517	-46.7473665208902	-43.558051763724	-21.1372450300726	-12.4151772157347	
2536000000.00006	-13.9999475292017	-51.6295907126313	-10.3006554043061	-33.8144659987831	-47.0131880277216	-44.7535488183269	-21.2628993928295	-14.0888012170301	
2536333333.3334	-14.059655482041	-52.0114201920569	-10.291219352916	-36.1164007666762	-46.7850648403667	-47.3418579154275	-21.4119559889668	-15.7006591821722	
2536666666.66673	-14.1367662328503	-52.3780805429789	-10.2780558559957	-38.3974298510298	-46.8462240861424	-49.7079711939331	-21.5371493864232	-17.3816531563371	
2537000000.00007	-14.2035486041505	-52.6141970208065	-10.2689392153258	-40.6588451414542	-46.9271915553021	-51.8113969247695	-21.6889392049763	-19.1048580843581	
2537333333.3334	-14.2730249186067	-52.9915409009223	-10.2597313011334	-42.9763120003247	-46.8541344880443	-54.1599494594914	-21.8365749736241	-20.6917546546262	
2537666666.66673	-14.3357832266633	-53.3369766840835	-10.2502169872661	-45.2544527877559	-46.8290909536061	-56.2860441678206	-21.9478399540597	-22.3523123308262	
2538000000.00007	-14.4215707311667	-53.7114493751678	-10.2415787877249	-47.5609391747969	-46.8717439218401	-58.4898104512458	-22.0818457807555	-24.0687998752117	
2538333333.3334	-14.4871577482744	-54.032692628493	-10.2278994380893	-49.8356894694419	-46.8410521095882	-60.7149728560455	-22.2218045432057	-25.7768980130507	
2538666666.66673	-14.5760900195339	-54.4295471533086	-10.2188350474083	-52.1616535837365	-46.8530334828139	-63.3087301011731	-22.3507391000731	-27.4458672708201	
2539000000.00007	-14.6516458905599	-54.7499154882914	-10.2087473429986	-54.4417317754534	-46.8732210784458	-64.9481349542723	-22.4670458325923	-29.1058116541317	
2539333333.3334	-14.7336669602424	-55.0873725436771	-10.2042668653755	-56.7328762746606	-46.7447777307214	-66.6574565820032	-22.5957354491698	-30.7213868995206	
2539666666.66673	-14.8384810160283	-55.4917170703843	-10.199747138947	-59.0101644201946	-46.7818199305212	-68.6082220265054	-22.7212938884448	-32.32254564244	
2540000000.00007	-14.9153909246466	-55.9565563875154	-10.1927860475625	-61.3251956552509	-46.7715915573685	-72.3959853842616	-22.8275519513977	-34.0970811435195	
2540333333.3334	-14.9970934405566	-56.3686051859949	-10.1887576900334	-63.6322007204645	-46.7057571969898	-73.9794388479637	-22.9390464872012	-35.5093813475468	
2540666666.66673	-15.1100965766008	-56.758136747045	-10.1907137986282	-65.9416516666319	-46.757904637649	-76.3269261502713	-23.0743850078929	-36.9704275353946	
2541000000.00007	-15.201214038003	-57.1844459390693	-10.1809417760151	-68.2332954765049	-46.694221005819	-78.8557167458743	-23.1900602843489	-38.5417143925008	
2541333333.3334	-15.2850767899295	-57.564798366436	-10.175030868442	-70.546140774068	-46.818389625192	-80.8441443810275	-23.2935633577057	-39.9501715457805	
2541666666.66673	-15.3733881777901	-58.0773333350778	-10.1678836494056	-72.8512790767678	-46.7593613974919	-82.048556113796	-23.3910546568284	-41.3184464242691	
2542000000.00007	-15.4933988056699	-58.495354204664	-10.1668530847508	-75.1121028148209	-46.86724905525	-85.5332163600857	-23.4935957069148	-42.6954504124135	
2542333333.3334	-15.5839583634803	-59.0090008936586	-10.1735448798625	-77.4187503338776	-46.6870669875866	-87.0611641936462	-23.6039893738816	-44.0738166000753	
2542666666.66673	-15.6822432365009	-59.4008735347314	-10.168301017174	-79.7252860929831	-46.8581731028621	-89.7136590915295	-23.7156495935087	-45.2927228452651	
2543000000.00007	-15.7918618409463	-59.821514761674	-10.1627952806008	-82.0338904016537	-46.795222427926	-91.4126282465781	-23.8168064956702	-46.4496724515843	
2543333333.3334	-15.9018168963514	-60.2716526564025	-10.1622790019126	-84.3296669470452	-46.7165328042664	-94.4077155174512	-23.9240584437013	-47.4260826906724	
2543666666.66674	-16.0041704706502	-60.7404532076093	-10.1666814748757	-86.5993785582625	-46.6916744961337	-96.0793495671472	-24.0250654698879	-48.5354976409159	
2544000000.00007	-16.127898007938	-61.1441621456838	-10.1655622295264	-88.9090216107426	-46.8666076543686	-99.3061579282649	-24.1254711283635	-49.4892715674465	
2544333333.3334	-16.2250565048468	-61.7252838854832	-10.1646390269335	-91.1664079801995	-46.8264582372242	-101.343013629218	-24.2209740330523	-50.3007497800816	
2544666666.66674	-16.3258545977639	-62.1807014576986	-10.1628789733985	-93.4610816747742	-46.6661850747144	-103.550950697279	-24.3222758263608	-51.1535921661938	
2545000000.00007	-16.4509342224269	-62.6489250109792	-10.1671497318711	-95.732886729584	-46.7947523709731	-105.367594825983	-24.4191737635984	-51.8296088849981	
2545333333.3334	-16.5431499603974	-63.1544427823147	-10.1672756420072	-98.0269158157179	-46.8543310111855	-106.912059285675	-24.5266579006163	-52.3767043023111	
2545666666.66674	-16.65889139537	-63.6531331617234	-10.1726072394697	-100.310066083768	-46.6091836822354	-109.713527907403	-24.6160359948902	-52.892625297334	
2546000000.00007	-16.7654516757666	-64.1288316847608	-10.1686744855163	-102.575499850557	-46.7176909305548	-112.199943757089	-24.7312417413652	-53.2602886376277	
2546333333.3334	-16.8849364776359	-64.6721519317303	-10.1757929740733	-104.840436063648	-46.6496743998267	-114.158989947109	-24.8449380680915	-53.6268443447132	
2546666666.66674	-16.9793598561682	-65.1966628932418	-10.1753928958826	-107.115075695426	-46.681832924385	-116.566476086194	-24.959204011218	-53.8011745867475	
2547000000.00007	-17.0857618779467	-65.6501565405077	-10.177217922365	-109.36893847019	-46.7005174071111	-118.125135417532	-25.0230346426855	-53.8770314144732	
2547333333.3334	-17.2021667482184	-66.2504317040895	-10.1806926381911	-111.650385590617	-46.7912337354078	-120.713324599769	-25.1231843020621	-53.8754000764724	
2547666666.66674	-17.2981848691619	-66.7789672486001	-10.1758069968186	-113.8799193121	-46.9354539779523	-124.625590457469	-25.2350620989344	-53.6480147341693	
2548000000.00007	-17.3980209466869	-67.3614617745458	-10.1823682182026	-116.161365893879	-46.7912624953249	-125.635588028562	-25.3035079255367	-53.555547186465	
2548333333.3334	-17.4980684879555	-67.9177906567659	-10.1839798264613	-118.388922461493	-46.7796956134312	-127.845812154846	-25.4232969716647	-53.2162327966208	
2548666666.66674	-17.611872620801	-68.4413825694873	-10.1881660598934	-120.639222908703	-46.6085725108574	-129.988466959161	-25.5250634033483	-52.7756330879037	
2549000000.00007	-17.7034378105815	-69.1028927670875	-10.186100049783	-122.888329389449	-46.8357873854328	-131.648793096062	-25.5888678230993	-52.0720401130224	
2549333333.3334	-17.8000404894836	-69.6876185685527	-10.1881979688607	-125.128423940516	-46.7802485178372	-134.79487529098	-25.6917527949609	-51.6544951332197	
2549666666.66674	-17.903945360861	-70.4109309606084	-10.1843678825392	-127.351388467198	-46.5510600776459	-137.223997247715	-25.7500674015646	-50.7153518637074	
2550000000.00007	-17.9832657421005	-70.966898814764	-10.1842631468407	-129.587354703034	-46.7842552870612	-138.20034064754	-25.8269115335874	-49.8340186438637	
2550333333.33341	-18.0731184689328	-71.7674202532828	-10.1844275752569	-131.84000436588	-46.6232021699975	-141.387059222059	-25.8846075347686	-48.7290498099895	
2550666666.66674	-18.1617895219878	-72.4068639577594	-10.1813262896171	-134.065004770751	-46.5498262007367	-144.430294664039	-25.9291373714152	-47.5235439223407	
2551000000.00007	-18.2558527197913	-73.127275567483	-10.183297280321	-136.273713587783	-46.6855656701923	-145.981894034826	-25.9660077223721	-46.2925817575893	
2551333333.33341	-18.3281485522568	-73.7859771826199	-10.1817913960472	-138.521261040738	-46.8626035349736	-147.908956693036	-25.9949109268379	-44.9505682610947	
2551666666.66674	-18.4171014821626	-74.4366981439459	-10.1773380689358	-140.736936015008	-46.6816972814324	-150.559493394252	-26.0159676718268	-43.5154867254696	
2552000000.00007	-18.4870312319561	-75.2732602089369	-10.1772196417703	-142.978959615402	-46.7593776218564	-153.534211276111	-26.0027807414855	-42.0914952769111	
2552333333.33341	-18.548914807332	-76.0659542047412	-10.1691674251182	-145.217664755632	-46.6193256034565	-155.259575507335	-25.9533760088604	-40.4789630349277	
2552666666.66674	-18.6334851598543	-76.7759822536261	-10.1696808048445	-147.426538658799	-46.5932927132861	-157.688849587271	-25.9455496134468	-38.7702153762874	
2553000000.00007	-18.6912578251209	-77.5145314104772	-10.1636483859366	-149.655203814452	-46.6875064405008	-159.862959916663	-25.8839314298474	-37.2933768382426	
2553333333.33341	-18.7447111755054	-78.2649764527259	-10.1578172811661	-151.899943839473	-46.7184147596498	-162.047190349612	-25.8467650670969	-35.5044981181665	
2553666666.66674	-18.8061126384937	-79.0843484327926	-10.1562416433817	-154.125233098972	-46.8102259153122	-164.154482514966	-25.7285430596378	-33.931039426191	
2554000000.00007	-18.8628776177775	-79.8907728843638	-10.1518967456879	-156.345377759881	-46.6043544496798	-166.341790728796	-25.6508581384167	-32.3310893817124	
2554333333.33341	-18.9030135826582	-80.676583582698	-10.1477964800996	-158.60082972297	-46.5935699592344	-168.670379893882	-25.5380832422908	-30.6348797815545	
2554666666.66674	-18.9516276212162	-81.5317371263766	-10.1407569380628	-160.814151570203	-46.4523728122331	-171.448257899369	-25.3923136229997	-28.8228689003645	
2555000000.00007	-18.9702792584453	-82.2394676138756	-10.1374168388412	-163.043514440405	-46.4609782256884	-174.286094451112	-25.269523036117	-27.3055014290596	
2555333333.33341	-19.0033556947969	-83.0886370453455	-10.1310340517429	-165.327965438659	-46.5961170063263	-176.507142033079	-25.1202100418944	-25.7705711881436	
2555666666.66674	-19.0469830621615	-83.9159504209125	-10.1255196651923	-167.54339024309	-46.4334999484817	-178.853879064034	-24.9419381737512	-24.068759005138	
2556000000.00007	-19.0568576419828	-84.6924844916924	-10.1149379128624	-169.802463990021	-46.5569582896299	-179.865196574514	-24.762421068816	-22.6448758602532	
2556333333.33341	-19.0781346070734	-85.4991882478396	-10.1098870400488	-172.058934278013	-46.5254080712907	177.1920627001	-24.5922128002764	-21.187122893076	
2556666666.66674	-19.0758722847045	-86.4424860498744	-10.1027455143686	-174.291555594602	-46.6235713547317	175.572443133422	-24.4069366637276	-19.9192072026621	
2557000000.00007	-19.08344189182	-87.224923889227	-10.0954529514049	-176.543854415997	-46.3876363829252	172.802495654636	-24.1914696841437	-18.6309318723986	
2557333333.33341	-19.0964403836875	-87.9973582306661	-10.0891215427438	-178.784372153723	-46.6077248578165	170.773327900812	-23.9901331655186	-17.2459960130946	
2557666666.66674	-19.07645502062	-88.9760578419832	-10.084395661885	178.931101102931	-46.4864001233351	168.481152797391	-23.8025791257527	-16.2848197022331	
2558000000.00008	-19.0807165147401	-89.7087559313449	-10.0836090524736	176.652008456416	-46.4681849624581	165.746069490644	-23.5893457441602	-15.1217676378072	
2558333333.33341	-19.0627493278181	-90.5409463908222	-10.0678962164482	174.389158122349	-46.482948815762	162.475575457966	-23.3858854653034	-14.0515072244678	
2558666666.66674	-19.0215455725425	-91.3385145309026	-10.0647966452778	172.127127904207	-46.4084075476187	160.623627834056	-23.1739170942609	-13.2893866621074	
2559000000.00008	-19.0167485761613	-92.142282631091	-10.0544715902569	169.841025040059	-46.5213120656884	158.072292294226	-22.9707539741947	-12.1832557984512	
2559333333.33341	-18.9682412965303	-92.9937429763429	-10.0448760011156	167.557657819535	-46.4234883196047	156.241321095585	-22.7711176661781	-11.423084388024	
2559666666.66674	-18.9346923575191	-93.6960439712528	-10.035139130837	165.2941488862	-46.3973865781954	152.934677626451	-22.5697372106249	-10.5959386114727	
2560000000.00008	-18.8913935158607	-94.554430784452	-10.0355818725921	163.00632682448	-46.3217582815145	151.66336487304	-22.3882418463884	-9.81769235766836	
2560333333.33341	-18.8517945397732	-95.3823407094275	-10.0282183610216	160.6957275486	-46.5121777364777	149.131113482436	-22.180501205617	-9.07529932762818	
2560666666.66674	-18.8065992246643	-96.1591806360839	-10.0232563627641	158.416211736469	-46.1894990515683	147.190616909402	-22.0059075408636	-8.48889388074862	
2561000000.00008	-18.7555914694417	-96.9313401310899	-10.0164829710195	156.093004680931	-46.5110101590943	143.58346661811	-21.8069826313268	-7.85200286998744	
2561333333.33341	-18.6981771098468	-97.6906511036507	-10.0085958221841	153.789139257216	-46.249456052486	142.67481988431	-21.6156467526569	-7.37444286494271	
2561666666.66674	-18.6448633634381	-98.46019584331	-10.0029920999317	151.47291654883	-46.482337416534	139.476340824511	-21.4351651740687	-6.86044483202997	
2562000000.00008	-18.5803035259642	-99.1830819764833	-10.0009826015547	149.134052474108	-46.2998211140177	137.724799637052	-21.2664420553354	-6.36221339478488	
2562333333.33341	-18.5156124898074	-99.9800235367956	-9.99583317098443	146.81172617472	-46.2978269850428	135.481973285082	-21.1257621686199	-5.90227470481537	
2562666666.66674	-18.4475188616972	-100.815537818548	-9.99345207766733	144.493711171688	-46.2681249705027	133.272507653191	-20.9527053202336	-5.51693329034517	
2563000000.00008	-18.392344843591	-101.533255881834	-9.9872774693544	142.153698877423	-46.3689865588114	130.277113843136	-20.7808424290024	-5.20106392127297	
2563333333.33341	-18.3115348626595	-102.27419189478	-9.98416017933648	139.807096636476	-46.3773110170471	128.240659671614	-20.6329438620279	-4.75882598904058	
2563666666.66674	-18.2494369357741	-103.013707307487	-9.97899874041991	137.460863533439	-46.4437759899366	125.856725961648	-20.4937404655065	-4.39924112337445	
2564000000.00008	-18.1774195840996	-103.707624770588	-9.97860426385419	135.125246336493	-46.3148561760727	123.881498603528	-20.3611643997797	-4.18327467466289	
2564333333.33341	-18.1272550709691	-104.456729739526	-9.97886915251793	132.77457945841	-46.365610249129	120.32661192383	-20.2089344487661	-3.74542602071775	
2564666666.66675	-18.0426304639533	-105.219739970061	-9.97800775355169	130.386011605889	-46.3208212056722	118.637783693992	-20.1048915593568	-3.59299042277743	
2565000000.00008	-17.9762449273524	-105.896765357543	-9.97742492475006	128.035869683312	-46.2935154946264	116.433207218456	-19.9620689342995	-3.30957904235266	
2565333333.33341	-17.9180424654781	-106.626033040486	-9.97881112872978	125.664698890512	-46.1627794026311	114.40787980362	-19.8611463061778	-3.0566670150788	
2565666666.66675	-17.8479217435963	-107.339109091846	-9.9750193081194	123.299426302173	-46.3084933823914	111.732373171726	-19.7603253570851	-2.76642443159098	
2566000000.00008	-17.7948518244131	-108.106637957827	-9.97874449244207	120.908008801607	-46.2048166304189	109.073907066016	-19.6408826600629	-2.57737465189494	
2566333333.33341	-17.7299863861413	-108.798151503575	-9.97968510483875	118.536021355148	-46.1755142095294	106.105021252572	-19.5493764705813	-2.46136282654393	
2566666666.66675	-17.6741691850563	-109.557438613644	-9.98505441087856	116.164547096064	-46.2000786699436	105.213444695134	-19.4652816575296	-2.2200537711204	
2567000000.00008	-17.6194150285849	-110.222768339738	-9.98758007119344	113.790740832754	-46.2418394801578	102.293374700455	-19.366196647576	-2.12667581807425	
2567333333.33341	-17.5570252936798	-110.957790355935	-9.98814059608972	111.398683845277	-46.0749077352443	99.8592067118389	-19.2947243817436	-1.97766003349998	
2567666666.66675	-17.5104537544256	-111.627100123566	-9.99625158303525	109.009336154133	-46.1751774625118	97.5890781979906	-19.1988489971505	-1.58630211161294	
2568000000.00008	-17.461793550172	-112.318190235051	-10.0002086263063	106.632183324682	-46.241827427772	94.699776676608	-19.1339445694785	-1.45754932249636	
2568333333.33341	-17.4186851898396	-113.014983918763	-10.0037023141486	104.245844651865	-46.2612987797313	93.382452109964	-19.0808403850911	-1.36631347714522	
2568666666.66675	-17.3712646709673	-113.617754279725	-10.0075093087414	101.886980649698	-46.3375221039953	89.7937358817372	-19.0197770817251	-1.19653289859363	
2569000000.00008	-17.3345039800287	-114.326545348497	-10.0211933929534	99.4915222681661	-46.233586169334	88.0429447862892	-18.9542249957811	-1.14354612513093	
2569333333.33341	-17.2828680900764	-114.986925650102	-10.0258440758429	97.124405044175	-46.3840166878473	85.8178177605238	-18.8992849171531	-0.961448607096576	
2569666666.66675	-17.2532820230749	-115.683800642491	-10.0347570768145	94.760862890748	-46.3866882282939	84.3543452560643	-18.862127331797	-0.95620887505654	
2570000000.00008	-17.2327283844622	-116.305563654661	-10.0454714741937	92.3824250205278	-46.30573352969	82.1780209181408	-18.8142594007357	-0.668992093367233	
2570333333.33341	-17.2001203239774	-116.970328465786	-10.0489163415153	90.0143265120896	-46.2881929472437	79.027447463607	-18.7871261619102	-0.637373751078367	
2570666666.66675	-17.177882962191	-117.519524570226	-10.0616408254641	87.6388555897187	-46.2287766495062	76.9236295439733	-18.7413387298259	-0.517604407773188	
2571000000.00008	-17.1515119345625	-118.233074917762	-10.0705949495537	85.284512133801	-46.3313377163427	74.9633890639073	-18.7260455219897	-0.294158939835369	
2571333333.33342	-17.1350627477799	-118.897364957868	-10.074289292205	82.89367145681	-46.2556670315779	72.9351667825467	-18.6930892319925	-0.117372691748802	
2571666666.66675	-17.1365725370989	-119.591627030469	-10.0931491512912	80.5403206927661	-46.2676083346744	69.5951444389475	-18.6719390382109	-0.0896952094134173	
2572000000.00008	-17.107781321316	-120.076952971715	-10.0980948369399	78.2385963494545	-46.3223473283627	68.3885353640542	-18.6757805155726	-0.0212761154072979	
2572333333.33342	-17.1142375248176	-120.680343009708	-10.1107216759926	75.898833111267	-46.2948101265265	65.8749858952625	-18.645737112259	0.0707064604315413	
2572666666.66675	-17.1092201353565	-121.298015971576	-10.12000649745	73.5569008188419	-46.5105090339734	62.9111356173408	-18.657769770256	0.124643940672093	
2573000000.00008	-17.1070006900001	-121.919724326792	-10.1251987287403	71.230972839776	-46.3161802601013	62.0494904622038	-18.6530709632231	0.346870984754458	
2573333333.33342	-17.1029547548513	-122.516654381135	-10.1430816316064	68.9168784013098	-46.3875496834014	57.6006698055969	-18.6586175765257	0.331544408399116	
2573666666.66675	-17.116796729897	-123.144649119307	-10.1426411331623	66.6338156206428	-46.3829957588099	57.1588930074777	-18.6776050135695	0.356272322701424	
2574000000.00008	-17.1185703384359	-123.732281747869	-10.1541552628836	64.3100086542426	-46.4631588209894	53.9439479896011	-18.6909930671345	0.498584319783551	
2574333333.33342	-17.1411812453839	-124.24401800058	-10.162724883052	62.0156584023508	-46.6078239689329	52.6891103597273	-18.6986344906285	0.654977230718889	
2574666666.66675	-17.1595215642264	-124.901779913591	-10.17180208065	59.7108593150669	-46.4027581176882	48.9888509301332	-18.7162522795993	0.844477214261689	
2575000000.00008	-17.1881422420337	-125.511577906011	-10.1790204100673	57.440933551397	-46.503897748276	46.5166159386857	-18.7508257984203	0.878653654644971	
2575333333.33342	-17.2012994271002	-126.084500933575	-10.1852722372426	55.1657715910554	-46.5027389882832	45.3639595286935	-18.7761059270161	0.976912510453429	
2575666666.66675	-17.2442059823768	-126.758434566927	-10.192216565189	52.9157303233866	-46.6365834728833	41.7379302078451	-18.8098202965109	1.07620430150322	
2576000000.00008	-17.2765271850569	-127.351307192266	-10.1991835657915	50.6385447046501	-46.4746454104963	39.8071327189545	-18.8565248597499	1.19413623980493	
2576333333.33342	-17.3117497626334	-127.940721045118	-10.2052292249129	48.3916114038862	-46.571295587646	38.4585353501262	-18.8862939363316	1.25334926482289	
2576666666.66675	-17.3524194426307	-128.559498746651	-10.2063652000923	46.1344558491327	-46.5471085016795	36.682350179216	-18.9418832691998	1.30112555264929	
2577000000.00008	-17.4050182922346	-129.186575257512	-10.2112735664567	43.8647924948226	-46.4654765025969	33.4827400264908	-18.9936142333626	1.46720709139095	
2577333333.33342	-17.4661472938753	-129.800261948787	-10.2145664524286	41.612588963855	-46.4773477897631	31.2895287867434	-19.0519399488627	1.70497829002458	
2577666666.66675	-17.5175587315694	-130.499569640126	-10.2190561029041	39.3919829614079	-46.6028808463084	29.2581731749883	-19.1006596871884	1.66451060695269	
2578000000.00008	-17.5755989654018	-131.195005676541	-10.2214543863193	37.13641899198	-46.6453284024024	26.9509531841738	-19.1733271734423	1.67261852927026	
2578333333.33342	-17.6276782650811	-131.711475884264	-10.2204665206911	34.9276822310515	-46.5532789858506	23.8792041227059	-19.242242568777	1.78210330601286	
2578666666.66675	-17.7036020660078	-132.315989488753	-10.2183720695081	32.6830516153758	-46.671334509103	21.5345086581289	-19.3080872508069	1.913388678899	
2579000000.00009	-17.7944863519474	-132.877604218283	-10.224451848842	30.4485205976373	-46.684988626392	19.1218487767351	-19.3970244243043	2.07943402343755	
2579333333.33342	-17.852605788022	-133.707742416423	-10.2221526474224	28.2162243391248	-46.6186055973831	18.2084151885723	-19.4832029474996	2.06103945012302	
2579666666.66675	-17.9416721273128	-134.358796024388	-10.2217245783164	26.0075228599017	-46.6518687204151	15.4774544126779	-19.5591825690806	2.33458728665084	
2580000000.00009	-18.0270464344101	-135.076541181707	-10.2207585793246	23.7836747931912	-46.7331588765967	13.1115104360028	-19.6611949211414	2.21201246224165	
2580333333.33342	-18.1088766596306	-135.644116477414	-10.2185240822714	21.5669018678267	-46.7582374566495	11.5640804279613	-19.7589925456174	2.42538122748871	
2580666666.66675	-18.2291285537645	-136.345024977155	-10.2166437067408	19.3307815137844	-46.7243901306251	9.22991778113201	-19.8724830975508	2.48457789640627	
2581000000.00009	-18.3161320809816	-137.017555040729	-10.2135504572367	17.1210842108972	-46.7195488362334	6.41093722198722	-19.9787258141677	2.56702445950984	
2581333333.33342	-18.4270430670674	-137.721278101491	-10.209535873951	14.8948903287886	-46.8301993236744	3.58601484593965	-20.0811647532606	2.6104387815626	
2581666666.66675	-18.5016072301298	-138.39227393177	-10.2045393932123	12.6980599900132	-46.8469802369022	1.67872246950525	-20.2086623242836	2.65377845777688	
2582000000.00009	-18.629105361511	-139.162408963064	-10.2027603702942	10.454818638527	-46.6629590964264	0.541911721824931	-20.3306513712115	2.85466331896665	
2582333333.33342	-18.7515631334797	-139.904502975858	-10.1980835914582	8.22790724141206	-46.7227624871509	-1.90333170401144	-20.4627934694574	2.79941271474112	
2582666666.66675	-18.8662977872941	-140.615369437283	-10.1951039148191	6.00151776184396	-46.6803383037639	-4.08941061314681	-20.5780452053945	3.04042496096412	
2583000000.00009	-18.9798832781475	-141.33430724308	-10.187040223304	3.80143113656129	-46.7484887606084	-6.13996652134244	-20.7236526248026	3.1039837717485	
2583333333.33342	-19.098277193477	-142.032408796686	-10.1798462398112	1.56520752428436	-46.9056650032434	-9.18466600721741	-20.8597383834583	3.34247924380814	
2583666666.66675	-19.2394017939561	-142.805217822747	-10.1759988871176	-0.660664835806308	-46.7103019743998	-10.7065461581789	-20.9957505324108	3.45588407045378	
2584000000.00009	-19.363869758729	-143.635082249298	-10.1723819353345	-2.92066966788773	-46.7101543844378	-14.0830879808201	-21.1593775950699	3.46117217303729	
2584333333.33342	-19.4886942089838	-144.47063513427	-10.162458336135	-5.1076277647422	-46.847645902623	-15.8100198149977	-21.313159449858	3.53261829884754	
2584666666.66675	-19.6304345205768	-145.214576408419	-10.1556309687695	-7.37055863109665	-46.7195407894351	-18.5252939901685	-21.4886205740293	3.70463074345232	
2585000000.00009	-19.752124213628	-146.122018081994	-10.1496226720259	-9.59287287693171	-46.7056324875401	-18.889237913551	-21.6551792387412	3.86968068062364	
2585333333.33342	-19.8945304059528	-147.017210820201	-10.1439618645406	-11.8156985075099	-46.6754683546231	-22.967288247504	-21.8277082027213	3.90597821939831	
2585666666.66676	-20.0456929830723	-147.857657954792	-10.1366422723106	-14.0998513633065	-46.6743424782368	-24.1855950515263	-22.0097959344056	4.0391466731712	
2586000000.00009	-20.1825959909555	-148.682498500004	-10.1287140061446	-16.3060739363043	-46.6566334721648	-26.9316001531898	-22.1846363949324	4.31066709169086	
2586333333.33342	-20.3200588106661	-149.710901254538	-10.121012205959	-18.5559627441809	-46.7380443522069	-29.1994809677097	-22.3902785660642	4.50304171358431	
2586666666.66676	-20.4843413041803	-150.643493247979	-10.1149925460653	-20.8307009530512	-46.7947438482458	-32.3058844247021	-22.5727690741307	4.66433711620528	
2587000000.00009	-20.6096993670551	-151.603346507447	-10.1038447884522	-23.0856253187098	-46.6767067681748	-33.6495773274331	-22.7727651918231	4.92788564668489	
2587333333.33342	-20.744017935944	-152.577211839126	-10.1030794895532	-25.3413367746812	-46.6371860569054	-36.0030211350595	-22.9934837935612	5.04895603630386	
2587666666.66676	-20.9213138576008	-153.542293852334	-10.0971908482134	-27.6226833196815	-46.6079770499768	-38.1779200855879	-23.1999815030139	5.29633205097064	
2588000000.00009	-21.0570598516952	-154.801576373978	-10.0896941989875	-29.9142848697787	-46.6297677024579	-40.4067522522387	-23.4158045211015	5.62914622708646	
2588333333.33342	-21.211371857037	-155.807532915336	-10.0823451042376	-32.1928093780184	-46.4811830458693	-43.1095784555527	-23.6340035170662	5.94073361396094	
2588666666.66676	-21.3555863884535	-157.002133198846	-10.0812721874209	-34.4736266231961	-46.4785591164353	-45.0969388995157	-23.8704678487188	6.19345945049663	
2589000000.00009	-21.4891053317245	-158.139610985169	-10.0736824060242	-36.7605648121301	-46.6212721277685	-47.4275916887448	-24.0859763027264	6.45698478641446	
2589333333.33342	-21.6506167216292	-159.292494772631	-10.0702133547853	-39.0267580486037	-46.6056609635684	-49.4526168972014	-24.3497871905426	6.85577882769222	
2589666666.66676	-21.7829720606597	-160.744968226713	-10.0633410394	-41.3303409123485	-46.6046382530413	-51.182577324672	-24.5551585248216	7.29686706298771	
2590000000.00009	-21.8981415860354	-161.89848553737	-10.0561181291052	-43.6461459610957	-46.4377755243628	-53.7316082095363	-24.8246137484634	7.42690629969862	
2590333333.33342	-22.0525507206956	-163.29877718626	-10.0555038148639	-45.9380766233768	-46.5245439242826	-56.5736355011123	-25.0622019489446	8.05666973105324	
2590666666.66676	-22.1972222642184	-164.765796379329	-10.0508460734749	-48.2531597787669	-46.4399751837941	-58.1507680218611	-25.3206371580129	8.57621179887565	
2591000000.00009	-22.308322740433	-166.189075847915	-10.0453427876849	-50.568268410252	-46.5993634116661	-60.8067117297338	-25.5625482589498	9.02853499275641	
2591333333.33342	-22.4062763596429	-167.769496648588	-10.0410116976787	-52.8789171419125	-46.4241087589879	-62.5971241184379	-25.8084806253419	9.66472320048038	
2591666666.66676	-22.550412244067	-169.371998997349	-10.0388649812203	-55.1949265234351	-46.6064337719111	-65.9071074054272	-26.0481937656444	10.2019253402207	
2592000000.00009	-22.6435281337854	-170.917070741657	-10.036374569627	-57.5406350049177	-46.5390474891386	-67.1489544003695	-26.3399884237111	10.7559512629477	
2592333333.33343	-22.7302112535109	-172.62220572401	-10.0322059193654	-59.8485917910458	-46.488954687218	-70.2354039024406	-26.5908133980824	11.3090025111608	
2592666666.66676	-22.8237513339929	-174.480371262998	-10.0314849224137	-62.1872339277337	-46.5091130119011	-72.0047822158254	-26.8387787204852	12.1253245706714	
2593000000.00009	-22.9091227138947	-176.200106085337	-10.0266592318589	-64.5054826624831	-46.4950656319011	-75.6081736801512	-27.0547784804737	12.9520364715808	
2593333333.33343	-22.9624006208689	-178.094531971777	-10.0295759722498	-66.8277800904777	-46.4138815843709	-77.0012538718119	-27.305687287638	13.8476328960448	
2593666666.66676	-23.0412872591546	-179.962798031071	-10.0270551021385	-69.155121839778	-46.4039321388942	-79.6113655702539	-27.5807114194834	14.7333514673881	
2594000000.00009	-23.0597432088096	177.954797346691	-10.0282390678362	-71.5175135593021	-46.3114406521419	-80.5462364947423	-27.7683845001023	15.6060319798203	
2594333333.33343	-23.1015866210273	175.904751892368	-10.0256648005756	-73.8297611964488	-46.3452976023756	-83.2148899368111	-28.0131587684156	16.5851656127287	
2594666666.66676	-23.1200110600476	173.975883257	-10.027447666068	-76.1734834291382	-46.353689675314	-85.7272404380308	-28.2084562953056	17.5048112268355	
2595000000.00009	-23.1172092717058	171.866998009138	-10.0289428693794	-78.4803898306809	-46.3483388792704	-88.6798215448554	-28.4006327065972	18.5896784610706	
2595333333.33343	-23.1073648436879	169.566873852537	-10.0307135944004	-80.8303592725027	-46.4613354937002	-89.7291089808567	-28.608898758733	19.7532376307929	
2595666666.66676	-23.0615511770576	167.572721622962	-10.033106188236	-83.1547460112662	-46.3486036855173	-94.0122883665914	-28.7746478918668	20.8249106105879	
2596000000.00009	-23.0205481341879	165.278962457756	-10.0374933705295	-85.4727784236986	-46.3658645347967	-96.412863285893	-28.9099032520397	22.0128439367439	
2596333333.33343	-22.9746201083263	163.09429454707	-10.0386625228753	-87.8563803663405	-46.3645941890999	-98.3756816642982	-29.0426439878492	22.9573532305475	
2596666666.66676	-22.8883924037024	160.911778462827	-10.0433177333505	-90.1614387808273	-46.4282674963065	-99.6483538988062	-29.1588978671822	23.9093174046456	
2597000000.00009	-22.8147024334471	158.637262583857	-10.0485046876726	-92.47004983451	-46.2550716942297	-102.253766930766	-29.2765345058455	25.2584077122512	
2597333333.33343	-22.7013132910453	156.460369249144	-10.0553071805106	-94.8019202735368	-46.4803540407432	-104.289681345469	-29.34527904856	26.3545121625567	
2597666666.66676	-22.5882100491537	154.404002668372	-10.0592632736588	-97.1193691118128	-46.4332387116942	-107.081480506542	-29.4222183937324	27.2404277659252	
2598000000.00009	-22.4787560228669	152.243815725971	-10.0661411198404	-99.4619042689712	-46.4556389853455	-109.866105345874	-29.4174722806181	28.0722294506063	
2598333333.33343	-22.3353761443374	150.290477631837	-10.0739272816541	-101.815323429498	-46.4107305260339	-111.489789656468	-29.4730442785784	28.9827464543756	
2598666666.66676	-22.1918408631062	148.19521965561	-10.0835968471845	-104.130856713644	-46.5757074867117	-113.38022707947	-29.465935286268	29.6236056102397	
2599000000.00009	-22.0568544693295	146.182708741985	-10.0919481034818	-106.39631237468	-46.446444040001	-115.866444015488	-29.3939473941565	30.2840687617189	
2599333333.33343	-21.902523459607	144.296824747295	-10.1028677574364	-108.747633341985	-46.3101801087292	-119.846106067858	-29.3693635399993	30.9901198248979	
2599666666.66676	-21.7422508022319	142.401733540476	-10.1130512946262	-111.006422003541	-46.5480460589876	-121.151509854537	-29.2557717813924	31.4139403354605	
2600000000.0001	-21.5733566449038	140.539710373808	-10.1202005637587	-113.373512535521	-46.4177529881632	-123.220046960346	-29.1947908477607	32.0290404932738	
