!Agilent N9923A: A.05.34
!Date: Sunday, 13 March 2016 20:47:48
!Model: N9923A
!Serial: MY51491690
!GPS Latitude: 
!GPS Longitude: 
!GPS TimeStamp: 0001-01-01 00:00:00Z
!GPS Seconds Since Last Read: 0
!CHECKSUM:1283316768
!Correction: S11(ON U)S21(ON U)S12(ON U)S22(ON U)
!S2P File: Measurements:S11,S21,S12,S22:
# Hz S DB R 50
2400000000	-18.0013100772166	170.48967304603	-9.42170378204889	156.840873773648	-46.6643278453116	143.82591253679	-20.9848420213246	16.9364716777746	
2400333333.33333	-17.9927722216655	169.264460814243	-9.42146894638208	154.56269651585	-46.7363482393874	141.81306496493	-21.1406780250656	17.0406659212303	
2400666666.66667	-17.9774317450047	168.340229932681	-9.42135047531813	152.362612292977	-46.6707504819328	141.943775532135	-21.2575639821381	17.1555194544436	
2401000000	-17.9551484881048	166.947966115353	-9.41633395066191	150.056104690667	-46.5538746743815	138.101984925693	-21.3779173278635	17.1112779472155	
2401333333.33333	-17.9627889330868	165.72375673553	-9.41473849089064	147.768225003803	-46.4727733620298	135.803941457149	-21.5154992030057	17.4356834077865	
2401666666.66667	-17.9305015983854	164.60970469006	-9.41877244565173	145.453001316545	-46.4257722395562	131.492389939456	-21.6590492370798	17.5493213436706	
2402000000	-17.9020749247961	163.439933906514	-9.42059333625689	143.20726589792	-46.7935952589489	129.611068129818	-21.8466422286028	17.6993255300523	
2402333333.33333	-17.8888773107714	162.165858024883	-9.41644131465434	140.922907982615	-46.669103483629	128.153854924482	-21.999504759299	17.9512958869935	
2402666666.66667	-17.8606682487126	161.088137477629	-9.41226265925602	138.634396530448	-46.4533656306222	127.090248444241	-22.136637863522	18.1268650973311	
2403000000	-17.8140569516647	159.97176787996	-9.4121585669004	136.352025696194	-46.5719763106217	124.300085898471	-22.3197573852431	18.2490480829108	
2403333333.33333	-17.8023708046852	158.667374964381	-9.41558110605365	134.07017508568	-46.6249346621635	121.999984345321	-22.4761918088307	18.5016799714361	
2403666666.66667	-17.7648580728714	157.497442704785	-9.41024651086514	131.811073788591	-46.6064579186361	118.546167012723	-22.6352591038079	18.6026826436825	
2404000000	-17.7229403774234	156.412058188104	-9.41840829250184	129.524435749766	-46.6439839330952	115.397980524861	-22.8016580339933	18.9240278282231	
2404333333.33334	-17.684796339888	155.141014291839	-9.40826914824322	127.221408688999	-46.6280407905423	114.243186420969	-22.9754714299933	19.0431838615616	
2404666666.66667	-17.6487058847896	153.951057273403	-9.41289034864823	124.967621608332	-46.603841404373	111.479165888172	-23.1583866244397	19.2199735882718	
2405000000	-17.6211195825197	152.761220411467	-9.41510589389964	122.694013561763	-46.6312662737226	110.497648655699	-23.3493401224996	19.4185255418988	
2405333333.33334	-17.5626602016451	151.625630021	-9.41603827892996	120.368078034071	-46.5906480162714	108.097125215748	-23.5301251800315	19.6361506607461	
2405666666.66667	-17.5118909955706	150.575012170657	-9.41594583298766	118.094324332188	-46.7958432374467	105.713809846425	-23.7067261367583	19.9240624656682	
2406000000	-17.4715341988706	149.319274534146	-9.41866639149642	115.805813525324	-46.2599839988875	102.400550209084	-23.873391259002	20.2266343146489	
2406333333.33334	-17.4346184099516	148.190026597431	-9.41371466348351	113.53715134598	-46.6020989053617	100.699931060302	-24.0768461196357	20.4608442570326	
2406666666.66667	-17.3878800444058	147.048621385111	-9.40669009320601	111.283647744427	-46.6338945747438	98.0301727456002	-24.299781038952	20.8116980382182	
2407000000	-17.3108658419959	145.954396749776	-9.40965735118792	109.014415676452	-46.5786069425174	97.1803961474798	-24.4602571453431	21.0901133877355	
2407333333.33334	-17.2741393507724	144.845573675027	-9.4137459810085	106.707993943338	-46.3998569197248	94.5655327235906	-24.6294538877978	21.2912336075272	
2407666666.66667	-17.2016211064092	143.659582498969	-9.41611512276646	104.4267786121	-46.8273880851377	90.9862986885078	-24.8560231322135	21.6187078201078	
2408000000	-17.1475866827121	142.609216862358	-9.41969857119868	102.162965657684	-46.6638042277419	89.6883418735537	-25.0314468180348	21.935879291492	
2408333333.33334	-17.0964408415473	141.549643526872	-9.41943954943328	99.888659931041	-46.7090636647384	86.7060393903217	-25.2193169424894	22.2644635846657	
2408666666.66667	-17.0276188564091	140.428513497297	-9.42498315423027	97.6004931226704	-46.5093368847545	82.8650975176841	-25.4237776835241	22.6120627569567	
2409000000	-16.9698880124344	139.373195093332	-9.4311874870895	95.3184520703533	-46.5607210969857	83.5539856791247	-25.5506980502529	22.9711726465625	
2409333333.33334	-16.9124694703045	138.348646116238	-9.42847947147095	93.0422069071476	-46.8515485744346	79.1401312417679	-25.7241762300904	23.5257619718647	
2409666666.66667	-16.8377100343336	137.279756309651	-9.43380047161891	90.7947851060543	-46.6798534392959	78.0454439136758	-25.9205644224865	23.580813861777	
2410000000	-16.7747201932527	136.258042146103	-9.43813753496086	88.4959734485768	-46.6257197683999	76.8492925048187	-26.0865520471935	23.9726056904427	
2410333333.33334	-16.7054510147794	135.294410703473	-9.44361302757281	86.2314857891872	-46.4424613712885	74.9082364261267	-26.2294437197204	24.5118925242198	
2410666666.66667	-16.6422547272528	134.371153752095	-9.45143939214596	83.9721194357084	-46.4703324352816	71.9044629000245	-26.3480307804769	24.5967616489322	
2411000000.00001	-16.5695779390207	133.350450786769	-9.45639414744672	81.6994757951724	-46.6308290462745	68.9128320872708	-26.5181370988659	25.0797314093528	
2411333333.33334	-16.4950970435352	132.466520331776	-9.46353057058542	79.390292172292	-46.6366906651373	67.5759772430602	-26.6876533302825	25.2746688679723	
2411666666.66667	-16.4235909796027	131.53184053258	-9.47469808879535	77.1780801031867	-46.7948257346181	64.1500962009241	-26.7889065538784	25.6064918018816	
2412000000.00001	-16.3535283816479	130.52789357248	-9.47471805835079	74.8946750180446	-46.6516516451934	62.4111235097962	-26.9193199082485	25.9103825808726	
2412333333.33334	-16.2787720070608	129.652485695896	-9.48148950849989	72.6104568798912	-46.763055551325	59.0263713475752	-27.0003781220601	26.0330285008357	
2412666666.66667	-16.2116783482957	128.755914621925	-9.49169400250924	70.3674668068328	-46.7559319278885	56.4897676491291	-27.0811917724407	25.9749844889736	
2413000000.00001	-16.1238597290946	127.834560965602	-9.50264350722251	68.1035689346551	-46.7617360191312	52.847560009307	-27.2272507963686	26.1018265380346	
2413333333.33334	-16.0556398457663	126.944875002393	-9.50326790867588	65.8605540262913	-46.7891223432931	51.4297075887833	-27.2698526834987	25.9899487253599	
2413666666.66667	-15.9745737408658	126.129028415995	-9.50891295011885	63.6225893031369	-46.464029003429	50.0628661899056	-27.3226020442885	26.1472468844366	
2414000000.00001	-15.9075295209757	125.266950915801	-9.52206698889705	61.3385168842982	-46.7629278089651	48.1676702707423	-27.4220085091128	25.9063613659663	
2414333333.33334	-15.8299596933295	124.416922025814	-9.52833450260515	59.0750463141179	-46.6784446155047	47.2611170764124	-27.4287422566768	26.270326078553	
2414666666.66667	-15.7369279861742	123.543043606218	-9.54055493496709	56.7867780184299	-46.675146029832	45.2192126134966	-27.454031353537	25.993391211658	
2415000000.00001	-15.6661307679269	122.769434512801	-9.55193634326046	54.5756180132771	-46.5832129064315	41.4520205672494	-27.4569200906777	25.8583572402762	
2415333333.33334	-15.6000979962157	121.977632142136	-9.55718373610345	52.2972466993157	-46.7227118357707	38.6359646853176	-27.4613255017876	25.3222660569322	
2415666666.66667	-15.5160374691253	121.121997545573	-9.56942974725164	50.0521099123821	-46.6598230777362	36.6831501405444	-27.4521806655168	25.0287615909878	
2416000000.00001	-15.4362789689524	120.379355649421	-9.57906872555691	47.8184853604572	-46.8043916523129	35.7173853647731	-27.4503355346498	24.4799416997933	
2416333333.33334	-15.3628998446685	119.559110632915	-9.59025577229804	45.4993360894802	-46.6467149651135	31.2207831012768	-27.3812729036524	24.0894130640979	
2416666666.66667	-15.2918925211606	118.819672133727	-9.60030311004978	43.3042434067804	-46.6211270891189	27.4857906928309	-27.3564076584475	23.5166338488193	
2417000000.00001	-15.2306278011957	118.025487420234	-9.61429884069794	41.044544135495	-46.5762401008954	25.9796961654424	-27.2912354147591	22.9297147412525	
2417333333.33334	-15.160600699777	117.324395536504	-9.62448316127502	38.7798290750235	-46.7711055721815	25.5317717411442	-27.2096823698733	21.9998791835826	
2417666666.66668	-15.0894534727567	116.569515882864	-9.63364470310438	36.5668590318753	-46.7172263442909	22.0502174036162	-27.1445616982286	21.4794945374946	
2418000000.00001	-15.0233662788578	115.816692835204	-9.64441060971768	34.3166051590253	-46.8887385519877	20.2134493503828	-27.0347277658873	20.3783907918999	
2418333333.33334	-14.950380549437	115.070871159108	-9.65423444328488	32.0727804826465	-46.6618161937806	18.894882019914	-26.9103142814823	19.5999323674007	
2418666666.66668	-14.9003447586266	114.40227519016	-9.6683738164105	29.8727075103673	-46.5767603581067	15.8996858565397	-26.7999073646333	18.7353367999704	
2419000000.00001	-14.8325543155067	113.669179065168	-9.68374537978782	27.5775747033997	-46.8101661832144	13.3457092513493	-26.6961403189697	17.6852074625517	
2419333333.33334	-14.7715969893301	112.971751489241	-9.69737722997464	25.3160544097701	-47.0698206838371	13.3524665312083	-26.5464279319972	16.5517964874787	
2419666666.66668	-14.7156092016067	112.260214230818	-9.70769560429276	23.0512636859973	-46.7319608375846	8.68137569560094	-26.4133915419717	15.7881031932846	
2420000000.00001	-14.6706927715157	111.610783803068	-9.71147322426244	20.8516017402043	-46.6801519965484	6.50676260131438	-26.2416393521984	14.496242707842	
2420333333.33334	-14.6063181189744	110.954515745603	-9.72516476486883	18.6166801377909	-46.607249569714	5.41752497800089	-26.0919180577434	13.5634013877373	
2420666666.66668	-14.5579336951898	110.292399181769	-9.73599441314228	16.3477563390321	-46.5783139892093	3.19619552628646	-25.8975900789091	12.3989065617918	
2421000000.00001	-14.5144232259645	109.650124574976	-9.75067565925867	14.1084012701318	-46.7812017984909	-0.77730425956761	-25.7435615767683	11.2664953030206	
2421333333.33334	-14.4603075321803	108.967857652605	-9.76007951567071	11.8914964554401	-46.7463451228135	-1.28564049446842	-25.5258772390587	10.2358386005136	
2421666666.66668	-14.4250791936837	108.372497048473	-9.76963958871472	9.66177045391993	-46.7542470777379	-4.62657013613937	-25.3391344614727	8.75771109133066	
2422000000.00001	-14.3844483667559	107.712108063047	-9.78233229874137	7.402109605879	-46.7458024429986	-7.90347646274341	-25.1754190531402	7.92482657307755	
2422333333.33334	-14.3397496117992	107.047629405401	-9.79847015762696	5.17174778689186	-47.0755885949919	-8.11171417399062	-24.983388309817	6.5378662676603	
2422666666.66668	-14.2959899281883	106.472117807033	-9.79855028432081	2.91376369906177	-46.7110645535651	-12.0251887774372	-24.7852625873814	5.42481091863613	
2423000000.00001	-14.2666219129189	105.838566603135	-9.81262630129593	0.687198110944171	-46.8527765317411	-14.7180279343266	-24.5665456925991	4.15524981570087	
2423333333.33334	-14.2347815773969	105.267455498491	-9.82211534274255	-1.56409667986427	-46.8083618894522	-14.2004087822982	-24.3966011713163	3.13706010000822	
2423666666.66668	-14.2017602354744	104.723890130874	-9.82766197081282	-3.81422601611446	-46.7897563080621	-17.8639021226026	-24.1711380571007	2.04254749921546	
2424000000.00001	-14.180639212977	104.196893527893	-9.83683625314834	-6.03891953940803	-47.1495826155936	-18.1110178622752	-23.9701086077766	0.874722427399173	
2424333333.33334	-14.1607026151833	103.59084211232	-9.8513820517041	-8.32308174657765	-46.6321744387005	-21.5593115600633	-23.771350081965	-0.175978809094579	
2424666666.66668	-14.1373116979486	103.009753947298	-9.85600806205946	-10.4978835101053	-46.7812228092311	-25.0588176393168	-23.5776164426751	-1.19268570115663	
2425000000.00001	-14.1171172528337	102.472042865172	-9.86523382149761	-12.7574802043232	-46.7499977041484	-26.3215114511884	-23.356115594319	-2.36749062167754	
2425333333.33335	-14.1023425602357	101.967925021651	-9.87888638992787	-14.9579549648042	-46.4713018667255	-28.9434341286829	-23.1738011602474	-3.35152640692016	
2425666666.66668	-14.0854570563431	101.443750090603	-9.8840555797113	-17.2365943840442	-46.7933561221699	-30.9649923519218	-22.9411782911007	-4.4377609667268	
2426000000.00001	-14.0779976429718	100.952645137154	-9.88650066322105	-19.4535988720205	-47.1279615198101	-34.2990285103611	-22.7801997345467	-5.34334131416022	
2426333333.33335	-14.0665927031536	100.367318822629	-9.89472443745187	-21.7116909792549	-46.940151808881	-34.7195689037666	-22.5597005169726	-6.60004908061372	
2426666666.66668	-14.0612731355598	99.9780111594001	-9.8971785708832	-23.9827587237325	-47.1079772823511	-37.0633334207472	-22.3899490135965	-7.53665868993093	
2427000000.00001	-14.0479474149624	99.4659568838822	-9.91074423552786	-26.2267887761295	-47.0148264416894	-38.0738980166308	-22.1826093559128	-8.4807925086891	
2427333333.33335	-14.047832069732	99.0188925056527	-9.91220800290354	-28.410888687881	-46.9880124434549	-41.7230314126398	-22.0011830827831	-9.5416763263344	
2427666666.66668	-14.044173822296	98.5386683045307	-9.91959532379304	-30.6487614019489	-47.0293460451674	-44.5022836602676	-21.840541573182	-10.3622586417421	
2428000000.00001	-14.0513104841861	98.0645149299595	-9.92720880164096	-32.8921046941909	-47.1414088065929	-46.7301358016321	-21.6554531110096	-11.3165756393264	
2428333333.33335	-14.0414644611168	97.6610248202496	-9.93467904077835	-35.1468462300094	-46.8873721130159	-46.4682073398338	-21.496360181305	-12.1337417382601	
2428666666.66668	-14.0414520739653	97.2764578668152	-9.94198397045376	-37.3546824988163	-46.8610708979042	-52.0076331237439	-21.3272652145999	-12.9574984441579	
2429000000.00001	-14.0577212970449	96.805476722356	-9.93814900468714	-39.5907403399981	-46.7362392857656	-53.0783054403042	-21.1542698210802	-13.7767425603969	
2429333333.33335	-14.051224633262	96.4883911477614	-9.94691337828417	-41.8156252602504	-47.116578169643	-55.053149417485	-21.011541548264	-14.6777309139632	
2429666666.66668	-14.0437172577631	96.0556037798016	-9.96312258311009	-44.0409572991056	-47.1039921089443	-57.3650404882454	-20.8629431052158	-15.6479161439225	
2430000000.00001	-14.0509276382557	95.6679942660635	-9.95697401208801	-46.2670819504677	-47.0021853113098	-59.969089987261	-20.7284927615028	-16.2714355226923	
2430333333.33335	-14.0584772623074	95.2857106909458	-9.95676421209061	-48.4934117727345	-47.0469237285748	-62.456308748524	-20.5557551912087	-17.1125780517465	
2430666666.66668	-14.0679906182515	94.9024653778514	-9.961205173171	-50.7303963166113	-47.0547558341695	-62.0055928743847	-20.4479918404824	-17.7911261537137	
2431000000.00001	-14.0842300877212	94.5118265941446	-9.96600454870898	-52.9417327598367	-47.1197832294648	-65.7607067918839	-20.3156128490493	-18.7648785332433	
2431333333.33335	-14.0813255540553	94.1200416871239	-9.96941134771994	-55.1295170247133	-47.3072970340405	-68.6127582931009	-20.1782651786707	-19.2919828284933	
2431666666.66668	-14.0868806044433	93.7801430006612	-9.97644116646087	-57.3920068051212	-47.1657909027762	-70.4407539579066	-20.0797923099037	-20.1974404669795	
2432000000.00002	-14.0920448566214	93.4697755558428	-9.97457302504379	-59.583229916734	-47.2026358616486	-73.2047927395833	-19.972455950837	-20.7352420838137	
2432333333.33335	-14.1077755014793	92.9859477337329	-9.97687964813886	-61.7935821736614	-46.9570357503907	-71.9084918505224	-19.8724680912957	-21.4785031529404	
2432666666.66668	-14.1124512390753	92.703660338657	-9.98026151121208	-63.9768306521944	-46.6570528829763	-77.1092255055878	-19.7829801358888	-22.155237703934	
2433000000.00002	-14.1255845249362	92.254961777521	-9.9851568448526	-66.1855057443536	-47.1156610990706	-79.7983557432022	-19.6971101337325	-22.8499772867392	
2433333333.33335	-14.1451565346759	91.955114642467	-9.98076717742907	-68.424553792237	-47.2477244095822	-80.4654853610281	-19.6112206579866	-23.3818259512755	
2433666666.66668	-14.1466828852955	91.5547067716153	-9.97987980424768	-70.5939106615858	-47.1098360214921	-82.8417881704938	-19.5411619972815	-23.9086414546187	
2434000000.00002	-14.1627282167206	91.1786291283933	-9.98016047040284	-72.8362187113811	-47.0014336453227	-84.8632365992339	-19.4638246080463	-24.6728357137277	
2434333333.33335	-14.160503514512	90.8381478095719	-9.97335120627242	-75.0166546992702	-47.014958735756	-85.1107263440859	-19.4145958481062	-25.1991927052473	
2434666666.66668	-14.1754633110302	90.432451294756	-9.97763662765481	-77.2350049114526	-46.8924593594031	-88.5884633486885	-19.3648810671402	-25.8476313031583	
2435000000.00002	-14.1837219779213	90.0797153910417	-9.97423093559599	-79.4287889522061	-47.171647579233	-91.8197550685467	-19.3167098277703	-26.3131162849921	
2435333333.33335	-14.1969405575983	89.6143053758016	-9.97152478222469	-81.6233899420942	-47.1032549004028	-94.1140295502119	-19.2781808319268	-26.8428522830481	
2435666666.66668	-14.1888761250174	89.2276204928486	-9.96704501246571	-83.8223399207537	-46.9531626075927	-95.1861327231752	-19.2404486707559	-27.348869560768	
2436000000.00002	-14.1933613474978	88.853485661164	-9.9670896977117	-86.0198066310288	-47.2778332860589	-99.7106151664501	-19.2287806584258	-27.7973438118747	
2436333333.33335	-14.2003398307528	88.3812922732964	-9.96131132773639	-88.2116779208141	-47.3557424123666	-99.983990001237	-19.201230697338	-28.4317850554328	
2436666666.66668	-14.2309047682804	87.9508474854795	-9.95891424624826	-90.3933839892833	-47.0401242316647	-102.43165974257	-19.1971065821944	-28.9385971612859	
2437000000.00002	-14.2274613955034	87.5064469019014	-9.94969904876208	-92.6116979454458	-47.2134632353351	-104.705149198003	-19.1905525223442	-29.5049670630653	
2437333333.33335	-14.2343994840075	87.1912220728827	-9.94353797754503	-94.8209291773057	-47.0125792098215	-108.020852669253	-19.2122572227623	-29.8819260921583	
2437666666.66668	-14.2522748747576	86.653460233001	-9.94015567267904	-96.994014813699	-47.3140110583067	-108.715664812667	-19.2041245830169	-30.1190018793324	
2438000000.00002	-14.2577363976732	86.1711510123846	-9.92963126801929	-99.2274077893534	-47.1940012676752	-112.620632561405	-19.2152639964523	-30.5752640308421	
2438333333.33335	-14.2596298266951	85.7460866255607	-9.92322154134779	-101.393635778733	-47.042861739331	-113.739537116035	-19.2753805151363	-30.9412955744773	
2438666666.66669	-14.2665037809165	85.1971036533186	-9.9190752283139	-103.594739276547	-47.016205497672	-117.778561988749	-19.2935367807368	-31.2955836934374	
2439000000.00002	-14.2723163960005	84.7044349230374	-9.90851189951076	-105.817814522758	-46.9661137758111	-119.105310917962	-19.3557705634206	-31.6099664268252	
2439333333.33335	-14.2609536495016	84.2537494189431	-9.89974546990082	-108.030609425819	-47.1597458675727	-120.385899414758	-19.4024474599265	-32.027889241975	
2439666666.66669	-14.2894063594913	83.7716571462821	-9.89474325097993	-110.21949375924	-47.0044047410677	-122.20504055323	-19.4793999681184	-32.1397957203645	
2440000000.00002	-14.2775220675425	83.1721345863068	-9.88541997718147	-112.404000949688	-47.0030162600024	-124.479815650943	-19.5472344619596	-32.557239494208	
2440333333.33335	-14.3100427390248	82.8039448443848	-9.87116011136697	-114.629522877498	-46.9570788628004	-126.531297433043	-19.6295948820115	-32.8160892897759	
2440666666.66669	-14.2859337215656	82.3164484154547	-9.86611404815579	-116.890057964084	-47.1313524933025	-129.51119391941	-19.7047022368141	-33.020155857301	
2441000000.00002	-14.2969199604034	81.7458092680745	-9.85864985905442	-119.10077716727	-46.911996173363	-129.923653172648	-19.8090705839402	-33.2101114402047	
2441333333.33335	-14.2867512930987	81.0905376130035	-9.85100526492455	-121.322342510759	-46.8236788755943	-134.963885390936	-19.9233337720305	-33.256259892506	
2441666666.66669	-14.291333272212	80.4742787234518	-9.83670440302065	-123.534929712002	-47.0831881909017	-136.902518542173	-20.0049991109179	-33.3780726714781	
2442000000.00002	-14.3190084458448	80.0094898719728	-9.83160515958778	-125.756750432824	-46.9553362816814	-138.532374019309	-20.1516761361771	-33.5806434733529	
2442333333.33335	-14.310156234966	79.5059814234986	-9.81251923634011	-128.021844238	-46.9054501196367	-139.239663057891	-20.2881175724097	-33.7057398824061	
2442666666.66669	-14.3116870300117	78.9454770987063	-9.80413152072553	-130.264704037662	-47.2508525489407	-142.899267157373	-20.440578153102	-33.4692258732334	
2443000000.00002	-14.3293975275682	78.3398498455192	-9.79096260972719	-132.526172504124	-47.0718830068574	-143.929942314294	-20.5517797072698	-33.5570514851103	
2443333333.33335	-14.320888196995	77.7620020598425	-9.78366866752514	-134.723746742632	-47.1230473346041	-148.079854213264	-20.7547112782556	-33.2846295608914	
2443666666.66669	-14.332021859609	77.2076926037837	-9.77020672791252	-136.965678237866	-46.8791313600813	-148.158402416913	-20.9203723902714	-33.2044681475189	
2444000000.00002	-14.3400451645044	76.5382721445598	-9.7651300946164	-139.250471918079	-46.878371924017	-151.258526830186	-21.1007994097762	-33.0987965915303	
2444333333.33335	-14.3373644159606	75.9037593482956	-9.75677528189951	-141.554411323261	-46.8226095420641	-153.473531496807	-21.2976665812826	-32.6163405582257	
2444666666.66669	-14.34217570799	75.2963119006979	-9.74877618987996	-143.750808636631	-47.1421177681251	-156.097213736536	-21.4798960710693	-32.5300523635626	
2445000000.00002	-14.3471609580615	74.680364012519	-9.73165398127534	-146.058110387939	-47.0373636457062	-155.802887351613	-21.7236638867583	-32.0294737419481	
2445333333.33335	-14.3495682474048	74.0593310365523	-9.72467538327505	-148.292187803261	-46.9150586887915	-162.048053155924	-21.9510410303627	-31.4674286435985	
2445666666.66669	-14.3627606517985	73.4844329132542	-9.71455762830408	-150.552929110776	-46.9207593008686	-163.841091502495	-22.1875521243286	-30.8096787215649	
2446000000.00002	-14.3590105449145	72.736646661011	-9.70634170733476	-152.831224264864	-46.9573410954852	-165.394307506391	-22.4182175161282	-30.1836236014985	
2446333333.33336	-14.3503318060144	72.08561741534	-9.69811951593839	-155.138699788295	-47.0112742127743	-166.104576306321	-22.6751110605381	-29.5131996040669	
2446666666.66669	-14.365495742819	71.523248021423	-9.68847923967494	-157.411210259554	-46.8969411957858	-169.604092061002	-22.9129013561692	-28.6886312729174	
2447000000.00002	-14.3745277583136	70.8577046621098	-9.68259427660696	-159.704985551635	-46.8139130282455	-171.004205478904	-23.1825060107045	-27.5576285746814	
2447333333.33336	-14.3780735375789	70.1662571977745	-9.68126904409085	-161.938626286422	-46.9759418890177	-171.688292575728	-23.4267894250175	-26.5583753282707	
2447666666.66669	-14.370649150648	69.6132810034198	-9.66223254064773	-164.29049458534	-46.4977924944725	-174.893250847015	-23.7536509866721	-25.1608245673287	
2448000000.00002	-14.3597508025918	68.9507998239988	-9.66397244294057	-166.55071835969	-46.7052733353482	-177.675787885731	-24.0244050535968	-23.7617227825348	
2448333333.33336	-14.3599603190461	68.2838958254073	-9.6553036163026	-168.825995649156	-46.8246449449101	178.365472822734	-24.3094469952948	-22.3905658405962	
2448666666.66669	-14.369992162306	67.6816707881886	-9.64903693028989	-171.133197680375	-46.7779990336462	176.292597781614	-24.6201454605848	-20.6481574723412	
2449000000.00002	-14.367011392843	67.021725398887	-9.64071931930941	-173.423408141557	-46.8525256576568	176.693505921962	-24.8652509330438	-18.4970339320119	
2449333333.33336	-14.3512702620675	66.3351775881652	-9.63884340241542	-175.660040623504	-46.7444719345919	170.313471700482	-25.1461147886163	-16.2892018487925	
2449666666.66669	-14.3528788465352	65.7184785023815	-9.63176903281853	-178.001132972732	-46.790920923797	171.175639573159	-25.4403639010786	-13.9152560948948	
2450000000.00002	-14.3368070592666	64.9433563473258	-9.63185033543802	179.714016584039	-46.7721361565642	166.916885080634	-25.6245640904992	-11.4551626545171	
2450333333.33336	-14.3541030499113	64.3232282769856	-9.63326443879149	177.422486614461	-46.7336649365197	164.314584551471	-25.8968772384353	-8.80051025448642	
2450666666.66669	-14.3414259992545	63.6267169133578	-9.62991014910274	175.154675522647	-46.9568019553666	163.814224556353	-26.1142652040944	-5.66602114231062	
2451000000.00002	-14.3228747858988	62.9865158946956	-9.62475773247231	172.873179365985	-46.6772528387085	161.494953461105	-26.2800852906302	-2.72611010948239	
2451333333.33336	-14.3156561596836	62.3279835440331	-9.62285515357647	170.60094548	-46.8630427051683	159.558760032045	-26.4450877311024	0.353100853340506	
2451666666.66669	-14.2994380821708	61.8264172491762	-9.61739158966851	168.30306123967	-46.6365272214709	155.797190391465	-26.5832206188548	3.53251918287411	
2452000000.00002	-14.2870450752919	61.0990137745157	-9.61974962433257	166.009027495096	-46.7369444806508	153.98981299178	-26.6183954052579	7.08119728537347	
2452333333.33336	-14.2654189247521	60.4685972437571	-9.61942456761706	163.722940681784	-46.9603003499364	153.539080759921	-26.6156778721312	10.5393361845948	
2452666666.66669	-14.2515123033232	59.9983889404458	-9.61841706065279	161.455575446064	-46.952107536707	149.768937712309	-26.6705064530903	13.8418705084934	
2453000000.00003	-14.2423644340325	59.3393340697884	-9.62647067809604	159.194356372183	-46.7943202840876	147.15516976294	-26.6336256574379	17.276269413519	
2453333333.33336	-14.2219137457053	58.7873838537694	-9.62122575844377	156.913137168746	-46.6012102554022	143.285701051341	-26.5407848601692	20.2546960125743	
2453666666.66669	-14.215505268062	58.1690482235126	-9.62689041566693	154.684585743257	-46.8129896701595	142.294091685844	-26.4180524221756	23.6169493620391	
2454000000.00003	-14.1906706397975	57.5593128059927	-9.62988074700948	152.410049684237	-46.6461620213044	140.678137376449	-26.2564908790113	26.708634951537	
2454333333.33336	-14.1618370094037	56.9786987611998	-9.62963499710557	150.14531669223	-46.4118881012315	138.473076192428	-26.1580199763496	29.750119498372	
2454666666.66669	-14.1370832488577	56.4881084569004	-9.62920692797478	147.911280659987	-46.6991969546111	138.203847523377	-25.8761394857021	32.1789511012326	
2455000000.00003	-14.0979452290189	55.964850886744	-9.63027512120511	145.672413016867	-46.5877070592053	134.378720714896	-25.7003699068464	34.7751617028575	
2455333333.33336	-14.0744415084041	55.4161307980331	-9.63158901934344	143.386134700805	-46.6943688456456	132.503818012979	-25.4520165372576	36.7340992878964	
2455666666.66669	-14.0411809572902	54.8900908972421	-9.63550968991232	141.136599870451	-46.9683099998886	129.406268458232	-25.2572434019355	38.8844779903136	
2456000000.00003	-14.0092024168902	54.4038120009388	-9.63607955762751	138.906214139708	-46.6658182152961	126.647458056877	-24.9845498818753	40.8252587719937	
2456333333.33336	-13.9856403391037	53.9071342454151	-9.63854238177704	136.683561254601	-46.631275946532	125.949302333767	-24.7676022687069	43.0041432914514	
2456666666.66669	-13.9455838409477	53.3966046559715	-9.64640864451606	134.416773204956	-46.575126873096	123.264513388856	-24.5165575779031	44.2136101517808	
2457000000.00003	-13.9080519862411	52.903982909324	-9.65054410897223	132.186723387956	-46.6102922938965	122.955704167531	-24.2576912492347	45.3562709742513	
2457333333.33336	-13.8764148651664	52.5718575329905	-9.653176164463	129.985264609541	-46.4766415800769	117.461404803276	-24.0093304478555	46.7581425906779	
2457666666.66669	-13.82695576847	52.0289688645338	-9.65402731716464	127.736057943687	-46.1852477599865	117.834352871763	-23.8206252557834	47.8122078984323	
2458000000.00003	-13.7803314784043	51.6162971124801	-9.6636845289331	125.540098800365	-46.5708240068138	114.429272355509	-23.5614203332063	48.8616469595882	
2458333333.33336	-13.7470542149009	51.1577439311336	-9.66249288841895	123.246767531124	-46.6212028196868	111.39345340648	-23.3429708232706	49.6465683734468	
2458666666.66669	-13.699614559983	50.7648428607228	-9.67117348647781	121.057953391079	-46.5670763896813	109.789504663755	-23.1425908637718	50.4622064077384	
2459000000.00003	-13.6770202707021	50.3097580457989	-9.66561421120378	118.784219791305	-46.5207072753414	105.392917941052	-22.9668829061445	51.1397825362947	
2459333333.33336	-13.6153561720093	49.9529516087806	-9.66476236583297	116.61922598518	-46.6536423354256	104.524314254988	-22.7995146325392	51.809010199711	
2459666666.6667	-13.5748413387142	49.5218240981721	-9.67103748898439	114.375176761877	-46.5253587652921	102.509740040298	-22.5914455157717	52.2380224682818	
2460000000.00003	-13.5241282178952	49.2325903300562	-9.66850771378208	112.103407349117	-46.6223964829649	99.9082691376995	-22.4320820130984	52.4799054379707	
2460333333.33336	-13.4799677191576	48.8548661157466	-9.67215588307348	109.96345497736	-46.4464899971041	98.1389222138437	-22.2894528982433	52.9733697746057	
2460666666.6667	-13.42978403598	48.4985355988146	-9.67701983548317	107.686512147851	-46.6238468231311	96.1105320715762	-22.1245914171649	53.2176011210505	
2461000000.00003	-13.3847713003505	48.1231296239189	-9.6754613146855	105.455248708036	-46.615672140584	93.4721801575529	-21.9684491293518	53.5006279259023	
2461333333.33336	-13.3218401828312	47.8029310840882	-9.67499434831197	103.186432105222	-46.6875725892449	91.7833583796178	-21.8299836172371	53.660651461589	
2461666666.6667	-13.2842052647707	47.4011470872127	-9.67924078451046	100.979052207623	-46.6143737676248	90.3612188635799	-21.7159361639898	53.7148170012593	
2462000000.00003	-13.2315959429598	47.1360947316344	-9.67367498820222	98.7862035728558	-46.8686558887424	86.3981438997528	-21.6154056614416	53.8369406286186	
2462333333.33336	-13.190717557953	46.8679769162122	-9.67892498715024	96.4990279997818	-46.720239765243	86.1157853764941	-21.5002509184169	53.7058689060311	
2462666666.6667	-13.1272983709147	46.5345701890141	-9.67539825103935	94.2630772664328	-46.5867548884558	81.6733168600146	-21.3966105415145	53.8025375789581	
2463000000.00003	-13.0840633544182	46.181758903485	-9.6795187933026	92.0427141959031	-46.5820572875075	80.866031885928	-21.2944313309178	53.7731264737502	
2463333333.33336	-13.0253351704124	45.9359459744205	-9.6764135478201	89.7853510219546	-46.5143716783115	77.785352502431	-21.2059167514198	53.5941440293921	
2463666666.6667	-12.9773627036132	45.5841067649085	-9.67247322905043	87.4986011668049	-46.4057202989842	75.4537548948363	-21.1579243284324	53.5384655255734	
2464000000.00003	-12.915221934885	45.3812760475657	-9.67388766751805	85.2855181843028	-46.6254542332762	71.6151750020792	-21.0867728156776	53.3033144410396	
2464333333.33336	-12.8773793404071	45.0485112322573	-9.67222226490921	83.0219793831521	-46.4216106201816	70.3544821281707	-21.0461802814215	52.9296726171567	
2464666666.6667	-12.8240475744518	44.7299418770973	-9.67353577522439	80.7771494577191	-46.3759807318494	69.6896136467686	-20.968494811174	52.7914784813165	
2465000000.00003	-12.7624026489786	44.4680685893118	-9.67255964538812	78.4975161665177	-46.5396690601181	66.5847934676414	-20.9305101523694	52.4162351619746	
2465333333.33336	-12.7136800535454	44.2848121515164	-9.66388095032856	76.2208160926556	-46.641415623963	63.2838590145392	-20.8892854673069	52.2117250377467	
2465666666.6667	-12.6559277305778	44.0066195729278	-9.66861534539633	73.9868973063332	-46.4024522900523	61.5854627746869	-20.8754267178952	51.833410230482	
2466000000.00003	-12.6127541536418	43.7519478844022	-9.66205997975515	71.673894477389	-46.4312471065653	60.228133524258	-20.8307827692834	51.4095564896394	
2466333333.33336	-12.5571364967423	43.5283552236171	-9.66359851123874	69.4111530804707	-46.5144041108912	57.4259543117241	-20.835018865584	51.1032085830775	
2466666666.6667	-12.4999007591706	43.2104872085668	-9.66221770689912	67.1597971235831	-46.6923680160751	55.6638762865255	-20.7927749049012	50.5569126152987	
2467000000.00003	-12.4514365397365	42.9718545527744	-9.65879653836692	64.8758154879893	-46.5970874557574	53.5490072571181	-20.8095021668523	50.0798846768715	
2467333333.33337	-12.3969704638266	42.7480406484916	-9.65733336415095	62.5825185859352	-46.3649825244727	50.713794348011	-20.8085737112891	49.68157357364	
2467666666.6667	-12.3476278185395	42.5652296245021	-9.65433893635576	60.2764506234988	-46.4896711187729	48.9977466904636	-20.8108571095007	49.0321771610516	
2468000000.00003	-12.2938666288103	42.3465763676277	-9.65269756401904	57.9813640937332	-46.4211944216033	45.3881948730688	-20.8413039162905	48.6143549800708	
2468333333.33337	-12.2442495126523	42.0909397504744	-9.65091082557917	55.689224902658	-46.2796253803673	42.6134503833138	-20.8617197136826	48.0015990153684	
2468666666.6667	-12.2007793179216	41.8663583674132	-9.64979776642455	53.3476088389815	-46.2007878621599	40.9665781007162	-20.9059720457194	47.4820031591098	
2469000000.00003	-12.1383102817352	41.6757315415311	-9.65064606902775	51.074285682185	-46.3985671140087	38.2476926836547	-20.9089967291526	46.9086646064941	
2469333333.33337	-12.0848115458472	41.4410969906365	-9.64838662705351	48.777962094679	-46.4625231274893	34.8024007293569	-20.9423256502563	46.1744157718319	
2469666666.6667	-12.0440660176178	41.2084057693435	-9.64977819905366	46.4866190876489	-46.4054270204514	32.348493514098	-21.0018234580308	45.4663872719946	
2470000000.00003	-11.9845186032315	41.0078547483899	-9.6487366691739	44.1169979747378	-46.4879207731655	30.0658504522638	-21.0184534158337	44.7362584686115	
2470333333.33337	-11.9425976253163	40.7921579390852	-9.64200782929673	41.7581481292454	-46.3025451331275	29.1124748953891	-21.0852652364961	44.1390290246939	
2470666666.6667	-11.892009944229	40.5472060680907	-9.6476052370619	39.4395459454923	-46.5545800626407	26.9195052585698	-21.1303633989562	43.3216716428146	
2471000000.00003	-11.8515266880265	40.3293776145327	-9.65681917866229	37.1654256060218	-46.3772946593103	25.9875551820134	-21.195237426352	42.585425576253	
2471333333.33337	-11.8104152226092	40.1106596685325	-9.65394175230142	34.7765058566273	-46.281698923713	21.7468631376781	-21.2789871338085	41.6193204153626	
2471666666.6667	-11.7646490447406	39.9439646749454	-9.65241276306654	32.5298252613449	-46.3386388156251	19.0724760865456	-21.3227714117285	40.8631225423977	
2472000000.00003	-11.7186177439866	39.7458297636299	-9.64904104970365	30.1787083650972	-46.586986904797	17.7803924550235	-21.4085331499382	39.8381317460292	
2472333333.33337	-11.6724318059949	39.507723993744	-9.6553158698735	27.7997265282802	-46.3861398508586	16.2328555319513	-21.4522687886014	39.0423638152141	
2472666666.6667	-11.636393767228	39.3439472118244	-9.65412688113997	25.4326194803363	-46.4507910207491	12.4444430135949	-21.5358599740655	38.1502486479735	
2473000000.00003	-11.6016537147714	39.0309217739744	-9.66268686434361	23.0770097455547	-46.5844295068602	11.4912488234086	-21.5864504363183	37.1051188761838	
2473333333.33337	-11.5558466491319	38.86258182983	-9.667506345906	20.7436398616738	-46.3914132867451	8.47634892171861	-21.6625195816213	36.1864030730331	
2473666666.6667	-11.5136992240738	38.6187484404515	-9.65962141011908	18.3807729334805	-46.3709192977121	6.35386768072486	-21.7457890112936	35.150748823302	
2474000000.00004	-11.4861646129883	38.3748485825816	-9.66961305192359	16.0469538734003	-46.5558785458829	3.06679609513238	-21.8276172229009	33.9761955092262	
2474333333.33337	-11.4485088834802	38.158247708681	-9.66793189924073	13.6367980781584	-46.5593493097669	2.0665490695649	-21.862448300053	32.9122425832944	
2474666666.6667	-11.4127578226984	37.913935469755	-9.67240336017511	11.3190156120834	-46.3064233854638	0.256688893422681	-21.9405684847813	31.8128663525334	
2475000000.00004	-11.3778807747312	37.6899264763402	-9.67430444459369	8.940439966653	-46.5092213025211	-2.34913972642952	-22.0251610318447	30.64802453069	
2475333333.33337	-11.3563504599127	37.3950497976333	-9.67965229865095	6.5620552962652	-46.4685461382984	-6.13902742108675	-22.0959040596884	29.3682051719654	
2475666666.6667	-11.3150986065622	37.2028512033502	-9.68788073700813	4.26874040441242	-46.3582586217753	-6.85483516244262	-22.1604034789782	28.2570597751618	
2476000000.00004	-11.2921548399921	36.9191187148898	-9.69233010424312	1.83100971519154	-46.4789092238311	-10.8747544792076	-22.2467751079393	26.9485357819978	
2476333333.33337	-11.2661555049342	36.6702973838627	-9.69733913520582	-0.511653496411819	-46.6708582738055	-14.2554957632684	-22.3032695438173	25.5678246244489	
2476666666.6667	-11.2356040433108	36.3244623942328	-9.70028454083491	-2.86320496333105	-46.2957904338198	-17.9758797446519	-22.3758645901442	24.2206729109519	
2477000000.00004	-11.217077261443	36.0789820086724	-9.70862091481846	-5.21927494479892	-46.6797744002558	-17.5765878524752	-22.4323005204275	22.9820824133379	
2477333333.33337	-11.1938377298199	35.7808852600476	-9.71283844315258	-7.58172682961736	-46.5687014705341	-19.1184039936385	-22.4636460948398	21.60724570797	
2477666666.6667	-11.1690538974266	35.5074756861523	-9.72111148685615	-9.93483979506761	-46.2954832555981	-20.6342041982099	-22.520604511995	20.1120294986377	
2478000000.00004	-11.1516918663125	35.1812616104132	-9.72561427839589	-12.3102375711022	-46.5051190561321	-23.5010113498227	-22.5475587770625	18.766239921327	
2478333333.33337	-11.1343800551498	34.9074043808741	-9.7313251760675	-14.6177797922848	-46.3625054896159	-26.5353747602809	-22.6008370917097	17.1741198894759	
2478666666.6667	-11.1242321678316	34.5540966405675	-9.73871266697477	-16.9798748508659	-46.5699704699571	-29.0877944489453	-22.6440921201296	15.7901400545752	
2479000000.00004	-11.1151288959325	34.2668578497363	-9.74975590745255	-19.3037179927057	-46.5159383169194	-30.7782659976078	-22.680223710711	14.3451776796211	
2479333333.33337	-11.1043007834505	33.9351965899227	-9.75525528053548	-21.6454175386267	-46.0971773538471	-32.7453607375896	-22.6889178872152	12.9009843143048	
2479666666.6667	-11.0967211118345	33.5069307338292	-9.76122097135793	-23.9550076326278	-46.6612639882902	-36.3177189532811	-22.7259578728321	11.415835567546	
2480000000.00004	-11.0906903561618	33.1667239468253	-9.77308849671006	-26.3193476013346	-46.7116616713513	-38.3775090978126	-22.7091934806826	9.86399532388886	
2480333333.33337	-11.0866673668179	32.8602148154698	-9.77014182582456	-28.6144588129673	-46.4040332469138	-39.5271777429322	-22.730166772181	8.39327899472834	
2480666666.66671	-11.0900258983429	32.4946263923108	-9.78247014902307	-30.9586809629709	-46.5737292910466	-43.6257084278928	-22.7408464859793	7.04470796880099	
2481000000.00004	-11.0825201579211	32.0953949418456	-9.78517053628784	-33.2191288317651	-46.5401778147764	-45.7144904975201	-22.7208517799088	5.44701634147903	
2481333333.33337	-11.0821631203466	31.7166937882551	-9.79015306545702	-35.5271992360835	-46.4997799473313	-48.3798088607699	-22.7053785754349	3.86581805770405	
2481666666.66671	-11.0838908193226	31.3841747957497	-9.79332186004002	-37.8196832841328	-46.3640738673463	-49.7407789605725	-22.6842664094265	2.34500060250614	
2482000000.00004	-11.0869143274915	30.9912578036838	-9.79879605160638	-40.0922188961985	-46.6058544928336	-51.0731256906129	-22.6736092744682	0.96729200844922	
2482333333.33337	-11.0955725174074	30.6055500924362	-9.80836203481712	-42.4390011474382	-46.3642513376966	-54.2966962613488	-22.6444969467062	-0.592540666548224	
2482666666.66671	-11.101087871858	30.2088684588587	-9.81393813986309	-44.6961992336725	-46.4213922784472	-55.7442469439613	-22.585669246755	-2.03510059639437	
2483000000.00004	-11.1148974183934	29.7475705793353	-9.81176012680433	-46.9923308696761	-46.7465343723591	-60.3797851627039	-22.5651612249407	-3.4109550181475	
2483333333.33337	-11.1187165372394	29.3938927639243	-9.81558527003306	-49.2484459812938	-46.4538174738868	-60.1516762199348	-22.5005556980948	-4.84265987146762	
2483666666.66671	-11.1400448118691	29.000505543872	-9.82185065502683	-51.5025466140578	-46.5395154136307	-62.7155043214952	-22.4370804950967	-6.12276801871307	
2484000000.00004	-11.1509567380243	28.4954655044083	-9.82911459557818	-53.7710805468949	-46.7496311527548	-67.1328255743056	-22.4027262993166	-7.53466837084081	
2484333333.33337	-11.1648750070423	28.0154868980828	-9.82317723939442	-56.0320605895702	-46.5730519884204	-69.4616461417927	-22.3327707848707	-8.73717883440016	
2484666666.66671	-11.1832540507951	27.5783709327103	-9.82184399832478	-58.3452270043496	-46.4560146486146	-68.4579191052216	-22.2707991243355	-10.0545385088012	
2485000000.00004	-11.2022636384621	27.1804003386082	-9.82736900310131	-60.5603795368344	-46.8169414161659	-72.0839853233273	-22.2048364566708	-11.2445923660655	
2485333333.33337	-11.2266204768491	26.6688473096523	-9.83150043109211	-62.8410736021979	-46.7537403733561	-73.8092347532388	-22.1209498024585	-12.3756960182443	
2485666666.66671	-11.2539107423312	26.2264902244287	-9.83102462146701	-65.0706788774902	-46.7077573581822	-75.8322221615016	-22.0483023211057	-13.6605664466508	
2486000000.00004	-11.2592452543639	25.7509851438986	-9.82724064336955	-67.3167896035305	-46.5963719080456	-78.2076045702217	-21.9869724432728	-14.7793423039277	
2486333333.33337	-11.2965414860789	25.3236573329424	-9.82172664495413	-69.5974167337339	-46.7150058753273	-80.5687202831561	-21.907509962491	-15.7947217792739	
2486666666.66671	-11.3184830947764	24.8061188838797	-9.82478830586145	-71.8275741024946	-46.6567802397271	-81.9824903776028	-21.8352914995626	-17.0335122115853	
2487000000.00004	-11.3536185847007	24.2542903916098	-9.82112947189234	-74.1000710926295	-46.7872922668289	-86.4029580993592	-21.7561524268661	-17.873212635374	
2487333333.33337	-11.3799867504358	23.796996381849	-9.82235664090791	-76.3250933765759	-46.6960507626341	-88.0762935507191	-21.6931429040665	-19.0165572481223	
2487666666.66671	-11.4110932881382	23.2825618504163	-9.82055743412138	-78.5890863163372	-46.6621828015598	-90.2740568132259	-21.6244450528942	-19.8512196587444	
2488000000.00004	-11.436229665417	22.7704201078133	-9.82127886221414	-80.8137287030306	-46.7175475484765	-91.6267017489597	-21.5533335166786	-20.6747443665952	
2488333333.33338	-11.4791360294072	22.2662043846036	-9.81214266762625	-83.0802077656697	-46.4654694928911	-94.777505923263	-21.4860832747077	-21.6139909578747	
2488666666.66671	-11.5070421672735	21.7140927474414	-9.81213933132732	-85.315094320601	-46.5581466828762	-97.7623486354001	-21.4063642958898	-22.4042355093608	
2489000000.00004	-11.5459896297458	21.1960268746006	-9.80742101115905	-87.5509148112971	-46.7493473058923	-97.4586279821986	-21.3498584951536	-23.2330739196821	
2489333333.33338	-11.5644276600936	20.660729793526	-9.79934172502126	-89.828037511023	-46.8115637400371	-101.387606585118	-21.2775398767629	-24.0462473653343	
2489666666.66671	-11.6109304052963	20.1071814356331	-9.79469866267479	-92.0600041716637	-46.5837584296258	-103.388836389912	-21.2264672503266	-24.6343863715313	
2490000000.00004	-11.6361552849851	19.5563043699809	-9.79159711071773	-94.2972647178555	-46.8200508651174	-105.007345062552	-21.1478506397717	-25.2605818162928	
2490333333.33338	-11.7025567072163	18.9841435801764	-9.78619833114963	-96.5577828484125	-46.7611886883988	-105.765351312682	-21.0801296685433	-26.1951660010879	
2490666666.66671	-11.719843771642	18.3611610773883	-9.78315865198194	-98.767706840848	-46.7176131891958	-111.36264555859	-21.0621947923837	-26.7070358684614	
2491000000.00004	-11.7646523905094	17.7863182853948	-9.77600784387443	-100.994398543018	-46.8208223214926	-113.00194354554	-21.0008269892466	-27.2732917571768	
2491333333.33338	-11.7993190444338	17.1844135468682	-9.7705512500598	-103.277146124381	-46.7357475536511	-114.700986437799	-20.9552554070954	-27.7903841588374	
2491666666.66671	-11.8549174828193	16.648810875088	-9.76808247379564	-105.512553044993	-46.6789157775917	-117.040759137039	-20.9028387941137	-28.261232111461	
2492000000.00004	-11.8783639276473	16.0723789337637	-9.75689663953588	-107.756661485204	-46.9873920516962	-119.589359627663	-20.8590557004788	-28.8264249054576	
2492333333.33338	-11.9225238815037	15.3887506716981	-9.74733426783308	-109.996352896849	-46.7023002350408	-120.442245980308	-20.8201757211695	-29.11530267848	
2492666666.66671	-11.9610295961254	14.8236277704797	-9.7423367357485	-112.247794980053	-46.629641369449	-123.833804471599	-20.8059609649909	-29.5859336387888	
2493000000.00004	-12.0100998157069	14.1794194133341	-9.73693435284075	-114.491624879261	-46.7346954992183	-124.907554893825	-20.7687860876298	-29.8668136796483	
2493333333.33338	-12.0497152461653	13.5448599123381	-9.72890900747192	-116.722328933779	-46.9103488596972	-127.050118375194	-20.7280792346744	-30.2807980418259	
2493666666.66671	-12.0784723865603	12.9621177933771	-9.72272465892683	-118.974555911087	-46.5517837788524	-129.463374157537	-20.7142372401533	-30.582563592246	
2494000000.00004	-12.1315128985254	12.2762390330605	-9.71602498423255	-121.233858476816	-46.6687804229825	-132.616321029786	-20.7071362822021	-30.8993036748499	
2494333333.33338	-12.166367071309	11.6120272420702	-9.70482092614847	-123.504579350967	-46.7907876220044	-135.84008824715	-20.6910770784892	-31.1494934868489	
2494666666.66671	-12.1970805455824	10.9747576491377	-9.69740221017374	-125.735756031086	-46.7578059229199	-137.101502494273	-20.6830969630076	-31.2858885446595	
2495000000.00005	-12.2383068649141	10.1908972321398	-9.69442713019787	-127.997924361935	-46.5903220676922	-139.702417355912	-20.697340265675	-31.3358620529707	
2495333333.33338	-12.2767136455338	9.60428193152328	-9.6872412913723	-130.256987055636	-46.5479790131789	-140.603730231899	-20.7122623537673	-31.4783031980091	
2495666666.66671	-12.2938317863811	8.91400219167695	-9.67892788878529	-132.510444679607	-46.5045377406213	-144.152783258294	-20.6954835620759	-31.4421605674495	
2496000000.00005	-12.3295877465187	8.31102658376204	-9.67152481131376	-134.816914744771	-46.4459179503996	-145.693645839086	-20.736626518967	-31.7162317841338	
2496333333.33338	-12.3779583662301	7.57452014125204	-9.66661481448184	-137.07378132022	-46.5994844738174	-149.193746247834	-20.7338548313436	-31.6113065968947	
2496666666.66671	-12.3979231800951	6.82320680852767	-9.65675966168901	-139.317434507885	-46.8373072560202	-151.148147033258	-20.7745836787483	-31.6738192878041	
2497000000.00005	-12.4260347239917	6.11464455151783	-9.65589700933478	-141.621595439429	-46.6150882052318	-152.22469648763	-20.8135749275759	-31.4759978117044	
2497333333.33338	-12.4564224897151	5.45119641666935	-9.64435385705606	-143.922222618023	-46.7982322872212	-155.09225292418	-20.8482367113421	-31.2825830578635	
2497666666.66671	-12.4838126011878	4.71306480836453	-9.64510442847049	-146.183033100856	-46.4632496203026	-155.693563369201	-20.8698851897807	-31.1158698077046	
2498000000.00005	-12.5124951678674	3.95477148955213	-9.63862950155441	-148.471515590019	-46.6596795569827	-159.647181795274	-20.917565131619	-30.9230282125131	
2498333333.33338	-12.528192453228	3.15288865589665	-9.64159892508404	-150.794311967578	-46.504240904392	-160.725315472748	-20.9479155500346	-30.5881678309423	
2498666666.66671	-12.5373779919341	2.4584039051403	-9.63831028839613	-153.032021916683	-46.36959614655	-163.548765543212	-20.9857028739061	-30.3223594011122	
2499000000.00005	-12.5647164275916	1.76890384614392	-9.62824530844733	-155.328989169953	-46.7297827213725	-167.392905706736	-21.0795267840319	-30.0855096851875	
2499333333.33338	-12.5789898711641	0.89955186942642	-9.63685179955939	-157.591564081174	-46.4050045074112	-167.849705604775	-21.1055255792938	-29.6638277264565	
2499666666.66671	-12.5930650960689	0.149647485110072	-9.63383577255911	-159.937445411731	-46.3487718776675	-170.531089939572	-21.178053123365	-29.2086209361449	
2500000000.00005	-12.6132437600227	-0.684668334231694	-9.62548258653912	-162.200891955435	-46.2403015383579	-174.612912408799	-21.2318230110512	-28.6411721217876	
2500333333.33338	-12.6180464486129	-1.46008667963342	-9.62577446085554	-164.509080605697	-46.6391799507683	-174.904555451857	-21.3268676187133	-27.910009269358	
2500666666.66671	-12.6415505183461	-2.27024552372146	-9.63253994055563	-166.799789718781	-46.5143279925653	-178.651316382795	-21.3713868632595	-27.5014152564474	
2501000000.00005	-12.6497198628185	-3.08106088045601	-9.63972222827556	-169.101420375138	-46.6051220529679	179.755569560097	-21.4321556109759	-26.7495759662078	
2501333333.33338	-12.6428598441121	-3.93401118432417	-9.6337808919406	-171.384537897542	-46.2210484735822	178.352646834947	-21.5294618363452	-25.8042467271886	
2501666666.66672	-12.6563602967652	-4.79519128001415	-9.64157117864767	-173.684247059761	-46.4355492076898	175.131396693927	-21.5893028139986	-25.0202182951217	
2502000000.00005	-12.6622092674153	-5.56490293453752	-9.63757990774366	-175.995423520322	-46.6793343000038	172.429394643138	-21.6710928185033	-24.3125647360215	
2502333333.33338	-12.6526294038818	-6.38341350939688	-9.64856847430447	-178.278515190673	-46.7032542375208	170.338809224454	-21.7391515649014	-23.3842287608074	
2502666666.66672	-12.652444018029	-7.30222034694271	-9.64975976656295	179.431343300213	-46.7056260822045	168.330440760594	-21.7947822668714	-22.2691136841597	
2503000000.00005	-12.6586012332339	-8.15319962218277	-9.65276221761572	177.125710940213	-46.3659024379713	167.422027182937	-21.857069517919	-21.2330904460752	
2503333333.33338	-12.6527197986296	-8.95046360179982	-9.6617282429253	174.834859508742	-46.6440031740634	163.952850216844	-21.9236896307648	-20.0635292270352	
2503666666.66672	-12.6462428957803	-9.80959373902423	-9.66713923997525	172.592041623968	-46.5251312485488	159.684053693388	-21.9799464189374	-19.0461870363304	
2504000000.00005	-12.639917561311	-10.6364940769765	-9.67557107865605	170.259395943635	-46.4523177326237	159.237204266569	-22.0376666439545	-17.7583205060473	
2504333333.33338	-12.6290055437896	-11.5061744536465	-9.68111771840035	168.016191198348	-46.5370904530698	155.672581479456	-22.0859768522326	-16.3504691475994	
2504666666.66672	-12.6250815451769	-12.2883257653073	-9.68387638762471	165.741268822263	-46.3657016286111	153.603941603421	-22.1406416878125	-15.0350808557705	
2505000000.00005	-12.612898191676	-13.1716081692953	-9.69258999024406	163.44768312571	-46.4325838127683	151.598198984054	-22.1559382552727	-13.6015478841156	
2505333333.33338	-12.5949598631961	-13.9694012325703	-9.70290987891053	161.175922521781	-46.5776777045993	149.454195703905	-22.197001060576	-12.156873355774	
2505666666.66672	-12.5844147371941	-14.8316772541313	-9.7158150851281	158.922458197183	-46.3757820127949	147.523569659894	-22.2235463904075	-10.6150343922819	
2506000000.00005	-12.5745093245263	-15.7218470080415	-9.72343972178919	156.611983535792	-46.798644807987	146.197931917461	-22.223308280065	-9.24181708784376	
2506333333.33338	-12.5583036128572	-16.4105856750788	-9.73783004834203	154.337452203733	-46.8074569317531	142.337202600849	-22.2331384525101	-7.88837338084465	
2506666666.66672	-12.5328907987284	-17.2828190742205	-9.74220012804185	152.079656356872	-46.3696972854596	140.559583554411	-22.2170464619819	-6.25574287697743	
2507000000.00005	-12.5264109976606	-18.0806212931158	-9.75705366582499	149.785519116513	-46.5969599906583	137.14173357944	-22.20165718878	-4.69163858687433	
2507333333.33338	-12.5065022718704	-18.926247689525	-9.76513011988392	147.551759778866	-46.7285577433013	136.092580128545	-22.1663938050268	-3.19817984740891	
2507666666.66672	-12.4870137435418	-19.7377046695656	-9.78135973900918	145.283517925858	-46.7044222593678	133.998313125041	-22.1255279932532	-1.84044094959797	
2508000000.00005	-12.4669397905518	-20.5597728744783	-9.78489477639578	142.985490547032	-46.4683182926998	130.766807609386	-22.0790229364394	-0.226728903703907	
2508333333.33338	-12.445282707527	-21.2763062203047	-9.79985477861847	140.743339584191	-46.337657474071	129.429468447998	-22.0495170870307	1.17342210839047	
2508666666.66672	-12.4284265152965	-22.1052261237211	-9.81279855092145	138.469511542917	-46.520652272711	127.044704858268	-21.9854572312154	2.8049467491409	
2509000000.00005	-12.4010140186408	-22.8391183926448	-9.8278498846841	136.232220111293	-46.5101893406852	124.755355088305	-21.8537235550276	4.25799004613128	
2509333333.33339	-12.3814899406366	-23.5844828377002	-9.84170376433409	133.970259445645	-46.5482981515669	120.89626659083	-21.8066957897123	5.49503163997025	
2509666666.66672	-12.360307289772	-24.3011938113573	-9.85154119584655	131.710899110013	-46.4744215646591	119.82419273325	-21.7087422460778	6.79178583160573	
2510000000.00005	-12.3450137998366	-25.0639389239341	-9.8638692922439	129.407937523763	-46.6664018365673	116.921407734656	-21.6081591527362	8.16777454129955	
2510333333.33339	-12.3174264132877	-25.8121181871046	-9.88014573513827	127.18556465282	-46.7333830903436	114.913040188932	-21.5131856864978	9.33980128968264	
2510666666.66672	-12.2994724216435	-26.5266076767013	-9.89218971755483	124.944063834915	-46.2985620028857	113.79002759133	-21.4135994597021	10.6461522354316	
2511000000.00005	-12.2760174904859	-27.191661203125	-9.90033931078901	122.693914762055	-46.4726036211454	111.64162934112	-21.2931744368948	11.6165541824126	
2511333333.33339	-12.2560208321982	-27.8457235873856	-9.91556127495634	120.419764715395	-46.6094991014349	109.595283764826	-21.1974531649431	12.6389722684223	
2511666666.66672	-12.2387144766258	-28.5058361568163	-9.92599291529015	118.170208499766	-46.8007170293092	106.6753258091	-21.0945602050745	13.7310976578742	
2512000000.00005	-12.219968259536	-29.1963081534337	-9.94379128669688	115.96184401182	-46.9019961848142	105.154956235322	-20.9727824117907	14.5892733596781	
2512333333.33339	-12.1975723975908	-29.8906621313842	-9.95795894737648	113.690564521978	-46.5668310927972	100.608621801702	-20.8573661626766	15.3553182539625	
2512666666.66672	-12.1844847867497	-30.490036310781	-9.97108541070652	111.419876653435	-46.4853552193101	99.4142145712004	-20.7563207981114	16.356064272662	
2513000000.00005	-12.1646506442137	-31.0899811469122	-9.97970236581576	109.160286043167	-46.5243418785312	98.5665287598233	-20.6430469637811	16.9960903430826	
2513333333.33339	-12.1421330339288	-31.6983233667053	-10.002965917522	106.961426785714	-46.7213707516099	94.6897434585737	-20.5325822976797	17.6983262258549	
2513666666.66672	-12.1301276618856	-32.3012472109848	-10.0099637472693	104.681171920857	-46.5821126948938	92.5674786828428	-20.4129792650948	18.4331435262248	
2514000000.00005	-12.1254315339777	-32.8801220150583	-10.0223328215138	102.453960149288	-46.6823747428849	91.5025247691194	-20.3052038896825	18.8532846920429	
2514333333.33339	-12.1109038452443	-33.4297156500907	-10.0323789299462	100.180203940319	-46.8463689272531	86.6929836176404	-20.2008691641951	19.341423292786	
2514666666.66672	-12.0902841626604	-34.0158576704105	-10.0449783762388	97.9198985044604	-46.6118755545835	85.6456282612144	-20.1043165920513	19.8850531304631	
2515000000.00005	-12.087235846531	-34.5391234096412	-10.0649112045251	95.6962785995626	-46.8327742706194	83.9819290376855	-20.0235488820996	20.3048819999812	
2515333333.33339	-12.07793650769	-35.0511220371723	-10.072377217918	93.4589400763325	-46.8242241338256	81.0757465249221	-19.9103710277488	20.7486449730807	
2515666666.66672	-12.0761480171239	-35.5464391266754	-10.0881326958688	91.1484946186512	-46.6029246304569	80.6324583311465	-19.833056545583	21.0804829394228	
2516000000.00006	-12.0670165701424	-36.0556409669217	-10.0979098627751	88.9329143801438	-46.8232983350022	76.0881124629352	-19.7510847926534	21.329468806972	
2516333333.33339	-12.0664362351358	-36.5415981140475	-10.1071160143413	86.7049689833864	-46.9324145183322	75.9036738772033	-19.6527010869286	21.4025911883024	
2516666666.66672	-12.0652735812418	-36.9491122326715	-10.1132095191112	84.4948043041243	-46.6750976650714	71.2469224808671	-19.5896209743474	21.5217956493788	
2517000000.00006	-12.0636632356739	-37.4027550958589	-10.1313797890803	82.1838528953284	-46.7547437216022	69.8968319246235	-19.5319103726824	21.8507618940833	
2517333333.33339	-12.0722775164674	-37.8015270906384	-10.1365393574915	79.951494341554	-46.9071164236444	67.5923851066755	-19.456705519451	22.0148293293644	
2517666666.66672	-12.0759641274472	-38.2409038937093	-10.1527496289777	77.6735585740521	-46.6003271036698	68.1324870888767	-19.4102636719614	21.8317149227859	
2518000000.00006	-12.0775226545849	-38.6727961453526	-10.1623505519973	75.4589471548746	-46.9932308909984	63.7328323134274	-19.3519232776697	21.880567486088	
2518333333.33339	-12.0802064878811	-38.9940599265756	-10.1754653508324	73.1864935670917	-46.9554027499491	61.3774540837444	-19.3108705427192	21.8460739447446	
2518666666.66672	-12.0946666451248	-39.3547015219822	-10.183671466829	70.9452120082947	-46.9039845106621	59.8094431773765	-19.260623521389	21.8573186433394	
2519000000.00006	-12.1067894291002	-39.6731408194351	-10.193798047055	68.7130768615248	-47.0461924020226	56.9145004464637	-19.2521083352766	21.8239094190593	
2519333333.33339	-12.1102877730291	-39.9721059313689	-10.197505663328	66.4163560450964	-47.1872949671612	55.6161599886107	-19.2512312055728	21.6661990766043	
2519666666.66672	-12.1267063402753	-40.2842687704401	-10.2049036618893	64.1876852259513	-46.8726420909996	54.9875255355088	-19.2004121323896	21.5622103436494	
2520000000.00006	-12.1496629150762	-40.5113702387395	-10.2156513694193	61.9411923199703	-46.9049032574067	50.9884822622919	-19.2067518726512	21.3680306526897	
2520333333.33339	-12.1634039889046	-40.744965462886	-10.2264763694356	59.7167495590066	-47.3011669082879	47.7266383079545	-19.1705073517293	21.1154108846995	
2520666666.66672	-12.187992520855	-41.0534917602761	-10.2300764912903	57.462816949323	-47.2340070024002	44.7682721333829	-19.2116162359075	20.7648447811421	
2521000000.00006	-12.1970454563094	-41.2621607041327	-10.2386093408129	55.1868181359062	-46.6972975370351	43.8731766139888	-19.2225016047172	20.675163051454	
2521333333.33339	-12.2236058429172	-41.5279307760927	-10.2520080590142	52.9410157520017	-47.1256131115281	40.5044718822915	-19.2295399539858	20.3875181964112	
2521666666.66672	-12.2405613103541	-41.7009624236052	-10.2550937451254	50.6989838283363	-46.9145188973102	38.9013703881427	-19.2503288216803	19.8860647485094	
2522000000.00006	-12.2646445739694	-41.8972971386206	-10.2604027328959	48.469208577352	-46.8400015986713	39.4719053783782	-19.2835182794185	19.6975138394013	
2522333333.33339	-12.2961259136508	-42.0395131657755	-10.2649829051136	46.184701060592	-47.226816708999	33.7316299150371	-19.3237470817686	19.3387356918225	
2522666666.66673	-12.3147460764258	-42.2591356684487	-10.2760723508339	43.943834010875	-46.8562948968787	33.3621002043253	-19.3600078060969	18.9288557471195	
2523000000.00006	-12.3445519223726	-42.3634856862608	-10.2811879556573	41.6948437037388	-46.9064411060675	29.8122788915691	-19.4117446510742	18.4803323961002	
2523333333.33339	-12.3561558581673	-42.5031334098507	-10.2926874636062	39.4823115303112	-46.8163039421511	29.5018855278496	-19.4756326712549	18.0403785904695	
2523666666.66673	-12.3861452862799	-42.649348623526	-10.2924850082954	37.2142292866855	-46.7496542146295	26.0983974854202	-19.5393302940382	17.4598183981265	
2524000000.00006	-12.4176411822928	-42.67204243719	-10.3045268357736	34.9963706244899	-46.9829486726476	24.4516701967715	-19.607372194046	17.039568560805	
2524333333.33339	-12.4530253713729	-42.7598459804706	-10.304962368908	32.7870832116964	-47.1093214436991	23.0890755826203	-19.685690419488	16.5789489597168	
2524666666.66673	-12.4756148892845	-42.9046458572945	-10.3109781327075	30.5253086804699	-47.2097119971036	20.2156018620198	-19.7676824340729	16.0032346295055	
2525000000.00006	-12.5031016564339	-42.9495314056539	-10.315366138553	28.2931866204735	-47.246294452218	16.072724875776	-19.8886757258216	15.3132392046399	
2525333333.33339	-12.5373946533962	-42.9782309938788	-10.3175466136678	26.0668230894749	-46.9760121564383	15.1088887740765	-19.956265726016	14.8368051805387	
2525666666.66673	-12.5739903512979	-43.1387887020118	-10.3224100969022	23.8795296181643	-47.2010135533178	12.8576023141452	-20.063833103662	14.1167976868402	
2526000000.00006	-12.6061696593715	-43.1259651926775	-10.321913124543	21.5874995757128	-46.8599960851268	9.80684454654665	-20.1870750402746	13.5409054828319	
2526333333.33339	-12.6336125386607	-43.2137549093284	-10.3289178794103	19.3888106841948	-46.9637968712606	8.71114346109383	-20.293083006364	12.8748359305287	
2526666666.66673	-12.6632490541851	-43.2558091443208	-10.3358799789986	17.1524996704958	-46.9957908972016	7.37620024071468	-20.4411497110879	12.2034579625361	
2527000000.00006	-12.7078572419112	-43.3332094882275	-10.3203410284254	14.9400372446127	-47.0402436260548	3.58209345098134	-20.5785015261671	11.4039144884355	
2527333333.33339	-12.7388094570051	-43.3883845106511	-10.3289476927944	12.7286561411719	-47.0250568283255	1.29776702888304	-20.7417088238782	10.5868072811437	
2527666666.66673	-12.7669930631496	-43.4103777552424	-10.3296425658776	10.531377230922	-47.0737031670264	-0.700544698037249	-20.892109434029	9.91945810044035	
2528000000.00006	-12.8226225371981	-43.5422209097966	-10.328057167535	8.27523685279929	-46.9840495255508	-2.63393639973745	-21.0488325930922	9.06978158958642	
2528333333.33339	-12.8625400891158	-43.5681590218059	-10.3281958719465	6.02149208273641	-47.0395076263006	-4.93507876260772	-21.2165991352311	8.26154690000371	
2528666666.66673	-12.9129806529171	-43.6157745602151	-10.3199371500881	3.80571380060475	-46.9571100014388	-8.26312202501648	-21.3877170033838	7.43573398974952	
2529000000.00006	-12.9477777541071	-43.6791200623803	-10.3139576790719	1.62432836655498	-47.0399809092826	-9.70751406329451	-21.5741120854187	6.46774079882185	
2529333333.3334	-12.9961486092854	-43.8371237891197	-10.3141533655164	-0.59739402298439	-47.1201816806118	-12.0618678777994	-21.7658142813893	5.79740354794662	
2529666666.66673	-13.0491653175389	-43.8337754723619	-10.3095298666749	-2.86035533359229	-46.9107600637874	-14.8840955162937	-21.9785239869135	4.63854203032022	
2530000000.00006	-13.0799617413013	-43.9716354142117	-10.2972733307091	-5.0605626926658	-46.7209460487378	-16.87508043901	-22.1755516547737	3.65727241686404	
2530333333.3334	-13.1378516207787	-44.1399857962396	-10.2952007787674	-7.27769292639449	-46.9444340077385	-18.1827994218943	-22.3815798753319	2.73615883359733	
2530666666.66673	-13.1925092281844	-44.2019175738631	-10.2834452037081	-9.4903550486208	-46.9542780266323	-20.0646507075927	-22.5809839190263	1.69667872952271	
2531000000.00006	-13.2501696556672	-44.3750621667728	-10.2788653968129	-11.7148121740844	-46.8851452362877	-21.733034565348	-22.8299333761628	0.49077903297142	
2531333333.3334	-13.3257388036288	-44.4559107470317	-10.26447657059	-13.938838406077	-46.9705695185405	-25.6168151484675	-23.0630855738281	-0.572845744700963	
2531666666.66673	-13.3744884481565	-44.6166939474976	-10.2566976169099	-16.1819477986704	-46.7682977496145	-29.0423606518509	-23.3194843772651	-1.6354859598359	
2532000000.00006	-13.4314296212978	-44.7919599988129	-10.245204462217	-18.4201084736659	-46.9061594745502	-30.2083865900544	-23.5635009297347	-2.9564067290679	
2532333333.3334	-13.4952202970896	-44.9945319138342	-10.2313276557606	-20.6349317181496	-47.1623915863144	-31.8299467777386	-23.7986291268741	-4.12965356864382	
2532666666.66673	-13.5607160713989	-45.0808330028343	-10.2239090826724	-22.8669915667789	-46.7187259674215	-33.7227781398298	-24.1147121781178	-5.53861498092491	
2533000000.00006	-13.6255132925373	-45.3106858257695	-10.2138147269962	-25.159369714106	-47.0214993149575	-36.1535900356826	-24.3629579884843	-6.7819902213928	
2533333333.3334	-13.6985722730707	-45.4872363610446	-10.2022061162451	-27.3845521666667	-46.9594603835926	-40.2607572067854	-24.6146784486673	-8.03408634942314	
2533666666.66673	-13.773453780634	-45.6867298784503	-10.1874823168716	-29.6436155265771	-47.0088057082183	-40.279172230785	-24.8986815280285	-9.47870303525387	
2534000000.00006	-13.8284600567949	-45.7723821488183	-10.1832788006184	-31.8752877734811	-47.0550115166485	-43.3597702711683	-25.18554521134	-10.6057466060011	
2534333333.3334	-13.9223568818897	-46.1140310074981	-10.1681831872476	-34.1533404003508	-47.1874854484447	-46.1699566289114	-25.5022073909348	-12.3759014976432	
2534666666.66673	-14.0082641022742	-46.3053569724351	-10.1542539069625	-36.3876526257946	-46.8596408842499	-47.3652516441226	-25.7972598862508	-13.4821676069385	
2535000000.00006	-14.0962815345295	-46.4748162335859	-10.1486319507242	-38.6563726036582	-46.9098421907331	-49.4393714194652	-26.0962350186263	-15.2058643378268	
2535333333.3334	-14.1725079434058	-46.8490200312979	-10.1340042809288	-40.8988064050954	-46.6959607256073	-50.7803803734728	-26.3869638885217	-16.8388644591117	
2535666666.66673	-14.2597436214679	-46.9956899333135	-10.1233731826547	-43.2067564066391	-46.9592418084835	-54.6647753281598	-26.6858453325836	-18.308829023427	
2536000000.00006	-14.3570517498767	-47.338071130417	-10.1133067486075	-45.4782796269393	-46.9786652889206	-57.3235309817281	-27.033213947703	-20.0448456258733	
2536333333.3334	-14.4527575929808	-47.666358203515	-10.1012609167827	-47.7563369885211	-46.633043606929	-58.6467693743495	-27.3250017393555	-21.5241266772414	
2536666666.66673	-14.5501639444757	-48.0240152035212	-10.0937126632187	-50.015308714504	-46.6573039336027	-61.9557663991346	-27.6320806881726	-23.17894326491	
2537000000.00007	-14.6316271509188	-48.1412120461856	-10.0847551360406	-52.2875220643751	-47.0090861392393	-62.2900046320601	-27.9760040727409	-25.0593435748271	
2537333333.3334	-14.7439218367026	-48.5268092834112	-10.0741509627971	-54.6006872457145	-46.8603194520199	-65.9046168684089	-28.3148826704443	-26.6674106162132	
2537666666.66673	-14.8456720270278	-48.7597931849511	-10.0696983109613	-56.842531855025	-46.6804319925174	-67.2513878512938	-28.6032156555939	-28.1845781054738	
2538000000.00007	-14.9506094734544	-49.2712594797843	-10.0605835782808	-59.1420500934319	-46.7318563180485	-68.8345386701489	-28.8772185561497	-29.9183183340916	
2538333333.3334	-15.0608609313723	-49.4795201827239	-10.0507723450195	-61.418502307099	-46.7559113320389	-71.0543297694631	-29.2057678651821	-31.7721952856902	
2538666666.66673	-15.1469202720429	-49.7796618609364	-10.0461071125514	-63.7146765630616	-46.8966040425134	-73.8794906918671	-29.5233972921416	-33.3098178207182	
2539000000.00007	-15.2853291445188	-50.0623597519941	-10.0311939273977	-66.0029869698832	-46.5326699606141	-76.689248756497	-29.8487031849325	-35.0598805609917	
2539333333.3334	-15.4023266529945	-50.5173581205413	-10.0345115929864	-68.2792518709771	-46.6117891526149	-77.5103117624311	-30.1463185770297	-36.5374290633823	
2539666666.66673	-15.5309315445335	-50.9419199723923	-10.0234346899002	-70.591624423552	-47.0777305514797	-80.2161562497298	-30.5069581087112	-38.3502138331457	
2540000000.00007	-15.6492851752548	-51.302630484942	-10.0216165599485	-72.874198691847	-46.791503693423	-83.4017326179281	-30.7504711759983	-39.7324205153136	
2540333333.3334	-15.7610093691132	-51.8476389489678	-10.0136656122764	-75.2206169668592	-46.6746616506362	-84.0656075534819	-31.0651462456336	-41.0711166734383	
2540666666.66673	-15.8935120073061	-52.0927544083371	-10.0073690262556	-77.4762808553194	-46.6736089976884	-88.4129211287333	-31.4077580412214	-41.9689430980324	
2541000000.00007	-16.0277644819481	-52.6316531050917	-10.003594614714	-79.8017971841059	-46.7282206032295	-89.835003867668	-31.6916302168285	-43.8605097039923	
2541333333.3334	-16.1468481799112	-53.0542169410974	-9.9953163146248	-82.0708654137204	-46.7127632121812	-92.1433001987553	-31.9827340178326	-44.5094720643072	
2541666666.66673	-16.2628023275793	-53.6322547308901	-9.99043827791898	-84.386288535858	-46.7117828342194	-92.8102035059856	-32.2213399007956	-45.293101957711	
2542000000.00007	-16.4121219306521	-54.0941604453234	-9.99436064714434	-86.6530903785573	-46.5651323408923	-95.9927242414509	-32.4979838920006	-46.3904733413245	
2542333333.3334	-16.5459020555242	-54.5251182329894	-9.99399758365012	-88.964529767811	-46.7569883559002	-97.893904242448	-32.8469128273257	-46.6901090039727	
2542666666.66673	-16.6769281754881	-55.0404206651189	-9.99256006630299	-91.2616856414497	-46.8966487493438	-100.073422783563	-33.0213139203427	-47.3213555283801	
2543000000.00007	-16.7988465534284	-55.5363108477182	-9.98126943539017	-93.5813821289522	-46.8353460484302	-104.300223267446	-33.3143999050003	-47.3205733349295	
2543333333.3334	-16.9702001545331	-56.12403969521	-9.98876228344746	-95.8596204078357	-46.763168969548	-105.305697601506	-33.4746081577804	-46.5883133514005	
2543666666.66674	-17.1076245886616	-56.5603848354669	-9.98453492022073	-98.108484344411	-46.9879643623072	-106.40100785451	-33.8078555979442	-46.7677593397522	
2544000000.00007	-17.239761464717	-57.2659317626674	-9.9869413486398	-100.416285086172	-46.7948718381079	-110.79547599154	-33.98314531686	-45.4207913638038	
2544333333.3334	-17.3725941979521	-57.9136991206406	-9.982399248408	-102.753787919983	-46.7936821337379	-112.007267880215	-34.1942780209014	-44.5769119776022	
2544666666.66674	-17.5097477327449	-58.5337229006637	-9.98553602305486	-105.014784753431	-46.7828272405164	-116.584074427936	-34.2678813734402	-43.4459410381367	
2545000000.00007	-17.671863683635	-59.2617887053311	-9.98834853754596	-107.301169579213	-46.7968198465531	-116.846503578935	-34.5172157858104	-41.9519870565525	
2545333333.3334	-17.7803883544155	-59.7732235931948	-9.98601960282167	-109.564851492619	-46.7810386755849	-119.592144702693	-34.5911303471819	-39.7633637056696	
2545666666.66674	-17.9339013713028	-60.5230981937525	-9.9885897350798	-111.909202248244	-46.559335366141	-121.678836015556	-34.6940561282521	-37.570467652753	
2546000000.00007	-18.0725668460415	-61.0244208923147	-9.99445120523254	-114.142087456761	-46.5900018902856	-124.444026643519	-34.7406648845143	-34.9259584245361	
2546333333.3334	-18.2019884148901	-61.8745547448142	-9.99801723934787	-116.437764322876	-46.6739904602356	-126.862770889949	-34.7110073053131	-32.3002976924416	
2546666666.66674	-18.3283833335837	-62.6995749144228	-9.99862669403824	-118.717321122582	-46.6765573071367	-127.156152550309	-34.6141600069757	-29.5553569259596	
2547000000.00007	-18.4579202232204	-63.3724131828495	-9.999039026275	-120.970768335502	-46.6008021281451	-129.315575662127	-34.4022478713449	-26.8169694372634	
2547333333.3334	-18.6060998200623	-64.129242460988	-9.99701832836182	-123.251086148565	-46.4861597540888	-131.552514720691	-34.1491647745282	-24.1454069323017	
2547666666.66674	-18.7260287562309	-64.9830776569174	-9.99703471221008	-125.525751824123	-46.4085869640218	-135.759933657088	-33.8549535057833	-20.4861194876928	
2548000000.00007	-18.8580502125564	-65.8373718174079	-10.0078350810702	-127.787062864155	-46.7868029644202	-138.792420073048	-33.612135667631	-18.9284141845479	
2548333333.3334	-18.9660006640467	-66.7594267840316	-10.0105278248219	-130.040654189135	-46.8255267630655	-139.558241616232	-33.2889461293314	-16.0547247830334	
2548666666.66674	-19.0768133479961	-67.480045719485	-10.0062886557675	-132.269563258427	-46.7941000672601	-142.333699542279	-32.9325835953484	-13.3666851780409	
2549000000.00007	-19.2019394872096	-68.5317848955002	-10.0101135325322	-134.564673323647	-46.5098668691755	-143.577985284595	-32.4881221829679	-11.2772585255097	
2549333333.3334	-19.2935915131672	-69.43365731072	-10.0143691400131	-136.79504319327	-46.9214306046236	-145.113611949308	-32.0832602981177	-9.58086067920182	
2549666666.66674	-19.4165220939177	-70.4383360085083	-10.0110487552116	-139.041388241637	-47.0438453259204	-150.378427164917	-31.6361865019873	-7.60976764482934	
2550000000.00007	-19.506379259893	-71.2948563978107	-10.011838462473	-141.296256146923	-46.6842922364149	-151.309923914675	-31.269286579994	-5.75604339592941	
2550333333.33341	-19.5810690108832	-72.518262430235	-10.0083678885504	-143.519439636258	-46.7428613830873	-154.002520408449	-30.7957256242991	-4.26989065143607	
2550666666.66674	-19.6750562866544	-73.5348070306828	-10.0093739869061	-145.785451556641	-46.5557159508532	-154.810707909163	-30.3666048853681	-3.38223412554657	
2551000000.00007	-19.7596303752067	-74.674371791689	-10.0135085032348	-148.037398119142	-46.7428343841368	-160.144056393423	-29.8495519402531	-2.12168869559752	
2551333333.33341	-19.8461351675932	-75.7709673683832	-10.0183005841273	-150.262170333012	-46.5913300079247	-161.499820630754	-29.4537271973286	-0.917812731830227	
2551666666.66674	-19.9242898623595	-76.8083329926409	-10.0088143239214	-152.479711265748	-46.6048194497748	-162.852087388393	-28.9688908402887	-0.0429537555463926	
2552000000.00007	-19.9618376199851	-78.0404502707937	-10.0097358017229	-154.707893487723	-46.8171738587282	-163.230863598256	-28.5216013904426	0.219921022479412	
2552333333.33341	-20.0293768373672	-79.1972844714498	-10.0079854319124	-156.95128143932	-46.3637051031273	-166.908162390292	-28.0985231465869	1.16255594164308	
2552666666.66674	-20.0858513066761	-80.2712914591647	-10.0091632709689	-159.190026090711	-46.4746632649373	-169.293409882422	-27.6921881058893	1.90875371141669	
2553000000.00007	-20.1175745040678	-81.4581377209551	-10.0075827785706	-161.418450549461	-46.4526077417644	-172.077184029478	-27.3036011053399	2.3637401490844	
2553333333.33341	-20.1545444424571	-82.4772568680511	-10.0043974614294	-163.666645503179	-46.8450523683795	-172.252208435052	-26.9304435245052	2.83432487182208	
2553666666.66674	-20.171873841059	-83.7281191404252	-10.0011506532214	-165.882174548705	-46.6119360181436	-176.854270843885	-26.5474175125413	3.04317841826145	
2554000000.00007	-20.1857961896555	-84.8648675653251	-9.99425972115419	-168.1394096044	-46.2154591744604	-177.989814573619	-26.1952266089708	3.23097369804767	
2554333333.33341	-20.2042259353345	-85.9875857981238	-9.99406370354331	-170.383755640595	-46.7006723367051	178.152277290242	-25.8095768248971	3.54339960847103	
2554666666.66674	-20.2010974494943	-87.1655355149166	-9.98165553028313	-172.591808017191	-46.3666756861139	177.885195966954	-25.4346537364738	3.86515858387702	
2555000000.00007	-20.1717886794173	-88.1222705591379	-9.99215090857381	-174.819105892756	-46.6095058760855	173.376330792139	-25.1277586497977	3.96560922979291	
2555333333.33341	-20.1669376016373	-89.4752014322199	-9.97906157540615	-177.113520038866	-46.4670073465066	171.24599314545	-24.7958105400039	4.04199577656479	
2555666666.66674	-20.1543858730399	-90.4034392043663	-9.96847137343444	-179.317994707704	-46.4472321221194	170.08481345847	-24.4882500064857	4.00099860258748	
2556000000.00007	-20.1194142522558	-91.4993991357848	-9.96448949346233	178.402487818883	-46.7321677842802	166.937699615822	-24.1925105268718	4.13630129897829	
2556333333.33341	-20.0881817756114	-92.4532295430663	-9.97049308128989	176.173106868928	-46.4080836493694	165.425024308988	-23.8988847319004	4.17415325235116	
2556666666.66674	-20.0249208385307	-93.6479187814062	-9.95522559484951	173.923037906679	-46.3951562845826	162.299627461372	-23.6097031426063	4.21628500929276	
2557000000.00007	-19.9635991849472	-94.4927001810534	-9.95277245191864	171.649772548217	-46.3936640736346	160.745786492979	-23.3041297335674	4.20313980977652	
2557333333.33341	-19.9400744001702	-95.592903133383	-9.94843907343902	169.410406458875	-46.5962281236338	156.719967257979	-23.0464928645682	4.25143433366111	
2557666666.66674	-19.8597386398789	-96.6320801268709	-9.93835459886026	167.143683221081	-46.2751856818257	155.852504452034	-22.8168153632449	4.23452707923927	
2558000000.00008	-19.7971260385528	-97.4272528520591	-9.94054254782062	164.835047811941	-46.7137076261664	155.586354203308	-22.5701979800709	4.16033059823281	
2558333333.33341	-19.7157932633528	-98.4815133748436	-9.92981596849289	162.627207438573	-46.5187022881308	150.49364984675	-22.3271967215143	4.1434587590571	
2558666666.66674	-19.6067733117465	-99.2225371131878	-9.92606457910795	160.332415605357	-46.3972651491699	148.604726125248	-22.1003023592731	3.93040318916749	
2559000000.00008	-19.5529876515708	-100.162856356279	-9.91427665057672	158.017548546328	-46.3919258744448	146.790804101944	-21.8912490658092	4.12552280789838	
2559333333.33341	-19.4524602104599	-101.036820300338	-9.90740411474091	155.79286534437	-46.4608281421176	145.290143055585	-21.6780918816397	4.06357683294456	
2559666666.66674	-19.355115121804	-101.786640231137	-9.90346357563718	153.448313677291	-46.1527300649547	141.431316509071	-21.4696394821825	3.89522038373134	
2560000000.00008	-19.2450961711956	-102.681766446858	-9.89658117908038	151.169019162011	-46.1503434863608	137.847968113289	-21.2842638382424	3.79407859785838	
2560333333.33341	-19.1809396321456	-103.375746253225	-9.89250184608622	148.87022040491	-46.45932105514	137.252359909877	-21.1140394330259	3.92693599004534	
2560666666.66674	-19.0721957349437	-104.155970406351	-9.8896260343128	146.596158375804	-46.5903383391266	133.963451428459	-20.9190724183463	3.7884087439298	
2561000000.00008	-18.9614059144061	-104.795257674096	-9.88446927377177	144.262521026428	-46.205393988494	133.891354968039	-20.7560232013435	3.72726276783051	
2561333333.33341	-18.858106579712	-105.458107738658	-9.88212249224597	141.96621405106	-46.2862178059652	131.159350686138	-20.5889336756606	3.6641963782954	
2561666666.66674	-18.7591310234163	-106.158335657255	-9.87211202033409	139.642886875351	-46.3660978488585	128.841887392791	-20.4264200204833	3.71662725327833	
2562000000.00008	-18.6443332563809	-106.776045569135	-9.87062801339448	137.330257180172	-46.0906157068539	125.828354313303	-20.2879221601947	3.42407576787738	
2562333333.33341	-18.5489412633589	-107.352723290519	-9.8704398012725	134.972587165649	-46.3950723590537	123.670170957452	-20.1502142734112	3.5552955940881	
2562666666.66674	-18.4281933028779	-108.046958667724	-9.86851632583297	132.68071178307	-46.3342912028807	121.087694563583	-20.0168069524812	3.40895536347824	
2563000000.00008	-18.3384725459927	-108.583885276698	-9.86180603027235	130.347119773661	-46.3778032960247	118.600672338181	-19.8830701215925	3.33266316320378	
2563333333.33341	-18.2378243120927	-109.239439646857	-9.86354912793728	127.970088855226	-46.6014774200552	116.01456720359	-19.7359695202594	3.47257688890544	
2563666666.66674	-18.1180081386513	-109.751820836132	-9.86017521200947	125.637737038009	-46.0638163313617	113.390235399811	-19.6350920985662	3.43917103564934	
2564000000.00008	-18.0235929522293	-110.237328966361	-9.86340466810957	123.321844427988	-46.0161289152053	110.499421419604	-19.5218298995819	3.42392450098928	
2564333333.33341	-17.9286115042612	-110.79832493565	-9.85864502270746	120.933125848265	-46.1878478887458	107.592320377736	-19.4157993002555	3.38021906969823	
2564666666.66675	-17.8183156943283	-111.373559336329	-9.85743074049821	118.576471122189	-46.1199799427143	107.167836942487	-19.3255451975952	3.34532924174965	
2565000000.00008	-17.710198084172	-111.825960822791	-9.85771308775522	116.230100464716	-46.3874968073141	106.445308482311	-19.2083196613532	3.42822411853342	
2565333333.33341	-17.6361157740206	-112.268106753897	-9.86030576790058	113.87096337944	-46.1523952535532	101.766439137397	-19.1353779694459	3.34169011114142	
2565666666.66675	-17.531648163858	-112.778950688205	-9.85997290605614	111.486447493269	-46.6080226965759	98.3391206474792	-19.062570286711	3.42713510098604	
2566000000.00008	-17.4670137649314	-113.271478325822	-9.86346686958058	109.155684603908	-46.1932372473899	97.3239727398835	-18.9552451439526	3.4275375323905	
2566333333.33341	-17.3595761062809	-113.739676831261	-9.85786590443437	106.788478088231	-46.0147918258794	95.344452060078	-18.9090746375238	3.47989071064875	
2566666666.66675	-17.2924354431413	-114.244126573032	-9.86811786601705	104.4233566948	-46.3894469249446	93.3473659443501	-18.8601944988431	3.6013578912589	
2567000000.00008	-17.2206163599582	-114.773970525732	-9.87328457892216	102.073516760671	-46.1598058229413	90.2487172531367	-18.7671224726132	3.60371820731881	
2567333333.33341	-17.1470086459285	-115.137097588346	-9.8757154841794	99.6939341208979	-46.1694136712755	89.8234457063284	-18.7307912305588	3.64204463005037	
2567666666.66675	-17.0765012504499	-115.535469677166	-9.88363663406856	97.2804718112717	-46.2249383539256	86.5801825587718	-18.660371611456	4.04418629121773	
2568000000.00008	-17.0070720945266	-115.998948474509	-9.88843295550168	94.9223098055993	-46.2207250253713	81.5993634603102	-18.5974641539101	4.01920224962499	
2568333333.33341	-16.9551582134128	-116.459081752387	-9.89339925608383	92.5508026896364	-46.1814987615671	80.9049516407252	-18.5655433186492	4.04028677171287	
2568666666.66675	-16.8932944688158	-116.810464717973	-9.89507583297885	90.181544073173	-46.3705445083327	77.5448422033133	-18.5378049998355	4.11932016476923	
2569000000.00008	-16.8472361619331	-117.273199271228	-9.90963085593588	87.8078681089232	-46.4219150864842	76.5213676648926	-18.4823239874395	4.25707578090878	
2569333333.33341	-16.7920624130141	-117.610383424411	-9.91015305860672	85.4626244825173	-46.4658571611891	76.1133788864201	-18.4401476987265	4.42126031296115	
2569666666.66675	-16.7501648252545	-118.060097000094	-9.92512695569243	83.0434925534895	-46.1881981851053	71.8656015652825	-18.4254164130054	4.36266505007441	
2570000000.00008	-16.7057952271775	-118.379356350539	-9.92364575429917	80.7347373731348	-46.2275281743104	69.7920277338116	-18.3936827760018	4.75382350255879	
2570333333.33341	-16.6844605620798	-118.795937645259	-9.93080386542139	78.3685478600841	-46.1671020140199	68.4893804921526	-18.3787156754219	4.8647497625145	
2570666666.66675	-16.6410381512059	-119.117300387978	-9.93747219427414	76.0144024382104	-46.3612438853343	66.1602074500775	-18.3423846821986	5.06056665790622	
2571000000.00008	-16.6260327041861	-119.530841480529	-9.95216916733083	73.6517640211953	-46.2022558464573	62.6889255981855	-18.3244594869957	5.16210344621044	
2571333333.33342	-16.5906088198377	-119.943869448901	-9.95649301031546	71.2793715157215	-46.3432776639011	60.2591731073366	-18.3082595025502	5.42275681101997	
2571666666.66675	-16.5782143225756	-120.284781486712	-9.97477500220732	68.9097081248229	-46.4085303519873	58.0750865327093	-18.2858634326216	5.48638474619518	
2572000000.00008	-16.5741773642575	-120.592098126802	-9.98128107406431	66.6162186196496	-46.5547745905073	56.307315281209	-18.3192957917765	5.73628844358426	
2572333333.33342	-16.5683329067437	-120.926525216859	-9.99344466280289	64.2463955434586	-46.2523737527685	55.1262470987661	-18.2841195286894	5.82718070973066	
2572666666.66675	-16.5740906251714	-121.287983051778	-9.99866585138688	61.9667510994908	-46.5018568287873	52.3031546543763	-18.2910371134606	6.04263566297962	
2573000000.00008	-16.5730366012437	-121.615848106792	-10.0034959975765	59.6186937542919	-46.4007574532589	47.9878430454029	-18.2951508087179	6.35566732121163	
2573333333.33342	-16.5579669003472	-121.963142709664	-10.0162076252822	57.3182374822409	-46.2283443622955	45.7621115133767	-18.3119875916181	6.39515215640228	
2573666666.66675	-16.5887153018435	-122.262533414981	-10.0179579913112	55.0017163203172	-46.3254638887875	45.8801032529785	-18.3167808995532	6.69362685306708	
2574000000.00008	-16.5927746352763	-122.725142180985	-10.0312197756565	52.7119538990826	-46.312187833573	42.0404657079975	-18.320494967504	6.9854476294973	
2574333333.33342	-16.60720213446	-122.962421741296	-10.0323021257109	50.3828504611882	-46.5012752758411	39.6070981585747	-18.3387333665299	7.07027887705689	
2574666666.66675	-16.6244049309209	-123.22645538688	-10.0399992771365	48.0993091621781	-46.6554383357277	35.6330944638492	-18.3523055800192	7.37455486464847	
2575000000.00008	-16.6754765171579	-123.615970583263	-10.0451821477392	45.826756978839	-46.1958659669035	35.7279079181224	-18.3808586183771	7.58704846167127	
2575333333.33342	-16.6962311654522	-123.992072876007	-10.0526525300445	43.5620797871002	-46.5011335337412	33.7662581755106	-18.3946791713803	7.86932079558477	
2575666666.66675	-16.7492959150634	-124.39292338156	-10.056198912522	41.2638309626587	-46.5743544076996	29.7526047174618	-18.4083868331341	8.02187959071433	
2576000000.00008	-16.7806084698182	-124.664483792001	-10.0646704695128	38.9976410958991	-46.6596676992627	28.8479423822517	-18.4413802093415	8.21389614259815	
2576333333.33342	-16.8283300632497	-125.041885520021	-10.0661886503817	36.7279315542927	-46.4433964849954	26.5257538876492	-18.4655558195513	8.46934205496798	
2576666666.66675	-16.8802191608385	-125.330772133607	-10.0648295986484	34.4642476616381	-46.5138738960825	24.508895200777	-18.5182607942755	8.69466024385578	
2577000000.00008	-16.9629103623139	-125.797840739623	-10.0765655780935	32.1887376775989	-46.3767274750201	22.4534508354088	-18.5516091170017	8.99725539308566	
2577333333.33342	-17.0303433305456	-126.05587292168	-10.0773640427505	29.9188689439259	-46.722397737904	21.0293240427253	-18.5846507081706	9.23719642694894	
2577666666.66675	-17.0873774986477	-126.541428117122	-10.0838482447522	27.6907720176956	-46.7234076823078	17.3305975313086	-18.6277088558208	9.34861380048177	
2578000000.00008	-17.1590628869669	-127.001864036774	-10.0784333375466	25.4734802899814	-46.6204260282203	15.3152501304396	-18.6875870876678	9.4702467757009	
2578333333.33342	-17.2372716437354	-127.361923090695	-10.0804008345574	23.206513369423	-46.7034750350873	12.8218118031131	-18.7168069678677	9.7042173687746	
2578666666.66675	-17.320603608121	-127.573315125232	-10.0792065882928	20.9524585679155	-46.5752704670614	10.1229160442413	-18.7565996506824	10.0043869703109	
2579000000.00009	-17.4355102193299	-128.029017776822	-10.0814139312267	18.7512298333633	-46.7360761260558	7.0775881597031	-18.8551095609662	10.3666658533874	
2579333333.33342	-17.5339014019747	-128.527511523912	-10.0815205691589	16.4511663573621	-46.7792781302536	6.56039675391723	-18.8836813480959	10.5322419296101	
2579666666.66675	-17.6321182545861	-129.023079213808	-10.0799592701825	14.2368372932948	-46.4874632004146	5.5604465709249	-18.9303114043559	10.9249895298165	
2580000000.00009	-17.7489621297432	-129.327368989433	-10.0805454869814	11.9914851400703	-46.5844400628633	1.19933783551323	-19.0175253316272	11.0706061904689	
2580333333.33342	-17.8810802347357	-129.771910686497	-10.080232473858	9.77381580049509	-46.4492588418603	0.867748359893289	-19.0744424544029	11.4145692792551	
2580666666.66675	-18.0090636975561	-130.244907396221	-10.07606783918	7.52983559715886	-46.6663341227659	-1.11831428302954	-19.1536289395525	11.4678087823491	
2581000000.00009	-18.132095532553	-130.755053858004	-10.0692252218507	5.31006779512267	-46.7075692504835	-5.15267748735062	-19.232611588661	11.7388122399343	
2581333333.33342	-18.2714998606926	-131.208858191554	-10.0709266138189	3.09190288884256	-46.5322615558338	-7.85463329095084	-19.2993845634293	11.8857371599457	
2581666666.66675	-18.4020781717298	-131.600023909722	-10.0663213710557	0.834283236079135	-46.43247858392	-9.37317247328544	-19.3898182532257	12.1024396511449	
2582000000.00009	-18.5570724836562	-132.178735866236	-10.0603699816808	-1.43725900820354	-46.8468487008257	-13.8879624454329	-19.4752926916612	12.5205590083317	
2582333333.33342	-18.7626685195944	-132.537486890005	-10.0602622500285	-3.63895967262894	-46.6933658824438	-14.1366586301725	-19.566652411735	12.6381452079146	
2582666666.66675	-18.8751479873887	-133.170145969477	-10.0610204439375	-5.86903716717791	-46.5364004362275	-14.7461218935584	-19.6343763723701	12.889832064623	
2583000000.00009	-19.0293522999082	-133.702488985824	-10.0490581302135	-8.09597622715244	-46.5317112783986	-19.2570240111285	-19.7256358685344	13.049826917336	
2583333333.33342	-19.1948231605172	-134.21661271872	-10.0516393910097	-10.3526357663573	-46.7070047561902	-19.7271799251425	-19.8317530724426	13.4465714623674	
2583666666.66675	-19.378392812306	-134.891298737139	-10.042560017145	-12.5833960164245	-46.6721243691274	-23.9208955483605	-19.9081407019974	13.6315475169408	
2584000000.00009	-19.5831217336895	-135.467995139584	-10.0438917227265	-14.8405626120593	-46.8401996496834	-25.3470991956271	-20.0282487455009	13.9445241861182	
2584333333.33342	-19.8021422119706	-135.916107127752	-10.032200816974	-17.042273780936	-46.8194373217995	-29.1983932178331	-20.144999480854	14.1517412663314	
2584666666.66675	-19.9725852676753	-136.659804044585	-10.0310141107006	-19.3217943768608	-46.8811826491373	-29.6591972979963	-20.2509070964889	14.4732003153494	
2585000000.00009	-20.1442052811669	-137.521516303416	-10.0275492092638	-21.5469402189362	-46.6026579552241	-32.0185388175733	-20.3485733286492	14.7290835364745	
2585333333.33342	-20.3781253388559	-138.144599939977	-10.0197599237517	-23.7996188996291	-46.6445840800158	-34.4201821253067	-20.4534668962451	14.9135974041309	
2585666666.66676	-20.5558131634371	-138.848881536712	-10.0185785858179	-26.0518228935692	-46.5354832034321	-35.8838121200754	-20.5833483997404	15.2400628089955	
2586000000.00009	-20.7913349186482	-139.521819895475	-10.0135396145095	-28.3333740444914	-46.8174204885993	-37.5775618374507	-20.6896025116094	15.5118559407037	
2586333333.33342	-21.0185575913474	-140.507962751137	-10.0044023430631	-30.6083141223136	-46.6902408118961	-41.5343443617183	-20.8085256009602	15.870716585658	
2586666666.66676	-21.270268607732	-141.379733216264	-9.99810741587652	-32.8544430370851	-46.986717608937	-42.8853940577217	-20.9430856694122	16.005645486411	
2587000000.00009	-21.4838755328644	-142.233740767385	-9.9969060210622	-35.0861452219564	-46.9767742308547	-44.3687723819447	-21.0569764965739	16.3414600381614	
2587333333.33342	-21.7325750076985	-143.136659458704	-9.99735612889484	-37.3612444356377	-46.5071309218005	-47.6422611746311	-21.2151703375318	16.6354363139026	
2587666666.66676	-21.9680539599583	-144.254784607417	-9.99523857763215	-39.6806320176567	-47.0268119748393	-49.3893905238892	-21.2991184308947	16.9818428161373	
2588000000.00009	-22.2214335587073	-145.387349853459	-9.98775553941297	-41.9458540580058	-46.5585762745254	-53.9035789118979	-21.4467877834266	17.2950309706291	
2588333333.33342	-22.4969777821527	-146.627403466959	-9.98501257433641	-44.2261787735036	-46.523420731955	-54.9228503325316	-21.5793380043406	17.6415646597123	
2588666666.66676	-22.7365148367025	-147.771127844668	-9.98714300639259	-46.512686698844	-46.649074150156	-55.5951261433736	-21.7165726552077	17.9040035250235	
2589000000.00009	-22.9915612752945	-149.096769485041	-9.9793321969255	-48.7885608734547	-46.4502242741406	-59.0517667013509	-21.852203121529	18.2030145883762	
2589333333.33342	-23.2517371072872	-150.443724056219	-9.97228937506769	-51.0876429465261	-46.7355669978018	-60.2205577438714	-22.0006874615719	18.4972869851029	
2589666666.66676	-23.5045899172426	-152.194815079585	-9.97008812570723	-53.367671154155	-46.7532153468585	-62.3373926818381	-22.1253306848111	18.865533328645	
2590000000.00009	-23.7388853386914	-153.686691575171	-9.97061988826556	-55.6844863908473	-46.5873995714997	-66.6005525571471	-22.2451260208298	19.1398838252239	
2590333333.33342	-24.0207641443103	-155.358769401413	-9.97196108307464	-57.9777301731985	-46.7199705857595	-68.5151531869766	-22.3912860105054	19.6357632395993	
2590666666.66676	-24.2515974360884	-157.298392742593	-9.96868669169514	-60.2734134378787	-46.4754098538528	-70.8633786871646	-22.5275978112177	20.0048487548853	
2591000000.00009	-24.5328188756866	-159.535690326596	-9.96396948002031	-62.562130662112	-46.4688306417987	-73.8521416751596	-22.6763624105467	20.2422922008819	
2591333333.33342	-24.7654081410419	-161.444539594996	-9.96278825383854	-64.8868302626638	-46.5575034920774	-74.4836851888862	-22.7924543225142	20.7536997111547	
2591666666.66676	-25.0215982337319	-163.895368394756	-9.96398742688472	-67.2112767692973	-46.6249982058863	-75.1962323238917	-22.9075524665793	20.8898069018151	
2592000000.00009	-25.2249742477596	-166.353111051012	-9.95957151743548	-69.5329110642775	-46.6476488219088	-79.5764967409215	-23.0467227392105	21.3857265250386	
2592333333.33343	-25.413298669229	-168.825179070044	-9.95982206518299	-71.8343098067752	-46.4308804234777	-82.8275407359467	-23.2010782257807	21.7325350282593	
2592666666.66676	-25.6010919509091	-171.525252777017	-9.96356006815405	-74.1617955640636	-46.4458619479192	-85.5965253625992	-23.2948965731706	22.022159740156	
2593000000.00009	-25.7322677141685	-174.476939471489	-9.96397899299233	-76.4945433709694	-46.5536770901984	-84.8608153062794	-23.4024987674268	22.5427094044212	
2593333333.33343	-25.8817040163977	-177.671681567541	-9.96314538005766	-78.7979353838622	-46.606557537179	-88.4023233844541	-23.5269027208695	22.9116105236699	
2593666666.66676	-26.0243866129044	179.126164304973	-9.96202768307177	-81.1563873750847	-46.3726430164032	-90.662117307197	-23.6441115180236	23.189707335377	
2594000000.00009	-26.0177495900132	175.892511529393	-9.96663587085822	-83.4851385526746	-46.6431589824052	-91.602810959749	-23.775482643959	23.5071772632653	
2594333333.33343	-26.109822814504	172.506514983769	-9.96740309081593	-85.8293250899079	-46.4452384418081	-96.6217678281512	-23.8575853201406	23.7757825754915	
2594666666.66676	-26.1113113171798	169.254975458777	-9.96672232634945	-88.1377969807791	-46.3838369318037	-99.9939883966454	-23.9281516195398	24.0379320714966	
2595000000.00009	-26.0212467412021	165.967477708647	-9.96862595165248	-90.4219435685632	-46.2924793597012	-100.785075950756	-24.034266038172	24.300270595826	
2595333333.33343	-25.9668318002516	162.416832545802	-9.97374653771772	-92.7532414254449	-46.2641286485619	-101.813900780435	-24.1223935360909	24.809518696074	
2595666666.66676	-25.8552607241822	159.342148362563	-9.97468630418704	-95.1009741752195	-46.5737215879076	-104.433457713638	-24.1497101606477	25.1764001828717	
2596000000.00009	-25.7048253925226	155.980948707145	-9.9737520964302	-97.4344709042491	-46.4463540593535	-106.993448298686	-24.2296274568988	25.3653717110152	
2596333333.33343	-25.5076705256847	152.426319261511	-9.98131910548134	-99.7399582829423	-46.4909573094478	-108.417841941892	-24.3123253056417	25.5951243241015	
2596666666.66676	-25.2772111220044	149.624312336978	-9.9968924361593	-102.105822469369	-46.4951979534391	-110.456727962183	-24.3446658964126	25.582519571339	
2597000000.00009	-25.0789382685145	146.627334853109	-9.99655027859876	-104.421427374334	-46.3335753019539	-113.513290136478	-24.3966688641602	25.8989693410909	
2597333333.33343	-24.8232541013795	143.932506287339	-10.003601336326	-106.681253913505	-46.4643234768259	-116.552622803019	-24.4395171460011	26.1831794968405	
2597666666.66676	-24.5782929329352	141.376733998685	-10.0073969880074	-109.056095415661	-46.39863814009	-118.563722598066	-24.4614988902338	25.9113780672173	
2598000000.00009	-24.2951823537767	138.804900018186	-10.0110729036329	-111.345730139159	-46.6182751542621	-120.321270493673	-24.4642140970028	26.1459994700873	
2598333333.33343	-23.9924746149117	136.536683571288	-10.0200465339692	-113.677561960875	-46.460672935582	-122.869100249324	-24.4529422523818	25.906479009388	
2598666666.66676	-23.7030599212046	134.283346505036	-10.0230274334789	-116.038291907439	-46.563307508674	-126.532397355428	-24.469771098488	25.9337766177711	
2599000000.00009	-23.4158647670604	132.25541517867	-10.0449349221265	-118.291377006593	-46.1697204251196	-128.289636001995	-24.4611442103986	25.7512509780317	
2599333333.33343	-23.1200687855957	130.288109460274	-10.0530652018564	-120.612588176176	-46.5266753814753	-130.02041716416	-24.4341626826247	25.6401130263247	
2599666666.66676	-22.8157768854882	128.305052146698	-10.0620052724935	-122.862919110171	-46.452118207574	-132.639942993413	-24.3890817252544	25.3372330386513	
2600000000.0001	-22.5025037987613	126.752128708287	-10.0750243089739	-125.241936121198	-46.4649948015071	-135.902186529952	-24.3660942479887	25.1326544001233	
