!Agilent N9923A: A.05.34
!Date: Sunday, 13 March 2016 20:45:07
!Model: N9923A
!Serial: MY51491690
!GPS Latitude: 
!GPS Longitude: 
!GPS TimeStamp: 0001-01-01 00:00:00Z
!GPS Seconds Since Last Read: 0
!CHECKSUM:1383354575
!Correction: S11(ON U)S21(ON U)S12(ON U)S22(ON U)
!S2P File: Measurements:S11,S21,S12,S22:
# Hz S DB R 50
2400000000	-16.8150566496232	177.112669297762	-10.0362211819232	163.197700467415	-46.9718049767654	149.208643680017	-20.0508977617311	5.33195558337539	
2400333333.33333	-16.8247519472667	176.13064360801	-10.0331007929143	160.876945095195	-46.937491272968	147.734829160671	-20.171327755152	5.25942527048584	
2400666666.66667	-16.8273620480335	175.322171035542	-10.0334365904038	158.613437402016	-46.9050047342171	145.149466899403	-20.2763737111646	5.26235405895931	
2401000000	-16.8511743387958	174.353217747242	-10.0321071618907	156.314251754832	-46.9166477429067	142.965682786045	-20.3869516992765	5.21717956739369	
2401333333.33333	-16.8878048426495	173.331563335063	-10.0277500954855	153.997314388186	-47.0567058996387	141.14571330856	-20.5124988752271	5.34211045746175	
2401666666.66667	-16.898967542226	172.407554759916	-10.0320957331804	151.697392125739	-46.819858620453	139.076859110245	-20.6200649055175	5.26220526782746	
2402000000	-16.9197400811842	171.443565536412	-10.0298719664875	149.399571083237	-46.9766918428258	137.021163560631	-20.7574232116528	5.20913743724457	
2402333333.33333	-16.9306679266565	170.388085970453	-10.0277866694255	147.139156913908	-46.8586969908559	135.088050137037	-20.8635428288012	5.18776467843959	
2402666666.66667	-16.9635911191102	169.407571167286	-10.0282359965056	144.818345505236	-46.9017813655643	131.037756006084	-21.0101660007406	5.12058723407672	
2403000000	-16.9703094151163	168.371178568826	-10.027433073403	142.506837124303	-46.9869276285893	129.458409233084	-21.1381786073715	5.056434307977	
2403333333.33333	-16.9990110210073	167.263023277984	-10.0274963242043	140.21023050904	-46.878862863665	128.660058482459	-21.2703493933683	5.07249827582296	
2403666666.66667	-17.0197923997401	166.213283836039	-10.027996487874	137.933539157095	-46.8322098303904	125.383405661929	-21.4189731319943	4.93238145162426	
2404000000	-17.0243768964999	165.079844737276	-10.030282052443	135.657927961714	-46.9726904198426	123.612884515504	-21.565651330685	4.93665085065474	
2404333333.33334	-17.0395353156952	163.972391764699	-10.0305903372597	133.333774061575	-47.0545280842261	120.625152107441	-21.7145604021447	4.80383343304031	
2404666666.66667	-17.0573168457546	162.852530740274	-10.0292924521452	131.040120981658	-47.0388446845007	118.375178880686	-21.8735443773376	4.75882244625654	
2405000000	-17.0812238281848	161.676359300457	-10.0346119109721	128.787253004718	-47.0460027442787	115.853925198475	-22.0234313726328	4.67263507727284	
2405333333.33334	-17.078352523769	160.514769769544	-10.0336371531877	126.469090603544	-47.0627837477987	114.635435281244	-22.1657190333412	4.50351258679496	
2405666666.66667	-17.0874580372633	159.319378322442	-10.03626258955	124.17415080874	-46.8675222364804	111.409599963704	-22.3520380030685	4.39349727012186	
2406000000	-17.0979353684546	158.138374270458	-10.0399876185001	121.881147076448	-47.0128309769489	109.985806691563	-22.5042334196004	4.42134499436866	
2406333333.33334	-17.0963561753649	156.954510883103	-10.0426714579528	119.603685857444	-46.9719833589479	107.276886720369	-22.6575276732907	4.24493660977433	
2406666666.66667	-17.1014141197812	155.690533910271	-10.0322890577541	117.371489395278	-47.1303511121835	104.810163334546	-22.8533597934038	4.23567818229434	
2407000000	-17.1058834436672	154.45400862478	-10.0386976356155	115.084324356007	-47.0310888244378	101.325415880077	-23.0073894295928	4.25671860598411	
2407333333.33334	-17.1067175795769	153.141480857462	-10.0422653692979	112.803686879086	-46.9491691670769	99.4180141852097	-23.165711838391	4.03737374508497	
2407666666.66667	-17.1068039479609	151.873030448322	-9.92121588501126	110.171591842076	-47.0581184977688	97.7534666782805	-23.347822130716	3.99181859526922	
2408000000	-17.096108841425	150.620442588488	-9.92620134332693	107.901588488618	-47.1119251525057	96.2816061484515	-23.5180359577307	3.91324004776362	
2408333333.33334	-17.0845548536246	149.31104703401	-9.92985144951129	105.621539770319	-47.0043075563714	94.2232410684958	-23.6877847632412	3.77889099143956	
2408666666.66667	-17.0582005159444	147.98457369218	-9.93404359412076	103.347734588373	-46.9146837532826	91.2657137893664	-23.8772796235068	3.72257754195472	
2409000000	-17.048513143315	146.706766197035	-9.94037700543456	101.059777438303	-46.9779543255812	88.0536561710794	-24.0029361391994	3.76384870564007	
2409333333.33334	-17.0306553985724	145.380547133894	-9.94664431776025	98.7980846757367	-47.0415777580579	86.7200276001045	-24.1877994792557	3.83876821872626	
2409666666.66667	-17.0031665664241	144.138584463593	-9.95369414135508	96.5375324278884	-47.0577752354943	84.8378248475094	-24.3644717820398	3.63109156217645	
2410000000	-16.9845383894188	142.810663598543	-9.96001914971069	94.2920664843845	-47.2672113233786	82.9233618793288	-24.5252523694013	3.7422899464844	
2410333333.33334	-16.9581644159373	141.515182537307	-9.97095166698356	92.0130091031078	-46.9722437288679	79.044812232125	-24.672586891097	3.72955758214464	
2410666666.66667	-16.9230764922087	140.257791484413	-9.97368553723912	89.7355159930163	-47.0440265589933	77.7215694448684	-24.8216012480892	3.667908644366	
2411000000.00001	-16.8849557594402	138.925293047889	-9.98349748849623	87.5128213164488	-47.0390036766851	75.084770132822	-24.9726362725631	3.59839040816695	
2411333333.33334	-16.8438243678289	137.71471122061	-9.98986730666004	85.234113416283	-47.1598483300393	72.9828280806181	-25.1112706532844	3.64276937986648	
2411666666.66667	-16.7992084703887	136.438586556928	-9.99961432862346	82.9843909427487	-46.9734374631235	71.1148841588012	-25.2621240827758	3.61537960966178	
2412000000.00001	-16.7738241267095	135.195481459293	-10.0071543521329	80.7620565941041	-47.1096978156932	68.0581348182643	-25.3737852838289	3.76108873979373	
2412333333.33334	-16.7230653590392	133.962023295111	-10.0209568077279	78.5221680827718	-47.0225405456326	66.0721139076922	-25.4828514423589	3.80639242861033	
2412666666.66667	-16.6671955990721	132.686502355992	-10.0224468921899	76.2605150923211	-47.0819374894422	63.8388967236004	-25.5953630657063	3.7778518750733	
2413000000.00001	-16.616912409141	131.493386531935	-10.0363468035054	74.0036211534782	-47.2112127415369	60.9122446535217	-25.7186078992708	3.93448141950386	
2413333333.33334	-16.5543224521555	130.200719473764	-10.0408054119719	71.7726501835551	-47.2023647279016	59.0626113533842	-25.7898096162294	3.80974663103515	
2413666666.66667	-16.497689840761	129.059460428677	-10.0462928783755	69.5378952152593	-47.1594024100963	56.4975932896316	-25.8971810631415	3.82475871165688	
2414000000.00001	-16.4499190639517	127.938355111718	-10.0602662511017	67.310323101021	-47.1880017572955	54.9077449838617	-25.9610934581103	3.85327714750386	
2414333333.33334	-16.3780034200627	126.70272626844	-10.0739978290168	65.0545559534437	-47.0632628375891	51.9250790311211	-26.0057463628567	4.04237993649624	
2414666666.66667	-16.3108587930998	125.568869428502	-10.0816678805888	62.8078074072553	-47.1174350043746	50.2862025133485	-26.0509155349615	3.96868650890599	
2415000000.00001	-16.2412361532237	124.457821160267	-10.0898939189299	60.5833990287877	-47.029017463421	47.3662023624317	-26.0873432032265	3.98271507066578	
2415333333.33334	-16.1722333786998	123.391153278431	-10.0978268648366	58.3307110537462	-47.1508973241261	45.1084019060576	-26.1051912146064	4.19226727178364	
2415666666.66667	-16.1064657511623	122.308025536119	-10.1123090074716	56.0835731550943	-46.982506455656	42.982873509262	-26.1299182667797	4.10738378616971	
2416000000.00001	-16.0302122981971	121.242780802865	-10.1205055583991	53.8434494057756	-47.0966259315578	40.2762876844533	-26.1164918473819	3.94059540255532	
2416333333.33334	-15.9612581059107	120.159400985028	-10.1337136618603	51.6147374289337	-47.0576751103266	39.0756514038619	-26.0596254599346	4.01280690494902	
2416666666.66667	-15.8872818852634	119.161195984012	-10.145151817885	49.4085625811955	-47.0778060831612	35.9969213784165	-26.0371292663884	3.9765696674856	
2417000000.00001	-15.8100671163358	118.200491356531	-10.155013309884	47.1523714281713	-47.0858435746231	33.1267283167075	-25.9895953074067	3.83117039888491	
2417333333.33334	-15.7416254261967	117.208129018351	-10.1638833024747	44.9188509923167	-47.2067375300648	31.8653061813134	-25.9268821333806	3.86197350489376	
2417666666.66668	-15.6597318953563	116.230277303375	-10.1757119688643	42.6813688493022	-47.0577558101008	29.1210845500856	-25.8675277104212	3.72509313177102	
2418000000.00001	-15.585478967598	115.286839333125	-10.1839526047596	40.4503601893867	-47.0778774923416	26.3919659839703	-25.7698509469675	3.52836604364169	
2418333333.33334	-15.5016147640232	114.346906606522	-10.1953873092099	38.24789419179	-47.1865528902147	24.7863120117768	-25.6399550119086	3.40756478430321	
2418666666.66668	-15.433010810431	113.410574281019	-10.2116791359827	36.0358530364842	-47.1260733453257	22.393619256967	-25.5432538193295	3.33014844276091	
2419000000.00001	-15.3549636108759	112.527309254606	-10.217479216153	33.7462283019783	-46.9600329645969	19.8083087772178	-25.4364884516624	3.10017752834118	
2419333333.33334	-15.2833991977293	111.667623616256	-10.2238033055281	31.5042074946879	-47.0336096934351	18.4507145084412	-25.2823139910895	2.85963325486875	
2419666666.66668	-15.2085413509666	110.811882249485	-10.2380138412316	29.2545294980982	-47.2059884074152	15.8781325398461	-25.1471083475511	2.52864285962689	
2420000000.00001	-15.136806843712	109.996102466515	-10.2448186556543	27.0561352134934	-47.1389907949239	13.1865268592601	-24.9890519426949	2.2610526083826	
2420333333.33334	-15.0619279894384	109.158129092238	-10.2531490213295	24.8242949209229	-47.168024651545	10.4073889249197	-24.8495033870757	2.08986164869897	
2420666666.66668	-14.9920170787033	108.371993166901	-10.2615630216723	22.5711641962584	-47.194953270791	8.76803452577807	-24.6448265862601	1.74227299629146	
2421000000.00001	-14.9251651641352	107.603837261271	-10.2742722403864	20.3300134271738	-47.1979927213434	5.91179684110079	-24.4737954805985	1.36736754269181	
2421333333.33334	-14.850090205461	106.806570050333	-10.2822275617537	18.0971149422177	-47.1356450673165	4.92020448632398	-24.2873713398576	1.05178247452838	
2421666666.66668	-14.7896382797314	106.056492267804	-10.2873882031596	15.8646458474858	-47.125088483635	2.15935424519145	-24.0924174096075	0.589991499773835	
2422000000.00001	-14.7231251441949	105.331658635653	-10.3004418573786	13.6319110272019	-47.0826123253233	-0.109525162760153	-23.9161989765121	0.30609727792042	
2422333333.33334	-14.6583074344828	104.614293234496	-10.3094517180822	11.3823939005864	-47.1142028670041	-3.91071949084841	-23.7269813443223	-0.18541319423145	
2422666666.66668	-14.5916391285029	103.961001437122	-10.3146286202764	9.13748473259521	-47.2061011293408	-3.84163855490693	-23.5234588171281	-0.604603736915503	
2423000000.00001	-14.5319320755763	103.269915098265	-10.3256193486938	6.88164323609684	-47.2410388980081	-6.64618623363214	-23.3136227317685	-1.10919068566392	
2423333333.33334	-14.4759979982943	102.606435940823	-10.3361861213609	4.64149440426516	-47.232681012571	-8.63351793455017	-23.1220799428161	-1.540943122194	
2423666666.66668	-14.4223218642951	101.940704102377	-10.3386421419816	2.39178098507495	-47.1006043296748	-10.8963347886102	-22.9130294695106	-1.86547608653104	
2424000000.00001	-14.3697555189437	101.377523697702	-10.3485686683513	0.142329212846672	-47.2512981357861	-14.2860524142718	-22.6987156698792	-2.47282449937876	
2424333333.33334	-14.3087670479154	100.676161187087	-10.3558652697858	-2.11545005319978	-47.1350992880706	-15.6455534372723	-22.5064983811398	-2.94441455268393	
2424666666.66668	-14.2669077586416	100.112409384398	-10.3638786736132	-4.3590029283439	-47.0940612145551	-17.7177126231964	-22.2872575148169	-3.439329602704	
2425000000.00001	-14.2162705470185	99.5804281928872	-10.3694839282452	-6.61577363358087	-47.1869690586823	-20.4931628120184	-22.09213221457	-4.02529808560385	
2425333333.33335	-14.164727507305	99.0049259779716	-10.3766260183198	-8.84724107731555	-47.3052875998683	-22.0643462877437	-21.8811247605951	-4.48020294216606	
2425666666.66668	-14.1216167066626	98.4513760337036	-10.3807272981589	-11.1447321435002	-47.2466692092737	-25.3474571831728	-21.6703028104741	-4.97080106232139	
2426000000.00001	-14.0845183223812	97.9269155245905	-10.3870526654824	-13.3983064414484	-47.1695151954732	-26.5597156457473	-21.4817015309993	-5.54185803818996	
2426333333.33335	-14.0451759142792	97.4110287223782	-10.3936534267894	-15.6559196718549	-47.1893356154946	-28.8070063764537	-21.2742775395984	-6.07790760964544	
2426666666.66668	-14.0028385023113	96.9585714793001	-10.3993954423924	-17.9192314251032	-47.2653245243621	-30.4428066960597	-21.0904786686761	-6.59707627452585	
2427000000.00001	-13.9629054272202	96.4993259331882	-10.405746350118	-20.1744686574031	-47.2256268797138	-33.3579429744077	-20.8880096232236	-7.13181669629786	
2427333333.33335	-13.9274454370431	96.043844203416	-10.4103653746295	-22.4355155194189	-47.3030483206063	-35.8491257550775	-20.6974317667355	-7.66285667364918	
2427666666.66668	-13.8923214827552	95.5803418978913	-10.4182422664482	-24.6786933851161	-47.1722810864433	-37.203524042721	-20.5150934818439	-8.11663466375892	
2428000000.00001	-13.8570215421026	95.165031210196	-10.4238809032634	-26.9461638029983	-47.2957238482996	-40.6153345720728	-20.3317292568212	-8.6684957502665	
2428333333.33335	-13.8230612724388	94.7460467190678	-10.4333081015995	-29.2092357825562	-47.3264510024738	-42.8085443282229	-20.1508711418224	-9.2545217772858	
2428666666.66668	-13.7936329405263	94.3621345967412	-10.4372784910072	-31.4523562668852	-47.2551216890448	-43.7410186531966	-19.9841663948194	-9.71516589879426	
2429000000.00001	-13.7677380846773	93.9706530823122	-10.4383431943821	-33.6789850522069	-47.1909680457176	-46.8015781476808	-19.8048422960237	-10.3026099522888	
2429333333.33335	-13.7351529120276	93.5883407403692	-10.4458008069031	-35.9538591343434	-47.3743002973143	-48.1529940899213	-19.6251457469872	-10.7095019394785	
2429666666.66668	-13.7055511850704	93.2683729589574	-10.4533635935662	-38.23641923704	-47.2851768955149	-50.3786481856923	-19.4643713222701	-11.3529352491061	
2430000000.00001	-13.679277353905	92.891851880894	-10.4563608660512	-40.475321655891	-47.3390210596709	-53.0505961091746	-19.3111167482349	-11.8267544514971	
2430333333.33335	-13.6615242752099	92.5938879187744	-10.462145655277	-42.7206522383518	-47.3333510019162	-55.2896613981328	-19.151351381061	-12.3637411141519	
2430666666.66668	-13.6321350532116	92.2555904937626	-10.4680980403544	-44.9520018309287	-47.3305401115818	-58.1039619243151	-19.0118220752289	-12.9049517087819	
2431000000.00001	-13.6119821596207	91.9255755434385	-10.4696958773518	-47.1835278866221	-47.4555668019326	-60.0346490399342	-18.8624138308857	-13.3938700885163	
2431333333.33335	-13.5865505981491	91.6002095431992	-10.4812660117959	-49.4058880780827	-47.5506259193905	-62.2632633585051	-18.7186684221298	-13.8206298457354	
2431666666.66668	-13.5630871834405	91.3123080342267	-10.4800323390697	-51.6684333037633	-47.4894554181843	-65.0320281407436	-18.582226893774	-14.3851643191309	
2432000000.00002	-13.5411530799225	90.9762555031623	-10.4819581653332	-53.8882162674447	-47.3338516602062	-66.7436845695524	-18.4476414388428	-14.8145773592387	
2432333333.33335	-13.5274055450555	90.6896129394002	-10.4887318441712	-56.1128525871312	-47.4994747175275	-68.7867730453297	-18.3368232867777	-15.3279189544854	
2432666666.66668	-13.5052089415311	90.4031718692741	-10.4924188243373	-58.3317165535001	-47.4397568106242	-70.6961065042921	-18.2135851538599	-15.8638001110918	
2433000000.00002	-13.4830895671711	90.0494671577456	-10.4961643237467	-60.5729144148603	-47.4231057581477	-73.0632832999539	-18.0850566536595	-16.2854684106864	
2433333333.33335	-13.4709487413331	89.7709227258932	-10.495590308419	-62.8170943282899	-47.4318768373768	-75.8924388349798	-17.9958667848476	-16.7582221668801	
2433666666.66668	-13.4550431528657	89.4462862893443	-10.4987003515534	-65.0117695424121	-47.5270713584401	-76.950833352417	-17.887831472838	-17.2391667873286	
2434000000.00002	-13.4302968998245	89.178910023646	-10.4991277052761	-67.2381806173705	-47.3276351408379	-79.3708460897472	-17.7955432188983	-17.6898483229228	
2434333333.33335	-13.4115150537667	88.9350393922644	-10.5008814251712	-69.463028917171	-47.4964106811952	-80.9994743625156	-17.7040809579754	-18.1283034198717	
2434666666.66668	-13.4019005337424	88.5906508385048	-10.5014106547441	-71.6718881498256	-47.3439792369099	-84.7453440413	-17.6163871634564	-18.6284950000855	
2435000000.00002	-13.3820492501512	88.274995941285	-10.4984981903911	-73.9146474881111	-47.460065073442	-86.4550587683199	-17.5284828250379	-18.9947494678063	
2435333333.33335	-13.3673178436698	88.0047936330661	-10.5003883802138	-76.1092576473311	-47.3834777953929	-88.2105479395703	-17.4604499751347	-19.4287030377417	
2435666666.66668	-13.3486861181818	87.6773290059126	-10.5002635017266	-78.3207658005525	-47.3726142504943	-89.6110700408595	-17.3778665226024	-19.822446597728	
2436000000.00002	-13.3381422074072	87.4045271061038	-10.4972937896972	-80.5260894516932	-47.3729960803333	-93.728224343458	-17.3219410474171	-20.2244582566267	
2436333333.33335	-13.3322472503666	87.0568324057951	-10.4935940665004	-82.7330424684086	-47.4147664946243	-95.3633919941311	-17.2525431943298	-20.636753762658	
2436666666.66668	-13.3262721355652	86.6865145935665	-10.4934095459602	-84.9393695862402	-47.5359990300855	-98.27207773719	-17.1991087935984	-21.1146156792543	
2437000000.00002	-13.3135405097733	86.4027336942072	-10.4913527059924	-87.1522014466131	-47.6064471141129	-99.7696778619403	-17.1667529801379	-21.4389285531787	
2437333333.33335	-13.2926888044219	86.0432571598662	-10.4858088955748	-89.3595459105551	-47.4614375832173	-100.712012378557	-17.1199271156788	-21.8510679595515	
2437666666.66668	-13.2955273750875	85.7343843110282	-10.484446889459	-91.5470946223495	-47.6261402776636	-103.173180301972	-17.0810169693802	-22.1582349291918	
2438000000.00002	-13.2843287979395	85.3752530039049	-10.4785617020261	-93.7687411001882	-47.574991593616	-107.10131725001	-17.0561050569211	-22.5373000147278	
2438333333.33335	-13.2743779717735	84.994532873561	-10.4746593713468	-95.9653161667121	-47.5513395260885	-107.982487176964	-17.023020357313	-22.7904590364382	
2438666666.66669	-13.2655998327361	84.626228099189	-10.4694040846861	-98.1837630628271	-47.5442716411511	-110.824049801128	-16.9942720944685	-23.1900275881201	
2439000000.00002	-13.2527705310015	84.2946024878687	-10.4639216367532	-100.381464995542	-47.4468096142128	-112.634957155431	-16.9967785178814	-23.4922001540598	
2439333333.33335	-13.2470909825233	83.9412382092746	-10.4593385165221	-102.591664268958	-47.4986934305873	-114.809336006692	-16.9767872705681	-23.8896341816587	
2439666666.66669	-13.2538437962709	83.603558622785	-10.450810607438	-104.8060046488	-47.5682731315228	-116.738148434373	-16.980836415574	-24.1053942102244	
2440000000.00002	-13.2467975740187	83.1702744738345	-10.4438519255089	-106.989854283808	-47.5390784046522	-118.380741749871	-17.0002276979336	-24.416779998211	
2440333333.33335	-13.2497757436207	82.8058959450848	-10.4399100447314	-109.176126057015	-47.4610652907935	-120.494180268151	-17.0078666231495	-24.7109034921094	
2440666666.66669	-13.2546954492683	82.485042873165	-10.432364476089	-111.397591264568	-47.4610757844944	-123.973311841471	-17.0140315175258	-24.9373368594294	
2441000000.00002	-13.2590900399905	82.0797767312438	-10.4230370290967	-113.596775111531	-47.4785286556857	-125.463688007105	-17.0414794675307	-25.2455223032597	
2441333333.33335	-13.2306891374576	81.6411093055901	-10.4140657902099	-115.826642572352	-47.3635587696614	-127.630748541953	-17.0826263687025	-25.3781160630032	
2441666666.66669	-13.2516247641884	81.2307230580698	-10.4081144696571	-118.056087821259	-47.4694086619008	-131.073755403901	-17.0940405632115	-25.556508557514	
2442000000.00002	-13.2651546507221	80.8330900612294	-10.3962557309299	-120.26245206019	-47.4597799667189	-132.070176304324	-17.1480546033394	-25.8826354304301	
2442333333.33335	-13.2706135245052	80.4291592398308	-10.3907743504368	-122.487506113921	-47.4826361160356	-135.825519659385	-17.1944548247837	-26.0501131511428	
2442666666.66669	-13.2686397905909	80.0152934994474	-10.3799730158281	-124.714009749334	-47.3996582544872	-137.937858993233	-17.2509887198802	-26.161403886412	
2443000000.00002	-13.2919174089377	79.5861556491361	-10.3676948382984	-126.948271380935	-47.6300541076985	-140.2688656953	-17.2970877966977	-26.2854321137072	
2443333333.33335	-13.2893253165787	79.2282531570937	-10.3612061486209	-129.172929437278	-47.6003176906455	-141.892038558455	-17.3688383920225	-26.3938204169493	
2443666666.66669	-13.3039690100149	78.8051151501662	-10.3520508403769	-131.391074480387	-47.3684229251928	-144.587955290984	-17.429072001317	-26.5679163413802	
2444000000.00002	-13.3166917779321	78.3781277311997	-10.3447793694673	-133.665486975643	-47.5062822377975	-146.486566496254	-17.4996966296402	-26.6754769895799	
2444333333.33335	-13.3253846514268	77.9143036853104	-10.331806928873	-135.899450329292	-47.533683738804	-147.070081520343	-17.5886699522236	-26.6675273180496	
2444666666.66669	-13.3441966135989	77.4962751275168	-10.3223765485155	-138.145451589644	-47.2761885023469	-150.242571140079	-17.6637839243305	-26.7877280478282	
2445000000.00002	-13.3616036332562	77.0580136330375	-10.3158857124008	-140.385161322549	-47.4032219610749	-153.028311914581	-17.7667739840866	-26.7833624535006	
2445333333.33335	-13.3838776907252	76.5263279511338	-10.3022911288148	-142.637917985109	-47.3497327276698	-154.829148137896	-17.8584256015718	-26.7338199951019	
2445666666.66669	-13.4070297583825	76.154877171792	-10.2946598582782	-144.893170523223	-47.3665236174615	-156.929375211128	-17.9780592500909	-26.6880619650572	
2446000000.00002	-13.4104308827731	75.6406644535044	-10.2879347721152	-147.146318958412	-47.2809846795815	-158.996521735891	-18.0746590153855	-26.5377285436455	
2446333333.33336	-13.4424506689886	75.1971625904999	-10.2790616512153	-149.40437245262	-47.3272919901271	-161.071667517654	-18.1883956648889	-26.477481450718	
2446666666.66669	-13.4674503214551	74.7311655146826	-10.269183427923	-151.667568108496	-47.5233171036487	-163.734700904493	-18.3182590033222	-26.343588521787	
2447000000.00002	-13.4876232337001	74.2207857758513	-10.2602739386854	-153.965480450901	-47.2350910963074	-164.815710945488	-18.440216018152	-26.1185038149658	
2447333333.33336	-13.5142628292492	73.7204891546955	-10.2503165183058	-156.169696082883	-47.2764681383346	-167.985116613249	-18.5490552450194	-26.0514617364505	
2447666666.66669	-13.5207049478055	73.2759469320162	-10.2376359819172	-158.483646486647	-47.2794330622918	-170.617748338779	-18.7111551656469	-25.7589077148462	
2448000000.00002	-13.5548922489057	72.8139967523493	-10.2315344999601	-160.722403532629	-47.3564095213806	-172.866217027569	-18.8360389018854	-25.4737359063552	
2448333333.33336	-13.5733455178394	72.3492119539044	-10.2242016534583	-163.008388184337	-47.1916040852076	-174.350361263759	-18.9793794512679	-25.2902568426591	
2448666666.66669	-13.5896814226002	71.8767247614454	-10.2185509795437	-165.236988101082	-47.1383497999318	-177.870849104042	-19.1322488148791	-24.9499865032082	
2449000000.00002	-13.6127671998585	71.3457154873908	-10.2083217103448	-167.538476259296	-47.2882323801839	-179.294947558081	-19.2962964231881	-24.3813435307924	
2449333333.33336	-13.6415333849264	70.8494123255418	-10.2013129221809	-169.813239401075	-47.195689664996	178.41593905931	-19.440709752585	-23.9709770261824	
2449666666.66669	-13.6608522035435	70.3612912450833	-10.1939137133321	-172.074396280423	-47.282480070029	175.822408817883	-19.5982937625899	-23.488784927103	
2450000000.00002	-13.6793607392685	69.795798953543	-10.1910061373513	-174.383943622915	-47.2649493950007	174.110003259011	-19.7637155384476	-22.8390077296778	
2450333333.33336	-13.7135557830631	69.2628595204934	-10.1857918642252	-176.619364006953	-47.0995696722543	171.706936810932	-19.9282383008161	-22.2915279006722	
2450666666.66669	-13.7297448883336	68.7735392312012	-10.1787713066396	-178.904726395084	-47.0970585082915	168.905321045719	-20.1061535003581	-21.5601241018915	
2451000000.00002	-13.7459460456727	68.2663403231534	-10.1737675229008	178.841319281839	-47.1167874597971	167.355401031964	-20.2815892432578	-20.9686204376723	
2451333333.33336	-13.7677422627898	67.6836122658471	-10.1675117479055	176.58115086093	-47.1607907886833	165.130377798285	-20.45591764019	-20.282260877229	
2451666666.66669	-13.7821795372448	67.253999234194	-10.1603174618822	174.295562065809	-47.088761945088	162.716979119766	-20.6404659160692	-19.5308714209098	
2452000000.00002	-13.8013409062713	66.6814881094954	-10.163460515857	172.023541749104	-47.218744653045	160.092309114548	-20.811961804071	-18.5486512329604	
2452333333.33336	-13.809598900567	66.1646583658463	-10.1558712605774	169.722231880097	-47.1546081834606	159.420002742218	-20.9732815440602	-17.5124391955087	
2452666666.66669	-13.8342272270784	65.6309779588307	-10.1523112644636	167.474308245883	-47.1732700754365	155.787721725074	-21.1518562075	-16.6265201441361	
2453000000.00003	-13.8449493944303	65.1345476250727	-10.1583017797684	165.227372891625	-47.1484921619691	154.299390405747	-21.3168788820794	-15.6890466841609	
2453333333.33336	-13.8499552551762	64.576999461641	-10.1506952620035	162.957479362297	-47.2073555906613	152.719299511563	-21.4779801966568	-14.5556053285789	
2453666666.66669	-13.8652381883189	64.042981379715	-10.1497990279656	160.706833962135	-47.0700646452888	149.095377704726	-21.669146911109	-13.3260295796537	
2454000000.00003	-13.8781125028582	63.4828790276519	-10.1494998784049	158.440666059932	-47.0632261069669	147.471910851005	-21.819473686607	-12.0292090772593	
2454333333.33336	-13.8707462857049	62.9100832058068	-10.1441072622292	156.165957174298	-46.9008050989654	146.242597364011	-21.9972979787349	-10.8681383149195	
2454666666.66669	-13.8798653339294	62.4634013947819	-10.1449943633676	153.9363755428	-47.2096118809572	142.942573020192	-22.1306346164815	-9.54256469465166	
2455000000.00003	-13.8828744494682	61.9294803458854	-10.1449797286292	151.680956533063	-47.0074163777838	140.940437326947	-22.2841581683262	-8.1352124709383	
2455333333.33336	-13.8868036425161	61.4255413353023	-10.1461474887754	149.435761208396	-47.2332891597818	137.97796468499	-22.3907132808454	-6.68748864846887	
2455666666.66669	-13.8797329701457	60.8752600478076	-10.148038398842	147.214562394997	-47.0070477422989	136.302899913072	-22.5390295287129	-5.28018381223102	
2456000000.00003	-13.8765627963102	60.3532337759098	-10.1439338772622	144.952764598306	-47.0469500615363	134.571781638148	-22.654640679108	-3.80024980800178	
2456333333.33336	-13.8717440759794	59.8181666454399	-10.1471639183006	142.692730898069	-47.0580124861454	130.909855132242	-22.7645997743977	-2.16713041363462	
2456666666.66669	-13.8619119652272	59.3175589867776	-10.1453040331826	140.477540297246	-47.0232241652738	129.456645274648	-22.8621021719276	-0.697591436396739	
2457000000.00003	-13.8541888049997	58.8194011908935	-10.1487730748738	138.221250559617	-47.1190280028488	126.76597763723	-22.9637468682918	0.704889171707385	
2457333333.33336	-13.8438867942496	58.3886394117281	-10.1451930565864	135.995537708358	-47.1989639772292	124.874962948604	-23.0603156962025	2.33406281668568	
2457666666.66669	-13.8246720794462	57.7670990595635	-10.1460975696066	133.7700840572	-47.0410474603727	122.214144974758	-23.1241496055934	3.87073222643714	
2458000000.00003	-13.8066055795511	57.2522218732853	-10.1462536672487	131.504852435191	-47.1061282271747	120.705106382859	-23.192726560259	5.55168091947766	
2458333333.33336	-13.7914322255756	56.7534628359574	-10.1627631783477	129.264295680334	-47.1015541314358	117.765312236076	-23.2188091891377	6.94185808511422	
2458666666.66669	-13.7648149533361	56.2804861126985	-10.1564601923151	127.030738959142	-47.0368502532624	115.607314489523	-23.265171099028	8.43513626048508	
2459000000.00003	-13.7558827148543	55.7955770699124	-10.1452594237101	124.810104793238	-46.9385843985935	113.60582360739	-23.3210610269053	9.83259166251573	
2459333333.33336	-13.7239596399512	55.246275141991	-10.1501221414461	122.613073879786	-46.9286759020352	112.159773308563	-23.3394089193465	11.2341629365776	
2459666666.6667	-13.7011964813969	54.7490278538395	-10.1506277024482	120.360226891818	-46.9710369956999	108.344207653751	-23.3383379593949	12.6358107572465	
2460000000.00003	-13.676853222861	54.3175174411585	-10.1525940475046	118.100846724392	-46.9983064592846	106.339643792075	-23.3458054850241	13.9171839813593	
2460333333.33336	-13.6441600606117	53.7948230222301	-10.1516890521061	115.885136808749	-46.9572986003058	104.290631362812	-23.3651755741875	15.1636579034	
2460666666.6667	-13.6166065933965	53.2909215133488	-10.1545483473935	113.632197518046	-47.071042984626	102.395929826311	-23.3555570215327	16.3160609027309	
2461000000.00003	-13.5888084747964	52.8237875349128	-10.1543342778087	111.427662404551	-47.0396421882482	99.7604351162308	-23.3380373239079	17.6570386438018	
2461333333.33336	-13.5451295868992	52.334396063016	-10.1533220990943	109.127376656298	-47.0166533086327	98.1889152047947	-23.3035166960384	18.7376653700248	
2461666666.6667	-13.5180543940974	51.7496908142662	-10.1555347590467	106.916217893458	-46.9152116451559	96.0795517110375	-23.2989069009189	19.739890091605	
2462000000.00003	-13.4781512844466	51.3476947025557	-10.1510783263913	104.655412151524	-46.7801665489227	93.2389124442233	-23.2853382929255	20.8156794224097	
2462333333.33336	-13.4548839853305	50.8851534303463	-10.1509828482151	102.419131620424	-46.9132901237372	90.657634539524	-23.2310405595813	21.5243652109875	
2462666666.6667	-13.4004020326987	50.3702080644651	-10.1531241148767	100.126982421354	-46.8813669181818	89.5833050717852	-23.2022447299765	22.4221506511718	
2463000000.00003	-13.3627968841772	49.8780880877852	-10.1502762979645	97.8532864562128	-47.1155121209543	85.8212855274915	-23.1772598335911	23.1763818422563	
2463333333.33336	-13.3183569187875	49.4315230027038	-10.150574991502	95.6260503083063	-46.9150848703302	84.6199633890741	-23.1427467198943	23.8514406046881	
2463666666.6667	-13.2752700720572	48.9347135290608	-10.1443208414892	93.3739293097626	-47.2611779072482	80.9700246576192	-23.1201700350474	24.5055913462625	
2464000000.00003	-13.2280495926248	48.5103311482605	-10.1466034553114	91.1064081017687	-46.8830434157552	78.9915410549967	-23.0815268309292	25.1335598424956	
2464333333.33336	-13.1981955326317	48.0389638722862	-10.1448170760445	88.8340758269716	-46.8791419486889	75.770963425696	-23.0511034557774	25.6226342586582	
2464666666.6667	-13.1460526596837	47.5524917890097	-10.1468506840391	86.5702855328156	-46.9300940897037	75.5297774271631	-23.0209633016738	26.0052715321784	
2465000000.00003	-13.0869186385839	47.0966463049447	-10.1502907475443	84.3076578022204	-46.812917955487	72.8718368499616	-22.9701087521065	26.3591558974114	
2465333333.33336	-13.0500486345998	46.7236830735384	-10.1442699890637	82.0311673877084	-46.946744612941	70.463628418281	-22.9449301495121	26.6458109759812	
2465666666.6667	-12.9950832773104	46.238525504566	-10.1459685023575	79.7694114549366	-46.9388763639877	66.6901886455299	-22.9269359319728	26.9332153175412	
2466000000.00003	-12.9561838732983	45.7779487889093	-10.1431554664403	77.4856050550352	-46.9414582347235	65.8600639843761	-22.9142700056652	27.0828978063417	
2466333333.33336	-12.9030761997559	45.3557741358602	-10.1431330025124	75.2235020306232	-46.9431090699258	63.9958384589789	-22.8655528611378	27.2847481389344	
2466666666.6667	-12.8561184324739	44.9161462452422	-10.1427808118583	72.9275167240705	-46.851577981691	61.2527154809175	-22.8634194527187	27.4178952230171	
2467000000.00003	-12.8065796759154	44.4822920695391	-10.1426542087627	70.6301133795465	-46.9891562318367	57.6113401870022	-22.823216873445	27.2174976781696	
2467333333.33337	-12.7484741590038	44.0400364971576	-10.1416731787474	68.3625890175865	-46.9035141206937	55.8849941743754	-22.8170117229548	27.417438605182	
2467666666.6667	-12.6983850600592	43.686333627473	-10.1417395117129	66.0544541719323	-46.9964626075255	53.1315831422214	-22.7892327381945	27.2704289356071	
2468000000.00003	-12.6483762736795	43.2807064108394	-10.14269637783	63.762571623383	-46.7619644900799	51.4468032214736	-22.7866204222234	27.1712608004041	
2468333333.33337	-12.599342916505	42.8827028472496	-10.1354128596074	61.4619634384795	-46.9150299168504	49.7313444696631	-22.7813910201352	26.9214303423793	
2468666666.6667	-12.5517406210037	42.4725276220834	-10.1390862277885	59.1551044222064	-47.0596249166377	47.1548350703795	-22.7843010318372	26.5887447516156	
2469000000.00003	-12.4880861222482	42.0903153760848	-10.1398748478718	56.8491230208208	-46.8630526212574	44.2434382349653	-22.7691617941668	26.3332404621389	
2469333333.33337	-12.4410422549488	41.7061599868268	-10.1401921951737	54.563160513703	-46.8780923254018	40.4041954426114	-22.7576093449615	26.010491677087	
2469666666.6667	-12.389633562482	41.3071732958611	-10.141469082236	52.2366323856742	-46.9434795623488	40.4697986109223	-22.7784665041267	25.6238205298198	
2470000000.00003	-12.3349657153944	40.9862479876429	-10.1422952974124	49.9132202075354	-46.7600063497336	37.4555162913302	-22.7631533055216	24.9797182439425	
2470333333.33337	-12.2861040946339	40.5896779124455	-10.139268287358	47.5923683390072	-46.8416880883566	35.2409899751743	-22.788877587339	24.5982982492966	
2470666666.6667	-12.2328388534175	40.2419822099394	-10.1442500140089	45.2747083149713	-46.8824870852103	32.9765567289396	-22.7664337629672	24.0571148782882	
2471000000.00003	-12.1840490920657	39.9084878232816	-10.1470699205731	42.9557095704006	-46.9984074960199	31.0201740549202	-22.7689076396437	23.4269974548375	
2471333333.33337	-12.1293625117809	39.5482147600333	-10.1462469450146	40.6153284102315	-46.8379608808834	29.2649910617258	-22.7975636606106	22.7889773822221	
2471666666.6667	-12.0834439711216	39.2422935391621	-10.1440744453663	38.3353509280499	-46.8169473339622	25.6496557482614	-22.7949268451422	22.1419513357317	
2472000000.00003	-12.0318007142903	38.8897944489162	-10.1461193524855	35.9559842108869	-46.9125432829067	23.5098301747665	-22.8108412456188	21.3817769115458	
2472333333.33337	-11.9776939898085	38.5285965903432	-10.1468993163684	33.6302364064637	-46.9120515633561	20.7920596054188	-22.8008615690965	20.6026694955923	
2472666666.6667	-11.9284534020197	38.2372804150327	-10.1516307334403	31.3052713965494	-46.9847823198687	18.5873310964206	-22.7944746005915	19.8230683005089	
2473000000.00003	-11.8807512957776	37.8816651364361	-10.1548437593357	28.9167907609184	-46.909356475978	16.7444031147482	-22.8086892842757	18.9534920440439	
2473333333.33337	-11.8297415421718	37.5584412160621	-10.1600385269117	26.5783501183794	-46.8126416294765	14.275540617528	-22.7971213939117	18.208442649472	
2473666666.6667	-11.7780685058199	37.2287903210405	-10.1572780569867	24.2294585096661	-46.7005723157899	11.4644150697909	-22.8068492634269	17.1538402850058	
2474000000.00004	-11.729451026476	36.9180999863001	-10.165956681945	21.8708670613783	-46.8581873040208	9.30788939210686	-22.8061777281457	16.0622115686384	
2474333333.33337	-11.6891928534985	36.5848061384278	-10.1677358192949	19.5138488778302	-46.8125580650933	7.15945030503428	-22.7913964701495	15.210479046673	
2474666666.6667	-11.6332626374551	36.286654325304	-10.1737539106736	17.1603445476931	-46.7866211788867	4.53781332214631	-22.7805676085856	14.1342765787309	
2475000000.00004	-11.5863021682081	35.9387191586505	-10.1751490353259	14.7731949555385	-46.8397404427232	1.87491214030506	-22.7812632941652	13.0863614188091	
2475333333.33337	-11.5462115249362	35.5602729818453	-10.1779068673582	12.4143035200886	-46.7591547562986	-0.254496579003427	-22.7729020209987	11.9841471162615	
2475666666.6667	-11.490784186965	35.2680888460899	-10.1826531241429	10.0657645443663	-46.7812648116814	-2.45560588950268	-22.7516933257711	10.9799053952268	
2476000000.00004	-11.4581340217838	34.9224895777675	-10.1936404363867	7.69813828583416	-46.7088881403118	-4.44225253762133	-22.729085446964	9.70052027374444	
2476333333.33337	-11.4152504416461	34.6273959085776	-10.1940666735436	5.34753694381239	-46.6509348962753	-6.93917592508215	-22.715835198426	8.62658896601563	
2476666666.6667	-11.3741142159914	34.229953789589	-10.1985847953313	2.99108260802304	-46.8373966126552	-9.27589692240864	-22.6887419835806	7.392370919331	
2477000000.00004	-11.3320666495766	33.8953376657218	-10.2030014196352	0.637632172709418	-46.7549100285888	-11.8342276218921	-22.657112384888	6.34337482785417	
2477333333.33337	-11.2984683078369	33.501898163066	-10.2128513139518	-1.73834187694947	-46.7595822574056	-14.1885291209429	-22.6060543192943	5.06700588362043	
2477666666.6667	-11.2511780310381	33.1838460990514	-10.2167961786559	-4.08799221404237	-46.8301141596612	-17.148680122234	-22.5720665516151	3.84885822119329	
2478000000.00004	-11.2210256142517	32.7886126722304	-10.2228699793859	-6.43528010562709	-46.8656459249596	-17.9224369893519	-22.5160824255796	2.65759505348755	
2478333333.33337	-11.1798050920167	32.4742590864636	-10.2269654095403	-8.76031156171244	-46.7619815296831	-19.8046423345976	-22.4584529169615	1.44266433465365	
2478666666.6667	-11.1537201909306	32.0921946946981	-10.2367628160822	-11.1165748250514	-46.8412806691956	-23.0322193611806	-22.414811322599	0.14042996227674	
2479000000.00004	-11.1199959164436	31.771282016988	-10.2452288252183	-13.4595957232624	-46.8348481538166	-24.6566621834502	-22.3600040822949	-1.05196991150259	
2479333333.33337	-11.095004642725	31.366522604753	-10.2469155148841	-15.7992418924254	-46.953208429209	-28.7645025297278	-22.2917425763868	-2.2503961974361	
2479666666.6667	-11.0651555241835	30.9757722643575	-10.2563925213764	-18.1668128451635	-46.8481119858839	-30.6935173403309	-22.229074974369	-3.55154492990458	
2480000000.00004	-11.0385511295302	30.6044681381723	-10.2633933242043	-20.4702895537916	-46.9730336799483	-32.5288842340432	-22.1414647798997	-4.74645733910373	
2480333333.33337	-11.0084822451118	30.2411486161427	-10.2671307316646	-22.7919052730953	-46.8748770685948	-33.4940344599676	-22.0797893701604	-5.87365719597978	
2480666666.66671	-10.9917244135149	29.8360078233105	-10.2785614769283	-25.1325421888207	-46.8970949270661	-36.6218076233549	-21.9902421708862	-7.09039596286411	
2481000000.00004	-10.9635863756388	29.4510349858394	-10.2790920382227	-27.4316593911663	-46.8993551243177	-39.1335826980511	-21.9137474698312	-8.32216288432766	
2481333333.33337	-10.9397711841868	29.0563679815748	-10.2912185902484	-29.7311702133205	-46.7950065468976	-41.4600372047781	-21.8254321207307	-9.45655285267821	
2481666666.66671	-10.9286591963012	28.6541485136001	-10.2901140745051	-32.0333994066273	-46.9059290414395	-43.5972924811961	-21.7301252793339	-10.6292902108156	
2482000000.00004	-10.906985160495	28.2615702454	-10.2980187546148	-34.3554846829858	-47.0915100495493	-45.0009108575201	-21.6414398324	-11.7252790617699	
2482333333.33337	-10.8867398263218	27.9403466807826	-10.3028003792714	-36.6929402252335	-46.8795715702806	-47.4074734676409	-21.5427886646028	-12.9697346130906	
2482666666.66671	-10.8726848747158	27.4750353422987	-10.3083829858052	-38.9606027784723	-46.8299945365383	-51.3378062655334	-21.4453827086599	-14.0191964202436	
2483000000.00004	-10.8612757213908	27.0735219450798	-10.3081401176562	-41.2567734760311	-46.8478551595151	-53.2222254981953	-21.3425065423011	-15.0687302355521	
2483333333.33337	-10.8450795143836	26.6660844134346	-10.3146587764692	-43.5305347708215	-47.0980514684848	-55.0610868080196	-21.2396720539068	-16.1189281990919	
2483666666.66671	-10.838669793135	26.2078174908751	-10.3220769950524	-45.8165939478161	-46.9011320820375	-57.1705698367854	-21.1249399577269	-17.2128032216252	
2484000000.00004	-10.8299084685733	25.8384232858031	-10.3257767489174	-48.0881217174843	-46.8503497836631	-58.7594966376125	-21.0177735355661	-18.1419449185189	
2484333333.33337	-10.8159442549447	25.4241647585325	-10.3173461951357	-50.3763110228732	-47.0171310942378	-61.749717315721	-20.9194973052036	-19.1437293086028	
2484666666.66671	-10.810870800359	24.9802923278209	-10.3233036932798	-52.652950267031	-46.9295754461293	-63.9091973192508	-20.8167588101034	-20.0885524137622	
2485000000.00004	-10.8125627740359	24.5456231052274	-10.3244962481383	-54.9318578183239	-46.9358734434548	-64.8696225069281	-20.7036071271631	-21.0412923159521	
2485333333.33337	-10.8037227089479	24.1061060914765	-10.3300160209273	-57.2041662299128	-47.0069122658045	-68.5839091473384	-20.6002516993748	-21.9351628254342	
2485666666.66671	-10.8068548889488	23.6491237722816	-10.3278655075455	-59.4850393916307	-46.8701791516091	-71.1131621798748	-20.4829502110034	-22.7768202549172	
2486000000.00004	-10.8020545992721	23.2149606767187	-10.3316318093348	-61.7368822901762	-47.1355991132384	-71.5708259280829	-20.3793655916112	-23.6208724652008	
2486333333.33337	-10.8008112009086	22.8126861546851	-10.3302587186938	-64.0069522171745	-46.9996804067379	-75.575197672105	-20.2728318295529	-24.4210675818087	
2486666666.66671	-10.8140956150226	22.3637926961794	-10.3303555454643	-66.2889068811407	-47.0570577106518	-77.2589297977611	-20.1934212135852	-25.3670895468727	
2487000000.00004	-10.8214656833991	21.8686103227235	-10.3254155621144	-68.5276701191424	-47.0799353844955	-79.6077756050745	-20.0696944102625	-26.0101853739701	
2487333333.33337	-10.8317611635422	21.4415021253034	-10.3240779132894	-70.8157916130848	-46.9935916270701	-82.401006722446	-19.9848050469734	-26.9102068362486	
2487666666.66671	-10.8272383792295	20.9756736866914	-10.3234482461874	-73.0565551614392	-47.0652798095692	-85.0230903439609	-19.8894805504153	-27.556348112706	
2488000000.00004	-10.8449050480508	20.5212396246931	-10.3220767541153	-75.3451061960955	-47.0555055396522	-87.1112858396766	-19.7898769128001	-28.2930120930452	
2488333333.33338	-10.857223116263	20.057464042275	-10.3190381068596	-77.5925378267522	-47.1573839800399	-89.0804581126312	-19.7022022259862	-28.9838316523956	
2488666666.66671	-10.8701974746048	19.6083211310127	-10.319617692389	-79.8486345365505	-46.9964266139419	-90.9524033496177	-19.6090366027835	-29.6692021281975	
2489000000.00004	-10.8851228631806	19.1765068207778	-10.3110383841665	-82.1035132296214	-47.2858737991257	-92.5624638897735	-19.5279494015476	-30.3521459664645	
2489333333.33338	-10.894415655569	18.6618896867463	-10.3096024670779	-84.3622154468595	-47.0497189993158	-96.0314476299733	-19.4371554343588	-30.9594517869787	
2489666666.66671	-10.9168657694694	18.1357208632336	-10.3076898847974	-86.5951800292563	-47.0081422743056	-98.1781786545296	-19.3593329971134	-31.5405285732206	
2490000000.00004	-10.9268916647683	17.6802787121409	-10.3000548376766	-88.8688708740206	-46.9958107654677	-99.8861600521394	-19.2770284944232	-32.0964754770767	
2490333333.33338	-10.9641270375376	17.2206242246516	-10.2966628589074	-91.128948625594	-47.0061749169808	-102.024071753177	-19.1964579650438	-32.7144936882536	
2490666666.66671	-10.9833125454467	16.7183622664426	-10.2933381440073	-93.3585172827962	-47.1430690204825	-104.456961951264	-19.1390868598545	-33.1780264967691	
2491000000.00004	-11.0017641744885	16.2003894118428	-10.2900666092321	-95.6552440070156	-47.0957387932857	-105.8220654597	-19.0821234396	-33.8213204756729	
2491333333.33338	-11.0251248125099	15.7002432199193	-10.2870770964253	-97.9050745076211	-47.268728540207	-108.917827208028	-19.0177169011427	-34.2214105719398	
2491666666.66671	-11.044341711601	15.2522440434449	-10.2837964816786	-100.172291582118	-47.096150703878	-111.008436914247	-18.9661327362739	-34.800669460117	
2492000000.00004	-11.078883067612	14.7027374379007	-10.2781756425322	-102.401654614883	-47.0798071260662	-113.016923440846	-18.9065811529251	-35.1901947544579	
2492333333.33338	-11.0970907586983	14.1222350235	-10.2699781279813	-104.681829140268	-47.0991068147283	-115.71621479224	-18.8432059866438	-35.6106142531811	
2492666666.66671	-11.1246712895638	13.6572895452248	-10.2651466726331	-106.925962504527	-47.0409113973503	-118.042153081567	-18.8141094907023	-36.0524603011695	
2493000000.00004	-11.1683567414832	13.1539462203974	-10.2640331664509	-109.176252941702	-47.080489416847	-119.465203225211	-18.778072177908	-36.4449664563884	
2493333333.33338	-11.1910210834532	12.6354340394524	-10.2585690843484	-111.418116202263	-47.1337185117324	-121.468991149949	-18.7349341770989	-36.8326496812782	
2493666666.66671	-11.22400120032	12.0811164585205	-10.2528971615694	-113.677097660214	-47.1312438072422	-124.391120428047	-18.7009394681734	-37.1253176646381	
2494000000.00004	-11.2523742170556	11.554922007574	-10.2466157674409	-115.938748465222	-47.1336647786699	-126.685324933614	-18.6842035304421	-37.6033159565422	
2494333333.33338	-11.2875444173871	11.0046723536477	-10.240265202103	-118.179974028939	-47.1635074825465	-128.213747123777	-18.6614048857067	-37.8966364046821	
2494666666.66671	-11.3189846771909	10.4527934215453	-10.2347362343708	-120.42375593328	-47.3407315203526	-132.459333677311	-18.6497742430869	-38.1708252840923	
2495000000.00005	-11.3548506880923	9.97270031963228	-10.2358253105926	-122.673038842231	-47.1596830336417	-133.62752530204	-18.6352812511466	-38.3837488531316	
2495333333.33338	-11.3857379305446	9.41159935023898	-10.2277928805904	-124.933583967353	-47.1820969999466	-134.781690644552	-18.640953310506	-38.6863933246406	
2495666666.66671	-11.4114041517508	8.90688262051694	-10.2215416576369	-127.182283030816	-47.2060588112247	-137.530217756948	-18.6376109674093	-38.9169861772479	
2496000000.00005	-11.4478429507565	8.34210773435877	-10.2174028713504	-129.45675542735	-47.1330702915438	-140.128772506876	-18.6459084331456	-39.114520208559	
2496333333.33338	-11.4951262510456	7.77532316400156	-10.2093315839774	-131.70048051096	-47.0159804435348	-142.136980273563	-18.6500174092545	-39.255951445449	
2496666666.66671	-11.51633165101	7.17942476748921	-10.20941488241	-133.973841810033	-46.9913156121393	-144.299547581611	-18.6626792489623	-39.4856659191537	
2497000000.00005	-11.5480239984158	6.64216510067349	-10.2057093936971	-136.227706351743	-47.1425794524115	-145.490759518644	-18.6998520556625	-39.6228447916696	
2497333333.33338	-11.5787833281271	6.07841874187747	-10.1995955474376	-138.476331723726	-47.0517895403452	-149.820939569868	-18.7262886918165	-39.7489576852066	
2497666666.66671	-11.6075591266104	5.490612901802	-10.1897546550659	-140.756820817308	-47.0977071801677	-151.751075762727	-18.7552383318356	-39.8840070035394	
2498000000.00005	-11.6442627574551	4.90723251387159	-10.1918787563083	-143.00914697698	-47.12414842124	-153.765612804558	-18.7891780768432	-39.9123183469483	
2498333333.33338	-11.6683757289594	4.2916612303539	-10.1929451086677	-145.299947274868	-47.1000881335119	-154.99660954732	-18.8270008540857	-39.8625779834238	
2498666666.66671	-11.6994381661575	3.67178524635943	-10.1866286274616	-147.568946137976	-47.044467485437	-158.558632321403	-18.873644792628	-39.8040073779519	
2499000000.00005	-11.7321498419613	3.12684113776693	-10.1823526848583	-149.815134027563	-46.9651397467973	-161.154606134778	-18.9467086963406	-39.8499086171751	
2499333333.33338	-11.7544259023826	2.49297776535439	-10.1854069872422	-152.085398894632	-46.8952959207405	-161.67015278809	-19.0075105898074	-39.8202772501659	
2499666666.66671	-11.7867443726653	1.86850649803767	-10.1815725358266	-154.367276500685	-47.1070850416403	-164.714418582986	-19.0775087402558	-39.6650119389253	
2500000000.00005	-11.8163337962888	1.24163673568426	-10.1794004762607	-156.650185740343	-47.0080081729128	-167.430088783972	-19.1275123475534	-39.5083204042444	
2500333333.33338	-11.8405278147066	0.610481071074634	-10.1805812050933	-158.8964110137	-47.007642629141	-169.553449952859	-19.2327425774421	-39.3865898295309	
2500666666.66671	-11.8780785714002	-0.0324512926314945	-10.184666300469	-161.158915898946	-47.1360045853774	-172.681709244627	-19.3029134919009	-39.3041368456616	
2501000000.00005	-11.9032654076392	-0.727199585032904	-10.185406048352	-163.456679769019	-46.9592520350069	-174.71537137986	-19.3903908635345	-39.039546731691	
2501333333.33338	-11.9183240448988	-1.38934246009335	-10.1828564318012	-165.733655004818	-46.9836113343205	-175.561097757279	-19.4939514842269	-38.6677470794185	
2501666666.66672	-11.9533192194385	-2.12889511832402	-10.186449422318	-168.006279677762	-47.0647944743537	-179.896588346789	-19.5678969071473	-38.2967168367386	
2502000000.00005	-11.9788823749217	-2.77396478533752	-10.1873405061707	-170.273566120188	-46.8971265570863	178.572553108593	-19.6824154803119	-38.0070029847427	
2502333333.33338	-12.0019371131368	-3.45161403256955	-10.1940481358822	-172.569951466973	-47.1477619191251	176.03040152206	-19.7945193243077	-37.5567257776256	
2502666666.66672	-12.0183600169703	-4.1966096539637	-10.1898608271535	-174.833681991784	-47.0422787019597	173.271546057483	-19.9010186241204	-37.0622772811269	
2503000000.00005	-12.0429415671412	-4.88305595963012	-10.1923918705336	-177.104627316501	-46.9548499558277	172.440102676087	-20.0126314393699	-36.4712292190004	
2503333333.33338	-12.0600746363736	-5.63037888140193	-10.1958538592997	-179.38209908953	-46.8745679652968	169.740021080359	-20.1263958608103	-35.9330168151715	
2503666666.66672	-12.0886137611832	-6.33236375156509	-10.2027706182694	178.362917799486	-47.0856485598632	167.229531906319	-20.2530241620779	-35.2015831935375	
2504000000.00005	-12.1019200507279	-7.07281595016115	-10.209183403591	176.098665377914	-47.0372733751165	164.730212832579	-20.3628634938949	-34.5757697451123	
2504333333.33338	-12.1189592732235	-7.82853683992211	-10.2100800418914	173.819275929194	-47.043419813639	161.36015263806	-20.5068876415829	-33.7214708321769	
2504666666.66672	-12.1386650367347	-8.55426185089723	-10.2164925384876	171.559565356623	-47.0341982076205	160.199850440073	-20.6137152131573	-32.9472400979517	
2505000000.00005	-12.1540326308357	-9.29854592342906	-10.2203568048802	169.288100271655	-46.960808027949	158.591193815762	-20.7390089028138	-31.9715111929264	
2505333333.33338	-12.1644466589211	-10.0652086650751	-10.2246375658963	167.019106802684	-46.8762473293968	155.638562088844	-20.8799492998768	-30.9618203084008	
2505666666.66672	-12.1866091287281	-10.8118163171798	-10.2320435522325	164.761695239678	-46.7506404392593	153.607618094356	-21.0065050485845	-29.9368405309291	
2506000000.00005	-12.2008835351006	-11.6167496866656	-10.2388504706223	162.473034171823	-46.8759050319154	151.351223814773	-21.1151659253533	-28.9168405044482	
2506333333.33338	-12.2132950633652	-12.3277705197552	-10.2469007439027	160.235897026302	-46.9310946065503	148.726806456544	-21.2383595391276	-27.7238653637108	
2506666666.66672	-12.2201964692115	-13.1071822654117	-10.2519602986889	157.984103560362	-47.0261787310939	146.122305455503	-21.361335133054	-26.46560000878	
2507000000.00005	-12.2391008127057	-13.894801913165	-10.2603424493169	155.702551116607	-46.8594750508039	144.830925632909	-21.4732423083695	-25.1579975760698	
2507333333.33338	-12.2478517790821	-14.6725843819485	-10.2683068951996	153.443499319103	-46.9070471902517	143.624305563987	-21.5793602562712	-23.6642990053262	
2507666666.66672	-12.2527614696294	-15.4514321969691	-10.2794488171216	151.156807605694	-46.9472581328114	140.979695498601	-21.6864327094493	-22.3174737948111	
2508000000.00005	-12.2679974144101	-16.229645318709	-10.287388785778	148.908467429343	-46.8764774753942	137.911444124667	-21.7678471306954	-20.8373969039592	
2508333333.33338	-12.2741620876179	-16.9971419567461	-10.2937772734259	146.63157890436	-46.8804253027489	134.801245868625	-21.8535849738096	-19.3371247275284	
2508666666.66672	-12.2829497609295	-17.7662978440723	-10.306224622238	144.371456612625	-46.9347625765264	132.41018326437	-21.9357067270532	-17.6537750942438	
2509000000.00005	-12.2864898695776	-18.5692746260967	-10.3189957432495	142.119393706292	-46.9514127711419	130.825121225788	-21.9880935835824	-15.9518252958479	
2509333333.33339	-12.2945957265539	-19.3269155421564	-10.3258300464862	139.869438011565	-46.9538137809677	127.648057901172	-22.0372861264789	-14.2895605450557	
2509666666.66672	-12.2999200799512	-20.0647381261545	-10.3351628756084	137.608766902882	-46.8870097283142	125.366755234136	-22.0683951087255	-12.5937155904518	
2510000000.00005	-12.3029169613987	-20.8841205674334	-10.3450191274242	135.351955980904	-46.9271642957873	124.316795974388	-22.1041214063135	-10.8480602797833	
2510333333.33339	-12.3064325678568	-21.6684957195144	-10.3560733698749	133.097816848399	-46.9041327411538	120.674583298631	-22.1325059267104	-9.1142562775787	
2510666666.66672	-12.3142301456193	-22.4308990912689	-10.3696198343757	130.857068158261	-46.9362726617528	119.532596367019	-22.1051632821915	-7.5176563617851	
2511000000.00005	-12.3155682378008	-23.1787655160007	-10.3779910642623	128.567556270066	-47.0200976693477	116.679545185133	-22.1072713846929	-5.82614081418414	
2511333333.33339	-12.3169882716458	-23.8969136283099	-10.3902415818674	126.326661572343	-47.0502201762895	115.221467646797	-22.0896239708918	-4.1805495258752	
2511666666.66672	-12.3208971209267	-24.6859110937587	-10.3957597140354	124.064003930441	-47.0481797966648	112.157530465426	-22.0602452763239	-2.60094585535874	
2512000000.00005	-12.3261681849623	-25.4180442466929	-10.4137388493383	121.823213080887	-47.0628497119264	110.635432934115	-21.9904814494714	-1.00769404270565	
2512333333.33339	-12.3240120633048	-26.1670495661059	-10.4267120132869	119.555357009715	-46.9146422125943	107.65210458335	-21.9463553808641	0.549072643139953	
2512666666.66672	-12.327223423599	-26.8933389687888	-10.4332448880914	117.277905889125	-47.0692877546104	104.789177435813	-21.8898647086869	2.02656520869108	
2513000000.00005	-12.3276481266805	-27.6116734607134	-10.4422000314267	115.042622946412	-47.0201566666404	103.315926474992	-21.8180425691016	3.54676223283137	
2513333333.33339	-12.3297142207793	-28.3533454666877	-10.4597047298777	112.785188760005	-46.8818253179614	100.576328845158	-21.7300598762141	4.90855446986259	
2513666666.66672	-12.3331352051743	-29.0317676890564	-10.4678522471442	110.525819871804	-47.2193762939532	99.5067260357271	-21.640843757769	6.10980657248015	
2514000000.00005	-12.3402233690158	-29.7440441822438	-10.4782104740662	108.279407266742	-47.0860497063372	96.4718163174654	-21.5449828440362	7.36667472985877	
2514333333.33339	-12.3395953768122	-30.41459628067	-10.4904611137337	106.001526834164	-47.2313622506634	94.8722022575807	-21.4377303587856	8.53875786609146	
2514666666.66672	-12.3414581145367	-31.1333949367603	-10.5031144209459	103.738282795689	-47.1389860955066	92.2834544302919	-21.348755331965	9.58608751483714	
2515000000.00005	-12.3480172061557	-31.8001918944826	-10.517097887248	101.50574315531	-47.0928646800241	89.4398121872176	-21.2569928809955	10.4551448082752	
2515333333.33339	-12.3501009347912	-32.4450942620088	-10.5265209619349	99.2210848751369	-46.9588866493359	87.4369488359772	-21.1556061493857	11.5364377318309	
2515666666.66672	-12.3576770836966	-33.0823574391111	-10.5417384114843	96.9724921630466	-47.0541081867948	85.3615669467281	-21.0407397046005	12.3585253103637	
2516000000.00006	-12.3609851476678	-33.7069989878055	-10.5513968339469	94.7216194143182	-46.9994914619986	83.5237522386615	-20.9453876415201	13.0735221040256	
2516333333.33339	-12.3717333177299	-34.3561028256715	-10.5715733136294	92.4529018863433	-47.1773910260301	81.46184696547	-20.8275758840875	13.8161066302535	
2516666666.66672	-12.3736117592117	-34.9214695054858	-10.5726994812127	90.2284456186955	-47.1702688581384	78.1295048805092	-20.7455138187041	14.2171065840483	
2517000000.00006	-12.392645288267	-35.5299651271553	-10.5849009516434	87.9316100955442	-47.126534759872	76.6940329287565	-20.6520302997639	14.9312319238134	
2517333333.33339	-12.4000945234904	-36.0904006245183	-10.5929875197259	85.6817603785006	-47.3220042549891	73.4122400693216	-20.5542807830718	15.5069871994676	
2517666666.66672	-12.4058129994169	-36.700848983335	-10.6086025649343	83.4010087006194	-47.3453790241914	72.2559079440592	-20.4592070590653	15.8497112078037	
2518000000.00006	-12.415333021274	-37.2615373390576	-10.6216173060513	81.1491152393133	-47.1814559621354	69.7098531515273	-20.3702155395806	16.1190986932754	
2518333333.33339	-12.4240891219185	-37.7763614525482	-10.6343214163825	78.8763007802384	-47.1509089548334	66.5200577401955	-20.2907291849567	16.3829768385205	
2518666666.66672	-12.4392668931126	-38.2688251531419	-10.6421265717791	76.6237394247272	-47.2749232061051	63.6848554942027	-20.1973270369997	16.6742528603225	
2519000000.00006	-12.4589000204796	-38.7791310097951	-10.6500250991221	74.3393274681468	-47.2351850986144	62.2238439400406	-20.1576089200247	16.9432718584846	
2519333333.33339	-12.4648762932565	-39.2605302131297	-10.6607051965852	72.1015169192136	-47.1593258063733	60.7720905703292	-20.0812194611757	17.0974584010619	
2519666666.66672	-12.4817590618449	-39.7183732337524	-10.6702132501735	69.8347454198938	-47.2004016884161	58.3167151201519	-20.0213210214647	17.2069590203486	
2520000000.00006	-12.5003698353831	-40.1193018129428	-10.6813304129688	67.5715703311966	-47.2041815626903	55.6861545299808	-19.948430441333	17.0833772573629	
2520333333.33339	-12.5126877907094	-40.5736024866359	-10.6912784579421	65.30829978981	-47.1148261981544	53.5590738655156	-19.9046201360819	17.1236079130117	
2520666666.66672	-12.5420462208018	-41.0094808385737	-10.6942574614656	63.0636886033751	-47.2928742011474	51.0986895047708	-19.8686112676582	17.0007313347542	
2521000000.00006	-12.5471865697383	-41.3964598254463	-10.7097972478983	60.8063144436617	-47.2424955226788	49.8645676815756	-19.8135540289251	16.8884673090784	
2521333333.33339	-12.5648592082134	-41.7968192011947	-10.720473073521	58.5403245610235	-47.2037498339048	46.8121241773836	-19.776950067917	16.8371686798524	
2521666666.66672	-12.5800562256578	-42.1334894212937	-10.7285517682775	56.2927252641496	-47.2567980352824	44.7358470445216	-19.7582379083397	16.4732360545029	
2522000000.00006	-12.6014214651048	-42.5030083510652	-10.735516700091	54.0553471590893	-47.3833663022445	42.1756105639498	-19.741054743738	16.3034575937623	
2522333333.33339	-12.6279692876368	-42.852246191485	-10.744877790954	51.7595780623267	-47.3143199936862	40.7137959134803	-19.7383508430647	16.0246564652168	
2522666666.66673	-12.6401973997767	-43.1827028300666	-10.7548747653236	49.5453174405093	-47.3527215435496	37.3872738246575	-19.7165247856359	15.6386525680201	
2523000000.00006	-12.6607096252799	-43.4548184356485	-10.7604204077119	47.2950455472206	-47.3742603610159	35.4297704748734	-19.7186582335375	15.2742095011532	
2523333333.33339	-12.6734418804244	-43.7598694504162	-10.7711530195366	45.0727408867962	-47.3285755016447	33.4267178505547	-19.717909770514	14.8604295586512	
2523666666.66673	-12.6970956998888	-44.0720548009216	-10.774861132502	42.8283030023951	-47.3830903301617	31.9431901991624	-19.7348268262797	14.4828019442282	
2524000000.00006	-12.716965971909	-44.3050979591129	-10.7855933856179	40.5776892835763	-47.2897303019181	29.9625369016018	-19.7400229028091	14.0827652488648	
2524333333.33339	-12.7390012699393	-44.5201396209172	-10.7928428965674	38.367028706062	-47.2295104826102	26.8960231593758	-19.7669997210397	13.4621637282179	
2524666666.66673	-12.7602771018125	-44.8207574343283	-10.7968741074724	36.1083428136341	-47.3253080097822	25.2638861152549	-19.803271753727	12.9274838909448	
2525000000.00006	-12.7791985087996	-45.0300495056298	-10.8065278544871	33.9010687832633	-47.5148599042574	22.435017429131	-19.8383902854273	12.3126104125189	
2525333333.33339	-12.8052812942686	-45.218535637143	-10.8103007436967	31.6731256501233	-47.3423945448778	19.5149550946795	-19.8641841549976	11.7567276281171	
2525666666.66673	-12.8313376303405	-45.5107835070709	-10.820240129382	29.455790682064	-47.2999624909728	19.1046220262999	-19.9116337693861	11.0269541846641	
2526000000.00006	-12.8495450575131	-45.6551783274378	-10.8206177064826	27.2432241294046	-47.3090363062373	15.1881781845837	-19.9744173416787	10.4683391043797	
2526333333.33339	-12.8691743451158	-45.8581458937188	-10.8244888819636	25.0091221252326	-47.392366633873	13.5770552952733	-20.0301232245072	9.7746392228373	
2526666666.66673	-12.889052932474	-46.0475383503892	-10.8261111267271	22.7502418573903	-47.3079098627014	11.8659705993736	-20.1033573982995	8.97846835072126	
2527000000.00006	-12.9102897091864	-46.2623559829097	-10.830313633506	20.5747001619166	-47.4914709514206	9.86791159549796	-20.1705638334203	8.10395292968482	
2527333333.33339	-12.9335347125123	-46.4414338804074	-10.8346436334135	18.3619245286723	-47.4232778878877	7.84062183737955	-20.2750371551217	7.32840167115738	
2527666666.66673	-12.9501028380468	-46.5577281080024	-10.8327404985383	16.1564823548863	-47.4867468389393	5.044088416088	-20.3263754263652	6.49397892391717	
2528000000.00006	-12.9837075145116	-46.837898527538	-10.8349776815017	13.9226162438723	-47.2549710323997	2.14968585824479	-20.4138927366901	5.59261371481472	
2528333333.33339	-13.0099221625579	-47.0322668250554	-10.8311204009037	11.709047870416	-47.6187855870255	0.915070091477434	-20.5149363006272	4.63657263503632	
2528666666.66673	-13.0376804271953	-47.1783023469368	-10.8328004446617	9.46231894309694	-47.3054634125873	-2.30556247084477	-20.6168053632547	3.55669615098937	
2529000000.00006	-13.0639257196968	-47.3574369849663	-10.8293521164464	7.31136411235129	-47.5321688539399	-3.72505881343373	-20.7156940610522	2.52173958729015	
2529333333.3334	-13.0870464671483	-47.5873328736036	-10.8241359109293	5.10205510180525	-47.4331597920109	-8.1437354614269	-20.8089113117043	1.52290496027534	
2529666666.66673	-13.1260505020887	-47.725109639732	-10.8218313978749	2.88187973606945	-47.4177868311162	-8.0309044174741	-20.9222063436021	0.463390938825023	
2530000000.00006	-13.1457399072261	-47.9601062785241	-10.8102250343724	0.654547582346903	-47.4795530378532	-11.4530553278033	-21.0423738982568	-0.914656932623001	
2530333333.3334	-13.1815886014942	-48.2284610711077	-10.8051245911902	-1.54859242154151	-47.2484402720621	-11.8828719762179	-21.1695128681838	-2.16561378705822	
2530666666.66673	-13.2083448679841	-48.4300994436155	-10.796070357655	-3.76191402665809	-47.2615468422488	-15.5056574176502	-21.2890765251396	-3.39728677866573	
2531000000.00006	-13.2494541559014	-48.642943000278	-10.7914466348159	-5.97779948639702	-47.5305950482176	-17.6037810256939	-21.4151716174132	-4.66634312703311	
2531333333.3334	-13.2882539076944	-48.9126179532815	-10.7829929286885	-8.21822782765942	-47.4454277440458	-18.5420502876528	-21.5348307100389	-5.92856893732039	
2531666666.66673	-13.3265823888193	-49.1232465579216	-10.7711566168636	-10.4107205247752	-47.2350963679285	-21.8159910504674	-21.6662209796923	-7.25971519151484	
2532000000.00006	-13.3592992938745	-49.3667948251502	-10.7611663489569	-12.6365841149886	-47.3490751379489	-24.0951468748399	-21.8033516692974	-8.67584170590817	
2532333333.3334	-13.3969965669386	-49.626230512277	-10.7514810959652	-14.866683387348	-47.267368400509	-25.6894352152898	-21.9243335971945	-10.0665944900187	
2532666666.66673	-13.4434701784416	-49.8205284732004	-10.7370417103287	-17.1047683174221	-47.2469743502345	-28.2056571645505	-22.0724616229185	-11.5930859137243	
2533000000.00006	-13.4843175126186	-50.1161131092415	-10.7246044607364	-19.3568363876435	-47.2662043506299	-31.3978386406996	-22.2051761100997	-13.0759753394234	
2533333333.3334	-13.5263310569688	-50.4337612176855	-10.7136642582252	-21.5823640986342	-47.2640709477158	-32.9345964938829	-22.3427040648497	-14.5356670368969	
2533666666.66673	-13.576889040826	-50.6330226873505	-10.6997440816127	-23.8137253660279	-47.3215678259362	-35.217281741379	-22.4894585063442	-16.0406434850806	
2534000000.00006	-13.6246809874504	-50.9410462994907	-10.6877962663134	-26.0438179522846	-47.2647391343754	-37.2424935154204	-22.6294373613089	-17.4897825293735	
2534333333.3334	-13.6807448684255	-51.1771640337714	-10.6774879686291	-28.2959029057941	-47.1275311258077	-40.0471579631137	-22.7733196777938	-19.3039517649363	
2534666666.66673	-13.73039644339	-51.4167849883181	-10.6663728072562	-30.5603887993628	-47.2708925307359	-43.0231129852459	-22.8988181692983	-20.7761823638404	
2535000000.00006	-13.7785366685086	-51.6917319040178	-10.6513162803684	-32.8057062029236	-47.26682423842	-43.7118344812344	-23.0327813738289	-22.3909471141017	
2535333333.3334	-13.8339882877815	-52.0507320412701	-10.6410822556657	-35.0803474175659	-47.103284739038	-46.1401263888176	-23.1698369419615	-23.98196588513	
2535666666.66673	-13.888047065862	-52.3070183566933	-10.6263395061332	-37.3312410861145	-47.320719781886	-48.018898207556	-23.2917615123778	-25.8689285646995	
2536000000.00006	-13.952741786217	-52.5883063554933	-10.6171876951832	-39.6254389502907	-47.1555986630823	-50.6292405885318	-23.4335771223513	-27.5338729319584	
2536333333.3334	-14.012800435575	-52.9584148373483	-10.6065990072057	-41.9035809397656	-47.1681760961698	-52.943962870228	-23.5566049001226	-29.2494545498153	
2536666666.66673	-14.0728433276075	-53.3315226376615	-10.5927263691543	-44.162107623742	-47.3116529665259	-55.0167473505354	-23.6648640036945	-30.8749382409502	
2537000000.00007	-14.1399066268108	-53.5383183634348	-10.5814900026457	-46.4125378015566	-47.065838685196	-58.5157375922623	-23.7981485115669	-32.5985921466379	
2537333333.3334	-14.219902018367	-53.907143009317	-10.5738414807272	-48.7260795068574	-47.2495413001205	-59.9152748519361	-23.9277387203359	-34.2903603091497	
2537666666.66673	-14.2765115239804	-54.2555182810933	-10.5650048525877	-50.9797606600872	-47.0919418266457	-62.7884046860202	-24.0462344736507	-35.9926823317852	
2538000000.00007	-14.3563149874967	-54.52893121548	-10.5511901880562	-53.3147843125584	-47.0782787392642	-64.2085865740306	-24.1382541056748	-37.6597610837925	
2538333333.3334	-14.4175856604488	-54.8668685904639	-10.5382788115242	-55.5665375232661	-47.1082468170377	-66.6120516094199	-24.2509626898528	-39.4345636168449	
2538666666.66673	-14.4943534159137	-55.248746017981	-10.5290418572443	-57.8798674043903	-47.0259661511824	-67.6546016753697	-24.3855269037551	-40.943113748858	
2539000000.00007	-14.5612259616119	-55.5807313821474	-10.5209816355723	-60.1500837244843	-47.1745694811698	-70.4113754130138	-24.4677602769946	-42.6863503635453	
2539333333.3334	-14.6450347688438	-55.8692358817405	-10.5109146526618	-62.4319269494769	-47.2210081936283	-73.2857510381829	-24.5666521313912	-44.2859631063045	
2539666666.66673	-14.73961142583	-56.2601315762164	-10.5091924479115	-64.7203969250563	-47.0263312866592	-74.4411129457205	-24.6701624746856	-45.7542361580736	
2540000000.00007	-14.8066700973088	-56.6897775718028	-10.5002190907196	-67.0350933338886	-47.0461545921951	-77.0693476715569	-24.7352491155386	-47.3671517972993	
2540333333.3334	-14.8934159604955	-57.0365206050707	-10.4924247992958	-69.3424461501743	-47.0195602517829	-79.3014288682443	-24.8281454502505	-48.6450944606145	
2540666666.66673	-14.9911718369004	-57.417760874632	-10.4917152215842	-71.6630191331362	-47.1615195110505	-81.643196022528	-24.9356040039295	-50.0687430416536	
2541000000.00007	-15.0646727309933	-57.8044797754114	-10.4753015978867	-73.971662547045	-47.0754215558486	-83.4567799329255	-25.0164666220824	-51.5249485105032	
2541333333.3334	-15.1494890179133	-58.1610567576783	-10.4767840193425	-76.2373711018469	-47.0299556892859	-86.420276435486	-25.0863510999713	-52.7438079469385	
2541666666.66673	-15.2433380201472	-58.6817141105286	-10.4684810853785	-78.5764693266163	-47.0842286602717	-88.5053148384357	-25.1612610711124	-53.8997865901913	
2542000000.00007	-15.3410175090886	-59.0486463481349	-10.4642153183424	-80.8581647527239	-47.2445527002165	-91.2382632005988	-25.2416816305347	-55.0614675344664	
2542333333.3334	-15.4359299697592	-59.4599791839539	-10.4673585540263	-83.1634312400827	-46.9726073482385	-93.0292498478409	-25.3310350356878	-56.2009565098544	
2542666666.66673	-15.5225851193905	-59.9044122162444	-10.4579297305381	-85.4464576462451	-47.1269684560297	-96.1476858407221	-25.3994955951694	-57.1789555558012	
2543000000.00007	-15.6206205447457	-60.280574839036	-10.45459502286	-87.7496933578533	-47.1099910074231	-97.0211746239251	-25.4647078876948	-58.0652126013647	
2543333333.3334	-15.7173582375713	-60.7413589144628	-10.4495656269378	-90.0706892120879	-46.9664642506495	-100.454571798314	-25.555642713775	-58.6649829375108	
2543666666.66674	-15.8163012096466	-61.1217184319843	-10.4539349456301	-92.3586766258685	-46.9250562431695	-102.204278278025	-25.6417672878585	-59.3926038821499	
2544000000.00007	-15.927010649526	-61.5401856678747	-10.4538653124518	-94.6649631924169	-46.9808355413667	-104.124119698191	-25.6957651480221	-60.0863067693086	
2544333333.3334	-16.0224743428775	-62.0007684182538	-10.4535296325554	-96.9206587109674	-47.0622510659133	-105.842299339062	-25.782446371122	-60.6886451283705	
2544666666.66674	-16.1143156107175	-62.4558470352946	-10.452968076529	-99.2318600138897	-47.1064440102696	-109.764133618372	-25.8451159525268	-61.1618398564581	
2545000000.00007	-16.2340620670486	-62.9180384752569	-10.4554033625589	-101.536451263256	-47.0289733361966	-111.90055324588	-25.9272594727691	-61.307680003564	
2545333333.3334	-16.3235259480922	-63.3506591608524	-10.4503759914586	-103.834513849431	-46.8760040921836	-112.018665809732	-26.0232035511134	-61.5413238760664	
2545666666.66674	-16.432904586593	-63.8244932772614	-10.4540359081562	-106.128726537037	-46.7281931695002	-116.467015504281	-26.0962546141693	-61.6666825972411	
2546000000.00007	-16.5334501580967	-64.2610279088977	-10.4508630215685	-108.390987230006	-46.9881393736402	-118.216014058641	-26.1609978290618	-61.7714929266561	
2546333333.3334	-16.6304911265905	-64.8089331819115	-10.4571187850438	-110.66791688435	-47.1636336416476	-119.898014850693	-26.2458237999643	-61.6511522582026	
2546666666.66674	-16.7281433697737	-65.2794666521132	-10.4599409445464	-112.927856860421	-47.0749383918352	-122.702779759193	-26.3240729194847	-61.4656179455551	
2547000000.00007	-16.8283124626395	-65.7241484221101	-10.4584893601834	-115.209217132889	-46.9947831123981	-124.858841116528	-26.3669657079847	-61.0406557103585	
2547333333.3334	-16.936308187009	-66.2816216667265	-10.4593324491255	-117.500356917342	-47.2368480801784	-127.442328013734	-26.4469295582718	-60.5654942170521	
2547666666.66674	-17.0336780523413	-66.7829587382105	-10.4590786886841	-119.739289687088	-47.0541887786487	-128.576499426242	-26.5098748295725	-59.8835220687496	
2548000000.00007	-17.1309124839026	-67.3382238553111	-10.4628673099982	-122.007657462374	-47.0213534570574	-131.556863389772	-26.571851066013	-59.5699321950777	
2548333333.3334	-17.220539771102	-67.846479680555	-10.4692319376953	-124.258713011322	-47.0124174602532	-134.334103488895	-26.6424728366914	-58.7063705742024	
2548666666.66674	-17.3174239250472	-68.3299037161376	-10.4670975779001	-126.530420556031	-46.9650598962176	-136.355579702124	-26.6978875751845	-57.8654692775106	
2549000000.00007	-17.4134752870989	-68.912284202325	-10.4641322714436	-128.772204059312	-47.1715851747412	-138.9827047565	-26.701880897616	-56.7984795037877	
2549333333.3334	-17.5012146003062	-69.5114457496833	-10.4666224578486	-131.012293019899	-46.9479723228462	-141.185811756322	-26.7741020137828	-55.6572208847161	
2549666666.66674	-17.613178957693	-70.1417937405175	-10.4643219182889	-133.257798863175	-47.107396861824	-142.759395006492	-26.795949184434	-54.52320319066	
2550000000.00007	-17.6953171133031	-70.671937978925	-10.4647632621417	-135.508614246734	-46.9575136944344	-145.128817954142	-26.7890030752766	-53.2893008364031	
2550333333.33341	-17.7826762128866	-71.3742740740202	-10.4657047628859	-137.766162432873	-47.0071429978934	-148.304997726421	-26.810583328156	-51.8968676061279	
2550666666.66674	-17.8599952444701	-71.9855789409695	-10.4628644274626	-140.002213291681	-47.033448436004	-150.189980261772	-26.7668080598856	-50.4878348456143	
2551000000.00007	-17.9537281888676	-72.6962758594796	-10.4616619895024	-142.228586217781	-47.0367916875511	-152.230326118961	-26.754319544339	-49.1091146225344	
2551333333.33341	-18.0362115574459	-73.334025413418	-10.4583232915635	-144.475482636791	-47.0445219345059	-154.914858579406	-26.7607076963413	-47.3865671426139	
2551666666.66674	-18.1170550067844	-73.975355374323	-10.4585291863084	-146.704631940601	-46.8160174266224	-156.528993536659	-26.6869861584455	-45.6457357302201	
2552000000.00007	-18.1914797529792	-74.7185424712701	-10.4553108804795	-148.950063156746	-47.0626476941429	-159.928899933057	-26.6107523831819	-44.1453246057411	
2552333333.33341	-18.2599951341953	-75.4528578851274	-10.4521269392452	-151.199140210631	-46.7914160934157	-161.769570428972	-26.5114852983869	-42.3234385967973	
2552666666.66674	-18.3426100881561	-76.0820817149492	-10.450332376212	-153.424774316797	-46.8916566466576	-163.723968871364	-26.4441918052936	-40.6362270219752	
2553000000.00007	-18.4045830607397	-76.8709132559896	-10.4432327324825	-155.6738880915	-46.7745748753149	-165.312311095139	-26.3514929158254	-39.0497912439568	
2553333333.33341	-18.4601266398377	-77.5845560905926	-10.4429062593763	-157.913401027935	-46.8616079306205	-167.704400168786	-26.2495886495897	-37.3473897505706	
2553666666.66674	-18.5238378137457	-78.2889124127635	-10.4413497704062	-160.147640071562	-46.9874831787209	-169.968664636709	-26.0991061331091	-35.770176266982	
2554000000.00007	-18.5863627777468	-79.1044728102424	-10.4374430773386	-162.397590398326	-46.8694434038105	-172.735966365862	-25.9438327795742	-34.1459179343565	
2554333333.33341	-18.6302463457021	-79.8613914401592	-10.4330536605795	-164.665045570227	-47.0374835403021	-175.366470644857	-25.7886838445592	-32.5646494348201	
2554666666.66674	-18.6840115328872	-80.6473201605186	-10.4253788492809	-166.920374228948	-46.9364860431551	-176.772222896823	-25.6131724582483	-30.9149671350772	
2555000000.00007	-18.7175698254477	-81.3637202940189	-10.4269500637156	-169.130084364487	-46.8763695223022	-179.197305793534	-25.4617309920102	-29.4446754943097	
2555333333.33341	-18.7576227688804	-82.2162760213574	-10.4172276751128	-171.407772827944	-46.9183551297686	178.02821517045	-25.2589884604844	-28.0637508688077	
2555666666.66674	-18.7964321500452	-82.9896175973273	-10.4078191561407	-173.645400455615	-46.9017739973154	175.056108690323	-25.07919439262	-26.4959548448738	
2556000000.00007	-18.8299677636699	-83.7636643358824	-10.4079256238613	-175.904567562529	-46.7613298842157	173.345183435588	-24.8892058052342	-25.1832893257091	
2556333333.33341	-18.8558804064398	-84.5670453623023	-10.3982560271695	-178.158094544449	-46.763953417198	171.844410814027	-24.6916461518661	-23.8477944028938	
2556666666.66674	-18.8648474719828	-85.4263574169967	-10.3974123035659	179.603115880719	-46.7391863232656	168.945562808735	-24.4999594318057	-22.775641269742	
2557000000.00007	-18.8758213348465	-86.1645924219837	-10.3928052482552	177.321207597433	-46.9985948870081	166.723638012936	-24.2781633409471	-21.5211894145585	
2557333333.33341	-18.8967192017652	-86.9560116281422	-10.3856212237908	175.080818321346	-46.7828149934192	163.960132791694	-24.0972022588758	-20.3450394064978	
2557666666.66674	-18.8900164340934	-87.9005283598502	-10.3745051718695	172.777794367815	-46.7104066619583	161.596074243638	-23.878622354866	-19.4283599635247	
2558000000.00008	-18.9025560972631	-88.6404937718541	-10.3735444756122	170.508032217911	-46.7785852954393	159.094410229528	-23.693927167191	-18.3624175612602	
2558333333.33341	-18.8956890619478	-89.3916118443175	-10.3696909966723	168.203338378796	-46.7000998407624	157.19677619851	-23.4731234388127	-17.3990556463569	
2558666666.66674	-18.8757943981058	-90.2716757509977	-10.3652633704904	165.945921188148	-46.6886380523932	154.962132476892	-23.282787753497	-16.6466202635697	
2559000000.00008	-18.8782099858523	-91.0157910913382	-10.359380178956	163.695873287735	-46.9272676762465	152.507254158729	-23.0805862047205	-15.6226821526084	
2559333333.33341	-18.8474033485756	-91.959159061608	-10.3543288351112	161.393858999399	-46.9261003916407	150.004953634289	-22.9072960119421	-14.7887810221059	
2559666666.66674	-18.8318475235229	-92.6711652109852	-10.3442700674646	159.125635490192	-46.5743475778732	148.252091838847	-22.7083011899969	-14.1316034651451	
2560000000.00008	-18.794279201868	-93.5312918064392	-10.34314421868	156.805459311291	-46.6465082089749	146.478480270177	-22.5257410072221	-13.4961205011936	
2560333333.33341	-18.7779514770579	-94.3511775677027	-10.3391886102736	154.496466594421	-46.8458198689032	142.908003765176	-22.3448242045328	-12.6671171613468	
2560666666.66674	-18.7461355322593	-95.1349137944037	-10.3365647485765	152.200597465848	-46.6261509896419	140.970415902567	-22.1873810080899	-12.070480113641	
2561000000.00008	-18.6931994332093	-95.9358885507693	-10.3315680162049	149.91858308484	-46.7630261350369	138.85829283587	-22.0169766185987	-11.4630441500443	
2561333333.33341	-18.6492613422128	-96.7389625829016	-10.3266527221335	147.593524089646	-46.6900365819566	136.553800222686	-21.8305925621785	-10.8367669741808	
2561666666.66674	-18.6061789042662	-97.4601382720837	-10.3231783079855	145.25945116521	-46.7435334938918	133.661607410902	-21.6577685495369	-10.4006974261847	
2562000000.00008	-18.5635388167138	-98.2683648219896	-10.3197496805745	142.940982559956	-46.7189267276356	131.973161081297	-21.5074818879981	-9.85672966588992	
2562333333.33341	-18.5073415599019	-99.0960013819271	-10.3196586300835	140.623014996541	-46.6917150266948	129.572219755381	-21.3768518043847	-9.23625937806004	
2562666666.66674	-18.4587241963141	-99.8082363062786	-10.3156670160309	138.295049731508	-46.5885111721831	127.139326239873	-21.2182988184376	-8.78822330587817	
2563000000.00008	-18.4151971976425	-100.606637228645	-10.3155713378255	135.944520672809	-46.6339709998689	123.873202972774	-21.0497092287182	-8.3459050706244	
2563333333.33341	-18.3575656641253	-101.384254045947	-10.3118653136535	133.618991379316	-46.614778383676	123.179274661926	-20.9266145469435	-7.90391922949478	
2563666666.66674	-18.2906935236971	-102.147764132434	-10.3146728366723	131.280966975723	-46.6246613062663	120.833837905548	-20.7999689314391	-7.51897329334142	
2564000000.00008	-18.2400166412929	-102.827427935401	-10.3148646031648	128.92088975373	-46.4767783566867	117.475107749915	-20.6792030528502	-7.10374183721995	
2564333333.33341	-18.1849813819846	-103.595267515618	-10.3147798930826	126.55587585473	-46.5983207822329	115.638669129528	-20.542997140734	-6.79998607726121	
2564666666.66675	-18.1261688670915	-104.382361593223	-10.310477036811	124.200517924548	-46.5681550551356	113.491004644942	-20.4372575487676	-6.43635948647399	
2565000000.00008	-18.0612931876046	-105.067837375862	-10.3158932087575	121.849574653396	-46.5316575362096	110.186953506949	-20.3020628744585	-6.08999840696135	
2565333333.33341	-18.0149583462868	-105.852338824319	-10.3186383565898	119.507856954298	-46.7380470986524	108.907257901148	-20.2063632596909	-5.70747601484527	
2565666666.66675	-17.9538326710484	-106.532414261054	-10.316785359667	117.128944709234	-46.6558540027956	105.216088536881	-20.1257645844411	-5.39161033611279	
2566000000.00008	-17.8956045722484	-107.264508843063	-10.3182269917078	114.777178050973	-46.706901980872	103.060249843353	-20.0053474396757	-5.09286121965989	
2566333333.33341	-17.8405895790009	-108.040206293827	-10.3218019540447	112.403408053542	-46.6448038472625	100.669961270323	-19.9248398290932	-4.79288482329771	
2566666666.66675	-17.7935191101208	-108.790285276299	-10.327961188746	110.049980797199	-46.6277527733637	99.231414622863	-19.8286867371791	-4.42801748829446	
2567000000.00008	-17.7368716812106	-109.534426628814	-10.3326942148542	107.660574978038	-46.6889026490674	96.5151862190277	-19.7408876041065	-4.16303995859183	
2567333333.33341	-17.6835754194611	-110.195282273622	-10.3364653029437	105.299783570866	-46.6302593306358	93.4599583054191	-19.6791655803485	-3.88003340471502	
2567666666.66675	-17.6341091166864	-110.910705379647	-10.3421508985145	102.917002154251	-46.8084943928135	91.5777310724008	-19.5970246566915	-3.47891978546442	
2568000000.00008	-17.5916362468392	-111.633473708747	-10.345821000607	100.520220077981	-46.6355872545055	89.5306323915187	-19.5282781131821	-3.19805950068453	
2568333333.33341	-17.5533599063158	-112.376941204131	-10.3538489789603	98.1749771027838	-46.6063322193228	87.0158554900091	-19.4610985285247	-2.91000098458618	
2568666666.66675	-17.5107403898453	-113.042491193462	-10.3576424690311	95.7963729256164	-46.6088576278981	84.5398651703412	-19.4018316310925	-2.70232423378447	
2569000000.00008	-17.4701705812855	-113.694767956928	-10.3711717758895	93.4201939359864	-46.6481952291584	82.9116656028816	-19.342332320075	-2.48118384736138	
2569333333.33341	-17.4275456958289	-114.452463930865	-10.3771014732717	91.039299014135	-46.5860599822907	78.8920570392498	-19.2809681384388	-2.13742489343065	
2569666666.66675	-17.3912586687122	-115.118613334089	-10.3844001811414	88.6873075101618	-46.6660658001634	78.0643330553432	-19.2436953764874	-2.02897867692765	
2570000000.00008	-17.3628300256957	-115.704172384802	-10.3964499791557	86.3179431456112	-46.664667152625	75.113231798255	-19.1840933476986	-1.62073128726986	
2570333333.33341	-17.3411252754378	-116.48903630854	-10.4027444365716	83.9640758726436	-46.7645588797839	72.6209139777222	-19.1504046145877	-1.47289229686934	
2570666666.66675	-17.3094203322332	-117.091522730936	-10.4163645810556	81.6092697903104	-46.6303703011911	71.0779210681802	-19.0942052536543	-1.16621205255776	
2571000000.00008	-17.2953140327661	-117.81929228607	-10.4206012260239	79.251158315561	-46.7347307296794	69.1472759460102	-19.0645586178732	-0.95977335595565	
2571333333.33342	-17.2726238020325	-118.493268807045	-10.4284014250155	76.8812353915782	-46.8495419853739	66.1155383446947	-19.0307078297639	-0.603720939927273	
2571666666.66675	-17.2500263478117	-119.188622106604	-10.4454703690484	74.5260367250246	-46.7117037646174	63.7547849314388	-18.9997796545102	-0.418073467841651	
2572000000.00008	-17.2364649178235	-119.76056070552	-10.4530042850561	72.2137851077694	-46.6767141156972	61.5032766305165	-18.987271079685	-0.172282655984933	
2572333333.33342	-17.2325139787672	-120.41462984171	-10.4616396868681	69.8829453638259	-46.6664298596987	59.4047757644452	-18.9410280856476	0.0510682901961983	
2572666666.66675	-17.2300221309369	-120.997438130106	-10.4697624932815	67.5676294953289	-46.8249866702217	56.4459939323714	-18.9459834255241	0.167419699956356	
2573000000.00008	-17.2235138029043	-121.675742528118	-10.4791557849127	65.2427643451871	-46.8128301186816	54.4176365092241	-18.9245470575892	0.484361681865411	
2573333333.33342	-17.2165173400965	-122.335836480336	-10.4926910560585	62.925370070739	-46.6839117630928	53.4380534473367	-18.9287333015827	0.568435972735269	
2573666666.66675	-17.2340811165813	-123.002816929203	-10.5005826012861	60.6118873026176	-46.7551069190333	50.0630022844431	-18.9186989516479	0.816773464227725	
2574000000.00008	-17.22818928767	-123.70898191534	-10.5083086456638	58.3138278066652	-46.8893201737261	47.8214569742945	-18.9244688719351	1.00175584658575	
2574333333.33342	-17.239109443619	-124.329543210213	-10.5165777585428	56.0249311092899	-46.8135953709705	45.9524328391499	-18.9224496687105	1.23616766669228	
2574666666.66675	-17.2547851591569	-124.924376271845	-10.5216774753494	53.7293534767053	-46.8380768195569	44.0103522156602	-18.9288353478719	1.38899471085542	
2575000000.00008	-17.2785202023226	-125.567503357914	-10.5263453101525	51.4441774189099	-46.8577657325578	40.7605871177883	-18.9290990960342	1.62819234523064	
2575333333.33342	-17.2922373648553	-126.1991799664	-10.5333285949812	49.1856110398382	-46.7249384195389	39.5008469855218	-18.9468197469009	1.73406774159116	
2575666666.66675	-17.3228164694663	-126.930950348589	-10.5440819516712	46.9018705153587	-46.7758196806556	36.457874599454	-18.964523245937	1.92044065812638	
2576000000.00008	-17.3537943034646	-127.513118521895	-10.548492674266	44.6574859413931	-46.9540960607834	33.1141529287643	-18.9841227970708	2.04614769057137	
2576333333.33342	-17.3761711809536	-128.27105559711	-10.5509038884217	42.3973784717971	-46.8761690227802	32.9686920162792	-18.9959117682977	2.1668665941159	
2576666666.66675	-17.4244284034522	-128.938258124503	-10.5536088347865	40.154776051689	-46.9057836801951	30.0718026751882	-19.0406535089643	2.34669141913483	
2577000000.00008	-17.4682983296816	-129.571167452261	-10.5562058272579	37.8782230874037	-46.9882724019742	27.6184847946589	-19.0733767225943	2.4772819910204	
2577333333.33342	-17.5264028469179	-130.208037945367	-10.5621911085571	35.6211913723695	-46.9739852823862	25.2112425600854	-19.1017891582701	2.67464821288643	
2577666666.66675	-17.5559428973721	-130.971442846776	-10.5651191127286	33.4139353721877	-47.0339435202213	23.4468562197185	-19.1326330581738	2.68724498915847	
2578000000.00008	-17.6226109548386	-131.60838950408	-10.5629788949587	31.1747660652231	-46.9967882059339	20.3971954915021	-19.1656119773757	2.80862704127551	
2578333333.33342	-17.6513467169882	-132.275219529539	-10.5633737383635	28.933125129687	-47.1020397760826	18.1551037588275	-19.2107846095237	2.90299273248322	
2578666666.66675	-17.728564002115	-133.067262116015	-10.5626140492147	26.7243536953045	-46.9090014144578	16.0233280963402	-19.2596507233269	3.01780090260131	
2579000000.00009	-17.8031080311479	-133.664971338197	-10.5661207940445	24.4587115541983	-47.0343636755565	14.3300113880162	-19.3322149925466	3.15128066376963	
2579333333.33342	-17.8588117867905	-134.354338566874	-10.5644093809582	22.2411852167869	-46.9998563819352	11.8356928248153	-19.4008526200682	3.14858772048271	
2579666666.66675	-17.946737157395	-135.190518172387	-10.5615351266321	20.0118192611438	-46.9800744760857	9.42566369847633	-19.45314351507	3.3547916094302	
2580000000.00009	-18.0090543659376	-135.887625893037	-10.5633072389416	17.7958410487766	-46.9393672967839	7.22539856397052	-19.5088294173311	3.52316329836573	
2580333333.33342	-18.0986363944508	-136.606430015932	-10.5570603179309	15.5689569540772	-47.0420483471604	5.48432634042674	-19.584286419929	3.61254127984263	
2580666666.66675	-18.1999796908936	-137.399703651194	-10.5590083760307	13.3104556666888	-46.9230594325245	3.01880920780408	-19.6613324641586	3.65490804946361	
2581000000.00009	-18.2823990403118	-138.165969575236	-10.5515241160897	11.0985134036043	-47.2224235163708	0.886514883245639	-19.7361319226496	3.68877192912069	
2581333333.33342	-18.3768738043198	-138.799176365212	-10.5470299964921	8.88330133139246	-47.234271939085	-1.41856447347312	-19.8184538908957	3.61289039887454	
2581666666.66675	-18.4618106552449	-139.614423851514	-10.5398032364041	6.69035068305005	-47.1255250928368	-3.5257045683074	-19.9303883955565	3.69508000932019	
2582000000.00009	-18.558077989188	-140.423218869964	-10.5399353856057	4.46089316465813	-47.0576338311067	-6.15093875108738	-20.0014688250435	3.929319789004	
2582333333.33342	-18.6912085383993	-141.166027886459	-10.5324276478309	2.23257924688485	-47.3100128637309	-8.786007088972	-20.1083907876817	3.80371587775313	
2582666666.66675	-18.7804325475885	-141.891995938671	-10.5326299368178	0.0120446010472557	-47.1358506848566	-10.4195675533278	-20.1999594157873	3.76489611003153	
2583000000.00009	-18.8972102288061	-142.738765966944	-10.5236324108571	-2.20953520853724	-46.9941159977471	-12.9067515249926	-20.3130254538277	3.83320143445162	
2583333333.33342	-19.0017965774312	-143.505826019022	-10.5169984275489	-4.43186856744536	-47.0749465667491	-14.9207280796061	-20.4285611967516	3.99990541994703	
2583666666.66675	-19.1260919068142	-144.301126886334	-10.5123370304622	-6.66510764405564	-47.007659452856	-18.0318449043767	-20.5462158595845	4.06601404210282	
2584000000.00009	-19.2438167137209	-145.156765720954	-10.5065943032626	-8.91980245562199	-47.2432423536112	-20.2780559361668	-20.6920115883977	3.99982459767609	
2584333333.33342	-19.3615179785319	-146.065685745747	-10.4987732205447	-11.1308256489121	-46.9470158409195	-21.9396594930244	-20.7999988680838	3.97316519391318	
2584666666.66675	-19.4793168287045	-146.883670780222	-10.4932503873795	-13.4075955506264	-47.0073328877819	-23.1204573994648	-20.9440534608408	3.92520430622728	
2585000000.00009	-19.6006794046273	-147.831954702977	-10.4885153325731	-15.6188072192937	-47.002023565391	-25.9179702503149	-21.0954317047564	3.9235560605142	
2585333333.33342	-19.7446144563059	-148.685375558273	-10.4795024532275	-17.833464518822	-46.9919163240789	-27.9956292583911	-21.2545598496041	3.75618366025511	
2585666666.66676	-19.8646361619739	-149.614004979448	-10.4735512568549	-20.1055960390001	-47.0360184391707	-30.3226185459398	-21.3935999869359	3.69539312193313	
2586000000.00009	-19.9974333002988	-150.506980084413	-10.4643006792826	-22.3594162340802	-46.9334877647709	-32.3643440305205	-21.5353153171565	3.77477204227	
2586333333.33342	-20.1165138140044	-151.477256748943	-10.4550905873331	-24.6253101412779	-46.9288202133821	-34.8360437139608	-21.7111610949547	3.73976394547649	
2586666666.66676	-20.2788952209836	-152.421086201552	-10.4512969305216	-26.8788394524028	-47.1326282034876	-36.6352048147494	-21.8808123745323	3.53478824232929	
2587000000.00009	-20.3847184583378	-153.414764795194	-10.4428380717679	-29.1210070151263	-47.0391757703219	-38.6884644801379	-22.0430677146685	3.54114536850625	
2587333333.33342	-20.5304860896388	-154.50917109137	-10.4362914674912	-31.3968975283128	-46.8601583764493	-42.0722001191636	-22.2425865643698	3.4203283243052	
2587666666.66676	-20.6963923605063	-155.484260781039	-10.4299489918278	-33.6754884009365	-46.9255620492168	-44.4783485206706	-22.4053398219552	3.47857844459617	
2588000000.00009	-20.8075122679159	-156.546671035536	-10.4233156214992	-35.973212817184	-46.9381369506288	-45.6743528290569	-22.5947395337618	3.36069739383609	
2588333333.33342	-20.9420897815404	-157.635561486322	-10.4165439477245	-38.2406992632623	-46.9424948780527	-47.8498708361041	-22.7901282346716	3.32881637472541	
2588666666.66676	-21.0637746858506	-158.839227003372	-10.4104933725493	-40.5380668057179	-46.9734390199577	-50.3783177210724	-23.011729317901	3.29636984669609	
2589000000.00009	-21.2037427023109	-159.893084607502	-10.4087457088427	-42.7934213888681	-46.9429762095831	-54.1778074211455	-23.1871796144136	3.0781887340549	
2589333333.33342	-21.3436199517455	-161.067967566301	-10.4004729373871	-45.0994795330042	-46.9305834055947	-55.4096778035354	-23.4289583370138	3.05277275657854	
2589666666.66676	-21.4432506706592	-162.326251800116	-10.393720581945	-47.3822205824218	-46.8250091397806	-58.508294849987	-23.649144562097	3.00617527268001	
2590000000.00009	-21.5803049558972	-163.508556349937	-10.3918436622862	-49.7000218176328	-46.891044474892	-60.2686462145773	-23.8752732665953	2.801120307196	
2590333333.33342	-21.6950114184421	-164.930010587028	-10.3892375077691	-52.001783982205	-46.8866771403308	-62.7500987880375	-24.1008768768153	2.61801791632878	
2590666666.66676	-21.8087527632417	-166.248615015433	-10.3824626874611	-54.2991353371591	-46.9231863026885	-65.5597704138317	-24.3286976877439	2.5001845468043	
2591000000.00009	-21.9298385553338	-167.548515708766	-10.3798195925117	-56.6145551476144	-46.9897787462183	-67.6558541650286	-24.5781289036799	2.34903494849445	
2591333333.33342	-22.0309627561447	-169.053920065602	-10.3735521846092	-58.9316189626256	-46.8220428154536	-69.8916861597084	-24.7989630505264	2.51049823827757	
2591666666.66676	-22.1558023148261	-170.557544635121	-10.3694697425142	-61.2691186637314	-46.8535631618541	-72.1801102172025	-25.0461677973333	2.29658238286952	
2592000000.00009	-22.2426940595065	-172.041969433787	-10.3671863542799	-63.5755484799914	-46.8485805817048	-73.2096165358188	-25.3273455523336	2.24633099270956	
2592333333.33343	-22.3123119847719	-173.52029050371	-10.3634580831118	-65.9000123538624	-46.7152686935951	-75.3250446043148	-25.5755998117434	2.25753048903836	
2592666666.66676	-22.415573846253	-175.235433889622	-10.3606880427933	-68.2424144209285	-46.6559319817415	-78.4216983470394	-25.8285989037162	2.29289718724428	
2593000000.00009	-22.4703571868431	-176.984455649731	-10.3595685349933	-70.5551524597027	-46.9774411018739	-79.3771866864283	-26.0663387772893	2.36017571875413	
2593333333.33343	-22.5400750567328	-178.702488816273	-10.3564883415689	-72.9104038023454	-46.8170712244469	-82.0266854552575	-26.3405281939154	2.56737206439564	
2593666666.66676	-22.6215796379276	179.522914957171	-10.3559902248475	-75.2318703374562	-46.9170149798514	-85.2584143379557	-26.645814155079	2.45830447802351	
2594000000.00009	-22.640427777041	177.741720475426	-10.3560369965116	-77.585375828564	-46.7899513644807	-86.1832510561892	-26.8890664988304	2.60857865670294	
2594333333.33343	-22.6764835074871	175.789619243234	-10.3526237471281	-79.896860239271	-46.5668241368086	-90.2398943684774	-27.1761613460883	2.61075060800538	
2594666666.66676	-22.7012808120577	173.929732383639	-10.3529800330065	-82.2423446900123	-46.9012140442475	-91.8120460307594	-27.4236641901926	2.67734511484953	
2595000000.00009	-22.7066166523519	172.069669226714	-10.3575893322338	-84.5650742856339	-46.7372415851345	-94.4688064434942	-27.6846649027044	3.12587746507112	
2595333333.33343	-22.6966621687535	170.016681513312	-10.3546290533664	-86.8933461691622	-46.9547701059475	-96.0447732484609	-27.9471108762081	3.22415951955465	
2595666666.66676	-22.6728793638336	168.104794009215	-10.3612297862446	-89.2512231271904	-46.6059493825695	-99.9405253191719	-28.2035074358045	3.54294762359177	
2596000000.00009	-22.6547679776363	166.011695270101	-10.3552458897314	-91.5696588374864	-46.9094684639546	-100.65200243928	-28.4714337044345	3.96935566505594	
2596333333.33343	-22.6262428979407	164.043052975692	-10.3608048634172	-93.916028449726	-46.7071349921456	-104.078407401188	-28.722808935945	4.09200529816509	
2596666666.66676	-22.5440590043428	162.030857596781	-10.3651341058608	-96.245596931356	-46.7504907652969	-107.020029206854	-28.9493109245721	4.48041248337854	
2597000000.00009	-22.4963859557418	159.905956784614	-10.3656893031919	-98.5552721923786	-46.870917439725	-108.244001593033	-29.1715440540011	4.97435276802869	
2597333333.33343	-22.4045467032729	157.799758730276	-10.3741541877293	-100.90365380998	-46.7748019271082	-110.835159765513	-29.3895133156477	5.38823958848437	
2597666666.66676	-22.3227310604218	155.8257973958	-10.3793989160449	-103.229535574815	-46.9853258272341	-113.054954631833	-29.5734528945592	5.7642710407602	
2598000000.00009	-22.2319655830166	153.936009662203	-10.3823516074037	-105.587673708159	-46.8851577492993	-114.702212772417	-29.7265228736845	6.25961996389014	
2598333333.33343	-22.1164685459969	152.047590958342	-10.3929077460803	-107.922155645902	-46.6614569016275	-117.530904605325	-29.9139839332991	6.83498025211789	
2598666666.66676	-21.9823244856911	149.953975192341	-10.3987684533223	-110.227966256611	-46.6809186116147	-120.312584695856	-30.1060821508311	7.0590604834504	
2599000000.00009	-21.8667538061953	148.125222642169	-10.4001836585421	-112.537746632823	-46.7127173776989	-122.729466170843	-30.1955355622808	7.63741880537649	
2599333333.33343	-21.7427387828975	146.29212003486	-10.4093969074696	-114.842395051806	-46.7400632805047	-123.815804931173	-30.2975592901816	8.19541772740466	
2599666666.66676	-21.6074747190241	144.44725303333	-10.4202850056352	-117.15266998864	-46.7555745226229	-128.050947713562	-30.3496349536156	8.7219398631346	
2600000000.0001	-21.450216125524	142.515113055471	-10.4258612388401	-119.498198251551	-46.7264564486718	-129.682712589257	-30.4135478158724	9.31509390486523	
