!Agilent N9923A: A.05.34
!Date: Sunday, 13 March 2016 20:39:38
!Model: N9923A
!Serial: MY51491690
!GPS Latitude: 
!GPS Longitude: 
!GPS TimeStamp: 0001-01-01 00:00:00Z
!GPS Seconds Since Last Read: 0
!CHECKSUM:2117937960
!Correction: S11(ON U)S21(ON U)S12(ON U)S22(ON U)
!S2P File: Measurements:S11,S21,S12,S22:
# Hz S DB R 50
2400000000	-17.6551799014875	173.977974996088	-9.39122550016128	158.527260745645	-46.4642796245587	145.01622810669	-23.1371485597315	6.56867355345003	
2400333333.33333	-17.6554510776198	172.785734147489	-9.3844889313555	156.267106461537	-46.4576227690698	143.087316895805	-23.3490744593628	6.67873200658106	
2400666666.66667	-17.6373929182952	171.82840995728	-9.38381087103358	154.008918546753	-46.4303591247617	141.200478771786	-23.5555040988646	6.94268556023257	
2401000000	-17.651384010114	170.630776524192	-9.38322041063146	151.689200780457	-46.436396855039	139.070475904591	-23.7782555445672	7.02404796094601	
2401333333.33333	-17.6512364668304	169.46171789713	-9.37833621621249	149.388165568587	-46.5006738769123	136.609363575074	-24.0267484182316	7.43894095920202	
2401666666.66667	-17.6561481587556	168.345620248727	-9.38554336474796	147.122330376833	-46.3701920472185	135.133426076113	-24.2549220202303	7.75606064086125	
2402000000	-17.6524484828085	167.225489797059	-9.38106089061632	144.85238458496	-46.3689006785727	132.370196762446	-24.5168845056255	8.04078568248089	
2402333333.33333	-17.6451122506893	166.081961851702	-9.37860290059243	142.575603677646	-46.5336909044894	128.657015202936	-24.7968169601132	8.36958964574054	
2402666666.66667	-17.6394509123614	164.959158743679	-9.37729363479138	140.258337402781	-46.4939578163578	128.460224169226	-25.048751588702	8.81302731511131	
2403000000	-17.6292443824468	163.751378124624	-9.3781596640468	137.967634420552	-46.513434333067	125.538327232006	-25.3412345048779	9.22902567611632	
2403333333.33333	-17.635843189659	162.566099247351	-9.37692835641817	135.698031924677	-46.4492826625089	122.860369110706	-25.6014503670786	9.73792925912476	
2403666666.66667	-17.6173951321133	161.431099339068	-9.37741360172186	133.403032944025	-46.5327344875975	121.047665369185	-25.9076304668144	10.2166459058014	
2404000000	-17.6052692580719	160.228001268646	-9.37674094191848	131.131895450414	-46.5148993807726	118.8225271866	-26.2174458600474	10.8772102044237	
2404333333.33334	-17.5795682664121	159.062559720146	-9.3759002278067	128.829430924032	-46.6959578581848	116.085853808926	-26.5472424873596	11.4245440625385	
2404666666.66667	-17.5626202953569	157.907750904935	-9.37514820699985	126.521705108553	-46.4671903586237	114.466872056316	-26.8588184844594	12.2053463551815	
2405000000	-17.5665202368369	156.670787288397	-9.3802005041361	124.250364418905	-46.6333578028103	110.475221728565	-27.1810458693832	13.0486848170966	
2405333333.33334	-17.5165092667617	155.503760738304	-9.37586592112607	121.945389846319	-46.5679933215397	109.979177565027	-27.5045076668306	13.7970417200473	
2405666666.66667	-17.4972294625468	154.292894314758	-9.37636790661933	119.653665553677	-46.462143110807	108.070691551663	-27.841397192645	14.8684329300513	
2406000000	-17.4626669184269	153.109829669288	-9.37745338279243	117.395727458824	-46.6818093392449	104.858463626708	-28.175967826879	16.0687587910302	
2406333333.33334	-17.4271682854816	151.912747647899	-9.38035081839412	115.081745715573	-46.5241601910712	102.181376797602	-28.5051432082377	17.0360680289845	
2406666666.66667	-17.4064881346566	150.633028285678	-9.37494768687807	112.812279724289	-46.6190547981018	100.371650087902	-28.875131671976	18.6640639241044	
2407000000	-17.3604767803103	149.473882952875	-9.37781911092209	110.510917300023	-46.6191382912999	98.3765852677831	-29.2063348698929	19.9182426038228	
2407333333.33334	-17.3230552560787	148.210121616236	-9.37933006711639	108.227192883924	-46.5362511888339	95.132923282703	-29.5273407196889	21.4932350974494	
2407666666.66667	-17.2782195742521	147.044625785143	-9.38394701783978	105.961894823547	-46.5122195667815	93.3169512868702	-29.9303053393161	23.0739573151996	
2408000000	-17.2375368198229	145.816473281888	-9.38806608078547	103.66586271503	-46.5890554669615	92.4805189430479	-30.194556817593	24.9168720660832	
2408333333.33334	-17.1917767431281	144.701773097233	-9.38831531145845	101.379768411386	-46.5282265930063	88.0027304438192	-30.5252497504813	26.947979087301	
2408666666.66667	-17.1329349661133	143.397826124077	-9.39178571008059	99.0795326265395	-46.5645655036498	86.9038093212016	-30.8159340992729	28.7972966103324	
2409000000	-17.0833933756182	142.337847079409	-9.39936007857015	96.8199078504638	-46.5840224017533	84.4298443812891	-31.0504505793382	31.2301629377926	
2409333333.33334	-17.0358226408671	141.083089408225	-9.40353089321039	94.5337591271101	-46.5137348753391	81.6191483806449	-31.2683656322613	33.7960639823667	
2409666666.66667	-16.9686932866775	139.973066155882	-9.40778569940565	92.2515760167341	-46.5872734575903	79.7753527229065	-31.5328066476737	35.7849262154195	
2410000000	-16.9124519488465	138.832824718829	-9.414859785203	89.9848187192273	-46.5344142280196	76.7303884716672	-31.6861155452297	38.5474647429575	
2410333333.33334	-16.855405777135	137.656012383183	-9.42376388445963	87.7069920406125	-46.5180224957882	75.1408951352396	-31.8168280780177	40.8675485981721	
2410666666.66667	-16.7958564935166	136.552409715589	-9.42736823737408	85.450158829318	-46.694620402663	72.7938197728638	-31.9107101334627	43.2691266960364	
2411000000.00001	-16.7280311692788	135.440081949745	-9.43469116662769	83.1926154618471	-46.5717625985881	71.128586413089	-32.0304186387932	45.7071246383707	
2411333333.33334	-16.655652787099	134.367617760671	-9.44017813309665	80.9094823551255	-46.5892852866007	67.6753104548488	-32.0712165867622	48.1304047793005	
2411666666.66667	-16.5830015250143	133.247983073049	-9.45217284845	78.6433547230522	-46.7010555963976	65.4859322256596	-32.0423617261537	50.0238853134419	
2412000000.00001	-16.5238814852194	132.209677815245	-9.4559183759914	76.4032574754278	-46.5523645661491	63.8823457667634	-31.9938746737315	52.3862379268334	
2412333333.33334	-16.4524741643311	131.10284180528	-9.46769678229353	74.1459510410233	-46.6257006021002	60.3916450843945	-31.9152316527689	53.8596772589683	
2412666666.66667	-16.3781515622992	130.104033029793	-9.47300648356359	71.8617638071245	-46.7063952040436	60.2091545542359	-31.8272613075622	55.5673019635668	
2413000000.00001	-16.3050401946073	129.041997987039	-9.48707432192824	69.6043252910713	-46.4915205348733	56.0608468606033	-31.720358874895	57.2698783781587	
2413333333.33334	-16.2301023849015	128.006709189423	-9.48829515437663	67.3686763629963	-46.6554091172254	54.7334830699485	-31.6414297166983	58.2914591427205	
2413666666.66667	-16.1522673161581	127.014832208625	-9.50037927180394	65.1224785780149	-46.6634060773797	52.0735365343392	-31.4714394020638	59.3948502096962	
2414000000.00001	-16.0905763718037	126.064558885676	-9.50893821749585	62.8610238882342	-46.5971764715371	49.4171431543702	-31.3207674084545	60.2141128576336	
2414333333.33334	-16.0068624861939	125.075279778772	-9.52007188294732	60.6256586325138	-46.5715992225344	46.354440027948	-31.1077153812109	60.7276257031542	
2414666666.66667	-15.9300329769914	124.149900108794	-9.53071889484985	58.3847004335817	-46.6684704229148	45.7119827561116	-30.994355438914	60.9727320469448	
2415000000.00001	-15.8412776697236	123.216994638622	-9.54263316946413	56.1167308250829	-46.6480248280807	43.0903043541216	-30.7401662437164	61.289811961682	
2415333333.33334	-15.7731589025478	122.283022207096	-9.5546870880162	53.8734734347714	-46.5705569488923	40.4326215714576	-30.5581723715577	61.325557591906	
2415666666.66667	-15.6955470283246	121.385029992931	-9.56262134399421	51.6400736630214	-46.8385210200343	38.6678912157644	-30.4003884040238	61.1773046002308	
2416000000.00001	-15.6097673505136	120.560657720726	-9.57601543773886	49.3884329348312	-46.6826670090286	35.4093650487762	-30.207857343828	60.630448117051	
2416333333.33334	-15.5335861111655	119.687125262773	-9.58843034356365	47.1311057738186	-46.696344131632	33.9083806198325	-30.0026421158615	60.1880718768674	
2416666666.66667	-15.4650069137653	118.778943781075	-9.59785064927885	44.9316672533539	-46.6955823449533	31.9098923995342	-29.7914756389161	59.4007162732026	
2417000000.00001	-15.3870412350234	117.983860941768	-9.60910767584575	42.656151907732	-46.5533124779201	29.1990950055558	-29.5968535969635	58.5634220289759	
2417333333.33334	-15.3159640001797	117.170647342932	-9.62485124748106	40.4158810246845	-46.6419161492486	26.7820186879917	-29.390128013247	57.7002304177361	
2417666666.66668	-15.2326180611152	116.371294601536	-9.63207240243864	38.1714063332831	-46.7727056518346	24.009239123833	-29.1718444627655	56.6080829246529	
2418000000.00001	-15.1667011991296	115.563799189537	-9.64541506811977	35.9545640520425	-46.7458651221124	22.7234780631332	-28.9811293332879	55.347462405574	
2418333333.33334	-15.0886428024971	114.776172337401	-9.65261650652091	33.7450559177263	-46.666252122075	20.0714408111121	-28.7483185263465	53.9418677698108	
2418666666.66668	-15.0262040687033	113.960973526128	-9.66792418611085	31.5098918194803	-46.6851487991652	17.4399779628106	-28.4946954315188	52.7814535329066	
2419000000.00001	-14.9546854608726	113.227532604604	-9.68210010713958	29.2652878357285	-46.6223465098153	15.3601458824999	-28.3299208250279	51.351113747547	
2419333333.33334	-14.8900045005067	112.510722938448	-9.69102173632243	27.0103879607252	-46.5855488929934	13.5661614475585	-28.0838067119993	49.6055514912249	
2419666666.66668	-14.8267631614931	111.763561098532	-9.7065034975681	24.7795773014533	-46.7597403350723	9.9370863871541	-27.8646837342379	48.1431866897354	
2420000000.00001	-14.7641010027978	111.032014215028	-9.71137524664402	22.5539700913972	-46.5921131780301	8.60416165835482	-27.6252270682362	46.3690907914496	
2420333333.33334	-14.6951464439934	110.347285332894	-9.7266106060833	20.318327431751	-46.721105695534	6.49079710753247	-27.3770374452319	44.6909832922833	
2420666666.66668	-14.644012613209	109.671139255947	-9.7339633600637	18.0742130854681	-46.8045550793047	3.50609183727036	-27.1434583629321	42.8524791609341	
2421000000.00001	-14.5858545230395	109.013255992899	-9.74691718625212	15.8501486551331	-46.8075840897281	1.76544355726998	-26.910436081832	41.1997791412563	
2421333333.33334	-14.524242498379	108.320124397174	-9.75823673708186	13.6351993466965	-46.6590746428083	-0.482223572226612	-26.6473423125822	39.3897029022826	
2421666666.66668	-14.4770970022621	107.629989899057	-9.76444627537184	11.4103898715831	-46.6697224537666	-2.46462119594184	-26.397706988366	37.5889765368435	
2422000000.00001	-14.4230419044061	106.999960241235	-9.7770533699973	9.16394236104309	-46.7727732189644	-3.92977442820847	-26.1468030646944	35.8669485159765	
2422333333.33334	-14.3701331851202	106.341582020312	-9.78952365005068	6.92698647309578	-46.7456574316825	-8.45202897013298	-25.9135933344781	33.995640151725	
2422666666.66668	-14.3195999783466	105.722995002149	-9.79494883293568	4.68008338079432	-46.6804926777756	-7.35826978170694	-25.6461118061254	32.237530045754	
2423000000.00001	-14.2755287143838	105.107886449369	-9.80609997007605	2.45579552208091	-46.7038064249062	-11.0870287782434	-25.4154663993777	30.4463969067036	
2423333333.33334	-14.2431548861911	104.538448356318	-9.81091443504148	0.218251955463316	-46.8215773372681	-12.8231475069376	-25.1465050543796	28.8094447291629	
2423666666.66668	-14.1989106337255	103.918962332708	-9.81891518204962	-2.02217526313002	-46.8417931879526	-15.8816516393719	-24.8721526487338	27.1005707784599	
2424000000.00001	-14.1631558055606	103.360386877173	-9.83084058204108	-4.25575438842346	-46.8025147002914	-18.5058714745693	-24.6266318111665	25.2571890801453	
2424333333.33334	-14.123431337839	102.789873523808	-9.83856957763481	-6.48517052531122	-46.7354527063648	-19.4421723988862	-24.3732612063206	23.6710562195082	
2424666666.66668	-14.0997099674613	102.239180308502	-9.8478567980518	-8.71755687348478	-46.6917557588131	-22.5841343445352	-24.1148643053764	22.0538457013952	
2425000000.00001	-14.0670136119859	101.740173911013	-9.85334277053063	-10.9570346730147	-46.715230879913	-25.1294777051583	-23.8624448475556	20.4558480051005	
2425333333.33335	-14.036596986793	101.177917080549	-9.86346982549166	-13.1910582770225	-46.8702881895245	-27.3125508286826	-23.6291986540193	18.9833576680418	
2425666666.66668	-14.0139704871739	100.673587546003	-9.86416362381587	-15.4575431239436	-46.848613931866	-29.0041252989396	-23.3671920729698	17.3626035875283	
2426000000.00001	-13.9935021547185	100.151847375344	-9.87219813791432	-17.6868754911914	-46.847809298879	-32.1818383837032	-23.1220023595965	15.8050074006316	
2426333333.33335	-13.9720821723306	99.6682526526	-9.88002580493426	-19.9505406653268	-46.7689496191794	-34.1111304534113	-22.892611107156	14.3808421468172	
2426666666.66668	-13.9549922772686	99.215737242699	-9.88530802534328	-22.1800036173849	-46.7701423563465	-35.0184691324454	-22.6721806917484	12.912385070273	
2427000000.00001	-13.9319010925994	98.7888137976449	-9.89069013253243	-24.416288000666	-46.8458671320516	-37.715143728447	-22.4323294217002	11.5029652687863	
2427333333.33335	-13.9174037092919	98.3427905465951	-9.8962366323122	-26.6615053605843	-46.8354695346371	-40.6224519273998	-22.203546386596	10.2028348381798	
2427666666.66668	-13.9037822525063	97.9060083255213	-9.8997617260217	-28.8973775805959	-46.9415701274622	-41.1686210708713	-21.9950459062317	8.91740718766036	
2428000000.00001	-13.8928008125552	97.4635900143871	-9.90563103172383	-31.136768643342	-46.9160448124337	-42.9504755979635	-21.7703371058381	7.57119302889837	
2428333333.33335	-13.8787406563885	97.0400052407017	-9.9114443860302	-33.3988722356766	-47.0128859454353	-47.1063039608847	-21.5528541669494	6.35318998045803	
2428666666.66668	-13.8694370207322	96.6929100684884	-9.92180584532409	-35.6257606839669	-46.9043644548309	-49.064944245682	-21.3513897152037	5.16963257109164	
2429000000.00001	-13.8659872251521	96.2646269047353	-9.92147907031974	-37.8723252374168	-46.9314086062021	-51.7504861027763	-21.1458664086638	3.88921739672734	
2429333333.33335	-13.8545572579937	95.9218400465045	-9.92554761779452	-40.107746955618	-46.865350354661	-53.6375197928859	-20.9317616035017	2.76714023532212	
2429666666.66668	-13.8472666606364	95.5303481048731	-9.93492935688814	-42.3240097844263	-46.9897910278493	-54.940360405389	-20.7513400967007	1.54234575959344	
2430000000.00001	-13.8398154384715	95.2186340111164	-9.93522096338994	-44.5643806035929	-47.0696848394405	-56.7328191386711	-20.5716391046698	0.52243737388603	
2430333333.33335	-13.8439037274547	94.8495889869935	-9.94181736999243	-46.8113935721024	-46.9467036715675	-59.1828678318486	-20.3854066971442	-0.702234364358369	
2430666666.66668	-13.8358088021354	94.4948336764552	-9.94543046853518	-49.023021948947	-46.936273282995	-62.306633302136	-20.2233212152409	-1.69329929602653	
2431000000.00001	-13.8363144250462	94.1573549812089	-9.94508569092305	-51.2342711232209	-47.0927842920821	-64.552843521901	-20.0516765129158	-2.72259616056542	
2431333333.33335	-13.8318777351485	93.8172573320157	-9.95371036788955	-53.4588634253748	-46.9955626408297	-66.3867805198718	-19.8852837184933	-3.64729647165342	
2431666666.66668	-13.8250607751787	93.5151963192887	-9.94987248251396	-55.6844289565755	-46.9013021288094	-67.4004718963697	-19.7419914121905	-4.66257387877694	
2432000000.00002	-13.8312422080105	93.1520369410153	-9.95348315461445	-57.8810298326869	-47.0437305426337	-70.8450792373647	-19.5877654579551	-5.49281042374964	
2432333333.33335	-13.8364153664951	92.8260518354679	-9.95730237627893	-60.126559863605	-47.1244772059267	-72.3241922563066	-19.4496213403256	-6.44325687551868	
2432666666.66668	-13.8287398757693	92.5073158074621	-9.9598493061585	-62.3220091659783	-47.0471351688122	-76.3999171031562	-19.311624332352	-7.39833209386336	
2433000000.00002	-13.8235966825448	92.1402213281121	-9.96226103452107	-64.5093970923506	-47.0032591563525	-77.8761114432289	-19.1747394247133	-8.29864338237336	
2433333333.33335	-13.8342620106266	91.8277392266796	-9.95969874974978	-66.7381976093881	-46.9474838476348	-79.4201503871666	-19.0624048626306	-9.08526460600994	
2433666666.66668	-13.8358214276452	91.4785552443509	-9.96002383172882	-68.9595136204069	-46.8768275523218	-81.8175047014059	-18.9463338227878	-9.98774771682877	
2434000000.00002	-13.8314229980994	91.1818856546977	-9.95783970646208	-71.1807094660707	-46.8709105482949	-84.5384242309177	-18.8418866993118	-10.7664754282976	
2434333333.33335	-13.8317330363613	90.9297221860456	-9.95740167387121	-73.3638335517066	-47.2051121829257	-85.6251850258002	-18.7354368042767	-11.530077709363	
2434666666.66668	-13.8330240885363	90.55139295963	-9.96048105474329	-75.5876050767975	-47.0512922752064	-87.4198968451924	-18.6492739898646	-12.3536008476312	
2435000000.00002	-13.8312746238067	90.1977651223427	-9.95577386449357	-77.7888663216203	-46.9978687470703	-90.6847744082129	-18.5597840224871	-13.0392478896029	
2435333333.33335	-13.8347319377164	89.8678455635169	-9.95289298074039	-79.9955506357002	-47.0816895381535	-93.3100061505332	-18.4921883178378	-13.8215214309238	
2435666666.66668	-13.8346620712647	89.505513502609	-9.94951648524691	-82.2033182033186	-46.8746715093643	-94.6363761503927	-18.4037736551354	-14.4775056825155	
2436000000.00002	-13.8389922932363	89.1394720627169	-9.94952282816504	-84.4077875199634	-46.9165411362993	-96.3357032040714	-18.3399739870585	-15.1669217610273	
2436333333.33335	-13.8440155359996	88.7589893945802	-9.94504786109811	-86.6196266740061	-47.0159000067555	-99.7686845275935	-18.2761452400818	-15.8509278755952	
2436666666.66668	-13.8439977598412	88.4109386125634	-9.94052863003903	-88.8153951677267	-47.0901136751194	-100.0551439018	-18.2202608912348	-16.5252181799747	
2437000000.00002	-13.845919556931	88.003886953219	-9.93454296394765	-91.0249008157301	-46.9085510921776	-103.979123336208	-18.1804744112813	-17.2014228935353	
2437333333.33335	-13.8429084559716	87.629892924392	-9.93143922280042	-93.2161949402434	-47.0013849675538	-106.360173070226	-18.1419138082775	-17.8414444895302	
2437666666.66668	-13.854084234895	87.1233649383848	-9.92569196615753	-95.443780223648	-47.0030377529305	-107.354413902725	-18.1082059551995	-18.2760649702977	
2438000000.00002	-13.8511382508334	86.7955572925292	-9.9166121907132	-97.6652447529318	-47.0466908552833	-110.708973889122	-18.068396659645	-18.9455339634107	
2438333333.33335	-13.8457572491319	86.3461543551571	-9.9156646206215	-99.851907030775	-46.9520783887678	-112.630937163332	-18.0542160167889	-19.4953831594202	
2438666666.66669	-13.8615517890203	85.9268161454893	-9.90730587827924	-102.073903020177	-47.0810992889906	-114.683869953815	-18.0337204947996	-19.9866011728632	
2439000000.00002	-13.8501263712812	85.4781559186683	-9.89987687479478	-104.27132264069	-47.0838505130049	-117.044674968262	-18.0413569305097	-20.4946040506486	
2439333333.33335	-13.8494044530267	85.0633481438633	-9.89460604017757	-106.483995226244	-46.8171478030848	-119.130206966545	-18.0334467905321	-21.081377585522	
2439666666.66669	-13.8605280191973	84.6023781437479	-9.88180336674045	-108.700056110056	-46.9693905348102	-121.135121639643	-18.0421949640556	-21.4344209575812	
2440000000.00002	-13.8614397962371	84.1368865677909	-9.88103173657655	-110.919729596836	-47.0417409412563	-123.424939456619	-18.0680612344221	-21.9989530948055	
2440333333.33335	-13.8660122188153	83.7059417457819	-9.87175492312458	-113.109738420854	-46.9649610672581	-124.436665398445	-18.0850355447716	-22.4037773348095	
2440666666.66669	-13.8763079320373	83.2211772240715	-9.86652586545326	-115.323927581142	-47.002465991162	-128.303830032617	-18.1010473395506	-22.7700817655029	
2441000000.00002	-13.8861856354551	82.7518405883955	-9.85541517284928	-117.547604451084	-46.9886364489113	-129.654847322763	-18.1514658161828	-23.1822935722036	
2441333333.33335	-13.8641620922267	82.1857912179881	-9.84634720649491	-119.75261266301	-46.945758664238	-131.553116776741	-18.1945707183596	-23.5112202802957	
2441666666.66669	-13.8987447325049	81.7389435715059	-9.83545529556764	-121.989547528215	-46.8423008489429	-134.532205257294	-18.2223537304147	-23.8252790478734	
2442000000.00002	-13.8978259410742	81.2145847462562	-9.82876554867247	-124.211807950667	-46.8682931950294	-136.509552478957	-18.2955416732006	-24.276284326903	
2442333333.33335	-13.8960389422321	80.7214053443389	-9.82033586809521	-126.469734797895	-46.9716739559785	-138.263417533917	-18.345914312107	-24.6429894606274	
2442666666.66669	-13.9102314173573	80.1741515734852	-9.81050306217534	-128.688891519395	-46.9930165853361	-141.225847548598	-18.427838912048	-24.8014424730247	
2443000000.00002	-13.9242066865142	79.6362978652405	-9.79825015515089	-130.931318793848	-46.9605678202744	-142.759786726036	-18.4861453755474	-25.0224096436721	
2443333333.33335	-13.9260369606618	79.1179235681572	-9.79074190070289	-133.118738359649	-46.9811327898618	-145.311315333823	-18.5880547561032	-25.2452262945205	
2443666666.66669	-13.9543707649285	78.5925006580816	-9.78296792916346	-135.398183328877	-46.7767485088344	-148.377920137418	-18.6706262558737	-25.3697388803863	
2444000000.00002	-13.9536852756193	78.0470526544088	-9.77277332176419	-137.638405606225	-46.9450261427067	-149.42765349457	-18.7777531149086	-25.5788283239897	
2444333333.33335	-13.9574757225555	77.5074985124933	-9.75977146941779	-139.891489540406	-46.7691771144533	-151.837425599479	-18.8784574441583	-25.6343010730585	
2444666666.66669	-13.9750542585251	76.9368470781873	-9.75190035259867	-142.125169350171	-46.7539835160414	-154.985721705667	-18.973654326308	-25.8352186948323	
2445000000.00002	-13.9952524463801	76.3350641676537	-9.74307304775013	-144.365051231923	-46.871098263615	-157.118795507911	-19.1108810187529	-25.8306815831672	
2445333333.33335	-13.9969986541588	75.7703652798017	-9.73397950834717	-146.644492359593	-46.9168028628433	-159.074326860783	-19.2396994711148	-25.7633702230195	
2445666666.66669	-14.0264280602131	75.1452040010848	-9.72373462011353	-148.878026345675	-46.7918961052941	-161.628884904499	-19.3629983179943	-25.883430074928	
2446000000.00002	-14.0257819180522	74.5903434486081	-9.71567638896575	-151.172598946474	-46.9069214117494	-164.194932208333	-19.4965879191783	-25.6826892036867	
2446333333.33336	-14.0441392969413	74.0538190042929	-9.71030560583325	-153.44333657812	-46.7962456445717	-165.480191289654	-19.647557239992	-25.5310232919858	
2446666666.66669	-14.057776526897	73.3698438731098	-9.69714360805594	-155.703629880897	-46.8367024028639	-168.410990342271	-19.8057996499384	-25.5331789415231	
2447000000.00002	-14.0657736390887	72.7762120028598	-9.69093608731468	-157.988417900355	-46.7956239430621	-170.076550349498	-19.951924438392	-25.2747425800257	
2447333333.33336	-14.0963513873266	72.2479705582003	-9.68663166518993	-160.241354449298	-46.7872685668555	-173.028692949528	-20.1021941837714	-25.1364511772193	
2447666666.66669	-14.0826188623038	71.6349017414195	-9.67034111008302	-162.536529628521	-46.9057813759728	-174.462442063389	-20.2955310150605	-24.7009272415252	
2448000000.00002	-14.1063283199848	71.0764376603097	-9.66712763045237	-164.78789814973	-46.6705147598156	-175.930211884415	-20.4604139864096	-24.4314816632741	
2448333333.33336	-14.1096794615949	70.4542391465172	-9.65831069667961	-167.066695819803	-46.6024315389022	-179.471321624336	-20.6337913908619	-24.0248125810823	
2448666666.66669	-14.1211154260222	69.9324645163293	-9.65020920680359	-169.339200584557	-46.7291354676596	178.483879460325	-20.8440952111006	-23.6673774072831	
2449000000.00002	-14.1347920096183	69.266720765113	-9.6434760855995	-171.621326239584	-46.8114443728373	176.035383272673	-21.0196939048511	-22.9796687981639	
2449333333.33336	-14.1438264453833	68.6396567993647	-9.63926526419927	-173.904359487104	-46.8489398379299	174.182963244043	-21.218553378352	-22.4124427028507	
2449666666.66669	-14.156179875849	68.0813816827902	-9.63359600632941	-176.182590511812	-46.6233561156038	171.696893435597	-21.4030066326416	-21.6997408183941	
2450000000.00002	-14.1568203779958	67.4278184031649	-9.6292174249315	-178.486205556623	-46.7053039832022	169.534600306801	-21.609806359004	-20.8746494717996	
2450333333.33336	-14.1762921437817	66.7769245235644	-9.62792033383649	179.251461560936	-46.7288198829696	166.385810619186	-21.799687538897	-20.20195138743	
2450666666.66669	-14.1746049386721	66.1671973436655	-9.62286979500228	176.976174927519	-46.7906521763584	165.370822519878	-22.0207858500182	-19.1118668953577	
2451000000.00002	-14.1848460928842	65.5873320183872	-9.61915673703702	174.709248279029	-46.6111415386672	163.839497980334	-22.233259633547	-18.2591332342918	
2451333333.33336	-14.1867136951911	65.0099013757581	-9.61403493618495	172.43358732354	-46.7961776563078	160.817497539202	-22.4457704968441	-17.2641611594827	
2451666666.66669	-14.1820931953623	64.4337103824627	-9.60995130758912	170.166518489303	-46.7471665877063	159.307074696311	-22.6556625501144	-16.147006139059	
2452000000.00002	-14.1847064165398	63.7740616966578	-9.61122617377596	167.877229448301	-46.5337020245628	157.143975368762	-22.8455663856109	-14.7685413414101	
2452333333.33336	-14.1738076183848	63.1865643923181	-9.60958949644677	165.590931791058	-46.4895002349231	153.918310086	-23.0229273880443	-13.5324285903921	
2452666666.66669	-14.178213716699	62.6496372859158	-9.60352639898493	163.328510905193	-46.7877782927929	151.737302906428	-23.2496630887492	-12.2359093226699	
2453000000.00003	-14.178445376582	62.0753607940668	-9.60870156615884	161.057056798912	-46.5400760284789	150.16472179106	-23.4225000605762	-10.789652390504	
2453333333.33336	-14.1677035244436	61.4885224191186	-9.60521310903144	158.795706940897	-46.5179494425785	147.160295431939	-23.6030249928898	-9.30232255925637	
2453666666.66669	-14.1642864890625	60.8630034226669	-9.60628698120986	156.551839778409	-46.6791532087485	145.010732984167	-23.7939327264803	-7.66116676771186	
2454000000.00003	-14.1403495488027	60.2674489778067	-9.60331752358504	154.273997895094	-46.497630637856	142.832660419106	-23.9413290274698	-5.94732784547801	
2454333333.33336	-14.1238818940562	59.6402667255872	-9.60310232206255	152.005905566389	-46.6726036250867	141.279603921963	-24.1299656237582	-4.21743955769369	
2454666666.66669	-14.1150804877427	59.2311379343682	-9.60491304666676	149.789430309606	-46.6342411954476	138.051459760707	-24.2553571797277	-2.38221687209034	
2455000000.00003	-14.0959785343245	58.6483740591673	-9.60270982630096	147.514287793252	-46.6759280170999	135.727727709113	-24.3815505799878	-0.663887744298308	
2455333333.33336	-14.0824382257438	58.0864569227759	-9.60576181331973	145.273713259835	-46.6516298041726	133.814827018432	-24.4916841163913	1.39020296622556	
2455666666.66669	-14.0566839217237	57.5682245316158	-9.60599738553113	143.035404980008	-46.5674449433283	132.388325864559	-24.6233915366316	3.14133144034687	
2456000000.00003	-14.0313434531201	57.0206216034177	-9.60512166137322	140.762528143789	-46.4640087892756	128.960438790049	-24.6887386487447	5.0622100356831	
2456333333.33336	-14.0125719832264	56.4860371942596	-9.60934387074735	138.52237965832	-46.5365949614451	127.198715640652	-24.7796689554448	7.11423810860249	
2456666666.66669	-13.9854753803247	55.9919443128618	-9.60931180590988	136.308734418609	-46.5392235453316	125.742656723337	-24.8297483799794	8.96035061020307	
2457000000.00003	-13.9453295907065	55.5201851368114	-9.61361776346442	134.078404853703	-46.5971466817671	121.931744726203	-24.8761067810926	10.7398295778739	
2457333333.33336	-13.9237196985491	55.0673345491847	-9.6129887372878	131.842201430295	-46.5906300875437	120.003605314427	-24.9229425047888	12.7536219950607	
2457666666.66669	-13.8829428686082	54.5142884355555	-9.61457487260283	129.596360119081	-46.5258069728573	118.232262613677	-24.9298707038435	14.4177991620595	
2458000000.00003	-13.8466650651549	53.9966972922154	-9.61751616919709	127.356686256402	-46.3974911283808	115.784429699331	-24.9081255392831	16.3468437138978	
2458333333.33336	-13.8135684754885	53.537589478912	-9.62714697510337	125.119477088549	-46.6710550461104	113.176025569623	-24.9110999682615	17.970346338893	
2458666666.66669	-13.7718863775986	53.1038586748724	-9.62594054659711	122.867065644915	-46.5600766937912	111.231478445292	-24.871367236484	19.7175318499485	
2459000000.00003	-13.7417941822627	52.6622552107607	-9.61993591873704	120.658975518842	-46.5962123974997	109.51338075863	-24.8864630403733	21.1585375477537	
2459333333.33336	-13.6932854471472	52.1785025154106	-9.61957257575903	118.463453064329	-46.5287454361915	106.997961195146	-24.870030105729	22.8652001157213	
2459666666.6667	-13.6564838829715	51.726714822666	-9.62612866721141	116.206730960026	-46.5189323091734	105.324860941101	-24.8359927256275	24.1710258656066	
2460000000.00003	-13.6171368002289	51.3026994298586	-9.62917919149852	113.949678152461	-46.4718339187438	102.065333066328	-24.797917360462	25.4572286643388	
2460333333.33336	-13.5673018254681	50.851911649643	-9.62538730356161	111.758362292034	-46.4532713875712	100.151894583963	-24.7525155392264	26.7120810139105	
2460666666.6667	-13.5246993424127	50.4359761746242	-9.6290863646323	109.506298803392	-46.4473225024409	98.0154899662645	-24.7036972569289	27.7286686642452	
2461000000.00003	-13.4796004337041	49.9809531491981	-9.63035078549389	107.285538841212	-46.4708606343518	95.0445203222065	-24.6676128256575	28.8717951988278	
2461333333.33336	-13.4262021825289	49.6202846305986	-9.62913327214643	105.012018969718	-46.5063690475646	94.4496486516476	-24.6053889587041	29.9442925747123	
2461666666.6667	-13.3814904445059	49.0844841073326	-9.63661619460868	102.803295110458	-46.5460821945301	90.945773869726	-24.5402234362065	30.786280398067	
2462000000.00003	-13.3343914378008	48.7701890185007	-9.6304896914916	100.580121986736	-46.5095223199359	89.0285233034189	-24.5263742313894	31.7270613765455	
2462333333.33336	-13.298330212242	48.4116180778058	-9.62873056093632	98.3519208916941	-46.588090567092	86.6222063122421	-24.4590000103773	32.4251933560392	
2462666666.6667	-13.2359791076828	48.0064685198986	-9.63351317322117	96.062648931175	-46.4676982004721	83.6499530571644	-24.4272434920733	33.1110678567602	
2463000000.00003	-13.188290784871	47.5752517439341	-9.63227562881867	93.8275342676533	-46.5687344251474	81.8195021152089	-24.3648564250514	33.6244451647922	
2463333333.33336	-13.1355718004666	47.2360764558591	-9.62763783936112	91.5734733792694	-46.5385297636809	80.2816218521731	-24.3382856427454	34.3595559483009	
2463666666.6667	-13.0854220563986	46.8304144877326	-9.62598070925941	89.3249723579913	-46.4556466544951	76.439669727689	-24.3008749812221	34.7829644127081	
2464000000.00003	-13.0315371260116	46.4819048603014	-9.62643340014303	87.0718397467535	-46.4954030111447	75.4519471993811	-24.2808706367153	35.2043486329307	
2464333333.33336	-12.9910926923156	46.1378480964332	-9.62599249638559	84.813063894829	-46.6104250798093	73.157118427897	-24.2681244614239	35.4771846123315	
2464666666.6667	-12.9318632363758	45.7470753352529	-9.6260636953736	82.5666677449365	-46.5285647442147	70.4773850813661	-24.2525053787732	35.8862933706387	
2465000000.00003	-12.8713025068961	45.4007323492378	-9.62463596948488	80.3048720366946	-46.4481792504805	69.04958113086	-24.219097432507	36.0468753208881	
2465333333.33336	-12.8206785668601	45.0868630675086	-9.61992917593596	78.056611821776	-46.3976092622433	65.9296268166714	-24.216506774202	36.2441014949553	
2465666666.6667	-12.7705370525185	44.7441957672028	-9.62267066930911	75.7772114548033	-46.4382235414004	64.149236539481	-24.2082705665291	36.5094316708372	
2466000000.00003	-12.7268541307096	44.4029857787493	-9.61794403371607	73.5041896292208	-46.5110436997839	61.107481369283	-24.2046072953294	36.390151665649	
2466333333.33336	-12.6721647910553	44.0820177879266	-9.61760139082833	71.2431266728524	-46.5081425018533	57.8873609435906	-24.2012987728262	36.5328290085851	
2466666666.6667	-12.6194804405675	43.7171622485586	-9.61306233584802	68.9623553134689	-46.3294470600867	57.0634331314083	-24.2251287971685	36.3541362389374	
2467000000.00003	-12.5668397051819	43.4205630482707	-9.61220432536807	66.6802371147603	-46.5562859018733	54.5532057104305	-24.2322556469294	36.1848749434862	
2467333333.33337	-12.5134901785697	43.084880370236	-9.61009670334291	64.4057934636118	-46.5359807790182	50.9609299964944	-24.2457175404348	36.1283531142628	
2467666666.6667	-12.4618136689853	42.841077217428	-9.6043290137703	62.095010283644	-46.4546765003035	48.8028163901495	-24.2667212724937	35.9226875863238	
2468000000.00003	-12.4097980707484	42.5375607927703	-9.60852114149255	59.8147663974686	-46.4184865430445	46.6504432556738	-24.3183077294338	35.7982478563835	
2468333333.33337	-12.3612417187818	42.2674163109659	-9.60251016827586	57.5255895305676	-46.3745354087001	44.7567526950174	-24.3838443229961	35.4035944469729	
2468666666.6667	-12.3174521665948	41.950186346512	-9.60121730438768	55.2061671586621	-46.5026161277602	41.5490146684346	-24.43717906464	35.0182434880777	
2469000000.00003	-12.2530252627615	41.6807073554705	-9.59899525629832	52.9104343714253	-46.5172600164171	40.46916940098	-24.4363733512211	34.7982377650763	
2469333333.33337	-12.2056512216089	41.4299554701102	-9.59941264338573	50.613160502003	-46.4790361880887	37.4663073561009	-24.4951155307622	34.2285381156657	
2469666666.6667	-12.1585007083431	41.107132256695	-9.59832373505065	48.3054144105962	-46.5064201014829	34.8093344819194	-24.5669613065949	33.7762760286965	
2470000000.00003	-12.1056324605962	40.8728170991453	-9.59766959950576	45.9863923691626	-46.4864972420045	33.9331119508638	-24.6049145176684	33.1945786238664	
2470333333.33337	-12.0596549539641	40.5966010960873	-9.59359261832765	43.6640336825202	-46.3066976656853	31.7872770056681	-24.7110746590772	32.5866345827435	
2470666666.6667	-12.0084666098056	40.3478492090314	-9.59847486286255	41.3350888289321	-46.270989922138	29.4933643108675	-24.7641871329644	31.9993823887266	
2471000000.00003	-11.9620864780443	40.1224246775978	-9.59883052353381	39.0175576393287	-46.4030240596546	26.4136002825279	-24.8261308327315	31.3807257084067	
2471333333.33337	-11.9142354374474	39.8424011237572	-9.59416545078368	36.6786879424367	-46.4442619658553	24.2718435953305	-24.9325441634076	30.6085393164329	
2471666666.6667	-11.8700911602583	39.6296430651078	-9.59598884492827	34.3597491213249	-46.3684203783867	21.6896001611901	-24.9822523972791	29.87125619664	
2472000000.00003	-11.8234734749682	39.3514945956067	-9.59397915798949	32.0331986812063	-46.3343293048131	19.3160811412045	-25.0855399765317	29.1292085134654	
2472333333.33337	-11.7756456489928	39.0954718601289	-9.59775449476373	29.6758844428307	-46.4423006739407	16.7905987959173	-25.1431049853538	28.1514630124589	
2472666666.6667	-11.7363580777797	38.9068741243933	-9.59634393250265	27.3623287401849	-46.4945228004831	14.1543645131328	-25.2509840183562	27.312325057668	
2473000000.00003	-11.6901353218006	38.6113472927385	-9.59737702059828	25.0096569533718	-46.2239532801917	11.8066364080963	-25.3107073857845	26.2972288811708	
2473333333.33337	-11.6466014441561	38.3735371498996	-9.59858020645637	22.6305809408247	-46.5250060894254	9.57723178116295	-25.399871418501	25.4128115466558	
2473666666.6667	-11.6022025246395	38.1133186269472	-9.59873756755377	20.2611617172209	-46.3899373135214	7.38930785319651	-25.4793260575701	24.1561014205827	
2474000000.00004	-11.5622088462573	37.8818294726444	-9.60533509281824	17.9141892196018	-46.3934400540853	5.09826507374218	-25.5697475571682	22.896327521773	
2474333333.33337	-11.524255992034	37.6387114290322	-9.60326847669843	15.5340845536858	-46.3701188895615	4.01490054291624	-25.632764448445	21.9355097348275	
2474666666.6667	-11.4808615094663	37.386948987802	-9.60613766149678	13.1920009042067	-46.3951596111696	0.23997719352309	-25.6945818505041	20.6490350394577	
2475000000.00004	-11.4389869348155	37.135728580571	-9.60736759727293	10.8534384576016	-46.22823531817	-0.772214896804716	-25.7640167565764	19.3558817887717	
2475333333.33337	-11.4097286483885	36.8283588284726	-9.6141911570067	8.45278462241438	-46.4021163390122	-4.52538067731936	-25.8302666542731	18.059651632919	
2475666666.6667	-11.3651558609184	36.6316214485065	-9.60972283267812	6.10594019709453	-46.3752184736406	-6.5112296358442	-25.8953469724871	16.7683996892868	
2476000000.00004	-11.3359636615322	36.3210896129332	-9.62029764603332	3.73444363105809	-46.3148651039497	-8.23999019848313	-25.9392775966717	15.1753789847351	
2476333333.33337	-11.2987370932702	36.0958877139081	-9.62332383623792	1.39268320090406	-46.4248312824379	-10.8999463413078	-25.9997177963881	13.852266715576	
2476666666.6667	-11.2673430271009	35.7413812454647	-9.62834082202692	-0.977888060355853	-46.2732219163194	-13.2567940732073	-26.0643929100077	12.4783874619301	
2477000000.00004	-11.238162631558	35.4877416727909	-9.63276099030841	-3.33803327363067	-46.2880403904095	-15.2542932809493	-26.0791676510677	10.9603278407693	
2477333333.33337	-11.2118643787081	35.169315807778	-9.63901862847773	-5.7036113424587	-46.2120255033497	-17.6777861582816	-26.112538856174	9.44686602084576	
2477666666.6667	-11.1790336473944	34.8936031597121	-9.64016591101419	-8.07247270082668	-46.2847987598035	-19.4993939186386	-26.1359789345968	7.91683712977317	
2478000000.00004	-11.1528935794258	34.5739607626869	-9.64751343476853	-10.4417792619543	-46.3057214849226	-23.2626003056199	-26.1216229447563	6.44776313822052	
2478333333.33337	-11.127847525197	34.2643644109839	-9.65055075723831	-12.7696520006085	-46.3826913041751	-25.0835077737574	-26.1282000186153	4.83672552450177	
2478666666.6667	-11.1107076285261	33.8967751420929	-9.65785574753669	-15.1302619508407	-46.4043283071744	-27.6308141401166	-26.129894864921	3.18027237978658	
2479000000.00004	-11.0865225528317	33.5908814167844	-9.6680283598606	-17.4768356317347	-46.3877973153287	-29.6711710287628	-26.1163579248708	1.69322575966531	
2479333333.33337	-11.0663795735233	33.254528120355	-9.67074784696256	-19.8213435030369	-46.4305060297998	-31.5017663467449	-26.1157531829531	0.109947650343581	
2479666666.6667	-11.0528122781428	32.896756949417	-9.6771049987067	-22.1762993588765	-46.2954204954138	-34.0233002457268	-26.0565764145517	-1.52013279585544	
2480000000.00004	-11.0318775888836	32.5401298823731	-9.6858370011316	-24.5145127454576	-46.3416213460176	-36.8132849857053	-26.0080407040664	-3.20945439307861	
2480333333.33337	-11.020460292829	32.2245668198992	-9.68945505960355	-26.8343691510138	-46.3673930927761	-38.9459497977358	-25.9741107216135	-4.56946435302595	
2480666666.66671	-11.0194074023467	31.8186938854826	-9.69834197850214	-29.2008981334	-46.4109962770671	-40.4650462648184	-25.8906916962382	-6.25247272837356	
2481000000.00004	-11.0038933355021	31.4636713533151	-9.70184323398506	-31.5021247003598	-46.4836855204088	-43.6945710401192	-25.8476513956684	-7.78314457614057	
2481333333.33337	-10.9877234176386	31.0639670518541	-9.71149510051167	-33.7979524018137	-46.3634401923955	-45.6049255904269	-25.7659628590216	-9.13481523016827	
2481666666.66671	-10.9857000894951	30.6970755072357	-9.70988522503068	-36.1347259107138	-46.4490562201342	-47.8051155303423	-25.6621926275313	-10.7199077444343	
2482000000.00004	-10.9798843845671	30.3283730319362	-9.71707648485505	-38.4433603993678	-46.3054976505348	-49.9704639906137	-25.6188970338886	-12.1535964539253	
2482333333.33337	-10.9674170471009	29.9278276580892	-9.72278602694272	-40.7522488706091	-46.4611933593538	-50.486013004793	-25.4851867033364	-13.5641452302848	
2482666666.66671	-10.971499983511	29.487852917961	-9.72835484892172	-43.0493728443869	-46.2669338851384	-54.6152687971938	-25.376350254983	-14.9594896450221	
2483000000.00004	-10.9771777048717	29.0962125810558	-9.73071492936106	-45.3303333219635	-46.4350878680858	-56.131587028834	-25.2708555327312	-16.2365794264945	
2483333333.33337	-10.9770809398842	28.6801124517795	-9.73441209500952	-47.6024651796796	-46.4908968681882	-59.6405759320145	-25.175396808574	-17.330350274122	
2483666666.66671	-10.977222194068	28.2577394448759	-9.74367422495599	-49.9119218583849	-46.5712030927811	-61.3758851854045	-25.0342204238951	-18.6586324955777	
2484000000.00004	-10.9841896867354	27.8713147959599	-9.74319195491096	-52.1981085403134	-46.5791896395236	-63.8999975255962	-24.9192512490867	-19.8475016788767	
2484333333.33337	-10.9869791758929	27.396130374396	-9.74490275949615	-54.4561072906231	-46.3758151976899	-66.7169167139145	-24.8064185226325	-20.9269344485082	
2484666666.66671	-10.9973786172068	26.9742830415767	-9.74573907036568	-56.7614265039805	-46.4612303630886	-68.196704337726	-24.6721584563426	-22.0805222640788	
2485000000.00004	-11.0056623545037	26.562134348465	-9.74822316815073	-59.0242048762082	-46.5855460078611	-70.5148877585469	-24.5229712440998	-23.0850114010083	
2485333333.33337	-11.018489688773	26.0890487980001	-9.75245136498967	-61.3053437296632	-46.4018531406568	-73.5256482837585	-24.4125235867822	-24.2281993391162	
2485666666.66671	-11.0338733462973	25.6133489835147	-9.75064748901814	-63.5674635106255	-46.4747421149047	-74.8895543808348	-24.2604922384814	-25.0866911688568	
2486000000.00004	-11.0422934014044	25.1248840944789	-9.75279278857965	-65.8178319416713	-46.4591960878853	-77.222080598133	-24.1433511619915	-26.0607216093059	
2486333333.33337	-11.0660904393433	24.7203132579262	-9.7543921571186	-68.0927484259795	-46.4542764280004	-79.9324099217346	-24.0302258736113	-26.81815764694	
2486666666.66671	-11.0791929338995	24.271197707734	-9.75688320760925	-70.339829341012	-46.5258977180796	-81.8016035233516	-23.9258583170943	-27.8919175862482	
2487000000.00004	-11.1037322787396	23.7620125239717	-9.74682558041483	-72.5942675456637	-46.5507607294956	-83.567472893322	-23.7706349677713	-28.5262819661696	
2487333333.33337	-11.1248286229789	23.2745604545913	-9.74988380596672	-74.8773598251842	-46.5387904386888	-86.4983710009432	-23.6518252480979	-29.4246687859899	
2487666666.66671	-11.1376373889847	22.8005053355427	-9.74926190344961	-77.1190077335766	-46.4986006642775	-87.5938536468358	-23.5483897946576	-30.0165873514657	
2488000000.00004	-11.1712704697846	22.2849721194975	-9.75156572809162	-79.3961794553805	-46.5112189700269	-89.6562359682206	-23.4315048346299	-30.7323622449	
2488333333.33338	-11.199292437989	21.8082607331109	-9.74866925470619	-81.657152831005	-46.5150341505782	-92.2021394557514	-23.30304079413	-31.4324561641252	
2488666666.66671	-11.2177578907574	21.3483848008307	-9.74811367281125	-83.8958607621409	-46.4985596749781	-94.277666487284	-23.2015641601198	-32.0849232174866	
2489000000.00004	-11.2451582703015	20.8333651458848	-9.74290557502604	-86.1669477928124	-46.5241843401138	-98.0876704116971	-23.0876181336731	-32.6965800931287	
2489333333.33338	-11.2774985205582	20.3123879306408	-9.73607165518641	-88.3654499561638	-46.472008841386	-100.018023216226	-22.9928043068696	-33.2532250037374	
2489666666.66671	-11.3034467483806	19.819080507758	-9.73785446582112	-90.6363519398782	-46.6085498288875	-101.930914205627	-22.8964905009191	-33.7292157875985	
2490000000.00004	-11.3311830429137	19.2324417594919	-9.73125973650519	-92.9008779433981	-46.6019793888488	-103.635032344098	-22.7825884994179	-34.1605033560228	
2490333333.33338	-11.3772224736585	18.7313039704015	-9.72682990626065	-95.1531754057901	-46.604587448744	-106.906016824353	-22.6849594066728	-34.7616528691897	
2490666666.66671	-11.3985586342987	18.1443930003644	-9.72150186815875	-97.4012015881781	-46.5876386103953	-107.990955251616	-22.614750955013	-35.0925015130719	
2491000000.00004	-11.4319851477006	17.6155260006015	-9.71982398809661	-99.6466593002772	-46.5912544236265	-111.043699150759	-22.5360456565673	-35.5666014031601	
2491333333.33338	-11.4726077278627	17.1035122408517	-9.71279616459357	-101.916761962447	-46.464550079392	-112.370433522829	-22.4730245288056	-35.9382835086546	
2491666666.66671	-11.5008089197986	16.5805707127954	-9.71141487124206	-104.168608818525	-46.6990706099984	-116.169315131897	-22.4043060323163	-36.369597246332	
2492000000.00004	-11.5431507246003	15.9857571925611	-9.70690291421299	-106.410173781635	-46.5946135005691	-117.249850961834	-22.3196297746413	-36.5838731678622	
2492333333.33338	-11.5753832309507	15.3509016355317	-9.69878256542794	-108.650383381862	-46.5296742878691	-119.84026233662	-22.2472939627111	-36.8127372571281	
2492666666.66671	-11.6019246102537	14.8288699218998	-9.69644309422786	-110.904039027324	-46.7160641460361	-121.46722903183	-22.1989930118527	-37.2031635526534	
2493000000.00004	-11.6547781512213	14.2221072261044	-9.68866823640062	-113.158302434993	-46.5047726549154	-123.17502717604	-22.1568689582206	-37.3097513200023	
2493333333.33338	-11.6824041187896	13.6504431295652	-9.68574117127256	-115.392979504939	-46.6004554875236	-126.334755041195	-22.0956014878962	-37.6453425324593	
2493666666.66671	-11.7250103053769	13.0189091450672	-9.68077452336958	-117.660940962606	-46.495102497105	-129.029157769546	-22.0685176087346	-37.7657922194325	
2494000000.00004	-11.75800527084	12.4612698561864	-9.67656658052591	-119.918211920397	-46.6530700999433	-131.591459442958	-22.0423185261119	-37.9730834389894	
2494333333.33338	-11.7961202371445	11.8403521338481	-9.67095936224254	-122.161453985941	-46.6077229261283	-133.444731534844	-22.0085370772251	-38.0460967911347	
2494666666.66671	-11.835935510771	11.1772811523176	-9.66514708108374	-124.419526365461	-46.6115414002558	-134.983169739436	-21.9704574390315	-38.1299455512812	
2495000000.00005	-11.8735334021227	10.6299178637048	-9.65991278743381	-126.672724822574	-46.545657151812	-137.688219766837	-21.9645310585829	-38.1722468576478	
2495333333.33338	-11.9059666773097	10.0021314179401	-9.65381064935321	-128.924334640147	-46.6799356568068	-140.834660865926	-21.9624272970884	-38.190863065501	
2495666666.66671	-11.9388352663184	9.34536457578256	-9.65044969353837	-131.184097959562	-46.5579868108221	-141.312675566797	-21.9421659391018	-38.1937530740885	
2496000000.00005	-11.9745762115466	8.74159088790485	-9.64558752474833	-133.439246016793	-46.4993644189915	-143.537795741533	-21.965503096284	-38.1194008466326	
2496333333.33338	-12.0152301234228	8.07650171156835	-9.64014659376413	-135.727508180108	-46.6117239205622	-147.46793707532	-21.9640901727487	-38.0336947720993	
2496666666.66671	-12.0459280687038	7.40806449945532	-9.63615403112762	-137.956961322951	-46.4588557056031	-148.804639517743	-21.9898631805664	-38.0738949698734	
2497000000.00005	-12.0841037236161	6.78878201693172	-9.63160746877228	-140.222493010065	-46.6232904124432	-152.347752776762	-22.0121510406934	-37.9256131150372	
2497333333.33338	-12.11576122889	6.12353118388916	-9.62197533085254	-142.507998766463	-46.6371617267804	-152.329456334819	-22.0348493884248	-37.6798227419674	
2497666666.66671	-12.138070445558	5.43510610544596	-9.62230531978955	-144.772939437148	-46.5213474254441	-156.406719883493	-22.0656415000833	-37.5952068135416	
2498000000.00005	-12.1725234619725	4.77446285565267	-9.62082574941553	-147.096377965338	-46.5977738980634	-158.158817551779	-22.079411741112	-37.215378410418	
2498333333.33338	-12.1993139911387	4.03075177788343	-9.61562846960937	-149.334071363091	-46.4795593505421	-160.443833390087	-22.1220640636797	-36.9339829062635	
2498666666.66671	-12.2259988848098	3.34652004402733	-9.61165953697795	-151.605804818535	-46.49571539704	-163.078226691822	-22.1703618039946	-36.5109518808798	
2499000000.00005	-12.2552859891487	2.68565421962838	-9.61000151151955	-153.846463050272	-46.4581955902492	-165.16408995366	-22.233675558346	-36.1444230815913	
2499333333.33338	-12.2699585615833	1.9552689534293	-9.61182061828651	-156.132004101522	-46.5850276788203	-166.380585790739	-22.3115264371549	-35.6913173685701	
2499666666.66671	-12.3006637921281	1.2607919395279	-9.60759823750371	-158.440234834576	-46.6677475344273	-170.266498373589	-22.3550509377059	-35.2719881386344	
2500000000.00005	-12.3267558608204	0.512991972627667	-9.61153733277576	-160.700039924994	-46.4988969008984	-171.090500387162	-22.4050665553263	-34.6618188797564	
2500333333.33338	-12.3350529963962	-0.211481425019229	-9.61223774451913	-163.008958842227	-46.5013294800508	-173.780141616365	-22.4986343557138	-33.9971567156387	
2500666666.66671	-12.3673315137785	-0.949061632965585	-9.61237660772565	-165.275790883739	-46.6015819186749	-177.446373104567	-22.5646176904895	-33.6170510426984	
2501000000.00005	-12.3829268392796	-1.70833367675168	-9.61394129352421	-167.543164836075	-46.7010697511484	-178.141143004012	-22.6531813409887	-32.8858888581548	
2501333333.33338	-12.3891251473646	-2.49977925951993	-9.6108285092775	-169.850786874734	-46.5214291773386	179.122731395174	-22.7289550819137	-31.8908360053208	
2501666666.66672	-12.4103832439255	-3.26081438458749	-9.61822473021582	-172.148062859049	-46.5621180201829	176.92022240598	-22.8012458421911	-31.1456336626896	
2502000000.00005	-12.4273140833031	-4.04431231049742	-9.61560579704175	-174.389815566054	-46.566216678765	174.012633485901	-22.8995270372855	-30.3424474236354	
2502333333.33338	-12.4380692582122	-4.78596357828088	-9.62084254569623	-176.719922327256	-46.4165570291993	171.888475125456	-22.9750904701237	-29.324062715504	
2502666666.66672	-12.4390567308886	-5.63212644614057	-9.62202142427525	-178.985002126852	-46.4139860623832	170.109350279263	-23.0674511730415	-28.1891189316896	
2503000000.00005	-12.4555009888614	-6.40412229613948	-9.6278693134895	178.733312403776	-46.4925957230764	168.163545997585	-23.1425328538246	-27.2288565775974	
2503333333.33338	-12.4582128898559	-7.22452620955108	-9.63028341120521	176.461507386802	-46.567756516741	165.305815641956	-23.2378706289827	-26.0071163651655	
2503666666.66672	-12.4680520887056	-8.00901922158583	-9.63877916200766	174.1873569747	-46.5322880017419	163.043852679319	-23.3172976664609	-24.8045743796574	
2504000000.00005	-12.4712703003427	-8.83112611000974	-9.64423220752266	171.912003015428	-46.4166487329804	160.840716302449	-23.3747628157199	-23.4608881994426	
2504333333.33338	-12.472516788599	-9.64100170545185	-9.64859339946158	169.631527577508	-46.3693386537594	158.439016420113	-23.465780000667	-22.2048167930715	
2504666666.66672	-12.4776393779955	-10.4172016888885	-9.6537629185127	167.357267414274	-46.6531667026602	156.149747733143	-23.533102587658	-20.6819214462295	
2505000000.00005	-12.4743405773995	-11.2547500818862	-9.65592857216855	165.101300936733	-46.4766252552505	152.924890185389	-23.5779884123006	-19.1202995444315	
2505333333.33338	-12.4671480433029	-12.0713619115739	-9.66809790524684	162.807433707235	-46.3270071611278	151.319761515168	-23.6348207408286	-17.6515871654647	
2505666666.66672	-12.4697638822406	-12.8772344195157	-9.67469399860961	160.551628484751	-46.3361683097015	148.894244422762	-23.6955737818473	-15.9851970388485	
2506000000.00005	-12.4705211391204	-13.7180562486986	-9.68364799805945	158.270987640861	-46.3611819005914	146.97958557563	-23.7434664831868	-14.4520106484069	
2506333333.33338	-12.4637640379728	-14.4856223434181	-9.69099133675468	156.011689827074	-46.4167767191788	145.576590833278	-23.7675195028259	-12.8733949807406	
2506666666.66672	-12.4517090370344	-15.3133858676697	-9.69736319085291	153.74368142644	-46.4478340859671	142.114173274841	-23.7760916699272	-11.1431606421813	
2507000000.00005	-12.4526851990773	-16.1295173397868	-9.70884218537666	151.474921766315	-46.4767540681081	139.69256718872	-23.7828730944088	-9.39684783967285	
2507333333.33338	-12.4436407895252	-16.9014782161403	-9.71834892696402	149.208056788339	-46.4701251372234	136.867526871645	-23.7760081287347	-7.50155755468575	
2507666666.66672	-12.4302758805622	-17.7282176045948	-9.72914204306738	146.917129666228	-46.4148648919761	135.201200943439	-23.7710093995811	-5.83180290549361	
2508000000.00005	-12.4246806067483	-18.5452906828191	-9.73731129541391	144.654080090351	-46.4713044772643	133.084984245544	-23.7289592900196	-4.16363193711435	
2508333333.33338	-12.4127859514345	-19.293457606605	-9.74432111615842	142.389547295945	-46.592850906546	130.444212598614	-23.7160843233081	-2.41059060551832	
2508666666.66672	-12.4025325304893	-20.1155781896709	-9.75833207862067	140.129377094002	-46.4835394890034	129.074356567892	-23.6608696117479	-0.601405079594717	
2509000000.00005	-12.3913146826371	-20.9010980097418	-9.77183030382602	137.878625091761	-46.5350508590821	126.872287327619	-23.5736635787583	0.998428306975386	
2509333333.33339	-12.3804807441072	-21.6553363624332	-9.78063988485507	135.611567753303	-46.4182070952225	123.817455058031	-23.5037282136919	2.58771262382803	
2509666666.66672	-12.3646211501547	-22.4183184085739	-9.79108548446164	133.35314975913	-46.5631576172723	120.788130479635	-23.414234113923	4.23912850444268	
2510000000.00005	-12.3529994893767	-23.2356408894205	-9.80469492279673	131.076480937036	-46.5317264719974	119.677603628083	-23.3276637125787	5.75566669796514	
2510333333.33339	-12.3404148021873	-23.9825698888638	-9.81733078721725	128.825672022422	-46.5955335307439	117.403288137551	-23.2436977743926	7.2962400769393	
2510666666.66672	-12.3288206313978	-24.7230217006231	-9.82793277801714	126.549957296037	-46.5039266176252	114.557798435032	-23.1278445286541	8.61142380435363	
2511000000.00005	-12.3158668280437	-25.4765831864914	-9.8426496590496	124.308878753525	-46.635153591361	112.374467318294	-23.0244889980258	9.95012869602239	
2511333333.33339	-12.2979965415338	-26.1665414895378	-9.85143920344979	122.054933001037	-46.4083007301699	109.836974071477	-22.9257853435387	11.2473735268766	
2511666666.66672	-12.2915112611542	-26.925271150253	-9.86166106312889	119.788307922524	-46.4521885563859	107.905142612064	-22.8178427050599	12.4561171597568	
2512000000.00005	-12.2781088257313	-27.6050391588631	-9.87819689356851	117.546052439224	-46.4527222291398	106.422487170888	-22.6589434842352	13.6505702678556	
2512333333.33339	-12.2630086433973	-28.3156242843309	-9.8946050560007	115.26949822105	-46.4627679729904	103.270135871045	-22.5690170877864	14.7641336826076	
2512666666.66672	-12.2497241049696	-29.0235157880776	-9.90373491676672	113.027506132291	-46.5829529110045	101.45544545686	-22.4474102337737	15.7174103716914	
2513000000.00005	-12.242359448389	-29.6927099574284	-9.91560899395098	110.781828466454	-46.4709009135917	98.77105153829	-22.321034196255	16.7663651949255	
2513333333.33339	-12.2273098896982	-30.3624941431563	-9.92840917615955	108.505125556487	-46.6035990859024	96.5646985547164	-22.198726936041	17.6737913305228	
2513666666.66672	-12.2198432260795	-30.9760708048141	-9.93947003096534	106.274793015345	-46.5498621916502	94.161864262225	-22.0826498475294	18.3086727557745	
2514000000.00005	-12.2157826120951	-31.644411896189	-9.94746116688012	104.008865834634	-46.4659806188035	92.8353223303576	-21.9778379663173	19.0990859084064	
2514333333.33339	-12.2047483990917	-32.2249975159364	-9.96605293876607	101.756743421617	-46.5411679357774	89.9719406568795	-21.8628430426035	19.9773168417655	
2514666666.66672	-12.1960098544212	-32.9020738191673	-9.97622411273162	99.4914648672515	-46.6007414174793	86.9278130944673	-21.7614541538513	20.4424633704115	
2515000000.00005	-12.1899160145796	-33.4821457999409	-9.98969265848455	97.263188680823	-46.5904574115285	85.444335903603	-21.6376271973536	20.9755191974253	
2515333333.33339	-12.1796899561828	-34.0647743282509	-10.0020124159448	94.9828599286423	-46.6900112457679	83.050371867068	-21.5442068278779	21.5023020573492	
2515666666.66672	-12.185315594065	-34.6255556821984	-10.0201002410625	92.733109819714	-46.6312560725666	81.8013235755558	-21.4518708829758	21.97727862117	
2516000000.00006	-12.1776932248799	-35.1892182777018	-10.0243090334703	90.4699516220579	-46.6302983337044	77.6587992595902	-21.351465475431	22.308846571358	
2516333333.33339	-12.1783887399916	-35.7328195284487	-10.0409995058562	88.2240448149666	-46.6464718222689	76.5129446566593	-21.2618569789714	22.5971380995155	
2516666666.66672	-12.1770914186074	-36.2036497386194	-10.0452853499397	86.0043679034867	-46.7347101454324	73.9994288285104	-21.2133043614307	22.9321414407123	
2517000000.00006	-12.1812462184869	-36.7605697406464	-10.0587396035558	83.692702384134	-46.7774734099841	72.5381297237524	-21.134428651154	23.1774190305125	
2517333333.33339	-12.1849568989309	-37.2180716350357	-10.0687103774991	81.4332606895876	-46.6893804743247	69.4836025312953	-21.0591531147004	23.4715725843223	
2517666666.66672	-12.1927187926507	-37.7167647661273	-10.0844846831662	79.2160081949882	-46.8115332361964	67.8015981842912	-20.9807667853348	23.6345077180547	
2518000000.00006	-12.1950390247149	-38.1902055234045	-10.0965688264216	76.9795847783979	-46.7105788313588	64.8695732882599	-20.9412657298764	23.6301375787917	
2518333333.33339	-12.2019823020024	-38.6185563523838	-10.1057616575545	74.707614585172	-46.780263959055	62.5879512033048	-20.8980088817831	23.687973395143	
2518666666.66672	-12.2135548361423	-39.0351525563244	-10.1162774623401	72.4532258413149	-46.7985190396745	60.2194481690704	-20.8424395494047	23.7240195243072	
2519000000.00006	-12.2283811413882	-39.4266655224254	-10.1245068362384	70.1502811363747	-46.6702081387099	58.2848443275993	-20.8523445889963	23.8827172391284	
2519333333.33339	-12.2296896065594	-39.8138389421411	-10.1318846202064	67.9266365270951	-46.7859475206187	55.928692059331	-20.8181362968072	23.7768215723079	
2519666666.66672	-12.2408100880255	-40.1547024924764	-10.1378959806573	65.6655455903065	-46.7844984566905	54.6113849146733	-20.7884760354081	23.8021309689503	
2520000000.00006	-12.2637037020485	-40.508207153604	-10.1493354037248	63.4192777203768	-46.9127483383442	51.9747179152807	-20.7736264408822	23.5943966861878	
2520333333.33339	-12.275277183703	-40.8424260235319	-10.1594348621462	61.1746178817547	-46.731202019369	48.9088221745379	-20.7807843389924	23.4786879577969	
2520666666.66672	-12.3008523731054	-41.1298108626252	-10.1637653084726	58.9227899500087	-46.7367740026529	46.5547092415751	-20.7852283654664	23.3075073831169	
2521000000.00006	-12.3097685003397	-41.4487372025865	-10.173852426534	56.6657211154882	-46.6686023093557	44.4550948975219	-20.7911686644673	23.1522698046266	
2521333333.33339	-12.3295198446362	-41.7440682202185	-10.1847522452106	54.3988635312915	-46.7152085873851	43.0441148398152	-20.814537224478	23.0625263488977	
2521666666.66672	-12.3455151815326	-41.9941129064621	-10.1910920726092	52.1561533692915	-46.6838613675321	40.6531300348787	-20.8538882410194	22.6362483525776	
2522000000.00006	-12.3710330998684	-42.2470704360311	-10.1994219023149	49.9115450381491	-46.9219817095799	38.9319135269591	-20.8863895052903	22.5267078843189	
2522333333.33339	-12.3970477653476	-42.5060402535739	-10.204677822052	47.6500796916188	-46.8212657604567	36.3597091543767	-20.9447580001215	22.2545248174509	
2522666666.66673	-12.4101454701497	-42.7154808282467	-10.2149532529324	45.4135620684281	-46.866210245312	33.460727304089	-20.9783615755715	21.9399167514348	
2523000000.00006	-12.4365266407653	-42.950356091974	-10.2191780928526	43.1487814539722	-46.8881443592198	32.0781942168195	-21.0510473085643	21.5841011239238	
2523333333.33339	-12.4542093962529	-43.1040708044915	-10.2288884673969	40.9114127916288	-47.0536348980563	29.1596943107207	-21.1115248632108	21.1858765974354	
2523666666.66673	-12.4890309691116	-43.3065707760376	-10.2348216868162	38.7081244645474	-46.9363270353563	27.2039723034501	-21.1954795077152	20.896987168859	
2524000000.00006	-12.5030822078572	-43.4729452863317	-10.2420506715782	36.4376389625441	-46.8198758724402	24.2867020482791	-21.2764903958914	20.559790447136	
2524333333.33339	-12.531145637729	-43.6095570196795	-10.2431565140248	34.1944554290871	-46.8440818927547	22.1619783028537	-21.3677455237293	20.0894560263154	
2524666666.66673	-12.5589926371429	-43.7830078900372	-10.2532468310608	31.9828558435153	-46.7930642375243	20.1709128812129	-21.4802244937196	19.6472674723535	
2525000000.00006	-12.5827353116727	-43.9000185265952	-10.2589506956723	29.7500655607128	-46.8911879446571	18.4883277004771	-21.5882861147068	19.1309341060341	
2525333333.33339	-12.609847564812	-43.9851681510396	-10.2652248868373	27.5149072517569	-46.7978887909466	15.2246000174881	-21.6843149540562	18.7599847913262	
2525666666.66673	-12.6419147217344	-44.1593531591143	-10.2708789262531	25.2955887485304	-46.8778433318421	12.8295713419848	-21.8088465340318	18.2199210781486	
2526000000.00006	-12.6677982946128	-44.2754748209501	-10.2735882289919	23.0807736909829	-47.1071483193907	11.5487533325216	-21.9727341860564	17.6358476013731	
2526333333.33339	-12.6991594179085	-44.3059046497511	-10.2738383183883	20.8495519437914	-46.8781516717418	11.0005604707632	-22.1004235782672	17.1517864305767	
2526666666.66673	-12.7279487474386	-44.446674078025	-10.274428146522	18.6250245045186	-46.7782272981873	6.6554073024174	-22.2772182879422	16.5622632374252	
2527000000.00006	-12.7547369549492	-44.523402738774	-10.2810466986548	16.403942144756	-46.862933380735	5.75724363196097	-22.4338437628478	15.9086300336974	
2527333333.33339	-12.7847349487077	-44.6211069245836	-10.2784295104483	14.1861828963492	-46.8583781752873	2.19063776045184	-22.6374034234077	15.3869914052004	
2527666666.66673	-12.8214053045397	-44.7088233426757	-10.2750723235457	11.9538199585803	-47.0659367234348	0.661971237377087	-22.7946024835423	14.875838257926	
2528000000.00006	-12.8587554364869	-44.8233654656184	-10.2785577909368	9.72926822037051	-47.006573216538	-1.85330521292808	-22.9727378164464	14.2320922403156	
2528333333.33339	-12.8938478873579	-44.8866193863685	-10.2783174235319	7.51158147581587	-46.7571218366102	-3.02943335210029	-23.1999002658591	13.5956794764229	
2528666666.66673	-12.9226281811687	-44.9925359945911	-10.2743571570858	5.2583304061759	-46.9328341483704	-6.10362787702662	-23.4265070988378	12.93696686892	
2529000000.00006	-12.9600094582159	-45.0873714868381	-10.2697387515585	3.0933956725573	-46.9982959297885	-8.48371082957978	-23.6378908088135	12.0631069950149	
2529333333.3334	-13.0005143337395	-45.2607831840022	-10.2619991426379	0.869676061163341	-46.9343941841947	-10.6128544132626	-23.8867883694754	11.4262085918218	
2529666666.66673	-13.041710586817	-45.3061542182553	-10.2548707199242	-1.35058553481289	-46.9286373287637	-12.4893180539403	-24.1119783218712	10.7381130550747	
2530000000.00006	-13.0739777176136	-45.4840102692001	-10.2523668161358	-3.58084548350638	-46.8681985797085	-14.4673936241842	-24.3888000601001	9.94056941802002	
2530333333.3334	-13.1151931797396	-45.6419068663653	-10.2445415565128	-5.81314805026078	-46.9043649121849	-17.1527471118596	-24.6390604572395	9.18965251008515	
2530666666.66673	-13.1547045609478	-45.8116652945117	-10.2383815429933	-8.05007961374076	-47.0326650531675	-18.4161956248305	-24.9208496439025	8.46013720761739	
2531000000.00006	-13.2127062783152	-45.9463881985562	-10.2302593950235	-10.2523729062585	-46.8233613324324	-21.856464534171	-25.205063392445	7.66643760640354	
2531333333.3334	-13.2584469320172	-46.1847073606781	-10.223014131944	-12.4945627856217	-46.7606818789202	-24.2484263863521	-25.4990012630925	6.88910042780551	
2531666666.66673	-13.3235211587401	-46.2941246847118	-10.2127244605222	-14.7135581247575	-46.7783323526213	-25.9200775660054	-25.7830322725173	5.99341849346395	
2532000000.00006	-13.3582798865286	-46.4482609800507	-10.1989425804	-16.9594017494383	-46.7908374726974	-28.5492728471908	-26.1411337987945	5.10776346466121	
2532333333.3334	-13.4152348605406	-46.6286628011656	-10.1891461676782	-19.1929088596796	-47.0329302290806	-31.8306510180909	-26.4392657758166	4.28470256227907	
2532666666.66673	-13.4615161950053	-46.8437094073834	-10.1797699603781	-21.4308152974296	-46.7873840157347	-33.2104443504307	-26.8168532716484	3.24731596591142	
2533000000.00006	-13.5257472792235	-47.0649315524004	-10.1662659928444	-23.6922348920251	-46.7357288977667	-36.5606641309392	-27.2076851753411	2.34642924114012	
2533333333.3334	-13.5845072138655	-47.2784849070899	-10.158744687613	-25.9104200123154	-46.7667396755238	-38.0622413175834	-27.5673394175655	1.5620840826673	
2533666666.66673	-13.6468834581892	-47.4126877751083	-10.1433621594291	-28.1679716780266	-46.8683043784154	-39.3398566205851	-27.9674079099911	0.541782855920345	
2534000000.00006	-13.7040986388228	-47.6848710445064	-10.1319480003887	-30.4143144686846	-46.7341980860761	-42.5229379657677	-28.3654774360025	-0.280813594442437	
2534333333.3334	-13.7679481679688	-47.8711621147273	-10.1214417410852	-32.6944749784406	-46.777072179106	-44.040388423235	-28.7628562609639	-1.40914654475366	
2534666666.66673	-13.8489701418764	-48.1246288512406	-10.108469959834	-34.9350513854866	-46.7562990050798	-45.486438246094	-29.1679650469863	-2.18579846912153	
2535000000.00006	-13.9078521786493	-48.3479328016902	-10.1009566278868	-37.1796505962092	-46.6163623249267	-48.4365255883398	-29.6377788128941	-3.22003327112102	
2535333333.3334	-13.9777265959898	-48.6937302380117	-10.0890932929776	-39.4694512549717	-46.6837339358393	-51.2260044241454	-30.0653291342531	-4.04451000237077	
2535666666.66673	-14.0545746946247	-48.9152499681657	-10.0752259936026	-41.7424399288566	-46.6115449297206	-54.2739935384295	-30.553456770081	-5.29363460241284	
2536000000.00006	-14.1410275095151	-49.2056031284091	-10.0679705047117	-44.0097989575706	-46.912189592539	-55.6106278717506	-31.0475820001057	-5.9323480747146	
2536333333.3334	-14.2123823423718	-49.5320666321006	-10.0544990614325	-46.2984491641102	-46.7275378934636	-56.83534855274	-31.5114821414577	-6.8832018133577	
2536666666.66673	-14.291383876734	-49.909591072689	-10.0461396420698	-48.5747885659458	-46.7045640024213	-60.1238834634265	-32.0057069762758	-7.96967619911658	
2537000000.00007	-14.3743610661773	-50.067848983828	-10.0373316141281	-50.8480650105213	-46.7525590484233	-61.9200728643282	-32.5558878300163	-8.79898343901079	
2537333333.3334	-14.4626791978674	-50.4188581843675	-10.0312306975375	-53.1616677294749	-46.6463946295871	-63.7079541499061	-33.0867251668153	-9.58834309421474	
2537666666.66673	-14.5489054377568	-50.7838735278307	-10.020329560995	-55.3972249044485	-46.7184590400911	-66.9644839699754	-33.5827931679305	-10.3023352237521	
2538000000.00007	-14.6498877308413	-51.1259268432546	-10.0116183698867	-57.736442194702	-46.7036758272102	-68.2023459645083	-34.1463270490414	-10.807298543167	
2538333333.3334	-14.7363966374357	-51.4409420006724	-9.9999734353942	-60.0087811458682	-46.6302834095452	-71.0627349132507	-34.6780755550783	-11.6487412343029	
2538666666.66673	-14.8186050187102	-51.7733347041174	-9.99277893905565	-62.2935163797515	-46.7352691403294	-72.6232107511533	-35.2924937445534	-11.7643654916783	
2539000000.00007	-14.9300817899413	-52.0132295922583	-9.98637313967683	-64.6000405235665	-46.6843784077813	-75.7835665932774	-35.8257244548085	-11.7267855073712	
2539333333.3334	-15.0379287596158	-52.4210158974346	-9.9868214502971	-66.9025259256198	-46.4018676219282	-78.054597602201	-36.4061315703276	-11.7927651736821	
2539666666.66673	-15.1467567757172	-52.8223407940291	-9.97329423538487	-69.2081520408339	-46.6894628021132	-79.8673793408097	-36.9996482212235	-10.8176296373626	
2540000000.00007	-15.242093557813	-53.2024539008383	-9.96664908220725	-71.4922270408968	-46.7229519579755	-82.0397711178704	-37.4866413207307	-11.5245264339844	
2540333333.3334	-15.3364556081586	-53.5734408024709	-9.96315542105853	-73.8058951620254	-46.6347832484536	-83.8300903368637	-37.9952971774822	-9.22397057365383	
2540666666.66673	-15.4642317673168	-54.0713849414682	-9.96534985518417	-76.1232309700745	-46.71796808045	-86.1971363267293	-38.5531515531757	-7.55304158512694	
2541000000.00007	-15.5761983595611	-54.482390215564	-9.95926890623547	-78.3896733705382	-46.5865389614341	-88.6281643949318	-39.0666729110388	-6.28225015808119	
2541333333.3334	-15.6718560645131	-54.8587626049567	-9.95013400961476	-80.6819681980135	-46.6417740399866	-91.9053684621339	-39.3444296870608	-3.6334663255004	
2541666666.66673	-15.787923121186	-55.314202088434	-9.94248843173265	-83.0279668972358	-46.6541996615188	-92.9732716313267	-39.4792447965919	-1.11915702699137	
2542000000.00007	-15.9152026825936	-55.7308766379949	-9.94536034293833	-85.3262585107541	-46.6697972441544	-96.4599022460036	-39.6800450531085	2.10159791950388	
2542333333.3334	-16.0320178806123	-56.1938128987928	-9.94648564524734	-87.61236731732	-46.6319215772312	-97.4813048566314	-39.8569842005825	4.80607510975868	
2542666666.66673	-16.1491237438886	-56.6761866083887	-9.94500221646005	-89.8816799037546	-46.6683298152713	-99.5295140770598	-39.7667119968023	9.17991401699639	
2543000000.00007	-16.266415544264	-57.1129387700671	-9.94113278705642	-92.231371923925	-46.627492230584	-102.511615235952	-39.6617674812745	12.0299672742987	
2543333333.3334	-16.3898500109206	-57.6254887109541	-9.93788624372294	-94.5128572838349	-46.5228165964324	-104.128093565834	-39.2020125752864	15.0348230633069	
2543666666.66674	-16.5055502382314	-58.1360336748454	-9.93845884154893	-96.7917952305552	-46.6073909945275	-107.831471914897	-38.9262610370981	17.8996127965196	
2544000000.00007	-16.6370371331314	-58.6128878391788	-9.9396114672742	-99.0948838514904	-46.6905627857631	-109.371919027034	-38.4168142492897	20.407689393035	
2544333333.3334	-16.76587391215	-59.1685579821311	-9.9406230496401	-101.388669811637	-46.4836098506553	-111.632576145713	-37.9138734408151	22.2196497168731	
2544666666.66674	-16.874532755403	-59.6934457936328	-9.93987444530928	-103.675754982777	-46.7951644028045	-113.32390019115	-37.3852844493315	23.6052429197829	
2545000000.00007	-17.0157279544391	-60.3083519008209	-9.94367097811064	-105.975107941552	-46.4746511955783	-115.263017023292	-36.7155250975511	24.7930196368122	
2545333333.3334	-17.1124449999432	-60.8390674571507	-9.94245702796432	-108.277451129215	-46.558516026451	-117.699521587066	-36.1488494756331	26.4593114192304	
2545666666.66674	-17.2562295587088	-61.3885774837011	-9.95018199668837	-110.5686047379	-46.6195224294389	-120.161557521014	-35.5824370759207	26.9514638562287	
2546000000.00007	-17.3798436939151	-61.9785120395356	-9.94812937365912	-112.882773937255	-46.6653083224047	-122.816293817344	-34.9155643034518	27.244148680028	
2546333333.3334	-17.5026727357298	-62.5861940929925	-9.95331362050282	-115.140252913612	-46.6127951754745	-124.36070157404	-34.3202711993306	27.3608907409975	
2546666666.66674	-17.6154828256791	-63.2838637545983	-9.95491102634612	-117.427955997826	-46.5711865917489	-126.934375637607	-33.7019910492313	27.5268713921791	
2547000000.00007	-17.7413182667508	-63.828081373543	-9.95803664349499	-119.690567277143	-46.5491653350749	-129.857782752635	-33.1022504678247	26.9795206903847	
2547333333.3334	-17.8681207579776	-64.5181331389265	-9.96273439988372	-121.962014075924	-46.378928519052	-131.51905040582	-32.4979381316724	26.7066000195079	
2547666666.66674	-17.968491919911	-65.1591002054149	-9.96037898427792	-124.221750888776	-46.5597703852694	-134.580629539126	-31.8367021210435	26.6486754956237	
2548000000.00007	-18.0950046914344	-65.8977572092645	-9.96592302641342	-126.502061611874	-46.4790960454124	-135.757323456626	-31.3627013779649	25.8529540722158	
2548333333.3334	-18.1951254843992	-66.5670271042786	-9.96891144624709	-128.750519843822	-46.4330890004945	-138.506939772462	-30.7619898456977	25.5291894140643	
2548666666.66674	-18.3094761716093	-67.2418094459132	-9.97101941460638	-130.982014733625	-46.6466779433702	-141.085569483715	-30.2373217845764	24.9263585592154	
2549000000.00007	-18.4113051262815	-68.0619108960784	-9.97362010181892	-133.261550649763	-46.603502859201	-142.537901176775	-29.7229766369855	24.1161196870768	
2549333333.3334	-18.5120780353878	-68.7963468838431	-9.97532273240135	-135.496050175275	-46.3758111008298	-146.46851422986	-29.2380077926998	23.6832493647299	
2549666666.66674	-18.6183179450399	-69.595589963472	-9.97568079005566	-137.745298109342	-46.5506851719972	-147.398058340636	-28.7286327920539	22.8092369649894	
2550000000.00007	-18.7201960485517	-70.4162239733363	-9.97706751321708	-140.002224856563	-46.5925108538935	-150.538746234787	-28.2516804819944	22.1291056120203	
2550333333.33341	-18.8115533091214	-71.4038840826922	-9.97844167333547	-142.264904712653	-46.5550535316454	-151.323450086708	-27.7947131563549	21.5035840814572	
2550666666.66674	-18.8870857710912	-72.1530970505113	-9.97608769536288	-144.499037646799	-46.6238867914175	-153.613124014403	-27.3116705343328	20.7432048204192	
2551000000.00007	-18.9763588476349	-73.1141930274643	-9.97993414368251	-146.724371636401	-46.5927027677319	-157.30445122563	-26.8866004708646	19.9630628388024	
2551333333.33341	-19.0615313538026	-73.9624768929375	-9.97973206921953	-148.978459145885	-46.5468049230815	-159.558899663134	-26.4635658240392	19.2478655843733	
2551666666.66674	-19.1482990770633	-74.9041162101565	-9.97770816285845	-151.198242938653	-46.566316616556	-161.234318757061	-26.0357834201829	18.6153615861021	
2552000000.00007	-19.2157313796241	-75.9178875664523	-9.9805123514733	-153.440097242405	-46.6480757632066	-162.918120319746	-25.6483502549015	17.786015585044	
2552333333.33341	-19.2759566244275	-76.883871201724	-9.97589603070587	-155.71024732897	-46.4994844365224	-166.647663341967	-25.2443792460892	17.0124921934168	
2552666666.66674	-19.3469925043692	-77.782110642266	-9.97619287024951	-157.918982013593	-46.6754281629725	-167.891000096081	-24.8694861377026	16.4805620710104	
2553000000.00007	-19.4012756231711	-78.786971432575	-9.97320862742072	-160.158164340375	-46.5291956321935	-169.98892305086	-24.5139590045983	15.7108823972841	
2553333333.33341	-19.4471922419127	-79.7316514509174	-9.97142839231483	-162.408692815571	-46.5228796751113	-171.996519264936	-24.1703810179871	15.0513612808499	
2553666666.66674	-19.4962018122084	-80.7944167286206	-9.97495825844731	-164.611274577302	-46.685173141706	-175.634203419997	-23.8220952487894	14.3051783815725	
2554000000.00007	-19.5346147777499	-81.760694232604	-9.96959060541698	-166.885495119131	-46.4793872978047	-177.644591655319	-23.5012699940405	13.6157817626747	
2554333333.33341	-19.5599592121454	-82.7146196281184	-9.96642614597327	-169.135083873323	-46.4506199453554	-179.810429245637	-23.1801197680474	12.9268726116013	
2554666666.66674	-19.5938595648449	-83.7850811589393	-9.95857700561669	-171.366512024381	-46.3513139082318	178.337726986407	-22.8632203098183	12.3856498462941	
2555000000.00007	-19.5986037367193	-84.7064936018742	-9.96265398627546	-173.588326754247	-46.4372286843983	175.733736084647	-22.5763408069361	11.6859564991992	
2555333333.33341	-19.6211318866137	-85.7677516747425	-9.95991756654553	-175.83871587123	-46.5202806840788	174.152054043474	-22.2832352962756	11.0713267191211	
2555666666.66674	-19.6341099423337	-86.7608613549155	-9.94847626860241	-178.085312669284	-46.3698489875483	170.864660041618	-21.9968264329575	10.4980730212615	
2556000000.00007	-19.6298811371901	-87.7061220198023	-9.9483426106681	179.679143306632	-46.4671423997967	168.438820842845	-21.7324944802807	9.81219486298823	
2556333333.33341	-19.629412203785	-88.7301447364233	-9.9431979337094	177.39492730891	-46.5512166996547	166.355646440749	-21.4725405464365	9.20667524348537	
2556666666.66674	-19.5997275689998	-89.7341628485889	-9.93850031206906	175.152626798418	-46.4793997138338	164.012933908868	-21.229958574587	8.6117740000525	
2557000000.00007	-19.5849565497891	-90.6201113493114	-9.93627297649015	172.892848370864	-46.4128186821651	162.044803606036	-20.9736167697196	8.00394653289472	
2557333333.33341	-19.5642260246167	-91.6455805330009	-9.93313251927214	170.657141821538	-46.3393359941417	159.014948129678	-20.7359143873948	7.57620355712348	
2557666666.66674	-19.5198343086764	-92.7292647450346	-9.92314367313649	168.348999338466	-46.3333399965959	158.319988544962	-20.5198099167624	6.9148631296364	
2558000000.00008	-19.4946877086637	-93.5227605491456	-9.92267913774233	166.100564126967	-46.3911853643937	154.392235825834	-20.3048044518396	6.31662588377415	
2558333333.33341	-19.4475271766124	-94.4041812189682	-9.91960838315106	163.83293769953	-46.3556492665237	152.329182897289	-20.0822479234362	5.79812501831777	
2558666666.66674	-19.3952361613477	-95.3241758489378	-9.91288625965927	161.549013198818	-46.4532581698006	150.383955389116	-19.8910572402415	5.18440010468099	
2559000000.00008	-19.3558609752092	-96.158150978324	-9.90895056140316	159.316956196768	-46.3975289023772	148.414754325843	-19.6999312349599	4.70543563798838	
2559333333.33341	-19.2895781396556	-97.1288167443019	-9.90274808198617	157.041995190219	-46.2676333143253	146.399265283347	-19.5127706466399	4.21030067589419	
2559666666.66674	-19.2195211859415	-97.8078909185852	-9.89478479261942	154.761759127727	-46.2838065345667	143.341155761762	-19.3311542226283	3.66626548008959	
2560000000.00008	-19.156355192351	-98.7407195003148	-9.89189626795388	152.46504144412	-46.5260398498963	140.798281639423	-19.1711726106301	3.16797811454475	
2560333333.33341	-19.0914491087553	-99.5945540765305	-9.88791315843724	150.177304173254	-46.1794194361819	137.362600860308	-19.007249841469	2.75904427886291	
2560666666.66674	-19.014396476243	-100.333243209604	-9.8863003821842	147.88955686613	-46.2870796451468	135.99442549438	-18.8500925445087	2.21964121589663	
2561000000.00008	-18.9299897131219	-101.11060735601	-9.88315043073076	145.575563958378	-46.3644008794203	134.576859371099	-18.7032157691107	1.77385870656526	
2561333333.33341	-18.8532823829575	-101.847995225424	-9.87448353445571	143.268812625568	-46.2929238425804	132.488697381179	-18.5515183786307	1.33389045832666	
2561666666.66674	-18.7742710534756	-102.537002132045	-9.87085294286432	140.953737195782	-46.3543077952058	128.751141715008	-18.4127401327301	0.786899400662664	
2562000000.00008	-18.685077938282	-103.260085060741	-9.87013848183791	138.624522829592	-46.3518329510086	128.094728840831	-18.2903791627568	0.353649822423328	
2562333333.33341	-18.6053338274714	-104.068014066852	-9.86962012408574	136.308344095648	-46.1201996802727	124.611492463125	-18.1786604306107	-0.062628571364604	
2562666666.66674	-18.5166439533879	-104.75995996287	-9.86671273485903	133.994065790643	-46.2490302357848	122.346072775468	-18.0573116765057	-0.495673501376014	
2563000000.00008	-18.4353500179711	-105.40910514395	-9.8608752404336	131.660130398566	-46.2198669150671	119.363483640151	-17.9335714358236	-0.907418238443759	
2563333333.33341	-18.3386065827985	-106.121250959298	-9.86280808926197	129.297592820259	-46.2576880103468	118.238417923596	-17.8373394273003	-1.31401752805092	
2563666666.66674	-18.2375927856362	-106.817901314467	-9.86064096353648	126.990782237788	-46.2679462719326	115.114408975393	-17.7465656321794	-1.71288427410906	
2564000000.00008	-18.1594553769699	-107.385671709058	-9.86442122160213	124.628631923842	-46.1804581038536	113.362021148619	-17.6507170211927	-2.10520781455338	
2564333333.33341	-18.0859453325019	-108.025948563812	-9.86354921252541	122.286047243174	-46.4078646330153	109.498849286971	-17.5656935501327	-2.46771064060311	
2564666666.66675	-17.9835676344858	-108.697389864589	-9.86154253809023	119.929146696588	-46.1290551229975	108.162671127311	-17.4902732643062	-2.88767381458274	
2565000000.00008	-17.9065753440797	-109.26905626901	-9.86355777433285	117.558557299252	-46.1865953185118	106.54852180168	-17.4062071568598	-3.23364652635477	
2565333333.33341	-17.8317717638679	-109.923160316253	-9.86582291176003	115.217161048873	-46.2263983461343	103.87866414121	-17.3472312837771	-3.58080839474887	
2565666666.66675	-17.745611948156	-110.492571184956	-9.86649167758792	112.872928288184	-46.1309619338298	100.816408798971	-17.2954701455344	-3.90345137795784	
2566000000.00008	-17.6690226638718	-111.044351836912	-9.87253200596497	110.510758684967	-46.1631307868433	98.9561749834819	-17.2132793213726	-4.26653420169684	
2566333333.33341	-17.5873640401676	-111.657124030619	-9.87466005219651	108.117982500752	-46.1447104458107	96.7071122235872	-17.173006720692	-4.61578488812401	
2566666666.66675	-17.5260208177965	-112.296587404395	-9.87825771344865	105.769899132307	-46.0496822671158	94.8427752315624	-17.1355659795827	-4.98156271560135	
2567000000.00008	-17.4498365899155	-112.856517245838	-9.88389451689387	103.394764613903	-46.149039921773	92.2010270021399	-17.0878587868297	-5.34752781029481	
2567333333.33341	-17.385562349173	-113.427659760055	-9.88896736482736	101.027761024703	-46.2309142001951	89.4183012455787	-17.0659051015447	-5.61854107138486	
2567666666.66675	-17.3209933320313	-113.904550590075	-9.89682145765383	98.6599609595804	-46.1908076280796	87.4421950135416	-17.0266087660646	-5.77927129691369	
2568000000.00008	-17.2588597777536	-114.506046507404	-9.89880682794331	96.2658325729941	-46.1952548411389	85.4000741422356	-16.9950409754596	-6.10942276621837	
2568333333.33341	-17.2102345496936	-115.096702630755	-9.90779941370372	93.9050122777543	-46.2307763753224	82.9967900043011	-16.981920730304	-6.45562675329353	
2568666666.66675	-17.1578197853172	-115.535500634043	-9.90775281768015	91.5580073440839	-46.1758442361323	80.7741587197467	-16.9717302747039	-6.69537296145509	
2569000000.00008	-17.1043136450302	-116.026296793933	-9.92555630245582	89.1763973080623	-46.2118995667271	77.8728646979746	-16.954191323675	-7.12618174995379	
2569333333.33341	-17.0492637926034	-116.589086426459	-9.93053042897931	86.7979138770472	-46.1855861062277	75.7983022171457	-16.9426693463502	-7.34206529454739	
2569666666.66675	-17.0167233364987	-117.088113258542	-9.94046096082392	84.4387096050163	-46.3313977260228	73.5574353874363	-16.9541783759008	-7.68952791567855	
2570000000.00008	-16.9686979552666	-117.553723129498	-9.95097153383908	82.0843593871135	-46.1343708146703	70.9204225830243	-16.9494998981735	-7.80189504955876	
2570333333.33341	-16.9395732842517	-118.092016949848	-9.95570323583127	79.7338041070998	-46.2334591998432	68.7114668038834	-16.9707883662961	-8.16721217792811	
2570666666.66675	-16.9100229993409	-118.503590969464	-9.97051027143445	77.39377764522	-46.2859311152541	66.1864072985606	-16.9735038091552	-8.36997829614992	
2571000000.00008	-16.8815104085729	-118.991134257104	-9.97837943172501	75.0432369529033	-46.2807126377169	64.4161087207709	-16.9909358741309	-8.68134774481371	
2571333333.33342	-16.8509038670424	-119.533811529918	-9.98053404244637	72.689182917425	-46.3478105700474	61.8867894556603	-17.0086378561865	-8.81065597810213	
2571666666.66675	-16.8368778989694	-120.013168282375	-9.99451230955226	70.3297358083222	-46.2276644031489	59.8069341905169	-17.0364723551045	-9.08381125347618	
2572000000.00008	-16.8176682772981	-120.479985979909	-10.0041174714155	68.024393874163	-46.4682486127925	57.8248023821083	-17.0720356294302	-9.42694774314998	
2572333333.33342	-16.8070237407498	-120.889090861971	-10.0128750219089	65.7116136800649	-46.3694620190403	55.8425643613508	-17.0967425116556	-9.64217421875797	
2572666666.66675	-16.8040260000678	-121.244632055024	-10.0265479578538	63.3793294286942	-46.3626955795062	52.4792022292715	-17.1445281135038	-9.9051341640009	
2573000000.00008	-16.795730129319	-121.774890750083	-10.0358201573178	61.0634056724775	-46.4733712847938	49.7844132134207	-17.1836496159075	-10.0517839703124	
2573333333.33342	-16.7878631824547	-122.234616209087	-10.0437750830061	58.7429586943573	-46.4182642068627	48.0201544490161	-17.2424161313095	-10.3641718910496	
2573666666.66675	-16.8051905027607	-122.730729801658	-10.0496744183369	56.4525573937514	-46.5020306696109	47.3748565324039	-17.2972054229251	-10.5713128020633	
2574000000.00008	-16.7995895327624	-123.197420659122	-10.057831769635	54.1437356953467	-46.3938054758065	43.7873659857459	-17.3631746263031	-10.8532032854218	
2574333333.33342	-16.8203088531632	-123.56377740312	-10.0647023936543	51.8471433848734	-46.3678817666836	42.0175642118374	-17.4288218012227	-11.0159121737042	
2574666666.66675	-16.8374686261426	-124.037362112149	-10.0749053516271	49.5391718832131	-46.4233341682489	38.938385626334	-17.4766175403009	-11.158374059431	
2575000000.00008	-16.8608787121241	-124.470531302116	-10.0805972757326	47.2897566650231	-46.4106537633833	36.7970359468329	-17.559668524828	-11.4656180620789	
2575333333.33342	-16.8766933324688	-124.966675238869	-10.0868859067881	45.0096516909457	-46.4451733213587	34.7956506246761	-17.6426658955538	-11.6918754212593	
2575666666.66675	-16.9269716864758	-125.50019519036	-10.0941017724395	42.7390347673617	-46.6644827838647	32.5109548240969	-17.7112090630912	-11.9354212279648	
2576000000.00008	-16.9540958131609	-125.922899837123	-10.1008812739829	40.4837766506995	-46.3580623711052	30.6690145794677	-17.8080475815028	-12.1405791182799	
2576333333.33342	-16.9876717283114	-126.390857003583	-10.1036922669845	38.2252725066383	-46.4435019976625	26.9116786224708	-17.8910208384829	-12.3512134621133	
2576666666.66675	-17.0335066778985	-126.864366534541	-10.1056172706211	35.9917029854792	-46.4247498499401	25.0642930463562	-18.0001187441999	-12.6197479173309	
2577000000.00008	-17.0931277911939	-127.336457701284	-10.1115839805784	33.7060379634342	-46.4442683250811	23.2565674645451	-18.1034872826687	-12.8667267399133	
2577333333.33342	-17.154239745076	-127.774928149724	-10.1139337013792	31.4502444196564	-46.4914860848313	21.4663599662077	-18.2139090118002	-13.0761115122575	
2577666666.66675	-17.2048180322435	-128.367195059266	-10.1196278659392	29.2187653808212	-46.6302757596888	18.0609339265211	-18.3054363535671	-13.4381835946447	
2578000000.00008	-17.2758086358962	-128.935516939365	-10.1189117394396	26.9856056938628	-46.4965476853686	16.366558947311	-18.4353473971387	-13.7423897640368	
2578333333.33342	-17.3336632388756	-129.378508240596	-10.1189766305314	24.7787116825112	-46.534414440987	14.4676812165585	-18.5470658356333	-14.0019382822943	
2578666666.66675	-17.419841588048	-129.904185381924	-10.118883633737	22.541332587214	-46.7395829944285	11.8962398441136	-18.6856230805453	-14.2410320759516	
2579000000.00009	-17.5036531837236	-130.352459513852	-10.1249247644683	20.2955212419464	-46.6439815291468	10.0884887676415	-18.8309314022993	-14.4502400274854	
2579333333.33342	-17.5803985387444	-130.910900975252	-10.12323155973	18.051753025056	-46.6951541723585	7.31802748228893	-18.970324005745	-14.7817758349369	
2579666666.66675	-17.6750501693141	-131.509517752029	-10.1198980444611	15.8419004897128	-46.7837747832392	4.61425790018987	-19.1200031503712	-14.8271582825257	
2580000000.00009	-17.7751399825252	-132.01956031912	-10.1201186735242	13.606322856328	-46.6955584591789	2.81174014915876	-19.2767675463227	-15.2535189864956	
2580333333.33342	-17.8744371971418	-132.573168049337	-10.1183044385881	11.3952655667701	-46.6693087326666	0.922123001947919	-19.4246529499533	-15.5219467774889	
2580666666.66675	-17.9950503918996	-133.251167776334	-10.1158490897548	9.1611053643196	-46.7659711700524	-0.838462570518985	-19.6149977289708	-15.7672143748798	
2581000000.00009	-18.1049840156174	-133.784314620245	-10.1159082841545	6.91289268148619	-46.7324192398676	-4.16570135166631	-19.773617064082	-16.1381313339197	
2581333333.33342	-18.2189579056965	-134.205205520038	-10.1130354038574	4.73466018255422	-46.7517566834567	-4.73556811771391	-19.9446553043821	-16.4321477920867	
2581666666.66675	-18.3431802178323	-134.873748290469	-10.1046719563592	2.49744019724881	-46.6211398833391	-8.44261532778618	-20.1417423020194	-16.8858782892646	
2582000000.00009	-18.4762665876214	-135.483099711354	-10.106054016111	0.327706204649331	-46.7009192930874	-10.8755158295377	-20.3382191877971	-16.9687942354934	
2582333333.33342	-18.6180733589423	-136.097262246001	-10.1024046184259	-1.93619075855689	-46.5789400758979	-12.4637779132975	-20.5306097731722	-17.4116942501316	
2582666666.66675	-18.7324594239304	-136.699838405852	-10.0988491301249	-4.15496828727333	-46.6285152229698	-15.0141234952342	-20.738595852344	-17.7520112187807	
2583000000.00009	-18.8729736884571	-137.462480442348	-10.0919861440011	-6.33458707557488	-46.7210927760188	-16.5836501527009	-20.9558682256527	-18.0720275089115	
2583333333.33342	-19.0174257430006	-137.981926133736	-10.0823025960511	-8.57507310362793	-46.7669633080295	-19.8769023448067	-21.181758132736	-18.3289419849241	
2583666666.66675	-19.1689314335442	-138.61830283942	-10.0812651747455	-10.8401727045374	-46.692144685911	-21.2224942164648	-21.4152946551539	-18.7313221844133	
2584000000.00009	-19.3430367131116	-139.371425826182	-10.0733105162933	-13.0705771646855	-46.7174915795092	-23.1436733836606	-21.6634238226061	-19.1950242697768	
2584333333.33342	-19.484954133714	-140.102457941714	-10.0747584369374	-15.2533982094697	-46.8804030536339	-26.0192303855721	-21.902868772889	-19.5814693851717	
2584666666.66675	-19.6612267902306	-140.772532600368	-10.0634036510264	-17.4986283009994	-46.6793443360161	-27.5175189504932	-22.1725059403421	-19.95982237615	
2585000000.00009	-19.8352995296947	-141.53644814589	-10.0551220262657	-19.7540329050407	-46.647465472904	-30.0989738346435	-22.436333355054	-20.3698567527279	
2585333333.33342	-20.0074270331082	-142.342533056368	-10.050953079237	-21.9818525543445	-46.6694096378391	-31.9805831408291	-22.7194680819945	-20.8865553725083	
2585666666.66676	-20.1730151812697	-143.270839971418	-10.0436574898712	-24.2483560464502	-46.692514874736	-34.6882696133416	-23.0145975612347	-21.4524964384695	
2586000000.00009	-20.33741433279	-144.041120034597	-10.0361917912702	-26.4556417844415	-46.6989361318374	-37.3947592431092	-23.3121964378964	-21.6237920001378	
2586333333.33342	-20.5267792599085	-144.994071036184	-10.0347805081486	-28.7159866916646	-46.6894308626536	-39.412490649135	-23.6441647395566	-22.1464047465288	
2586666666.66676	-20.7335025860459	-145.740626756965	-10.0295002659262	-30.9694063275972	-46.734070228699	-41.0058698812197	-23.9577714946526	-22.5831489231237	
2587000000.00009	-20.9082999990268	-146.858698679734	-10.0211463563485	-33.2255480311581	-46.7135339253266	-42.7696576992036	-24.2812509991569	-22.9621075375974	
2587333333.33342	-21.1065670967439	-147.84385566895	-10.0163906440352	-35.4677204009803	-46.5640090948556	-45.0102206751634	-24.6571958699246	-23.6156371171812	
2587666666.66676	-21.3171450621547	-148.788344515161	-10.0144285509661	-37.7576858097831	-46.6273315526378	-48.4168372657803	-25.0223944459688	-24.0152153726821	
2588000000.00009	-21.503118170719	-149.910493466367	-10.0041743329867	-40.0308161589475	-46.6308124752134	-50.7921270295938	-25.3919127655672	-24.4780954984358	
2588333333.33342	-21.7161447313878	-150.946083952483	-9.99843087186265	-42.2978433460143	-46.5264262753917	-52.9604822878045	-25.7941279386967	-24.9421252725954	
2588666666.66676	-21.8924197451138	-152.225992358179	-9.9974118079236	-44.5857114058963	-46.648624232556	-55.3135659328442	-26.2168026398619	-25.5038606500399	
2589000000.00009	-22.0882338526653	-153.432405518902	-9.98959310649862	-46.8399640456291	-46.5121648765844	-56.6122641178941	-26.6334709013056	-26.0385151313602	
2589333333.33342	-22.3005238015653	-154.733782859905	-9.98457544835067	-49.1238041490718	-46.3991543645322	-59.7401500139658	-27.0974729412488	-26.7033226994834	
2589666666.66676	-22.5064249583445	-156.21113520189	-9.98435940319644	-51.4267960117366	-46.6524833696392	-61.3287718771506	-27.5451280485394	-27.1377216496101	
2590000000.00009	-22.6875508607656	-157.51484146864	-9.97498569389305	-53.7099337271245	-46.6134306179186	-63.8520456936756	-28.0606471418221	-27.9774454317169	
2590333333.33342	-22.8639833245371	-159.098309946225	-9.97426035332057	-56.0043951349722	-46.5281994118482	-66.8142807966993	-28.6139911032918	-28.3169336851271	
2590666666.66676	-23.0832617641252	-160.675087463843	-9.96744007501944	-58.3001673525903	-46.4326349393583	-67.9974687507326	-29.1329587433127	-28.8488687263442	
2591000000.00009	-23.2604621123232	-162.346509130718	-9.96423316697131	-60.5909637272087	-46.5940501506418	-70.4356794567175	-29.6959124740665	-29.4646494041557	
2591333333.33342	-23.4376798486665	-164.175434103847	-9.95932088958078	-62.9189551943374	-46.5475673943553	-72.63942469763	-30.3109503429519	-30.1062211577743	
2591666666.66676	-23.6309711158222	-166.018233525346	-9.95918878457936	-65.2233416953524	-46.4820848059613	-74.8041336657282	-30.9248470221804	-30.3587583743746	
2592000000.00009	-23.7855587460383	-167.958598089179	-9.95254742548869	-67.5418162689571	-46.4313150956208	-77.4552756942862	-31.6429324099485	-31.0453609114998	
2592333333.33343	-23.9126884213632	-170.042353672595	-9.95158541022339	-69.8382537724032	-46.3719247382304	-79.7993651334449	-32.3289819771755	-31.9316198301531	
2592666666.66676	-24.0686781013992	-172.081578544932	-9.9501400842747	-72.1802959684057	-46.3220096678079	-81.8639530775567	-33.1213053958527	-32.2183287880761	
2593000000.00009	-24.1661254004899	-174.451531732886	-9.94505008085951	-74.4826726718241	-46.5943551501294	-84.465372554683	-33.8982119374947	-32.2781161824197	
2593333333.33343	-24.29231896317	-176.843867435992	-9.94740842822026	-76.8068299855797	-46.5471237438937	-86.3390993504141	-34.780884858054	-32.6057156446602	
2593666666.66676	-24.4067462928405	-179.112510244296	-9.9448779691656	-79.1204246990113	-46.4564782625438	-87.8663015755544	-35.7881074168844	-33.2246229981457	
2594000000.00009	-24.4477372557741	178.456149529254	-9.94826716311012	-81.4586028211605	-46.3513283926607	-91.4859205014866	-36.8169735541713	-33.2305571606062	
2594333333.33343	-24.5065412110475	175.755364981386	-9.94231307830883	-83.7601707606358	-46.5352712999996	-93.4782652950939	-37.9985932813261	-32.9342467119409	
2594666666.66676	-24.5378611219711	173.275263117415	-9.94505435357351	-86.1064056016607	-46.2905648472443	-96.0357567111651	-39.2541527319316	-32.0191580607843	
2595000000.00009	-24.5558315055553	170.584166252599	-9.94450446992449	-88.4194207646105	-46.4431966293271	-98.5909466097186	-40.5938299132305	-30.5404001541124	
2595333333.33343	-24.518930361779	167.79087083725	-9.94390673663722	-90.7571924150614	-46.4592931206549	-100.018494592777	-42.3655415685606	-28.4685115271919	
2595666666.66676	-24.4727268367867	165.222399196729	-9.94593516099515	-93.0910293356685	-46.2882641014046	-103.730389729575	-44.2157271562642	-23.7405164406821	
2596000000.00009	-24.4021222498458	162.543713136555	-9.94776357321106	-95.4259478327119	-46.3961693723903	-103.795750703304	-46.304254522104	-16.2452495950151	
2596333333.33343	-24.3360168246658	159.711458524677	-9.94738909917469	-97.7345718362963	-46.3635436851767	-106.991243181242	-48.5484336657935	-7.33911240958619	
2596666666.66676	-24.1921708069361	157.226284928961	-9.9506471186734	-100.061685226791	-46.1977459951396	-109.066417175611	-50.4626348406561	11.567487155265	
2597000000.00009	-24.0927569305104	154.600315752047	-9.94901034016986	-102.381419486571	-46.313679279973	-112.812275444152	-50.997444865008	40.5120123469949	
2597333333.33343	-23.9289627191469	152.028785768504	-9.95406268513098	-104.709220232867	-46.4269804274362	-113.989840072728	-49.6594951581381	63.3494524471091	
2597666666.66676	-23.7530227332465	149.56860514379	-9.96070459702151	-107.014391772741	-46.2344792099404	-116.870974199011	-47.842602821176	74.2683328504141	
2598000000.00009	-23.5799373786775	147.169003924513	-9.96236379449871	-109.353865858549	-46.4203057646059	-118.671473624588	-45.7730163662812	81.3064787757131	
2598333333.33343	-23.3817627668806	145.049112362233	-9.96819086392872	-111.701717728283	-46.4177432636273	-121.199681974778	-44.3401149980633	87.5256013788902	
2598666666.66676	-23.1684815990289	142.742595978454	-9.97112096066878	-114.025757867048	-46.424919514626	-124.076213741326	-43.0803483975264	89.3270087686545	
2599000000.00009	-22.9772952882243	140.642813999497	-9.98192078661906	-116.309829055437	-46.4218346604325	-126.133936737359	-41.7730812374818	89.736991961113	
2599333333.33343	-22.727373828182	138.610820056354	-9.9911568156156	-118.64470509694	-46.249124059217	-128.16340700742	-40.8288183958178	89.3055088511276	
2599666666.66676	-22.5192623766911	136.653012787144	-9.9969560074274	-120.948032327782	-46.5305348905345	-130.539043470147	-39.897283989257	88.1650741102523	
2600000000.0001	-22.2726267133295	134.750502768159	-10.0075369079733	-123.289482168716	-46.3998173875087	-133.404638353827	-39.093943105352	86.9366103847967	
