!Agilent N9923A: A.05.34
!Date: Sunday, 13 March 2016 20:46:50
!Model: N9923A
!Serial: MY51491690
!GPS Latitude: 
!GPS Longitude: 
!GPS TimeStamp: 0001-01-01 00:00:00Z
!GPS Seconds Since Last Read: 0
!CHECKSUM:0545778041
!Correction: S11(ON U)S21(ON U)S12(ON U)S22(ON U)
!S2P File: Measurements:S11,S21,S12,S22:
# Hz S DB R 50
2400000000	-16.8458405492163	176.509448424438	-9.52222399741765	141.729935793303	-46.6236559994834	128.854052623181	-24.9086191935887	-16.5738077849537	
2400333333.33333	-16.8359595235414	175.646980847073	-9.51634876647911	139.474164166749	-46.5499728497661	127.522127361946	-25.2151659890853	-16.877282305315	
2400666666.66667	-16.829589373487	174.651192638176	-9.51799768401087	137.209152319095	-46.29201538833	124.056045934705	-25.4733104951105	-17.3685152157623	
2401000000	-16.8744552172035	173.638560964795	-9.51838638101107	134.951290281349	-46.421591520052	122.412018114743	-25.7711106703245	-17.7154824655796	
2401333333.33333	-16.9096019343224	172.683402497913	-9.51992318189178	132.631419036251	-46.6270925683494	119.116183282642	-26.1269932024308	-17.8477893553359	
2401666666.66667	-16.9411415337295	171.662756530122	-9.51679329548961	130.378602727242	-46.4576657950814	117.606529937715	-26.4473533482936	-18.3606882001609	
2402000000	-16.9525131556463	170.716430091354	-9.51369588483444	128.101237884423	-46.5885953533514	116.289375326312	-26.7799758689818	-18.8373775367939	
2402333333.33333	-16.998843250422	169.868640211191	-9.51063069675125	125.840531279206	-46.6027420530106	113.059291786127	-27.1570220618035	-19.2296808092287	
2402666666.66667	-16.9960510393779	168.813374453391	-9.51633835248679	123.508387439633	-46.8459297850425	111.512189983697	-27.5444674305552	-19.7578806440059	
2403000000	-17.0128402248172	167.789912760825	-9.51392929230046	121.267499053233	-46.360755499208	107.852822521918	-27.9238410600336	-20.5340786078895	
2403333333.33333	-17.0353285621101	166.748893725526	-9.51184937445815	118.960576280636	-46.6359104231057	104.904112976914	-28.3344294223023	-20.8578634618298	
2403666666.66667	-17.0485741512212	165.658637979436	-9.51360858248703	116.698943581149	-46.5713535978045	103.407102430177	-28.7498102166735	-21.277505724131	
2404000000	-17.0708524389257	164.570737444508	-9.51296153800119	114.420336082234	-46.4104882214882	100.891085267016	-29.2077189351733	-21.945625059928	
2404333333.33334	-17.0971169033265	163.431560039866	-9.51163080557426	112.136039020761	-46.5314457861969	99.2762127781371	-29.6784429856053	-22.5110360497969	
2404666666.66667	-17.1243405500928	162.46445270336	-9.51053944238535	109.860370540062	-46.7485738103842	97.1724374568232	-30.1310266600045	-23.3838219152556	
2405000000	-17.1284784074555	161.176243260867	-9.51585255483021	107.591152176253	-46.6136490636118	96.1523536131218	-30.628755435284	-24.0722858159812	
2405333333.33334	-17.1484344187653	160.0862300761	-9.50860404759331	105.288001583378	-46.6475559739625	91.783907094604	-31.1427380818073	-24.6478651318069	
2405666666.66667	-17.1396752259905	159.055812913933	-9.51203933657494	103.023854157357	-46.5962116236005	91.5744734129182	-31.6979687712599	-25.8020771020722	
2406000000	-17.1483485027004	157.758404226409	-9.51714222723698	100.745797687849	-46.6085194673476	88.8851123907693	-32.2374277001517	-26.3872107059366	
2406333333.33334	-17.1574144844981	156.650916811632	-9.51557182433008	98.4718620014486	-46.4094764050309	87.0897541197394	-32.7473498731534	-27.2398133269739	
2406666666.66667	-17.1719930945479	155.350022661879	-9.50701234069339	96.1850081256442	-46.659762043729	83.6504503158924	-33.5560171465817	-28.1848618524124	
2407000000	-17.1662679625123	154.256568111656	-9.50983208837269	93.8944603081648	-46.4631206898565	80.9100070499015	-34.1394448934564	-28.9700849029797	
2407333333.33334	-17.1621264321899	152.900010259688	-9.51345800823971	91.6277771945415	-46.5641070081868	78.8746718402466	-34.7645656612863	-30.4899966866617	
2407666666.66667	-17.1639974052111	151.768673701636	-9.51413346757965	89.3466008569386	-46.5981110675082	77.1730993480085	-35.5216803467695	-31.7694432076242	
2408000000	-17.1565008506632	150.468111111479	-9.51577872634202	87.094561867289	-46.7954910439436	75.649140924101	-36.1540554075588	-33.0971617581335	
2408333333.33334	-17.1356037308317	149.25433018075	-9.52016516135545	84.8061151155382	-46.8705796864288	71.9429399278395	-36.9677300477638	-33.8116658273919	
2408666666.66667	-17.1225701631478	147.96730456778	-9.51944738855838	82.5291679684292	-46.7058975079274	69.8847497449176	-37.7936887152745	-36.6931945269175	
2409000000	-17.1162728481358	146.685454655517	-9.52419412976898	80.2699855325712	-46.5966490395914	65.8985517367661	-38.7133885501418	-37.6898376403485	
2409333333.33334	-17.0957964124271	145.362429486511	-9.52674123403405	78.0285357775295	-46.6094287331118	65.1195865152285	-39.5885416639274	-38.5661894771524	
2409666666.66667	-17.0710190219066	144.095876049903	-9.5304317164314	75.7065798010315	-46.697145119891	63.8148040122392	-40.4091591313948	-42.125121461291	
2410000000	-17.0469075773733	142.915342659162	-9.53441295425122	73.4466913687708	-46.523033302419	60.5281149141581	-41.2517020848245	-44.5465522617002	
2410333333.33334	-17.0120732600919	141.610991776329	-9.53986346051102	71.1701191598614	-46.681614195337	59.6240803320385	-42.4247647912852	-45.7608465074086	
2410666666.66667	-16.9882276059194	140.35477629475	-9.54960177395545	68.8906946295317	-46.6999287271073	56.175727161226	-43.4235860537039	-48.514299367476	
2411000000.00001	-16.9481128664091	139.041257836091	-9.54917223141875	66.684391461008	-46.6559795120743	54.1238361961155	-44.5346635510747	-52.0241438385755	
2411333333.33334	-16.9075766755473	137.887952641117	-9.55925350925863	64.3954667494001	-46.7419495848498	52.34239838469	-45.7352400277525	-56.4491536597532	
2411666666.66667	-16.8466301770186	136.634706355743	-9.56991205914764	62.1666430243396	-46.5429193721868	49.5318537506529	-47.0054327649049	-62.1024536888168	
2412000000.00001	-16.8327539334307	135.391471358991	-9.57200800472247	59.8947538139887	-46.8686767958064	46.1068812735697	-48.3057375223478	-65.3647577004266	
2412333333.33334	-16.7723118436969	134.162310780373	-9.58006670911975	57.641394405928	-46.5887039549565	46.0477363857527	-49.2284698927675	-63.2530948989965	
2412666666.66667	-16.7133252591662	132.979841383092	-9.58615850965187	55.3571737796244	-46.5703017083769	43.2920416440003	-49.9366843823629	-73.8771782387979	
2413000000.00001	-16.6559372918353	131.773964318084	-9.59049432093295	53.1042954912888	-46.918578211199	40.5323401907297	-50.8973789688221	-77.2744197980926	
2413333333.33334	-16.5985699417296	130.512162618223	-9.60119985904042	50.8626740548003	-46.7428568570214	37.9983518679993	-51.5564302817407	-79.7629898280209	
2413666666.66667	-16.5330456693728	129.433477661147	-9.60824114070459	48.6578638884611	-46.7750112400323	36.9224079130811	-52.90644408699	-85.293261057787	
2414000000.00001	-16.4709319416526	128.16114336613	-9.61513659020163	46.3901137436263	-46.5584538904132	33.4940088429161	-53.1022210989627	-85.0476383816743	
2414333333.33334	-16.4126111272757	127.0771130825	-9.62140005777061	44.0523357934226	-46.4149664407085	33.2139745573816	-54.3143027472501	-84.4425445231066	
2414666666.66667	-16.3311506471517	125.949362183863	-9.63106150466606	41.9026107895898	-46.6331573475032	29.8749047628575	-54.3111529228614	-82.6019891370496	
2415000000.00001	-16.2597813729716	124.866535903045	-9.64489955301511	39.5796620764986	-46.7377075967927	27.9359705805171	-54.8581350110151	-77.1196105482003	
2415333333.33334	-16.2011548525459	123.719273945939	-9.65294710847786	37.3527851205118	-46.8194814657385	24.3921306559548	-55.0090093766373	-66.8153372297826	
2415666666.66667	-16.1211505958621	122.655379420556	-9.66302577494845	35.1216281154856	-46.6813957217032	21.4680433562966	-54.7769379999807	-60.1394290373184	
2416000000.00001	-16.0341695963067	121.608539767374	-9.67267101096191	32.8458459887673	-46.6747375218286	19.6010463672761	-53.4081872227636	-49.9144606668	
2416333333.33334	-15.9724879656359	120.547081033955	-9.6837290207481	30.633302088561	-46.6509750161237	19.3813377864553	-52.3239283286722	-43.8114962759483	
2416666666.66667	-15.9054595423954	119.520296472743	-9.68996057103834	28.385622377295	-46.8643220240875	17.1711550284676	-50.8881682464563	-38.100912917981	
2417000000.00001	-15.8232557487571	118.566092503454	-9.70338781843543	26.1133994214782	-47.0143644454309	14.4244221820593	-48.9375571869637	-35.4094708452943	
2417333333.33334	-15.7442688645939	117.569797676567	-9.71373624892963	23.8864255608276	-46.764986931462	11.811875987037	-47.723083743475	-32.0189741398831	
2417666666.66668	-15.658048319667	116.565425168624	-9.72326655909652	21.6142458069582	-46.9397573377393	7.95521004082219	-46.4467191795544	-28.3996885777509	
2418000000.00001	-15.592484585686	115.67924214649	-9.73244877373927	19.3697238981158	-46.539139436839	5.97049832983572	-45.0273594936346	-27.8287929816472	
2418333333.33334	-15.4988386844052	114.688371038035	-9.74323877120641	17.1975317434502	-46.6802067813772	4.91551243666234	-43.5652624859546	-26.4368853431612	
2418666666.66668	-15.432281321212	113.760672411096	-9.75356201424033	14.9083566546055	-46.8954830916361	2.0801829876603	-42.4709917743902	-25.3904741327622	
2419000000.00001	-15.3485486442807	112.79712398334	-9.76519396970545	12.6223508843366	-46.5759693334646	-1.35608269472124	-41.5260405540028	-25.0794425009335	
2419333333.33334	-15.2751721949092	112.025660033921	-9.77531916311962	10.423680894948	-46.562072892165	-3.42757228500326	-40.4181073259461	-25.0602483559873	
2419666666.66668	-15.1932088355802	111.131076100538	-9.78258927839954	8.13094836986012	-46.8459916262016	-4.96830119548557	-39.4762996967785	-25.5575834668488	
2420000000.00001	-15.1220980224362	110.26478449716	-9.79874149601181	5.88802053305896	-46.4739933882399	-7.39867229583985	-38.4041755769851	-25.8312522454377	
2420333333.33334	-15.0384374656672	109.450094353661	-9.80634084214536	3.63078307600046	-46.7022728012323	-10.900385554598	-37.6557847472254	-25.1738024565482	
2420666666.66668	-14.9805351231636	108.600193078638	-9.81226219476092	1.37572455258917	-46.6076452286067	-11.5574724282855	-36.6589805172791	-26.2613588476175	
2421000000.00001	-14.9029306554099	107.877972168477	-9.8252052653866	-0.823119085599617	-46.6878799994693	-12.9677726358019	-35.9285326247584	-26.6214717158376	
2421333333.33334	-14.835604275351	107.074955894275	-9.8366345862684	-3.05888007395105	-46.7281711495882	-18.3289537463078	-35.2654198686499	-27.5001070903957	
2421666666.66668	-14.772302051958	106.323540885878	-9.84327617345105	-5.29173095278862	-46.6435850086653	-19.5269500533044	-34.476987009525	-27.4758772440065	
2422000000.00001	-14.6967670669966	105.526755512835	-9.85711904318247	-7.57134213605005	-46.7230420839987	-21.4905304194809	-33.8581451297304	-27.4594370816352	
2422333333.33334	-14.6266783233625	104.786384468865	-9.86370159127091	-9.83756309542198	-46.5004890293795	-22.590925396173	-33.1901296798275	-28.5924552614737	
2422666666.66668	-14.562131367364	104.118454997938	-9.87529096518375	-12.0733374953362	-46.9903956607031	-24.2168619343974	-32.5778235573325	-29.0503385997	
2423000000.00001	-14.5053747224025	103.462581886124	-9.88380392771944	-14.3246376415129	-46.8803529609016	-28.8802266563672	-31.9990847986347	-29.1716706883227	
2423333333.33334	-14.4525237559843	102.777428304303	-9.89926713520204	-16.5992284593864	-46.5910635317325	-29.7130977584348	-31.4859307136521	-29.9756968155323	
2423666666.66668	-14.3865063818991	102.074016926583	-9.89820978032651	-18.8382717901108	-46.7164103210307	-31.8798354952192	-31.0117440786866	-30.148723533391	
2424000000.00001	-14.3362442528395	101.454170340801	-9.91335947481549	-21.11043609526	-46.9349437957733	-33.868150223349	-30.384674729441	-30.5814461694129	
2424333333.33334	-14.2736664360324	100.825273839433	-9.91876854825106	-23.3438248429281	-46.7382443111802	-35.3955892741723	-29.9864874292041	-31.2607353011594	
2424666666.66668	-14.2285045811943	100.17124790022	-9.9278586630749	-25.5945474675299	-46.6592388988184	-38.2885991627732	-29.490827082595	-31.482216896834	
2425000000.00001	-14.1847009062223	99.5987744227129	-9.93780428648258	-27.8658074619091	-46.8501700321946	-40.1619217766215	-29.1113094750662	-32.4737708295995	
2425333333.33335	-14.1325023429819	99.0474879219287	-9.94749039362022	-30.1210168181188	-46.8207802644905	-43.4069018818195	-28.6799733039518	-32.54267824437	
2425666666.66668	-14.0871700344469	98.4693134967485	-9.9500071647935	-32.3820110277428	-46.8910129998759	-45.8610189296692	-28.2446338140211	-33.0534746752918	
2426000000.00001	-14.0484118755134	97.8813475475095	-9.95670668283381	-34.6009921868314	-46.9689592762609	-48.0782274311168	-27.8847938442551	-33.636848219424	
2426333333.33335	-14.0097149537261	97.4045547027465	-9.96314594189281	-36.8839893108818	-46.9673736005354	-50.6783823504858	-27.518263632064	-33.9409206177544	
2426666666.66668	-13.9698931330189	96.9198964908226	-9.9700717552851	-39.1226331225656	-46.994058486423	-51.226068055035	-27.1850103856745	-34.589597978364	
2427000000.00001	-13.9294082994253	96.3980544560602	-9.97189962732477	-41.3597109425424	-46.6634256276652	-53.5534848226078	-26.8800555318703	-34.9942589387536	
2427333333.33335	-13.8957072254376	95.9655083296701	-9.9860837183388	-43.6229960792883	-46.8560359328124	-58.3171627827437	-26.5547023823367	-35.5879460930089	
2427666666.66668	-13.8673732118476	95.5255306623608	-9.99560730551187	-45.9041001935041	-46.9179532091341	-59.0544105204962	-26.2781171341727	-36.0920851968315	
2428000000.00001	-13.8317924191227	95.0177111953483	-9.9973475898261	-48.1280512486174	-46.7265399077353	-60.8966865749494	-26.0271773966141	-36.4049044110429	
2428333333.33335	-13.7923679817113	94.6423522208909	-10.0104238109827	-50.3982388533246	-47.0686312575784	-63.0042542017511	-25.7263425951186	-36.8107137991614	
2428666666.66668	-13.768857430155	94.2515582824944	-10.0113305280622	-52.6505880341296	-46.7557024806277	-66.0305716181893	-25.4938053843772	-37.2100378192501	
2429000000.00001	-13.748370674818	93.8426843027396	-10.0137410280701	-54.897376387234	-47.0608939778388	-67.5712179069958	-25.2369901626029	-37.6248540385212	
2429333333.33335	-13.7099453046182	93.4351114242406	-10.0191207012186	-57.1215363314226	-47.1526014712478	-70.2072387329357	-25.0209826347801	-37.8801243283888	
2429666666.66668	-13.6826783919568	93.0799438030204	-10.0247582653551	-59.3829814866391	-47.0643974545278	-73.9174903296206	-24.7843152503532	-38.5235120888601	
2430000000.00001	-13.6632365209023	92.7518956770105	-10.0317641119184	-61.6085303790633	-46.7582646924446	-74.4612195658125	-24.6242663522162	-38.7223020467573	
2430333333.33335	-13.646130548003	92.3693380344273	-10.033512336156	-63.923679195586	-47.0011463419162	-75.7414315346313	-24.4018744330422	-39.132537200116	
2430666666.66668	-13.6194161072391	92.0139518697987	-10.0461323703974	-66.1088889304013	-47.0161872269191	-78.8805133094385	-24.251901407522	-39.4104163655735	
2431000000.00001	-13.5982736399362	91.6926126980765	-10.0439928401073	-68.3373017507184	-47.243742900417	-81.2276205816499	-24.0686086069861	-39.7483511477006	
2431333333.33335	-13.573488227291	91.3520572654229	-10.0534631966949	-70.5687260181987	-46.7757384176185	-82.8712575556194	-23.9211490009041	-40.1077766021204	
2431666666.66668	-13.5533599611406	91.0926981551201	-10.0600799580559	-72.7629323923175	-46.9953168744873	-84.0058760158999	-23.791948342194	-40.5248048335112	
2432000000.00002	-13.5397548521966	90.7709285367555	-10.0573758336053	-75.0109956448571	-47.0362651680581	-87.3030451080764	-23.6764186085921	-40.6704356940236	
2432333333.33335	-13.5258593201772	90.4138722301187	-10.0637884736397	-77.2555312785187	-47.2013461053832	-90.6325232984813	-23.5323851683798	-41.0833449877635	
2432666666.66668	-13.5092391323046	90.1066089137032	-10.0669060956274	-79.4263706607448	-46.9179163756502	-91.4680941215488	-23.4333731848279	-41.508812051053	
2433000000.00002	-13.4802691977078	89.819853938773	-10.0730578304559	-81.6586293824809	-47.1673657380179	-95.0646156997443	-23.3031964538659	-41.4566696383385	
2433333333.33335	-13.4741882538891	89.5657315335851	-10.0752565589689	-83.8695945272451	-46.9162528223385	-97.4383433993831	-23.2487002683239	-41.6796263020393	
2433666666.66668	-13.4584040982975	89.1851905402278	-10.0747460657728	-86.113809302653	-46.7917671032676	-98.7395176058755	-23.1743095067516	-42.0158250075308	
2434000000.00002	-13.4559216886051	89.0027304778557	-10.0747376117875	-88.3057860854008	-47.3672986024988	-99.8342951819703	-23.1288578631808	-42.1726191050458	
2434333333.33335	-13.4424361227358	88.6462985119042	-10.0739274518611	-90.50135025011	-47.2072456446281	-103.067510943775	-23.0694429916123	-42.4099798674958	
2434666666.66668	-13.4255307201999	88.3903642480102	-10.0737976106579	-92.7410921005491	-47.152666664981	-104.506935576605	-23.0194202370004	-42.6509839068362	
2435000000.00002	-13.4103432407308	88.1295119621224	-10.0716476453821	-94.9660562831904	-46.8801052902703	-108.713278504752	-22.9930204710704	-42.7376050266057	
2435333333.33335	-13.4001313215097	87.8160851769717	-10.0666862807518	-97.163501294799	-47.1999585395983	-110.197597925764	-22.9701897693996	-43.0469300770665	
2435666666.66668	-13.3840424958546	87.4534508786883	-10.0679562170587	-99.378712162254	-46.8729911112377	-110.343333551753	-22.9654349607985	-42.8841428477683	
2436000000.00002	-13.3840777428086	87.2326523024886	-10.0697470614252	-101.56486908646	-46.9202707484889	-112.281956215209	-22.9737282569264	-42.8986312035955	
2436333333.33335	-13.3742275116145	86.8797452851291	-10.0647076092948	-103.778288150014	-47.0574203536494	-114.784822849147	-22.9689569446215	-43.0781424494044	
2436666666.66668	-13.3583443319562	86.5874083450075	-10.0589615304456	-105.958691663169	-46.9088860637078	-120.395781522267	-22.970806078634	-43.2624884511174	
2437000000.00002	-13.3578624330281	86.2952837187434	-10.0564959981947	-108.195664022121	-47.0085111516271	-120.795341275564	-23.0283790484029	-43.0121350994462	
2437333333.33335	-13.3469315534272	86.0224500589869	-10.0463904514683	-110.399051483603	-47.2573759384547	-122.947448514699	-23.0433379400335	-43.0385469271336	
2437666666.66668	-13.3403233790245	85.6310635325414	-10.0453582862349	-112.611950850378	-46.9847087618483	-126.236691425532	-23.1216128001621	-42.7423969955849	
2438000000.00002	-13.3382552641655	85.3403147671537	-10.0385519764417	-114.834866343066	-47.0967833689749	-128.182279091854	-23.1648099694617	-42.8358724702716	
2438333333.33335	-13.3227538313781	84.9587613500957	-10.026704430996	-117.026742289332	-47.1602740593808	-129.479281160436	-23.2629324823188	-42.3293656438459	
2438666666.66669	-13.3259128160418	84.6804410494731	-10.0248771979742	-119.2792453535	-46.7938994292	-131.917729829148	-23.3300352359656	-42.3618094923088	
2439000000.00002	-13.3094316685166	84.3728138677655	-10.0211143186708	-121.45705366379	-47.0812805413306	-134.875009136367	-23.427602743755	-42.0201198902225	
2439333333.33335	-13.3033435294099	83.9531709527451	-10.0087070292108	-123.663848469867	-46.734057421118	-137.208923856226	-23.4824840421764	-41.6908969940054	
2439666666.66669	-13.3112265950661	83.6682109574475	-9.99975872856673	-125.876431477599	-47.2838652365359	-138.780554905042	-23.6248209019801	-41.1762193938923	
2440000000.00002	-13.3046960015831	83.2356003151401	-9.99458405025569	-128.095852445893	-46.9416540896445	-141.359951987624	-23.7352354058164	-40.9096913600711	
2440333333.33335	-13.3011289478636	82.9694441603724	-9.98496603939508	-130.306831299401	-46.9738411681167	-142.43325363273	-23.8817343425689	-40.3057704149962	
2440666666.66669	-13.3058720040569	82.5932897801859	-9.97701294072013	-132.5387754894	-47.1111885814531	-146.168437445893	-23.9969964560041	-39.7992873758981	
2441000000.00002	-13.3019207644978	82.2255587822601	-9.97102569269459	-134.795911246224	-46.9748390352431	-146.6710984113	-24.1847052091767	-38.7193973532002	
2441333333.33335	-13.2879648437261	81.7518529595514	-9.95567023729576	-136.997339832346	-47.0556357232246	-149.576557871929	-24.3541090853928	-38.1663272685391	
2441666666.66669	-13.3199760828303	81.3722997298292	-9.94418870433567	-139.242190522483	-47.0147363040575	-150.280989066388	-24.467056038007	-37.1913377173518	
2442000000.00002	-13.3121011979607	81.1083368382824	-9.92706619877549	-141.469523429408	-46.7689548076736	-152.98967559931	-24.6988671670301	-36.2397275376938	
2442333333.33335	-13.309863517628	80.7444511072795	-9.92525281213814	-143.75089849979	-46.6872383447936	-157.300911026361	-24.8333494456692	-35.0974606460623	
2442666666.66669	-13.3265386459566	80.2256513643891	-9.91782877863532	-145.951025338419	-46.8721665042728	-157.304498008477	-25.0312061296881	-33.9484322120653	
2443000000.00002	-13.3220220193666	79.8470713650413	-9.90493252976717	-148.174210029291	-47.0077807346363	-159.389908725171	-25.1839525637141	-32.5823624654025	
2443333333.33335	-13.3390641041281	79.4473469216212	-9.89691694080129	-150.416906894191	-46.8322220151556	-163.929065851411	-25.4080971138085	-31.1224302665329	
2443666666.66669	-13.3541583189252	78.9270276944361	-9.88680577401399	-152.672937321428	-47.0673539974268	-164.761888184221	-25.5552880589941	-29.6810456605046	
2444000000.00002	-13.3707037989384	78.5579189146816	-9.87620732096901	-154.933721361518	-47.1163484863309	-167.121668238853	-25.7720298163424	-27.8979033909363	
2444333333.33335	-13.3604172932872	78.274753634013	-9.8650922715033	-157.195740832136	-46.8223334015572	-170.459888844432	-25.9345945553938	-25.7433457912453	
2444666666.66669	-13.3904446249587	77.7172358745246	-9.85541621489174	-159.44914604113	-46.9682972712324	-171.820577267376	-26.0973075078823	-24.0136042561537	
2445000000.00002	-13.4027347868621	77.3208871445658	-9.84205070321122	-161.731684552281	-46.836730700758	-173.954449797929	-26.2693312755389	-21.4904181066474	
2445333333.33335	-13.4137765902054	76.9122548380171	-9.83087727929418	-164.007696823744	-46.9539507438989	-177.014094757671	-26.4369302675614	-19.4072674965829	
2445666666.66669	-13.4404753375054	76.4353354322545	-9.82153913625677	-166.258408685888	-46.9408878615452	-179.198495732822	-26.5778961882782	-16.7734961965842	
2446000000.00002	-13.4385744827926	75.938624556592	-9.82203772687176	-168.56146762314	-46.7599519865409	179.988316325145	-26.6392412209877	-14.1432294676046	
2446333333.33336	-13.4567780324612	75.4657097901204	-9.80991634702864	-170.826781310267	-46.5802491395986	177.622932852307	-26.7568861530654	-11.7255010482014	
2446666666.66669	-13.4875726344996	74.9911644251917	-9.797708155582	-173.09079621842	-46.7831349278444	174.444694270991	-26.8150223824704	-8.67601993005102	
2447000000.00002	-13.5083259030872	74.4448842660328	-9.78932597411879	-175.402801716926	-46.9112887377226	172.002354157117	-26.8549475966432	-5.68162068968392	
2447333333.33336	-13.5390708049884	74.0788928266949	-9.78517463209451	-177.694237061895	-46.6814663291488	169.844612666649	-26.8255215039131	-3.04316907175951	
2447666666.66669	-13.5348674278116	73.6278558657601	-9.76962385039406	179.977417797035	-47.0291395488004	168.325216486814	-26.8028360710428	0.209712457147618	
2448000000.00002	-13.5598846921683	73.1673593865418	-9.77054955721463	177.710428379333	-46.7525608518707	164.937963158276	-26.7665178758235	2.82356818712142	
2448333333.33336	-13.5753185908204	72.6378979929295	-9.75864855115206	175.437058319821	-46.4654714409962	163.852920892004	-26.6630009649894	5.77471276022873	
2448666666.66669	-13.6044791532922	72.1320028931843	-9.75401138676375	173.154684893138	-46.7090377780308	162.329937230498	-26.5829936214422	8.58309384414578	
2449000000.00002	-13.6154887410513	71.5824186238728	-9.74746117246675	170.849790118611	-46.6551624712686	160.190950224374	-26.3928084523499	11.4499659871314	
2449333333.33336	-13.6297993082572	71.0138103778816	-9.74546886773598	168.562524351443	-46.6282031816996	157.155578529398	-26.2202108712584	13.9479334423834	
2449666666.66669	-13.651088077898	70.5358667347043	-9.73739722000041	166.261068516316	-46.9121355708817	155.469884241537	-26.054360303515	16.4320923638606	
2450000000.00002	-13.6668689973658	69.9255014842597	-9.73762741373539	163.941637051454	-46.5819706339864	153.815268160961	-25.8382102560467	18.7640580162252	
2450333333.33336	-13.7098688773056	69.3886521327474	-9.73500080610441	161.689276102976	-46.7025407385518	149.859267116383	-25.6119359305745	20.8413566743635	
2450666666.66669	-13.7143942304836	68.8184817320018	-9.73344367017221	159.385474038297	-46.9613070656662	148.329465906856	-25.3909031545664	22.9272566007581	
2451000000.00002	-13.7368409573958	68.3437850373613	-9.72748072414326	157.146197054864	-46.571315921478	143.786657880021	-25.1857372861625	24.7610742651959	
2451333333.33336	-13.7521337711333	67.7175095462328	-9.7220535487957	154.843775730967	-46.6453896090651	141.866494563873	-24.9087927870931	26.1728498429473	
2451666666.66669	-13.7648031856497	67.3055616201684	-9.7192386484467	152.567651414845	-46.9552446645273	141.447033581404	-24.729965962891	27.6632349069782	
2452000000.00002	-13.7791135677664	66.5937753293656	-9.72431134500553	150.265280380062	-46.4910174379817	140.129496469719	-24.4505620005353	29.009785519689	
2452333333.33336	-13.7740272116905	66.0543276757956	-9.72561652212489	148.008450993667	-46.6397564699862	136.852200437459	-24.207974381779	30.3781982721866	
2452666666.66669	-13.8050546803411	65.604779422886	-9.72606283290052	145.711008133837	-46.7336123187879	135.149347691084	-23.9731321654377	31.4577978743283	
2453000000.00003	-13.8308366274556	65.0139774303659	-9.73045760554024	143.464286775214	-46.7530287602751	134.472815571103	-23.7265982821854	32.4308458678673	
2453333333.33336	-13.8417622476624	64.4326491496936	-9.72894697317244	141.216495213011	-46.8164682352701	131.254864499054	-23.5158888616004	33.3694777245208	
2453666666.66669	-13.8501935347329	63.8495403291903	-9.72874901443445	138.950642706051	-46.5227034327855	129.65845503059	-23.342078743677	34.2660710038819	
2454000000.00003	-13.858547718693	63.2393846533987	-9.72693798004937	136.687218157738	-46.9197490422143	126.115897216957	-23.1074278379203	34.8377552214866	
2454333333.33336	-13.8507493432315	62.7241687057915	-9.73131728649161	134.424536298763	-46.5276104326609	123.422952909345	-22.8874092117531	35.4357921736025	
2454666666.66669	-13.8606146106335	62.2137152392992	-9.72948336352278	132.171316235257	-46.5240344115806	121.58925945448	-22.7242204771328	36.1660085164057	
2455000000.00003	-13.8610919158228	61.6806077233066	-9.73497301280408	129.948549785025	-46.8081406604648	119.740833911171	-22.5385293548397	36.3992423836113	
2455333333.33336	-13.8709118213141	61.1139435890336	-9.73655062592514	127.676131729098	-46.6234225059674	118.225117955531	-22.3336036315235	36.650519813223	
2455666666.66669	-13.8639859591063	60.6090026233753	-9.74538115689769	125.423045074029	-46.7236769934878	114.734764267288	-22.1987263569497	37.1499830554585	
2456000000.00003	-13.851578582842	60.0584779191564	-9.74074171973154	123.23934434823	-46.6760559324767	111.857080417946	-22.0486710568251	37.1770043659247	
2456333333.33336	-13.8561760450793	59.5345323910398	-9.74621699166062	120.933064628583	-46.7175363633172	110.686295313211	-21.8808352571601	37.3846354852755	
2456666666.66669	-13.8450315680273	58.9531365517897	-9.74834453913805	118.713886003518	-46.6423741334559	106.952042224027	-21.73923327336	37.4820304553828	
2457000000.00003	-13.8333561469722	58.4461240527535	-9.75196164153061	116.464329832095	-46.7518026587966	104.802947954445	-21.6036896402522	37.4145165348916	
2457333333.33336	-13.8214150991823	57.9689627052586	-9.75214280839648	114.259792849118	-46.5172693446345	103.442942625782	-21.4880213419779	37.7871456794522	
2457666666.66669	-13.8066546839392	57.4369989678001	-9.75284016150085	112.059124782403	-46.67513994222	99.6261845731639	-21.36810849834	37.626718060423	
2458000000.00003	-13.7981911396373	56.8359873143425	-9.75482651232059	109.819915632173	-46.7520900340709	100.51649494141	-21.2445339484739	37.4184287972492	
2458333333.33336	-13.7797366370693	56.2788973300963	-9.77110068880884	107.570100907446	-46.5602183329408	96.410948825398	-21.1432178344423	37.4008254359789	
2458666666.66669	-13.753629657262	55.8281837405309	-9.76303013874004	105.355475466429	-46.7117708048518	93.2071603679277	-21.0380508076793	37.2336288322943	
2459000000.00003	-13.7545229965772	55.3451525477635	-9.76556071951684	103.154428872257	-46.2466249504619	89.9632144689404	-20.9819266847287	36.8664371515258	
2459333333.33336	-13.7203981992977	54.8050043335126	-9.77083432053088	100.957596723239	-46.4074138311078	88.783282920255	-20.8947390310697	36.7087328128632	
2459666666.6667	-13.7029856509468	54.3256191779692	-9.77353619307513	98.7133439748526	-46.766294581122	87.9314357912192	-20.8691065338464	36.4266723642765	
2460000000.00003	-13.6752026367765	53.9147646650805	-9.77699767772298	96.4878957208832	-46.6749666778157	85.0788404391298	-20.7697828187391	35.9747131828744	
2460333333.33336	-13.6462627763028	53.3661619563607	-9.77753406196545	94.255949283597	-46.8368248272741	83.9998704304492	-20.7684323328457	35.7485625865963	
2460666666.6667	-13.6303477831345	52.8885523444616	-9.78116237795072	92.007731505136	-46.7690806758822	81.7782112637219	-20.7003127042395	35.297671994616	
2461000000.00003	-13.5932244520195	52.3856484544242	-9.7865356782068	89.8336691007762	-46.8253653087551	79.2136506371895	-20.6727365187164	34.9751250341577	
2461333333.33336	-13.5484936370161	51.914208946168	-9.77973127604794	87.5390854653937	-46.685809629844	76.2764985035254	-20.6376873227074	34.6176716758706	
2461666666.6667	-13.526667366327	51.3315127540578	-9.78726033158989	85.3372683227794	-46.5576628467941	73.2883973440683	-20.6225049024413	33.9379989021447	
2462000000.00003	-13.4920971193801	50.9168494870434	-9.77779255811981	83.1113654489892	-46.7696424517628	71.7502394024128	-20.6204669109283	33.5025636257226	
2462333333.33336	-13.4590660682864	50.5112910264849	-9.77703435838075	80.902867275372	-46.7919148610051	69.5724295456153	-20.602491048366	33.0381185483708	
2462666666.6667	-13.4159824942007	50.0389283706489	-9.78306559309777	78.6296765458326	-46.6076357541516	67.1848647729733	-20.6047043217121	32.3420522680722	
2463000000.00003	-13.3828649566784	49.5570519359	-9.7775834658311	76.3898599165094	-46.4250791503645	63.9251825947943	-20.6016276282447	31.7732193988113	
2463333333.33336	-13.3378061213919	49.1086005901334	-9.77587609306815	74.1363918974031	-46.3808151829534	61.7914373374945	-20.610692778584	31.2539539010865	
2463666666.6667	-13.2981785369083	48.6746441478846	-9.77236628956873	71.8680873838845	-46.4676021304069	59.9471320330197	-20.6396507904287	30.6229177042318	
2464000000.00003	-13.2489531356083	48.2198484599467	-9.7752876423215	69.6234876667724	-46.5503390937849	58.638220741386	-20.6856835607832	29.8870391204872	
2464333333.33336	-13.2216318618116	47.8363601778799	-9.77749472673158	67.3938346947644	-46.4313873046012	55.4060869232567	-20.7264304222364	29.2061571640818	
2464666666.6667	-13.170920656945	47.3453868832861	-9.7793302200934	65.1213922116638	-46.7046391302566	53.8005170464045	-20.7553368546605	28.4391061735433	
2465000000.00003	-13.1136752631164	46.8557127747238	-9.77711253687854	62.8359810811045	-46.4128098835417	49.8927206610709	-20.7993679661453	27.5584546770341	
2465333333.33336	-13.0743875447514	46.5685963896156	-9.77274196597898	60.5798354699118	-46.6785903425553	47.4051541613639	-20.8501029223446	26.8449081404019	
2465666666.6667	-13.0269952748649	46.0740745881221	-9.77112538208905	58.3340548731206	-46.4972280550932	45.755596966623	-20.9232398956229	26.0860092345833	
2466000000.00003	-12.9843926323731	45.6599154916779	-9.7718159345438	56.0657427390046	-46.783227306018	44.5592923249345	-20.969937855247	25.1442378252064	
2466333333.33336	-12.9378685289702	45.2603840796042	-9.77302054685384	53.7943171208805	-46.6024591908396	43.0286625281265	-21.0223879132239	24.2820345193448	
2466666666.6667	-12.8805315625759	44.8636354646663	-9.76851028966248	51.488980601491	-46.5547383868523	39.456466089032	-21.1169280172327	23.3491608413799	
2467000000.00003	-12.8341106517322	44.4261947053613	-9.76449010550152	49.2435660921465	-46.4776192698071	36.971255239502	-21.1965336796737	22.3534829173436	
2467333333.33337	-12.7845921087751	44.0263152129423	-9.76590169346441	46.9430106711561	-46.4038410922591	34.6710016082417	-21.2619314100529	21.4577226362501	
2467666666.6667	-12.7248880060547	43.7244156692066	-9.75696021322476	44.6330475667892	-46.4475678343033	34.0401982331178	-21.330743267142	20.4211395074586	
2468000000.00003	-12.6769321895521	43.2472531102111	-9.76433523609303	42.3306799468148	-46.7983858117798	30.3469950230029	-21.461769251185	19.3162704427688	
2468333333.33337	-12.6283719557062	42.9038058238429	-9.7612568589192	40.0444311646002	-46.6789385381691	28.1414796111521	-21.5516383318432	18.0238960013567	
2468666666.6667	-12.5829963239686	42.5793599829527	-9.76382049399327	37.7449846394596	-46.499533196754	25.4613300426009	-21.6661677526072	16.9438536569435	
2469000000.00003	-12.5134292104544	42.1767045094029	-9.75798148531846	35.4670126371051	-46.4412568155794	23.2024848155989	-21.744654072378	15.841066271219	
2469333333.33337	-12.4696648153607	41.8309039871347	-9.76018819378363	33.1845824473317	-46.481947087403	21.7117177087852	-21.8537903315015	14.5381388810249	
2469666666.6667	-12.4141442146321	41.4849702647268	-9.76120534226642	30.8685889467605	-46.3744319177596	19.4068593676768	-21.96388656571	13.239848191564	
2470000000.00003	-12.3607772227374	41.1381047847527	-9.7596623760893	28.5043134360524	-46.4043002891714	17.5151790982026	-22.0220820013322	11.8868247091885	
2470333333.33337	-12.3038499312739	40.7414786488346	-9.75912902111958	26.1761349465972	-46.3349695859212	12.6065057618647	-22.1836942719805	10.515059052433	
2470666666.6667	-12.2500157683752	40.3859828412493	-9.75655573982234	23.8791225960334	-46.5587434930681	10.9706648372848	-22.2738892736724	9.10069320251874	
2471000000.00003	-12.1991430979963	40.0878114542398	-9.76596867525457	21.5685514872027	-46.4354544708748	9.27453028546931	-22.3678697167509	7.73249742328138	
2471333333.33337	-12.1450210071404	39.7502041949168	-9.76741651150516	19.1822169144806	-46.5798252829672	7.67046889276435	-22.4871421084078	6.28004750688384	
2471666666.6667	-12.0963454116388	39.4300838193066	-9.76575226883977	16.9372470705499	-46.4461444277446	4.89422801695198	-22.5664649298277	4.69589933303808	
2472000000.00003	-12.0416115924802	39.0954304918426	-9.76568797993134	14.5816773562035	-46.6204325152657	2.75431545889882	-22.7042724944421	3.07203066740378	
2472333333.33337	-11.9810734112562	38.7547160903122	-9.76812084582157	12.2309872463812	-46.2966483667338	-0.814645511614834	-22.7781773912191	1.50753249788886	
2472666666.6667	-11.9367620263424	38.4733768908897	-9.76748386104232	9.89524642830327	-46.3440459196898	-4.16876459783208	-22.878390702847	-0.058282029928745	
2473000000.00003	-11.8809462080679	38.1234195846762	-9.77316976636163	7.5448579615462	-46.3352813432486	-4.74170591057489	-22.9885030908852	-2.05443060341342	
2473333333.33337	-11.8309991808696	37.8119571976129	-9.77694020674312	5.18900102412678	-46.1712716182113	-8.00136254939574	-23.0583616043932	-3.54882522789556	
2473666666.6667	-11.7789001978694	37.4629316253908	-9.7764981042023	2.82746006029698	-46.22475357978	-8.63658406832786	-23.1400612234638	-5.34619264503583	
2474000000.00004	-11.7327387963999	37.1588223735665	-9.78116184307671	0.488422421319305	-46.3526944726088	-12.5122738333721	-23.2240194129658	-7.27502753896073	
2474333333.33337	-11.6838715843347	36.8486740895663	-9.77990928299684	-1.83655850594444	-46.2341328565484	-14.7232528089752	-23.2986275419002	-8.95552429382472	
2474666666.6667	-11.6328416904431	36.523236382069	-9.78954495772181	-4.2517778872751	-46.4454711626806	-16.9611442054094	-23.3505745058068	-10.8651600435273	
2475000000.00004	-11.582730035621	36.190624728663	-9.79271438520889	-6.61425170182792	-46.2929313205148	-20.23445335297	-23.3935449690657	-12.6656299640277	
2475333333.33337	-11.5389279782986	35.8594517333469	-9.79526898786452	-8.96948522207663	-46.5709675407656	-20.9477042406168	-23.4733312820863	-14.6058838022624	
2475666666.6667	-11.4779784374662	35.5216418723308	-9.79548767908333	-11.336730835666	-46.4462662055154	-24.6289440460087	-23.5069977794311	-16.392741968996	
2476000000.00004	-11.4456267658421	35.1840350543927	-9.80345628766067	-13.6665930692663	-46.4910398662959	-26.1899607531724	-23.5371507298162	-18.3007818204698	
2476333333.33337	-11.4014825811799	34.8500084793121	-9.8079447204002	-16.0519635528055	-46.5023856934901	-26.9627436589666	-23.5734915344469	-20.2486751255905	
2476666666.6667	-11.3608603073619	34.5056449504888	-9.81462760657245	-18.4200803618853	-46.5124973619711	-33.0699390519855	-23.5715874984491	-22.1460239743948	
2477000000.00004	-11.3126578287293	34.1937616078225	-9.81676546761553	-20.7625428877187	-46.3552108230474	-32.5332866942138	-23.5906222733256	-23.8817496535005	
2477333333.33337	-11.2833738331454	33.7635910663311	-9.82848223920529	-23.1535192909256	-46.2711438753542	-33.7173053534555	-23.562554757854	-25.8645988651608	
2477666666.6667	-11.2255478182302	33.3958659308956	-9.82686132714656	-25.5285165781895	-46.2609223002314	-39.098543107138	-23.5570852930313	-27.7196202198551	
2478000000.00004	-11.1939770692288	33.0441976623839	-9.83576118460154	-27.8821219662301	-46.2284856419959	-40.9668431224887	-23.5466047618894	-29.4331441348301	
2478333333.33337	-11.159271108849	32.6615633873605	-9.8434719231456	-30.2075554252987	-46.5900470591326	-40.9649669620555	-23.5281533263993	-31.2688135120556	
2478666666.6667	-11.1287354381693	32.289764610093	-9.8497641010191	-32.5548305916886	-46.3299244200075	-45.2429605128472	-23.4979885952782	-32.9687395772475	
2479000000.00004	-11.0988516707277	31.9109304183446	-9.86049531294006	-34.9170243715877	-46.426655391006	-47.3647959184376	-23.4625685319736	-34.6701770123485	
2479333333.33337	-11.0672598591328	31.5102094198356	-9.86806467036359	-37.2823433730655	-46.5228959331184	-48.9347269500417	-23.3994653032107	-36.3676838538503	
2479666666.6667	-11.0358421917646	31.1530741122922	-9.8794081102743	-39.6099226992314	-46.454789155573	-51.5236967596498	-23.3695240799905	-38.0390370825224	
2480000000.00004	-11.0096219773988	30.7437278864449	-9.88236472383583	-41.9522681751793	-46.3592243231029	-53.5245440706322	-23.2755778490402	-39.4851452057473	
2480333333.33337	-10.9818709758926	30.352876676798	-9.88933665049272	-44.245016763957	-46.4857327872726	-56.2838425517058	-23.2397723838338	-41.0521537459741	
2480666666.66671	-10.9694674514835	29.9866548027068	-9.89615782734607	-46.6122970561392	-46.5107018453873	-57.6048139742089	-23.1645411372953	-42.4340908782934	
2481000000.00004	-10.9409525331859	29.5137019277351	-9.90743062518073	-48.9046643112418	-46.4690180418617	-61.7566805854756	-23.0839386868468	-44.0522763276122	
2481333333.33337	-10.916242637069	29.1653283290741	-9.90544753074679	-51.2110741607375	-46.5877276820974	-62.5995340980435	-23.0303256122819	-45.4359356563269	
2481666666.66671	-10.8979335633513	28.7364122343324	-9.90960059527497	-53.5421817510334	-46.4689860050313	-65.2498038245288	-22.9230338497416	-46.6769948638846	
2482000000.00004	-10.8848263056245	28.3322198046336	-9.92438004175531	-55.8389278991564	-46.3909770904284	-67.8892203193595	-22.8802678106851	-48.0604455542659	
2482333333.33337	-10.8684078705049	27.8465912114695	-9.92552496059863	-58.1258430873764	-46.5088013845101	-70.5456498120331	-22.7872491932827	-49.3627868098551	
2482666666.66671	-10.8519990125608	27.5136594680074	-9.92816635510507	-60.3977463743104	-46.4955094642104	-73.1643529170338	-22.6983160769966	-50.5226207279527	
2483000000.00004	-10.8458472300476	27.0072754289538	-9.93147475824486	-62.7158448543401	-46.4487228203369	-74.1814115002948	-22.6124654567177	-51.5343144478745	
2483333333.33337	-10.8306168089519	26.6855307504449	-9.93649673469067	-64.9468350999838	-46.5691444720325	-76.9201463284049	-22.5297815270025	-52.6051640866186	
2483666666.66671	-10.8208825420024	26.2603570954765	-9.9426742808932	-67.2547581963197	-46.56769958542	-78.6123095986512	-22.4412955336688	-53.5988673934905	
2484000000.00004	-10.8136645874439	25.7428236074503	-9.94324394334515	-69.5014623114781	-46.6088881842329	-80.3100403153321	-22.383894911879	-54.6405274294749	
2484333333.33337	-10.8027901770231	25.2782439673783	-9.94213385774794	-71.8149242376942	-46.6032707090257	-80.8950540420251	-22.266307676807	-55.5305412391791	
2484666666.66671	-10.8090416550882	24.8358702649699	-9.9400250958658	-74.1007978049113	-46.5560482001783	-86.2524405347567	-22.2187336982448	-56.4246366292037	
2485000000.00004	-10.8014111078502	24.4735368343569	-9.94670921239816	-76.343099983486	-46.610063280595	-87.0560719734209	-22.123901989939	-57.2779147616205	
2485333333.33337	-10.8023857812647	23.9470050115525	-9.95220292137988	-78.6092044109209	-46.6188679099028	-88.7089660873416	-22.0490090599069	-57.9837878493881	
2485666666.66671	-10.8047949457921	23.5438839194088	-9.95397058112171	-80.8935898077	-46.6816164620827	-91.8968415984998	-21.9841202891582	-58.7208422923518	
2486000000.00004	-10.8072768510652	23.0939838088914	-9.94701021209087	-83.1128483235637	-46.6009582274386	-93.1653436383936	-21.9277188498861	-59.5610636503391	
2486333333.33337	-10.8139973382946	22.6828208079407	-9.9413853100225	-85.3818046697608	-46.5487422340458	-96.9725831714089	-21.8576894168808	-60.1223517052686	
2486666666.66671	-10.8263951463058	22.2170962465269	-9.94835130250801	-87.6675251075157	-46.7287733486481	-98.8662796560653	-21.7936183471766	-60.9876920169751	
2487000000.00004	-10.8328628641873	21.7130235791627	-9.94730450549089	-89.92333214617	-46.5987689949937	-101.73767755463	-21.7138007147566	-61.4321957762439	
2487333333.33337	-10.8450784286009	21.2530558731404	-9.9407919576768	-92.1979781807345	-46.6393582030808	-104.646440012103	-21.6631407318288	-62.1142548890894	
2487666666.66671	-10.8590111146213	20.8341605048269	-9.94300792911694	-94.4135887347473	-46.6738799730074	-105.117749437943	-21.6283155108232	-62.7106603154193	
2488000000.00004	-10.8596179189776	20.3962112366499	-9.94382759043233	-96.7155635542091	-46.5994970930408	-107.688689048199	-21.5772340250527	-63.2999523355631	
2488333333.33338	-10.8827708954208	19.9222154147438	-9.93509193209517	-98.9439879623619	-46.6556000502589	-110.000688482115	-21.5419265318772	-63.6540566226802	
2488666666.66671	-10.8906847008396	19.423485617049	-9.93301271629345	-101.148196733079	-46.6038744277313	-114.657147450474	-21.4760427546085	-64.1590125240918	
2489000000.00004	-10.9139953268598	19.0212308031586	-9.92899531720119	-103.407363027302	-46.7296478198658	-113.776606100798	-21.4666205537849	-64.5624325223015	
2489333333.33338	-10.9168799697816	18.5029369184192	-9.92024680705	-105.697768336911	-46.8199842085892	-117.935215042371	-21.4444948287293	-64.9621373565759	
2489666666.66671	-10.940307111355	17.9982166662476	-9.91764212183017	-107.922811743805	-46.8934146893207	-120.598419407799	-21.4111887600922	-65.2878989532198	
2490000000.00004	-10.9634282422168	17.5497711788719	-9.91230796317257	-110.167384549824	-46.8770898819019	-121.76571033757	-21.3806797402263	-65.5385724119359	
2490333333.33338	-11.0003979301303	17.1233291818275	-9.90921005579435	-112.432777329615	-46.8300411187322	-122.423521534751	-21.3507962174292	-65.8942169296392	
2490666666.66671	-11.0133774805808	16.5748297828623	-9.90285684651744	-114.659160298261	-46.7617208458528	-126.462314821602	-21.3608641437328	-66.1313845947227	
2491000000.00004	-11.0423020168702	16.1127608961153	-9.89749248092233	-116.92037416264	-46.7038671743094	-129.290844552597	-21.3491500918991	-66.6076910454828	
2491333333.33338	-11.068938863589	15.5591603286029	-9.89247190249441	-119.170179581522	-46.271841102062	-128.593038016954	-21.3557660486043	-66.7003061398316	
2491666666.66671	-11.1008970519535	15.1266417821341	-9.88859711006746	-121.427559973115	-46.9077248053902	-132.050534423967	-21.3624472951222	-66.96031229569	
2492000000.00004	-11.1306094831952	14.6734350050361	-9.87963867331769	-123.665803774753	-46.7433538316302	-134.907458514292	-21.367160072401	-66.9555020252613	
2492333333.33338	-11.1543745109294	14.162543904727	-9.87209315033884	-125.943431667637	-46.6922958811693	-136.180661750702	-21.409311305088	-67.0986931863638	
2492666666.66671	-11.1795349689292	13.6357409462835	-9.86265706108104	-128.144444002001	-46.5373265128575	-137.943652788296	-21.4173296024482	-67.2066148588534	
2493000000.00004	-11.2224227434045	13.1222823239201	-9.85540800332353	-130.417991578207	-46.7267301997657	-142.102912478962	-21.4798352584043	-67.4292054350344	
2493333333.33338	-11.2434154729845	12.6266694753819	-9.84975307780675	-132.663349245113	-46.9321045156293	-144.07595447352	-21.4629842034512	-67.488475400953	
2493666666.66671	-11.2754569041967	12.1442608585975	-9.84082737449368	-134.934337411548	-46.688781127696	-146.127056147188	-21.5408964730074	-67.323417540078	
2494000000.00004	-11.310159662227	11.5906975413616	-9.84087397261029	-137.185136132164	-46.6352957030516	-147.784909656791	-21.596155098925	-67.4297463199645	
2494333333.33338	-11.3416179855479	11.0895382013711	-9.83045105783359	-139.448482976584	-46.4725448351723	-150.836230939847	-21.6637218045722	-67.4630940372122	
2494666666.66671	-11.3616544640925	10.5807663057573	-9.82174314569784	-141.702836381887	-46.6654809177929	-153.170450241723	-21.6946519906736	-67.357291124364	
2495000000.00005	-11.4082815121034	10.0638274734573	-9.81640365235354	-143.950790200563	-46.6998948369396	-155.855889150382	-21.7908635238089	-67.0084663731725	
2495333333.33338	-11.4364608810752	9.60071157377916	-9.81253099730936	-146.25919391518	-46.5361220141597	-157.379370814399	-21.8660411804937	-67.0581536203171	
2495666666.66671	-11.4526250109887	8.98869923384483	-9.79490008306481	-148.478163766634	-46.4891025511724	-160.158637168477	-21.937168660147	-66.8005909982704	
2496000000.00005	-11.4851956667631	8.46840712554792	-9.79168103463788	-150.777799028601	-46.8083782017381	-162.505074277134	-22.0184869979987	-66.6463138892254	
2496333333.33338	-11.5417830464485	7.94783840942242	-9.77316293746979	-153.055115108964	-46.6813657036029	-163.724207602877	-22.1185727647064	-66.1300938316308	
2496666666.66671	-11.5589905052003	7.37701453966204	-9.77475998611068	-155.326567804505	-46.7733522993425	-166.281667295164	-22.2502996511945	-65.9037193123861	
2497000000.00005	-11.5878190825171	6.82134210657503	-9.770001293608	-157.587026194671	-46.6343352083135	-167.859911525831	-22.3624841247072	-65.6030173828172	
2497333333.33338	-11.6249187941332	6.29791518827882	-9.76119166651285	-159.852002217977	-46.6321621891419	-170.882222697407	-22.4645053598763	-65.3601556277139	
2497666666.66671	-11.6395507437628	5.6789671132068	-9.75488017904632	-162.162287638385	-46.6492433870495	-172.390289907372	-22.5920153828651	-64.6161380209034	
2498000000.00005	-11.6771488895098	5.09920078282295	-9.75253760893595	-164.486063829366	-46.7824598159934	-176.388336252076	-22.711657740722	-64.0519000386441	
2498333333.33338	-11.6941534942201	4.49296457977613	-9.7479471598979	-166.791643619197	-46.8595179257745	-176.738443776639	-22.8460969266604	-63.3847033128988	
2498666666.66671	-11.7342344120877	3.90922996198474	-9.7437666851273	-169.083065794909	-46.6779431055337	-179.756531003127	-22.9884810793003	-62.8325451798991	
2499000000.00005	-11.7624865658111	3.40964108460664	-9.74390521116058	-171.318649852075	-46.6231453231557	178.538272512297	-23.1503908660312	-62.1044390233784	
2499333333.33338	-11.7888538884544	2.6605445850869	-9.74806132099998	-173.666901289745	-46.7449616164478	175.093555053196	-23.3069443468289	-61.5457467251404	
2499666666.66671	-11.8173384529089	2.12870957479671	-9.73933255672065	-175.895016433945	-46.4138149146619	172.046241150932	-23.4526024691261	-60.5171170150151	
2500000000.00005	-11.847801388249	1.4517822919933	-9.73686552041546	-178.242700703478	-46.774308693598	170.714459559194	-23.5974237960031	-59.2413215112623	
2500333333.33338	-11.8615835797278	0.807365319131708	-9.74245323326289	179.459883057639	-46.7230589650003	168.682664568776	-23.7891144633978	-58.1999052109726	
2500666666.66671	-11.8874038609751	0.162528297703972	-9.74470935408248	177.21185318785	-46.4888298051233	166.127115006587	-23.9408889011165	-57.4798574919739	
2501000000.00005	-11.9227918275208	-0.5495018731359	-9.73588068793575	174.856290276772	-46.4926336017734	163.785321970893	-24.1236532566394	-56.3451392578713	
2501333333.33338	-11.9393635587186	-1.19078701540833	-9.7392842094733	172.630810532895	-46.6622184435925	162.667804994877	-24.2704627766383	-54.6447787449793	
2501666666.66672	-11.97456852866	-1.92093313625728	-9.74576386905785	170.288923353171	-46.8273918170169	159.977654041089	-24.4179852131396	-53.3182853624039	
2502000000.00005	-11.9939347013105	-2.59637165436388	-9.74831090056245	168.023340957087	-46.4935029625443	156.557868983959	-24.607444366687	-51.7806536137398	
2502333333.33338	-12.0125790412764	-3.22301292933764	-9.75002235085575	165.700489615857	-46.6898168634148	153.924150398543	-24.7651649314794	-50.2369438353925	
2502666666.66672	-12.0317100502578	-4.0348436231795	-9.75491685197141	163.434818400108	-46.8192707914278	151.772937056209	-24.9616735064893	-48.5637694824237	
2503000000.00005	-12.0471881249947	-4.72564091449356	-9.75708842612313	161.108014653853	-46.3960209201939	150.756437636628	-25.099311471118	-46.3262874400711	
2503333333.33338	-12.0647233935846	-5.50825552956005	-9.76480786762056	158.842645473892	-46.547237661698	147.924374573585	-25.185912381259	-44.4341424762805	
2503666666.66672	-12.0885375772373	-6.23336218414516	-9.76548546134485	156.557345217366	-46.5465061184259	143.835313884456	-25.3251485619142	-42.5701443732143	
2504000000.00005	-12.1046841763382	-6.99305606281437	-9.77574363133948	154.27183934027	-46.6055900617017	143.247739334789	-25.3966852403034	-40.2620807248564	
2504333333.33338	-12.114656673592	-7.70694729133361	-9.78020735114849	151.939672767136	-46.6137690309607	141.783270270615	-25.5417776141293	-37.8782061971874	
2504666666.66672	-12.1360401323662	-8.46663436922436	-9.78506612164913	149.689855271228	-46.4382247166732	139.167574595142	-25.5631889156976	-35.5890290916524	
2505000000.00005	-12.1468500061319	-9.28325461174877	-9.79099304201409	147.401403079838	-46.4494271364952	135.807851885316	-25.6731311342936	-33.3888181282048	
2505333333.33338	-12.1612778347692	-10.0500765067536	-9.80236885918377	145.118324473537	-46.2798793984988	134.338826374467	-25.6841278192637	-30.7827967716555	
2505666666.66672	-12.1740919003228	-10.7631564885719	-9.80643466591465	142.816168989825	-46.5756128205439	130.639712336988	-25.7164897698718	-28.6468168908789	
2506000000.00005	-12.1930941626316	-11.6144235305749	-9.82452379722042	140.541752361322	-46.6321880840203	129.724106578135	-25.688985682773	-26.1383841336587	
2506333333.33338	-12.2058983654882	-12.2953846687213	-9.83379388747535	138.284155620325	-46.2999684965944	129.053691987457	-25.6424811273508	-23.781074424283	
2506666666.66672	-12.2076869866592	-13.1588082706728	-9.84251011749622	135.992468706429	-46.4985739259515	126.073470461342	-25.6250397274723	-21.3227576371654	
2507000000.00005	-12.2229140070862	-13.9346240469488	-9.85176106608832	133.727373561248	-46.4173581517448	122.51834600344	-25.5499150741166	-19.0564308384556	
2507333333.33338	-12.23318807538	-14.6908788383629	-9.86059018692626	131.451110437799	-46.345571403058	119.947037265123	-25.4598612822302	-16.5907697331821	
2507666666.66672	-12.239527914644	-15.5131020148034	-9.87233384341459	129.183255497233	-46.3453748500062	117.201468509957	-25.3616964658431	-14.552837848311	
2508000000.00005	-12.2511600743295	-16.3330816085724	-9.88234284413954	126.913380648695	-46.2560101029558	114.844778170112	-25.2283000054283	-12.6369221205372	
2508333333.33338	-12.2607331015128	-17.0991812270818	-9.89439990703618	124.655545730583	-46.3504939306377	113.154735911381	-25.1168930047794	-10.7145507539733	
2508666666.66672	-12.2666822372184	-17.8853993989431	-9.90689764765701	122.380490309044	-46.2553843917337	111.68019641696	-25.0000270923808	-8.80063538100067	
2509000000.00005	-12.2786918286681	-18.7486048783417	-9.92510214570951	120.111629972491	-46.6070537777	107.683437725052	-24.8111561252421	-6.94572043299204	
2509333333.33339	-12.2806595660351	-19.4522696361575	-9.93839928385198	117.867826141015	-46.4752487576484	105.614561249587	-24.631520092391	-5.17159989882866	
2509666666.66672	-12.2838993122741	-20.2324489298675	-9.94829261965995	115.585896563717	-46.7774353055711	104.149115813902	-24.5086014325655	-3.63108073901465	
2510000000.00005	-12.2891695515737	-21.053949107565	-9.96375265415123	113.298806416505	-46.7522972872843	101.117698798567	-24.3412720116357	-2.25184061640287	
2510333333.33339	-12.2944845363545	-21.8536796329269	-9.97590572106598	111.104447995303	-46.5497440413396	99.7459635578067	-24.1838449519768	-1.03921781504783	
2510666666.66672	-12.3001449783148	-22.6101316890704	-9.98839300724238	108.825692817043	-46.8078885377376	97.2780300272028	-23.9828324462895	-0.0294997913117964	
2511000000.00005	-12.2974328515017	-23.352161185912	-10.0051992967925	106.593800612673	-46.540566876429	92.8225810758377	-23.8507644753116	1.03864008285525	
2511333333.33339	-12.3046592997115	-24.1132141472417	-10.0121540287611	104.290909503562	-46.5134887305998	94.1216757616701	-23.6866439277011	1.83797337012021	
2511666666.66672	-12.3109239722286	-24.8872566915611	-10.0289282762167	102.018732723211	-46.3270828664769	91.8301649461784	-23.5437014913118	2.70657427312894	
2512000000.00005	-12.3122034412584	-25.6391601733687	-10.0494178427593	99.830564715552	-46.4117068289572	86.5664270687239	-23.3483315943957	3.5847550531808	
2512333333.33339	-12.3112254275202	-26.4156659372767	-10.0666302858084	97.5441809198211	-46.5616337598573	87.7773107291791	-23.2131323470041	4.159519346892	
2512666666.66672	-12.3104883975505	-27.1522026784748	-10.0776252168387	95.287133508441	-46.5796842711648	83.7467065907603	-23.0816046618017	4.79147968352989	
2513000000.00005	-12.3155514800897	-27.9026419059158	-10.088605703476	93.0606294120585	-46.7089112361647	83.3687578730908	-22.9422753858787	5.40622710070948	
2513333333.33339	-12.3133598368836	-28.6051831281164	-10.1073170578131	90.7910640909732	-46.6875471217943	78.6245757905384	-22.816826728292	6.04261847578432	
2513666666.66672	-12.3251073262808	-29.2804418609719	-10.1183678451478	88.5651592761852	-46.8587636374133	77.821365989632	-22.7033986040454	6.09688212593368	
2514000000.00005	-12.3311313111079	-30.0209415219914	-10.1359648967473	86.3145463349755	-46.448037081943	74.4180078537767	-22.5758521152017	6.30263484067929	
2514333333.33339	-12.3345391426873	-30.7313158081203	-10.144648045283	84.0649683819907	-46.7325255154717	73.6044131713806	-22.4341464456094	6.41235256147168	
2514666666.66672	-12.3359832008929	-31.4026647783142	-10.1575940665283	81.7967216440121	-46.7197559605896	71.0221953613165	-22.3855901555688	6.61112733778771	
2515000000.00005	-12.341019903413	-32.0397295838893	-10.1771792405469	79.6093341431513	-46.7801960264739	67.9219862082567	-22.297386584791	6.7956311796049	
2515333333.33339	-12.3466870528192	-32.7130406173928	-10.1831558884776	77.3630054315408	-46.6973612915649	66.8790074355513	-22.2055476478928	6.82410344150084	
2515666666.66672	-12.3610941201142	-33.3465991531545	-10.1996312633356	75.1150195793268	-46.7213554830308	63.6409041784034	-22.1398676885734	6.88015157680957	
2516000000.00006	-12.3573871662862	-33.9897932846015	-10.2085069132039	72.895933797085	-46.7273021851435	60.7918730914337	-22.0977506432911	6.59472946724697	
2516333333.33339	-12.369661773354	-34.6078133889534	-10.2192369595518	70.6320767011907	-46.8280536848941	59.7333413594121	-22.0084332074659	6.40083108443634	
2516666666.66672	-12.3752254377374	-35.1816368929495	-10.2308001719411	68.4205909578998	-46.7279336145196	57.1715001621623	-22.0002491962006	6.23478624479227	
2517000000.00006	-12.3852387088034	-35.7870583523841	-10.2474976089614	66.1264770573508	-46.9094122513659	54.5231171187668	-21.967643604708	6.10901356681857	
2517333333.33339	-12.4056933787973	-36.2959937644378	-10.2493817588846	63.8926606318847	-46.9059968690803	53.1446290296977	-21.9272452048773	5.80264312452769	
2517666666.66672	-12.404975740839	-36.9072704261006	-10.2670901042543	61.6263770608496	-46.7578682605818	49.9402412139473	-21.8879195060962	5.50416863552457	
2518000000.00006	-12.4207940691167	-37.4602868794148	-10.2792610070528	59.4116017419937	-46.9872315074556	48.0946127499705	-21.8658110664452	4.93003747646329	
2518333333.33339	-12.4259985733424	-37.9670747286489	-10.2950365453627	57.1209538862794	-46.7606915324968	46.3030172985379	-21.8866548144588	4.58655143950882	
2518666666.66672	-12.4489159025918	-38.4472572404568	-10.3006714505811	54.9112171994969	-46.7688775391775	43.8617320370515	-21.8768543285108	3.88822787269912	
2519000000.00006	-12.4603564151998	-38.9263289122731	-10.3076782868645	52.6381692494725	-47.1648111596665	40.5697131007474	-21.959548380456	3.58141288290131	
2519333333.33339	-12.4688758845245	-39.4069316896128	-10.3178871551386	50.4070282629763	-46.8936173444715	37.6443512159693	-21.9700054822376	3.13244820601798	
2519666666.66672	-12.4908495386184	-39.8482533105539	-10.3201929808664	48.1379857713481	-46.8502888953201	37.7436311905426	-22.0077302962004	2.48810688171352	
2520000000.00006	-12.5116845829249	-40.2627589094532	-10.3343786649445	45.9007552647472	-46.8696130338287	34.6475458818174	-22.0672227159146	1.78213199764022	
2520333333.33339	-12.5218529148297	-40.6392952998659	-10.3444431723215	43.6280971961228	-47.0388503965808	33.4293107001055	-22.0923138908613	1.06897636748948	
2520666666.66672	-12.5496161542208	-41.0469264837224	-10.3492543696838	41.4208678880319	-47.0119095639042	28.5621673899112	-22.185960051331	0.172733545680925	
2521000000.00006	-12.551658156234	-41.4597700951605	-10.3624735614968	39.1806588936581	-46.9580323615609	27.8985733697326	-22.2520602168272	-0.521376565052109	
2521333333.33339	-12.5774616402284	-41.8264686232142	-10.3727271095403	36.8951391907623	-47.0817647636903	26.3509716658677	-22.352671226418	-1.12571982018708	
2521666666.66672	-12.5829844535882	-42.1509497592045	-10.3806337725479	34.6938335291617	-47.1430512422687	23.8086025974156	-22.44817926396	-2.30154288025101	
2522000000.00006	-12.6067328644261	-42.5014321504841	-10.3816310338322	32.439570803408	-47.0495006170012	20.8075568447562	-22.5481326010833	-3.18817154813478	
2522333333.33339	-12.6336642228354	-42.887135608154	-10.3921797781657	30.160169682331	-46.8432562744495	19.4908287994433	-22.6488995303457	-4.08375573031687	
2522666666.66673	-12.640924321046	-43.0858082553758	-10.4028400673861	27.9503175184357	-46.8774232295421	16.6588742319108	-22.7964708885	-5.0885124947124	
2523000000.00006	-12.6576543165402	-43.4298619948962	-10.4059633512924	25.6988783927709	-46.497802355606	14.2904140916646	-22.8907204701928	-6.40941767561983	
2523333333.33339	-12.6775359583177	-43.6698240134785	-10.4106317649232	23.4361442498716	-47.0392269100604	11.4461861800625	-23.042348081326	-7.48595869786878	
2523666666.66673	-12.7046805261705	-43.9727928124173	-10.4242950676704	21.2312599614686	-46.9132299117295	10.285560029002	-23.1961245204152	-8.73186903240351	
2524000000.00006	-12.7238051219721	-44.1867970038254	-10.42915906373	18.964804508151	-46.8537673001191	7.71257612610658	-23.3831772108024	-9.91031148013573	
2524333333.33339	-12.7395675815195	-44.4638128217281	-10.4230201330875	16.7711540580314	-47.2668214521482	6.09741834949472	-23.5333231117596	-11.3896060046135	
2524666666.66673	-12.7593523717286	-44.6787501867625	-10.4315371395042	14.5319316254176	-47.0905528639245	4.13401204581483	-23.6855174996749	-13.004589087221	
2525000000.00006	-12.7815716157493	-44.875733636994	-10.4387707852613	12.345718374716	-46.8414018876689	-0.581358606425608	-23.9164128312848	-14.4909099486096	
2525333333.33339	-12.8015192155169	-45.03160113389	-10.4502373166444	10.1014828192952	-47.0632836107234	-0.176998784900814	-24.1149010958644	-16.1465636346411	
2525666666.66673	-12.8358417278638	-45.2793446809198	-10.4564147552909	7.85217757740482	-47.3650365407888	-2.14673686061627	-24.2950234598476	-17.7379418133928	
2526000000.00006	-12.8490564442803	-45.5163857233133	-10.4507884137814	5.61965489202478	-46.8370175689194	-5.945211655268	-24.5094600629423	-19.5587556582382	
2526333333.33339	-12.8695664115927	-45.6582440021037	-10.4576604368203	3.40992047323988	-47.0158053525736	-8.86292353157168	-24.7463729840876	-21.825782809944	
2526666666.66673	-12.8817896729131	-45.8861844415529	-10.4542171846735	1.20451616134287	-46.8027311661976	-9.6942675305687	-24.9794790666103	-23.7441279681875	
2527000000.00006	-12.9091686224621	-46.0676869007582	-10.4604136242465	-1.03450809258276	-46.9371665036102	-12.2411089297006	-25.1840573917882	-25.8684788434176	
2527333333.33339	-12.9394381841798	-46.2278172970537	-10.4553831223265	-3.28282548985502	-47.0155364651949	-13.6138699671026	-25.4300783570167	-28.0926785068495	
2527666666.66673	-12.957637281501	-46.3146993802956	-10.4550571176122	-5.39960568767608	-47.1522833977649	-16.3692911735113	-25.6349642121913	-30.3068101117419	
2528000000.00006	-12.9780111056478	-46.5961457749525	-10.4528235838924	-7.69699180340497	-46.8173575806513	-18.5207026489824	-25.8890416111613	-32.8092881486893	
2528333333.33339	-13.0063308165029	-46.7955480601161	-10.4531533617998	-9.89183156108106	-47.227453265109	-22.2612439588314	-26.125403732772	-35.6840750394847	
2528666666.66673	-13.0414221827562	-46.9204178121859	-10.4455908248141	-12.0985903553513	-47.1080399385784	-22.971642374575	-26.3231290518779	-38.3372761529423	
2529000000.00006	-13.0558899423814	-47.0693222535903	-10.4487620207892	-14.3394191101588	-47.0064748583964	-26.6734841980584	-26.5369713950439	-41.5385109201896	
2529333333.3334	-13.0864679577717	-47.3319911537232	-10.4446063109036	-16.5350709848208	-47.0180489122159	-28.3609237531734	-26.7817845697237	-44.8136808396084	
2529666666.66673	-13.113580888161	-47.4827763714256	-10.4379777877349	-18.7538770578429	-46.939673550614	-30.5459168535056	-26.9908003618614	-47.7876370217399	
2530000000.00006	-13.1332947494706	-47.6905812884377	-10.4305203741569	-20.9786088071597	-46.9628654510028	-32.4205413884631	-27.1636130543523	-51.4745158197482	
2530333333.3334	-13.1794687219397	-48.0659147146639	-10.4226637699705	-23.1974211424461	-47.090331920436	-33.670059586716	-27.3423512087352	-54.7493006417621	
2530666666.66673	-13.2038338178945	-48.2554255888424	-10.4212055838388	-25.4292370087597	-46.8671615091623	-36.5930664247077	-27.478008364751	-58.4666932886812	
2531000000.00006	-13.2389100242334	-48.3868062988777	-10.4023327483433	-27.6562187014823	-47.1966821587989	-39.150694923133	-27.5939325915848	-61.9576474326662	
2531333333.3334	-13.2812290593961	-48.6116142150705	-10.3890857170303	-29.8880607251149	-47.1899659558762	-38.8862443605122	-27.741669154127	-65.6102235271562	
2531666666.66673	-13.3114888264355	-48.7589094194537	-10.3815671813269	-32.1218107087728	-46.9552400378805	-44.6863416470136	-27.7908487852275	-69.2733043267557	
2532000000.00006	-13.3465725956741	-49.1435534814038	-10.3682927517187	-34.3540366777463	-46.9269209599354	-45.6753813121502	-27.8681685810097	-73.1624224688684	
2532333333.3334	-13.3842245251997	-49.4002570203262	-10.3563822715323	-36.5748427596015	-46.5903049705634	-48.3260086298969	-27.8888179981135	-76.9018475979387	
2532666666.66673	-13.425167299079	-49.5968963162032	-10.3406864614595	-38.8493352516716	-46.6822266814269	-50.275869378489	-27.8788842506376	-80.555042190646	
2533000000.00006	-13.4902567631419	-49.9279471149868	-10.3259036989475	-41.0532035293117	-47.0372269610572	-54.8974359616998	-27.8657396795404	-84.4596897031562	
2533333333.3334	-13.5163583377028	-50.0998412561006	-10.3176587545332	-43.3245713845283	-46.6592674987002	-53.4723021912519	-27.863653282366	-88.2377669280281	
2533666666.66673	-13.5690493487474	-50.3911795890048	-10.3016514836122	-45.5848393475899	-47.0198912836226	-57.7453375717406	-27.7335888174915	-91.9756679374274	
2534000000.00006	-13.6152482325509	-50.693568882191	-10.2906178080793	-47.8375505302717	-46.9861114872465	-57.1754407447457	-27.6976340335274	-95.6249638665176	
2534333333.3334	-13.6592575332302	-51.0118462606521	-10.2771887765168	-50.0827060163833	-46.9117911771849	-60.7407375141564	-27.5945322965666	-98.7803239815309	
2534666666.66673	-13.7145570429052	-51.129255630992	-10.2651039811747	-52.3412995999242	-46.6923836728151	-62.9462220422827	-27.4964497840039	-102.054627138489	
2535000000.00006	-13.7796648864432	-51.4446335137197	-10.2519562060065	-54.6184668028794	-46.7207720136558	-65.9491928547743	-27.3532258439683	-105.035032409056	
2535333333.3334	-13.8248268015571	-51.8525294096153	-10.2417013033958	-56.8830702041808	-46.7920093796849	-67.424975486983	-27.2304375076102	-108.216180868887	
2535666666.66673	-13.8704314693396	-52.123907115394	-10.2267187072137	-59.1805956558939	-46.9556168246527	-71.5164639804244	-27.1260159803144	-110.940711198674	
2536000000.00006	-13.9526662147809	-52.4278345428696	-10.2181108990977	-61.4594771169644	-46.8793750369454	-73.3111198558347	-26.9885634003119	-113.810596084682	
2536333333.3334	-14.0040521373702	-52.7431507045991	-10.1995541392295	-63.7675929290389	-47.1384087043653	-74.4648482736034	-26.8439180000877	-116.266967920083	
2536666666.66673	-14.0696592221479	-53.1199204884446	-10.1954623568156	-66.0213527637546	-46.7778728325642	-77.3179350899942	-26.7011025992222	-118.66024607706	
2537000000.00007	-14.121259366785	-53.2804924970225	-10.1825076122372	-68.3432092987474	-46.6384356168101	-78.9836125026053	-26.5766528412499	-120.890349398722	
2537333333.3334	-14.210179998607	-53.6978265348063	-10.1696381792197	-70.6186657359009	-46.6998342419869	-79.9388513192773	-26.4818586804003	-123.312577102921	
2537666666.66673	-14.2586557225313	-54.0722504869326	-10.1546339367078	-72.8906608961983	-46.8914555825095	-85.2896745849593	-26.3461061830797	-125.339355530375	
2538000000.00007	-14.3498002100557	-54.432228524387	-10.1501160826109	-75.2828254502096	-46.646389116007	-87.5270268772198	-26.2635178190539	-127.28121246583	
2538333333.3334	-14.4114929974536	-54.7300516119739	-10.1386451490621	-77.529147862467	-46.8463621220468	-88.0239668532427	-26.1511330472807	-129.480764861726	
2538666666.66673	-14.491853095619	-55.1651100589524	-10.1300547859984	-79.8445546367209	-46.5774855543719	-90.0052838684589	-26.0297665011191	-131.257133953223	
2539000000.00007	-14.5706818083031	-55.4811805274386	-10.1214826382365	-82.1297921691826	-46.7995260866221	-92.2748246267032	-25.9452640200982	-133.012392099657	
2539333333.3334	-14.649315167348	-55.7374221995902	-10.1175167517792	-84.4486090087707	-46.7213448139376	-94.3357830859796	-25.8982606309211	-134.61049221311	
2539666666.66673	-14.7545030077824	-56.1809281852285	-10.1138320552956	-86.7145635741913	-46.6245170905903	-96.0264238342246	-25.8291331567729	-136.231456855159	
2540000000.00007	-14.8136280455501	-56.6280317221132	-10.1069854510263	-89.0683103819028	-46.6859139038414	-98.3473935008071	-25.7544912507473	-137.431863735774	
2540333333.3334	-14.9001088567104	-56.8921921809609	-10.0938700420767	-91.3736451831261	-46.7256359065661	-101.528423324061	-25.7350094325087	-139.208843947422	
2540666666.66673	-15.0012477278799	-57.3159148768411	-10.1000366362174	-93.7075135054796	-46.6422382912212	-103.382720698266	-25.7284635247493	-140.667057541454	
2541000000.00007	-15.0808459179506	-57.8006124517962	-10.0860342571979	-95.9922743335572	-46.7501842024427	-106.27868341868	-25.6937233385569	-141.862280638755	
2541333333.3334	-15.1691611972536	-58.0999888912729	-10.0865456127329	-98.3000266186942	-46.6198313934778	-108.150720799747	-25.7050342317146	-142.945454563723	
2541666666.66673	-15.2724237878361	-58.5582175873111	-10.0715523918541	-100.652787778174	-46.643251558693	-110.183988432628	-25.7090691127731	-144.174958917766	
2542000000.00007	-15.3665826362827	-59.0514387209898	-10.0822699553038	-102.925859170809	-46.6170499910873	-112.954499974197	-25.7144865138378	-145.544945112961	
2542333333.3334	-15.4705242194643	-59.3458558158561	-10.0776614935842	-105.248104945017	-46.8388895846875	-115.545806489313	-25.7623467579288	-146.480464027786	
2542666666.66673	-15.5556494952788	-59.8675755549471	-10.0769189348489	-107.547574047763	-46.5740906801452	-115.533036855055	-25.8254735139519	-147.617231924916	
2543000000.00007	-15.6499767439292	-60.2132225934155	-10.0760546931828	-109.883528887374	-46.7704695200997	-120.967401642415	-25.8804676526234	-148.642262775124	
2543333333.3334	-15.7594848799702	-60.6811694713464	-10.0778387791986	-112.144283738554	-46.4523260371477	-121.678312536667	-26.0021757411798	-149.625201239742	
2543666666.66674	-15.8500369623412	-61.1521946731522	-10.0790090865923	-114.496655378828	-46.5974425952508	-124.551613270872	-26.0878006886404	-150.614726828039	
2544000000.00007	-15.9703473486874	-61.570569865213	-10.079772163404	-116.766765065517	-46.5797106618019	-124.373865065418	-26.210938840092	-151.477550418548	
2544333333.3334	-16.0772965669	-61.9501656862958	-10.0746945515178	-119.072085160395	-46.6711409280946	-128.301567820655	-26.3213071578705	-152.408421996731	
2544666666.66674	-16.1644042713085	-62.4716284339096	-10.0736373988823	-121.359532992026	-46.7805108448014	-130.847321965918	-26.4387943157647	-152.98834615071	
2545000000.00007	-16.2868220586402	-62.8913132702097	-10.0769982533979	-123.634840852272	-46.4712234107217	-134.667543309005	-26.6087229191163	-153.933859449707	
2545333333.3334	-16.3644507855894	-63.3269700219227	-10.0792173960158	-125.961199849881	-46.8251654763747	-137.698173831884	-26.8224386848023	-154.816324125517	
2545666666.66674	-16.4925098499613	-63.8248132930562	-10.0833605276399	-128.242100920085	-46.7458819291264	-137.201531852035	-27.0024790109127	-155.55362015613	
2546000000.00007	-16.5802933241687	-64.2311929062514	-10.0891541951816	-130.555175296923	-46.667720985371	-138.783885648779	-27.2519169929176	-156.338914554424	
2546333333.3334	-16.7059486005835	-64.7256413725201	-10.0870590464637	-132.81012313226	-46.7071447294031	-142.136473755552	-27.4764869162004	-157.021528744456	
2546666666.66674	-16.7911770955702	-65.3280141545301	-10.0919476479325	-135.089152620964	-46.78734506264	-144.32677251293	-27.7465626743545	-157.546114976599	
2547000000.00007	-16.9000460506385	-65.732020885308	-10.0940523739845	-137.358109695011	-46.6036676287427	-146.583125859297	-28.0316794485153	-158.181657801496	
2547333333.3334	-17.0084571991765	-66.2335897817273	-10.0976176623343	-139.665589085676	-46.5606677232668	-149.008587958411	-28.3479569841576	-158.928031600582	
2547666666.66674	-17.0942364683389	-66.7367050235181	-10.0950567122161	-141.883539052251	-46.7540153020594	-152.054019781567	-28.7063090074529	-159.666956982894	
2548000000.00007	-17.1879660087779	-67.3124397344692	-10.0996811087873	-144.158802812116	-46.7038108125945	-154.340922915307	-29.0312743151169	-160.014060541856	
2548333333.3334	-17.2885849214024	-67.8028330041546	-10.1104322907678	-146.406671373177	-46.6857645945431	-157.607055314097	-29.5010831187994	-160.59931361655	
2548666666.66674	-17.4016669339705	-68.3272073340023	-10.1086607428199	-148.656188093518	-46.6462852298659	-158.099659022521	-29.8693356651426	-161.030608200959	
2549000000.00007	-17.4825009563168	-68.9007016365632	-10.1063798939696	-150.920939823113	-46.6640119971944	-160.564230718871	-30.444043427195	-161.402167933823	
2549333333.3334	-17.5678976642541	-69.5113977232014	-10.1144654879344	-153.203003933834	-46.7544821344573	-163.381887863817	-30.8731489405477	-161.827415850212	
2549666666.66674	-17.6855270470345	-70.1495368244667	-10.1143968038919	-155.406681094927	-46.6127821831268	-164.209500609496	-31.4563043577594	-162.218229952645	
2550000000.00007	-17.7533386756961	-70.5780585162045	-10.1138869125194	-157.655339701555	-46.5426200093028	-168.766657224542	-32.1365853488645	-162.36461690887	
2550333333.33341	-17.8510639483724	-71.4717662170789	-10.1134819817378	-159.930954486663	-46.7565726933543	-168.914320654335	-32.7610712174583	-163.043940913947	
2550666666.66674	-17.9430494492203	-72.0587276066397	-10.1119212377193	-162.17263983515	-46.5267067123586	-172.912223831408	-33.555514331003	-162.417202817795	
2551000000.00007	-18.010887585861	-72.7800002745475	-10.1133034670741	-164.430785637918	-46.8478322045802	-173.602854513723	-34.4133174397748	-163.331707660985	
2551333333.33341	-18.0941810038686	-73.2327493151909	-10.111987488934	-166.653671743926	-46.7230033340303	-177.345014097754	-35.4290246281927	-163.029735604705	
2551666666.66674	-18.1700906685419	-74.0562369628835	-10.1106012199884	-168.849745843913	-46.6292043730991	-179.192928424213	-36.6412133154468	-163.07103314266	
2552000000.00007	-18.2519112916617	-74.8079180782214	-10.1136224250386	-171.124599618202	-46.5173983144008	179.69503192354	-37.9861479622353	-162.441096964197	
2552333333.33341	-18.3179788516043	-75.5462725079021	-10.1092612983784	-173.357482721731	-46.8529398546326	175.159067028461	-39.7783778466398	-160.76454335215	
2552666666.66674	-18.4049166316779	-76.1590404544489	-10.1091760704968	-175.59474097377	-46.5512728917969	174.870553064028	-41.4161617119519	-159.995175146072	
2553000000.00007	-18.4592228606088	-76.9279043774367	-10.109849249566	-177.897711432631	-46.6102709884387	174.978687055678	-43.7723195919963	-157.658736025448	
2553333333.33341	-18.5215481721577	-77.6994839117264	-10.1027691904868	179.988031787263	-46.2474107858539	169.877887773835	-48.0825816713804	-151.558815513349	
2553666666.66674	-18.5897678326333	-78.4287123009371	-10.0999958525418	177.739404954968	-46.4473220723361	167.855514066752	-53.3297412288973	-126.317562051439	
2554000000.00007	-18.6275432035212	-79.2208546717231	-10.0953529020212	175.481483543043	-46.266369560324	165.943373312963	-56.4314109398208	-61.2515064655875	
2554333333.33341	-18.687039178954	-79.9578451833014	-10.0927058172176	173.156264841354	-46.7917382435386	161.336522440069	-50.1274518678106	-22.4677957999014	
2554666666.66674	-18.7385855170147	-80.7869754112219	-10.0906795799451	170.997066640128	-46.7328189104194	159.925055322836	-45.7188175291612	-8.83125624430777	
2555000000.00007	-18.7671087141998	-81.4029677354578	-10.0883536623177	168.761474800937	-46.5186955330194	158.227735505259	-42.7340094480512	-3.55976531120655	
2555333333.33341	-18.8033870099196	-82.3643329758454	-10.0799487533012	166.476632138228	-46.5111755852353	155.07502827269	-40.5267858895074	-1.25013421486962	
2555666666.66674	-18.8481395898632	-83.1291514168467	-10.0707248209559	164.251133419218	-46.6719130985266	153.079970033644	-38.4824866962284	0.0095429780448655	
2556000000.00007	-18.8863520877474	-83.797653032225	-10.0695697691144	161.992061543613	-46.749064157489	151.51472687475	-36.9811891562205	1.42413698785491	
2556333333.33341	-18.9064495514903	-84.5748766558039	-10.070485424844	159.765951841118	-46.2455093496981	147.809311707683	-35.8293892715166	1.82867146190838	
2556666666.66674	-18.9242771033588	-85.5497374453322	-10.0607031450502	157.502325570998	-46.3613856337961	146.332121402649	-34.7478615003624	1.68144353390461	
2557000000.00007	-18.9223644847339	-86.3284831204502	-10.0580135531549	155.229231701826	-46.3442612836101	144.318748380186	-33.6661361324214	2.43422700313683	
2557333333.33341	-18.9366202367663	-87.1478410088685	-10.0533985806549	152.979090134359	-46.7852527497042	139.841502209997	-32.7574143521065	2.41340484087286	
2557666666.66674	-18.9316272796106	-87.9693498573382	-10.046024659966	150.693902052632	-46.484189772071	140.062327846923	-32.082118928481	2.40164291591022	
2558000000.00008	-18.9485958244899	-88.7286888636296	-10.0411428591713	148.420703230706	-46.3499262513892	137.900561941753	-31.392521796861	1.98543031031046	
2558333333.33341	-18.9253755799247	-89.6352967460605	-10.0388569209193	146.161062460944	-46.3383054338142	134.469096785055	-30.6800720279887	2.81304092886746	
2558666666.66674	-18.9115336601127	-90.4246670782367	-10.0352344762572	143.857732509365	-46.4188309747097	131.864323872825	-30.0854703937654	2.21927550518837	
2559000000.00008	-18.904385489783	-91.151652279597	-10.0194823283149	141.591346897908	-46.3890896428272	130.536923132234	-29.5142069346056	2.2437892850066	
2559333333.33341	-18.8838937112196	-92.0498454468649	-10.0210212019379	139.345174031826	-46.3285014884804	130.070107332792	-29.0374729139806	2.49336774261074	
2559666666.66674	-18.852224282324	-92.8488903379617	-10.0143856603595	137.039274825622	-46.4740388814572	125.487095376833	-28.5492503633429	2.28899963839951	
2560000000.00008	-18.8140731077459	-93.6242281065073	-10.0119065185843	134.745555872472	-46.2560142616368	123.31107081197	-28.1141821694725	2.30588009478026	
2560333333.33341	-18.7951613417987	-94.5384780318654	-10.0036930652931	132.44451714666	-46.4714688432225	120.991518466844	-27.7455381426603	2.3188916616255	
2560666666.66674	-18.7661237257756	-95.2916288749216	-9.99698371954999	130.167650744485	-46.6910959989328	121.029956455336	-27.3281246431698	2.30199698764485	
2561000000.00008	-18.7085863343151	-96.1071760872813	-9.99321350217914	127.858947839382	-46.3288365633427	116.578518917556	-26.9989768488225	2.37455770732438	
2561333333.33341	-18.6594676793711	-96.8378076419405	-9.99323050918728	125.533549381968	-46.1268865056132	112.48080612596	-26.6434176091199	2.2202985889865	
2561666666.66674	-18.6095735261893	-97.5602668792393	-9.9883152157663	123.191199254231	-46.1349259228193	110.2490520115	-26.2962472054692	2.07596113386932	
2562000000.00008	-18.556281951698	-98.385247071092	-9.98725958665446	120.843939169052	-46.0873650937142	108.793657952061	-26.0022250117548	2.16461632350676	
2562333333.33341	-18.5219658079155	-99.246313854237	-9.98493837694339	118.565517989804	-46.3892305775334	108.81741747394	-25.7191796668033	2.20294608201529	
2562666666.66674	-18.4536260504573	-100.024031208834	-9.98317968382646	116.199033535003	-46.3036015292965	102.943547473555	-25.4597068848294	2.11165474626774	
2563000000.00008	-18.4008656847855	-100.874750932437	-9.97449797340608	113.880304794117	-46.0610992439968	103.050820380786	-25.2038040009014	2.19891674952165	
2563333333.33341	-18.3394891059917	-101.544193648878	-9.97532005870227	111.531759062698	-46.2192847454549	100.738065733102	-24.9543788271115	2.26589895284262	
2563666666.66674	-18.2658934421554	-102.327891511206	-9.97170799978425	109.209573127653	-46.3825955666899	99.9177769841208	-24.7327086538777	2.13047848951543	
2564000000.00008	-18.2226380158394	-102.96880567824	-9.97441518003289	106.850468207072	-46.130822301696	95.3149194438562	-24.5464508197498	2.32037524404877	
2564333333.33341	-18.1747992046499	-103.7738693433	-9.97455146425307	104.520843526888	-46.1809649780323	93.5553740025211	-24.3577601402927	2.23825463329431	
2564666666.66675	-18.0875116133877	-104.531638784191	-9.96869672103332	102.169751830675	-46.0737192924186	88.3894965307727	-24.1837103149716	2.37050598031187	
2565000000.00008	-18.0468775855939	-105.151814769217	-9.97377718352237	99.783302218947	-46.0815582146523	88.290539511237	-23.9781866768064	2.28649407156099	
2565333333.33341	-17.9942729684537	-106.03166235821	-9.9791107836941	97.4514189239982	-46.3390144360454	86.4811137852531	-23.8223696207155	2.46133981787061	
2565666666.66675	-17.9205994798645	-106.697311019286	-9.97852091483078	95.0623255246793	-46.291209341589	84.0706203710982	-23.6859765467257	2.6932660875791	
2566000000.00008	-17.86614604009	-107.52339750087	-9.98253046360463	92.7009089262582	-46.4864538389977	81.4306979885182	-23.5410202874636	2.64051006201696	
2566333333.33341	-17.8128446179472	-108.260904901859	-9.98428530229527	90.3153577956723	-46.0784042329883	79.4324226095875	-23.4056557568602	2.9273587947647	
2566666666.66675	-17.7693313371298	-108.926780573857	-9.98690624916653	87.9709893679755	-46.1222119020161	75.9614217329645	-23.2795736408624	2.8044946617303	
2567000000.00008	-17.697763432648	-109.714835893043	-9.99203395012171	85.5789723507072	-46.4850228165631	72.6329581960947	-23.1467608450991	2.90256981846542	
2567333333.33341	-17.6519953606503	-110.361047418941	-9.99242814610268	83.2178422518805	-46.3966171786694	71.9647718638285	-23.0769716513048	2.91382691696066	
2567666666.66675	-17.615857318155	-111.108550008786	-10.0025158778424	80.8110450023763	-46.2174052189442	69.5825500618373	-22.9703951181332	3.29486885013899	
2568000000.00008	-17.5626183976271	-111.775935278511	-10.0066984552973	78.4745839291196	-46.2828102556964	67.9725396880654	-22.8986398312948	3.25749419322449	
2568333333.33341	-17.522657494885	-112.56556852623	-10.010053017855	76.0902623518857	-46.0951452156126	66.2284429391002	-22.7749535868509	3.50387878429815	
2568666666.66675	-17.4772118128186	-113.228986261224	-10.0107389090419	73.7162221210972	-46.392510522821	63.545896000729	-22.7175321304259	3.66418242166933	
2569000000.00008	-17.4506359470142	-113.89667543638	-10.027516522017	71.3360512302027	-46.3035790762744	61.5061425048456	-22.6381647526722	3.67254804315061	
2569333333.33341	-17.3896603898179	-114.540806064882	-10.0309445999681	68.9724539724736	-46.4231999098036	57.3171334764905	-22.5787625537112	3.87950565458715	
2569666666.66675	-17.3647002343542	-115.281231722923	-10.0433113130319	66.6132691385608	-46.4350529993111	57.1618986082418	-22.5319374782332	3.73317450384846	
2570000000.00008	-17.3387525895303	-115.890659939983	-10.0526569457407	64.2320790230706	-46.5402984906179	52.8601688075867	-22.4716058279841	4.32250296492257	
2570333333.33341	-17.3091720222197	-116.667201290095	-10.05654335529	61.8592336906868	-46.4312400230312	49.4374941553384	-22.4621912171789	4.34607444137193	
2570666666.66675	-17.2821790298256	-117.18138846955	-10.0640773541334	59.4672658887367	-46.4071961608649	47.3710331743237	-22.3954181089282	4.46438872580234	
2571000000.00008	-17.2596733649283	-117.899422738306	-10.0751893441005	57.1769279380463	-46.2895630284756	45.5539828654058	-22.37305568531	4.602298076314	
2571333333.33342	-17.2308145710448	-118.578672157534	-10.0794815304523	54.7516004990303	-46.4450210000815	45.476353934249	-22.332936516059	5.04449132150971	
2571666666.66675	-17.2377041478791	-119.357406034449	-10.0959953972746	52.4026622658955	-46.2688193354958	42.3655942870007	-22.299538937451	4.99706144766537	
2572000000.00008	-17.2093450275728	-119.895084933181	-10.103008066027	50.0996497489885	-46.2691164120322	39.1412263124646	-22.318892868901	5.26664878541681	
2572333333.33342	-17.221687005707	-120.496134476125	-10.1030747849958	47.8143250945836	-46.4084888619448	37.4386305198308	-22.3036670622874	5.37400259500075	
2572666666.66675	-17.2084644651309	-121.113490654687	-10.1193321831515	45.4162287169397	-46.2934828759293	34.7619860656899	-22.3008519011055	5.48783530561382	
2573000000.00008	-17.2077448636374	-121.758604679167	-10.124212854466	43.1062307339389	-46.3063693294039	32.2551628818746	-22.3033021047154	5.78366059561176	
2573333333.33342	-17.2068044918915	-122.447294452429	-10.1378911902484	40.7611580573294	-46.406549300266	29.8020515878376	-22.3157455061407	5.81994895953429	
2573666666.66675	-17.2115830456127	-123.069239110347	-10.1473931626226	38.4932642372478	-46.3414721653376	29.1753633121859	-22.3377124195702	6.06023469781583	
2574000000.00008	-17.2118991111306	-123.722238669776	-10.1534934044086	36.1914167680205	-46.401825934881	26.3535875418736	-22.3966348748378	6.30739850002899	
2574333333.33342	-17.2316615460167	-124.217488654112	-10.1610332162236	33.8925138784645	-46.5921346364197	23.7786486670018	-22.4090542907994	6.33531017895635	
2574666666.66675	-17.2366323222527	-124.937975760459	-10.1650649028441	31.5768402440987	-46.3553182176201	22.8205206704172	-22.4495537527251	6.93452076576675	
2575000000.00008	-17.2622819909457	-125.472895402067	-10.1709755631714	29.3019348310869	-46.3740107232039	20.5195181605095	-22.5166435262584	6.89859506135925	
2575333333.33342	-17.2650640841855	-126.210415523123	-10.1741048834537	27.0284863910415	-46.391639003808	16.9589337159182	-22.559984838921	7.24398988860514	
2575666666.66675	-17.3259520521874	-126.775240472538	-10.1807028124305	24.7452976573018	-46.5972796786242	14.5611628259703	-22.6355505040282	7.32469786540896	
2576000000.00008	-17.3346727295432	-127.383758480511	-10.1875231599889	22.4685243522435	-46.6507565223622	12.3115208616991	-22.7197710404885	7.77581825911589	
2576333333.33342	-17.3722064346442	-127.937057297082	-10.1876938596154	20.1913150024889	-46.6215751020669	9.70976524394146	-22.7685246369537	7.88053049757898	
2576666666.66675	-17.4048249865699	-128.749197721439	-10.1927653528914	17.9326336182511	-46.8359987201332	7.92375727739058	-22.8759197063147	8.19501819448479	
2577000000.00008	-17.4531222376206	-129.393183752681	-10.1974000569573	15.6879724818773	-46.6556306914043	4.08407887290372	-22.9636219245606	8.58816700910208	
2577333333.33342	-17.5166039730885	-130.211092746208	-10.2005329165368	13.4053096562331	-46.4035874992574	4.12849579518932	-23.0758131198353	8.90308198705141	
2577666666.66675	-17.5583929246477	-130.775486263627	-10.1990713363255	11.1751011328962	-46.6305251774773	1.23725871009843	-23.1688666288318	9.10861168075393	
2578000000.00008	-17.6077335618551	-131.399154866725	-10.2015950300846	8.92731889734484	-46.906104978579	-1.19398459233494	-23.2711498318543	9.10617432329552	
2578333333.33342	-17.6688563466562	-132.086338225064	-10.2045149345352	6.68312028276995	-46.3058193361508	-3.21491338017849	-23.3953691941371	9.34368573737445	
2578666666.66675	-17.7320395363543	-132.731891300445	-10.1996932399123	4.43941195048819	-46.5266181586889	-6.88750752680833	-23.5227468208285	9.94559052579312	
2579000000.00009	-17.7915392544446	-133.490921533737	-10.2050165244564	2.22804295256947	-46.6362524302376	-8.15024350942696	-23.6648086164566	10.4890320123262	
2579333333.33342	-17.8511194469888	-134.100129934973	-10.2027784838994	-0.0489139372359974	-46.5358619201996	-11.3440983938461	-23.8543155277623	10.849810641568	
2579666666.66675	-17.9327565348913	-134.858187197972	-10.2041493078185	-2.2558090280523	-46.7921097774047	-13.3477236340223	-23.9868358977596	11.1955483520412	
2580000000.00009	-18.0222216694479	-135.636669102561	-10.19872067385	-4.46380112723153	-46.8843062128574	-13.8658083718821	-24.1839040927239	11.4955328195791	
2580333333.33342	-18.1066020005181	-136.238880611301	-10.1936564355798	-6.76196340910842	-46.7245643331875	-19.7449936050115	-24.3575226953143	12.0454191808959	
2580666666.66675	-18.1799768949931	-137.048421970944	-10.1947237543717	-9.00228994476172	-46.645569689828	-19.2162624469035	-24.5169556659904	12.5001872053355	
2581000000.00009	-18.2952439510325	-137.840198354178	-10.1829172000639	-11.2252910728832	-46.5841387634462	-21.4727019729989	-24.7146584704248	13.0436615725495	
2581333333.33342	-18.3878931992299	-138.451782042926	-10.187608133868	-13.4931780907513	-46.7035646513813	-23.5565465758848	-24.9139511177584	13.4293597294339	
2581666666.66675	-18.4567720858568	-139.363235863753	-10.17907998306	-15.7043347081036	-46.8601245786166	-25.5644796597483	-25.1597679930215	14.1159383148967	
2582000000.00009	-18.568589287181	-140.121631500225	-10.1739691070172	-17.9477646952217	-46.6731598415835	-27.5573427899063	-25.3924086758584	14.7966259436223	
2582333333.33342	-18.711711031775	-140.755339240589	-10.1700917838101	-20.1849084020062	-46.5269906206583	-31.3465918308152	-25.6719638127717	15.3640053364449	
2582666666.66675	-18.8025963018858	-141.641747893039	-10.1704066571148	-22.4388991957016	-46.5638282973172	-33.8483865022257	-25.8810969429426	16.42803224736	
2583000000.00009	-18.9011842769046	-142.310761235337	-10.1614337723642	-24.6160307799889	-46.768651153188	-34.3948293288103	-26.1223605845387	17.2970323754078	
2583333333.33342	-18.9996905542356	-143.028794032093	-10.1559540424031	-26.9518772254581	-46.515607449223	-36.7982184350944	-26.3608153190637	18.4334094531794	
2583666666.66675	-19.1234330999357	-143.948009156314	-10.1487486205678	-29.1609660864935	-46.5410680423326	-39.7807738645276	-26.698894166939	19.3164122967717	
2584000000.00009	-19.2621650097032	-144.795801233507	-10.1491876823694	-31.4482228902371	-46.5514417372706	-42.5574678734255	-26.9594070736824	20.4059611232331	
2584333333.33342	-19.3900133324221	-145.537172881859	-10.1409071287641	-33.6331735933301	-46.7143736125301	-43.6988504100304	-27.289215144402	21.4838965860316	
2584666666.66675	-19.5289952815954	-146.415876693038	-10.1372314074849	-35.8863846945873	-46.7998358594874	-47.0268261364011	-27.6448387646058	22.956784522869	
2585000000.00009	-19.6077432643556	-147.493045288022	-10.1367096611072	-38.1867641185841	-46.5540355237759	-49.4335099135834	-27.9101667782032	24.5131402067022	
2585333333.33342	-19.7549557118925	-148.287298737449	-10.1252245800956	-40.3848208702298	-46.7642773711472	-49.8396616037041	-28.2499433183948	26.057398504409	
2585666666.66676	-19.8576457018856	-149.102723435119	-10.1251901638367	-42.7064182082901	-46.6014771032851	-53.2578457901376	-28.5738167682014	27.5973543680449	
2586000000.00009	-20.017339305376	-150.156016724403	-10.1119961641671	-44.9530753295559	-46.8157631115296	-56.2774147406824	-28.881591590393	29.9254777756733	
2586333333.33342	-20.1282217585765	-151.060131715272	-10.1065874368621	-47.2210381167307	-46.701701282731	-58.8464983312535	-29.28666902945	31.9914465598813	
2586666666.66676	-20.312899711181	-152.007850886413	-10.0986779466239	-49.4936151496555	-46.5275381423538	-59.5327986330006	-29.5732411119619	34.2758086229915	
2587000000.00009	-20.4241118286717	-153.053741128321	-10.1026933832026	-51.7371613735449	-46.5780922605523	-61.8193999352296	-29.8943404526124	36.9613643540416	
2587333333.33342	-20.5782264562923	-154.153074134641	-10.0961992515976	-54.0035877085631	-46.5484262041926	-63.2043888957865	-30.2612850352337	39.5399718481544	
2587666666.66676	-20.7213402001868	-154.975643371327	-10.0929455772628	-56.2982391227295	-46.5673094157386	-66.9733538968892	-30.4963837400487	42.8751085490072	
2588000000.00009	-20.8371387787104	-156.216411378216	-10.0832183344062	-58.6134131808568	-46.5083742185433	-68.787882270997	-30.7632063495603	46.0697466384122	
2588333333.33342	-21.0049947221738	-157.275709557709	-10.0795004147774	-60.8906162697003	-46.3298273933491	-72.3987694136846	-31.0208633427097	49.6576913661614	
2588666666.66676	-21.1149101746307	-158.457927953184	-10.0766753187042	-63.1777705479959	-46.5845090817293	-73.8358143529128	-31.2067659831923	53.2336875887485	
2589000000.00009	-21.2620196693807	-159.553952065386	-10.0747681982713	-65.491147808074	-46.6271551338539	-77.362816887614	-31.3705341475794	56.6284680489493	
2589333333.33342	-21.4014770620617	-160.756565867356	-10.0737791157254	-67.7712651933488	-46.6814807273898	-78.7712141045734	-31.4973264402215	60.7271423466521	
2589666666.66676	-21.5373395096449	-162.040133509568	-10.0726251413836	-70.09012709161	-46.8124876481569	-79.6152899606073	-31.5627939921927	64.5516229912849	
2590000000.00009	-21.6358298739387	-163.308633872586	-10.0615594790815	-72.3791437786121	-46.6475753287353	-82.1899735893307	-31.6759172237056	68.0679510542498	
2590333333.33342	-21.7596951947597	-164.75943380607	-10.0652170515506	-74.6700707252878	-46.2494392784264	-85.113419215128	-31.5295947039782	72.2074057541689	
2590666666.66676	-21.871475167724	-165.899400251729	-10.0610898185099	-77.0211408094414	-46.6514441715891	-87.9355795743203	-31.4915514942624	76.1171047306308	
2591000000.00009	-22.0282298527476	-167.404487070335	-10.0593374798324	-79.3036595001131	-46.626209929535	-88.7493528378065	-31.3555972965548	79.6692692301171	
2591333333.33342	-22.1171309921422	-168.737158060401	-10.0551517967349	-81.6291343562824	-46.1583124459886	-91.0574278907878	-31.1369629016577	82.775730362433	
2591666666.66676	-22.2335998627596	-170.470054877232	-10.0530330225448	-83.9874100979298	-46.4842577222549	-94.5208783150158	-30.9951460994226	85.6602257823179	
2592000000.00009	-22.3273719207794	-171.910662673474	-10.0538599594642	-86.2844229758405	-46.9399243770386	-95.8610046747742	-30.8097105283493	88.6632765268264	
2592333333.33343	-22.3892617576306	-173.274602273885	-10.0495326817656	-88.6299176782655	-46.6295651096358	-98.6242480597262	-30.5520854070182	91.2714290264539	
2592666666.66676	-22.5145584770296	-174.901068030242	-10.0503842487505	-90.9721887087219	-46.5742584958369	-101.757511026906	-30.3200007152518	93.3860579753542	
2593000000.00009	-22.5734215500289	-176.84895570854	-10.0506651097328	-93.2560441087408	-46.3676604350444	-103.239062656314	-30.0419709558632	95.3934059489478	
2593333333.33343	-22.6497076069295	-178.612300919787	-10.0581876800934	-95.6182335977703	-46.5430961780771	-106.140673524801	-29.8023739581429	97.2890383266235	
2593666666.66676	-22.712619127906	179.570879374073	-10.0561720403561	-97.9545840040262	-46.6392072478278	-108.878559651717	-29.5534777238446	99.1906361342403	
2594000000.00009	-22.7519326488793	177.717057967776	-10.0573735882178	-100.288200888865	-46.4733294921026	-110.58242470527	-29.3027654748968	100.214543600336	
2594333333.33343	-22.7662780743001	175.851451203609	-10.0554277194964	-102.632326299058	-46.4686351848946	-111.909197891881	-29.0602386937862	101.495349925412	
2594666666.66676	-22.8052142605272	174.077616369866	-10.0631117360595	-104.959751692593	-46.3888335771792	-114.56142938397	-28.8660958306419	102.440668240528	
2595000000.00009	-22.8001345325552	172.02996837705	-10.0654130436484	-107.331822427927	-46.3423098091086	-116.402286202604	-28.5880839658026	103.128127748842	
2595333333.33343	-22.7868200945368	169.870362182986	-10.0596750187326	-109.633727395589	-46.3965979775756	-120.195862558925	-28.3374413770365	103.817483938768	
2595666666.66676	-22.7679178724518	168.034486759415	-10.0626750157528	-111.941284239686	-46.4712191675932	-121.780593256655	-28.1293814052741	104.30490130425	
2596000000.00009	-22.7579411588437	165.895187220604	-10.0733171634456	-114.258453739049	-46.2401688135426	-125.346763233198	-27.9374370030753	104.375862148164	
2596333333.33343	-22.7006076203432	163.869995376048	-10.0737976450943	-116.599529110989	-46.4345580664363	-126.555093281384	-27.7877795081596	104.612869356802	
2596666666.66676	-22.6119191766541	161.692003056068	-10.0829533104525	-118.980194215474	-46.4615179647132	-128.504079502892	-27.6396854685824	104.542991589325	
2597000000.00009	-22.5721089873782	159.696308512564	-10.0882616971081	-121.264752625224	-46.3722283006368	-128.491357285524	-27.4600998576667	104.408709457371	
2597333333.33343	-22.4713357668432	157.426645350898	-10.0873663918704	-123.57625753471	-46.3297034817742	-132.502353553037	-27.2649907480482	104.183929346487	
2597666666.66676	-22.3861385802765	155.471309620606	-10.1011288137878	-125.994993201987	-46.4322877452127	-136.01543932427	-27.1871429145342	103.885112540219	
2598000000.00009	-22.2789199364613	153.470802567515	-10.1050502884969	-128.272066813327	-46.6871940955618	-138.778961975306	-27.0235939042193	103.528903204423	
2598333333.33343	-22.1642075716593	151.646622180546	-10.1134969151288	-130.599893392891	-46.4468163164008	-140.099315478086	-26.9174647184333	102.912652650887	
2598666666.66676	-22.0394669651437	149.578441138703	-10.1181622331143	-132.932452834726	-46.2820090625281	-141.586241335009	-26.8298424978323	102.33535631351	
2599000000.00009	-21.9050976639507	147.676342670837	-10.1299137683615	-135.219662254777	-46.3055291870594	-147.156169608015	-26.7344474774256	101.339712553167	
2599333333.33343	-21.7909658520162	145.95580833618	-10.1413002475119	-137.487186787567	-46.5165738332747	-148.043349845986	-26.6309452247114	100.563227148023	
2599666666.66676	-21.6499873847982	144.024325528835	-10.1531841334989	-139.793706977128	-46.3228360828829	-149.311002166695	-26.5664915143592	99.8266873195227	
2600000000.0001	-21.5021646631846	142.097295632033	-10.1609989209824	-142.133492752771	-46.387791795271	-151.539815973513	-26.516977093153	98.8033199618381	
