29
1016.0 279.4 0 0.3250948520613682 -3.0499556634325833
965.1999999999999 1143.0 0 0 -3.040835167429528
990.5999999999999 889.0 0 0 -2.992460901994721
685.8 254.0 0 0 -2.734371092824648
685.8 838.1999999999999 0 0 -2.736538117129914
660.4 1168.3999999999999 0 0 -2.7212644034151507
736.5999999999999 533.4 0 0 -2.873200454061854
1193.8 660.4 0 0 -3.0971568015534725
508.0 25.4 0 0 -2.608350246508571
152.39999999999998 1041.3999999999999 0 0 -1.6928929610421641
660.4 0.0 0 0 -2.857295827166134
1397.0 787.4 0 0 2.4297716138842294
431.79999999999995 914.4 0 0 -2.6065973738048305
1193.8 1168.3999999999999 0 0 -2.9647066458909905
1295.3999999999999 50.8 0 0 -2.9754134593114085
254.0 228.6 0 0 -2.586774420452016
127.0 838.1999999999999 0 0 -2.565014549381262
1244.6 939.8 0 0 -2.6667679910054365
1371.6 584.1999999999999 0 0 -2.7618526993925365
0.0 1066.8 0 0 -2.5008796964671314
558.8 863.5999999999999 0 0 3.012879655796018
330.2 1168.3999999999999 0 0 -2.995486455038736
584.1999999999999 177.79999999999998 0 0 2.9488598554705425
228.6 355.59999999999997 0 0 -2.9008470908466335
279.4 558.8 0 0 -2.9876476372177225
1498.6 304.79999999999995 0 0 -2.7812151010951385
1422.3999999999999 1092.2 0 0 -2.3878860504535577
0.0 482.59999999999997 0 0 -3.01245213646974
101.6 304.79999999999995 0 0 3.0207038308085186
